0.0782209777628682,0.00214319351914494
0.351426468566578,-0.280131068270609
-0.0887699477935926,-0.322431071087932
0.615685561521847,-0.251497099168432
1.32014107083729,-0.180563127248932
0.0079090528405239,-0.817058148327867
-0.526362638833592,-0.25351325151119
-1.06063433050771,0.310031645305487
0.249191648923234,0.151973642616172
0.157730593341769,-0.770118723611581
