0.680403954215699,0.112092168329199
-0.286763386213914,0.265174158136129
-0.713228529923674,0.736643390693588
-0.542496251432908,-0.331648498447687
-0.371763972942142,-1.39994038758896
0.325354076390612,0.751669863449136
0.596425453106321,0.685738751885291
0.86749682982203,0.619807640321446
0.260748271381247,-0.984981328869418
-0.195247539107903,0.216500992267045
