0.923748413136347,-0.562294173431338
0.917899530790812,-0.55334150980972
0.912045513230317,-0.544469655967446
0.906186507638135,-0.535678230342289
0.900322661197538,-0.526966851372023
0.894454121091798,-0.518335137494422
0.888581034504185,-0.50978270714726
0.882703548617973,-0.501309178768312
0.876821810616433,-0.492914170795351
0.870935967682837,-0.484597301666151
0.865046167000456,-0.476358189818486
0.859152555752563,-0.468196453690131
0.853255281122429,-0.460111711718858
0.847354490293327,-0.452103582342444
0.841450330448527,-0.44417168399866
0.835542948771303,-0.436315635125281
0.829632492444926,-0.428535054160082
0.823719108652667,-0.420829559540837
0.817802944577798,-0.413198769705318
0.811884147403592,-0.405642303091301
0.80596286431332,-0.398159778136559
0.800039242490255,-0.390750813278867
0.794113429117667,-0.383415026955998
0.788185571378829,-0.376152037605727
0.782255816457013,-0.368961463665826
0.77632431153549,-0.361842923574072
0.770391203797532,-0.354796035768237
0.764456640426411,-0.347820418686095
0.7585207686054,-0.34091569076542
0.75258373551777,-0.334081470443987
0.746645688346792,-0.32731737615957
0.740706774275738,-0.320623026349942
0.734767140487882,-0.313998039452877
0.728826934166493,-0.307442033906151
0.722886302494845,-0.300954628147535
0.716945392656208,-0.294535440614805
0.711004351833856,-0.288184089745735
0.705063327211059,-0.281900193978098
0.699122465971089,-0.275683371749669
0.693181915297219,-0.269533241498221
0.687241822372721,-0.263449421661529
0.681302334380865,-0.257431530677367
0.675363598504924,-0.251479186983508
0.66942576192817,-0.245592009017727
0.663488971833874,-0.239769615217797
0.65755337540531,-0.234011624021493
0.651619119825747,-0.228317653866589
0.645686352278458,-0.222687323190859
0.639755219946716,-0.217120250432076
0.633825870013792,-0.211616054028015
0.627898449662957,-0.206174352416449
0.621973106077484,-0.200794764035154
0.616049986440644,-0.195476907321902
0.61012923793571,-0.190220400714468
0.604211007745952,-0.185024862650625
0.598295443054644,-0.179889911568149
0.592382691045056,-0.174815165904812
0.586472898900462,-0.169800244098389
0.580566213804131,-0.164844764586653
0.574662782939337,-0.15994834580738
0.568762753489352,-0.155110606198342
0.562866272637446,-0.150331164197315
0.556973487566892,-0.145609638242071
0.551084545460963,-0.140945646770385
0.545199593502929,-0.136338808220031
0.539318778876062,-0.131788741028783
0.533442248763635,-0.127295063634414
0.527570150348918,-0.1228573944747
0.521702630815185,-0.118475351987414
0.515839837345707,-0.114148554610329
0.509981917123756,-0.10987662078122
0.504129017332603,-0.105659168937862
0.49828128515552,-0.101495817518027
0.49243886777578,-0.0973861849594908
0.486601912376654,-0.0933298897000261
0.480770566141414,-0.0893265501774075
0.474944976253332,-0.085375784829409
0.46912528989568,-0.0814772120938045
0.463311654251729,-0.077630450408368
0.457504216504751,-0.0738351182108736
0.451703123838019,-0.0700908339390953
0.445908523434804,-0.0663972160308071
0.440120562478378,-0.062753882923783
0.434339388152012,-0.059160453055797
0.42856514763898,-0.0556165448646231
0.422797988122551,-0.0521217767880354
0.417038056785999,-0.0486757672638078
0.411285500812596,-0.0452781347297143
0.405540467385612,-0.0419284976235291
0.399803103688321,-0.038626474383026
0.394073556903992,-0.0353716834459791
0.3883519742159,-0.0321637432501624
0.382638502807315,-0.0290022722333499
0.37693328986151,-0.0258868888333157
0.371236482561755,-0.0228172114878338
0.365548228091324,-0.019792858634678
0.359868673633487,-0.0168134487116226
0.354197966371518,-0.0138786001564415
0.348536253488686,-0.0109879314069086
0.342883682168265,-0.00814106090079796
0.337240399593527,-0.0053376070758837
0.331606552947742,-0.00257718836993981
0.325982289414184,0.000140576779259841
0.320367756176123,0.00281606993394107
0.314763100416832,0.00544967265632994
0.309168469319583,0.00804176650865242
0.303584010067646,0.0105927330531345
0.298009869844295,0.0131029538520023
0.292446195832801,0.0155728104674815
0.286893135216437,0.0180026844617984
0.281350835178472,0.0203929573971788
0.275819442902181,0.0227440108358488
0.270299105570834,0.0250562263400343
0.264789970367703,0.0273299854719614
0.25929218447606,0.029565669793856
0.253805895079177,0.031763660867944
0.248331249360327,0.0339243402564516
0.24286839450278,0.0360480895216047
0.237417477689808,0.0381352902256291
0.231978646104684,0.0401863239307511
0.22655204693068,0.0422015721991965
0.221137827351066,0.0441814165931914
0.215736134549115,0.0461262386749616
0.2103471157081,0.0480364200067333
0.204970918011291,0.0499123421507323
0.19960768864196,0.0517543866691848
0.19425757478338,0.0535629351243166
0.188920723618822,0.0553383690783538
0.183597282331558,0.0570810700935224
0.17828739810486,0.0587914197320482
0.172991218121999,0.0604697995561574
0.167708889566249,0.0621165911280759
0.16244055962088,0.0637321760100297
0.157186375469164,0.0653169357642448
0.151946484294373,0.0668712519529471
0.14672103327978,0.0683955061383627
0.141510169608655,0.0698900798827176
0.136314040464271,0.0713553547482377
0.1311327930299,0.0727917122971491
0.125966574488813,0.0741995340916776
0.120815532024282,0.0755792016940494
0.11567981281958,0.0769310966664904
0.110559564057977,0.0782556005712265
0.105454932922747,0.0795530949704839
0.10036606659716,0.0808239614264883
0.0952931122644881,0.0820685815014659
0.0902362171080041,0.0832873367576426
0.0851955283109792,0.0844806087572445
0.0801711930566855,0.0856487790624974
0.0751633585283947,0.0867922292356275
0.0701721719093787,0.0879113408388607
0.0651977803829093,0.0890064954344228
0.0602403311322584,0.0900780745845401
0.055299971340698,0.0911264598514385
0.0503768481914996,0.0921520327973439
0.0454711088679352,0.0931551749844822
0.0405829005532769,0.0941362679750796
0.0357123704307962,0.095095693331362
0.0308596656837652,0.0960338326155554
0.0260249334954554,0.0969510673898857
0.0212083210491392,0.0978477792165791
0.0164099755280881,0.0987243496578614
0.0116300441155738,0.0995811602759586
0.00686867399486851,0.100418592633097
0.00212601234924384,0.101237028291502
-0.00259779363802815,0.1020368488134
-0.0073025967836759,0.102818435761017
-0.0119882499044273,0.103582170696578
-0.0166546058170106,0.104328435182311
-0.0213015173381539,0.10505761078044
-0.0259288372845855,0.105770079053193
-0.0305364184730335,0.106466221562794
-0.0351241137202259,0.10714641987147
-0.0396917758428909,0.107811055541447
-0.0442392576577568,0.10846051013495
-0.0487664119815516,0.109095165214206
-0.0532730916310035,0.109715402341442
-0.0577591494228406,0.110321603078882
-0.0622244381737912,0.110914148988752
-0.0666688107005833,0.111493421633279
-0.071092119819945,0.11205980257469
-0.0754942183486046,0.112613673375208
-0.0798749591032902,0.113155415597062
-0.08423419490073,0.113685410802476
-0.088571778557652,0.114204040553677
-0.0928875628907844,0.114711686412891
-0.0971814007168555,0.115208729942343
-0.101453144852593,0.115695552704259
-0.105702648114726,0.116172536260867
-0.109929763319982,0.116640062174391
-0.114134343285089,0.117098512007058
-0.118316240826775,0.117548267321093
-0.122475308761769,0.117989709678723
-0.126611399906798,0.118423220642173
-0.130724367078591,0.11884918177367
-0.134814063093876,0.11926797463544
-0.138880340769381,0.119679980789708
-0.142923052921835,0.1200855817987
-0.146942052367964,0.120485159224643
-0.150937191924499,0.120879094629763
-0.154908324408166,0.121267769576285
-0.158855302635694,0.121651565626436
-0.16277797942381,0.122030864342441
-0.166676207589244,0.122406047286526
-0.170549839948723,0.122777496020918
-0.174398729318976,0.123145592107842
-0.17822272851673,0.123510717109525
-0.182021690358714,0.123873252588192
-0.185795467661656,0.124233580106069
-0.189543913242284,0.124592081225383
-0.193266879917326,0.12494913750836
-0.19696422050351,0.125305130517224
-0.200635787817565,0.125660441814203
-0.204281434676219,0.126015452961522
-0.207901013896199,0.126370545521408
-0.211494378294234,0.126726101056086
-0.215061380687052,0.127082501127782
-0.218601873891381,0.127440127298723
-0.22211571072395,0.127799361131133
-0.225602744001487,0.12816058418724
-0.229062826540718,0.128524178029269
-0.232495811158374,0.128890524219447
-0.235901550671182,0.129260004319999
-0.23927989789587,0.129632999893151
-0.242630705649166,0.130009892501129
-0.245953826747799,0.130391063706159
-0.249249114008496,0.130776895070467
-0.252516420247986,0.13116776815628
-0.255755598282996,0.131564064525823
-0.258966500930256,0.131966165741322
-0.262148981006493,0.132374453365003
-0.265302891328435,0.132789308959092
-0.268428084712811,0.133211114085815
-0.271524413976348,0.133640250307398
-0.274591731935775,0.134077099186068
-0.27762989140782,0.134522042284049
-0.280638745209211,0.134975461163569
-0.283618146156676,0.135437737386852
-0.286567947066944,0.135909252516126
-0.289488000756742,0.136390388113615
-0.292378160042799,0.136881525741547
-0.295238277741842,0.137383046962147
-0.298068206670601,0.13789533333764
-0.300867799645802,0.138418766430254
-0.303636909484175,0.138953727802213
-0.306375389002447,0.139500599015745
-0.309083091017347,0.140059761633074
-0.311759868345603,0.140631597216427
-0.314405573803942,0.141216487328031
-0.317020060209093,0.14181481353011
-0.319603180377785,0.142426957384891
-0.322154787126745,0.1430533004546
-0.324674733272701,0.143694224301462
-0.327162871632382,0.144350110487705
-0.329619055022515,0.145021340575553
-0.33204313625983,0.145708296127234
-0.334434968161054,0.146411358704972
-0.336794403542914,0.147130909870994
-0.33912129522214,0.147867331187525
-0.34141549601546,0.148621004216793
-0.343676858739601,0.149392310521022
-0.345905236211292,0.150181631662439
-0.348100481247261,0.150989349203269
-0.350262446664237,0.15181584470574
-0.352390985278946,0.152661499732076
-0.354485949908118,0.153526695844504
-0.35654719336848,0.154411814605249
-0.358574568476761,0.155317237576539
-0.360567928049689,0.156243346320597
-0.362527124903991,0.157190522399652
-0.364452011856397,0.158159147375928
-0.366342441723635,0.159149602811652
-0.368198267322431,0.160162270269049
-0.370019341469516,0.161197531310346
-0.371805516981616,0.162255767497769
-0.373556646675459,0.163337360393543
-0.375272583367775,0.164442691559895
-0.376953179875291,0.16557214255905
-0.378598289014736,0.166726094953235
-0.380207763602837,0.167904930304676
-0.381781456456322,0.169109030175598
-0.383319220391921,0.170338776128227
-0.38482090822636,0.17159454972479
-0.386286372776368,0.172876732527513
-0.387715466858674,0.174185706098621
-0.389108043290005,0.17552185200034
-0.390463954887089,0.176885551794897
-0.391783054466656,0.178277187044517
-0.393065194845432,0.179697139311427
-0.394310228840146,0.181145790157852
-0.395518009267526,0.182623521146019
-0.3966883889443,0.184130713838153
-0.397821220687197,0.18566774979648
-0.398916357312944,0.187235010583227
-0.39997365163827,0.188832877760619
-0.400992956479904,0.190461732890882
-0.401974124654571,0.192121957536243
-0.402917008979003,0.193813933258927
-0.403821462269925,0.19553804162116
-0.404687337344067,0.197294664185169
-0.405514487018157,0.199084182513179
-0.406302764108922,0.200906978167416
-0.407052021433092,0.202763432710107
-0.407762111807393,0.204653927703477
-0.408432888048555,0.206578844709752
-0.409064202973305,0.208538565291158
-0.409655909398371,0.210533471009921
-0.410207860140482,0.212563943428268
-0.410719908016366,0.214630364108424
-0.411191905842751,0.216733114612615
-0.411623706436365,0.218872576503067
-0.412015162613937,0.221049131342006
-0.412366127192194,0.223263160691659
-0.412676452987864,0.22551504611425
-0.412945992817676,0.227805169172007
-0.413174599498358,0.230133911427155
-0.413362125846638,0.23250165444192
-0.413508424679244,0.234908779778528
-0.413613348812904,0.237355668999205
-0.413676751064347,0.239842703666177
-0.413698484250301,0.24237026534167
-0.413678401187493,0.24493873558791
-0.413616354692652,0.247548495967123
-0.413512197582506,0.250199928041536
-0.413365782673784,0.252893413373373
-0.413176962783212,0.255629333524861
-0.412945590727521,0.258408070058226
-0.412671519323437,0.261230004535694
-0.412354601387688,0.264095518519491
-0.411994689737004,0.267004993571843
-0.411591637188112,0.269958811254976
-0.41114529655774,0.272957353131116
-0.410655520662616,0.276001000762489
-0.410122162319469,0.279090135711321
-0.409545074345027,0.282225139539837
-0.408924109556018,0.285406393810265
-0.408259120769169,0.288634280084829
-0.40754996080121,0.291909179925756
-0.406796482468868,0.295231474895272
-0.405998538588872,0.298601546555603
-0.405155981977949,0.302019776468974
-0.404268665452827,0.305486546197613
-0.403336441830236,0.309002237303744
-0.402359163926903,0.312567231349594
-0.401336684559556,0.316181909897388
-0.400268856544923,0.319846654509354
-0.399155532699733,0.323561846747716
-0.397996565840714,0.327327868174701
-0.396791808784593,0.331145100352534
-0.395541114348099,0.335013924843443
-0.39424433534796,0.338934723209651
-0.392901324600905,0.342907877013387
-0.391511934923661,0.346933767816875
-0.390076019132956,0.351012777182342
-0.38859343004552,0.355145286672014
-0.387064020478079,0.359331677848116
-0.385487643247362,0.363572332272875
-0.383864151170097,0.367867631508516
-0.382193397063012,0.372217957117266
-0.380475233742836,0.376623690661351
-0.378709514026297,0.381085213702996
-0.376896090730122,0.385602907804428
-0.37503481667104,0.390177154527872
-0.373125544665779,0.394808335435555
-0.371168127531067,0.399496832089702
-0.369162418083633,0.40424302605254
-0.367108269140204,0.409047298886294
-0.365005533517509,0.413910032153191
-0.362854064032275,0.418831607415456
-0.360653713501232,0.423812406235316
-0.358404334741107,0.428852810174996
-0.356105780568627,0.433953200796723
-0.353757903800522,0.439113959662722
-0.35136055725352,0.444335468335219
-0.348913593744349,0.449618108376441
-0.346416866089736,0.454962261348613
-0.34387022710641,0.460368308813962
-0.341273529611099,0.465836632334713
-0.338626626420532,0.471367613473092
-0.335929370351436,0.476961633791326
-0.33318161422054,0.48261907485164
-0.330383210844571,0.48834031821626
-0.327534013040258,0.494125745447412
-0.324633873624329,0.499975738107324
-0.321682645413513,0.505890677758219
-0.318680181224537,0.511870945962324
-0.315626333874129,0.517916924281866
-0.312520956179018,0.52402899427907
-0.309363900955931,0.530207537516162
-0.306155021021598,0.536452935555368
-0.302894169192746,0.542765569958915
-0.299581198286102,0.549145822289028
-0.296215961118397,0.555594074107932
-0.292798310506356,0.562110706977855
-0.28932809926671,0.568696102461023
-0.285805180216185,0.57535064211966
-0.28222940617151,0.582074707515994
-0.278600629949413,0.58886868021225
-0.274918704366623,0.595732941770653
-0.271183482239867,0.602667873753431
-0.271183482239867,0.602667873753431
-0.267437974318601,0.609576117274946
-0.263725173605598,0.616360462390196
-0.26004490629756,0.623021514072363
-0.256396998591189,0.629559877294627
-0.252781276683188,0.635976157030168
-0.24919756677026,0.642270958252167
-0.245645695049106,0.648444885933805
-0.24212548771643,0.654498545048261
-0.238636770968934,0.660432540568717
-0.23517937100332,0.666247477468353
-0.23175311401629,0.671943960720349
-0.228357826204548,0.677522595297886
-0.224993333764796,0.682983986174145
-0.221659462893736,0.688328738322305
-0.21835603978807,0.693557456715548
-0.215082890644502,0.698670746327055
-0.211839841659733,0.703669212130005
-0.208626719030467,0.708553459097578
-0.205443348953405,0.713324092202957
-0.20228955762525,0.717981716419321
-0.199165171242705,0.72252693671985
-0.196070016002471,0.726960358077725
-0.193003918101252,0.731282585466126
-0.18996670373575,0.735494223858236
-0.186958199102668,0.739595878227232
-0.183978230398707,0.743588153546297
-0.181026623820571,0.74747165478861
-0.178103205564962,0.751246986927353
-0.175207801828582,0.754914754935706
-0.172340238808134,0.758475563786848
-0.16950034270032,0.761930018453961
-0.166687939701843,0.765278723910226
-0.163902856009405,0.768522285128823
-0.161144917819709,0.771661307082931
-0.158413951329457,0.774696394745732
-0.155709782735351,0.777628153090407
-0.153032238234095,0.780457187090136
-0.150381144022391,0.783184101718099
-0.14775632629694,0.785809501947476
-0.145157611254447,0.78833399275145
-0.142584825091612,0.790758179103199
-0.140037794005138,0.793082665975904
-0.137516344191729,0.795308058342746
-0.135020301848086,0.797434961176906
-0.132549493170913,0.799463979451563
-0.13010374435691,0.801395718139899
-0.127682881602782,0.803230782215094
-0.125286731105229,0.804969776650329
-0.122915119060956,0.806613306418783
-0.120567871666664,0.808161976493638
-0.118244815119056,0.809616391848074
-0.115945775614834,0.810977157455271
-0.113670579350701,0.812244878288411
-0.111419052523359,0.813420159320673
-0.109191021329511,0.814503605525238
-0.106986311965859,0.815495821875286
-0.104804750629106,0.816397413343999
-0.102646163515954,0.817208984904556
-0.100510376823105,0.817931141530139
-0.0983972167472625,0.818564488193927
-0.0963065094851286,0.819109629869101
-0.0942380812334057,0.819567171528842
-0.0921917581887963,0.81993771814633
-0.090167366548003,0.820221874694746
-0.0881647325077281,0.82042024614727
-0.0861836822646741,0.820533437477082
-0.0842240420155436,0.820562053657364
-0.0822856379570389,0.820506699661296
-0.0803682962858626,0.820367980462058
-0.0784718431987172,0.82014650103283
-0.076596104892305,0.819842866346794
-0.0747409075633287,0.819457681377129
-0.0729060774084907,0.818991551097018
-0.0710914406244934,0.818445080479638
-0.0692968234080393,0.817818874498172
-0.0675220519558309,0.8171135381258
-0.0657669524645707,0.816329676335703
-0.0640313511309611,0.81546789410106
-0.0623150741517047,0.814528796395052
-0.0606179477235039,0.813512988190861
-0.0589397980430611,0.812421074461666
-0.0572804513070789,0.811253660180648
-0.0556397337122597,0.810011350320986
-0.0540174714553061,0.808694749855864
-0.0524134907329204,0.80730446375846
-0.0508276177418052,0.805841097001954
-0.0492596786786628,0.804305254559528
-0.047709499740196,0.802697541404362
-0.046176907123107,0.801018562509637
-0.0446617270240983,0.799268922848533
-0.0431637856398725,0.79744922739423
-0.041682909167132,0.795560081119909
-0.0402189238025793,0.793602088998751
-0.0387716557429168,0.791575856003936
-0.0373409311848471,0.789481987108644
-0.0359265763250726,0.787321087286057
-0.0345284173602958,0.785093761509355
-0.0331462804872191,0.782800614751717
-0.0317799919025452,0.780442251986325
-0.0304293778029763,0.77801927818636
-0.029094264385215,0.775532298325
-0.0277744778459637,0.772981917375429
-0.026469844381925,0.770368740310824
-0.0251801901898014,0.767693372104368
-0.0239053414662952,0.764956417729242
-0.022645124408109,0.762158482158623
-0.0213993652119452,0.759300170365695
-0.0201678900745064,0.756382087323637
-0.018950525192495,0.75340483800563
-0.0177470967626134,0.750369027384855
-0.0165574309815642,0.74727526043449
-0.0153813540460499,0.744124142127719
-0.0142186921527728,0.74091627743772
-0.0130692714984355,0.737652271337675
-0.0119329182797404,0.734332728800763
-0.0108094586933901,0.730958254800166
-0.00969871893608698,0.727529454309064
-0.00860052520453352,0.724046932300637
-0.00751470369543224,0.720511293748066
-0.00644108060548557,0.716923143624531
-0.00537948213139604,0.713283086903214
-0.00432973446986605,0.709591728557294
-0.00329166381759816,0.705849673559951
-0.00226509637129479,0.702057526884368
-0.00124985832765842,0.698215893503723
-0.000245775883391548,0.694325378391198
0.000747324764803377,0.690386586519973
0.00172961742022384,0.686400122863229
0.0027012758861674,0.682366592394145
0.00366247396593158,0.678286600085903
0.00461338546281391,0.674160750911683
0.00555418418011188,0.669989649844666
0.00648504392112303,0.665773901858033
0.00740613848914489,0.661514111924962
0.008317641687475,0.657210885018636
0.00921972731941087,0.652864826112234
0.01011256918825,0.648476540178938
0.0109963410972899,0.644046632191927
0.0118712168498282,0.639575707124382
0.0127373702491624,0.635064369949484
0.0135949750985898,0.630513225640414
0.0144442052014083,0.625922879170351
0.0152852343609151,0.621293935512476
0.0161182363804079,0.61662699963997
0.0169433850631842,0.611922676526014
0.0177608542125414,0.607181571143787
0.0185708176317772,0.60240428846647
0.0193734491241891,0.597591433467245
0.0201689224930745,0.592743611119291
0.020957411541731,0.587861426395788
0.0217390900734561,0.582945484269918
0.0225141318915474,0.577996389714861
0.0232827107993023,0.573014747703797
0.0240450006000185,0.568001163209907
0.0248011750969933,0.562956241206371
0.0255514080935244,0.55788058666637
0.0262958733929093,0.552774804563085
0.0270347447984454,0.547639499869696
0.0277681961134304,0.542475277559383
0.0284964011411617,0.537282742605327
0.0292195336849369,0.532062499980709
0.0299377675480535,0.526815154658709
0.0306512765338089,0.521541311612507
0.0313602344455009,0.516241575815284
0.0320648150864267,0.510916552240221
0.0327651922598841,0.505566845860498
0.0334615397691705,0.500193061649295
0.0341540314175834,0.494795804579794
0.0348428410084203,0.489375679625174
0.0355281423449789,0.483933291758616
0.0362101092305565,0.478469245953301
0.0368889154684508,0.472984147182409
0.0375647348619592,0.467478600419121
0.0382377412143794,0.461953210636617
0.0389081083290087,0.456408582808077
0.0395760100091447,0.450845321906683
0.040241620058085,0.445264032905615
0.0409051122791271,0.439665320778052
0.0415666604755685,0.434049790497176
0.0422264384507067,0.428418047036168
0.0428846200078392,0.422770695368208
0.0435413789502637,0.417108340466475
0.0441968890812775,0.411431587304152
0.0448513242041782,0.405741040854418
0.0455048581222635,0.400037306090453
0.0461576646388306,0.394320987985439
0.0468099175571773,0.388592691512556
0.0474617906806009,0.382853021644984
0.0481134578123992,0.377102583355905
0.0487650927558695,0.371341981618497
0.0494168693143093,0.365571821405942
0.0500689612910163,0.359792707691421
0.050721542489288,0.354005245448114
0.0513747867124218,0.348210039649201
0.0520288677637153,0.342407695267863
0.052683959446466,0.33659881727728
0.0533402355639714,0.330784010650634
0.0539978699195292,0.324963880361104
0.0546570363164366,0.319139031381871
0.0553179085579914,0.313310068686115
0.0559806604474911,0.307477597247018
0.0566454657882331,0.301642222037759
0.057312498383515,0.295804548031519
0.0579819320366343,0.289965180201479
0.0586539405508885,0.284124723520819
0.0593286977295751,0.27828378296272
0.0600063773759918,0.272442963500361
0.060687153293436,0.266602870106924
0.0613711992852052,0.26076410775559
0.0620586891545969,0.254927281419538
0.0627497967049088,0.249092996071949
0.0634446957394382,0.243261856686004
0.0641435600614827,0.237434468234883
0.0648465634743399,0.231611435691767
0.0655538797813073,0.225793364029836
0.0662656827856824,0.219980858222271
0.0669821462907627,0.214174523242251
0.0677034440998457,0.208374964062959
0.0684297500162291,0.202582785657574
0.0691612378432102,0.196798592999277
0.0698980813840866,0.191022991061248
0.0706404544421559,0.185256584816668
0.0713885308207155,0.179499979238718
0.0721424843230631,0.173753779300577
0.072902488752496,0.168018589975426
0.0736687179123119,0.162295016236447
0.0744413456058083,0.156583663056819
0.0752205456362827,0.150885135409722
0.0760064918070325,0.145200038268338
0.0767993579213554,0.139528976605848
0.0775993177825489,0.13387255539543
0.0784065451939105,0.128231379610266
0.0792212139587376,0.122606054223537
0.0800434978803279,0.116997184208423
0.0808735707619789,0.111405374538104
0.0817116064069881,0.105831230185762
0.0825577786186529,0.100275356124576
0.083412261200271,0.0947383573277269
0.0842752279551399,0.0892208387683952
0.085146852686557,0.083723405419762
0.08602730919782,0.078246662255007
0.0869167712922262,0.0727912142473114
0.0878154127730734,0.0673576663698551
0.0887234074436588,0.0619466235958192
0.0896409291072802,0.0565586908983836
0.0905681515672351,0.0511944732507295
0.0915052486268209,0.0458545756260367
0.0924523940893351,0.0405396029974865
0.0934097617580754,0.0352501603382586
0.0943775254363391,0.0299868526215342
0.095355858927424,0.0247502848204933
0.0963449360346274,0.0195410619083168
0.0973449305612469,0.0143597888581848
0.09835601631058,0.00920707064327836
0.0993783670859243,0.00408351223677744
0.100412156690577,-0.00101028138813702
0.101457558927836,-0.00607370525828491
0.102514747600999,-0.0111061544004852
0.103583896513363,-0.016107023841558
0.104665179468226,-0.0210757086083221
0.105758770268885,-0.0260116037275977
0.106864842718638,-0.0309141042262037
0.107983570620783,-0.03578260513096
0.109115127778616,-0.0406165014686858
0.110259687995435,-0.0454151882662008
0.111417425074539,-0.0501780605503242
0.112588512819224,-0.0549045133478758
0.113773125032788,-0.0595939416856748
0.114971435518528,-0.0642457405905411
0.116183618079742,-0.0688593050892937
0.117409846519728,-0.0734340302087525
0.118650294641783,-0.0779693109757366
0.119905136249205,-0.082464542417066
0.12117454514529,-0.0869191195595595
0.122458695133338,-0.0913324374300372
0.123757760016644,-0.0957038910553182
0.125071913598507,-0.100032875462222
0.126401329682224,-0.104318785677569
0.127746182071093,-0.108561016728177
0.129106644568412,-0.112758963640867
0.130482890977477,-0.116912021442458
0.131875095101586,-0.121019585159768
0.133283430744037,-0.125081049819619
0.134708071708128,-0.129095810448829
0.136149191797155,-0.133063262074219
0.137606964814417,-0.136982799722606
0.139081564563211,-0.140853818420811
0.140573164846834,-0.144675713195653
0.142081939468584,-0.148447879073953
0.143608062231759,-0.152169711082528
0.145151706939656,-0.155840604248199
0.146713047395572,-0.159459953597786
0.148292257402805,-0.163027154158107
0.149889510764653,-0.166541600955982
0.151504981284413,-0.170002689018231
0.153138842765383,-0.173409813371673
0.154791269010859,-0.176762369043128
0.156462433824141,-0.180059751059415
0.158152511008525,-0.183301354447354
0.159861674367308,-0.186486574233764
0.161590097703789,-0.189614805445464
0.163337954821264,-0.192685443109275
0.165105419523032,-0.195697882252015
0.16689266561239,-0.198651517900504
0.168699866892635,-0.201545745081561
0.170527197167064,-0.204379958822007
0.172374830238977,-0.20715355414866
0.174242939911669,-0.209865926088341
0.176131699988439,-0.212516469667868
0.178041284272583,-0.21510457991406
0.179971866567401,-0.217629651853739
0.181923620676188,-0.220091080513722
0.183896720402242,-0.222488260920829
0.185891339548862,-0.224820588101881
0.187907651919345,-0.227087457083696
0.189945831316987,-0.229288262893094
0.192006051545087,-0.231422400556894
0.194088486406943,-0.233489265101916
0.196193309705851,-0.23548825155498
0.198320695245109,-0.237418754942904
0.200470816828015,-0.239280170292509
0.202643848257866,-0.241071892630614
0.204839963337961,-0.242793316984038
0.207059335871595,-0.2444438383796
0.209302139662067,-0.246022851844121
0.211568548512675,-0.24752975240442
0.213858736226715,-0.248963935087316
0.216172876607486,-0.250324794919629
0.218511143458285,-0.251611726928178
0.22087371058241,-0.252824126139782
0.223260751783157,-0.253961387581262
0.225672440863825,-0.255022906279437
0.228108951627711,-0.256008077261126
0.230570457878112,-0.256916295553148
0.233057133418327,-0.257746956182324
0.235569152051652,-0.258499454175472
0.238106687581385,-0.259173184559412
0.240669913810824,-0.259767542360964
0.243259004543266,-0.260281922606947
0.245874133582009,-0.260715720324181
0.24851547473035,-0.261068330539484
0.251183201791587,-0.261339148279678
0.253877488569017,-0.26152756857158
0.256598508865938,-0.261632986442011
0.259346436485647,-0.26165479691779
0.262121445231443,-0.261592395025736
0.264923708906621,-0.261445175792669
0.26775340131448,-0.261212534245409
0.270610696258318,-0.260893865410775
0.273495767541432,-0.260488564315586
0.276408788967119,-0.259996025986662
0.279349934338678,-0.259415645450823
0.282319377459404,-0.258746817734887
0.285317292132597,-0.257988937865675
0.288343852161554,-0.257141400870006
0.291399231349571,-0.256203601774699
0.294483603499947,-0.255174935606574
0.297597142415979,-0.25405479739245
0.300740021900965,-0.252842582159147
0.303912415758202,-0.251537684933484
0.307114497790988,-0.250139500742282
0.31034644180262,-0.248647424612358
0.313608421596396,-0.247060851570533
0.316900610975613,-0.245379176643627
0.320223183743569,-0.243601794858458
0.323576313703562,-0.241728101241847
0.326960174658888,-0.239757490820612
0.330374940412845,-0.237689358621573
0.333820784768732,-0.23552309967155
0.337297881529845,-0.233258108997363
0.340806404499482,-0.23089378162583
0.34434652748094,-0.228429512583771
0.347918424277517,-0.225864696898005
0.351522268692511,-0.223198729595353
0.355158234529219,-0.220431005702634
0.358826495590939,-0.217560920246666
0.362527225680967,-0.21458786825427
0.366260598602603,-0.211511244752266
0.370026788159142,-0.208330444767471
0.373825968153883,-0.205044863326707
0.377658312390123,-0.201653895456792
0.38152399467116,-0.198156936184547
0.385423188800292,-0.19455338053679
0.389356068580815,-0.19084262354034
0.393322807816027,-0.187024060222019
0.397323580309226,-0.183097085608644
0.40135855986371,-0.179061094727036
0.405427920282775,-0.174915482604013
0.40953183536972,-0.170659644266396
0.413670478927842,-0.166292974741004
0.417844024760438,-0.161814869054657
0.422052646670806,-0.157224722234173
0.426296518462244,-0.152521929306372
0.430575813938048,-0.147705885298075
0.434890706901518,-0.1427759852361
0.439241371155949,-0.137731624147266
0.44362798050464,-0.132572197058394
0.448050708750888,-0.127297098996303
0.452509729697991,-0.121905724987812
0.452509729697991,-0.121905724987812
0.456960200651628,-0.116494879288683
0.461357303728625,-0.111161482076396
0.465701249948999,-0.105905102260345
0.469992250332768,-0.100725308749926
0.474230515899946,-0.0956216704545321
0.478416257670551,-0.0905937562835591
0.4825496866646,-0.0856411351464017
0.486631013902108,-0.0807633759524547
0.490660450403094,-0.0759600476111129
0.494638207187573,-0.071230719031771
0.498564495275561,-0.0665749591238239
0.502439525687077,-0.0619923367966665
0.506263509442135,-0.0574824209596934
0.510036657560754,-0.0530447805222996
0.513759181062949,-0.0486789843938798
0.517431290968737,-0.0443846014838288
0.521053198298135,-0.0401612007015415
0.524625114071158,-0.0360083509564127
0.528147249307825,-0.031925621157837
0.531619815028152,-0.0279125802152095
0.535043022252155,-0.0239687970379249
0.53841708199985,-0.0200938405353779
0.541742205291255,-0.0162872796169635
0.545018603146387,-0.0125486831920764
0.54824648658526,-0.00887762017011138
0.551426066627893,-0.0052736594604633
0.554557554294302,-0.00173636997252697
0.557641160604504,0.00173467938430281
0.560677096578515,0.00513991970063122
0.563665573236352,0.00847978206706348
0.566606801598031,0.0117546975742048
0.569500992683569,0.0149650973126602
0.572348357512983,0.0181114123730351
0.575149107106289,0.0211940738459346
0.577903452483504,0.0242135128219639
0.580611604664644,0.0271701603917281
0.583273774669727,0.0300644476458325
0.585890173518768,0.0328968056748822
0.588461012231785,0.0356676655694826
0.590986501828794,0.0383774584202386
0.593466853329812,0.0410266153177556
0.595902277754855,0.0436155673526386
0.59829298612394,0.046144745615493
0.600639189457083,0.0486145811969239
0.602941098774302,0.0510255051875365
0.605198925095612,0.053377948677936
0.607412879441031,0.0556723427587275
0.609583172830575,0.0579091185205163
0.61171001628426,0.0600887070539076
0.613793620822104,0.0622115394495065
0.615834197464122,0.0642780467979182
0.617831957230332,0.0662886601897479
0.619787111140751,0.0682438107156009
0.621699870215394,0.0701439294660823
0.623570445474278,0.0719894475317972
0.625399047937421,0.073780796003351
0.627185888624838,0.0755184059713487
0.628931178556546,0.0772027085263956
0.630635128752562,0.0788341347590969
0.632297950232903,0.0804131157600577
0.633919854017585,0.0819400826198833
0.635501051126624,0.0834154664291787
0.637041752580038,0.0848396982785493
0.638542169397843,0.0862132092586002
0.640002512600055,0.0875364304599367
0.641422993206692,0.0888097929731638
0.64280382223777,0.0900337278888868
0.644145210713305,0.0912086662977108
0.645447369653314,0.0923350392902412
0.646710510077814,0.093413277957083
0.647934843006821,0.0944438133888414
0.649120579460353,0.0954270766761217
0.650267930458424,0.096363498909529
0.651377107021054,0.0972535111796685
0.652448320168256,0.0980975445771455
0.65348178092005,0.098896030192565
0.65447770029645,0.0996493991165323
0.655436289317475,0.100358082439653
0.656357759003139,0.101022511252531
0.657242320373461,0.101643116645773
0.658090184448456,0.102220329709983
0.658901562248141,0.102754581535767
0.659676664792533,0.103246303213731
0.660415703101649,0.103695925834478
0.661118888195505,0.104103880488614
0.661786431094117,0.104470598266745
0.662418542817503,0.104796510259476
0.663015434385679,0.105082047557412
0.663577316818661,0.105327641251157
0.664104401136466,0.105533722431318
0.664596898359112,0.1057007221885
0.665055019506613,0.105829071613307
0.665478975598988,0.105919201796345
0.665868977656253,0.105971543828218
0.666225236698423,0.105986528799534
0.666547963745517,0.105964587800895
0.666837369817551,0.105906151922908
0.66709366593454,0.105811652256178
0.667317063116502,0.10568151989131
0.667507772383454,0.105516185918909
0.667666004755411,0.105316081429581
0.667791971252392,0.10508163751393
0.667885882894411,0.104813285262562
0.667947950701487,0.104511455766081
0.667978385693635,0.104176580115094
0.667977398890873,0.103809089400205
0.667945201313215,0.10340941471202
0.667882003980681,0.102977987141144
0.667788017913286,0.102515237778181
0.667663454131046,0.102021597713737
0.667508523653978,0.101497498038418
0.6673234375021,0.100943369842828
0.667108406695426,0.100359644217573
0.666863642253976,0.0997467522532572
0.666589355197763,0.0991051250404868
0.666285756546807,0.0984351936698667
0.665953057321122,0.097737389232002
0.665591468540726,0.0970121428174978
0.665201201225635,0.0962598855169595
0.664782466395866,0.0954810484209921
0.664335475071435,0.094676062620201
0.66386043827236,0.0938453592051912
0.663357567018656,0.0929893692665679
0.662827072330341,0.0921085238949365
0.662269165227431,0.0912032541809019
0.661684056729942,0.0902739912150695
0.661071957857892,0.0893211660880444
0.660433079631296,0.0883452098904318
0.659767633070173,0.087346553712837
0.659075829194537,0.086325628645865
0.658357879024405,0.0852828657801211
0.657613993579796,0.0842186962062105
0.656844383880724,0.0831335510147383
0.656049260947207,0.0820278612963099
0.655228835799261,0.0809020581415301
0.654383319456903,0.0797565726410046
0.653512922940149,0.0785918358853382
0.652617857269017,0.0774082789651362
0.651698333463522,0.0762063329710039
0.650754562543681,0.0749864289935463
0.649786755529512,0.0737489981233688
0.64879512344103,0.0724944714510764
0.647779877298252,0.0712232800672744
0.646741228121196,0.0699358550625679
0.645679386929877,0.0686326275275622
0.644594564744311,0.0673140285528625
0.643486972584516,0.0659804892290739
0.642356821470509,0.0646324406468016
0.641204322422306,0.0632703138966509
0.640029686459924,0.0618945400692268
0.638833124603378,0.0605055502551346
0.637614847872686,0.0591037755449796
0.636375067287865,0.0576896470293668
0.635113993868931,0.0562635957989014
0.6338318386359,0.0548260529441888
0.63252881260879,0.0533774495558339
0.631205126807617,0.0519182167244422
0.629860992252398,0.0504487855406187
0.628496619963148,0.0489695870949685
0.627112220959885,0.047481052478097
0.625708006262626,0.0459836127806094
0.624284186891387,0.0444776990931106
0.622840973866185,0.042963742506206
0.621378578207035,0.041442174110501
0.619897210933956,0.0399134249966004
0.618397083066964,0.0383779262551096
0.616878405626074,0.0368361089766337
0.615341389631304,0.0352884042517779
0.613786246102671,0.0337352431711476
0.612213186060191,0.0321770568253476
0.61062242052388,0.0306142763049834
0.609014160513756,0.0290473327006602
0.607388617049834,0.027476657102983
0.605746001152133,0.0259026806025571
0.604086523840667,0.0243258342899877
0.602410396135454,0.0227465492558799
0.60071782905651,0.0211652565908391
0.599009033623853,0.0195823873854702
0.597284220857498,0.0179983727303785
0.595543601777462,0.0164136437161693
0.593787387403763,0.0148286314334478
0.592015788756415,0.013243766972819
0.590229016855437,0.0116594814248882
0.588427282720845,0.0100762058802606
0.586610797372655,0.00849437142954141
0.584779771830884,0.00691440916333576
0.582934417115549,0.00533675017224884
0.581074944246666,0.00376182554688592
0.579201564244252,0.00219006637785214
0.577314488128323,0.000621903755752697
0.575413926918896,-0.00094223122880726
0.573500091635989,-0.00250190748522247
0.571573193299616,-0.00405669392288773
0.569633442929796,-0.00560615945119798
0.567681051546544,-0.00714987297954797
0.565716230169877,-0.0086874034173324
0.563739189819813,-0.0102183196739462
0.561750141516367,-0.0117421906587841
0.559749296279555,-0.013258585281241
0.557736865129396,-0.0147670724507116
0.555713059085905,-0.0162672210765909
0.553678089169099,-0.0177586000682734
0.551632166398995,-0.0192407783351543
0.549575501795608,-0.020713324786628
0.547508306378957,-0.0221758083320897
0.545430791169057,-0.0236277978809338
0.543343167185925,-0.0250688623425555
0.541245645449578,-0.0264985706263493
0.539138436980032,-0.0279164916417103
0.537021752797305,-0.029322194298033
0.534895803921412,-0.0307152475047125
0.53276080137237,-0.0320952201711433
0.530616956170195,-0.0334616812067206
0.528464479334906,-0.0348141995208388
0.526303581886517,-0.0361523440228931
0.524134474845046,-0.0374756836222779
0.52195736923051,-0.0387837872283884
0.519772476062924,-0.0400762237506191
0.517580006362306,-0.041352562098365
0.515380171148672,-0.0426123711810208
0.513173181442039,-0.0438552199079814
0.510959248262423,-0.0450806771886415
0.508738582629842,-0.0462883119323961
0.506511395564311,-0.0474776930486398
0.504277898085847,-0.0486483894467675
0.502038301214468,-0.049799970036174
0.499792815970188,-0.0509320037262542
0.497541653373027,-0.0520440594264027
0.495285024442998,-0.0531357060460145
0.493023140200121,-0.0542065124944843
0.49075621166441,-0.055256047681207
0.488484449855883,-0.0562838805155774
0.486208065794556,-0.0572895799069902
0.483927270500447,-0.0582727147648403
0.48164227499357,-0.0592328539985225
0.479353290293944,-0.0601695665174315
0.477060527421585,-0.0610824212309624
0.474764197396509,-0.0619709870485096
0.472464511238733,-0.0628348328794683
0.470161679968274,-0.063673527633233
0.467855914605148,-0.0644866402191987
0.465547426169372,-0.0652737395467602
0.463236425680963,-0.0660343945253123
0.460923124159936,-0.0667681740642496
0.45860773262631,-0.0674746470729672
0.456290462100099,-0.0681533824608598
0.453971523601322,-0.0688039491373222
0.451651128149995,-0.0694259160117491
0.449329486766133,-0.0700188519935356
0.447006810469755,-0.0705823259920762
0.444683310280876,-0.0711159069167659
0.442359197219513,-0.0716191636769994
0.440034682305683,-0.0720916651821716
0.437709976559403,-0.0725329803416772
0.435385291000688,-0.0729426780649112
0.433060836649556,-0.0733203272612682
0.430736824526023,-0.0736654968401431
0.428413465650107,-0.0739777557109307
0.426090971041822,-0.0742566727830258
0.423769551721187,-0.0745018169658232
0.421449418708217,-0.0747127571687178
0.41913078302293,-0.0748890623011043
0.416813855685342,-0.0750303012723776
0.41449884771547,-0.0751360429919325
0.412185970133329,-0.0752058563691636
0.409875433958938,-0.075239310313466
0.407567450212312,-0.0752359737342344
0.405262229913468,-0.0751954155408635
0.402959984082422,-0.0751172046427483
0.400660923739193,-0.0750009099492835
0.398365259903795,-0.0748461003698639
0.396073203596246,-0.0746523448138844
0.393784965836561,-0.0744192121907396
0.391500757644759,-0.0741462714098246
0.389220790040855,-0.073833091380534
0.386945274044867,-0.0734792410122627
0.38467442067681,-0.0730842892144055
0.382408440956701,-0.0726478048963571
0.380147545904557,-0.0721693569675125
0.377891946540395,-0.0716485143372663
0.375641853884231,-0.0710848459150135
0.373397478956082,-0.0704779206101488
0.371159032775965,-0.069827307332067
0.368926726363895,-0.0691325749901631
0.36670077073989,-0.0683932924938317
0.364481376923966,-0.0676090287524676
0.362268755936141,-0.0667793526754657
0.36006311879643,-0.0659038331722208
0.35786467652485,-0.0649820391521276
0.355673640141418,-0.0640135395245811
0.35349022066615,-0.062997903198976
0.351314629119064,-0.0619346990847071
0.349147076520175,-0.0608234960911693
0.3469877738895,-0.0596638631277573
0.344836932247056,-0.0584553691038659
0.34269476261286,-0.05719758292889
0.340561476006928,-0.0558900735122244
0.338437283449277,-0.0545324097632639
0.336322395959923,-0.0531241605914031
0.334217024558883,-0.0516648949060372
0.332121380266174,-0.0501541816165607
0.330035674101813,-0.0485915896323686
0.327960117085815,-0.0469766878628555
0.325894920238197,-0.0453090452174165
0.323840294578977,-0.0435882306054461
0.321796451128171,-0.0418138129363394
0.319763600905795,-0.0399853611194909
0.317741954931866,-0.0381024440642957
0.3157317242264,-0.0361646306801484
0.313733119809415,-0.0341714898764439
0.311746352700927,-0.032122590562577
0.309771633920952,-0.0300175016479426
0.307809174489508,-0.0278557920419353
0.30585918542661,-0.0256370306539501
0.303921877752276,-0.0233607863933817
0.301997462486521,-0.021026628169625
0.300086150649363,-0.0186341248920747
0.298188153260819,-0.0161828454701258
0.296303681340904,-0.0136723588131728
0.294432945909636,-0.0111022338306108
0.292576157987031,-0.00847203943183435
0.290733528593106,-0.00578134452623853
0.288905268747877,-0.00302971802321794
0.287091589471361,-0.000216728832167577
0.285292701783575,0.00265805413751802
0.283508816704535,0.00559506197644363
0.281740145254257,0.0085947257752149
0.27998689845276,0.0116574766244367
0.278249287320058,0.0147837456147144
0.276527522876169,0.017973963836653
0.27482181614111,0.0212285623808581
0.273132378134896,0.0245479723379343
0.271459419877545,0.0279326247984872
0.269803152389073,0.0313829508531218
0.268163786689498,0.0348993815924436
0.266541533798834,0.0384823481070574
0.2649366047371,0.0421322814875686
0.263349210524311,0.0458496128245822
0.261779562180485,0.0496347732087038
0.260227870725638,0.0534881937305381
0.258694347179786,0.0574103054806907
0.257179202562946,0.0614015395497664
0.255682647895136,0.0654623270283709
0.25420489419637,0.0695930990071088
0.252746152486667,0.0737942865765858
0.251306633786043,0.0780663208274067
0.249886549114514,0.082409632850177
0.248486109492097,0.0868246537355016
0.247105525938808,0.0913118145739859
0.245745009474664,0.0958715464562351
0.244404771119683,0.100504280472854
0.24308502189388,0.105210447714449
0.241785972817272,0.109990479271624
0.240507834909875,0.114844806234984
0.239250819191707,0.119773859695135
0.238015136682784,0.124778070742682
0.236800998403122,0.129857870468231
0.235608615372739,0.135013689962385
0.23443819861165,0.140245960315752
0.233289959139873,0.145555112618935
0.232164107977423,0.15094157796254
0.231060856144319,0.156405787437171
0.229980414660576,0.161948172133436
0.22892299454621,0.167569163141938
0.22788880682124,0.173269191553282
0.22687806250568,0.179048688458075
0.225890972619548,0.18490808494692
0.224927748182861,0.190847812110424
0.223988600215634,0.196868301039191
0.223073739737886,0.202969982823827
0.222183377769631,0.209153288554937
0.221317725330887,0.215418649323126
0.220476993441671,0.221766496218999
0.219661393121999,0.228197260333161
0.218871135391888,0.234711372756218
0.218106431271355,0.241309264578775
0.217367491780415,0.247991366891437
0.216654527939086,0.254758110784808
0.215967750767384,0.261609927349496
0.215307371285326,0.268547247676104
0.214673600512928,0.275570502855237
0.214066649470208,0.282680123977502
0.213486729177181,0.289876542133502
0.212934050653865,0.297160188413844
0.212408824920276,0.304531493909133
0.21191126299643,0.311990889709973
0.211441575902345,0.31953880690697
0.210999974658037,0.327175676590729
0.210586670283522,0.334901929851856
0.210201873798817,0.342717997780954
0.209845796223939,0.350624311468631
0.209518648578904,0.35862130200549
0.209220641883729,0.366709400482138
0.208951987158431,0.374889037989178
0.208712895423026,0.383160645617218
0.208503577697531,0.39152465445686
0.208324245001962,0.399981495598711
0.208175108356337,0.408531600133377
0.208056378780671,0.417175399151462
