-0.442390048943365,-0.758081416021797
-0.329978980859529,0.290194219899959
-0.990944320952274,-0.138262554060082
-0.328637932090491,-0.119179488706956
0.333668456771292,-0.10009642335383
-0.223505616998696,0.388670245953435
0.423187259776564,-0.30474131186803
1.06988013655182,-0.998152869689496
-0.00430495316387991,-0.640647391981206
-0.806751877131993,-0.616740270086521
