0.782899849853402,0.603135464658333
0.778048818810607,0.591764872642165
0.773228377470987,0.580462212350708
0.768438360946717,0.569227268853743
0.763678604349972,0.558059827221047
0.758948942792925,0.546959672522398
0.754249211387752,0.535926589827576
0.749579245246628,0.524960364206358
0.744938879481726,0.514060780728524
0.740327949205222,0.503227624463852
0.73574628952929,0.49246068048212
0.731193735566104,0.481759733853106
0.72667012242784,0.471124569646591
0.722175285226672,0.46055497293235
0.717709059074774,0.450050728780164
0.713271279084321,0.439611622259811
0.708861780367487,0.42923743844107
0.704480398036449,0.418927962393718
0.700126967203379,0.408682979187534
0.695801322980452,0.398502273892298
0.691503300479844,0.388385631577786
0.687232734813729,0.378332837313779
0.68298946109428,0.368343676170054
0.678773314433674,0.358417933216389
0.674584129944084,0.348555393522564
0.670421742737686,0.338755842158357
0.666285987926653,0.329019064193546
0.66217670062316,0.319344844697911
0.658093715939382,0.309732968741228
0.654036868987494,0.300183221393278
0.65000599487967,0.290695387723837
0.646000928728085,0.281269252802686
0.642021505644913,0.271904601699602
0.638067560742329,0.262601219484364
0.634138929132508,0.25335889122675
0.630235445927624,0.244177401996539
0.626356946239851,0.23505653686351
0.622503265181365,0.225996080897441
0.61867423786434,0.216995819168109
0.614869699400951,0.208055536745295
0.611089484903372,0.199175018698777
0.607333429483777,0.190354050098332
0.603601368254342,0.181592416013739
0.599893136327241,0.172889901514778
0.596208568814649,0.164246291671226
0.59254750082874,0.155661371552862
0.588909767481689,0.147134926229465
0.58529520388567,0.138666740770812
0.581703645152858,0.130256600246683
0.578134926395428,0.121904289726855
0.574588882725554,0.113609594281109
0.57106534925541,0.105372298979221
0.567564161097173,0.0971921888909706
0.564085153363015,0.0890690490861364
0.560628161165112,0.0810026646344965
0.557193019615638,0.0729928206058295
0.553779563826769,0.0650393020699142
0.550387628910677,0.0571418940965289
0.547017049979539,0.049300381755452
0.543667662145528,0.041514550116462
0.54033930052082,0.0337841842493377
0.537031800217589,0.0261090692238574
0.533744996348009,0.0184889901097995
0.530478724024254,0.0109237319769427
0.527232818358502,0.00341307989506542
0.524007114462924,-0.00404318106605384
0.520801447449696,-0.0114452658366367
0.517615652430992,-0.0187933893469044
0.514449564518988,-0.0260877665270785
0.511303018825857,-0.0333286123073806
0.508175850463775,-0.0405161416180322
0.505067894544916,-0.0476505693892548
0.501978986181454,-0.0547321105512697
0.498908960485564,-0.0617609800342986
0.495857652569421,-0.068737392768563
0.4928248975452,-0.0756615636842843
0.489810530525074,-0.082533707711684
0.486814386621219,-0.0893540397809836
0.483836300945809,-0.0961227748224046
0.480876108611019,-0.102840127766169
0.477933644729024,-0.109506313542497
0.475008744411997,-0.116121547081611
0.472101242772114,-0.122686043313733
0.469210974921549,-0.129200017169083
0.466337775972476,-0.135663683577884
0.463481481037072,-0.142077257470357
0.460641925227509,-0.148440953776723
0.457818943655962,-0.154754987427205
0.455012371434608,-0.161019573352022
0.452222043675619,-0.167234926481398
0.44944779549117,-0.173401261745552
0.446689461993436,-0.179518794074708
0.443946878294592,-0.185587738399086
0.441219879506812,-0.191608309648908
0.438508300742271,-0.197580722754395
0.435811977113143,-0.203505192645769
0.433130743731604,-0.209381934253251
0.430464435709827,-0.215211162507063
0.427812888159987,-0.220993092337427
0.425175936194259,-0.226727938674563
0.422553414924818,-0.232415916448694
0.419945159463837,-0.23805724059004
0.417351004923493,-0.243652126028824
0.414770786415958,-0.249200787695267
0.412204339053409,-0.25470344051959
0.409651497948019,-0.260160299432015
0.407112098211963,-0.265571579362763
0.404585974957415,-0.270937495242056
0.402072963296552,-0.276258262000115
0.399572898341546,-0.281534094567162
0.397085615204572,-0.286765207873418
0.394610948997806,-0.291951816849105
0.392148734833421,-0.297094136424444
0.389698807823592,-0.302192381529657
0.387261003080495,-0.307246767094966
0.384835155716303,-0.312257508050591
0.382421100843191,-0.317224819326754
0.380018673573334,-0.322148915853677
0.377627709018906,-0.327030012561581
0.375248042292082,-0.331868324380688
0.372879508505037,-0.33666406624122
0.370521942769945,-0.341417453073397
0.36817518019898,-0.346128699807441
0.365839055904318,-0.350798021373574
0.363513404998133,-0.355425632702017
0.3611980625926,-0.360011748722993
0.358892863799893,-0.364556584366721
0.356597643732186,-0.369060354563424
0.354312237501655,-0.373523274243323
0.352036480220474,-0.37794555833664
0.349770207000817,-0.382327421773596
0.34751325295486,-0.386669079484412
0.345265453194776,-0.390970746399311
0.343026642832741,-0.395232637448514
0.340796656980929,-0.399454967562242
0.338575330751514,-0.403637951670716
0.336362499256672,-0.407781804704159
0.334157997608576,-0.411886741592791
0.331961660919402,-0.415952977266835
0.329773324301324,-0.419980726656511
0.327592822866516,-0.423970204692041
0.325419991727154,-0.427921626303647
0.323254665995412,-0.43183520642155
0.321096680783464,-0.435711159975972
0.318945871203485,-0.439549701897134
0.31680207236765,-0.443351047115257
0.314665119388133,-0.447115410560564
0.312534847377109,-0.450843007163275
0.310411091446752,-0.454534051853613
0.308293686709238,-0.458188759561798
0.30618246827674,-0.461807345218052
0.304077271261433,-0.465390023752597
0.301977930775493,-0.468937010095654
0.299884281931092,-0.472448519177444
0.297796159840407,-0.47592476592819
0.295713399615612,-0.479365965278112
0.293635836368881,-0.482772332157432
0.291563305212388,-0.486144081496372
0.28949564125831,-0.489481428225153
0.287432679618819,-0.492784587273997
0.285374255406091,-0.496053773573124
0.283320203732301,-0.499289202052758
0.281270359709622,-0.502491087643118
0.27922455845023,-0.505659645274427
0.277182635066299,-0.508795089876906
0.275144424670004,-0.511897636380776
0.273109762373519,-0.514967499716259
0.271078483289019,-0.518004894813577
0.269050422528679,-0.521010036602952
0.267025415204673,-0.523983140014603
0.265003296429175,-0.526924419978754
0.262983901314361,-0.529834091425625
0.260967064972405,-0.532712369285438
0.258952622515482,-0.535559468488415
0.256940409055765,-0.538375603964777
0.254930259705431,-0.541160990644745
0.252922009576653,-0.543915843458541
0.250915493781605,-0.546640377336387
0.248910547432464,-0.549334807208504
0.246907005641402,-0.551999348005113
0.244904703520596,-0.554634214656436
0.242903476182219,-0.557239622092695
0.240903158738446,-0.559815785244111
0.238903586301451,-0.562362919040905
0.23690459398341,-0.564881238413299
0.234906016896497,-0.567370958291515
0.232907690152886,-0.569832293605773
0.230909448864752,-0.572265459286296
0.228911128144269,-0.574670670263305
0.226912563103613,-0.577048141467022
0.224913588854958,-0.579398087827667
0.222914040510478,-0.581720724275463
0.220913753182349,-0.584016265740631
0.218912561982744,-0.586284927153392
0.216910302023838,-0.588526923443969
0.214906808417806,-0.590742469542581
0.212901916276822,-0.592931780379452
0.210895460713062,-0.595095070884802
0.208887276838699,-0.597232555988852
0.206877199765909,-0.599344450621826
0.204865064606866,-0.601430969713943
0.202850706473744,-0.603492328195426
0.200833960478718,-0.605528740996495
0.198814661733963,-0.607540423047373
0.196792645351653,-0.609527589278281
0.194767746443963,-0.61149045461944
0.192739800123068,-0.613429234001072
0.190708641501141,-0.615344142353399
0.188674105690359,-0.617235394606641
0.186636027802895,-0.619103205691021
0.184594242950923,-0.620947790536759
0.18254858624662,-0.622769364074078
0.180498892802158,-0.624568141233199
0.178444997729713,-0.626344336944343
0.17638673614146,-0.628098166137732
0.174323943149572,-0.629829843743587
0.172256453866225,-0.631539584692131
0.170184103403593,-0.633227603913583
0.168106726873851,-0.634894116338166
0.166024159389174,-0.636539336896102
0.163936236061735,-0.638163480517612
0.16184279200371,-0.639766762132916
0.159743662327273,-0.641349396672238
0.157638682144599,-0.642911599065798
0.155527686567863,-0.644453584243818
0.153410510709238,-0.645975567136519
0.1512869896809,-0.647477762674123
0.149156958595023,-0.648960385786851
0.147020252563782,-0.650423651404925
0.144876706699351,-0.651867774458566
0.142726156113906,-0.653292969877996
0.14056843591962,-0.654699452593436
0.138403381228668,-0.656087437535108
0.136230827153225,-0.657457139633234
0.134050608805466,-0.658808773818034
0.131862561297565,-0.66014255501973
0.129666519741696,-0.661458698168544
0.127462319250034,-0.662757418194698
0.125249794934755,-0.664038930028412
0.123028781908032,-0.665303448599908
0.12079911528204,-0.666551188839408
0.118560630168953,-0.667782365677134
0.116313161680947,-0.668997194043306
0.114056544930196,-0.670195888868146
0.111790615028874,-0.671378665081876
0.109515207089156,-0.672545737614717
0.107230156223218,-0.673697321396891
0.104935297543232,-0.67483363135862
0.102630466161374,-0.675954882430123
0.100315497189819,-0.677061289541624
0.0979902257407408,-0.678153067623344
0.0956544869263144,-0.679230431605504
0.0933081158587143,-0.680293596418326
0.0909509476501151,-0.681342776992031
0.0885828174126916,-0.68237818825684
0.086203560258618,-0.683400045142976
0.0838130113000694,-0.68440856258066
0.0814110056492198,-0.685403955500112
0.0789973784182444,-0.686386438831555
0.0765719647193175,-0.687356227505211
0.0741345996646138,-0.6883135364513
0.0716851183663078,-0.689258580600044
0.0692233559365742,-0.690191574881665
0.0667491474875875,-0.691112734226384
0.0642623281315225,-0.692022273564422
0.0617627329805535,-0.692920407826002
0.0592501971468554,-0.693807351941345
0.0567245557426027,-0.694683320840671
0.05418564387997,-0.695548529454203
0.0516332966711318,-0.696403192712163
0.0490673492282629,-0.697247525544771
0.0464876366635378,-0.698081742882249
0.0438939940891311,-0.698906059654818
0.0412862566172173,-0.699720690792701
0.0386642593599713,-0.700525851226118
0.0360278374295673,-0.701321755885291
0.0333768259381804,-0.702108619700443
0.0307110599979847,-0.702886657601793
0.0280303747211552,-0.703656084519563
0.0253346052198662,-0.704417115383976
0.0226235866062926,-0.705169965125252
0.0198971539926087,-0.705914848673614
0.0171551424909893,-0.706651980959282
0.0143973872136089,-0.707381576912478
0.0116237232726424,-0.708103851463423
0.00883398578026391,-0.70881901954234
0.00602800984864842,-0.709527296079449
0.00320563058997031,-0.710228896004972
0.000366683116404393,-0.710924034249131
-0.00248899745987492,-0.711612925742147
-0.00536157602669286,-0.712295785414241
-0.00825121747187504,-0.712972828195636
-0.0111580866832466,-0.713644269016552
-0.0140823485486332,-0.714310322807211
-0.0170241679558599,-0.714971204497834
-0.0199837097927525,-0.715627129018643
-0.022961138947136,-0.71627831129986
-0.0259566203068361,-0.716924966271706
-0.028970318759678,-0.717567308864403
-0.0320023991934872,-0.718205554008171
-0.035053026496089,-0.718839916633233
-0.0381223655553091,-0.71947061166981
-0.0412105812589724,-0.720097854048123
-0.0443178384949048,-0.720721858698395
-0.0474443021509312,-0.721342840550846
-0.0505901371148774,-0.721961014535697
-0.0537555082745685,-0.722576595583172
-0.0569405805178302,-0.72318979862349
-0.0601455187324876,-0.723800838586873
-0.0633704878063664,-0.724409930403544
-0.0666156526272917,-0.725017289003723
-0.0698811780830891,-0.725623129317632
-0.0731672290615838,-0.726227666275493
-0.0764739704506014,-0.726831114807526
-0.0798015671379671,-0.727433689843954
-0.0831501840115066,-0.728035606314998
-0.0865199859590448,-0.728637079150879
-0.0899111378684077,-0.729238323281819
-0.0933238046274202,-0.72983955363804
-0.096758151123908,-0.730440985149762
-0.100214342245696,-0.731042832747208
-0.103692542880611,-0.731645311360599
-0.107192917916476,-0.732248635920156
-0.110715632241119,-0.732853021356101
-0.114260850742363,-0.733458682598655
-0.117828738308036,-0.734065834578041
-0.121419459825961,-0.734674692224478
-0.125033180183964,-0.73528547046819
-0.128670064269871,-0.735898384239397
-0.132330276971508,-0.736513648468321
-0.136013983176698,-0.737131478085183
-0.139721347773269,-0.737752088020205
-0.143452535649045,-0.738375693203608
-0.147207711691852,-0.739002508565615
-0.150987040789515,-0.739632749036445
-0.15479068782986,-0.740266629546322
-0.158618817700711,-0.740904365025465
-0.162471595289895,-0.741546170404098
-0.166349185485236,-0.742192260612441
-0.170251753174561,-0.742842850580716
-0.174179463245694,-0.743498155239144
-0.178132480586461,-0.744158389517947
-0.182110970084687,-0.744823768347346
-0.186115096628198,-0.745494506657563
-0.190145025104819,-0.746170819378819
-0.194200920402376,-0.746852921441337
-0.198282947408693,-0.747541027775336
-0.202391271011596,-0.748235353311039
-0.206526056098912,-0.748936112978668
-0.210687467558464,-0.749643521708443
-0.214875670278078,-0.750357794430587
-0.219090829145581,-0.75107914607532
-0.223333109048797,-0.751807791572865
-0.227602674875551,-0.752543945853442
-0.23189969151367,-0.753287823847274
-0.236224323850978,-0.754039640484581
-0.2405767367753,-0.754799610695586
-0.244957095174463,-0.75556794941051
-0.249365563936292,-0.756344871559573
-0.253802307948612,-0.757130592072999
-0.258267492099247,-0.757925325881007
-0.262761281276025,-0.758729287913821
-0.26728384036677,-0.75954269310166
-0.271835334259308,-0.760365756374748
-0.276415927841463,-0.761198692663304
-0.281025786001062,-0.762041716897552
-0.28566507362593,-0.762895044007711
-0.290333955603892,-0.763758888924004
-0.295032596822773,-0.764633466576653
-0.2997611621704,-0.765518991895878
-0.304519816534597,-0.766415679811901
-0.309308724803189,-0.767323745254944
-0.314128051864003,-0.768243403155229
-0.318977962604863,-0.769174868442976
-0.323858621913595,-0.770118356048407
-0.328770194678025,-0.771074080901744
-0.333712845785977,-0.772042257933207
-0.338686740125278,-0.77302310207302
-0.343692042583752,-0.774016828251403
-0.348728918049225,-0.775023651398577
-0.353797531409522,-0.776043786444765
-0.358898047552469,-0.777077448320187
-0.364030631365891,-0.778124851955065
-0.369195447737613,-0.779186212279621
-0.374392661555462,-0.780261744224077
-0.379622437707261,-0.781351662718653
-0.384884941080838,-0.78245618269357
-0.390180336564016,-0.783575519079052
-0.395508789044622,-0.784709886805319
-0.400870463410481,-0.785859500802592
-0.406265524549418,-0.787024576001093
-0.411694137349259,-0.788205327331044
-0.417156466697829,-0.789401969722667
-0.422652677482953,-0.790614718106181
-0.428182934592457,-0.79184378741181
-0.433747402914167,-0.793089392569775
-0.439346247335907,-0.794351748510296
-0.444979632745503,-0.795631070163596
-0.450647724030781,-0.796927572459896
-0.456350686079565,-0.798241470329418
-0.456350686079565,-0.798241470329418
-0.462032924884998,-0.799534115748127
-0.46763898454828,-0.800766934226111
-0.473169237119323,-0.801940250994777
-0.478624054648041,-0.803054391285531
-0.484003809184347,-0.804109680329778
-0.489308872778153,-0.805106443358924
-0.494539617479372,-0.806045005604376
-0.499696415337918,-0.806925692297538
-0.504779638403703,-0.807748828669819
-0.509789658726641,-0.808514739952621
-0.514726848356644,-0.809223751377353
-0.519591579343625,-0.809876188175421
-0.524384223737497,-0.810472375578229
-0.529105153588173,-0.811012638817183
-0.533754740945567,-0.811497303123691
-0.53833335785959,-0.811926693729157
-0.542841376380157,-0.812301135864989
-0.547279168557179,-0.81262095476259
-0.55164710644057,-0.812886475653368
-0.555945562080244,-0.813098023768729
-0.560174907526112,-0.813255924340079
-0.564335514828088,-0.813360502598822
-0.568427756036084,-0.813412083776366
-0.572452003200014,-0.813410993104116
-0.576408628369791,-0.813357555813478
-0.580298003595328,-0.813252097135859
-0.584120500926536,-0.813094942302663
-0.587876492413331,-0.812886416545298
-0.591566350105624,-0.812626845095168
-0.595190446053328,-0.81231655318368
-0.598749152306356,-0.81195586604224
-0.602242840914622,-0.811545108902254
-0.605671883928038,-0.811084606995128
-0.609036653396518,-0.810574685552267
-0.612337521369973,-0.810015669805077
-0.615574859898318,-0.809407884984966
-0.618749041031464,-0.808751656323337
-0.621860436819326,-0.808047309051598
-0.624909419311816,-0.807295168401154
-0.627896360558846,-0.806495559603412
-0.630821632610331,-0.805648807889777
-0.633685607516182,-0.804755238491655
-0.636488657326313,-0.803815176640452
-0.639231154090637,-0.802828947567574
-0.641913469859067,-0.801796876504427
-0.644535976681515,-0.800719288682416
-0.647099046607894,-0.799596509332949
-0.649603051688119,-0.79842886368743
-0.652048363972101,-0.797216676977267
-0.654435355509753,-0.795960274433863
-0.656764398350988,-0.794659981288626
-0.65903586454572,-0.793316122772962
-0.661250126143862,-0.791929024118277
-0.663407555195326,-0.790499010555975
-0.665508523750024,-0.789026407317464
-0.667553403857871,-0.787511539634149
-0.66954256756878,-0.785954732737437
-0.671476386932662,-0.784356311858732
-0.673355233999431,-0.782716602229442
-0.675179480819001,-0.781035929080972
-0.676949499441283,-0.779314617644727
-0.678665661916191,-0.777552993152115
-0.680328340293638,-0.77575138083454
-0.681937906623537,-0.773910105923409
-0.683494732955801,-0.772029493650128
-0.684999191340342,-0.770109869246103
-0.686451653827074,-0.768151557942738
-0.68785249246591,-0.766154884971442
-0.689202079306762,-0.764120175563619
-0.690500786399543,-0.762047754950676
-0.691748985794168,-0.759937948364017
-0.692947049540548,-0.75779108103505
-0.694095349688596,-0.755607478195181
-0.695194258288225,-0.753387465075814
-0.696244147389348,-0.751131366908357
-0.697245389041879,-0.748839508924214
-0.698198355295731,-0.746512216354793
-0.699103418200815,-0.744149814431498
-0.699960949807045,-0.741752628385737
-0.700771322164335,-0.739320983448914
-0.701534907322596,-0.736855204852435
-0.702252077331743,-0.734355617827708
-0.702923204241687,-0.731822547606137
-0.703548660102343,-0.729256319419128
-0.704128816963622,-0.726657258498088
-0.704664046875438,-0.724025690074423
-0.705154721887703,-0.721361939379537
-0.705601214050332,-0.718666331644839
-0.706003895413236,-0.715939192101732
-0.706363138026328,-0.713180845981623
-0.706679313939522,-0.710391618515919
-0.706952795202731,-0.707571834936025
-0.707183953865867,-0.704721820473346
-0.707373161978844,-0.70184190035929
-0.707520791591574,-0.698932399825261
-0.70762721475397,-0.695993644102666
-0.707692803515945,-0.693025958422911
-0.707717929927413,-0.690029668017402
-0.707702966038286,-0.687005098117544
-0.707648283898477,-0.683952573954744
-0.707554255557899,-0.680872420760407
-0.707421253066465,-0.677764963765939
-0.707249648474088,-0.674630528202747
-0.707039813830682,-0.671469439302237
-0.706792121186158,-0.668282022295813
-0.70650694259043,-0.665068602414883
-0.70618465009341,-0.661829504890851
-0.705825615745013,-0.658565054955125
-0.70543021159515,-0.65527557783911
-0.704998809693735,-0.651961398774212
-0.70453178209068,-0.648622842991836
-0.704029500835899,-0.64526023572339
-0.703492337979305,-0.641873902200278
-0.70292066557081,-0.638464167653907
-0.702314855660327,-0.635031357315682
-0.70167528029777,-0.631575796417011
-0.701002311533052,-0.628097810189297
-0.700296321416084,-0.624597723863948
-0.699557681996781,-0.621075862672369
-0.698786765325055,-0.617532551845967
-0.697983943450819,-0.613968116616147
-0.697149588423987,-0.610382882214315
-0.69628407229447,-0.606777173871877
-0.695387767112182,-0.603151316820239
-0.694461044927037,-0.599505636290808
-0.693504277788946,-0.595840457514988
-0.692517837747823,-0.592156105724186
-0.691502096853581,-0.588452906149808
-0.690457427156133,-0.584731184023259
-0.689384200705391,-0.580991264575947
-0.68828278955127,-0.577233473039276
-0.68715356574368,-0.573458134644652
-0.685996901332537,-0.569665574623482
-0.684813168367752,-0.565856118207172
-0.683602738899238,-0.562030090627126
-0.682365984976909,-0.558187817114753
-0.681103278650678,-0.554329622901456
-0.679814991970457,-0.550455833218643
-0.678501496986159,-0.546566773297718
-0.677163165747697,-0.542662768370089
-0.675800370304985,-0.538744143667161
-0.674413482707935,-0.53481122442034
-0.673002875006459,-0.530864335861031
-0.671568919250472,-0.526903803220642
-0.670111987489887,-0.522929951730578
-0.668632451774615,-0.518943106622243
-0.66713068415457,-0.514943593127046
-0.665607056679664,-0.510931736476391
-0.664061941399812,-0.506907861901685
-0.662495710364926,-0.502872294634333
-0.660908735624918,-0.498825359905742
-0.659301389229702,-0.494767382947317
-0.657674043229191,-0.490698688990464
-0.656027069673297,-0.486619603266589
-0.654360840611934,-0.482530451007099
-0.652675728095015,-0.478431557443398
-0.650972104172452,-0.474323247806894
-0.649250340894158,-0.470205847328992
-0.647510810310047,-0.466079681241097
-0.645753884470031,-0.461945074774616
-0.643979935424024,-0.457802353160956
-0.642189335221937,-0.45365184163152
-0.640382455913685,-0.449493865417717
-0.63855966954918,-0.445328749750951
-0.636721348178336,-0.441156819862628
-0.634867863851064,-0.436978400984155
-0.632999588617278,-0.432793818346938
-0.631116894526891,-0.428603397182382
-0.629220153629817,-0.424407462721893
-0.627309737975967,-0.420206340196877
-0.625386019615254,-0.41600035483874
-0.623449370597593,-0.411789831878889
-0.621500162972896,-0.407575096548729
-0.619538768791075,-0.403356474079665
-0.617565560102043,-0.399134289703104
-0.615580908955715,-0.394908868650453
-0.613585187402002,-0.390680536153116
-0.611578767490817,-0.3864496174425
-0.609562021272074,-0.38221643775001
-0.607535320795685,-0.377981322307053
-0.605499038111564,-0.373744596345035
-0.603453545269623,-0.369506585095361
-0.601399214319775,-0.365267613789438
-0.599336417311934,-0.36102800765867
-0.597265526296012,-0.356788091934466
-0.595186913321921,-0.352548191848229
-0.593100950439576,-0.348308632631366
-0.591008009698889,-0.344069739515284
-0.588908463149774,-0.339831837731388
-0.586802682842141,-0.335595252511084
-0.584691040825906,-0.331360309085777
-0.582573909150981,-0.327127332686875
-0.580451659867278,-0.322896648545782
-0.578324665024712,-0.318668581893905
-0.576193296673193,-0.314443457962649
-0.574057926862637,-0.310221601983422
-0.571918927642956,-0.306003339187628
-0.569776671064061,-0.301788994806673
-0.567631529175868,-0.297578894071964
-0.565483874028288,-0.293373362214906
-0.563334077671234,-0.289172724466905
-0.56118251215462,-0.284977306059368
-0.559029549528358,-0.2807874322237
-0.556875561842361,-0.276603428191307
-0.554720921146543,-0.272425619193595
-0.552565999490816,-0.26825433046197
-0.550411168925093,-0.264089887227838
-0.548256801499287,-0.259932614722605
-0.546103269263311,-0.255782838177676
-0.543950944267078,-0.251640882824459
-0.541800198560501,-0.247507073894358
-0.539651404193493,-0.243381736618779
-0.537504933215967,-0.23926519622913
-0.535361157677836,-0.235157777956814
-0.533220449629013,-0.231059807033239
-0.53108318111941,-0.226971608689811
-0.528949724198941,-0.222893508157935
-0.526820450917519,-0.218825830669017
-0.524695733325056,-0.214768901454463
-0.522575943471466,-0.21072304574568
-0.520461453406661,-0.206688588774072
-0.518352635180555,-0.202665855771047
-0.51624986084306,-0.198655171968009
-0.51415350244409,-0.194656862596366
-0.512063932033557,-0.190671252887522
-0.509981521661374,-0.186698668072884
-0.507906643377455,-0.182739433383857
-0.505839669231712,-0.178793874051848
-0.503780971274057,-0.174862315308263
-0.501730921554405,-0.170945082384508
-0.499689892122668,-0.167042500511987
-0.497658255028759,-0.163154894922108
-0.495636382322591,-0.159282590846277
-0.493624646054077,-0.155425913515899
-0.491623418273129,-0.15158518816238
-0.489633071029662,-0.147760740017126
-0.487653976373587,-0.143952894311543
-0.485686506354818,-0.140161976277037
-0.483731033023267,-0.136388311145014
-0.481787928428849,-0.13263222414688
-0.479857564621474,-0.128894040514041
-0.477940313651058,-0.125174085477903
-0.476036547567512,-0.121472684269871
-0.474146638420749,-0.117790162121352
-0.472270958260683,-0.114126844263751
-0.470409879137226,-0.110483055928476
-0.468563773100291,-0.10685912234693
-0.466733012199791,-0.103255368750521
-0.46491796848564,-0.0996721203706543
-0.46311901400775,-0.096109702438736
-0.461336520816034,-0.0925684401861716
-0.459570860960405,-0.0890486588443676
-0.457822406490777,-0.0855506836447295
-0.456091529457061,-0.0820748398186636
-0.454378601909171,-0.0786214525975756
-0.45268399589702,-0.0751908472128715
-0.45100808347052,-0.0717833488959572
-0.449351236679586,-0.0683992828782388
-0.447713827574129,-0.0650389743911219
-0.446096228204063,-0.0617027486660129
-0.444498810619301,-0.0583909309343173
-0.442921946869755,-0.0551038464274414
-0.441366009005339,-0.0518418203767908
-0.439831369075965,-0.0486051780137718
-0.438318399131547,-0.04539424456979
-0.436827471221997,-0.0422093452762515
-0.435358957397229,-0.0390508053645622
-0.433913229707155,-0.0359189500661282
-0.432490660201688,-0.0328141046123551
-0.431091620930742,-0.0297365942346493
-0.429716483944228,-0.0266867441644162
-0.428365621292061,-0.0236648796330623
-0.427039405024153,-0.020671325871993
-0.425738207190417,-0.0177064081126146
-0.424462399840766,-0.0147704515863329
-0.423212355025112,-0.0118637815245539
-0.42198844479337,-0.00898672315868343
-0.420791041195452,-0.00613960172012766
-0.41962051628127,-0.0033227424402922
-0.418477242100738,-0.000536470550583298
-0.417361590703769,0.00221888871759339
-0.416273934140276,0.00494301013283163
-0.415214644460171,0.00763556846372578
-0.414184093713368,0.0102962384788696
-0.413182653949779,0.0129246949468575
-0.412210697219318,0.0155206126362832
-0.411268595571897,0.018083666315741
-0.41035672105743,0.0206135307538248
-0.409475445725829,0.0231098807191288
-0.408625141627007,0.0255723909802469
-0.407806180810878,0.0280007363057734
-0.407018935327354,0.0303945914643021
-0.406263777226347,0.0327536312244272
-0.405541078557773,0.0350775303547427
-0.404851211371542,0.0373659636238429
-0.404194547717568,0.0396186058003215
-0.403571459645764,0.0418351316527728
-0.402982319206043,0.0440152159497907
-0.402427498448318,0.0461585334599695
-0.401907369422502,0.048264758951903
-0.401422304178507,0.0503335671941855
-0.400972674766248,0.0523646329554108
-0.400558853235635,0.0543576310041732
-0.400181211636584,0.0563122361090666
-0.399840122019006,0.0582281230386852
-0.399535956432815,0.0601049665616229
-0.399269086927924,0.0619424414464739
-0.399039885554244,0.0637402224618322
-0.398848724361691,0.0654979843762919
-0.398695975400175,0.067215401958447
-0.398582010719611,0.0688921499768916
-0.398507202369911,0.0705279032002197
-0.398471922400989,0.0721223363970256
-0.398476542862756,0.073675124335903
-0.398521435805127,0.0751859417854462
-0.398606973278014,0.0766544635142492
-0.39873352733133,0.0780803642909061
-0.398901470014988,0.0794633188840109
-0.3991111733789,0.0808030020621577
-0.399363009472981,0.0820990885939406
-0.399657350347143,0.0833512532479535
-0.399994568051298,0.0845591707927906
-0.40037503463536,0.0857225159970461
-0.400799122149242,0.0868409636293137
-0.401267202642857,0.0879141884581878
-0.401779648166117,0.0889418652522622
-0.402336830768936,0.0899236687801312
-0.402939122501226,0.0908592738103887
-0.403586895412901,0.0917483551116288
-0.404280521553873,0.0925905874524456
-0.405020372974056,0.0933856456014331
-0.405806821723362,0.0941332043271853
-0.406640239851704,0.0948329383982965
-0.407520999408996,0.0954845225833606
-0.40844947244515,0.0960876316509716
-0.409426031010079,0.0966419403697237
-0.410451047153696,0.0971471235082109
-0.411524892925914,0.0976028558350273
-0.412647940376646,0.0980088121187669
-0.413820561555805,0.0983646671280237
-0.415043128513304,0.098670095631392
-0.416316013299056,0.0989247723974656
-0.417639587962974,0.0991283721948387
-0.41901422455497,0.0992805697921054
-0.420440295124959,0.0993810399578596
-0.421918171722852,0.0994294574606955
-0.423448226398562,0.0994254970692072
-0.425030831202004,0.0993688335519886
-0.426666358183089,0.0992591416776338
-0.42835517939173,0.099096096214737
-0.430097666877841,0.0988793719318921
-0.431894192691334,0.0986086435976933
-0.433745128882123,0.0982835859807345
-0.43565084750012,0.0979038738496099
-0.437611720595238,0.0974691819729135
-0.43962812021739,0.0969791851192394
-0.44170041841649,0.0964335580571817
-0.44382898724245,0.0958319755553343
-0.446014198745182,0.0951741123822914
-0.448256424974601,0.0944596433066471
-0.450556037980619,0.0936882430969953
-0.452913409813149,0.0928595865219301
-0.455328912522104,0.0919733483500457
-0.457802918157397,0.0910292033499361
-0.46033579876894,0.0900268262901952
-0.462927926406647,0.0889658919394173
-0.465579673120431,0.0878460750661963
-0.468291410960205,0.0866670504391264
-0.471063511975881,0.0854284928268015
-0.473896348217373,0.0841300769978158
-0.476790291734593,0.0827714777207632
-0.479745714577455,0.081352369764238
-0.482762988795872,0.0798724278968341
-0.485842486439755,0.0783313268871456
-0.488984579559019,0.0767287415037664
-0.492189640203576,0.0750643465152909
-0.49545804042334,0.0733378166903129
-0.498790152268223,0.0715488267974266
-0.502186347788138,0.0696970516052258
-0.505646999032998,0.067782165882305
-0.509172478052716,0.0658038443972579
-0.512763156897205,0.0637617619186787
-0.516419407616379,0.0616555932151614
-0.520141602260149,0.0594850130553002
-0.523930112878429,0.057249696207689
-0.527785311521132,0.054949317440922
-0.53170757023817,0.0525835515235931
-0.535697261079458,0.0501520732242966
-0.539754756094907,0.0476545573116263
-0.54388042733443,0.0450906785541764
-0.548074646847942,0.0424601117205409
-0.552337786685353,0.039762531579314
-0.556670218896579,0.0369976128990896
-0.561072315531531,0.0341650304484619
-0.565544448640122,0.0312644589960248
-0.570086990272266,0.0282955733103725
-0.574700312477875,0.0252580481600989
-0.579384787306862,0.0221515583137984
-0.584140786809141,0.0189757785400646
-0.584140786809141,0.0189757785400646
-0.588905151855182,0.0157756007589098
-0.593614607096954,0.0125960503048522
-0.598269350256616,0.00943700206824499
-0.602869579056324,0.00629833093944156
-0.607415491218238,0.00317991180879524
-0.611907284464514,8.16195666593486e-05
-0.616345156517311,-0.00299667089661279
-0.620729305098787,-0.00605508469066783
-0.6250599279311,-0.00909374692515246
-0.629337222736407,-0.0121127827097133
-0.633561387236867,-0.0151123171539972
-0.637732619154637,-0.0180924753676506
-0.641851116211877,-0.0210533824603202
-0.645917076130742,-0.0239951635416529
-0.649930696633392,-0.0269179437212951
-0.653892175441985,-0.0298218481088936
-0.657801710278678,-0.0327070018140951
-0.661659498865628,-0.0355735299465461
-0.665465738924996,-0.0384215576158935
-0.669220628178937,-0.0412512099317839
-0.672924364349611,-0.0440626120038639
-0.676577145159175,-0.0468558889417802
-0.680179168329787,-0.0496311658551795
-0.683730631583605,-0.0523885678537084
-0.687231732642786,-0.0551282200470137
-0.69068266922949,-0.057850247544742
-0.694083639065874,-0.0605547754565399
-0.697434839874095,-0.0632419288920542
-0.700736469376312,-0.0659118329609315
-0.703988725294683,-0.0685646127728184
-0.707191805351365,-0.0712003934373618
-0.710345907268517,-0.0738193000642081
-0.713451228768297,-0.0764214577630042
-0.716507967572862,-0.0790069916433966
-0.719516321404371,-0.0815760268150321
-0.722476487984981,-0.0841286883875572
-0.72538866503685,-0.0866651014706188
-0.728253050282137,-0.0891853911738634
-0.731069841442999,-0.0916896826069377
-0.733839236241594,-0.0941781008794885
-0.73656143240008,-0.0966507711011623
-0.739236627640616,-0.0991078183816058
-0.741865019685358,-0.101549367830466
-0.744446806256466,-0.103975544557389
-0.746982185076096,-0.106386473672022
-0.749471353866408,-0.108782280284011
-0.751914510349558,-0.111163089503003
-0.754311852247705,-0.113529026438645
-0.756663577283007,-0.115880216200584
-0.758969883177621,-0.118216783898465
-0.761230967653706,-0.120538854641937
-0.76344702843342,-0.122846553540645
-0.765618263238921,-0.125140005704236
-0.767744869792366,-0.127419336242356
-0.769827045815913,-0.129684670264654
-0.771864989031721,-0.131936132880774
-0.773858897161947,-0.134173849200364
-0.77580896792875,-0.136397944333071
-0.777715399054286,-0.138608543388541
-0.779578388260716,-0.14080577147642
-0.781398133270195,-0.142989753706357
-0.783174831804882,-0.145160615187996
-0.784908681586936,-0.147318481030985
-0.786599880338513,-0.149463476344971
-0.788248625781772,-0.1515957262396
-0.789855115638872,-0.153715355824519
-0.791419547631969,-0.155822490209374
-0.792942119483222,-0.157917254503812
-0.794423028914789,-0.159999773817481
-0.795862473648828,-0.162070173260025
-0.797260651407496,-0.164128577941093
-0.798617759912952,-0.166175112970331
-0.799933996887353,-0.168209903457386
-0.801209560052858,-0.170233074511904
-0.802444647131625,-0.172244751243531
-0.803639455845811,-0.174245058761915
-0.804794183917574,-0.176234122176703
-0.805909029069073,-0.17821206659754
-0.806984189022465,-0.180179017134074
-0.808019861499908,-0.182135098895951
-0.80901624422356,-0.184080436992819
-0.80997353491558,-0.186015156534322
-0.810891931298125,-0.187939382630109
-0.811771631093352,-0.189853240389826
-0.812612832023421,-0.19175685492312
-0.813415731810489,-0.193650351339636
-0.814180528176713,-0.195533854749023
-0.814907418844252,-0.197407490260927
-0.815596601535265,-0.199271382984993
-0.816248273971908,-0.20112565803087
-0.816862633876339,-0.202970440508203
-0.817439878970717,-0.20480585552664
-0.8179802069772,-0.206632028195826
-0.818483815617945,-0.20844908362541
-0.818950902615111,-0.210257146925036
-0.819381665690856,-0.212056343204353
-0.819776302567337,-0.213846797573006
-0.820135010966712,-0.215628635140643
-0.820457988611139,-0.217401981016909
-0.820745433222777,-0.219166960311452
-0.820997542523783,-0.220923698133919
-0.821214514236314,-0.222672319593956
-0.82139654608253,-0.224412949801209
-0.821543835784589,-0.226145713865326
-0.821656581064647,-0.227870736895953
-0.821734979644863,-0.229588144002736
-0.821779229247395,-0.231298060295323
-0.821789527594401,-0.23300061088336
-0.821766072408039,-0.234695920876493
-0.821709061410466,-0.23638411538437
-0.821618692323841,-0.238065319516638
-0.821495162870322,-0.239739658382941
-0.821338670772067,-0.241407257092929
-0.821149413751233,-0.243068240756246
-0.820927589529978,-0.24472273448254
-0.820673395830461,-0.246370863381458
-0.82038703037484,-0.248012752562645
-0.820068690885272,-0.249648527135749
-0.819718575083915,-0.251278312210417
-0.819336880692927,-0.252902232896295
-0.818923805434467,-0.25452041430303
-0.818479547030691,-0.256132981540268
-0.818004303203759,-0.257740059717656
-0.817498271675828,-0.259341773944841
-0.816961650169056,-0.26093824933147
-0.816394636405601,-0.262529610987189
-0.815797428107621,-0.264115984021644
-0.815170222997274,-0.265697493544483
-0.814513218796717,-0.267274264665352
-0.81382661322811,-0.268846422493898
-0.813110604013609,-0.270414092139768
-0.812365388875372,-0.271977398712607
-0.811591165535559,-0.273536467322064
-0.810788131716326,-0.275091423077784
-0.809956485139831,-0.276642391089414
-0.809096423528233,-0.278189496466601
-0.80820814460369,-0.279732864318991
-0.807291846088358,-0.281272619756232
-0.806347725704397,-0.28280888788797
-0.805375981173964,-0.284341793823851
-0.804376810219218,-0.285871462673522
-0.803350410562316,-0.287398019546631
-0.802296979925416,-0.288921589552822
-0.801216716030676,-0.290442297801744
-0.800109816600254,-0.291960269403043
-0.798976479356308,-0.293475629466366
-0.797816902020996,-0.294988503101358
-0.796631282316476,-0.296499015417668
-0.795419817964905,-0.298007291524941
-0.794182706688443,-0.299513456532825
-0.792920146209246,-0.301017635550965
-0.791632334249473,-0.302519953689009
-0.790319468531281,-0.304020536056604
-0.788981746776829,-0.305519507763395
-0.787619366708275,-0.307016993919029
-0.786232526047776,-0.308513119633154
-0.784821422517491,-0.310008010015417
-0.783386253839577,-0.311501790175462
-0.781927217736192,-0.312994585222938
-0.780444511929495,-0.314486520267491
-0.778938334141643,-0.315977720418768
-0.777408882094794,-0.317468310786415
-0.775856353511106,-0.318958416480078
-0.774280946112737,-0.320448162609406
-0.772682857621846,-0.321937674284044
-0.771062285760589,-0.323427076613639
-0.769419428251125,-0.324916494707837
-0.767754482815612,-0.326406053676286
-0.766067647176209,-0.327895878628632
-0.764359119055071,-0.329386094674521
-0.762629096174359,-0.330876826923601
-0.760877776256229,-0.332368200485518
-0.759105357022841,-0.333860340469919
-0.75731203619635,-0.33535337198645
-0.755498011498916,-0.336847420144758
-0.753663480652697,-0.33834261005449
-0.75180864137985,-0.339839066825292
-0.749933691402533,-0.341336915566811
-0.748038828442905,-0.342836281388694
-0.746124250223123,-0.344337289400587
-0.744190154465346,-0.345840064712137
-0.74223673889173,-0.347344732432991
-0.740264201224435,-0.348851417672796
-0.738272739185618,-0.350360245541198
-0.736262550497437,-0.351871341147843
-0.73423383288205,-0.353384829602379
-0.732186784061615,-0.354900836014452
-0.73012160175829,-0.356419485493708
-0.728038483694233,-0.357940903149795
-0.725937627591601,-0.359465214092359
-0.723819231172553,-0.360992543431047
-0.721683492159247,-0.362523016275506
-0.719530608273841,-0.364056757735381
-0.717360777238492,-0.365593892920321
-0.715174196775359,-0.36713454693997
-0.7129710646066,-0.368678844903977
-0.710751578454372,-0.370226911921988
-0.708515936040833,-0.371778873103649
-0.706264335088141,-0.373334853558608
-0.703996973318455,-0.37489497839651
-0.701714048453933,-0.376459372727003
-0.699415758216731,-0.378028161659733
-0.697102300329009,-0.379601470304346
-0.694773872512924,-0.381179423770491
-0.692430672490634,-0.382762147167812
-0.690072897984296,-0.384349765605957
-0.68770074671607,-0.385942404194573
-0.685314416408113,-0.387540188043306
-0.682914104782583,-0.389143242261803
-0.680500009561637,-0.39075169195971
-0.678072328467434,-0.392365662246675
-0.675631259222133,-0.393985278232343
-0.673176999547889,-0.395610665026363
-0.670709747166862,-0.397241947738379
-0.66822969980121,-0.398879251478039
-0.665737055173091,-0.40052270135499
-0.663232011004662,-0.402172422478878
-0.660714765018081,-0.40382853995935
-0.658185514935507,-0.405491178906052
-0.655644458479097,-0.407160464428632
-0.653091793371009,-0.408836521636735
-0.650527717333402,-0.41051947564001
-0.647952428088433,-0.412209451548101
-0.645366123358259,-0.413906574470657
-0.64276900086504,-0.415610969517323
-0.640161258330934,-0.417322761797746
-0.637543093478097,-0.419042076421573
-0.634914704028688,-0.420769038498451
-0.632276287704864,-0.422503773138026
-0.629628042228785,-0.424246405449945
-0.626970165322608,-0.425997060543855
-0.62430285470849,-0.427755863529402
-0.62162630810859,-0.429522939516234
-0.618940723245065,-0.431298413613995
-0.616246297840075,-0.433082410932334
-0.613543229615775,-0.434875056580898
-0.610831716294326,-0.436676475669331
-0.608111955597883,-0.438486793307282
-0.605384145248606,-0.440306134604397
-0.602648482968653,-0.442134624670323
-0.599905166480181,-0.443972388614706
-0.597154393505348,-0.445819551547193
-0.594396361766312,-0.447676238577431
-0.591631268985231,-0.449542574815067
-0.588859312884264,-0.451418685369746
-0.586080691185567,-0.453304695351116
-0.5832956016113,-0.455200729868823
-0.580504241883619,-0.457106914032515
-0.577706809724683,-0.459023372951837
-0.574903502856651,-0.460950231736436
-0.572094519001679,-0.46288761549596
-0.569280055881926,-0.464835649340054
-0.566460311219549,-0.466794458378366
-0.563635482736707,-0.468764167720542
-0.560805768155558,-0.470744902476228
-0.557971365198259,-0.472736787755072
-0.555132471586969,-0.474739948666721
-0.552289285043845,-0.476754510320819
-0.549442003291046,-0.478780597827016
-0.546590824050729,-0.480818336294956
-0.543735945045053,-0.482867850834287
-0.540877563996174,-0.484929266554656
-0.538015878626252,-0.487002708565709
-0.535151086657444,-0.489088301977092
-0.532283385811908,-0.491186171898453
-0.529412973811803,-0.493296443439438
-0.526540048379285,-0.495419241709695
-0.523664807236513,-0.497554691818868
-0.520787448105645,-0.499702918876606
-0.517908168708839,-0.501864047992554
-0.515027166768253,-0.50403820427636
-0.512144640006045,-0.50622551283767
-0.509260786144372,-0.508426098786131
-0.506375802905393,-0.51064008723139
-0.503489888011265,-0.512867603283092
-0.500603239184148,-0.515108772050886
-0.497716054146197,-0.517363718644417
-0.494828530619572,-0.519632568173332
-0.491940866326431,-0.521915445747278
-0.489053258988931,-0.524212476475902
-0.48616590632923,-0.526523785468849
-0.483279006069487,-0.528849497835768
-0.480392755931859,-0.531189738686304
-0.477507353638504,-0.533544633130105
-0.47462299691158,-0.535914306276816
-0.471739883473245,-0.538298883236085
-0.468858211045657,-0.540698489117559
-0.465978177350975,-0.543113249030883
-0.463099980111355,-0.545543288085704
-0.460223817048956,-0.54798873139167
-0.457349885885936,-0.550449704058427
-0.454478384344453,-0.552926331195622
-0.451609510146664,-0.5554187379129
-0.448743461014728,-0.55792704931991
-0.445880434670803,-0.560451390526297
-0.443020628837046,-0.562991886641709
-0.440164241235616,-0.565548662775791
-0.43731146958867,-0.568121844038191
-0.434462511618367,-0.570711555538556
-0.431617565046864,-0.573317922386531
-0.42877682759632,-0.575941069691764
-0.425940496988892,-0.578581122563902
-0.423108770946738,-0.58123820611259
-0.420281847192016,-0.583912445447476
-0.417459923446884,-0.586603965678206
-0.414643197433501,-0.589312891914428
-0.411831866874023,-0.592039349265787
-0.40902612949061,-0.59478346284193
-0.406226183005418,-0.597545357752504
-0.403432225140607,-0.600325159107156
-0.400644453618333,-0.603122992015533
-0.397863066160755,-0.60593898158728
-0.395088260490031,-0.608773252932045
-0.392320234328318,-0.611625931159475
-0.389559185397775,-0.614497141379215
-0.38680531142056,-0.617387008700913
-0.38405881011883,-0.620295658234216
-0.381319879214744,-0.623223215088769
-0.378588716430459,-0.626169804374221
-0.375865519488134,-0.629135551200216
-0.373150486109926,-0.632120580676403
-0.370443814017994,-0.635125017912428
-0.367745700934494,-0.638148988017937
-0.365056344581586,-0.641192616102577
-0.362375942681427,-0.644256027275995
-0.359704692956175,-0.647339346647837
-0.357042793127988,-0.65044269932775
-0.354390440919024,-0.653566210425381
-0.351747834051441,-0.656710005050377
-0.349115170247397,-0.659874208312383
-0.34649264722905,-0.663058945321048
-0.343880462718558,-0.666264341186017
-0.341278814438078,-0.669490521016937
-0.338687900109769,-0.672737609923454
-0.336107917455789,-0.676005733015217
-0.333539064198295,-0.67929501540187
-0.330981538059446,-0.682605582193061
-0.3284355367614,-0.685937558498437
-0.325901258026314,-0.689291069427644
-0.323378899576346,-0.692666240090328
-0.320868659133655,-0.696063195596138
-0.318370734420398,-0.699482061054718
-0.315885323158733,-0.702922961575716
-0.313412623070819,-0.706386022268779
-0.310952831878813,-0.709871368243553
-0.308506147304873,-0.713379124609684
-0.306072767071157,-0.716909416476821
-0.303652888899823,-0.720462368954608
-0.301246710513028,-0.724038107152693
-0.298854429632932,-0.727636756180723
-0.296476243981692,-0.731258441148344
-0.294112351281466,-0.734903287165203
-0.291762949254411,-0.738571419340947
-0.289428235622686,-0.742262962785221
-0.287108408108449,-0.745978042607674
-0.284803664433857,-0.749716783917951
-0.282514202321069,-0.753479311825699
-0.280240219492243,-0.757265751440566
-0.277981913669536,-0.761076227872197
-0.275739482575106,-0.764910866230239
-0.273513123931112,-0.768769791624339
-0.271303035459711,-0.772653129164143
-0.269109414883061,-0.776561003959299
-0.266932459923321,-0.780493541119453
-0.264772368302648,-0.784450865754252
-0.2626293377432,-0.788433102973341
-0.260503565967135,-0.792440377886369
-0.258395250696611,-0.796472815602982
-0.256304589653786,-0.800530541232825
-0.254231780560818,-0.804613679885547
-0.252177021139865,-0.808722356670793
-0.250140509113085,-0.81285669669821
-0.248122442202635,-0.817016825077446
-0.246123018130674,-0.821202866918146
-0.24414243461936,-0.825414947329958
-0.242180889390851,-0.829653191422527
-0.240238580167304,-0.833917724305501
-0.238315704670878,-0.838208671088527
-0.23641246062373,-0.84252615688125
-0.234529045748019,-0.846870306793319
-0.232665657765902,-0.851241245934378
-0.230822494399538,-0.855639099414076
-0.228999753371083,-0.860063992342058
-0.227197632402697,-0.864516049827972
-0.225416329216537,-0.868995396981463
-0.223656041534762,-0.87350215891218
-0.221916967079528,-0.878036460729767
-0.220199303572995,-0.882598427543873
-0.218503248737319,-0.887188184464144
-0.21682900029466,-0.891805856600226
-0.215176755967174,-0.896451569061766
-0.21354671347702,-0.90112544695841
-0.211939070546356,-0.905827615399807
-0.21035402489734,-0.910558199495601
-0.208791774252129,-0.91531732435544
-0.207252516332883,-0.92010511508897
-0.205736448861757,-0.924921696805839
-0.204243769560912,-0.929767194615692
-0.202774676152503,-0.934641733628177
