0.0839914181072154,0.485141466054823
0.384587924806572,-0.135945140618714
-0.552177136052181,0.0308837643063711
-0.681766408095082,0.049864979734245
-0.811355680137983,0.0688461951621189
0.463634183205225,-0.484728045051197
0.168724908673411,0.506367876318619
-0.126184365858403,1.49746379768843
-0.740487887820736,0.705078915852556
-0.903344157110429,-0.958427424575809
