-0.489099920749547,-0.188155285832581
0.906454929810119,-0.409575285620371
-0.329552146518231,0.695033683702858
0.0616331466446771,0.174668145911193
0.452818439807585,-0.345697391880471
0.354874164012462,0.373214475334311
0.582719280779167,0.377266127578088
0.810564397545872,0.381317779821865
0.626884717082843,0.781619943768522
0.216798220774812,-0.33600710590182
