-0.488964218032108,0.561609190083798
-0.530220143208494,0.559334154252488
-0.422236195466294,0.576865566317664
-0.509162116889445,0.50947953458496
-0.452954180520702,0.53069579433884
-0.467295697122773,0.519820783959261
-0.412713011513634,0.514734029101996
-0.424042910287256,0.555006881765678
-0.416338689200059,0.51225171677413
-0.405669766938253,0.529237545268499
-0.425633307059032,0.531497583962209
-0.353403445948732,0.534099949525702
-0.381314759713335,0.494030376739769
-0.342559770405839,0.444763661995839
-0.367375502098468,0.521072179516832
-0.36177320786879,0.476916980166434
-0.347858779599193,0.476029535422445
-0.33973700957481,0.471563515656715
-0.306333044849899,0.450101444278905
-0.297147900608645,0.494284696915196
-0.315947136396294,0.458246954008843
-0.358007414416556,0.406798156939529
-0.332217211928437,0.410784496430183
-0.284168703609222,0.486295418626315
-0.285556217643302,0.440680393685649
-0.314347460529234,0.48350929746397
-0.290289638579031,0.479172212909853
-0.23872736771072,0.392654546714144
-0.263845148983003,0.398732159803057
-0.278347560428506,0.446480725251543
-0.193097407743278,0.452348230038583
-0.230137563054499,0.422301249998048
-0.229242103641689,0.406186381057234
-0.201742815869042,0.432369390678062
-0.216077133451638,0.397694392935833
-0.209629652907269,0.393467933732469
-0.168056069086349,0.384113276880916
-0.236452860200621,0.386146420823975
-0.190822802140288,0.380866275774225
-0.228667195115865,0.407312297383805
-0.178727537903654,0.37252958703069
-0.15060101862791,0.354694043243427
-0.208113821132045,0.385100960999071
-0.154444420892834,0.333919022226167
-0.155586054480136,0.356009549959836
-0.152313303952047,0.322790383908507
-0.150402845163833,0.36129559910358
-0.0979391403677426,0.3058190700967
-0.155198876095837,0.343580463908748
-0.14462048532623,0.350574124123092
-0.12345216860422,0.331608647619133
-0.109718658248784,0.292030790257688
-0.0661867522998891,0.294254184694768
-0.0732067768477835,0.292865994267803
-0.103714036020401,0.315590883299633
-0.137171159161337,0.319453652793777
-0.103764602404225,0.270455588755941
-0.0848818634905813,0.262271228355696
-0.129753993791865,0.264926185811224
-0.0486846915659926,0.333429290039817
-0.100317826595892,0.310470006306718
-0.0532306059639671,0.269256318202691
-0.0779686117325566,0.270346248452339
-0.0432042745660031,0.277872703754657
-0.0600921333640383,0.276403411497199
-0.0434254586080962,0.230020849156922
-0.0978552247721226,0.26589940209634
-0.098315614759481,0.250510692719702
-0.00666241864760281,0.222796654226786
0.00499439732143028,0.273625119857389
-0.0178316390202939,0.27241604044953
-0.0342680505162447,0.249686009605096
-0.0557436648756646,0.227175685759256
-0.0700255915148166,0.255908693193757
-0.0547450265460659,0.227025586192608
-0.0292949499058346,0.238485800735806
0.0150799817767036,0.184211400750317
-0.015110853463851,0.227242807458678
-0.0232377698278416,0.269294276991577
-0.00932117996120088,0.219854172212436
0.00206702263020842,0.18129164659324
-0.00584082768601157,0.163158587213189
0.000406019491281134,0.158949206303298
-0.00718643765994847,0.220991424777592
-0.0169704600249877,0.163549711583224
0.00862296284815906,0.225202198926967
0.0550200983267959,0.159992877668711
-0.00464009512361013,0.169092511486944
-0.0244445036538691,0.217681054410943
0.0152895662859629,0.183591643675565
0.0394117886749441,0.135735108252738
0.0212990353577025,0.172930684923006
-0.00876003271901585,0.212787158785386
-0.0216790469769371,0.163180403005675
-0.012180682478735,0.13410604571875
0.0185593971090734,0.14710012457566
0.0756175679182484,0.165390308591481
4.14863843108473e-05,0.177170610052055
0.0343381667599107,0.14498213301553
0.0356693006092347,0.141537093939193
0.0369352737018196,0.138102722682906
0.0381364549823737,0.134678984265212
-0.00378905307539343,0.104871164810514
0.0126996432502278,0.0915611525160205
0.0847203820172402,0.125337252768665
0.00697527301978155,0.0852059035606347
-0.00418712706476476,0.136223618238043
0.0308428935068626,0.130206464472077
0.0876293071550869,0.086566676982891
0.060139188294774,0.0985774789420263
0.0460923308428633,0.104338044302055
0.0410305880169037,0.0623711910211824
0.0623090236687282,0.101892566014649
0.0705313116288633,0.0968623101935571
0.0486300391487069,0.0845750612394445
0.0887716086043994,0.113132123319592
0.0657423562071791,0.0727957328752654
0.0490989151426638,0.074830029283888
0.0491219749179316,0.068383240570397
0.0214811376943474,0.0403761518199483
0.0489168588005818,0.061976044768802
0.0189977397773813,0.0367010290716625
0.0484865183482814,0.0556081620274385
0.0478339051186976,0.0492793124946425
0.0474251685741954,0.0461294377278122
0.0469619706694975,0.0429892163187497
0.0737206770099841,0.0320790674534711
0.0601402358678128,0.0630979202117499
0.0213114314344931,0.0597474021081893
0.0743559268687877,0.0471722093164127
0.0411097712969779,0.0150347921087274
-0.000408222928856512,0.0160686170861858
0.0807635568856491,-0.0123944594039878
0.0715059292373055,0.0277293777033801
0.0404033041952976,0.0151558527961633
0.0856420999665117,0.0598028084479873
0.00755908007986475,0.0142668037570392
0.00145613226284492,0.0215170430112964
0.0349653662198851,2.01295409979485e-05
0.0337295212772597,-0.00297948927651083
0.0673310691582028,-0.00657020088301139
0.0221775480642219,0.0237895536562901
0.0297321127590495,-0.0119239237282329
0.0537386135235595,0.0243004553676044
-0.0182447802458952,0.024161786967339
0.0714349676889221,-0.0408516054806224
0.0237396367264357,-0.0237241576364188
-0.0178897717466092,-0.0699881755201838
0.0204660691398797,-0.0295710419592804
-0.0223508924826994,-0.0730813454249784
0.0178313204255441,-0.0253205526706738
0.0152173570531735,-0.0382756147373392
0.0455394555880603,0.00325795129231203
0.00196172454468452,0.000882904893996492
0.00957146679122212,-0.0469021226229102
-0.0202644190326645,-0.0995263392454408
-0.0266773670363595,-0.102594262969757
-0.015024019873583,-0.0315107815823782
0.0229388145663295,-0.0256018367662178
0.0282577509474868,-0.0678036025720218
0.0104461889194312,-0.0467167981316643
-0.0450892921525372,-0.0831072653366493
0.0161763826329124,-0.0699325615047731
-0.0143672279052684,-0.0778800265882384
-0.0571661036759316,-0.122547308799057
-0.0246190925831947,-0.128955012614815
-0.0217349030574674,-0.086154720022715
-0.0553949146090936,-0.0735889908855916
-0.0268365956417033,-0.0916307280491527
-0.0252170652019407,-0.12515171487299
-0.0820029350008314,-0.136696282289305
-0.0347666193480442,-0.0997847583231499
-0.000160038707404123,-0.112401439745893
-0.0456746336682839,-0.102609742562592
-0.049297246514765,-0.108965017122286
-0.0312515699398984,-0.134883044869529
-0.0191197248506248,-0.156844573284672
-0.0625087839510567,-0.1050230611961
-0.0660488954757685,-0.140315870402093
-0.0654491563932944,-0.103884760946015
-0.073212483063811,-0.173434292012763
-0.0286889919409169,-0.105123450741592
-0.0665407038989136,-0.129081422252464
-0.0696283703319708,-0.131698938774818
-0.0727476235533031,-0.1343089707898
-0.0485464786933138,-0.183707106213377
-0.0790794145819598,-0.139506721223488
-0.0822912144998672,-0.142094509605108
-0.066806179915065,-0.127512907690658
-0.0711681782283958,-0.171920367394726
-0.0820977558272505,-0.117040692649294
-0.120123157208727,-0.169488438883794
-0.138475619199378,-0.12444042444598
-0.0917696321349892,-0.155770295844622
-0.108814531070823,-0.118741804130524
-0.12779420741402,-0.117106904373238
-0.0884028904170082,-0.205227491671247
-0.0717875093671329,-0.133596557597657
-0.119527172384145,-0.170083135342181
-0.153480191543777,-0.197436258617841
-0.0889276628039526,-0.214950779377562
-0.130250199499615,-0.177568282449691
-0.180792856170957,-0.171640007411891
-0.137524228068729,-0.182524048013305
-0.141197738666801,-0.184991735987069
-0.194105877211114,-0.162490968002251
-0.159637276224581,-0.234375159272142
-0.156126481105994,-0.194795338729186
-0.159915497003976,-0.197229627033772
-0.163726507127816,-0.199657340348895
-0.151484019341423,-0.200058727615474
-0.171413034274231,-0.20449318193659
-0.175287813407391,-0.206901380172077
-0.139163407673728,-0.226312355120519
-0.166904094183435,-0.197582400214364
-0.223796982642122,-0.262065916333087
-0.230776720303411,-0.233555770278383
-0.211835250770545,-0.178249523421039
-0.171930721774651,-0.257491801052664
-0.179412940212621,-0.243279136005541
-0.211039882356865,-0.228289784203098
-0.229804326717956,-0.224044110159626
-0.219183433539833,-0.232974542483656
-0.223280083686518,-0.235307828731819
-0.262486749798333,-0.238452461970466
-0.228765787844626,-0.283498772844584
-0.19432914778611,-0.203005082173779
-0.265007387084015,-0.280596761285687
-0.253923987196437,-0.208148916378152
-0.235385228003242,-0.225826825285782
-0.256601573483301,-0.253760506858804
-0.257854816138806,-0.27554535901488
-0.269324080758689,-0.260584664497589
-0.265033062811323,-0.22722051681577
-0.277866530777112,-0.265105892170542
-0.282154882502648,-0.267358147725521
-0.334647971627195,-0.306438303190104
-0.303753150505235,-0.278537241943764
-0.29197177829932,-0.259290380395056
-0.355679428675229,-0.244831969916436
-0.364740697431726,-0.258729650356165
-0.369651061012867,-0.302426787446767
-0.365342982555022,-0.254197267318107
-0.353856485676816,-0.257810470441736
-0.343171154701357,-0.298325459757941
-0.301455674623825,-0.275868835569847
-0.333616171064936,-0.334656120515365
-0.347295430398036,-0.318397097229351
-0.408626314838855,-0.351465473659522
-0.375367399924185,-0.334934972152017
-0.415046762650805,-0.27906627052519
-0.346336466217776,-0.301941800921264
-0.378609468190936,-0.315571759029851
-0.383055772251163,-0.317705777342132
-0.346129777987746,-0.278086638808636
-0.391955331895843,-0.321959686031591
-0.396407849590881,-0.324079646371687
-0.441769694029729,-0.318754346884681
-0.380012986689294,-0.338187439821589
-0.409771926830279,-0.330411971150933
-0.414227564145813,-0.332513677268528
-0.462009061386643,-0.38297163208856
-0.446084236773472,-0.291647098874075
-0.4275921455737,-0.338792078935265
-0.426788419599741,-0.354243029216234
-0.463166239290484,-0.346872044718844
-0.449836542875291,-0.349169124980481
-0.454277616071501,-0.351231805512744
-0.484321417777238,-0.390197856484836
-0.463149004642144,-0.355344717752155
-0.472003589819031,-0.359441264767799
-0.463116817997216,-0.402715325457933
-0.500652221098916,-0.313935299586191
-0.447182157315578,-0.357319193560165
-0.446402397687271,-0.367400472288505
-0.458044539343186,-0.367167177332924
-0.505233087888426,-0.386506312479267
-0.551274961257884,-0.404755873983436
-0.507194865435666,-0.375669397625988
-0.511562142477329,-0.377680710216825
-0.479188780201497,-0.421325975676996
-0.514443937665888,-0.340886210106766
-0.528944968794583,-0.38568924529572
-0.533267260188004,-0.38768237515162
-0.544850642655213,-0.370523972775305
-0.518627767484666,-0.369522565592855
-0.546172034806793,-0.393640715029471
-0.52704243149941,-0.423267355102946
-0.54782370497495,-0.439127428354924
-0.597338911506103,-0.362273343281702
-0.537881202511392,-0.419760770064477
-0.531404228447254,-0.432755925495214
-0.568094897719708,-0.448020789409015
-0.580064436070738,-0.409381413714801
-0.552856651680455,-0.407680076517452
-0.598632570122342,-0.376127932130955
-0.560203568583375,-0.397057320528834
-0.600798901007835,-0.419115942282055
-0.604899248536764,-0.421053792371819
-0.582620482789268,-0.400252483527772
-0.575078977149499,-0.458037286507394
-0.629144524145404,-0.432620441987065
-0.63037734371093,-0.47227934276757
-0.641021181860388,-0.438366479652442
-0.649263369555134,-0.448469638946295
-0.63948028279267,-0.473993316748218
-0.700806650302636,-0.410920005246991
-0.660416761598746,-0.44789123382008
-0.658335788677514,-0.415965527998853
-0.642173621648945,-0.459404826559929
-0.687873062465508,-0.425086073946173
-0.633160594008704,-0.466302251754606
-0.708221357235857,-0.440636205473414
-0.689202023062401,-0.498416161694822
-0.698705970368153,-0.501855441521553
-0.701126472777879,-0.468636498113012
-0.704681136657357,-0.470509357313133
-0.737506146974488,-0.459838896219872
-0.7117121897129,-0.474249028495077
-0.715187840999549,-0.476115910439817
-0.761859488732235,-0.50732928390309
-0.743799835306446,-0.47074631308821
-0.76057037551519,-0.455554955606922
-0.738738627332348,-0.489132214259406
-0.785282998875602,-0.458540847934352
-0.744603778615634,-0.452286157047516
-0.748394329869366,-0.494684766772856
-0.751665736996205,-0.506045265537892
-0.772497806073613,-0.470369695492108
-0.757773148599391,-0.50022316551763
-0.778476967450988,-0.546038048059415
-0.810232095131802,-0.540106221604791
-0.766865122015296,-0.505748354993095
-0.772762159855276,-0.509424942579895
-0.821022605852937,-0.536277923565921
-0.790787860001409,-0.485112265661033
-0.781353921065144,-0.514930215493992
-0.813222859656655,-0.524799285550037
-0.750964081278641,-0.488974949716947
-0.821322625583444,-0.472967824783858
-0.794972138634091,-0.524082379871747
-0.755132141061433,-0.48991503503468
-0.751278067861587,-0.514041195481253
-0.80270600493979,-0.529561243395109
-0.805208902667494,-0.531385668607762
-0.767415892882449,-0.527549367424073
-0.835181148948512,-0.552787391728104
-0.783063301918038,-0.496538459253742
-0.807533630555031,-0.523680777691626
-0.802304100132482,-0.544885592515921
-0.828915174439272,-0.556723213020799
-0.825974239579305,-0.54777040776545
-0.868197124558921,-0.524797219933001
-0.812331220668016,-0.594808192173253
-0.816394451518159,-0.519281085311682
-0.843473423242156,-0.536403890515921
-0.802090951262693,-0.583910529262303
-0.880203127462332,-0.564521248407061
-0.798228938292812,-0.61453682430943
-0.849671989016572,-0.571254226118153
-0.836727493273493,-0.553807608064051
-0.852328372128117,-0.574743447439448
-0.854663295774567,-0.578177975722685
-0.857570531702686,-0.583228186621492
-0.875101225136456,-0.584726830121527
-0.887810796973151,-0.538689654697066
-0.84939988142466,-0.539711896694407
-0.860354109155788,-0.589774505313369
-0.860857762159659,-0.591378008032195
-0.817899241683202,-0.5893224889767
-0.820494900561201,-0.593524056285147
-0.850149221355216,-0.567849019564709
-0.826549605034904,-0.640220887216542
-0.862186342904157,-0.603738349961379
-0.83051527057279,-0.595241464435911
-0.866549312302975,-0.621149054217791
-0.825751975150093,-0.655560426625883
-0.860644378739022,-0.611049741359937
-0.824544965234329,-0.631710447434623
-0.88853938634523,-0.567716643685187
-0.84565626063722,-0.658924968661947
-0.902186203802075,-0.629245892910927
-0.846669590660928,-0.652513393866122
-0.85485887130778,-0.640573067641508
-0.852335135018992,-0.624749352698038
-0.87064743556589,-0.580403817326786
-0.803376018982731,-0.66498003303418
-0.860653290270303,-0.581593233982267
-0.83156845314341,-0.606058555284873
-0.850392181024739,-0.595217556510173
-0.801867416865363,-0.650530251157458
-0.854339156541339,-0.61896783661708
-0.82933480622604,-0.655172378421058
-0.876052397244102,-0.631136625397342
-0.864029337731345,-0.652115133886754
-0.822731423473632,-0.605859933905108
-0.771620683800951,-0.646852361270898
-0.772997797569927,-0.602822434634809
-0.782592151953908,-0.610405997605278
-0.813901262881558,-0.649728012189938
-0.808867806879769,-0.651853085075789
-0.806266732195676,-0.652899729992082
-0.82452501498522,-0.681425550985864
-0.798131323894375,-0.655976762351216
-0.816728430696137,-0.62114687831569
-0.813349795713236,-0.700324480877131
-0.78652520174997,-0.65993476481733
-0.780404696799416,-0.661852744191539
-0.777266600745651,-0.662796671997994
-0.774077187026644,-0.663730632296992
-0.802682125831069,-0.677074469081212
-0.767546140754164,-0.665568871611547
-0.79709621301063,-0.687726778151839
-0.771856567135707,-0.699277962441508
-0.727094420273448,-0.680394808563785
-0.750350813753224,-0.669993910198699
-0.792794210046174,-0.70299587560244
-0.700866231509224,-0.705740051262164
-0.712040956671541,-0.677046755423387
-0.702026256239447,-0.646515834971435
-0.674989617552132,-0.629794816819592
-0.738984710272383,-0.646553849615266
-0.712425651585877,-0.678136523869605
-0.702316949329753,-0.670797205077988
-0.700179855029381,-0.680401838698663
-0.672744762926047,-0.705823765232886
-0.737375973392779,-0.664728308603791
-0.687554138605048,-0.682587899499998
-0.678931708266436,-0.68400198081525
-0.667677819837031,-0.645879316964525
-0.66959433928101,-0.674837824029502
-0.619903944765035,-0.679569117109678
-0.593287630059937,-0.656339383600493
-0.614033258884615,-0.739374972841456
-0.628738074180268,-0.691181435995722
-0.586550526319452,-0.682064893820136
-0.614283812843957,-0.692970029887094
-0.609397195572733,-0.693550643868238
-0.634981653097725,-0.653763026664171
-0.599523767033489,-0.694688827714951
-0.64055238912898,-0.659202576261103
-0.584469642337342,-0.696339322842064
-0.580618858736152,-0.742483788668523
-0.574751591763476,-0.661860215807054
-0.558757718831941,-0.698942420321515
-0.549051194806055,-0.653670971559591
-0.586858457635435,-0.737371573514387
-0.517473889557597,-0.668904922182115
-0.497765147335828,-0.654445252671263
-0.518489037068255,-0.697473817933118
-0.499138031967033,-0.751728326164014
-0.521069603098938,-0.74325702172987
-0.527855704955397,-0.738335066599027
-0.50470536520908,-0.680774103080721
-0.483052770074368,-0.705302649268974
-0.451164286068148,-0.744181579492649
-0.515680328146616,-0.703716652657901
-0.468271302859571,-0.683063764505249
-0.460537808263297,-0.706883814876743
-0.467080444197021,-0.688818080027866
-0.449150172895024,-0.707637269626094
-0.47806127967248,-0.728758382952829
-0.400333395070003,-0.704139993736773
-0.414508268809393,-0.709754431390303
-0.404809673655099,-0.723207436146111
-0.401478953395666,-0.756146595077199
-0.417832385905942,-0.74452166731624
-0.401589055354683,-0.748601331138695
-0.408888837128041,-0.668705709414082
-0.354550427277046,-0.704811839071457
-0.355383201414645,-0.712832241389302
-0.335717789791962,-0.690156070783329
-0.34028050550766,-0.67413880900495
-0.325332728628547,-0.731609235984395
-0.329840411843291,-0.711142675936868
-0.308163716919792,-0.72290177726895
-0.288791558091628,-0.715624494545758
-0.295399221450077,-0.671864536410877
-0.221683975332004,-0.731102681116104
-0.264281145808805,-0.716499573037667
-0.215107292666853,-0.676192945456935
-0.231953133578749,-0.756272914172393
-0.205165453170491,-0.674809948928202
-0.255464095346996,-0.686648975756717
-0.233642038934998,-0.737893076610402
-0.220941400067512,-0.743196890479722
-0.24942068595191,-0.68106178247952
-0.202450653318454,-0.756175762206749
-0.209812073679629,-0.713904973973173
-0.183981855372786,-0.718883899730376
-0.190395155455747,-0.686028056641951
-0.171582365728264,-0.719193573862503
-0.197557571526095,-0.744925470545055
-0.153988020731984,-0.733518560064861
-0.146779733379588,-0.719771409379157
-0.0923912403034749,-0.733502711809067
-0.134383527320456,-0.7200404557194
-0.1659832825758,-0.692567210094277
-0.10361432588768,-0.730022190451054
-0.0677707550624685,-0.706969307754027
-0.0419075065552642,-0.721685399572924
0.022546966929719,-0.672542037306222
-0.0175102418611897,-0.722027623730198
-0.0265104898339752,-0.744576787233642
-0.0487971971575241,-0.702523473912015
0.0423057117224205,-0.683971909994275
0.0464249873429459,-0.679304842178632
0.0301045082068968,-0.699854730181252
0.0701979911840052,-0.770881055215039
0.040088368758287,-0.764497557261516
0.066407220159897,-0.722982334157348
0.113920517715241,-0.715065596395434
0.047200215139681,-0.68732239164906
0.0960421768431889,-0.691069762998546
0.139740503390812,-0.70178274672231
0.199926295498931,-0.751231562067023
0.158328014895514,-0.723760875929871
0.142262198175408,-0.737804119819512
0.215032554318567,-0.701871714028772
0.149218843379857,-0.742223224127111
0.150024009636105,-0.678885378687699
0.183783376520972,-0.69392007143488
0.223459510826949,-0.724256081648467
0.204974997127463,-0.73935362704439
0.254535578510457,-0.724509023153265
0.217056418020036,-0.69707205554836
0.305580393959389,-0.773151647281038
0.274637637615566,-0.724687740193298
0.284493666395417,-0.724781452957939
0.296015988446856,-0.700019882768732
0.299024203942252,-0.724928709379653
0.311840426000323,-0.773210658182003
0.316666962889511,-0.753939739876045
0.269377887907714,-0.731099331181531
0.288140712542758,-0.740226801796878
0.309543744324192,-0.700354452368821
0.336202409392696,-0.725371170905057
0.299718513160976,-0.771273430122288
0.385722310036705,-0.719077761147432
0.320480056464838,-0.764922541766617
0.370921403339731,-0.725908455285552
0.375077308996272,-0.725983693463284
0.379190887610246,-0.726060911035716
0.378891441138386,-0.711669810905649
0.377720202960134,-0.746241802462206
0.391273325793635,-0.72630499321854
0.379196241442153,-0.681967377133366
0.410523718151996,-0.726756546992266
0.448105040203747,-0.744643278029505
0.414585015848861,-0.699453049425132
0.425094512983524,-0.727162047434083
0.440896466815727,-0.683746436134385
0.458339080248586,-0.755696336797286
0.406359000913376,-0.760276137704573
0.436405824766958,-0.769723226224144
0.445503142425127,-0.727852356928036
0.451906128867432,-0.728106112359111
0.482783148675018,-0.75712720406462
0.511210556589867,-0.694436997787134
0.441686895182664,-0.720650633591366
0.462207917069896,-0.736352080658981
0.520053021088169,-0.779903881916629
0.490772492317191,-0.730258959833302
0.535535956575547,-0.702634244662343
0.536500348200347,-0.757859879351849
0.508416840997952,-0.689667261181188
0.504183740807348,-0.690246095750117
0.488028174934897,-0.710919451056011
0.463517061390129,-0.775816864445733
0.476082524423714,-0.728662500074287
0.493457912042138,-0.758883004733713
0.550204219895477,-0.705877739277856
0.498246961154429,-0.751585780222699
0.524016776934419,-0.734175733297472
0.549853381878676,-0.687192391378145
0.532150621880368,-0.736408071756082
0.533505023905981,-0.737018583059745
0.489899097203262,-0.703973500813775
0.535013242476044,-0.737975467598294
0.535664740573518,-0.73864144762624
0.574995041750297,-0.710140256597677
0.585257410605652,-0.737352587350194
0.499274243140547,-0.731302527283955
0.53588197476199,-0.740778928577289
0.504823915023363,-0.736781216837341
0.535363738381793,-0.741539410776235
0.534991922802216,-0.741928898622365
0.532743228613387,-0.743549785545016
0.507508298373253,-0.746037434928472
0.524500790871945,-0.747105154397643
0.559540487389168,-0.710369834181442
0.520086748924204,-0.748550779054054
0.518451554159149,-0.749046715973342
0.516733713102333,-0.749549776092427
0.506601033600216,-0.70377469403275
0.506388362781737,-0.781734075011209
0.504666816376885,-0.75272082134766
0.488776962462175,-0.787577134851698
0.501126578490544,-0.78147101927476
0.483763295096245,-0.757371527188252
0.496218074080203,-0.757634443162251
0.442013102374269,-0.746749287835879
0.468348756524784,-0.760185209137379
0.48246885600497,-0.744717502831553
0.459294843646389,-0.761140956997631
0.422331912843795,-0.750976079504605
0.414389173809348,-0.810352436180736
0.437786604674642,-0.768726263880313
0.386521152125298,-0.772619872781034
0.412683951370854,-0.755590059620474
0.407718176105714,-0.753784491708371
0.395773847717695,-0.748282569652726
0.39346517995974,-0.747017015158599
0.384496200628982,-0.741421737470593
0.369198812417289,-0.725827760262802
0.3780470692709,-0.736680272582254
0.334165919076618,-0.784923398596822
0.375542825029712,-0.692081579928464
0.365856905411247,-0.725857347589012
0.38158151187153,-0.716901183891625
0.398764583180187,-0.712043572013079
0.355681454794513,-0.674630145780154
0.324452277839686,-0.687404486395627
0.35105644075578,-0.708814200440318
0.343262066451261,-0.728780581956244
0.359399168533912,-0.695794339593657
0.382995274017901,-0.717489859399058
0.305287959816922,-0.7435805143882
0.341032176170966,-0.694219465457893
0.371895779888088,-0.65366411673422
0.313016920747136,-0.677998369211871
0.340703818883985,-0.668884922577306
0.363703839330514,-0.726078739740386
0.376123800607217,-0.716247254073131
0.37194736983852,-0.687683107874233
0.332618991729658,-0.624149281000007
0.308400322862,-0.628882472517943
0.317539936697972,-0.645492569783556
0.350135094536816,-0.671615741865236
0.304357813572668,-0.602103549417015
0.329561976082944,-0.571209735635831
0.278231902318158,-0.551985844830178
0.300365680632142,-0.584277216650693
0.305425220382419,-0.553339445629436
0.249156283520669,-0.583528593849116
0.250572371864382,-0.563971115356015
0.316888585222197,-0.56046989449444
0.295765583643161,-0.558441811902763
0.303459101313814,-0.519713239364153
0.342396017028783,-0.526889432710738
0.292303971600326,-0.531744437462246
0.291521695103204,-0.523983505643419
0.313749284520879,-0.5595717504256
0.257639292062113,-0.506659868365213
0.324524133227771,-0.520653209542885
0.330080371847129,-0.499474375062158
0.260626639815304,-0.513627285079645
0.280709320598616,-0.484107012881687
0.262179869999771,-0.457673407805057
0.270338343916578,-0.435746071930023
0.288581834748203,-0.448281990140511
0.283182846477993,-0.476528037251139
0.322042331906055,-0.378476549358486
0.289964382815508,-0.411839258334499
0.241182898326959,-0.362131562684023
0.291764887845409,-0.357724736089084
0.293081940525485,-0.375545713066844
0.303326686182988,-0.317044630242166
0.307694463574744,-0.305005265992818
0.266342765980942,-0.322973771682687
0.301295854525127,-0.320287590946428
0.262999810732307,-0.323388661313829
0.354494835770591,-0.325903280927637
0.309605814183223,-0.282404084894178
0.310546527691798,-0.278712525036648
0.329122521693816,-0.257047282072033
0.271263336442575,-0.234537713304121
0.334590030282821,-0.252013268015098
0.323361757559555,-0.236100555270815
0.324555428120637,-0.232706051748339
0.318729340568843,-0.249973120861033
0.356960797362564,-0.201647029197382
0.329520769438397,-0.219398559887942
0.31402017442333,-0.200033992865709
0.294980897585079,-0.199590150674796
0.299468415398894,-0.15879115743923
0.347732397343936,-0.179486700818849
0.359722507713638,-0.165463702880717
0.352377754039338,-0.171085191108021
0.353962539918279,-0.168358050271994
0.327163478854588,-0.118580182330575
0.384244521307496,-0.13434533314513
0.362561882594136,-0.111380310610765
0.404922110167715,-0.188177964234542
0.389390901679252,-0.122400650131804
0.369207033522136,-0.0823311631257346
0.399332334287332,-0.113750976120056
0.405499894963899,-0.10916521380843
0.433680902604143,-0.0922164763606071
0.422678452572082,-0.0992745862393974
0.422850548313245,-0.0650114373735388
0.429250915741864,-0.0559636677368343
0.402590743822822,-0.0998094636398402
0.477254078792283,-0.0439611385077348
0.457683642714972,-0.0906811636152685
0.490502149678685,-0.101463435666216
0.470139412972826,-0.0909462845855465
0.467560716592205,-0.0610983704339631
0.534116368562404,-0.132186416820724
0.515320704163759,-0.104763707221746
0.483770912880409,-0.084315598829682
0.497128154699933,-0.116001471997629
0.53491125689554,-0.153609067716747
0.543871570746438,-0.122972308516551
0.583439482224828,-0.128152747109076
0.548410623007448,-0.0818744740966493
0.58911869095758,-0.147388144387037
0.596530217232142,-0.103891965100919
0.571031073256811,-0.185554746075033
0.557021478337685,-0.187491386350081
0.605698327221833,-0.143028489270242
0.58709209465227,-0.169275110827001
0.624540293190561,-0.209603611837918
0.633951795730439,-0.276661768034113
0.654514342010264,-0.254054435143788
0.65902597998168,-0.327360790998561
0.632818447976403,-0.263301692439721
0.696023141859698,-0.325929429391686
0.699559490810694,-0.332594420555135
0.67895682568744,-0.327367708892542
0.712827987041347,-0.405121077274047
0.754191174691157,-0.48482428779993
0.792105374618629,-0.490959798079485
0.820490777375747,-0.545564378943705
0.791630444254872,-0.53515175824527
0.796136589530634,-0.59346023901892
0.830327809494974,-0.636625949713348
0.957750212547953,-0.927867096502972
0.943904447436983,-0.988191113155124
