-0.367040207049539,0.676150287929756
-0.889012174000985,-0.13239122284556
-0.253159838189533,-0.28352609123425
-0.18783094006101,-0.111346910128128
-0.122502041932487,0.0608322709779938
-0.0644851800870512,-0.99898630954346
-0.662667803655104,-0.358371453817185
-1.26085042722316,0.28224340190909
-0.420249716725639,-0.146063743061954
0.0901606311981624,0.569494288226728
