0.346513756669253,0.443178412003339
0.343660183183816,0.446421644246679
0.340810366286848,0.449630357610095
0.337964384655333,0.452804594156314
0.335122316966257,0.455944395948062
0.332284241896605,0.459049805048064
0.329450238123361,0.462120863519046
0.326620384323511,0.465157613423735
0.32379475917404,0.468160096824855
0.320973441351934,0.471128355785133
0.318156509534176,0.474062432367295
0.315344042397752,0.476962368634067
0.312536118619647,0.479828206648174
0.309732816876847,0.482659988472342
0.306934215846335,0.485457756169297
0.304140394205098,0.488221551801766
0.301351430630121,0.490951417432473
0.298567403798387,0.493647395124146
0.295788392386883,0.496309526939509
0.293014475072594,0.498937854941288
0.290245730532504,0.50153242119221
0.287482237443599,0.504093267755
0.284724074482863,0.506620436692384
0.281971320327283,0.509113970067088
0.279224053653841,0.511573909941838
0.276482353139525,0.51400029837936
0.273746297461319,0.516393177442379
0.271015965296207,0.518752589193622
0.268291435321176,0.521078575695815
0.265572786213209,0.523371179011682
0.262860096649293,0.525630441203951
0.260153445306411,0.527856404335346
0.25745291086155,0.530049110468594
0.254758571991695,0.532208601666421
0.252070507373829,0.534334919991553
0.249388795684939,0.536428107506715
0.246713515602009,0.538488206274633
0.244044745802025,0.540515258358033
0.241382564961971,0.542509305819642
0.238727051758833,0.544470390722184
0.236078284869595,0.546398555128386
0.233436342971244,0.548293841100974
0.230801304740762,0.550156290702673
0.228173248855137,0.551985945996209
0.225552253991353,0.553782849044309
0.222938398826394,0.555547041909698
0.220331762037246,0.557278566655102
0.217732422300895,0.558977465343246
0.215140458294324,0.560643780036858
0.21255594869452,0.562277552798662
0.209978972178466,0.563878825691384
0.207409607423149,0.565447640777751
0.204847933105553,0.566984040120488
0.202294027902664,0.568488065782321
0.199747970491466,0.569959759825976
0.197209839548944,0.571399164314178
0.194679713752084,0.572806321309655
0.19215767177787,0.574181272875131
0.189643792303288,0.575524061073332
0.187138154005323,0.576834727966984
0.184640835560959,0.578113315618814
0.182151915647183,0.579359866091546
0.179671472940977,0.580574421447908
0.177199586119329,0.581757023750624
0.174736333859223,0.582907715062421
0.172281794837644,0.584026537446024
0.169836047731576,0.58511353296416
0.167399171218006,0.586168743679553
0.164971243973918,0.587192211654931
0.162552344676297,0.588183978953019
0.160142552002129,0.589144087636543
0.157741944628397,0.590072579768228
0.155350601232089,0.590969497410801
0.152968600490187,0.591834882626987
0.150596021079678,0.592668777479513
0.148232941677546,0.593471224031103
0.145879440960778,0.594242264344485
0.143535597606356,0.594981940482384
0.141201490291268,0.595690294507525
0.138877197692497,0.596367368482635
0.136562798487029,0.597013204470439
0.134258371351848,0.597627844533664
0.131963994963941,0.598211330735035
0.129679748000291,0.598763705137278
0.127405709137885,0.599285009803119
0.125141957053707,0.599775286795284
0.122888570424741,0.600234578176499
0.120645627927974,0.600662926009489
0.11841320824039,0.601060372356981
0.116191390038975,0.6014269592817
0.113980252000713,0.601762728846372
0.111779872802589,0.602067723113723
0.109590331121588,0.602341984146479
0.107411705634696,0.602585554007366
0.105244075018898,0.602798474759109
0.103087517951178,0.602980788464435
0.100942113108522,0.60313253718607
0.0988079391679147,0.603253762986738
0.0966850748063411,0.603344507929167
0.0945735987007862,0.603404814076082
0.0924735895282353,0.603434723490209
0.0903851259656733,0.603434278234273
0.0883082866900852,0.603403520371001
0.0862431503784561,0.603342491963118
0.0841897957077712,0.603251235073351
0.0821483013550154,0.603129791764425
0.0801187459971738,0.602978204099066
0.0781012083112314,0.60279651414
0.0760957669741734,0.602584763949952
0.0741025006629847,0.60234299559165
0.0721214880546504,0.602071251127818
0.0701528078261556,0.601769572621182
0.0681965386544853,0.601438002134469
0.0662527592166246,0.601076581730403
0.0643215481895585,0.600685353471712
0.062402984250272,0.600264359421121
0.0604971460757504,0.599813641641355
0.0586041123429785,0.599333242195141
0.0567239617289414,0.598823203145205
0.0548567729106243,0.598283566554271
0.0530026245650121,0.597714374485068
0.0511615953690899,0.597115669000319
0.0493337639998428,0.596487492162751
0.0475192091342558,0.59582988603509
0.0457180094493139,0.595142892680061
0.0439302436220023,0.594426554160392
0.042155990329306,0.593680912538806
0.0403953282482099,0.592906009878031
0.0386483360556993,0.592101888240792
0.0369150924287592,0.591268589689816
0.0351956760443744,0.590406156287827
0.0334901655795303,0.589514630097551
0.0317986397112117,0.588594053181716
0.0301211771164039,0.587644467603046
0.0284578564720916,0.586665915424267
0.0268087564552602,0.585658438708106
0.0251739557428946,0.584622079517288
0.0235535330119799,0.583556879914538
0.0219475669395011,0.582462881962584
0.0203561362024432,0.58134012772415
0.0187793194777914,0.580188659261963
0.0172171954425307,0.579008518638748
0.0156698427736462,0.577799747917232
0.0141373401481228,0.576562389160139
0.0126197662429457,0.575296484430197
0.0111171997350999,0.574002075790131
0.00962971930157039,0.572679205302667
0.00815740361934233,0.57132791503053
0.00670033136540074,0.569948247036447
0.0052585812167307,0.568540243383143
0.0038322318503172,0.567103946133345
0.00242136194314532,0.565639397349777
0.00102605017220016,0.564146639095167
-0.000353624785533274,0.562625713432239
-0.00171758425306995,0.56107666242372
-0.00306574955342475,0.559499528132336
-0.00439804200961266,0.557894352620813
-0.00571438294464861,0.556261177951875
-0.00701469368154756,0.55460004618825
-0.00829889554332447,0.552910999392663
-0.00956690985299424,0.55119407962784
-0.0108186579335718,0.549449328956507
-0.0120540611080722,0.547676789441389
-0.0132730406995104,0.545876503145213
-0.0144755180309011,0.544048512130705
-0.0156614144252595,0.54219285846059
-0.0168306512056005,0.540309584197593
-0.017983149694939,0.538398731404442
-0.0191188312162899,0.536460342143862
-0.0202376170926682,0.534494458478579
-0.0213394286470888,0.532501122471318
-0.0224241872025668,0.530480376184805
-0.023491814082117,0.528432261681768
-0.0245422306087544,0.52635682102493
-0.0255753581054938,0.524254096277018
-0.0265911178953504,0.522124129500759
-0.027589431301339,0.519966962758877
-0.0285702196464746,0.517782638114099
-0.029533404253772,0.515571197629151
-0.0304789064462464,0.513332683366758
-0.0314066475469125,0.511067137389646
-0.0323165488787854,0.508774601760541
-0.03320853176488,0.50645511854217
-0.0340825175282112,0.504108729797257
-0.034938427491794,0.50173547758853
-0.0357761829786434,0.499335403978713
-0.0365957053117742,0.496908551030532
-0.0373969158142014,0.494454960806714
-0.0381797358089401,0.491974675369984
-0.038944086619005,0.489467736783068
-0.0396898895674112,0.486934187108693
-0.0404170659771737,0.484374068409583
-0.0411255371713072,0.481787422748465
-0.0418152244728269,0.479174292188064
-0.0424860492047476,0.476534718791107
-0.0431379326900843,0.473868744620319
-0.043770796251852,0.471176411738427
-0.0443845612130655,0.468457762208155
-0.0449791488967399,0.465712838092231
-0.04555448062589,0.462941681453379
-0.0461104777235309,0.460144334354326
-0.0466470615126775,0.457320838857798
-0.0471641533163446,0.45447123702652
-0.0476616744575473,0.451595570923218
-0.0481395462593006,0.448693882610618
-0.0485976900446193,0.445766214151447
-0.0490360271365183,0.442812607608429
-0.0494544788580127,0.439833105044291
-0.0498529665321174,0.436827748521759
-0.0502314114818474,0.433796580103558
-0.0505897350302175,0.430739641852415
-0.0509278585002428,0.427656975831055
-0.0512457032149381,0.424548624102204
-0.0515431904973185,0.421414628728587
-0.0518202416703988,0.418255031772932
-0.052076778057194,0.415069875297964
-0.0523127209807191,0.411859201366408
-0.052527991763989,0.40862305204099
-0.0527225117300187,0.405361469384437
-0.052896202201823,0.402074495459474
-0.053048984502417,0.398762172328827
-0.0531807799548156,0.395424542055222
-0.0532915098820337,0.392061646701384
-0.0533810956070863,0.388673528330041
-0.0534494584529883,0.385260229003917
-0.0534965197427547,0.381821790785738
-0.0535222007994004,0.378358255738231
-0.0535264229459403,0.37486966592412
-0.0535091075053895,0.371356063406133
-0.0534701758007629,0.367817490246994
-0.0534095491550753,0.364253988509431
-0.0533271488913418,0.360665600256167
-0.0532228963325773,0.357052367549931
-0.0530967128017967,0.353414332453446
-0.052948519622015,0.34975153702944
-0.0527782381162471,0.346064023340638
-0.052585789607508,0.342351833449766
-0.0523710954188126,0.33861500941955
-0.0521340768731759,0.334853593312715
-0.0518746552936129,0.331067627191988
-0.0515927520031383,0.327257153120094
-0.0512882883247673,0.32342221315976
-0.0509611855815147,0.319562849373711
-0.0506113650963956,0.315679103824672
-0.0502387481924248,0.311771018575371
-0.0498432561926172,0.307838635688532
-0.049424810419988,0.303881997226883
-0.0489833321975518,0.299901145253147
-0.0485187428483239,0.295896121830052
-0.048030963695319,0.291866969020323
-0.0475199160615521,0.287813728886686
-0.0469855212700381,0.283736443491867
-0.0464277006437922,0.279635154898592
-0.045846375505829,0.275509905169587
-0.0452414671791636,0.271360736367577
-0.044612896986811,0.267187690555289
-0.0439605862517862,0.262990809795448
-0.0432844562971039,0.25877013615078
-0.0425844284457793,0.254525711684012
-0.0418604240208271,0.250257578457868
-0.0411123643452625,0.245965778535075
-0.0403401707421002,0.241650353978358
-0.0395437645343554,0.237311346850444
-0.0387230670450428,0.232948799214059
-0.0378779995971776,0.228562753131928
-0.0370084835137745,0.224153250666776
-0.0361144401178486,0.219720333881331
-0.0351957907324148,0.215264044838318
-0.034252456680488,0.210784425600462
-0.0332843592850832,0.20628151823049
-0.0322914198692154,0.201755364791128
-0.0312735597558995,0.197206007345101
-0.0302307002681504,0.192633487955135
-0.029162762728983,0.188037848683956
-0.0280696684614125,0.18341913159429
-0.0269513387884535,0.178777378748863
-0.0258076950331212,0.1741126322104
-0.0246386585184304,0.169424934041628
-0.0234441505673961,0.164714326305273
-0.0222240925030333,0.159980851064059
-0.020978405648357,0.155224550380714
-0.0197070113263818,0.150445466317963
-0.0184098308601231,0.145643640938532
-0.0170867855725956,0.140819116305146
-0.0157377967868142,0.135971934480532
-0.014362785825794,0.131102137527416
-0.0129616740125498,0.126209767508523
-0.0115343826700967,0.121294866486579
-0.0100808331214495,0.11635747652431
-0.00860094668962327,0.111397639684442
-0.00709464469763291,0.106415398029702
-0.00556184846849329,0.101410793622813
-0.00400247932521947,0.0963838685265037
-0.0024164585908263,0.0913346648034984
-0.000803707588328859,0.0862632245165235
0.000835852359258094,0.0811695897283046
0.00250229992891945,0.0760538025015679
0.00419571379764038,0.070915904899039
0.00591617264240582,0.0657559389834441
0.00766375514020096,0.0605739468175085
0.0094385399680107,0.0553699704639587
0.0112406058028203,0.0501440519855201
0.0130700313216145,0.0448962334449189
0.0149268952013787,0.0396265569048805
0.0168112761190977,0.0343350644281315
0.0187232527517568,0.029021798077397
0.0206629037763407,0.0236867999154036
0.0226303078698348,0.0183301120048764
0.024625543709224,0.0129517764085419
0.0266486899714934,0.00755183518912553
0.0286998253336279,0.00213033040935361
0.0307790284726129,-0.00331269586804855
0.032886378065433,-0.00877720158035451
0.0350219527890736,-0.0142631446648389
0.0371858313205196,-0.0197704830587754
0.0393780923367561,-0.0252991746994386
0.0415988145147681,-0.0308491775241021
0.0438480765315408,-0.0364204494700407
0.0461259570640591,-0.0420129484745278
0.0484325347893081,-0.0476266324748382
0.0507678883842729,-0.0532614594082454
0.0531320965259385,-0.0589173872120242
0.05552523789129,-0.0645943738234481
0.0579473911573124,-0.0702923771797918
0.0603986350009907,-0.0760113552183289
0.0628790480993102,-0.081751265876334
0.0653887091292556,-0.0875120670910808
0.0679276967678123,-0.0932937167998438
0.0704960896919651,-0.0990961729398968
0.0730939665786992,-0.104919393448514
0.0757214061049996,-0.11076333626297
0.0783784869478514,-0.116627959320539
0.0810652877842395,-0.122513220558494
0.0837818872911492,-0.12841907791411
0.0865283641455652,-0.134345489324661
0.089304797024473,-0.140292412727421
0.0921112646048573,-0.146259806059664
0.0949478455637034,-0.152247627258665
0.0978146185779961,-0.158255834261697
0.100711662324721,-0.164284385006035
0.103639055480862,-0.170333237428952
0.106596876723405,-0.176402349467724
0.109585204729336,-0.182491679059623
0.112604118175638,-0.188601184141925
0.115653695739297,-0.194730822651903
0.118734016097299,-0.200880552526831
0.121845157926627,-0.207050331703984
0.124987199904268,-0.213240118120635
0.128160220707206,-0.21944986971406
0.131364299012427,-0.225679544421531
0.134599513496914,-0.231929100180323
0.137865942837655,-0.238198494927711
0.141163665711632,-0.244487686600968
0.144492760795833,-0.250796633137368
0.147853306767241,-0.257125292474186
0.151245382302841,-0.263473622548696
0.154669066079619,-0.269841581298172
0.158124436774561,-0.276229126659887
0.161611573064649,-0.282636216571117
0.165130553626871,-0.289062808969135
0.168681457138211,-0.295508861791215
0.172264362275653,-0.301974332974632
0.175879347716184,-0.30845918045666
0.179526492136788,-0.314963362174572
0.18320587421445,-0.321486836065644
0.186917572626155,-0.328029560067148
0.190661666048888,-0.334591492116359
0.194438233159635,-0.341172590150552
0.19824735263538,-0.347772812107001
0.202089103153108,-0.354392115922978
0.205963563389805,-0.36103045953576
0.209870812022455,-0.367687800882619
0.213810927728044,-0.374364097900831
0.217783989183557,-0.381059308527668
0.221790075065978,-0.387773390700406
0.225829264052293,-0.394506302356318
0.229901634819487,-0.401258001432679
0.234007266044545,-0.408028445866762
0.238146236404451,-0.414817593595842
0.242318624576192,-0.421625402557193
0.246524509236751,-0.428451830688089
0.250763969063115,-0.435296835925804
0.255037082732267,-0.442160376207612
0.259343928921194,-0.449042409470788
0.26368458630688,-0.455942893652605
0.268059133566311,-0.462861786690339
0.27246764937647,-0.469799046521261
0.276910212414345,-0.476754631082648
0.281386901356918,-0.483728498311773
0.285897794881176,-0.490720606145911
0.290442971664103,-0.497730912522334
0.295022510382686,-0.504759375378318
0.299636489713908,-0.511805952651136
0.304284988334754,-0.518870602278064
0.30896808492221,-0.525953282196374
0.313685858153262,-0.533053950343341
0.318438386704892,-0.540172564656239
0.323225749254088,-0.547309083072343
0.328048024477834,-0.554463463528926
0.332905291053115,-0.561635663963262
0.332905291053115,-0.561635663963262
0.33776371703516,-0.568771439408441
0.342589486430492,-0.575816786413431
0.347382701843041,-0.582772025189332
0.352143465876735,-0.589637475947243
0.356871881135504,-0.596413458898262
0.361568050223275,-0.603100294253488
0.366232075743977,-0.609698302224018
0.37086406030154,-0.616207803020953
0.375464106499891,-0.62262911685539
0.38003231694296,-0.628962563938428
0.384568794234675,-0.635208464481165
0.389073640978966,-0.641367138694701
0.39354695977976,-0.647438906790133
0.397988853240986,-0.65342408897856
0.402399423966573,-0.65932300547108
0.406778774560451,-0.665135976478794
0.411127007626546,-0.670863322212798
0.415444225768789,-0.676505362884191
0.419730531591108,-0.682062418704072
0.423986027697432,-0.68753480988354
0.428210816691689,-0.692922856633693
0.432405001177808,-0.69822687916563
0.436568683759718,-0.703447197690448
0.440701967041347,-0.708584132419248
0.444804953626625,-0.713638003563127
0.448877746119479,-0.718609131333184
0.452920447123839,-0.723497835940517
0.456933159243634,-0.728304437596225
0.460915985082791,-0.733029256511407
0.46486902724524,-0.737672612897161
0.46879238833491,-0.742234826964586
0.472686170955729,-0.74671621892478
0.476550477711626,-0.751117108988842
0.480385411206529,-0.755437817367871
0.484191074044368,-0.759678664272964
0.48796756882907,-0.763839969915221
0.491714998164566,-0.76792205450574
0.495433464654782,-0.77192523825562
0.499123070903649,-0.775849841375958
0.502783919515095,-0.779696184077855
0.506416113093048,-0.783464586572408
0.510019754241438,-0.787155369070716
0.513594945564192,-0.790768851783877
0.51714178966524,-0.794305354922991
0.520660389148511,-0.797765198699155
0.524150846617933,-0.801148703323468
0.527613264677434,-0.804456189007029
0.531047745930945,-0.807687975960936
0.534454392982392,-0.810844384396289
0.537833308435705,-0.813925734524184
0.541184594894813,-0.816932346555721
0.544508354963644,-0.819864540701999
0.547804691246128,-0.822722637174117
0.551073706346191,-0.825506956183171
0.554315502867765,-0.828217817940262
0.557530183414777,-0.830855542656488
0.560717850591156,-0.833420450542947
0.56387860700083,-0.835912861810739
0.567012555247728,-0.83833309667096
0.57011979793578,-0.840681475334711
0.573200437668913,-0.842958318013089
0.576254577051057,-0.845163944917193
0.57928231868614,-0.847298676258122
0.582283765178091,-0.849362832246975
0.585259019130839,-0.851356733094849
0.588208183148311,-0.853280699012844
0.591131359834438,-0.855135050212058
0.594028651793148,-0.856920106903589
0.596900161628369,-0.858636189298537
0.59974599194403,-0.860283617607998
0.602566245344059,-0.861862712043074
0.605361024432387,-0.863373792814861
0.60813043181294,-0.864817180134458
0.610874570089649,-0.866193194212964
0.613593541866441,-0.867502155261478
0.616287449747246,-0.868744383491098
0.618956396335992,-0.869920199112923
0.621600484236608,-0.87102992233805
0.624219816053021,-0.87207387337758
0.626814494389163,-0.87305237244261
0.62938462184896,-0.873965739744238
0.631930301036342,-0.874814295493564
0.634451634555237,-0.875598359901686
0.636948725009575,-0.876318253179703
0.639421675003283,-0.876974295538713
0.64187058714029,-0.877566807189814
0.644295564024526,-0.878096108344106
0.646696708259919,-0.878562519212686
0.649074122450397,-0.878966360006654
0.65142790919989,-0.879307950937108
0.653758171112325,-0.879587612215146
0.656065010791633,-0.879805664051867
0.658348530841741,-0.87996242665837
0.660608833866578,-0.880058220245753
0.662846022470072,-0.880093365025115
0.665060199256154,-0.880068181207554
0.667251466828751,-0.879982989004169
0.669419927791791,-0.879838108626059
0.671565684749204,-0.879633860284321
0.673688840304919,-0.879370564190055
0.675789497062864,-0.87904854055436
0.677867757626968,-0.878668109588332
0.679923724601159,-0.878229591503072
0.681957500589367,-0.877733306509678
0.68396918819552,-0.877179574819249
0.685958890023546,-0.876568716642882
0.687926708677374,-0.875901052191676
0.689872746760934,-0.875176901676731
0.691797106878154,-0.874396585309145
0.693699891632961,-0.873560423300015
0.695581203629286,-0.872668735860441
0.697441145471058,-0.871721843201522
0.699279819762204,-0.870720065534356
0.701097329106653,-0.869663723070041
0.702893776108334,-0.868553136019675
0.704669263371176,-0.867388624594359
0.706423893499107,-0.86617050900519
0.708157769096057,-0.864899109463266
0.709870992765953,-0.863574746179687
0.711563667112725,-0.86219773936555
0.713235894740302,-0.860768409231955
0.714887778252611,-0.85928707599
0.716519420253582,-0.857754059850783
0.718130923347144,-0.856169681025403
0.719722390137225,-0.85453425972496
0.721293923227753,-0.85284811616055
0.722845625222658,-0.851111570543272
0.724377598725869,-0.849324943084227
0.725889946341313,-0.847488553994511
0.72738277067292,-0.845602723485223
0.728856174324619,-0.843667771767463
0.730310259900337,-0.841684019052328
0.731745130004005,-0.839651785550918
0.73316088723955,-0.837571391474329
0.734557634210901,-0.835443157033663
0.735935473521988,-0.833267402440016
0.737294507776737,-0.831044447904488
0.73863483957908,-0.828774613638176
0.739956571532943,-0.826458219852179
0.741259806242256,-0.824095586757598
0.742544646310948,-0.821687034565528
0.743811194342947,-0.81923288348707
0.745059552942181,-0.816733453733322
0.746289824712581,-0.814189065515382
0.747502112258074,-0.811600039044349
0.748696518182588,-0.808966694531321
0.749873145090054,-0.806289352187397
0.751032095584399,-0.803568332223676
0.752173472269552,-0.800803954851256
0.753297377749442,-0.797996540281236
0.754403914627998,-0.795146408724714
0.755493185509148,-0.792253880392789
0.756565292996821,-0.789319275496559
0.757620339694946,-0.786342914247123
0.758658428207451,-0.783325116855579
0.759679661138265,-0.780266203533027
0.760684141091317,-0.777166494490565
0.761671970670536,-0.77402630993929
0.76264325247985,-0.770845970090303
0.763598089123188,-0.7676257951547
0.764536583204479,-0.764366105343582
0.765458837327651,-0.761067220868046
0.766364954096633,-0.757729461939191
0.767255036115354,-0.754353148768116
0.768129185987743,-0.750938601565919
0.768987506317727,-0.747486140543698
0.769830099709237,-0.743996085912553
0.7706570687662,-0.740468757883582
0.771468516092546,-0.736904476667883
0.772264544292203,-0.733303562476555
0.773045255969099,-0.729666335520696
0.773810753727165,-0.725993116011406
0.774561140170327,-0.722284224159782
0.775296517902515,-0.718539980176924
0.776016989527658,-0.714760704273929
0.776722657649684,-0.710946716661897
0.777413624872523,-0.707098337551925
0.778089993800101,-0.703215887155113
0.77875186703635,-0.699299685682559
0.779399347185197,-0.695350053345362
0.78003253685057,-0.69136731035462
0.780651538636399,-0.687351776921431
0.781256455146612,-0.683303773256894
0.781847388985139,-0.679223619572109
0.782424442755907,-0.675111636078173
0.782987719062846,-0.670968142986185
0.783537320509883,-0.666793460507243
0.784073349700949,-0.662587908852447
0.784595909239971,-0.658351808232895
0.785105101730878,-0.654085478859684
0.785601029777599,-0.649789240943914
0.786083795984063,-0.645463414696684
0.786553502954199,-0.641108320329091
0.787010253291935,-0.636724278052235
0.787454149601199,-0.632311608077214
0.787885294485921,-0.627870630615126
0.788303790550029,-0.623401665877071
0.788709740397452,-0.618905034074147
0.789103246632118,-0.614381055417451
0.789484411857958,-0.609830050118084
0.789853338678898,-0.605252338387143
0.790210129698868,-0.600648240435727
0.790554887521796,-0.596018076474935
0.790887714751611,-0.591362166715864
0.791208713992243,-0.586680831369614
0.791517987847619,-0.581974390647284
0.791815638921669,-0.577243164759971
0.79210176981832,-0.572487473918775
0.792376483141502,-0.567707638334793
0.792639881495144,-0.562903978219126
0.792892067483174,-0.55807681378287
0.79313314370952,-0.553226465237124
0.793363212778113,-0.548353252792988
0.793582377292879,-0.54345749666156
0.793790739857749,-0.538539517053938
0.79398840307665,-0.53359963418122
0.794175469553512,-0.528638168254506
0.794352041892263,-0.523655439484895
0.794518222696831,-0.518651768083483
0.794674114571147,-0.513627474261371
0.794819820119137,-0.508582878229656
0.794955441944732,-0.503518300199438
0.795081082651859,-0.498434060381814
0.795196844844447,-0.493330478987884
0.795302831126426,-0.488207876228746
0.795399144101724,-0.483066572315498
0.795485886374269,-0.477906887459239
0.79556316054799,-0.472729141871068
0.795631069226816,-0.467533655762083
0.795689715014676,-0.462320749343383
0.795739200515498,-0.457090742826066
0.795779628333211,-0.451843956421231
0.795811101071744,-0.446580710339976
0.795833721335025,-0.441301324793401
0.795847591726984,-0.436006119992603
0.795852814851549,-0.430695416148681
0.795849493312648,-0.425369533472733
0.79583772971421,-0.420028792175859
0.795817626660165,-0.414673512469157
0.79578928675444,-0.409304014563725
0.795752812600965,-0.403920618670662
0.795708306803668,-0.398523645001066
0.795655871966477,-0.393113413766037
0.795595610693323,-0.387690245176672
0.795527625588132,-0.38225445944407
0.795452019254835,-0.376806376779331
0.795368894297359,-0.371346317393551
0.795278353319634,-0.36587460149783
0.795180498925588,-0.360391549303267
0.795075433719149,-0.35489748102096
0.794963260304247,-0.349392716862007
0.794844081284811,-0.343877577037507
0.794717999264768,-0.338352381758559
0.794585116848048,-0.332817451236261
0.79444553663858,-0.327273105681712
0.794299361240292,-0.321719665306011
0.794146693257112,-0.316157450320255
0.79398763529297,-0.310586780935544
0.793822289951794,-0.305007977362976
0.793650759837513,-0.299421359813649
0.793473147554056,-0.293827248498663
0.793289555705351,-0.288225963629116
0.793100086895327,-0.282617825416105
0.792904843727913,-0.277003154070731
0.792703928807037,-0.271382269804091
0.792497444736628,-0.265755492827284
0.792285494120616,-0.260123143351409
0.792068179562928,-0.254485541587564
0.791845603667493,-0.248843007746847
0.79161786903824,-0.243195862040358
0.791385078279099,-0.237544424679194
0.791147333993996,-0.231889015874455
0.790904738786862,-0.226229955837239
0.790657395261624,-0.220567564778644
0.790405406022213,-0.214902162909769
0.790148873672555,-0.209234070441714
0.78988790081658,-0.203563607585575
0.789622590058217,-0.197891094552452
0.789353044001395,-0.192216851553443
0.789079365250041,-0.186541198799647
0.788801656408086,-0.180864456502163
0.788520020079457,-0.175186944872088
0.788234558868083,-0.169508984120522
0.787945375377893,-0.163830894458564
0.787652572212816,-0.15815299609731
0.78735625197678,-0.152475609247862
0.787056517273715,-0.146799054121316
0.786753470707548,-0.141123650928771
0.786447214882208,-0.135449719881327
0.786137852401625,-0.129777581190081
0.785825485869727,-0.124107555066131
0.785510217890442,-0.118439961720578
0.7851921510677,-0.112775121364519
0.784871388005429,-0.107113354209052
0.784548031307557,-0.101454980465277
0.784222183578014,-0.095800320344292
0.783893947420728,-0.090149694057195
0.783563425439629,-0.0845034218150853
0.783230720238643,-0.0788618238290609
0.782895934421701,-0.073225220310221
0.782559170592731,-0.0675939314696634
0.782220531355662,-0.0619682775184874
0.781880119314422,-0.056348578667791
0.78153803707294,-0.0507351551286731
0.781194387235146,-0.0451283271122321
0.780849272404966,-0.0395284148295667
0.780502795186331,-0.0339357384917752
0.780155058183169,-0.0283506183099566
0.779806163999409,-0.0227733744952089
0.779456215238979,-0.0172043272586312
0.779105314505808,-0.0116437968113216
0.778753564403825,-0.00609210336437911
0.778401067536959,-0.000549567128901904
0.778047926509138,0.00498349168401108
0.77769424392429,0.0105067528632617
0.777340122386346,0.016019896197751
0.776985664499233,0.0215226014763809
0.776630972866879,0.0270145484880521
0.776276150093215,0.0324954170216668
0.775921298782168,0.037964886866126
0.775566521537667,0.0434226378103313
0.775211920963642,0.0488683496431839
0.77485759966402,0.0543017021535857
0.77450366024273,0.0597223751304375
0.774150205303701,0.0651300483626414
0.773797337450862,0.0705244016390983
0.773445159288142,0.0759051147487102
0.773093773419468,0.0812718674803778
0.772743282448771,0.0866243396230033
0.772393788979978,0.0919622109654875
0.772045395617019,0.0972851612967323
0.771698204963821,0.102592870405639
0.771352319624314,0.107885018081109
0.771007842202427,0.113161284112043
0.770664875302087,0.118421348287344
0.770323521527225,0.123664890395912
0.769983883481768,0.12889159022665
0.769646063769645,0.134101127568458
0.769310164994786,0.139293182210238
0.768976289761118,0.144467433940891
0.76864454067257,0.149623562549319
0.768315020333072,0.154761247824423
0.767987831346551,0.159880169555105
0.767663076316937,0.164980007530265
0.767340857848158,0.170060441538807
0.767021278544144,0.17512115136963
0.766704441008821,0.180161816811637
0.76639044784612,0.185182117653729
0.76607940165997,0.190181733684807
0.765771405054298,0.195160344693773
0.765466560633033,0.200117630469527
0.765164971000105,0.205053270800973
0.764866738759441,0.20996694547701
0.764571966514972,0.214858334286541
0.764280756870624,0.219727117018467
0.763993212430328,0.224572973461689
0.763709435798011,0.229395583405109
0.763429529577603,0.234194626637628
0.763153596373032,0.238969782948148
0.762881738788226,0.24372073212557
0.762614059427116,0.248447153958796
0.762350660893628,0.253148728236726
0.762091645791693,0.257825134748263
0.761837116725239,0.262476053282308
0.761587176298193,0.267101163627762
0.761341927114486,0.271700145573526
0.761101471778046,0.276272678908503
0.760865912892801,0.280818443421594
0.760635353062681,0.285337118901699
0.760409894891614,0.289828385137721
0.760189640983528,0.294291921918561
0.759974693942353,0.29872740903312
0.759765156372016,0.3031345262703
0.759561130876448,0.307512953419002
0.759362720059576,0.311862370268128
0.759170026525329,0.316182456606579
0.758983152877637,0.320472892223256
0.758802201720427,0.324733356907061
0.758627275657628,0.328963530446896
0.758458477293169,0.333163092631662
0.758295909230979,0.337331723250259
0.758139674074987,0.341469102091591
0.757989874429121,0.345574908944558
0.757846612897309,0.349648823598061
0.757709992083482,0.353690525841002
0.757580114591566,0.357699695462283
0.757457083025492,0.361676012250805
0.757340999989187,0.365619155995469
0.757231968086581,0.369528806485177
0.757130089921602,0.37340464350883
0.757035468098179,0.377246346855329
0.756948205220241,0.381053596313577
0.756868403891715,0.384826071672474
0.756796166716532,0.388563452720922
0.756731596298619,0.392265419247823
0.756674795241906,0.395931651042077
0.756625866150321,0.399561827892587
0.756584911627793,0.403155629588253
0.756552034278251,0.406712735917978
0.756552034278251,0.406712735917978
0.75650842318289,0.410219703109656
0.756435297444056,0.413663542702208
0.7563328046974,0.417044617451072
0.756201092578574,0.420363290111688
0.756040308723227,0.423619923439495
0.755850600767011,0.42681488018993
0.755632116345576,0.429948523118434
0.755385003094576,0.433021214980444
0.755109408649658,0.4360333185314
0.754805480646476,0.43898519652674
0.75447336672068,0.441877211721904
0.754113214507921,0.444709726872329
0.75372517164385,0.447483104733456
0.753309385764117,0.450197708060722
0.752866004504375,0.452853899609567
0.752395175500274,0.455452042135429
0.751897046387465,0.457992498393747
0.751371764801599,0.46047563113996
0.750819478378327,0.462901803129508
0.750240334753301,0.465271377117827
0.74963448156217,0.467584715860359
0.749002066440587,0.46984218211254
0.748343237024201,0.472044138629811
0.747658140948665,0.474190948167609
0.74694692584963,0.476282973481375
0.746209739362745,0.478320577326545
0.745446729123662,0.48030412245856
0.744658042768033,0.482233971632859
0.743843827931508,0.48411048760488
0.743004232249738,0.485934033130061
0.742139403358374,0.487704970963842
0.741249488893068,0.489423663861661
0.74033463648947,0.491090474578958
0.739394993783231,0.492705765871171
0.738430708410003,0.494269900493739
0.737441928005436,0.495783241202101
0.736428800205181,0.497246150751695
0.73539147264489,0.498658991897961
0.734330092960213,0.500022127396337
0.733244808786801,0.501335920002262
0.732135767760306,0.502600732471175
0.731003117516378,0.503816927558515
0.729847005690668,0.50498486801972
0.728667579918828,0.50610491661023
0.727464987836509,0.507177436085482
0.726239377079361,0.508202789200917
0.724990895283035,0.509181338711973
0.723719690083183,0.510113447374088
0.722425909115455,0.510999477942702
0.721109700015503,0.511839793173253
0.719771210418978,0.51263475582118
0.71841058796153,0.513384728641922
0.71702798027881,0.514090074390918
0.71562353500647,0.514751155823606
0.714197399780161,0.515368335695426
0.712749722235533,0.515941976761816
0.711280650008238,0.516472441778215
0.709790330733926,0.516960093500062
0.708278912048249,0.517405294682795
0.706746541586858,0.517808408081854
0.705193366985404,0.518169796452678
0.703619535879537,0.518489822550704
0.702025195904908,0.518768849131373
0.70041049469717,0.519007238950122
0.698775579891972,0.519205354762391
0.697120599124966,0.519363559323618
0.695445700031803,0.519482215389243
0.693751030248133,0.519561685714704
0.692036737409609,0.519602333055439
0.690302969151879,0.519604520166889
0.688549873110597,0.51956860980449
0.686777596921413,0.519494964723684
0.684986288219977,0.519383947679907
0.683176094641942,0.519235921428599
0.681347163822956,0.519051248725199
0.679499643398674,0.518830292325146
0.677633681004744,0.518573414983879
0.675749424276817,0.518280979456835
0.673847020850546,0.517953348499455
0.67192661836158,0.517590884867177
0.669988364445572,0.517193951315439
0.668032406738171,0.516762910599681
0.66605889287503,0.516298125475341
0.664067970491798,0.515799958697859
0.662059787224127,0.515268773022673
0.660034490707669,0.514704931205221
0.657992228578073,0.514108796000944
0.655933148470991,0.513480730165278
0.653857398022075,0.512821096453664
0.651765124866974,0.512130257621541
0.64965647664134,0.511408576424346
0.647531600980825,0.510656415617519
0.645390645521079,0.509874137956498
0.643233757897753,0.509062106196723
0.641061085746497,0.508220683093632
0.638872776702964,0.507350231402665
0.636668978402805,0.506451113879259
0.634449838481669,0.505523693278854
0.632215504575208,0.504568332356889
0.629966124319074,0.503585393868802
0.627701845348917,0.502575240570032
0.625422815300388,0.501538235216018
0.623129181809138,0.500474740562199
0.620821092510819,0.499385119364013
0.618498695041081,0.4982697343769
0.616162137035575,0.497128948356299
0.613811566129952,0.495963124057647
0.611447129959864,0.494772624236384
0.609068976160961,0.49355781164795
0.606677252368894,0.492319049047781
0.604272106219315,0.491056699191318
0.601853685347874,0.489771124834
0.599422137390222,0.488462688731264
0.596977609982011,0.48713175363855
0.594520250758891,0.485778682311297
0.592050207356513,0.484403837504944
0.589567627410529,0.483007581974929
0.58707265855659,0.481590278476691
0.584565448430345,0.480152289765668
0.582046144667448,0.478693978597301
0.579514894903547,0.477215707727028
0.576971846774295,0.475717839910286
0.574417147915343,0.474200737902516
0.571850945962341,0.472664764459157
0.569273388550941,0.471110282335646
0.566684623316793,0.469537654287422
0.564084797895549,0.467947243069926
0.561474059922859,0.466339411438594
0.558852557034375,0.464714522148867
0.556220436865748,0.463072937956183
0.553577847052627,0.461415021615981
0.550924935230666,0.459741135883699
0.548261849035515,0.458051643514777
0.545588736102824,0.456346907264653
0.542905744068244,0.454627289888766
0.540213020567428,0.452893154142556
0.537510713236025,0.45114486278146
0.534798969709686,0.449382778560917
0.532077937624063,0.447607264236367
0.529347764614808,0.445818682563248
0.52660859831757,0.444017396297
0.523860586368,0.44220376819306
0.52110387640175,0.440378161006867
0.518338616054472,0.438540937493862
0.515564952961815,0.436692460409482
0.51278303475943,0.434833092509165
0.50999300908297,0.432963196548352
0.507195023568084,0.431083135282481
0.504389225850424,0.42919327146699
0.501575763565641,0.427293967857319
0.498754784349386,0.425385587208906
0.49592643583731,0.42346849227719
0.493090865665064,0.42154304581761
0.490248221468298,0.419609610585604
0.487398650882665,0.417668549336612
0.484542301543814,0.415720224826073
0.481679321087398,0.413764999809425
0.478809857149066,0.411803237042107
0.47593405736447,0.409835299279557
0.473052069369262,0.407861549277215
0.470164040799091,0.40588234979052
0.46727011928961,0.40389806357491
0.464370452476468,0.401909053385824
0.461465187995318,0.399915681978702
0.458554473481809,0.397918312108981
0.455638456571594,0.3959173065321
0.452717284900322,0.393913028003499
0.449791106103646,0.391905839278616
0.446860067817216,0.38989610311289
0.443924317676683,0.38788418226176
0.440984003317698,0.385870439480665
0.438039272375912,0.383855237525043
0.435090272486977,0.381838939150334
0.432137151286542,0.379821907111976
0.42918005641026,0.377804504165407
0.426219135493781,0.375787093066068
0.423254536172757,0.373770036569396
0.420286406082837,0.371753697430831
0.417314892859674,0.369738438405811
0.414340144138918,0.367724622249775
0.41136230755622,0.365712611718162
0.408381530747231,0.36370276956641
0.405397961347603,0.361695458549959
0.402411746992987,0.359691041424248
0.399423035319032,0.357689880944715
0.396431973961391,0.355692339866798
0.393438710555714,0.353698780945938
0.390443392737653,0.351709566937572
0.387446168142858,0.34972506059714
0.38444718440698,0.34774562468008
0.38144658916567,0.345771621941831
0.378444530054581,0.343803415137833
0.375441154709361,0.341841367023523
0.372436610765663,0.33988584035434
0.369431045859138,0.337937197885724
0.366424607625436,0.335995802373113
0.363417443700208,0.334062016571946
0.360409701719106,0.332136203237662
0.35740152931778,0.3302187251257
0.354393074131883,0.328309944991499
0.351384483797063,0.326410225590496
0.348375905948973,0.324519929678132
0.345367488223264,0.322639420009845
0.342359378255586,0.320769059341073
0.339351723681591,0.318909210427257
0.336344672136929,0.317060236023833
0.333338371257252,0.315222498886242
0.330332968678211,0.313396361769922
0.327328612035456,0.311582187430312
0.324325448964639,0.309780338622851
0.321323627101411,0.307991178102977
0.318323294081422,0.30621506862613
0.315324597540324,0.304452372947748
0.312327685113768,0.30270345382327
0.309332704437405,0.300968674008135
0.306339803146885,0.299248396257781
0.30334912887786,0.297542983327648
0.300360829265981,0.295852797973174
0.297375051946898,0.294178202949798
0.294391944556264,0.29251956101296
0.291411654729728,0.290877234918097
0.288434330102942,0.289251587420648
0.285460118311556,0.287642981276053
0.282489166991223,0.286051779239751
0.279521623777593,0.284478344067179
0.276557636306316,0.282923038513777
0.273597352213044,0.281386225334984
0.270640919133429,0.279868267286239
0.26768848470312,0.278369527122979
0.264740196557769,0.276890367600646
0.261796202333027,0.275431151474675
0.258856649664545,0.273992241500508
0.255921686187974,0.272574000433583
0.252991459538965,0.271176791029338
0.250066117353168,0.269800976043212
0.247145807266236,0.268446918230644
0.244230676913819,0.267114980347073
0.241320873931568,0.265805525147938
0.238416545955134,0.264518915388677
0.235517840620168,0.26325551382473
0.232624905562321,0.262015683211535
0.229737888417245,0.260799786304531
0.226856936820589,0.259608185859157
0.223982198408006,0.258441244630852
0.221113820815145,0.257299325375054
0.218251951677659,0.256182790847202
0.215396738631198,0.255092003802736
0.212548329311413,0.254027326997094
0.209706871353955,0.252989123185714
0.206872512394476,0.251977755124036
0.204045400068625,0.250993585567498
0.201225682012055,0.25003697727154
0.198413505860416,0.249108292991599
0.19560901924936,0.248207895483116
0.192812369814536,0.247336147501528
0.190023705191597,0.246493411802274
0.187243173016194,0.245680051140794
0.184470920923976,0.244896428272527
0.181707096550596,0.24414290595291
0.178951847531704,0.243419846937383
0.176205321502952,0.242727613981385
0.17346766609999,0.242066569840354
0.170739028958469,0.241437077269729
0.168019557714041,0.24083949902495
0.165309400002356,0.240274197861454
0.162608703459065,0.239741536534681
0.15991761571982,0.23924187780007
0.157236284420271,0.238775584413059
0.15456485719607,0.238343019129088
0.151903481682867,0.237944544703594
0.149252305516314,0.237580523892017
0.146611476332061,0.237251319449796
0.14398114176576,0.23695729413237
0.141361449453061,0.236698810695176
0.138752547029616,0.236476231893655
0.136154582131075,0.236289920483245
0.13356770239309,0.236140239219385
0.130992055451312,0.236027550857513
0.128427788941391,0.235952218153068
0.125875050498979,0.23591460386149
0.123333987759726,0.235915070738217
0.120804748359284,0.235953981538688
0.118287479933303,0.236031699018342
0.115782330117435,0.236148585932617
0.113289446547331,0.236305005036952
0.110808976858642,0.236501319086787
0.108341068687018,0.236737890837559
0.105885869668111,0.237015083044709
0.103443527437572,0.237333258463674
0.101014189631051,0.237692779849893
0.0985980038842003,0.238094009958806
0.0961951178326703,0.238537311545851
0.0938056791121119,0.239023047366467
0.0914298353581765,0.239551580176092
0.0890677342065147,0.240123272730166
0.0867195232927779,0.240738487784128
0.0843853502526168,0.241397588093416
0.0820653627216826,0.242100936413468
0.0797597083356262,0.242848895499725
0.0774685347300987,0.243641828107624
0.0751919895407511,0.244480096992605
0.0729302204032344,0.245364064910106
0.0706833749531996,0.246294094615567
0.0684516008262977,0.247270548864425
0.0662350456581797,0.24829379041212
0.0640338570844968,0.249364182014091
0.0618481827408997,0.250482086425776
0.0596781702630397,0.251647866402614
0.0575239672865676,0.252861884700044
0.0553857214471346,0.254124504073506
0.0532635803803915,0.255436087278437
0.0511576917219895,0.256796997070276
0.0490682031075795,0.258207596204463
0.0469952621728127,0.259668247436436
0.0449390165533398,0.261179313521634
0.0428996138848121,0.262741157215496
0.0408772018028804,0.26435414127346
0.0388719279431959,0.266018628450966
0.0368839399414094,0.267734981503453
0.0349133854331722,0.269503563186358
0.032960412054135,0.271324736255121
0.0310251674399491,0.273198863465181
0.0291077992262653,0.275126307571977
0.0272084550487347,0.277107431330947
0.0253272825430083,0.27914259749753
0.0234644293447372,0.281232168827166
0.0216200430895722,0.283376508075292
0.0197942714131645,0.285575977997347
0.0179872619511651,0.287830941348772
0.0161991623392249,0.290141760885003
0.014430120212995,0.292508799361481
0.0126802832081265,0.294932419533644
0.0109497989602702,0.297412984156931
0.00923881510507729,0.29995085598678
0.00754747927819865,0.30254639777863
0.00587593911528545,0.305199972287921
0.00422434225198853,0.307911942270091
0.00259283632395908,0.310682670480579
0.000981568966847941,0.313512519674823
-0.000609312183693728,0.316401852608263
-0.00217965949201504,0.319351032036338
-0.00372932532246484,0.322360420714485
-0.00525816203939228,0.325430381398145
-0.00676602200714618,0.328561276842755
-0.00825275759007569,0.331753469803756
-0.00971822115252962,0.335007323036584
-0.0111622650588571,0.33832319929668
-0.012584741673407,0.341701461339482
-0.0139855033605285,0.345142471920429
-0.0153644024845704,0.348646593794959
-0.0167212914098818,0.352214189718513
-0.0180560225008115,0.355845622446527
-0.0193684481217087,0.359541254734442
-0.0206584206369223,0.363301449337696
-0.0219257924108013,0.367126569011728
-0.0231704158076946,0.371016976511976
-0.0243921431919514,0.37497303459388
-0.0255908269279204,0.378995106012878
-0.0267663193799509,0.38308355352441
-0.0279184729123916,0.387238739883913
-0.0290471398895917,0.391461027846827
-0.0301521726759,0.395750780168591
-0.0312334236356657,0.400108359604643
-0.0322907451332376,0.404534128910423
-0.0333239895329648,0.409028450841368
-0.0343330091991962,0.413591688152919
-0.0353176564962808,0.418224203600513
-0.0362777837885677,0.42292635993959
-0.0372132434404058,0.427698519925588
-0.038123887816144,0.432541046313946
-0.0390095692801314,0.437454301860103
-0.039870140196717,0.442438649319498
-0.0407054529302498,0.44749445144757
-0.0415153598450786,0.452622070999757
-0.0422997133055527,0.457821870731499
-0.0430583656760208,0.463094213398233
-0.043791169320832,0.4684394617554
-0.0444979766043353,0.473857978558437
-0.0451786398908797,0.479350126562784
-0.0458330115448141,0.484916268523879
-0.0464609439304876,0.490556767197162
-0.047062289412249,0.496271985338071
-0.0476369003544476,0.502062285702044
-0.0481846291214321,0.507928031044521
-0.0487053280775516,0.513869584120941
-0.0491988495871551,0.519887307686742
-0.0496650460145915,0.525981564497363
-0.0501037697242099,0.532152717308243
-0.0505148730803592,0.538401128874821
-0.0508982084473885,0.544727161952535
-0.0512536281896466,0.551131179296825
-0.0515809846714827,0.557613543663129
-0.0518801302572456,0.564174617806887
-0.0521509173112844,0.570814764483536
-0.0523931981979481,0.577534346448516
-0.0526068252815856,0.584333726457265
-0.0527916509265459,0.591213267265223
-0.0529475274971781,0.598173331627828
-0.053074307357831,0.605214282300519
