-0.847018301827341,-0.317104924383031
-0.885547739364258,-0.347672997629681
-0.833598486495263,-0.318086729988073
-0.813878959479118,-0.307659781400998
-0.820201194829209,-0.318935731020827
-0.813511144846295,-0.319311073724989
-0.792752823362406,-0.32882965345274
-0.776036629303005,-0.274974118264525
-0.821480374363976,-0.296666759482436
-0.805682461529815,-0.289482552017853
-0.735925864815821,-0.270845919937154
-0.773494953629325,-0.320891146919268
-0.7282249673814,-0.281287695601509
-0.799330171117127,-0.353238190867165
-0.775386781126033,-0.369945146629108
-0.759934703960843,-0.351948531838689
-0.768897474153438,-0.282398461286354
-0.70877167828212,-0.315924128387504
-0.763131741237793,-0.299033845938106
-0.734623732025662,-0.340652916603075
-0.713891112013727,-0.321194033199525
-0.747347238716737,-0.347345870551937
-0.748800625589704,-0.358804526478824
-0.704769829840565,-0.293182053647009
-0.703483817389953,-0.302947591142444
-0.681009826332149,-0.320350507239483
-0.686248993347455,-0.272694397768017
-0.689434411441142,-0.279622627066769
-0.620985085702602,-0.335848309668118
-0.660621908210801,-0.319327143207006
-0.664084991295418,-0.275392365189812
-0.641784142168136,-0.318440960303207
-0.658650156824393,-0.307547151299075
-0.628767194996898,-0.31759584233843
-0.667552470840599,-0.315006558834758
-0.615780185469267,-0.316649857360075
-0.609298056797159,-0.316139683643199
-0.56837158940124,-0.336279340070874
-0.609501011078338,-0.358541018903936
-0.589897892629364,-0.314463528313266
-0.556598861239317,-0.280969915451424
-0.577003565959361,-0.31322730522013
-0.527478692579536,-0.339906892231081
-0.527399465712098,-0.285533201620297
-0.557721945919983,-0.311199942489801
-0.517208998211961,-0.341750744723324
-0.569447726937048,-0.337976177910183
-0.492115690538112,-0.270659298869625
-0.532127387655937,-0.308184623973738
-0.480407973798175,-0.286976613256592
-0.522508673153532,-0.268330564739518
-0.521526135508524,-0.345355374145446
-0.484442265154965,-0.352503567598675
-0.528425070856707,-0.288199058134256
-0.478687976029668,-0.298406607787015
-0.48766189124093,-0.302095629114663
-0.48134439832231,-0.301145510569234
-0.494610537840725,-0.272236328549531
-0.432509845037879,-0.342214010991403
-0.437534551686532,-0.345348983226359
-0.456492989718153,-0.301346678262518
-0.493273638175842,-0.3105288993511
-0.443627584732981,-0.295048664051275
-0.437373364496482,-0.29396890432632
-0.43112842237514,-0.292871654676691
-0.431750662828767,-0.326163423492084
-0.434388022477362,-0.292779713204892
-0.412449862603466,-0.289477541789333
-0.448119941852233,-0.312550705777078
-0.40004497615073,-0.287132072191941
-0.365261885179394,-0.302957453014876
-0.415982259211511,-0.314086662051889
-0.393907296075081,-0.316671169387452
-0.348495683623494,-0.32719162581762
-0.407078071452399,-0.265715587008554
-0.403453045820277,-0.242957750949767
-0.355960672654335,-0.290997548923028
-0.302558812328204,-0.280100599505778
-0.311683497368864,-0.256476462579317
-0.338608321670156,-0.274489260422348
-0.353379145435758,-0.30998922178318
-0.282820432972526,-0.231720887126997
-0.347488901634214,-0.248716662445497
-0.311367472479499,-0.307613066163055
-0.308270060949443,-0.267650421376841
-0.336007694461936,-0.268685755227318
-0.296208074087104,-0.264828514819947
-0.297722373267695,-0.268539467022155
-0.284188700378435,-0.261960344172432
-0.318773811439428,-0.217153664334118
-0.245128745312756,-0.289674558471899
-0.277498318169209,-0.211884985628702
-0.260279705706648,-0.256093452556172
-0.246193594736351,-0.210264453119546
-0.222993431158842,-0.224103816788341
-0.283190378562299,-0.218602045154403
-0.224700088439338,-0.232495976112214
-0.218232448373935,-0.257955294227683
-0.224747770379859,-0.246997646643592
-0.231893782694113,-0.279084747716056
-0.212994120337038,-0.243895161693183
-0.222859829815812,-0.272834284600349
-0.219587567378152,-0.230393394991165
-0.195449972376185,-0.239182376900569
-0.189625182777368,-0.237596730248993
-0.183812122689521,-0.236004153671995
-0.142928573127235,-0.218893808291094
-0.172221430207306,-0.232799240985557
-0.131226692475792,-0.268389058332387
-0.125120643579563,-0.209258760963556
-0.150142443557237,-0.190933474814739
-0.179166126855564,-0.249031084401358
-0.111259471773404,-0.264163544579556
-0.137737079198695,-0.223044971055654
-0.0750178002919994,-0.252901120867798
-0.0709745980982988,-0.224700526810133
-0.0902050994274144,-0.204757653119907
-0.0687056249426129,-0.20883342309972
-0.0980644199846824,-0.211459055417232
-0.045955395881389,-0.191562222171129
-0.116591115579543,-0.172975693879865
-0.0601892316691242,-0.164422296190853
-0.0701061950547275,-0.203093981667471
-0.0645532662200138,-0.201415373237733
-0.0641092134768667,-0.249573806918346
-0.0382558508224273,-0.185687660668799
-0.0959566933626497,-0.161325367039745
-0.0424725977234783,-0.194690879284737
-0.0396256281837868,-0.192891934441116
-0.0374138652878553,-0.185712766406857
-0.0260513696594819,-0.189644157281051
-0.0474679464517473,-0.193593582086936
-0.00511889801763744,-0.162902342253552
0.0449560723178599,-0.198581530472488
-0.0261820513585068,-0.1958052398463
0.0117908190719975,-0.17789936909902
-0.0282410526659672,-0.205713940135364
0.022478832242726,-0.174560932339736
0.0266879474690713,-0.144590243042314
0.0654479649527948,-0.127487870322536
0.0784912939644569,-0.148196808910762
0.035785706164937,-0.161702836141983
0.034476477237922,-0.213381498053923
0.050374742760134,-0.139025674852822
0.0578092682103473,-0.19385468302312
0.104942283779512,-0.208528640945173
0.0310412555506008,-0.147962590624531
0.0750692394921392,-0.158081401753844
0.0439726797452099,-0.17488190154036
0.0854140409732347,-0.154842449692383
0.0905643930817624,-0.153231767064839
0.0956999663820874,-0.151627290120697
0.100820701084068,-0.150029276420914
0.115238108520166,-0.166200032036537
0.146132845317544,-0.128381076738607
0.0974125853259601,-0.129316122656781
0.102389733464029,-0.108216836455834
0.0798670151547496,-0.180089484220869
0.13123015048278,-0.140591345767358
0.129695650545334,-0.0928669156302435
0.141245214342501,-0.137508750934442
0.146229711103001,-0.135980496676967
0.174049943441574,-0.10044831905159
0.185681181116071,-0.169405120250793
0.166012735245961,-0.129960443795963
0.195271804710101,-0.0826354444091525
0.224465708768715,-0.157744880573472
0.197013812200183,-0.12071872112255
0.185544948823645,-0.124101496479143
0.190388364641179,-0.122663864101521
0.179269585818833,-0.154338933179378
0.186238695940655,-0.0812012663224678
0.191661215796812,-0.0703613420660176
0.183181789342834,-0.112132210669998
0.23617459098256,-0.126639325589159
0.228555582812141,-0.111593288692703
0.233253074685221,-0.11026714063248
0.237934053835986,-0.108954667523422
0.295103313432109,-0.0818030193941596
0.251877317052973,-0.105101873512804
0.25649164741306,-0.103846675817976
0.220882504802603,-0.0984795093468084
0.26566981332402,-0.10138142625713
0.270233529294609,-0.100171889513027
0.318246420459723,-0.0725717973668575
0.252186259275704,-0.0683792677345208
0.260211526548514,-0.0997691499896044
0.297256920550743,-0.0932541278971988
0.301700443624208,-0.0921601480049611
0.282397314325123,-0.0668724903172594
0.326504588169142,-0.0890494001707805
0.314926316237384,-0.088984468765224
0.326776755228026,-0.0583144455489051
0.323655719572066,-0.086958475245786
0.298492532008844,-0.064172607100324
0.299471712100703,-0.0983635758542801
0.336616861160101,-0.0840613251463559
0.345168282391144,-0.0822274567443895
0.39647026217037,-0.0797723038509082
0.32354111391459,-0.0579903423198891
0.316951548951674,-0.0720674864927851
0.332981079776411,-0.105236630418712
0.396604717744738,-0.0706659731340286
0.329580346464864,-0.0705557075167094
0.345346312788355,-0.0406035466255911
0.360126500907701,-0.0983026152683117
0.393558339062529,-0.06396680053604
0.390900739652458,-0.0736345765784215
0.403735791452429,-0.112130010591487
0.398975416520856,-0.0723605027458996
0.402984607728571,-0.0717585304504749
0.423806913712645,-0.0339173572181019
0.451812561882929,-0.0989570088195096
0.45311990516035,-0.112834386712281
0.432830898323362,-0.111022716353765
0.374193248570524,-0.118736289312574
0.463759117727609,-0.082618234649357
0.468914238308682,-0.105873537107986
0.426265961474179,-0.109286873886189
0.498548710878617,-0.0985577539251317
0.425885853457821,-0.113376831023223
0.460827648823411,-0.0657195595752964
0.428031960153317,-0.113209611419453
0.481108115850337,-0.103055076053293
0.510716996366333,-0.0245128696640617
0.479131558046691,-0.0650428046003867
0.509684366586773,-0.107258796281712
0.454014706596404,-0.039392564852856
0.498607930849009,-0.0781591711139883
0.465928037327368,-0.0265290319927225
0.538858016092799,-0.0680486558722426
0.474466078997853,-0.0499728091892608
0.464837918002862,-0.0518212740663224
0.540085857097619,-0.037811410167713
0.521002595379275,-0.0664247390284979
0.480486933934034,-0.0988808644099021
0.484415387406438,-0.0190789836995421
0.5343004595993,-0.067886182235182
0.532576686176594,-0.0420542639289535
0.535810363011765,-0.0834729511060919
0.59159084507999,-0.0366896576860337
0.536096033665527,-0.0640911182218274
0.553616150637981,-0.0710732589533052
0.556504515952791,-0.102669812562344
0.562986501052915,-0.073129574987015
0.535344919737494,-0.0857560935201448
0.57517853126632,-0.0763668726518975
0.558733699115615,-0.040736258141204
0.542840068973395,-0.0349900242559984
0.617078870915327,-0.0775786990510801
0.559748011331393,-0.0802827028538401
0.604850430827703,-0.0682032445783732
0.642557187396838,-0.0558173648758887
0.566563178569847,-0.110174822464862
0.626649838150773,-0.0916527991660304
0.606898728730366,-0.0883170977359763
0.60964898716999,-0.0896333715310294
0.654280373912412,-0.13954998396687
0.620424505662112,-0.0952953527898013
0.591407424823359,-0.104997093732673
0.600595866434031,-0.123093502410351
0.583282022855311,-0.117005565208581
0.630836329801223,-0.10160471470022
0.633382010167279,-0.103285140111825
0.655989408019362,-0.0600536260453994
0.638404221565933,-0.106771495782536
0.611198514157625,-0.0774470806783139
0.643333835252364,-0.110426908322964
0.619577308871287,-0.113803905327631
0.671965030589849,-0.0879151196648691
0.652913356204017,-0.118253145963607
0.655249615495018,-0.120318585429308
0.657562306826971,-0.12242809203914
0.690880232856015,-0.133466797600434
0.686435213812191,-0.124150496285227
0.666576196761461,-0.131311941138921
0.668770151446044,-0.133645646883767
0.622926863827366,-0.184108897659076
0.706178646165555,-0.162169343908037
0.679662518998227,-0.169648769114535
0.682476713298337,-0.18192091298391
0.680033625779755,-0.166571907198074
0.6864339432941,-0.162346499855529
0.689383864424012,-0.159533889933299
0.643682230252051,-0.176279361145547
0.742375492375991,-0.12518053151373
0.695092469043164,-0.16822831215384
0.696946009026252,-0.171224031084051
0.743864382559238,-0.21146299141704
0.728381567491916,-0.167563084792742
0.677830247238174,-0.22746150887119
0.705841056710583,-0.186946052403417
0.7473462298235,-0.229562714323981
0.706302999557326,-0.166592640892664
0.727688643516065,-0.213154788423994
0.734176753862255,-0.225402861125175
0.71723981541574,-0.211085353016037
0.718766762863266,-0.21474100042353
0.676736697452824,-0.196694047385498
0.770635562780019,-0.186353379277382
0.758533668780778,-0.210319698830891
0.683126150370904,-0.195482913683338
0.758629828252522,-0.194142469348403
0.730057842857343,-0.245900214409919
0.733864322728787,-0.258479184594287
0.696172384664536,-0.29663350649541
0.702573115537798,-0.251777891369848
0.737435014072639,-0.27155675321494
0.783988212882786,-0.282016836315158
0.739683684140208,-0.280555565572743
0.73368232472673,-0.287916590935671
0.783891662380266,-0.301476554085927
0.723639009834633,-0.261630694124449
0.715883539351308,-0.316866589951398
0.722251972959286,-0.27144616067775
0.737096184654562,-0.357264390310017
0.7709097909258,-0.274093045045938
0.713648407126145,-0.271171831307093
0.77974301115978,-0.311662898321424
0.70344434273128,-0.350894829252812
0.750143960692628,-0.334157445985405
0.753954396365066,-0.380925881773829
0.785875695655932,-0.377625356675215
0.752429848917985,-0.350011654062791
0.744570443629375,-0.37837295256359
0.75381720036188,-0.360882164268336
0.75350430580792,-0.371386307019086
0.770132502383453,-0.345026203567627
0.78235957505136,-0.341179756630962
0.751846850624042,-0.338044943542936
0.756804082074481,-0.389127097710216
0.757318437770643,-0.394961343388198
0.757804980407688,-0.400857943038281
0.75869438734386,-0.412839234498583
0.748370117357683,-0.437735526146177
0.780519828374302,-0.393126252060544
0.760426990839816,-0.443901686928138
0.78238376831457,-0.421543127369175
0.789191221847424,-0.410375911117232
0.761127534695506,-0.463310071415343
0.761304187532905,-0.469909563781734
0.725148406511995,-0.444372552414214
0.71707280279177,-0.445653941405661
0.761724895572896,-0.496964555892772
0.780662993812202,-0.507241669436562
0.761762870545144,-0.51088987138898
0.746720371751495,-0.545106928266798
0.761685288390713,-0.525083147162524
0.810300839057434,-0.527817520215675
0.764173414177637,-0.548319043797794
0.761181539417279,-0.554281821492259
0.766703355470607,-0.552350162308132
0.736700906344058,-0.569936440854707
0.785041592841416,-0.546573701447474
0.755528872019565,-0.591974639474905
0.758802758125767,-0.605795557228791
0.777853460264841,-0.577130132015991
0.719048682708689,-0.638071179851482
0.784651728342835,-0.619929882079449
0.755403184764755,-0.639613463356883
0.713968882205267,-0.653520499423603
0.753646844884876,-0.652402451258839
0.749468427627814,-0.676736972834681
0.75422065914778,-0.72158910105131
0.743023388591333,-0.704864875357617
0.711867416364007,-0.749311245002048
0.753080654040849,-0.725501771194504
0.738519889629606,-0.720544137252164
0.73691455244092,-0.7255739762912
0.749474853361964,-0.726309498343017
0.747984629008403,-0.777088857068883
0.775279745990799,-0.733325024019216
0.724251454614779,-0.758082012268018
0.679044671445048,-0.760705453578205
0.7073917693066,-0.832796425474664
0.748826904116084,-0.744710280409289
0.701995396175577,-0.796577952544051
0.701471470675209,-0.765847966204353
0.696980227712052,-0.803193598054165
0.711237069273517,-0.784485859676529
0.720970952862871,-0.791582518172412
0.650458984117314,-0.83387955261692
0.683651411010244,-0.81820210158211
0.680852610094838,-0.820945409751658
0.70525410874356,-0.792147620739968
0.626171062043675,-0.791907877554501
0.672195857364122,-0.828667544220389
0.671704770071454,-0.810527534309956
0.710742500277417,-0.810817594840327
0.668538761108952,-0.879465976197342
0.645147432220917,-0.878555973868421
0.604367611712236,-0.870777606606843
0.611584690857499,-0.80480457665046
0.674296916794892,-0.841228710636834
0.602850965946206,-0.848105783853898
0.681623681436403,-0.852116476725808
0.63381626775622,-0.852179099021073
0.580895162024474,-0.890077082484376
0.572315819843175,-0.819769031414973
0.599714905585358,-0.875262302575489
0.570776750932354,-0.886282647049499
0.643621741939041,-0.843291692143905
0.559422913777958,-0.890442338390153
0.61983630314209,-0.887855852037871
0.574039944104865,-0.86632404205519
0.582508918833329,-0.851898569452621
0.565933799611791,-0.866799662307012
0.600276602064181,-0.848381884059156
0.513016459079126,-0.897076719949092
0.52994354303754,-0.890301098738091
0.575073919409529,-0.873904734906964
0.548542066679074,-0.895269513067386
0.57100466062585,-0.903503842916768
0.483487704946632,-0.873250297970641
0.523467513287075,-0.865149283586526
0.489782561078236,-0.885871864120079
0.507351140106943,-0.876329370673218
0.491941536101122,-0.860187421833259
0.468697337481337,-0.808777942711722
0.473310284241254,-0.856021548643508
0.467983651332399,-0.876323100660984
0.408356842256215,-0.803061144017908
0.476826752393205,-0.81888727780656
0.435430304528911,-0.801916822447909
0.472660822355538,-0.89142584363143
0.391089455703383,-0.855861427405473
0.379777993305712,-0.842236309960175
0.453523166952995,-0.859817363398528
0.414960845032904,-0.838085804709661
0.40994383690499,-0.836241359545664
0.3546649043547,-0.830822402231423
0.384530757030563,-0.826256878495337
0.334008777773346,-0.820857722888708
0.353275854971789,-0.866947152989998
0.35602895441141,-0.836991799026812
0.331504381610478,-0.818933724604086
0.365627149865964,-0.843195662977141
0.337509638868046,-0.805240753700257
0.332191627009456,-0.802676529846711
0.326856092753529,-0.80006831853927
0.330457528699354,-0.749829422690447
0.260790565095877,-0.78076266311951
0.31392286493803,-0.750493523476462
0.315265998207759,-0.813745575944699
0.229054321684477,-0.741409963600645
0.267099704233976,-0.768617743266979
0.228736128650217,-0.760662153064322
0.18654849296233,-0.777677503592667
0.163409209603529,-0.708740525166685
0.188703296629098,-0.722028806064439
0.218715370187046,-0.69981490186548
0.177335410264778,-0.714845347195882
0.165933057563673,-0.707541907600785
0.160219751498714,-0.703846444340808
0.188132032800189,-0.673321324949738
0.174782044871447,-0.688704042201674
0.114264174380956,-0.673298858731919
0.0749820558405302,-0.640713395749817
0.0612574655428609,-0.672852884944306
0.126027894038776,-0.663501835837515
0.0737787899954577,-0.645274819733521
0.115353603582045,-0.654503880211001
0.0832325322997429,-0.614895279038908
0.0389601317833355,-0.620428712636402
0.0591872533907832,-0.589921823882338
-0.00627876585939317,-0.627846370638422
-0.0193889951000723,-0.562858541158289
0.00991463435259468,-0.599223992936566
0.00410608448852831,-0.594934540544467
-0.00170154001708217,-0.590630084691011
-0.0132665726764558,-0.583499408240469
-0.0426095096840971,-0.526695343146615
-0.0797046274544508,-0.5738573908777
-0.0714956634114801,-0.549575694262437
-0.0926069047632103,-0.539959907064454
-0.076971731506987,-0.533534218036959
-0.0942381425167301,-0.520126095082946
-0.0999813720210674,-0.515643038159867
-0.122884604150397,-0.497655723415764
-0.129431941821344,-0.462457074769509
-0.138876970618559,-0.501226287608442
-0.220195790857468,-0.444665897404908
-0.19034913211841,-0.434990678956506
-0.181353951044419,-0.387911016909884
-0.192788946654944,-0.450746852572018
-0.23259085283571,-0.429749775800807
-0.240573720951086,-0.402913158020929
-0.25720475833214,-0.41353691364702
-0.306712531885612,-0.335622227114576
-0.267756062395358,-0.38060367031682
-0.292185930107525,-0.398485114621262
-0.266112449734017,-0.382842992013453
-0.28274932004046,-0.351183849825851
-0.300103469502482,-0.341414710521727
-0.36266422016002,-0.372926979324594
-0.331266350846628,-0.328096129832452
-0.371265307886826,-0.34184158590481
-0.351823292722511,-0.311030332556686
-0.371135619576592,-0.349730176692449
-0.387186874297688,-0.334249013628551
-0.420198591626821,-0.250158416037428
-0.414184548596695,-0.326017844231408
-0.395229111155018,-0.312233322893084
-0.350531350453556,-0.245612135768531
-0.40168141315192,-0.269624321995363
-0.383465314500453,-0.261406968337454
-0.449093318548285,-0.23041592296733
-0.467301893992444,-0.215459832763522
-0.484501911525848,-0.238443860989215
-0.459598430805643,-0.236732224986268
-0.435941251646596,-0.197641996949588
-0.456739640766343,-0.234815752252521
-0.463165051949971,-0.168240470662189
-0.519070350285097,-0.173500827638948
-0.496499847043361,-0.160897309519155
-0.515110818839357,-0.151632671256398
-0.53129746746508,-0.163764146127611
-0.576960801015937,-0.200018215836395
-0.501898581361228,-0.143615446785791
-0.499813513972699,-0.196775977829906
-0.547127201674352,-0.15129478972031
-0.508811547968163,-0.122395599744274
-0.565223905727423,-0.182057079174551
-0.569816693075733,-0.133754759818744
-0.547571508997213,-0.0988721639730685
-0.594528501292873,-0.153078914346792
-0.584209928024496,-0.122884050598159
-0.587713684586579,-0.120273784602322
-0.618520176564779,-0.16268873309101
-0.622659342549233,-0.0946893865059196
-0.621968895574976,-0.0762402211806905
-0.604649251108595,-0.10789190867946
-0.642514143664077,-0.0691920459122796
-0.614814985988518,-0.114336854928333
-0.589231463340166,-0.0909040647520211
-0.670548922080216,-0.0831138751611721
-0.626668150846476,-0.0925227035148457
-0.663147377986876,-0.118705386004208
-0.610110119906684,-0.0719586406144908
-0.606861843973437,-0.105793014327692
-0.638327353607227,-0.0848284411522214
-0.650718577960952,-0.068896932193943
-0.645733267701804,-0.10366997740086
-0.632121542893858,-0.100690189992351
-0.62501484298526,-0.105260404606433
-0.618886518642649,-0.0277251585563921
-0.650115325198882,-0.0517982452417772
-0.676916716589314,-0.0556590186298987
-0.691519931519849,-0.0965569685108946
-0.68580370250889,-0.0604919885679671
-0.637777288076673,-0.0678825648702298
-0.698877329762337,-0.0428222764619854
-0.701372945050943,-0.0950438727608281
-0.661486080063379,-0.0583312781361012
-0.649349351835649,-0.007137088913909
-0.729970837400726,-0.055304148489307
-0.656964395289289,-0.021908237962751
-0.661537066998421,-0.0798147370860079
-0.73011065598114,-0.0971525859764013
-0.668621731273396,-0.0776979659137728
-0.714303786156341,-0.103139667734918
-0.679233470199523,-0.0809944860468509
-0.71237976117884,-0.058266020852478
-0.737774778571116,-0.0317892135189382
-0.714044182281615,-0.0595805521608731
-0.714791671829492,-0.0603462403134752
-0.717209401819981,-0.0641434698067975
-0.717669186943573,-0.0652788950209031
-0.762506220803796,-0.021399654938422
-0.754003110540867,-0.100175494249862
-0.718796173834909,-0.0828579862238002
-0.718207565779309,-0.0870869615175668
-0.674411985717444,-0.118952212456064
-0.746745274534233,-0.0995390038493437
-0.671561006697624,-0.117904172522038
-0.707314059781601,-0.149457953700276
-0.72182624019105,-0.11410219142124
-0.702940774475669,-0.136443622824733
-0.695975245503994,-0.153316595587582
-0.701450326668778,-0.129211060117696
-0.691634129560678,-0.163154246851004
-0.722817862738998,-0.1697951013814
-0.671011852062266,-0.164536260845536
-0.679471034838073,-0.188332971877912
-0.711174046700479,-0.238661703242361
-0.673072734149402,-0.2003438771099
-0.626881636860919,-0.211937176881061
-0.639103230434512,-0.178426427195069
-0.681921448603656,-0.254070661951802
-0.625227619991004,-0.195124065811957
-0.656167284472376,-0.228671155324493
-0.649045861537437,-0.239317877749639
-0.63928700335443,-0.200446490516223
-0.637398832621454,-0.240435777597462
-0.607641733260114,-0.217673200864949
-0.62647286204956,-0.268891479830698
-0.583602007217967,-0.284220248744698
-0.611294921834018,-0.253507791918411
-0.627853634256671,-0.300937220130716
-0.639354197333249,-0.280954377829372
-0.607860120008816,-0.266869967320629
-0.581804952564117,-0.294666914779309
-0.59146560465353,-0.304643061519916
-0.589298251349694,-0.306519510971097
-0.584928062371243,-0.310196382223594
-0.613179969642764,-0.360434769081678
-0.600181458109178,-0.271108858434526
-0.612335707014981,-0.347193991454952
-0.54277901197635,-0.374043791017611
-0.568814531011912,-0.376772269439856
-0.529616856951361,-0.332151529694951
-0.504764072550572,-0.338961317174896
-0.541092062280032,-0.340034289692138
-0.511151880976285,-0.30373841268682
-0.526395860640446,-0.347525507622305
-0.51085171833118,-0.343808676904351
-0.487774530168213,-0.354380076308728
-0.478559758617992,-0.364296673528521
-0.466387375370418,-0.402631513206027
-0.549008419878587,-0.383126257346711
-0.467676643411049,-0.336565167904116
-0.466679815205116,-0.39614751391046
-0.479935320535594,-0.364359771134885
-0.450585496330762,-0.406371013769194
-0.469138916818411,-0.366941699660338
-0.44295063313868,-0.371008068012506
-0.509866696552931,-0.395091422863223
-0.460931430672614,-0.368599377142223
-0.452117717092435,-0.376275752393456
-0.487532463296287,-0.416841374806507
-0.431461929147286,-0.326172098813612
-0.406177999120555,-0.390259050068635
-0.415358772877305,-0.354155580792894
-0.448304553846344,-0.403368168696631
-0.388550431143441,-0.34255968688406
-0.380647210827453,-0.324714778543881
-0.373989344703157,-0.386530173670501
-0.40680749702447,-0.373503943867078
-0.384345651571143,-0.379570634326626
-0.374684429631644,-0.369053467047709
-0.333098945978338,-0.389466575187953
-0.400261310787684,-0.331961772359057
-0.335951855799854,-0.384427512173416
-0.349117842266128,-0.368622855614395
-0.316829692263913,-0.368864655736728
-0.291614291289594,-0.372249426382795
-0.333367446052956,-0.365690460088496
-0.370251182741131,-0.399117721566847
-0.31040493583759,-0.363628043396332
-0.304438503331227,-0.358664550571232
-0.265751602522481,-0.403899908236401
-0.248584863232113,-0.397801614837843
-0.337937645547522,-0.308811698634755
-0.26240770964434,-0.352273084933383
-0.291598864229794,-0.313716692258459
-0.217374738193969,-0.305535912216342
-0.187524413940535,-0.337750818622913
-0.203705022456991,-0.357868378195866
-0.240578773283761,-0.290398867676862
-0.178957428103964,-0.357765023873474
-0.19230479755975,-0.31340821271197
-0.174610275633417,-0.348030364262032
-0.1780969480604,-0.305812581788082
-0.218710089272923,-0.26425865681328
-0.175795348164086,-0.300987466690277
-0.14202499378665,-0.284800161617128
-0.0916830499973975,-0.248860560641213
-0.0921519463494458,-0.266764781884739
-0.124627567292585,-0.282842674853065
-0.167924442088017,-0.24435097012836
-0.0821449574804179,-0.236362553460501
-0.0789572602146385,-0.24238615751817
-0.0422083965130524,-0.247706268990122
-0.0686127353775667,-0.26371204851285
-0.0485499942304919,-0.21948120297102
-0.0185625855696898,-0.262396727993099
-0.0408778281152543,-0.213458174737939
-0.058439353867979,-0.236691988223279
-0.033177963687385,-0.207316031150671
-0.025450621714408,-0.201054572451379
-0.0479107427784697,-0.242072210527118
0.0057291062780877,-0.174811591377276
0.00965653245544706,-0.171396127786322
0.0538956494456947,-0.175415960141078
0.050317030695578,-0.121734649599861
0.0546115147164163,-0.141901970122167
0.0164208178662115,-0.171312173108755
0.0725304879089917,-0.07706768118031
0.113993501597474,-0.0719547287577231
0.1053652452515,-0.0463943749290251
0.161391705187232,-0.0152184253315052
0.17184338818705,-0.00982658190864967
0.195490467320599,-0.0104375847268501
0.218775188984375,0.0104683479671599
0.252910376744437,0.0418659803297268
0.213824590298647,0.0382789387886655
0.255677398672699,0.00477557722371362
0.243521642752515,0.0738167575021231
0.247784271034159,0.0790194958674903
0.207435854879593,0.0527668435122941
0.269171339519262,0.10550696242894
0.295026093231558,0.201345422973495
0.369745836240947,0.183547771555114
0.319921451786345,0.232147968198193
0.348591372389743,0.284446496359572
0.391071384659234,0.268559778502363
0.419773321737096,0.323973347405046
0.444322688033748,0.346177761263241
0.442349909085873,0.444148523510723
0.489110377277584,0.41445186843792
0.478430092018466,0.431301764811997
0.556456601595248,0.450099798216549
0.534242815486429,0.486018478057859
0.612787041831136,0.547666437331495
0.609122862818178,0.552938836615516
0.597954864569242,0.591790677998609
0.607102915000216,0.607435782980511
