-0.896242216476636,0.565555668688074
-0.56422765237447,0.438814695623173
-0.933423124317711,0.0866861185807559
-0.770986082080659,-0.502681055817363
-0.608549039843607,-1.09204823021548
-0.505041344535951,0.241950699279712
0.301871919732478,0.554150274707451
1.10878518400091,0.86634985013519
0.566448702350825,-0.556624749461797
-0.433959763986445,-0.87279960549467
