-0.317504644057215,-0.0156583982877387
-0.31365530259611,-0.021437838872136
-0.309821068622099,-0.0271478115063534
-0.306001875828062,-0.0327886600346645
-0.302197657906878,-0.0383607283013429
-0.298408348551425,-0.043864360150662
-0.294633881454585,-0.0492998994268952
-0.290874190309235,-0.0546676899743163
-0.287129208808257,-0.0599680756371986
-0.283398870644528,-0.0652014002598156
-0.279683109510928,-0.0703680076864408
-0.275981859100338,-0.0754682417613479
-0.272295053105635,-0.0805024463288102
-0.268622625219701,-0.0854709652331012
-0.264964509135413,-0.0903741423184946
-0.261320638545652,-0.0952123214292636
-0.257690947143297,-0.0999858464096821
-0.254075368621227,-0.104695061104023
-0.250473836672322,-0.109340309356561
-0.246886284989461,-0.113921935011568
-0.243312647265524,-0.118440281913319
-0.239752857193389,-0.122895693906086
-0.236206848465938,-0.127288514834144
-0.232674554776048,-0.131619088541765
-0.229155909816599,-0.135887758873224
-0.225650847280472,-0.140094869672794
-0.222159300860544,-0.144240764784748
-0.218681204249696,-0.14832578805336
-0.215216491140807,-0.152350283322904
-0.211765095226756,-0.156314594437652
-0.208326950200424,-0.160219065241879
-0.204901989754688,-0.164064039579857
-0.201490147582429,-0.167849861295861
-0.198091357376527,-0.171576874234164
-0.19470555282986,-0.175245422239039
-0.191332667635308,-0.17885584915476
-0.18797263548575,-0.1824084988256
-0.184625390074066,-0.185903715095834
-0.181290865093135,-0.189341841809733
-0.177968994235837,-0.192723222811573
-0.174659711195052,-0.196048201945626
-0.171362949663657,-0.199317123056167
-0.168078643334534,-0.202530329987467
-0.164806725900561,-0.205688166583802
-0.161547131054617,-0.208790976689444
-0.158299792489583,-0.211839104148667
-0.155064643898338,-0.214832892805744
-0.15184161897376,-0.217772686504949
-0.14863065140873,-0.220658829090556
-0.145431674896127,-0.223491664406838
-0.14224462312883,-0.226271536298069
-0.139069429799719,-0.228998788608521
-0.135906028601674,-0.231673765182469
-0.132754353227572,-0.234296809864186
-0.129614337370295,-0.236868266497945
-0.126485914722721,-0.239388478928021
-0.12336901897773,-0.241857790998686
-0.120263583828202,-0.244276546554214
-0.117169542967015,-0.246645089438878
-0.114086830087049,-0.248963763496953
-0.111015378881183,-0.251232912572711
-0.107955123042298,-0.253452880510427
-0.104905996263272,-0.255624011154372
-0.101867932236985,-0.257746648348822
-0.0988408646563162,-0.25982113593805
-0.095824727214145,-0.261847817766328
-0.0928194536033508,-0.263827037677932
-0.0898249775168132,-0.265759139517133
-0.0868412326474114,-0.267644467128206
-0.0838681526880252,-0.269483364355424
-0.0809056713315336,-0.271276175043061
-0.0779537222708162,-0.273023243035389
-0.0750122391987525,-0.274724912176684
-0.0720811558082218,-0.276381526311217
-0.0691604057921036,-0.277993429283263
-0.0662499228432772,-0.279560964937096
-0.0633496406546222,-0.281084477116988
-0.060459492919018,-0.282564309667213
-0.0575794133293439,-0.284000806432045
-0.0547093355784794,-0.285394311255757
-0.0518491933593039,-0.286745167982623
-0.0489989203646968,-0.288053720456916
-0.0461584502875376,-0.289320312522909
-0.0433277168207056,-0.290545288024877
-0.0405066536570804,-0.291728990807092
-0.0376951944895413,-0.292871764713829
-0.0348932730109677,-0.293973953589361
-0.0321008229142391,-0.29503590127796
-0.029317777892235,-0.296057951623902
-0.0265440716378346,-0.297040448471458
-0.0237796378439174,-0.297983735664904
-0.021024410203363,-0.298888157048511
-0.0182783224090506,-0.299754056466555
-0.0155413081538597,-0.300581777763307
-0.0128133011306698,-0.301371664783043
-0.0100942350323601,-0.302124061370034
-0.00738404355181037,-0.302839311368556
-0.00468266038189975,-0.303517758622881
-0.00199001921550776,-0.304159746977282
0.000693946254486183,-0.304765620276034
0.00336930233520265,-0.30533572236341
0.00603611533376218,-0.305870397083683
0.00869445155728546,-0.306369988281127
0.011344377312893,-0.306834839800015
0.0139859589077053,-0.307265295484621
0.0166192626488431,-0.307661699179218
0.0192443548434269,-0.30802439472808
0.0218613017985772,-0.308353725975481
0.0244701698214146,-0.308650036765693
0.0270710252190598,-0.308913670942991
0.0296639342986334,-0.309144972351648
0.0322489633672557,-0.309344284835936
0.0348261787320475,-0.309511952240131
0.0373956467001293,-0.309648318408506
0.0399574335786218,-0.309753727185333
0.0425116056746455,-0.309828522414886
0.0450582292953208,-0.30987304794144
0.0475973707477686,-0.309887647609267
0.0501290963391092,-0.30987266526264
0.0526534723764633,-0.309828444745834
0.0551705651669515,-0.309755329903123
0.0576804410176944,-0.309653664578778
0.0601831662358125,-0.309523792617075
0.0626788071284263,-0.309366057862286
0.0651674300026566,-0.309180804158685
0.0676491011656237,-0.308968375350545
0.0701238869244485,-0.30872911528214
0.0725918535862513,-0.308463367797744
0.0750530674581529,-0.30817147674163
0.0775075948472736,-0.307853785958071
0.0799555020607342,-0.307510639291341
0.0823968554056553,-0.307142380585714
0.0848317211891573,-0.306749353685463
0.0872601657183608,-0.306331902434861
0.0896822553003865,-0.305890370678183
0.092098056242355,-0.3054251022597
0.0945076348513867,-0.304936441023688
0.0969110574346024,-0.30442473081442
0.0993083902991224,-0.303890315476168
0.101699699752068,-0.303333538853207
0.104085052100558,-0.30275474478981
0.106464513651715,-0.302154277130251
0.108838150712659,-0.301532479718802
0.11120602959051,-0.300889696399739
0.113568216592389,-0.300226271017333
0.115924778025416,-0.299542547415859
0.118275780196713,-0.29883886943959
0.120621289413399,-0.298115580932799
0.122961371982595,-0.297373025739761
0.125296094211422,-0.296611547704749
0.127625522407001,-0.295831490672035
0.129949722876451,-0.295033198485894
0.132268761926894,-0.294217014990599
0.13458270586545,-0.293383284030424
0.13689162099924,-0.292532349449642
0.139195573635384,-0.291664555092526
0.141494630081003,-0.290780244803351
0.143788856643217,-0.28987976242639
0.146078319629147,-0.288963451805915
0.148363085345914,-0.288031656786201
0.150643220100638,-0.287084721211522
0.15291879020044,-0.28612298892615
0.15518986195244,-0.285146803774359
0.157456501663759,-0.284156509600423
0.159718775641517,-0.283152450248615
0.161976750192836,-0.282134969563209
0.164230491624834,-0.281104411388478
0.166480066244635,-0.280061119568696
0.168725540359357,-0.279005437948136
0.170966980276121,-0.277937710371072
0.173204452302048,-0.276858280681777
0.175438022744259,-0.275767492724525
0.177667757909873,-0.274665690343589
0.179893724106013,-0.273553217383243
0.182115987639797,-0.27243041768776
0.184334614818348,-0.271297635101414
0.186549671948784,-0.270155213468478
0.188761225338228,-0.269003496633226
0.190969341293799,-0.267842828439931
0.193174086122619,-0.266673552732867
0.195375526131807,-0.265496013356307
0.197573727628484,-0.264310554154525
0.199768756919771,-0.263117518971794
0.201960680312789,-0.261917251652389
0.204149564114657,-0.260710096040581
0.206335474632498,-0.259496395980646
0.20851847817343,-0.258276495316855
0.210698641044575,-0.257050737893484
0.212876029553053,-0.255819467554805
0.215050710005985,-0.254583028145092
0.217222748710492,-0.253341763508618
0.219392211973693,-0.252096017489657
0.221559166102711,-0.250846133932482
0.223723677404664,-0.249592456681367
0.225885812186674,-0.248335329580586
0.228045636755862,-0.247075096474411
0.230203217419347,-0.245812101207117
0.232358620484251,-0.244546687622977
0.234511912257694,-0.243279199566264
0.236663159046797,-0.242009980881253
0.23881242715868,-0.240739375412215
0.240959782900463,-0.239467727003426
0.243105292579268,-0.238195379499158
0.245249022502215,-0.236922676743685
0.247391038976425,-0.23564996258128
0.249531408309017,-0.234377580856217
0.251670196807114,-0.23310587541277
0.253807470777834,-0.231835190095212
0.2559432965283,-0.230565868747816
0.258077740365631,-0.229298255214856
0.260210868596947,-0.228032693340606
0.262342747529371,-0.226769526969339
0.264473443470021,-0.225509099945328
0.26660302272602,-0.224251756112847
0.268731551604486,-0.22299783931617
0.270859096412542,-0.221747693399569
0.272985723457306,-0.22050166220732
0.275111499045901,-0.219260089583694
0.277236489485447,-0.218023319372966
0.279360761083064,-0.216791695419408
0.281484380145872,-0.215565561567296
0.283607412980993,-0.214345261660901
0.285729925895546,-0.213131139544498
0.287851985196654,-0.21192353906236
0.289973657191435,-0.210722804058761
0.292095008187011,-0.209529278377974
0.294216104490502,-0.208343305864272
0.296337012409029,-0.207165230361929
0.298457798249712,-0.20599539571522
0.300578528319672,-0.204834145768416
0.30269926892603,-0.203681824365791
0.304820086375906,-0.20253877535162
0.306941046976421,-0.201405342570176
0.309062217034695,-0.200281869865731
0.311183662857848,-0.19916870108256
0.313305450753002,-0.198066180064937
0.315427647027277,-0.196974650657134
0.317550317987794,-0.195894456703425
0.319673529941673,-0.194825942048084
0.321797349196034,-0.193769450535384
0.323921842057999,-0.192725326009598
0.326047074834688,-0.191693912315001
0.328173113833221,-0.190675553295866
0.330300025360719,-0.189670592796465
0.332427875724303,-0.188679374661074
0.334556731231093,-0.187702242733964
0.33668665818821,-0.186739540859411
0.338817722902774,-0.185791612881686
0.340949991681906,-0.184858802645065
0.343083530832726,-0.183941453993819
0.345218406662356,-0.183039910772223
0.347354685477915,-0.182154516824551
0.349492433586524,-0.181285615995075
0.351631717295305,-0.180433552128069
0.353772602911376,-0.179598669067808
0.35591515674186,-0.178781310658563
0.358059445093876,-0.177981820744609
0.360205534274545,-0.17720054317022
0.362353490590988,-0.176437821779668
0.364503380350325,-0.175694000417228
0.366655269859677,-0.174969422927172
0.368809225426164,-0.174264433153775
0.370965313356908,-0.173579374941309
0.373123599959028,-0.172914592134049
0.375284151539645,-0.172270428576268
0.377447034405879,-0.171647228112239
0.379612314864852,-0.171045334586235
0.381780059223684,-0.170465091842532
0.383950333789496,-0.169906843725401
0.386123204869407,-0.169370934079116
0.388298738770539,-0.168857706747951
0.390477001800013,-0.16836750557618
0.392658060264948,-0.167900674408075
0.394841980472465,-0.167457557087911
0.397028828729685,-0.16703849745996
0.399218671343729,-0.166643839368498
0.401411574621717,-0.166273926657796
0.403607604870769,-0.165929103172128
0.405806828398007,-0.165609712755768
0.40800931151055,-0.16531609925299
0.41021512051552,-0.165048606508066
0.412424321720037,-0.164807578365271
0.414636981431221,-0.164593358668878
0.416853165956194,-0.164406291263161
0.419072941602075,-0.164246719992392
0.421296374675986,-0.164114988700846
0.423523531485046,-0.164011441232796
0.425754478336376,-0.163936421432515
0.427989281537098,-0.163890273144277
0.430228007394331,-0.163873340212356
0.432470722215197,-0.163885966481024
0.434717492306815,-0.163928495794556
0.436968383976306,-0.164001271997225
0.439223463530791,-0.164104638933305
0.441482797277391,-0.164238940447069
0.443746451523226,-0.16440452038279
0.446014492575416,-0.164601722584742
0.448286986741083,-0.164830890897199
0.450564000327346,-0.165092369164433
0.452845599641327,-0.165386501230719
0.455131850990145,-0.165713630940331
0.457422820680922,-0.166074102137541
0.459718575020778,-0.166468258666622
0.462019180316834,-0.16689644437185
0.46432470287621,-0.167359003097496
0.466635209006027,-0.167856278687835
0.468950765013405,-0.168388614987141
0.471271437205465,-0.168956355839685
0.473597291889328,-0.169559845089743
0.475928395372113,-0.170199426581588
0.478264813960943,-0.170875444159492
0.480606613962937,-0.17158824166773
0.482953861685215,-0.172338162950575
0.485306623434899,-0.173125551852301
0.487664965519109,-0.173950752217181
0.490028954244965,-0.174814107889489
0.492398655919589,-0.175715962713498
0.4947741368501,-0.176656660533481
0.49715546334362,-0.177636545193713
0.499542701707269,-0.178655960538466
0.501935918248167,-0.179715250412015
0.504335179273435,-0.180814758658632
0.506740551090193,-0.181954829122591
0.509152100005563,-0.183135805648166
0.511569892326665,-0.18435803207963
0.513993994360619,-0.185621852261257
0.516424472414545,-0.18692761003732
0.518861392795566,-0.188275649252093
0.5213048218108,-0.189666313749849
0.523754825767369,-0.191099947374861
0.526211470972394,-0.192576893971404
0.528674823732994,-0.194097497383751
0.53114495035629,-0.195662101456175
0.533621917149403,-0.197271050032949
0.536105790419454,-0.198924686958348
0.538596636473563,-0.200623356076645
0.541094521618851,-0.202367401232113
0.543599512162438,-0.204157166269025
0.546111674411445,-0.205992995031656
0.548631074672992,-0.207875231364279
0.5511577792542,-0.209804219111167
0.55369185446219,-0.211780302116594
0.556233366604082,-0.213803824224833
0.558782381986997,-0.215875129280158
0.561338966918055,-0.217994561126842
0.563903187704377,-0.220162463609159
0.566475110653083,-0.222379180571383
0.569054802071294,-0.224645055857786
0.571642328266131,-0.226960433312643
0.574237755544714,-0.229325656780226
0.576841150214164,-0.23174107010481
0.579452578581601,-0.234207017130667
0.582072106954146,-0.236723841702072
0.58469980163892,-0.239291887663298
0.587335728943043,-0.241911498858618
0.589979955173635,-0.244583019132307
0.592632546637818,-0.247306792328636
0.595293569642711,-0.25008316229188
0.597963090495436,-0.252912472866313
0.600641175503112,-0.255795067896208
0.603327890972862,-0.258731291225838
0.606023303211804,-0.261721486699477
0.60872747852706,-0.264765998161399
0.61144048322575,-0.267865169455876
0.614162383614995,-0.271019344427183
0.616893246001916,-0.274228866919593
0.619633136693632,-0.277494080777379
0.622382121997265,-0.280815329844815
0.625140268219936,-0.284192957966175
0.627907641668764,-0.287627308985731
0.63068430865087,-0.291118726747758
0.633470335473375,-0.294667555096529
0.636265788443399,-0.298274137876318
0.639070733868064,-0.301938818931398
0.641885238054489,-0.305661942106041
0.644709367309796,-0.309443851244524
0.647543187941104,-0.313284890191117
0.650386766255534,-0.317185402790096
0.653240168560208,-0.321145732885733
0.656103461162245,-0.325166224322302
0.658976710368766,-0.329247220944077
0.661859982486891,-0.333389066595331
0.664753343823742,-0.337592105120337
0.667656860686439,-0.341856680363369
0.670570599382102,-0.346183136168701
0.673494626217852,-0.350571816380606
0.676429007500809,-0.355023064843357
0.679373809538095,-0.359537225401229
0.682329098636829,-0.364114641898494
0.685294941104133,-0.368755658179426
0.688271403247126,-0.373460618088299
0.69125855137293,-0.378229865469386
0.694256451788665,-0.383063744166961
0.697265170801451,-0.387962598025297
0.70028477471841,-0.392926770888667
0.703315329846661,-0.397956606601345
0.706356902493326,-0.403052449007605
0.709409558965524,-0.408214641951721
0.712473365570377,-0.413443529277965
0.715548388615005,-0.418739454830611
0.715548388615005,-0.418739454830611
0.718589691949004,-0.424049949030371
0.72155253409826,-0.429322335470637
0.724437273384324,-0.434556647754704
0.727244268128751,-0.439752919485869
0.729973876653093,-0.444911184267427
0.732626457278903,-0.450031475702671
0.735202368327733,-0.455113827394899
0.737701968121138,-0.460158272947406
0.74012561498067,-0.465164845963486
0.742473667227882,-0.470133580046435
0.744746483184326,-0.475064508799549
0.746944421171557,-0.479957665826122
0.749067839511126,-0.484813084729451
0.751117096524587,-0.48963079911283
0.753092550533493,-0.494410842579554
0.754994559859397,-0.49915324873292
0.756823482823852,-0.503858051176222
0.75857967774841,-0.508525283512756
0.760263502954625,-0.513154979345816
0.761875316764049,-0.517747172278699
0.763415477498236,-0.522301895914701
0.764884343478739,-0.526819183857114
0.76628227302711,-0.531299069709237
0.767609624464904,-0.535741587074363
0.768866756113671,-0.540146769555788
0.770054026294966,-0.544514650756807
0.771171793330342,-0.548845264280717
0.772220415541351,-0.553138643730811
0.773200251249546,-0.557394822710386
0.774111658776481,-0.561613834822736
0.774954996443708,-0.565795713671158
0.77573062257278,-0.569940492858946
0.776438895485251,-0.574048205989395
0.777080173502673,-0.578118886665802
0.7776548149466,-0.582152568491461
0.778163178138583,-0.586149285069668
0.778605621400178,-0.590109070003717
0.778982503052934,-0.594031956896906
0.779294181418408,-0.597917979352527
0.77954101481815,-0.601767170973879
0.779723361573715,-0.605579565364254
0.779841580006654,-0.609355196126949
0.779896028438522,-0.613094096865259
0.779887065190871,-0.61679630118248
0.779815048585253,-0.620461842681906
0.779680336943223,-0.624090754966834
0.779483288586333,-0.627683071640557
0.779224261836135,-0.631238826306373
0.778903615014184,-0.634758052567575
0.778521706442031,-0.63824078402746
0.77807889444123,-0.641687054289323
0.777575537333334,-0.645096896956459
0.777011993439896,-0.648470345632163
0.776388621082469,-0.651807433919731
0.775705778582605,-0.655108195422457
0.774963824261858,-0.658372663743639
0.774163116441781,-0.66160087248657
0.773304013443926,-0.664792855254546
0.772386873589847,-0.667948645650862
0.771412055201097,-0.671068277278814
0.770379916599228,-0.674151783741697
0.769290816105794,-0.677199198642807
0.768145112042347,-0.680210555585438
0.766943162730441,-0.683185888172887
0.765685326491629,-0.686125230008447
0.764371961647463,-0.689028614695416
0.763003426519496,-0.691896075837087
0.761580079429282,-0.694727647036757
0.760102278698373,-0.697523361897721
0.758570382648322,-0.700283254023274
0.756984749600683,-0.703007357016711
0.755345737877008,-0.705695704481328
0.75365370579885,-0.70834833002042
0.751909011687763,-0.710965267237282
0.750112013865298,-0.71354654973521
0.74826307065301,-0.716092211117499
0.746362540372452,-0.718602284987445
0.744410781345175,-0.721076804948342
0.742408151892733,-0.723515804603486
0.740355010336679,-0.725919317556173
0.738251714998567,-0.728287377409697
0.736098624199949,-0.730620017767354
0.733896096262377,-0.73291727223244
0.731644489507406,-0.73517917440825
0.729344162256587,-0.737405757898078
0.726995472831475,-0.739597056305221
0.724598779553621,-0.741753103232974
0.722154440744579,-0.743873932284632
0.719662814725903,-0.74595957706349
0.717124259819143,-0.748010071172843
0.714539134345855,-0.750025448215988
0.71190779662759,-0.75200574179622
0.709230604985903,-0.753950985516833
0.706507917742345,-0.755861212981123
0.703740093218469,-0.757736457792385
0.70092748973583,-0.759576753553915
0.698070465615979,-0.761382133869009
0.695169379180469,-0.76315263234096
0.692224588750854,-0.764888282573065
0.689236452648687,-0.76658911816862
0.68620532919552,-0.768255172730919
0.683131576712907,-0.769886479863257
0.6800155535224,-0.771483073168931
0.676857617945553,-0.773044986251235
0.673658128303918,-0.774572252713465
0.670417442919049,-0.776064906158915
0.667135920112498,-0.777522980190882
0.663813918205818,-0.778946508412661
0.660451795520562,-0.780335524427547
0.657049910378284,-0.781690061838835
0.653608621100536,-0.783010154249821
0.650128286008872,-0.7842958352638
0.646609263424844,-0.785547138484068
0.643051911670004,-0.786764097513919
0.639456589065907,-0.787946745956649
0.635823653934105,-0.789095117415553
0.632153464596152,-0.790209245493928
0.628446379373599,-0.791289163795067
0.624702756588,-0.792334905922267
0.620922954560909,-0.793346505478822
0.617107331613877,-0.794323996068029
0.613256246068459,-0.795267411293182
0.609370056246206,-0.796176784757576
0.605449120468672,-0.797052150064508
0.601493797057411,-0.797893540817272
0.597504444333974,-0.798700990619164
0.593481420619915,-0.799474533073479
0.589425084236787,-0.800214201783512
0.585335793506142,-0.800920030352559
0.581213906749534,-0.801592052383915
0.577059782288517,-0.802230301480875
0.572873778444641,-0.802834811246736
0.568656253539462,-0.803405615284791
0.564407565894531,-0.803942747198336
0.560128073831402,-0.804446240590667
0.555818135671627,-0.80491612906508
0.551478109736761,-0.805352446224869
0.547108354348354,-0.805755225673329
0.542709227827961,-0.806124501013756
0.538281088497135,-0.806460305849446
0.533824294677428,-0.806762673783694
0.529339204690393,-0.807031638419795
0.524826176857584,-0.807267233361043
0.520285569500554,-0.807469492210736
0.515717740940855,-0.807638448572168
0.51112304950004,-0.807774136048634
0.506501853499662,-0.80787658824343
0.501854511261275,-0.807945838759851
0.497181381106431,-0.807981921201193
0.492482821356683,-0.80798486917075
0.487759190333585,-0.807954716271817
0.483010846358689,-0.807891496107692
0.478238147753548,-0.807795242281669
0.473441452839714,-0.807665988397042
0.468621119938742,-0.807503768057107
0.463777507372185,-0.807308614865161
0.458910973461594,-0.807080562424497
0.454021876528523,-0.806819644338412
0.449110574894526,-0.8065258942102
0.444177426881154,-0.806199345643158
0.439222790809961,-0.80584003224058
0.4342470250025,-0.805447987605762
0.429250487780324,-0.805023245341998
0.424233537464986,-0.804565839052585
0.419196532378039,-0.804075802340818
0.414139830841036,-0.803553168809992
0.409063791175529,-0.802997972063402
0.403968771703073,-0.802410245704344
0.398855130745219,-0.801790023336114
0.39372322662352,-0.801137338562005
0.388573417659531,-0.800452224985314
0.383406062174803,-0.799734716209336
0.37822151849089,-0.798984845837367
0.373020144929344,-0.798202647472701
0.367802299811719,-0.797388154718634
0.362568341459567,-0.796541401178462
0.357318628194442,-0.79566242045548
0.352053518337897,-0.794751246152982
0.346773370211484,-0.793807911874265
0.341478542136756,-0.792832451222624
0.336169392435267,-0.791824897801353
0.330846279428569,-0.790785285213749
0.325509561438216,-0.789713647063107
0.32015959678576,-0.788610016952722
0.314796743792754,-0.787474428485889
0.309421360780752,-0.786306915265904
0.304033806071306,-0.785107510896062
0.298634437985969,-0.783876248979658
0.293223614846294,-0.782613163119988
0.287801694973835,-0.781318286920347
0.282369036690144,-0.779991653984031
0.276925998316774,-0.778633297914334
0.271472938175278,-0.777243252314552
0.266010214587209,-0.775821550787981
0.26053818587412,-0.774368226937915
0.255057210357564,-0.772883314367651
0.249567646359094,-0.771366846680483
0.244069852200263,-0.769818857479706
0.238564186202624,-0.768239380368616
0.23305100668773,-0.766628448950509
0.227530671977134,-0.76498609682868
0.222003540392389,-0.763312357606424
0.216469970255048,-0.761607264887036
0.210930319886663,-0.759870852273812
0.205384947608789,-0.758103153370046
0.199834211742977,-0.756304201779036
0.194278470610781,-0.754474031104075
0.188718082533753,-0.752612674948459
0.183153405833447,-0.750720166915483
0.177584798831416,-0.748796540608443
0.172012619849213,-0.746841829630634
0.16643722720839,-0.744856067585352
0.160858979230501,-0.742839288075891
0.155278234237098,-0.740791524705547
0.149695350549735,-0.738712811077616
0.144110686489965,-0.736603180795392
0.138524600379339,-0.734462667462171
0.132937450539413,-0.732291304681249
0.127349595291737,-0.730089126055921
0.121761392957867,-0.727856165189481
0.116173201859353,-0.725592455685226
0.11058538031775,-0.723298031146451
0.10499828665461,-0.720972925176451
0.0994122791914867,-0.718617171378521
0.0938277162499324,-0.716230803355957
0.0882449561515005,-0.713813854712054
0.0826643572177436,-0.711366359050107
0.0770862777702152,-0.708888349973412
0.0715110761304677,-0.706379861085264
0.0659391106200545,-0.703840925988958
0.0603707395605282,-0.70127157828779
0.0548063212734423,-0.698671851585055
0.0492462140803492,-0.696041779484049
0.0436907763028024,-0.693381395588066
0.0381403662623543,-0.690690733500402
0.0325953422805585,-0.687969826824353
0.0270560626789674,-0.685218709163213
0.0215228857791344,-0.682437414120279
0.0159961699026121,-0.679625975298845
0.0104762733709539,-0.676784426302206
0.0049635545057124,-0.673912800733659
-0.000541628371559078,-0.671011132196498
-0.00603891693930803,-0.668079454294018
-0.0115279528759809,-0.665117800629516
-0.0170083778600253,-0.662126204806286
-0.0224798335698878,-0.659104700427624
-0.0279419616840158,-0.656053321096825
-0.0333944038808559,-0.652972100417184
-0.0388368018388556,-0.649861071991997
-0.0442687972364615,-0.646720269424559
-0.0496900317521209,-0.643549726318165
-0.0551001470642807,-0.640349476276111
-0.060498784851388,-0.637119552901692
-0.0658855867918896,-0.633859989798204
-0.071260194564233,-0.630570820568941
-0.0766222498468647,-0.6272520788172
-0.0819713943182322,-0.623903798146274
-0.0873072696567821,-0.620526012159461
-0.0926295175409619,-0.617118754460054
-0.0979377796492179,-0.61368205865135
-0.103231697659998,-0.610215958336643
-0.108510913251749,-0.60672048711923
-0.113775068102917,-0.603195678602405
-0.11902380389195,-0.599641566389463
-0.124256762297295,-0.596058184083701
-0.129473584997399,-0.592445565288413
-0.134673913670708,-0.588803743606895
-0.13985738999567,-0.585132752642442
-0.145023655650733,-0.581432625998349
-0.150172352314342,-0.577703397277912
-0.155303121664945,-0.573945100084426
-0.160415605380989,-0.570157768021186
-0.165509445140921,-0.566341434691488
-0.170584282623188,-0.562496133698627
-0.175639759506238,-0.558621898645899
-0.180675517468516,-0.554718763136598
-0.18569119818847,-0.55078676077402
-0.190686443344547,-0.546825925161461
-0.195660894615195,-0.542836289902215
-0.20061419367886,-0.538817888599578
-0.205545982213989,-0.534770754856846
-0.210455901899029,-0.530694922277314
-0.215343594412427,-0.526590424464276
-0.220208701432631,-0.522457295021029
-0.225050864638087,-0.518295567550868
-0.229869725707242,-0.514105275657087
-0.234664926318544,-0.509886452942983
-0.239436108150439,-0.505639133011851
-0.244182912881375,-0.501363349466986
-0.248904982189798,-0.497059135911683
-0.253601957754155,-0.492726525949238
-0.258273481252894,-0.488365553182946
-0.262919194364461,-0.483976251216102
-0.267538738767304,-0.479558653652002
-0.27213175613987,-0.475112794093941
-0.276697888160605,-0.470638706145214
-0.281236776507957,-0.466136423409117
-0.285748062860372,-0.461605979488946
-0.290231388896298,-0.457047407987994
-0.294686396294182,-0.452460742509558
-0.299112726732471,-0.447846016656934
-0.303510021889611,-0.443203264033415
-0.30787792344405,-0.438532518242299
-0.312216073074234,-0.433833812886879
-0.316524112458612,-0.429107181570452
-0.32080168327563,-0.424352657896313
-0.325048427203734,-0.419570275467756
-0.329263985921372,-0.414760067888078
-0.333448001106992,-0.409922068760574
-0.337600114439039,-0.405056311688538
-0.341719967595961,-0.400162830275267
-0.345807202256205,-0.395241658124056
-0.349861460098219,-0.3902928288382
-0.353882382800448,-0.385316376020994
-0.357869612041341,-0.380312333275734
-0.361822789499343,-0.375280734205715
-0.365741556852903,-0.370221612414232
-0.369625555780467,-0.365135001504582
-0.373474427960482,-0.360020935080057
-0.377287815071395,-0.354879446743956
-0.381065358791654,-0.349710570099572
-0.384806700799704,-0.344514338750201
-0.388511482773995,-0.339290786299139
-0.392179346392971,-0.33403994634968
-0.395809933335081,-0.32876185250512
-0.399402885278771,-0.323456538368755
-0.402957843902489,-0.31812403754388
-0.406474450884681,-0.312764383633789
-0.409952347903795,-0.307377610241779
-0.413391176638276,-0.301963750971145
-0.416790578766574,-0.296522839425181
-0.420150195967134,-0.291054909207184
-0.423469669918404,-0.285559993920449
-0.42674864229883,-0.28003812716827
-0.42998675478686,-0.274489342553944
-0.43318364906094,-0.268913673680766
-0.436338966799519,-0.263311154152031
-0.439452349681042,-0.257681817571034
-0.442523439383956,-0.252025697541071
-0.44555187758671,-0.246342827665437
-0.448537305967749,-0.240633241547428
-0.451479366205521,-0.234896972790338
-0.454377699978472,-0.229134054997463
-0.457231948965051,-0.223344521772098
-0.460041754843704,-0.217528406717539
-0.462806759292877,-0.211685743437082
-0.465526603991019,-0.20581656553402
-0.468200930616575,-0.199920906611651
-0.470829380847993,-0.193998800273268
-0.473411596363721,-0.188050280122168
-0.475947218842204,-0.182075379761645
-0.478435889961891,-0.176074132794996
-0.480877251401227,-0.170046572825514
-0.483270944838661,-0.163992733456497
-0.485616611952639,-0.157912648291238
-0.487913894421608,-0.151806350933034
-0.490162433924015,-0.14567387498518
-0.492361872138307,-0.139515254050971
-0.494511850742932,-0.133330521733702
-0.496612011416336,-0.127119711636669
-0.498661995836966,-0.120882857363166
-0.50066144568327,-0.114619992516491
-0.502610002633694,-0.108331150699937
-0.504507308366685,-0.1020163655168
-0.506353004560691,-0.0956756705703748
-0.508146732894158,-0.089309099463958
-0.509888135045534,-0.0829166858008439
-0.511576852693265,-0.0764984631843285
-0.513212527515799,-0.0700544652177065
-0.514794801191582,-0.0635847255042738
-0.516323315399062,-0.0570892776473253
-0.517797711816685,-0.0505681552501567
-0.519217632122899,-0.0440213919160629
-0.520582717996151,-0.0374490212483397
-0.521892611114887,-0.030851076850282
-0.523146953157555,-0.0242275923251855
-0.524345385802602,-0.0175786012763452
-0.525487550728475,-0.0109041373070568
-0.52657308961362,-0.00420423402061525
-0.527601644136485,0.00252107497968367
-0.528572855975517,0.0092717560905452
-0.529486366809163,0.0160477757086734
-0.53034181831587,0.0228491002307735
-0.531138852174084,0.0296756960535496
-0.531877110062254,0.0365275295737069
-0.532556233658825,0.0434045671879496
-0.533175864642246,0.0503067752929829
-0.533735644690962,0.0572341202855108
-0.534235215483422,0.0641865685622387
-0.534674218698071,0.0711640865198706
-0.535052296013358,0.0781666405551117
-0.535369089107729,0.0851941970646661
-0.535624239659631,0.0922467224452392
-0.535817389347511,0.0993241830935349
-0.535948179849817,0.106426545406259
-0.536016252844994,0.113553775780114
-0.536021250011491,0.120705840611807
-0.535962813027754,0.127882706298041
-0.535840583572231,0.135084339235522
-0.535840583572231,0.135084339235522
-0.535675880254604,0.142245427121765
-0.535490338213063,0.149301084089246
-0.535284073918812,0.156251916187108
-0.535057203843056,0.163098529464492
-0.534809844457001,0.169841529970543
-0.53454211223185,0.176481523754403
-0.534254123638809,0.183019116865215
-0.533945995149083,0.189454915352121
-0.533617843233876,0.195789525264265
-0.533269784364394,0.20202355265079
-0.53290193501184,0.208157603560838
-0.53251441164742,0.214192284043552
-0.532107330742339,0.220128200148075
-0.531680808767802,0.22596595792355
-0.531234962195012,0.231706163419119
-0.530769907495177,0.237349422683926
-0.530285761139499,0.242896341767114
-0.529782639599184,0.248347526717825
-0.529260659345437,0.253703583585202
-0.528719936849462,0.258965118418388
-0.528160588582465,0.264132737266525
-0.527582731015649,0.269207046178758
-0.526986480620221,0.274188651204228
-0.526371953867385,0.279078158392078
-0.525739267228346,0.283876173791452
-0.525088537174308,0.288583303451491
-0.524419880176476,0.29320015342134
-0.523733412706056,0.29772732975014
-0.523029251234251,0.302165438487035
-0.522307512232268,0.306515085681168
-0.52156831217131,0.31077687738168
-0.520811767522583,0.314951419637716
-0.520037994757291,0.319039318498419
-0.519247110346639,0.323041180012929
-0.518439230761832,0.326957610230392
-0.517614472474076,0.33078921519995
-0.516772951954574,0.334536600970744
-0.515914785674531,0.338200373591919
-0.515040090105153,0.341781139112618
-0.514148981717644,0.345279503581982
-0.513241576983209,0.348696073049155
-0.512317992373052,0.35203145356328
-0.51137834435838,0.355286251173499
-0.510422749410396,0.358461071928956
-0.509451324000305,0.361556521878794
-0.508464184599313,0.364573207072154
-0.507461447678623,0.36751173355818
-0.506443229709442,0.370372707386015
-0.505409647162973,0.373156734604802
-0.504360816510421,0.375864421263683
-0.503296854222992,0.378496373411802
-0.502217876771891,0.381053197098301
-0.501124000628321,0.383535498372323
-0.500015342263488,0.385943883283011
-0.498892018148596,0.388278957879508
-0.497754144754851,0.390541328210956
-0.496601838553458,0.392731600326499
-0.49543521601562,0.39485038027528
-0.494254393612544,0.39689827410644
-0.493059487815434,0.398875887869124
-0.491850615095494,0.400783827612473
-0.490627891923929,0.402622699385632
-0.489391434771945,0.404393109237742
-0.488141360110746,0.406095663217946
-0.486877784411538,0.407730967375388
-0.485600824145523,0.40929962775921
-0.484310595783909,0.410802250418555
-0.483007215797899,0.412239441402565
-0.481690800658699,0.413611806760385
-0.480361466837512,0.414919952541156
-0.479019330805545,0.416164484794022
-0.477664509034001,0.417346009568125
-0.476297117994086,0.418465132912608
-0.474917274157004,0.419522460876614
-0.473525093993961,0.420518599509285
-0.472120693976161,0.421454154859766
-0.470704190574809,0.422329732977198
-0.46927570026111,0.423145939910725
-0.467835339506268,0.423903381709488
-0.466383224781489,0.424602664422632
-0.464919472557977,0.425244394099299
-0.463444199306938,0.425829176788632
-0.461957521499575,0.426357618539773
-0.460459555607094,0.426830325401866
-0.4589504181007,0.427247903424053
-0.457430225451597,0.427610958655477
-0.45589909413099,0.427920097145282
-0.454357140610085,0.42817592494261
-0.452804481360086,0.428379048096603
-0.451241232852197,0.428530072656405
-0.449667511557624,0.428629604671158
-0.448083433947572,0.428678250190006
-0.446489116493245,0.42867661526209
-0.444884675665847,0.428625305936555
-0.443270227936585,0.428524928262543
-0.441645889776663,0.428376088289197
-0.440011777657285,0.428179392065659
-0.438368008049657,0.427935445641073
-0.436714697424983,0.42764485506458
-0.435051962254468,0.427308226385326
-0.433379919009317,0.426926165652451
-0.431698684160735,0.426499278915099
-0.430008374179927,0.426028172222412
-0.428309105538097,0.425513451623535
-0.42660099470645,0.424955723167608
-0.424884158156191,0.424355592903776
-0.423158712358526,0.423713666881181
-0.421424773784658,0.423030551148966
-0.419682458905793,0.422306851756274
-0.417931884193135,0.421543174752247
-0.416173166117889,0.42074012618603
-0.414406421151261,0.419898312106763
-0.412631765764454,0.419018338563591
-0.410849316428674,0.418100811605655
-0.409059189615126,0.4171463372821
-0.407261501795014,0.416155521642068
-0.405456369439544,0.415128970734701
-0.40364390901992,0.414067290609142
-0.401824237007346,0.412971087314535
-0.399997469873028,0.411840966900023
-0.398163724088171,0.410677535414747
-0.39632311612398,0.409481398907851
-0.394475762451658,0.408253163428478
-0.392621779542412,0.406993435025771
-0.390761283867446,0.405702819748872
-0.388894391897964,0.404381923646924
-0.387021220105172,0.40303135276907
-0.385141884960275,0.401651713164454
-0.383256502934476,0.400243610882217
-0.381365190498982,0.398807651971504
-0.379468064124997,0.397344442481455
-0.377565240283725,0.395854588461215
-0.375656835446372,0.394338695959927
-0.373742966084142,0.392797371026732
-0.371823748668241,0.391231219710775
-0.369899299669873,0.389640848061197
-0.367969735560243,0.388026862127142
-0.366035172810555,0.386389867957753
-0.364095727892015,0.384730471602172
-0.362151517275827,0.383049279109542
-0.360202657433197,0.381346896529007
-0.358249264835329,0.379623929909708
-0.356291455953427,0.377880985300789
-0.354329347258698,0.376118668751393
-0.352363055222345,0.374337586310662
-0.350392696315573,0.37253834402774
-0.348418387009587,0.370721547951769
-0.346440243775593,0.368887804131892
-0.344458383084795,0.367037718617252
-0.342472921408397,0.365171897456992
-0.340483975217605,0.363290946700254
-0.338491660983623,0.361395472396182
-0.336496095177656,0.359486080593918
-0.33449739427091,0.357563377342605
-0.332495674734588,0.355627968691386
-0.330491053039896,0.353680460689405
-0.328483645658039,0.351721459385803
-0.326473569060221,0.349751570829723
-0.324460939717647,0.347771401070309
-0.322445874101523,0.345781556156703
-0.320428488683052,0.343782642138049
-0.31840889993344,0.341775265063488
-0.316387224323891,0.339760030982164
-0.314363578325611,0.337737545943221
-0.312338078409804,0.335708415995799
-0.310310841047675,0.333673247189043
-0.308281982710429,0.331632645572095
-0.306251619869271,0.329587217194099
-0.304219868995405,0.327537568104196
-0.302186846560037,0.32548430435153
-0.300152669034371,0.323428031985244
-0.298117452889612,0.32136935705448
-0.296081314596965,0.319308885608382
-0.294044370627634,0.317247223696092
-0.292006737452825,0.315184977366753
-0.289968531543742,0.313122752669508
-0.287929869371591,0.3110611556535
-0.285890867407575,0.309000792367871
-0.283851642122901,0.306942268861765
-0.281812309988772,0.304886191184324
-0.279772987476394,0.302833165384692
-0.277733791056971,0.30078379751201
-0.275694837201708,0.298738693615423
-0.27365624238181,0.296698459744072
-0.271618123068483,0.294663701947101
-0.269580595732929,0.292635026273652
-0.267543776846356,0.290613038772868
-0.265507782879966,0.288598345493893
-0.263472730304966,0.286591552485869
-0.26143873559256,0.284593265797938
-0.259405915213953,0.282604091479244
-0.257374385640349,0.28062463557893
-0.255344263342954,0.278655504146139
-0.253315664792973,0.276697303230012
-0.251288706461609,0.274750638879694
-0.249263504820069,0.272816117144327
-0.247240176339556,0.270894344073053
-0.245218837491276,0.268985925715016
-0.243199604746433,0.267091468119359
-0.241182594576233,0.265211577335224
-0.23916792345188,0.263346859411755
-0.237155707844579,0.261497920398093
-0.235146064225535,0.259665366343382
-0.233139109065953,0.257849803296766
-0.231134958837037,0.256051837307385
-0.229133730009992,0.254272074424385
-0.227135539056024,0.252511120696907
-0.225140502446336,0.250769582174094
-0.223148736652135,0.249048064905088
-0.221160358144624,0.247347174939034
-0.219175483395008,0.245667518325074
-0.217194228874493,0.24400970111235
-0.215216711054283,0.242374329350006
-0.213243046405583,0.240762009087184
-0.211273351399598,0.239173346373028
-0.209307742507533,0.237608947256679
-0.207346336200591,0.236069417787281
-0.20538924894998,0.234555364013977
-0.203436597226902,0.233067391985909
-0.201488497502564,0.231606107752221
-0.199545066248169,0.230172117362056
-0.197606419934923,0.228766026864555
-0.19567267503403,0.227388442308862
-0.193743948016696,0.226039969744121
-0.191820355354125,0.224721215219473
-0.189902013517522,0.223432784784061
-0.187989038978091,0.222175284487029
-0.186081548207039,0.220949320377519
-0.184179657675568,0.219755498504674
-0.182283483854886,0.218594424917637
-0.180393143216195,0.217466705665551
-0.178508752230701,0.216372946797559
-0.176630427369609,0.215313754362803
-0.174758285104124,0.214289734410427
-0.17289244190545,0.213301492989573
-0.171033014244792,0.212349636149384
-0.169180118593356,0.211434769939002
-0.167333871422345,0.210557500407572
-0.165494389202965,0.209718433604235
-0.163661788406421,0.208918175578135
-0.161836185503918,0.208157332378414
-0.160017696966659,0.207436510054215
-0.158206439265851,0.206756314654681
-0.156402528872698,0.206117352228956
-0.154606082258404,0.205520228826181
-0.152817215894176,0.204965550495499
-0.151036046251216,0.204453923286054
-0.149262689800731,0.203985953246988
-0.147497263013925,0.203562246427445
-0.145739882362003,0.203183408876566
-0.14399066431617,0.202850046643495
-0.14224972534763,0.202562765777375
-0.140517181927589,0.202322172327349
-0.138793150527251,0.202128872342559
-0.137077747617822,0.201983471872148
-0.135371089670505,0.20188657696526
-0.133673293156506,0.201838793671036
-0.131984474547029,0.20184072803862
-0.13030475031328,0.201892986117155
-0.128634236926464,0.201996173955784
-0.126973050857784,0.202150897603648
-0.125321308578446,0.202357763109892
-0.123679126559655,0.202617376523658
-0.122046621272616,0.202930343894089
-0.120423909188533,0.203297271270328
-0.118811106778612,0.203718764701518
-0.117208330514056,0.204195430236801
-0.115615696866071,0.20472787392532
-0.114033322305863,0.205316701816219
-0.112461323304634,0.205962519958639
-0.110899816333592,0.206665934401725
-0.109348917863939,0.207427551194618
-0.107808744366882,0.208247976386462
-0.106279412313624,0.209127816026399
-0.104761038175371,0.210067676163573
-0.103253738423328,0.211068162847126
-0.1017576295287,0.212129882126201
-0.10027282796269,0.21325344004994
-0.0987994501965046,0.214439442667488
-0.0973376127013482,0.215688496027986
-0.0958874319484254,0.217001206180577
-0.0944490244089413,0.218378179174405
-0.0930225065541005,0.219820021058612
-0.0916079948551081,0.221327337882341
-0.0902056057831686,0.222900735694734
-0.0888154558094871,0.224540820544936
-0.0874376614052683,0.226248198482088
-0.0860723390417172,0.228023475555333
-0.0847196051900384,0.229867257813815
-0.0833795763214369,0.231780151306675
-0.0820523689071174,0.233762762083058
-0.0807380994182849,0.235815696192105
-0.079436884326144,0.237939559682961
-0.0781488401018998,0.240134958604766
-0.0768740832167569,0.242402499006665
-0.0756127301419203,0.2447427869378
-0.0743648973485947,0.247156428447315
-0.0731307013079851,0.249644029584351
-0.0719102584912961,0.252206196398052
-0.0707036853697328,0.25484353493756
-0.0695110984144998,0.25755665125202
-0.0683326140968021,0.260346151390572
-0.0671683488878444,0.26321264140236
-0.0660184192588316,0.266156727336528
-0.0648829416809685,0.269179015242218
-0.06376203262546,0.272280111168572
-0.0626558085635109,0.275460621164734
-0.061564385966326,0.278721151279846
-0.0604878813051101,0.282062307563052
-0.0594264110510681,0.285484696063493
-0.0583800916754049,0.288988922830314
-0.0573490396493252,0.292575593912657
-0.0563333714440338,0.296245315359664
-0.0553332035307357,0.299998693220479
-0.0543486523806356,0.303836333544244
-0.0533798344649385,0.307758842380103
-0.052426866254849,0.311766825777197
-0.051489864221572,0.315860889784671
-0.0505689448363124,0.320041640451667
-0.0496642245702751,0.324309683827326
-0.0487758198946648,0.328665625960794
-0.0479038472806863,0.333110072901212
-0.0470484231995446,0.337643630697723
-0.0462096641224444,0.342266905399471
-0.0453876865205905,0.346980503055597
-0.0445826068651879,0.351785029715245
-0.0437945416274412,0.356681091427558
-0.0430236072785555,0.361669294241678
-0.0422699202897354,0.366750244206748
-0.0415335971321859,0.371924547371912
-0.0408147542771117,0.377192809786312
-0.0401135081957178,0.38255563749909
-0.0394299753592088,0.388013636559391
-0.0387642722387897,0.393567413016356
-0.0381165153056653,0.399217572919128
-0.0374868210310404,0.404964722316851
-0.0368753058861199,0.410809467258667
-0.0362820863421085,0.416752413793719
-0.0357072788702112,0.42279416797115
-0.0351509999416327,0.428935335840102
-0.0346133660275779,0.43517652344972
-0.0340944935992517,0.441518336849144
-0.0335944991278587,0.447961382087519
-0.033113499084604,0.454506265213987
-0.0326516099406922,0.461153592277691
-0.0322089481673284,0.467903969327773
-0.0317856302357171,0.474758002413378
-0.0313817726170634,0.481716297583647
-0.030997491782572,0.488779460887723
-0.0306329042034478,0.49594809837475
-0.0302881263508956,0.50322281609387
-0.0299632746961203,0.510604220094225
-0.0296584657103266,0.51809291642496
-0.0293738158647194,0.525689511135216
-0.0291094416305035,0.533394610274137
-0.0288654594788838,0.541208819890864
-0.0286419858810651,0.549132746034543
-0.0284391373082523,0.557166994754314
-0.0282570302316501,0.565312172099321
-0.0280957811224634,0.573568884118707
-0.027955506451897,0.581937736861615
-0.0278363226911558,0.590419336377186
-0.0277383463114445,0.599014288714566
-0.0276616937839681,0.607723199922895
-0.0276064815799314,0.616546676051318
-0.0275728261705391,0.625485323148976
-0.0275608440269962,0.634539747265013
-0.0275706516205074,0.643710554448572
-0.0276023654222776,0.652998350748796
-0.0276561019035116,0.662403742214826
-0.0277319775354143,0.671927334895807
-0.0278301087891904,0.68156973484088
-0.0279506121360448,0.69133154809919
-0.0280936040471824,0.701213380719878
-0.028259200993808,0.711215838752087
-0.0284475194471264,0.721339528244962
-0.0286586758783424,0.731585055247643
-0.0288927867586609,0.741953025809274
-0.0291499685592867,0.752444045978999
-0.0294303377514247,0.763058721805959
-0.0297340108062796,0.773797659339298
-0.0300611041950563,0.784661464628158
-0.0304117343889597,0.795650743721683
-0.0307860178591945,0.806766102669015
-0.0311840710769656,0.818008147519297
-0.0316060105134778,0.829377484321672
-0.0320519526399361,0.840874719125283
-0.0325220139275451,0.852500457979273
-0.0330163108475097,0.864255306932784
-0.0335349598710348,0.876139872034959
-0.0340780774693252,0.888154759334941
-0.0346457801135857,0.900300574881873
-0.0352381842750212,0.912577924724899
-0.0358554064248365,0.92498741491316
-0.0364975630342364,0.9375296514958
-0.0371647705744257,0.950205240521961
-0.0378571455166093,0.963014788040787
-0.0385748043319921,0.975958900101419
-0.0393178634917788,0.989038182753002
