-0.646536918684216,0.124501807248497
-0.646271734758226,0.1306451200202
-0.645982571838643,0.136687752067633
-0.645669521071339,0.142630176864952
-0.645332673602187,0.148472867886312
-0.644972120577057,0.15421629860587
-0.644587953141821,0.159860942497781
-0.644180262442353,0.1654072730362
-0.643749139624524,0.170855763695285
-0.643294675834206,0.17620688794919
-0.64281696221727,0.181461119272071
-0.64231608991959,0.186618931138085
-0.641792150087037,0.191680797021387
-0.641245233865483,0.196647190396133
-0.6406754324008,0.201518584736478
-0.64008283683886,0.206295453516579
-0.639467538325535,0.210978270210592
-0.638829628006698,0.215567508292671
-0.638169197028219,0.220063641236974
-0.637486336535972,0.224467142517655
-0.636781137675828,0.228778485608871
-0.636053691593659,0.232998143984778
-0.635304089435338,0.237126591119531
-0.634532422346736,0.241164300487286
-0.633738781473725,0.245111745562199
-0.632923257962178,0.248969399818425
-0.632085942957966,0.252737736730122
-0.631226927606962,0.256417229771443
-0.630346303055037,0.260008352416546
-0.629444160448063,0.263511578139586
-0.628520590931913,0.266927380414719
-0.627575685652458,0.2702562327161
-0.626609535755571,0.273498608517886
-0.625622232387124,0.276654981294233
-0.624613866692988,0.279725824519295
-0.623584529819036,0.28271161166723
-0.622534312911139,0.285612816212192
-0.62146330711517,0.288429911628338
-0.620371603577001,0.291163371389824
-0.619259293442503,0.293813668970804
-0.618126467857549,0.296381277845436
-0.616973217968012,0.298866671487875
-0.615799634919761,0.301270323372276
-0.614605809858671,0.303592706972796
-0.613391833930612,0.305834295763591
-0.612157798281457,0.307995563218816
-0.610903794057078,0.310076982812626
-0.609629912403347,0.312079028019179
-0.608336244466136,0.314002172312629
-0.607022881391317,0.315846889167133
-0.605689914324762,0.317613652056846
-0.604337434412343,0.319302934455924
-0.602965532799932,0.320915209838523
-0.601574300633401,0.322450951678799
-0.600163829058622,0.323910633450908
-0.598734209221467,0.325294728629005
-0.597285532267808,0.326603710687246
-0.595817889343517,0.327838053099787
-0.594331371594467,0.328998229340784
-0.592826070166529,0.330084712884393
-0.591302076205575,0.33109797720477
-0.589759480857477,0.33203849577607
-0.588198375268107,0.332906742072449
-0.586618850583338,0.333703189568063
-0.585020997949041,0.334428311737068
-0.583404908511089,0.335082582053619
-0.581770673415353,0.335666473991873
-0.580118383807705,0.336180461025985
-0.578448130834017,0.336625016630112
-0.576760005640163,0.337000614278408
-0.575054099372012,0.33730772744503
-0.573330503175438,0.337546829604134
-0.571589308196313,0.337718394229875
-0.569830605580508,0.33782289479641
-0.568054486473895,0.337860804777893
-0.566261042022347,0.337832597648481
-0.564450363371736,0.337738746882331
-0.562622541667934,0.337579725953596
-0.560777668056812,0.337356008336434
-0.558915833684243,0.337068067505
-0.557037129696098,0.33671637693345
-0.555141647238251,0.33630141009594
-0.553229477456572,0.335823640466626
-0.551300711496933,0.335283541519662
-0.549355440505208,0.334681586729207
-0.547393755627268,0.334018249569414
-0.545415748008984,0.33329400351444
-0.543421508796229,0.332509322038441
-0.541411129134875,0.331664678615573
-0.539384700170794,0.330760546719991
-0.537342313049858,0.329797399825851
-0.535284058917939,0.328775711407309
-0.533210028920909,0.327695954938522
-0.53112031420464,0.326558603893643
-0.529015005915004,0.325364131746831
-0.526894195197873,0.324113011972239
-0.524757973199119,0.322805718044025
-0.522606431064614,0.321442723436344
-0.520439659940231,0.320024501623351
-0.51825775097184,0.318551526079203
-0.516060795305315,0.317024270278056
-0.513848884086527,0.315443207694065
-0.511622108461348,0.313808811801386
-0.509380559575651,0.312121556074174
-0.507124328575307,0.310381913986587
-0.504853506606188,0.308590359012779
-0.502568184814167,0.306747364626907
-0.500268454345114,0.304853404303125
-0.497954406344904,0.302908951515591
-0.495626131959407,0.300914479738459
-0.493283722334495,0.298870462445887
-0.49092726861604,0.296777373112028
-0.488556861949915,0.29463568521104
-0.486172593481992,0.292445872217078
-0.483774554358142,0.290208407604298
-0.481362835724237,0.287923764846856
-0.478937528726151,0.285592417418907
-0.476498724509754,0.283214838794608
-0.474046514220918,0.280791502448114
-0.471580989005516,0.278322881853581
-0.46910224000942,0.275809450485165
-0.466610358378502,0.273251681817022
-0.464105435258633,0.270650049323307
-0.461587561795686,0.268005026478177
-0.459056829135533,0.265317086755787
-0.456513328424045,0.262586703630293
-0.453957150807096,0.25981435057585
-0.451388387430556,0.257000501066615
-0.448807129440298,0.254145628576744
-0.446213467982194,0.251250206580392
-0.443607494202116,0.248314708551715
-0.440989299245936,0.245339607964869
-0.438358974259526,0.242325378294009
-0.435716610388758,0.239272493013293
-0.433062298779504,0.236181425596874
-0.430396130577636,0.23305264951891
-0.427718196929026,0.229886638253556
-0.425028588979546,0.226683865274968
-0.422327397875068,0.223444804057302
-0.419614714761465,0.220169928074713
-0.416890630784607,0.216859710801357
-0.414155237090368,0.213514625711391
-0.411408624824619,0.210135146278969
-0.408650885133232,0.206721745978248
-0.40588210916208,0.203274898283384
-0.403102388057034,0.199795076668532
-0.400311812963966,0.196282754607849
-0.397510475028748,0.19273840557549
-0.394698465397253,0.18916250304561
-0.391875875215352,0.185555520492367
-0.389042795628918,0.181917931389914
-0.386199317783822,0.178250209212409
-0.383345532825936,0.174552827434008
-0.380481531901134,0.170826259528865
-0.377607406155285,0.167070978971138
-0.374723246734263,0.163287459234981
-0.37182914478394,0.15947617379455
-0.368925191450187,0.155637596124002
-0.366011477878877,0.151772199697492
-0.363088095215881,0.147880457989175
-0.360155134607072,0.143962844473209
-0.357212687198322,0.140019832623748
-0.354260844135502,0.136051895914949
-0.351299696564485,0.132059507820967
-0.348329335631143,0.128043141815958
-0.345349852481348,0.124003271374077
-0.342361338260972,0.119940369969482
-0.339363884115886,0.115854911076327
-0.336357581191963,0.111747368168768
-0.333342520635075,0.107618214720962
-0.330318793591094,0.103467924207063
-0.327286491205892,0.0992969701012287
-0.324245704625341,0.0951058258776138
-0.321196524995313,0.0908949650103744
-0.31813904346168,0.0866648609736661
-0.315073351170313,0.0824159872416449
-0.311999539267086,0.0781488172884668
-0.30891769889787,0.0738638245882874
-0.305827921208537,0.0695614826152625
-0.302730297344959,0.065242264843548
-0.299624918453009,0.0609066447472998
-0.296511875678557,0.0565550958006737
-0.293391260167477,0.0521880914778252
-0.29026316306564,0.0478061052529106
-0.287127675518918,0.0434096106000855
-0.283984888673183,0.0389990809935057
-0.280834893674308,0.0345749899073271
-0.277677781668164,0.0301378108157053
-0.274513643800623,0.0256880171927965
-0.271342571217558,0.0212260825127563
-0.26816465506484,0.0167524802497405
-0.264979986488341,0.0122676838779049
-0.261788656633934,0.0077721668714055
-0.258590756647491,0.00326640270439801
-0.255386377674883,-0.00124913514896186
-0.252175610861982,-0.00577397321451814
-0.248958547354661,-0.010307638018115
-0.245735278298791,-0.0148496560855966
-0.242505894840245,-0.0193995539428073
-0.239270488124895,-0.0239568581155911
-0.236029149298612,-0.0285210951297923
-0.232781969507269,-0.033091791511255
-0.229529039896738,-0.0376684737858232
-0.22627045161289,-0.0422506684793416
-0.223006295801598,-0.0468379021176537
-0.219736663608734,-0.0514297012266043
-0.216461646180169,-0.056025592332037
-0.213181334661777,-0.0606251019597966
-0.209895820199428,-0.0652277566357267
-0.206605193938995,-0.0698330828856719
-0.20330954702635,-0.0744406072354761
-0.200008970607365,-0.0790498562109837
-0.196703555827911,-0.0836603563380386
-0.193393393833862,-0.0882716341424854
-0.190078575771089,-0.0928832161501677
-0.186759192785463,-0.0974946288869303
-0.183435336022858,-0.102105398878617
-0.180107096629145,-0.106715052651072
-0.176774565750195,-0.111323116730139
-0.173437834531882,-0.115929117641664
-0.170096994120077,-0.120532581911489
-0.166752135660652,-0.125133036065459
-0.16340335029948,-0.129730006629418
-0.160050729182431,-0.134323020129211
-0.156694363455379,-0.138911603090682
-0.153334344264194,-0.143495282039674
-0.149970762754751,-0.148073583502032
-0.146603710072919,-0.1526460340036
-0.143233277364572,-0.157212160070223
-0.139859555775581,-0.161771488227744
-0.136482636451818,-0.166323545002008
-0.133102610539156,-0.170867856918859
-0.129719569183467,-0.17540395050414
-0.126333603530621,-0.179931352283697
-0.122944804726492,-0.184449588783373
-0.119553263916952,-0.188958186529013
-0.116159072247872,-0.19345667204646
-0.112762320865125,-0.19794457186156
-0.109363100914582,-0.202421412500155
-0.105961503542116,-0.206886720488091
-0.102557619893598,-0.211340022351211
-0.0991515411149012,-0.21578084461536
-0.095743358351897,-0.220208713806382
-0.0923331627504572,-0.22462315645012
-0.0889210454564544,-0.22902369907242
-0.0855070976157601,-0.233409868199125
-0.0820914103742467,-0.23778119035608
-0.0786740748777859,-0.242137192069128
-0.07525518227225,-0.246477399864114
-0.0718348237035109,-0.250801340266882
-0.0684130903174407,-0.255108539803277
-0.0649900732599113,-0.259398524999142
-0.0615658636767949,-0.263670822380321
-0.0581405527139632,-0.267924958472659
-0.0547142315172887,-0.272160459802
-0.051286991232643,-0.276376852894188
-0.0478589230058984,-0.280573664275068
-0.0444301179829267,-0.284750420470482
-0.0410006673096002,-0.288906648006277
-0.0375706621317906,-0.293041873408295
-0.0341401935953702,-0.297155623202382
-0.0307093528462108,-0.30124742391438
-0.0272782310301847,-0.305316802070135
-0.0238469192931636,-0.309363284195491
-0.0204155087810198,-0.31338639681629
-0.0169840906396251,-0.31738566645838
-0.0135527560148518,-0.321360619647602
-0.0101215960525716,-0.325310782909801
-0.00669070189865686,-0.329235682770822
-0.0032601646989792,-0.333134845756508
0.000169924400588925,-0.337007798392704
0.00359947425417582,-0.340854067205254
0.00702839371590921,-0.344673178720002
0.0104565916399173,-0.348464659462793
0.0138839768803279,-0.352228035959469
0.0173104582912692,-0.355962834735877
0.0207359447268688,-0.35966858231786
0.0241603450412551,-0.363344805231261
0.0275835680885557,-0.366991030001926
0.0310055227228988,-0.370606783155698
0.0344261177984123,-0.374191591218421
0.0378452621692243,-0.377744980715941
0.0412628646894625,-0.3812664781741
0.0446788342132553,-0.384755610118743
0.0480930795947302,-0.388211903075715
0.0515055096880155,-0.391634883570859
0.0549160333472391,-0.395024078130019
0.0583245594265289,-0.398379013279041
0.0617309967800129,-0.401699215543767
0.0651352542618193,-0.404984211450043
0.0685372407260756,-0.408233527523711
0.0719368650269102,-0.411446690290618
0.0753340360184509,-0.414623226276606
0.0787286625548258,-0.41776266200752
0.0821206534901626,-0.420864524009204
0.0855099176785896,-0.423928338807502
0.0888963639742346,-0.426953632928258
0.0922799012312257,-0.429939932897317
0.0956604383036906,-0.432886765240523
0.0990378840457576,-0.43579365648372
0.102412147311554,-0.438660133152752
0.105783136955209,-0.441485721773463
0.10915076183085,-0.444269948871698
0.112514930792605,-0.4470123409733
0.115875552694601,-0.449712424604114
0.119232536390967,-0.452369726289984
0.122585790735831,-0.454983772556754
0.125935224583321,-0.457554089930269
0.129280746787564,-0.460080204936372
0.13262226620269,-0.462561644100908
0.135959691682825,-0.464997933949721
0.139292932082097,-0.467388601008655
0.142621896254635,-0.469733171803553
0.145946493054567,-0.472031172860262
0.149266631336021,-0.474282130704624
0.152582219953124,-0.476485571862484
0.155893167760004,-0.478641022859685
0.159199383610791,-0.480748010222073
0.16250077635961,-0.482806060475491
0.165797254860591,-0.484814700145784
0.169088727967862,-0.486773455758795
0.17237510453555,-0.488681853840369
0.175656293417783,-0.49053942091635
0.17893220346869,-0.492345683512583
0.182202743542398,-0.494100168154911
0.185467822493035,-0.495802401369178
0.18872734917473,-0.497451909681229
0.19198123244161,-0.499048219616908
0.195229381147803,-0.500590857702058
0.198471704147438,-0.502079350462526
0.201708110294641,-0.503513224424153
0.204938508443542,-0.504892006112786
0.208162807448268,-0.506215222054267
0.211380916162947,-0.507482398774441
0.214592743441708,-0.508693062799152
0.217798198138677,-0.509846740654244
0.220997189107983,-0.510942958865562
0.224189625203755,-0.51198124395895
0.227375415280119,-0.512961122460251
0.230554468191205,-0.513882120895311
0.233726692791139,-0.514743765789973
0.236891997934051,-0.515545583670081
0.240050292474067,-0.51628710106148
0.243201485265316,-0.516967844490013
0.246345485161926,-0.517587340481525
0.249482201018025,-0.518145115561861
0.25261154168774,-0.518640696256864
0.255733416025201,-0.519073609092378
0.258847732884534,-0.519443380594248
0.261954401119868,-0.519749537288317
0.265053329585331,-0.519991605700431
0.26814442713505,-0.520169112356433
0.271227602623154,-0.520281583782167
0.274302764903771,-0.520328546503478
0.277369822831028,-0.520309527046209
0.280428685259054,-0.520224051936205
0.283479261041977,-0.520071647699311
0.286521459033924,-0.519851840861369
0.289555188089023,-0.519564157948225
0.292580357061404,-0.519208125485723
0.295596874805192,-0.518783269999706
0.298604650174517,-0.518289118016019
0.301603592023507,-0.517725196060507
0.304593609206288,-0.517091030659012
0.307574610576991,-0.516386148337381
0.310546504989741,-0.515610075621455
0.313509201298668,-0.514762339037081
0.316462608357899,-0.513842465110102
0.319406635021563,-0.512849980366362
0.322341190143787,-0.511784411331705
0.325266182578699,-0.510645284531976
0.328181521180427,-0.509432126493018
0.331087114803099,-0.508144463740676
0.333982872300844,-0.506781822800795
0.336868702527788,-0.505343730199218
0.339744514338061,-0.503829712461789
0.34261021658579,-0.502239296114352
0.345465718125103,-0.500572007682753
0.348310927810128,-0.498827373692834
0.351145754494993,-0.497004920670441
0.353970107033826,-0.495104175141417
0.356783894280755,-0.493124663631607
0.359587025089908,-0.491065912666854
0.362379408315413,-0.488927448773003
0.365160952811397,-0.486708798475898
0.36793156743199,-0.484409488301383
0.370691161031318,-0.482029044775303
0.373439642463511,-0.479566994423501
0.376176920582695,-0.477022863771822
0.378902904242999,-0.474396179346109
0.38161750229855,-0.471686467672208
0.384320623603477,-0.468893255275963
0.387012177011908,-0.466016068683216
0.389692071377971,-0.463054434419813
0.392360215555793,-0.460007879011599
0.395016518399503,-0.456875928984416
0.397660888763229,-0.453658110864109
0.400293235501098,-0.450353951176523
0.402913467467238,-0.446962976447501
0.405521493515778,-0.443484713202887
0.405521493515778,-0.443484713202887
0.408093613609464,-0.439988418124628
0.410606386465975,-0.43654347307965
0.413060109071843,-0.433149592371275
0.415455078413602,-0.429806490302822
0.417791591477781,-0.426513881177611
0.420069945250914,-0.423271479298963
0.422290436719531,-0.420078998970198
0.424453362870165,-0.416936154494636
0.426559020689346,-0.413842660175596
0.428607707163608,-0.4107982303164
0.430599719279481,-0.407802579220366
0.432535354023498,-0.404855421190816
0.43441490838219,-0.401956470531069
0.436238679342089,-0.399105441544446
0.438006963889726,-0.396302048534266
0.439720059011634,-0.39354600580385
0.441378261694343,-0.390837027656517
0.442981868924387,-0.388174828395588
0.444531177688295,-0.385559122324383
0.446026484972602,-0.382989623746223
0.447468087763837,-0.380466046964426
0.448856283048532,-0.377988106282314
0.450191367813221,-0.375555516003206
0.451473639044433,-0.373167990430422
0.452703393728702,-0.370825243867283
0.453880928852558,-0.368526990617109
0.455006541402533,-0.366272944983219
0.456080528365159,-0.364062821268935
0.457103186726969,-0.361896333777575
0.458074813474493,-0.35977319681246
0.458995705594263,-0.357693124676911
0.459866160072811,-0.355655831674247
0.46068647389667,-0.353661032107788
0.461456944052369,-0.351708440280855
0.462177867526442,-0.349797770496768
0.46284954130542,-0.347928737058846
0.463472262375835,-0.34610105427041
0.464046327724218,-0.34431443643478
0.464572034337101,-0.342568597855276
0.465049679201016,-0.340863252835218
0.465479559302495,-0.339198115677926
0.465861971628069,-0.337572900686721
0.466197213164271,-0.335987322164922
0.466485580897631,-0.33444109441585
0.466727371814682,-0.332933931742825
0.466922882901955,-0.331465548449166
0.467072411145982,-0.330035658838194
0.467176253533295,-0.328643977213229
0.467234707050426,-0.327290217877591
0.467248068683906,-0.3259740951346
0.467216635420266,-0.324695323287577
0.46714070424604,-0.323453616639841
0.467020572147758,-0.322248689494712
0.466856536111952,-0.321080256155512
0.466648893125155,-0.319948030925558
0.466397940173897,-0.318851728108173
0.46610397424471,-0.317791062006676
0.465767292324126,-0.316765746924386
0.465388191398677,-0.315775497164625
0.464966968454895,-0.314820027030712
0.464503920479312,-0.313899050825967
0.463999344458458,-0.313012282853711
0.463453537378866,-0.312159437417263
0.462866796227068,-0.311340228819944
0.462239417989595,-0.310554371365074
0.461571699652979,-0.309801579355972
0.460863938203752,-0.30908156709596
0.460116430628445,-0.308394048888356
0.45932947391359,-0.307738739036482
0.45850336504572,-0.307115351843657
0.457638401011365,-0.306523601613202
0.456734878797057,-0.305963202648436
0.455793095389329,-0.305433869252679
0.454813347774712,-0.304935315729252
0.453795932939737,-0.304467256381475
0.452741147870936,-0.304029405512668
0.451649289554842,-0.303621477426151
0.450520654977985,-0.303243186425244
0.449355541126898,-0.302894246813268
0.448154244988113,-0.302574372893541
0.44691706354816,-0.302283278969385
0.445644293793572,-0.30202067934412
0.444336232710881,-0.301786288321065
0.442993177286618,-0.301579820203541
0.441615424507314,-0.301400989294868
0.440203271359503,-0.301249509898366
0.438757014829715,-0.301125096317355
0.437276951904482,-0.301027462855155
0.435763379570336,-0.300956323815086
0.434216594813808,-0.300911393500469
0.432636894621431,-0.300892386214623
0.431024575979737,-0.300899016260869
0.429379935875256,-0.300930997942526
0.42770327129452,-0.300988045562915
0.425994879224062,-0.301069873425356
0.424255056650413,-0.30117619583317
0.422484100560104,-0.301306727089675
0.420682307939668,-0.301461181498192
0.418849975775637,-0.301639273362042
0.416987401054541,-0.301840716984544
0.415094880762913,-0.302065226669019
0.413172711887285,-0.302312516718787
0.411221191414187,-0.302582301437167
0.409240616330153,-0.30287429512748
0.407231283621713,-0.303188212093046
0.4051934902754,-0.303523766637184
0.403127533277745,-0.303880673063217
0.401033709615279,-0.304258645674462
0.398912316274536,-0.304657398774241
0.396763650242045,-0.305076646665873
0.39458800850434,-0.305516103652679
0.392385688047951,-0.305975484037978
0.390156985859411,-0.306454502125091
0.387902198925251,-0.306952872217339
0.385621624232003,-0.30747030861804
0.383315558766199,-0.308006525630515
0.38098429951437,-0.308561237558084
0.378628143463049,-0.309134158704068
0.376247387598766,-0.309725003371786
0.373842328908054,-0.310333485864559
0.371413264377445,-0.310959320485706
0.368960490993469,-0.311602221538548
0.36648430574266,-0.312261903326405
0.363985005611548,-0.312938080152597
0.361462887586665,-0.313630466320444
0.358918248654544,-0.314338776133266
0.356351385801715,-0.315062723894383
0.353762596014711,-0.315802023907116
0.351152176280063,-0.316556390474784
0.348520423584303,-0.317325537900707
0.345867634913963,-0.318109180488207
0.343194107255574,-0.318907032540602
0.340500137595668,-0.319718808361213
0.337786022920778,-0.32054422225336
0.335052060217434,-0.321382988520363
0.332298546472168,-0.322234821465542
0.329525778671513,-0.323099435392217
0.326734053801999,-0.323976544603709
0.323923668850159,-0.324865863403338
0.321094920802525,-0.325767106094423
0.318248106645628,-0.326679986980284
0.315383523365999,-0.327604220364243
0.312501467950171,-0.328539520549618
0.309602237384675,-0.329485601839731
0.306686128656043,-0.330442178537901
0.303753438750807,-0.331408964947448
0.300804464655498,-0.332385675371692
0.297839503356649,-0.333372024113954
0.294858851840791,-0.334367725477553
0.291862807094455,-0.33537249376581
0.288851666104174,-0.336386043282044
0.285825725856478,-0.337408088329577
0.282785283337901,-0.338438343211728
0.279730635534974,-0.339476522231816
0.276662079434227,-0.340522339693163
0.273579912022194,-0.341575509899088
0.270484430285406,-0.342635747152912
0.267375931210394,-0.343702765757953
0.26425471178369,-0.344776280017534
0.261121068991827,-0.345856004234973
0.257975299821335,-0.346941652713591
0.254817701258747,-0.348032939756708
0.251648570290594,-0.349129579667644
0.248468203903408,-0.35023128674972
0.24527689908372,-0.351337775306254
0.242074952818063,-0.352448759640568
0.238862662092969,-0.353563954055981
0.235640323894968,-0.354683072855814
0.232408235210593,-0.355805830343386
0.229166693026375,-0.356931940822018
0.225915994328846,-0.35806111859503
0.222656436104538,-0.359193077965742
0.219388315339983,-0.360327533237474
0.216111929021712,-0.361464198713546
0.212827574136256,-0.362602788697278
0.209535547670149,-0.363743017491991
0.206236146609922,-0.364884599401005
0.202929667942105,-0.366027248727639
0.199616408653232,-0.367170679775213
0.196296665729833,-0.368314606847049
0.19297073615844,-0.369458744246465
0.189638916925586,-0.370602806276782
0.186301505017802,-0.371746507241321
0.182958797421619,-0.3728895614434
0.17961109112357,-0.374031683186341
0.176258683110186,-0.375172586773464
0.172901870367999,-0.376311986508088
0.16954094988354,-0.377449596693533
0.166176218643342,-0.378585131633121
0.162807973633935,-0.37971830563017
0.159436511841853,-0.380848832988001
0.156062130253626,-0.381976428009934
0.152685125855786,-0.38310080499929
0.149305795634865,-0.384221678259387
0.145924436577395,-0.385338762093547
0.142541345669907,-0.38645177080509
0.139156819898934,-0.387560418697335
0.135771156251007,-0.388664420073602
0.132384651712657,-0.389763489237213
0.128997603270416,-0.390857340491486
0.125610307910817,-0.391945688139743
0.122223062620391,-0.393028246485302
0.118836164385669,-0.394104729831485
0.115449910193183,-0.395174852481611
0.112064597029466,-0.396238328739001
0.108680521881048,-0.397294872906974
0.105297981734462,-0.39834419928885
0.101917273576239,-0.399386022187951
0.098538694392911,-0.400420055907595
0.09516254117101,-0.401446014751103
0.0917891108970672,-0.402463613021795
0.0884187005576148,-0.403472565022991
0.0850516071391842,-0.404472585058012
0.0816881276283074,-0.405463387430177
0.0783285590115159,-0.406444686442807
0.0749731982753417,-0.40741619639922
0.0716223424063162,-0.408377631602739
0.0682762883909714,-0.409328706356683
0.0649353332158388,-0.410269134964371
0.0615997738674505,-0.411198631729124
0.0582699073323378,-0.412116910954263
0.0549460305970328,-0.413023686943106
0.051628440648067,-0.413918673998975
0.0483174344719723,-0.41480158642519
0.0450133090552802,-0.415672138525069
0.0417163613845227,-0.416530044601935
0.0384268884462313,-0.417375018959106
0.035145187226938,-0.418206775899903
0.0318715547131743,-0.419025029727646
0.0286062878914721,-0.419829494745655
0.0253496837483629,-0.42061988525725
0.0221020392703787,-0.421395915565752
0.018863651444051,-0.422157299974479
0.0156348172559118,-0.422903752786754
0.0124158336924925,-0.423634988305894
0.00920699774032525,-0.424350720835222
0.00600860638594136,-0.425050664678056
0.00282095661587294,-0.425734534137717
-0.000355654583348602,-0.426402043517525
-0.00352093022519127,-0.4270529071208
-0.00667457332312356,-0.427686839250862
-0.00981628689061351,-0.428303554211032
-0.0129457739411296,-0.428902766304629
-0.0160627374881399,-0.429484189834973
-0.0191668805451129,-0.430047539105386
-0.0222579061255166,-0.430592528419185
-0.0253355172428195,-0.431118872079693
-0.0283994169104897,-0.431626284390229
-0.0314493081419956,-0.432114479654112
-0.0344848939508052,-0.432583172174664
-0.0375058773503872,-0.433032076255204
-0.0405119613542096,-0.433460906199052
-0.0435028489757406,-0.433869376309529
-0.0464782432284486,-0.434257200889954
-0.0494378471258019,-0.434624094243648
-0.0523813636812686,-0.434969770673931
-0.0553084959083171,-0.435293944484123
-0.0582189468204156,-0.435596329977543
-0.0611124194310325,-0.435876641457513
-0.0639886167536358,-0.436134593227352
-0.0668472418016941,-0.43636989959038
-0.0696879975886753,-0.436582274849917
-0.072510587128048,-0.436771433309284
-0.0753147134332802,-0.436937089271801
-0.0781000795178404,-0.437078957040787
-0.0808663883951966,-0.437196750919563
-0.0836133430788174,-0.437290185211449
-0.0863406465821708,-0.437358974219765
-0.0890480019187252,-0.437402832247831
-0.0917351121019487,-0.437421473598968
-0.0944016801453098,-0.437414612576494
-0.0970474090622766,-0.437381963483731
-0.0996720018663175,-0.437323240623999
-0.1022751615709,-0.437238158300617
-0.104856591189494,-0.437126430816906
-0.107415993735567,-0.436987772476186
-0.109953072222586,-0.436821897581777
-0.112467529664021,-0.436628520436999
-0.11495906907334,-0.436407355345172
-0.11742739346401,-0.436158116609617
-0.1198722058495,-0.435880518533652
-0.122293209243279,-0.4355742754206
-0.124690106658815,-0.435239101573778
-0.127062601109575,-0.434874711296509
-0.129410395609029,-0.434480818892111
-0.131733193170644,-0.434057138663906
-0.134030696807889,-0.433603384915212
-0.136302609534232,-0.43311927194935
-0.138548634363141,-0.432604514069641
-0.140768474308085,-0.432058825579404
-0.142961832382532,-0.431481920781959
-0.145128411599949,-0.430873513980627
-0.147267914973806,-0.430233319478727
-0.149380045517571,-0.42956105157958
-0.151464506244711,-0.428856424586506
-0.153521000168695,-0.428119152802825
-0.155549230302992,-0.427348950531857
-0.15754889966107,-0.426545532076923
-0.159519711256397,-0.425708611741341
-0.16146136810244,-0.424837903828433
-0.163373573212669,-0.423933122641518
-0.165256029600552,-0.422993982483917
-0.167108440279557,-0.42202019765895
-0.168930508263152,-0.421011482469936
-0.170721936564806,-0.419967551220196
-0.172482428197986,-0.41888811821305
-0.174211686176162,-0.417772897751819
-0.1759094135128,-0.416621604139821
-0.177575313221371,-0.415433951680378
-0.179209088315341,-0.41420965467681
-0.180810441808179,-0.412948427432435
-0.182379076713354,-0.411649984250576
-0.183914696044333,-0.410314039434551
-0.185417002814586,-0.408940307287681
-0.186885700037579,-0.407528502113286
-0.188320490726782,-0.406078338214686
-0.189721077895663,-0.404589529895201
-0.191087164557689,-0.403061791458151
-0.19241845372633,-0.401494837206857
-0.193714648415053,-0.399888381444638
-0.194975451637328,-0.398242138474815
-0.196200566406621,-0.396555822600707
-0.197389695736401,-0.394829148125636
-0.198542542640137,-0.39306182935292
-0.199658810131297,-0.39125358058588
-0.200738201223349,-0.389404116127836
-0.201780418929761,-0.387513150282108
-0.202785166264002,-0.385580397352017
-0.20375214623954,-0.383605571640882
-0.204681061869843,-0.381588387452023
-0.20557161616838,-0.379528559088762
-0.206423512148618,-0.377425800854417
-0.207236452824026,-0.375279827052308
-0.208010141208073,-0.373090351985757
-0.208744280314225,-0.370857089958083
-0.209438573155953,-0.368579755272605
-0.210092722746724,-0.366258062232645
-0.210706432100006,-0.363891725141523
-0.211279404229267,-0.361480458302558
-0.211811342147977,-0.35902397601907
-0.212301948869602,-0.35652199259438
-0.212750927407612,-0.353974222331808
-0.213157980775474,-0.351380379534674
-0.213522811986657,-0.348740178506297
-0.21384512405463,-0.346053333549999
-0.21412461999286,-0.343319558969099
-0.214361002814815,-0.340538569066917
-0.214553975533965,-0.337710078146774
-0.214703241163777,-0.334833800511989
-0.214808502717719,-0.331909450465883
-0.21486946320926,-0.328936742311775
-0.214885825651868,-0.325915390352987
-0.214857293059011,-0.322845108892837
-0.214783568444158,-0.319725612234646
-0.214664354820777,-0.316556614681734
-0.214499355202335,-0.313337830537422
-0.214288272602302,-0.310068974105029
-0.214030810034146,-0.306749759687875
-0.213726670511334,-0.303379901589281
-0.213375557047336,-0.299959114112567
-0.212977172655619,-0.296487111561052
-0.212531220349652,-0.292963608238057
-0.212037403142903,-0.289388318446902
-0.21149542404884,-0.285760956490907
-0.210904986080931,-0.282081236673393
-0.210265792252645,-0.278348873297678
-0.20957754557745,-0.274563580667084
-0.208839949068815,-0.270725073084931
-0.208052705740206,-0.266833064854538
-0.207215518605094,-0.262887270279226
-0.206328090676946,-0.258887403662314
-0.20539012496923,-0.254833179307124
-0.204401324495415,-0.250724311516974
-0.203361392268968,-0.246560514595186
-0.202270031303359,-0.242341502845079
-0.201126944612055,-0.238066990569973
-0.199931835208525,-0.233736692073189
-0.198684406106237,-0.229350321658046
-0.197384360318659,-0.224907593627865
-0.196031400859259,-0.220408222285965
-0.194625230741506,-0.215851921935668
-0.193165552978868,-0.211238406880292
-0.191652070584813,-0.206567391423158
-0.19008448657281,-0.201838589867587
-0.188462503956327,-0.197051716516898
-0.186785825748832,-0.192206485674411
-0.185054154963793,-0.187302611643447
-0.183267194614678,-0.182339808727325
-0.181424647714957,-0.177317791229366
-0.179526217278096,-0.17223627345289
-0.177571606317565,-0.167094969701216
-0.175560517846832,-0.161893594277666
-0.173492654879364,-0.156631861485559
-0.171367720428631,-0.151309485628215
-0.1691854175081,-0.145926181008954
-0.16694544913124,-0.140481661931097
-0.164647518311519,-0.134975642697963
-0.162291328062405,-0.129407837612873
-0.159876581397366,-0.123777960979147
-0.159876581397366,-0.123777960979147
-0.15744848936401,-0.118147346720283
-0.155052337302683,-0.112577297650771
-0.152687939665965,-0.107067481410413
-0.150355110906436,-0.101617565639014
-0.148053665476675,-0.0962272179763765
-0.145783417829262,-0.0908961060623048
-0.143544182416776,-0.0856238975366023
-0.141335773691796,-0.0804102600390727
-0.139158006106903,-0.0752548612095197
-0.137010694114676,-0.0701573686877467
-0.134893652167694,-0.0651174501135574
-0.132806694718537,-0.0601347731267556
-0.130749636219785,-0.0552090053671448
-0.128722291124017,-0.0503398144745285
-0.126724473883812,-0.0455268680887105
-0.12475599895175,-0.0407698338494944
-0.122816680780411,-0.0360683793966838
-0.120906333822375,-0.0314221723700823
-0.11902477253022,-0.0268308804094936
-0.117171811356526,-0.0222941711547212
-0.115347264753873,-0.0178117122455689
-0.113550947174841,-0.0133831713218401
-0.111782673072008,-0.00900821602333868
-0.110042256897955,-0.00468651398986811
-0.108329513105261,-0.000417732861232069
-0.106644256146505,0.00379845972276586
-0.104986300474268,0.00796239612232206
-0.103355460541128,0.0120744086976328
-0.101751550799666,0.0161348298088946
-0.10017438570246,0.0201439918163037
-0.0986237797020902,0.0241022270800566
-0.0970995472511365,0.0280098679603495
-0.0956015028021781,0.0318672468173789
-0.0941294608077946,0.0356746960113412
-0.0926832357205656,0.0394325479024327
-0.0912626419930707,0.0431411348508499
-0.0898674940778892,0.046800789216789
-0.0884976064276008,0.0504118433604464
-0.0871527934947851,0.0539746296420186
-0.0858328697320215,0.0574894804217018
-0.0845376495918898,0.0609567280596926
-0.0832669475269691,0.0643767049161871
-0.0820205779898394,0.0677497433513819
-0.08079835543308,0.0710761757254733
-0.0796000943092705,0.0743563343986577
-0.0784256090709904,0.0775905517311314
-0.0772747141708192,0.0807791600830908
-0.0761472240613367,0.0839224918147323
-0.0750429531951222,0.0870208792862522
-0.0739617160247553,0.090074654857847
-0.0729033270028156,0.093084150889713
-0.0718676005818825,0.0960496997420465
-0.0708543512145358,0.0989716337750441
-0.0698633933533548,0.101850285348902
-0.0688945414509191,0.104685986823817
-0.0679476099598083,0.107479070559984
-0.067022413332602,0.110229868917601
-0.0661187660218796,0.112938714256864
-0.0652364824802207,0.115605938937969
-0.0643753771602049,0.118231875321113
-0.0635352645144116,0.120816855766492
-0.0627159589954206,0.123361212634302
-0.0619172750558111,0.125865278284739
-0.061139027148163,0.128329385078001
-0.0603810297250556,0.130753865374283
-0.0596430972390685,0.133139051533782
-0.0589250441427813,0.135485275916694
-0.0582266848887735,0.137792870883216
-0.0575478339296246,0.140062168793544
-0.0568883057179142,0.142293502007874
-0.0562479147062219,0.144487202886402
-0.0556264753471271,0.146643603789326
-0.0550238020932095,0.148763037076841
-0.0544397093970485,0.150845835109144
-0.0538740117112238,0.152892330246431
-0.0533265234883148,0.154902854848899
-0.0527970591809011,0.156877741276743
-0.0522854332415623,0.158817321890161
-0.0517914601228778,0.160721929049349
-0.0513149542774273,0.162591895114503
-0.0508557301577902,0.164427552445819
-0.0504136022165462,0.166229233403494
-0.0499883849062747,0.167997270347724
-0.0495798926795554,0.169731995638705
-0.0491879399889677,0.171433741636635
-0.0488123412870912,0.173102840701708
-0.0484529110265054,0.174739625194123
-0.0481094636597899,0.176344427474074
-0.0477818136395243,0.177917579901759
-0.047469775418288,0.179459414837374
-0.0471731634486606,0.180970264641115
-0.0468917921832217,0.182450461673178
-0.0466254760745508,0.18390033829376
-0.0463740295752274,0.185320226863058
-0.0461372671378311,0.186710459741267
-0.0459150032149415,0.188071369288584
-0.0457070522591381,0.189403287865206
-0.0455132287230003,0.190706547831328
-0.0453333470591079,0.191981481547148
-0.0451672217200402,0.193228421372861
-0.045014667158377,0.194447699668664
-0.0448754978266975,0.195639648794753
-0.0447495281775816,0.196804601111325
-0.0446365726636086,0.197942888978576
-0.0445364457373582,0.199054844756703
-0.0444489618514098,0.200140800805901
-0.0443739354583431,0.201201089486367
-0.0443111810107375,0.202236043158298
-0.0442605129611726,0.203245994181889
-0.044221745762228,0.204231274917338
-0.0441946938664832,0.205192217724841
-0.0441791717265177,0.206129154964593
-0.0441749937949111,0.207042418996792
-0.0441819745242429,0.207932342181634
-0.0441999283670927,0.208799256879315
-0.04422866977604,0.209643495450031
-0.0442680132036643,0.210465390253979
-0.0443177731025453,0.211265273651356
-0.0443777639252624,0.212043478002357
-0.0444478001243952,0.212800335667179
-0.0445276961525232,0.213536179006018
-0.044617266462226,0.214251340379071
-0.0447163255060832,0.214946152146535
-0.0448246877366742,0.215620946668604
-0.0449421676065786,0.216276056305477
-0.0450685795683759,0.216911813417349
-0.0452037380746458,0.217528550364417
-0.0453474575779677,0.218126599506876
-0.0454995525309212,0.218706293204924
-0.0456598373860858,0.219267963818757
-0.045828126596041,0.21981194370857
-0.0460042346133666,0.220338565234562
-0.0461879758906418,0.220848160756927
-0.0463791648804464,0.221341062635862
-0.0465776160353598,0.221817603231564
-0.0467831438079616,0.222278114904229
-0.0469955626508313,0.222722930014053
-0.0472146870165486,0.223152380921233
-0.0474403313576928,0.223566799985965
-0.0476723101268436,0.223966519568446
-0.0479104377765806,0.224351872028871
-0.0481545287594831,0.224723189727438
-0.0484043975281309,0.225080805024342
-0.0486598585351034,0.22542505027978
-0.0489207262329803,0.225756257853949
-0.0491868150743409,0.226074760107044
-0.0494579395117649,0.226380889399263
-0.0497339139978319,0.2266749780908
-0.0500145529851213,0.226957358541854
-0.0502996709262127,0.22722836311262
-0.0505890822736857,0.227488324163295
-0.0508826014801197,0.227737574054074
-0.0511800429980944,0.227976445145155
-0.0514812212801893,0.228205269796733
-0.0517859507789839,0.228424380369006
-0.0520940459470578,0.228634109222169
-0.0524053212369905,0.228834788716419
-0.0527195911013616,0.229026751211952
-0.0530366699927506,0.229210329068964
-0.053356372363737,0.229385854647653
-0.0536785126669004,0.229553660308214
-0.0540029053548203,0.229714078410844
-0.0543293648800763,0.229867441315738
-0.054657705695248,0.230014081383094
-0.0549877422529148,0.230154330973108
-0.0553192890056563,0.230288522445976
-0.055652160406052,0.230416988161895
-0.0559861709066816,0.230540060481061
-0.0563211349601245,0.23065807176367
-0.0566568670189603,0.230771354369918
-0.0569931815357685,0.230880240660003
-0.0573298929631288,0.23098506299412
-0.0576668157536205,0.231086153732466
-0.0580037643598233,0.231183845235238
-0.0583405532343166,0.23127846986263
-0.0586769968296802,0.231370359974841
-0.0590129095984934,0.231459847932066
-0.0593481059933359,0.231547266094502
-0.0596824004667871,0.231632946822344
-0.0600156074714267,0.23171722247579
-0.0603475414598341,0.231800425415036
-0.060678016884589,0.231882888000278
-0.0610068481982708,0.231964942591713
-0.0613338498534591,0.232046921549537
-0.0616588363027335,0.232129157233946
-0.0619816219986735,0.232211982005136
-0.0623020213938585,0.232295728223305
-0.0626198489408683,0.232380728248648
-0.0629349190922823,0.232467314441361
-0.06324704630068,0.232555819161642
-0.0635560450186411,0.232646574769687
-0.063861729698745,0.232739913625691
-0.0641639147935713,0.232836168089852
-0.0644624147556996,0.232935670522365
-0.0647570440377093,0.233038753283428
-0.0650476170921801,0.233145748733236
-0.0653339483716914,0.233256989231985
-0.0656158523288228,0.233372807139873
-0.0658931434161539,0.233493534817095
-0.0661656360862643,0.233619504623848
-0.0664331447917333,0.233751048920329
-0.0666954839851407,0.233888500066733
-0.0669524681190659,0.234032190423257
-0.0672039116460884,0.234182452350098
-0.0674496290187879,0.234339618207451
-0.0676894346897439,0.234504020355513
-0.0679231431115359,0.234675991154481
-0.0681505687367434,0.234855862964551
-0.068371526017946,0.235043968145919
-0.0685858294077233,0.235240639058782
-0.0687932933586548,0.235446208063336
-0.06899373232332,0.235661007519777
-0.0691869607542984,0.235885369788302
-0.0693727931041697,0.236119627229107
-0.0695510438255134,0.236364112202389
-0.0697215273709089,0.236619157068343
-0.0698840581929359,0.236885094187167
-0.0700384507441739,0.237162255919056
-0.0701845194772025,0.237450974624208
-0.0703220788446011,0.237751582662817
-0.0704509432989494,0.238064412395082
-0.0705709272928268,0.238389796181197
-0.0706818452788129,0.238728066381361
-0.0707835117094874,0.239079555355768
-0.0708757410374295,0.239444595464615
-0.0709583477152191,0.239823519068099
-0.0710311461954355,0.240216658526416
-0.0710939509306584,0.240624346199762
-0.0711465763734672,0.241046914448334
-0.0711888369764416,0.241484695632328
-0.0712205471921611,0.24193802211194
-0.0712415214732051,0.242407226247368
-0.0712515742721533,0.242892640398807
-0.0712505200415852,0.243394596926453
-0.0712381732340804,0.243913428190503
-0.0712143483022183,0.244449466551154
-0.0711788596985785,0.245003044368601
-0.0711315218757407,0.245574494003042
-0.0710721492862842,0.246164147814672
-0.0710005563827887,0.246772338163688
-0.0709165576178337,0.247399397410286
-0.0708199674439988,0.248045657914662
-0.0707106003138635,0.248711452037014
-0.0705882706800073,0.249397112137537
-0.0704527929950098,0.250102970576428
-0.0703039817114504,0.250829359713882
-0.0701416512819089,0.251576611910098
-0.0699656161589647,0.25234505952527
-0.0697756907951973,0.253135034919595
-0.0695716896431864,0.25394687045327
-0.0693534271555114,0.254780898486491
-0.0691207177847519,0.255637451379454
-0.0688733759834874,0.256516861492356
-0.0686112162042975,0.257419461185393
-0.0683340528997617,0.258345582818762
-0.0680417005224596,0.259295558752658
-0.0677339735249706,0.260269721347279
-0.0674106863598744,0.26126840296282
-0.0670716534797506,0.262291935959478
-0.0667166893371785,0.26334065269745
-0.0663456083847379,0.264414885536931
-0.0659582250750082,0.265514966838118
-0.0655543538605689,0.266641228961208
-0.0651338091939997,0.267794004266396
-0.06469640552788,0.26897362511388
-0.0642419573147895,0.270180423863855
-0.0637702790073075,0.271414732876518
-0.0632811850580138,0.272676884512066
-0.0627744899194878,0.273967211130694
-0.0622500080443091,0.275286045092599
-0.0617075538850572,0.276633718757978
-0.0611469418943117,0.278010564487027
-0.0605679865246521,0.279416914639942
-0.0599705022286579,0.280853101576919
-0.0593543034589088,0.282319457658155
-0.0587192046679842,0.283816315243847
-0.0580650203084636,0.28534400669419
-0.0573915648329267,0.286902864369381
-0.056698652693953,0.288493220629617
-0.055986098344122,0.290115407835094
-0.0552537162360133,0.291769758346007
-0.0545013208222064,0.293456604522555
-0.0537287265552808,0.295176278724932
-0.0529357478878161,0.296929113313335
-0.0521221992723918,0.298715440647962
-0.0512878951615876,0.300535593089007
-0.0504326500079828,0.302389902996668
-0.0495562782641572,0.30427870273114
-0.0486585943826901,0.306202324652621
-0.0477394128161612,0.308161101121306
-0.04679854801715,0.310155364497392
-0.0458358144382361,0.312185447141076
-0.0448510265319989,0.314251681412553
-0.0438439987510181,0.31635439967202
-0.0428145455478731,0.318493934279673
-0.0417624813751436,0.32067061759571
-0.040687620685409,0.322884781980325
-0.039589777931249,0.325136759793716
-0.038468767565243,0.327426883396079
-0.0373244040399707,0.32975548514761
-0.0361565018080114,0.332122897408506
-0.0349648753219448,0.334529452538963
-0.0337493390343504,0.336975482899177
-0.0325097073978079,0.339461320849345
-0.0312457948648966,0.341987298749664
-0.0299574158881963,0.344553748960328
-0.0286443849202863,0.347161003841536
-0.0273065164137462,0.349809395753483
-0.0259436248211557,0.352499257056365
-0.0245555245950942,0.35523092011038
-0.0231420301881412,0.358004717275723
-0.0217029560528765,0.360820980912591
-0.0202381166418793,0.36368004338118
-0.0187473264077294,0.366582237041686
-0.0172303998030062,0.369527894254307
-0.0156871512802894,0.372517347379237
-0.0141173952921583,0.375550928776674
-0.0125209462911928,0.378628970806814
-0.010897618729972,0.381751805829854
-0.00924722706107582,0.384919766205989
-0.00756958573708358,0.388133184295417
-0.00586450921057501,0.391392392458333
-0.00413181193412943,0.394697723054934
-0.00237130836032658,0.398049508445416
-0.000582812941745871,0.401448080989976
0.00123385986903304,0.40489377304881
0.00307889561943073,0.408386916982114
0.00495247985686753,0.411927845150085
0.00685479812876401,0.415516889912919
0.00878603598254053,0.419154383630812
0.0107463789656177,0.422840658663962
0.0127360126254157,0.426576047372563
0.0147551225093553,0.430360882116813
0.0168038941648567,0.434195495256909
0.0188825131393405,0.438080219153045
0.0209911649802271,0.44201538616542
0.0231300352349371,0.446001328654228
0.0252993094508906,0.450038378979667
0.0274991731755085,0.454126869501933
0.0297298119562109,0.458267132581222
0.0319914113404186,0.462459500577731
0.0342841568755517,0.466704305851655
0.0366082341090309,0.471001880763192
0.0389638285882764,0.475352557672538
0.041351125860709,0.479756668939889
0.0437703114737489,0.484214546925441
0.0462215709748167,0.488726523989391
0.0487050899113327,0.493292932491935
0.0512210538307175,0.497914104793271
0.0537696482803915,0.502590373253592
0.0563510588077752,0.507322070233098
0.0589654709602889,0.512109528091983
0.0616130702853534,0.516953079190444
0.0642940423303887,0.521853055888678
0.0670085726428157,0.52680979054688
0.0697568467700544,0.531823615525248
0.0725390502595257,0.536894863183977
0.0753553686586497,0.542023865883264
0.0782059875148471,0.547210955983306
0.0810910923755382,0.552456465844298
0.0840108687881437,0.557760727826437
0.0869655023000837,0.56312407428992
0.0899551784587789,0.568546837594943
0.0929800828116496,0.574029350101701
0.0960404009061165,0.579571944170393
0.0991363182895998,0.585174952161213
0.10226802050952,0.590838706434359
0.105435693113298,0.596563539350026
0.108639521648353,0.602349783268412
0.111879691662107,0.608197770549711
0.11515638870198,0.614107833554122
0.118469798315392,0.62008030464184
0.121820106049764,0.626115516173062
0.125207497452515,0.632213800507983
0.128632158071068,0.638375490006801
0.132094273452841,0.644600917029711
0.135594029145256,0.650890413936911
0.139131610695733,0.657244313088596
0.142707203651692,0.663662946844963
0.146320993560555,0.670146647566208
0.14997316596974,0.676695747612527
0.15366390642667,0.683310579344117
0.157393400478763,0.689991475121176
0.161161833673442,0.696738767303897
0.164969391558125,0.703552788252478
0.168816259680234,0.710433870327116
0.17270262358719,0.717382345888007
0.176628668826411,0.724398547295347
0.18059458094532,0.731482806909332
0.184600545491336,0.73863545709016
0.18864674801188,0.745856830198025
0.192733374054373,0.753147258593126
0.196860609166234,0.760507074635657
0.201028638894885,0.767936610685816
0.205237648787745,0.775436199103799
0.209487824392236,0.783006172249801
0.213779351255777,0.790646862484021
0.218112414925789,0.798358602166653
0.222487200949693,0.806141723657894
