0.2492402881618,-0.120848438448421
-0.929025270157588,0.775692629097755
0.589983132171715,0.277227429276663
-0.578961180227244,-0.391949023145565
-1.7479054926262,-1.06112547556779
0.0471761057502595,0.127955201293876
-0.524403842477947,0.51240989567935
-1.09598379070615,0.896864590064824
0.634404496107265,0.0415961554973026
-0.894212909158453,-0.189645362565276
