-0.116963327553383,0.140297173224686
-0.11532837991024,0.139636231946942
-0.113734657265003,0.138960074840834
-0.112181971702434,0.138268880415061
-0.110670135307293,0.137562827178322
-0.109198960164343,0.136842093639314
-0.107768258358343,0.136106858306737
-0.106377841974055,0.135357299689289
-0.10502752309624,0.134593596295667
-0.103717113809659,0.133815926634571
-0.102446426199072,0.1330244692147
-0.101215272349241,0.132219402544751
-0.100023464344926,0.131400905133423
-0.0988708142708893,0.130569155489414
-0.0977571342118911,0.129724332121423
-0.0966822362526924,0.128866613538149
-0.0956459324780544,0.127996178248289
-0.094648034972738,0.127113204760543
-0.093688355821504,0.126217871583608
-0.0927667071091135,0.125310357226184
-0.0918829009203277,0.124390840196968
-0.0910367493399072,0.12345949900466
-0.0902280644526132,0.122516512157957
-0.0894566583432067,0.121562058165558
-0.0887223430964486,0.120596315536161
-0.0880249307970999,0.119619462778465
-0.0873642335299216,0.118631678401169
-0.0867400633796746,0.117633140912971
-0.08615223243112,0.116624028822569
-0.0856005527690187,0.115604520638661
-0.0850848364781317,0.114574794869947
-0.08460489564322,0.113535030025124
-0.0841605423490446,0.112485404612892
-0.0837515886803664,0.111426097141948
-0.0833778467219464,0.110357286120991
-0.0830391285585457,0.10927915005872
-0.0827352462749251,0.108191867463832
-0.0824660119558458,0.107095616845027
-0.0822312376860685,0.105990576711003
-0.0820307355503544,0.104876925570458
-0.0818643176334644,0.103754841932091
-0.0817317960201596,0.1026245043046
-0.0816329827952007,0.101486091196683
-0.0815676900433489,0.10033978111704
-0.0815357298493652,0.0991857525743683
-0.0815369142980105,0.0980241840773667
-0.0815710554740458,0.0968552541347335
-0.081637965462232,0.0956791412551672
-0.0817374563473302,0.0944960239473664
-0.0818693402141014,0.0933060807200295
-0.0820334291473065,0.0921094900818548
-0.0822295352317064,0.0909064305415408
-0.0824574705520623,0.0896970806077862
-0.082717047193135,0.0884816187892891
-0.0830080772396855,0.0872602235947482
-0.0833303727764749,0.0860330735328618
-0.0836837458882641,0.0848003471123285
-0.0840680086598141,0.0835622228418468
-0.0844829731758858,0.0823188792301149
-0.0849284515212402,0.0810704947858314
-0.0854042557806384,0.0798172480176948
-0.0859101980388413,0.0785593174344035
-0.0864460903806099,0.077296881544656
-0.0870117448907051,0.0760301188571506
-0.087606973653888,0.074759207880586
-0.0882315887549196,0.0734843271236605
-0.0888854022785607,0.0722056550950726
-0.0895682263095724,0.0709233703035207
-0.0902798729327157,0.0696376512577033
-0.0910201542327515,0.0683486764663189
-0.0917888822944409,0.0670566244380659
-0.0925858692025447,0.0657616736816427
-0.0934109270418241,0.0644640027057479
-0.09426386789704,0.0631637900190799
-0.0951445038529533,0.061861214130337
-0.096052646994325,0.0605564535482179
-0.0969881094059161,0.0592496867814209
-0.0979507031724877,0.0579410923386445
-0.0989402403788006,0.0566308487285871
-0.0999565331096158,0.0553191344599473
-0.100999393449694,0.0540061280414234
-0.102068633483797,0.0526920079817139
-0.103164065296686,0.0513769527895173
-0.10428550097312,0.050061140973532
-0.105432752597862,0.0487447510424566
-0.106605632255672,0.0474279615049893
-0.107803952031311,0.0461109508698288
-0.10902752400954,0.0447938976456734
-0.110276160275121,0.0434769803412216
-0.111549672912814,0.0421603774651718
-0.11284787400738,0.0408442675262226
-0.11417057564358,0.0395288290330723
-0.115517589906175,0.0382142404944195
-0.116888728879926,0.0369006804189626
-0.118283804649594,0.0355883273153999
-0.119702629299941,0.0342773596924301
-0.121145014915726,0.0329679560587515
-0.122610773581711,0.0316602949230627
-0.124099717382658,0.0303545547940619
-0.125611658403326,0.0290509141804478
-0.127146408728477,0.0277495515909188
-0.128703780442872,0.0264506455341733
-0.130283585631273,0.0251543745189097
-0.131885636378439,0.0238609170538266
-0.133509744769131,0.0225704516476224
-0.135155722888112,0.0212831568089955
-0.136823382820142,0.0199992110466444
-0.138512536649981,0.0187187928692676
-0.140222996462391,0.0174420807855635
-0.141954574342133,0.0161692533042305
-0.143707082373968,0.0149004889339672
-0.145480332642656,0.013635966183472
-0.147274137232959,0.0123758635614433
-0.149088308229638,0.0111203595765795
-0.150922657717454,0.00986963273757923
-0.152776997781167,0.00862386155314081
-0.154651140505539,0.00738322453196278
-0.15654489797533,0.00614790018274356
-0.158458082275302,0.00491806701418157
-0.160390505490216,0.00369390353497531
-0.162341979704832,0.00247558825382324
-0.164312317003912,0.0012632996794238
-0.166301329472216,5.72163204754228e-05
-0.168308829194505,-0.00114248331432343
-0.170334628255542,-0.00233562071627425
-0.172378538740085,-0.00352201737667864
-0.174440372732897,-0.00470149478683812
-0.176519942318739,-0.00587387443805423
-0.178617059582371,-0.00703897782162853
-0.180731536608554,-0.00819662642886257
-0.18286318548205,-0.00934664175105786
-0.185011818287619,-0.010488845279516
-0.187177247110022,-0.0116230585055385
-0.189359284034021,-0.0127491029204269
-0.191557741144376,-0.0138668000154827
-0.193772430525848,-0.0149759712820076
-0.196003164263199,-0.016076438211303
-0.198249754441189,-0.0171680222946704
-0.200512013144578,-0.0182505450234115
-0.20278975245813,-0.0193238278888278
-0.205082784466603,-0.0203876923822208
-0.207390921254759,-0.0214419599948921
-0.20971397490736,-0.0224864522181432
-0.212051757509166,-0.0235209905432756
-0.214404081144937,-0.0245453964615909
-0.216770757899436,-0.0255594914643907
-0.219151599857423,-0.0265630970429765
-0.221546419103659,-0.0275560346886497
-0.223955027722905,-0.0285381258927121
-0.226377237799922,-0.0295091921464651
-0.228812861419471,-0.0304690549412103
-0.231261710666313,-0.0314175357682492
-0.233723597625209,-0.0323544561188833
-0.23619833438092,-0.0332796374844143
-0.238685733018206,-0.0341929013561436
-0.24118560562183,-0.0350940692253727
-0.243697764276551,-0.0359829625834033
-0.246222021067132,-0.0368594029215369
-0.248758188078332,-0.0377232117310751
-0.251306077394912,-0.0385742105033193
-0.253865501101635,-0.039412220729571
-0.256436271283261,-0.040237063901132
-0.25901820002455,-0.0410485615093037
-0.261611099410264,-0.0418465350453876
-0.264214781525163,-0.0426308060006853
-0.26682905845401,-0.0434011958664983
-0.269453742281564,-0.0441575261341283
-0.272088645092586,-0.0448996182948766
-0.274733578971839,-0.045627293840045
-0.277388356004081,-0.0463403742609348
-0.280052788274076,-0.0470386810488477
-0.282726687866583,-0.0477220356950852
-0.285409866866363,-0.0483902596909489
-0.288102137358179,-0.0490431745277403
-0.290803311426789,-0.0496806016967609
-0.293513201156956,-0.0503023626893123
-0.296231618633441,-0.050908278996696
-0.298958375941004,-0.0514981721102136
-0.301693285164406,-0.0520718635211666
-0.304436158388409,-0.0526291747208566
-0.307186807697774,-0.0531699272005851
-0.30994504517726,-0.0536939424516536
-0.31271068291163,-0.0542010419653638
-0.315483532985645,-0.054691047233017
-0.318263407484064,-0.055163779745915
-0.32105011849165,-0.0556190609953592
-0.323843478093164,-0.0560567124726512
-0.326643298373365,-0.0564765556690925
-0.329449391417016,-0.0568784120759847
-0.332261569308877,-0.0572621031846292
-0.335079644133709,-0.0576274504863278
-0.337903427976274,-0.0579742754723818
-0.340732732921331,-0.0583023996340929
-0.343567371053643,-0.0586116444627626
-0.34640715445797,-0.0589018314496924
-0.349251895219072,-0.0591727820861838
-0.352101405421713,-0.0594243178635386
-0.354955497150651,-0.0596562602730581
-0.357813982490648,-0.0598684308060438
-0.360676673526465,-0.0600606509537975
-0.363543382342863,-0.0602327422076205
-0.366413921024603,-0.0603845260588145
-0.369288101656446,-0.060515823998681
-0.372165736323153,-0.0606264575185216
-0.375046637109485,-0.0607162481096377
-0.377930616100203,-0.0607850172633309
-0.380817485380068,-0.0608325864709028
-0.383707057033841,-0.0608587772236549
-0.386599143146282,-0.0608634110128888
-0.389493555802154,-0.060846309329906
-0.392390107086216,-0.0608072936660081
-0.39528860908323,-0.0607461855124965
-0.398188873877957,-0.0606628063606729
-0.401090713555157,-0.0605569777018387
-0.403993940199592,-0.0604285210272956
-0.406898365896023,-0.0602772578283451
-0.409803802729211,-0.0601030095962887
-0.412710062783916,-0.0599055978224279
-0.4156169581449,-0.0596848439980644
-0.418524300896924,-0.0594405696144996
-0.421431903124748,-0.0591725961630351
-0.424339576913134,-0.0588807451349724
-0.427247134346843,-0.0585648380216131
-0.430154387510635,-0.0582246963142588
-0.433061148489271,-0.0578601415042109
-0.435967229367513,-0.0574709950827711
-0.438872442230122,-0.0570570785412408
-0.441776599161858,-0.0566182133709216
-0.444679512247482,-0.0561542210631151
-0.447580993571756,-0.0556649231091228
-0.450480855219441,-0.0551501410002463
-0.453378909275297,-0.054609696227787
-0.456274967824085,-0.0540434102830465
-0.459168842950566,-0.0534511046573265
-0.462060346739502,-0.0528326008419283
-0.464949291275654,-0.0521877203281536
-0.467835488643781,-0.051516284607304
-0.470718750928646,-0.0508181151706809
-0.473598890215009,-0.0500930335095859
-0.476475718587631,-0.0493408611153205
-0.479349048131274,-0.0485614194791863
-0.482218690930698,-0.0477545300924849
-0.485084459070664,-0.0469200144465178
-0.487946164635933,-0.0460576940325864
-0.490803619711266,-0.0451673903419924
-0.493656636381425,-0.0442489248660374
-0.49650502673117,-0.0433021190960228
-0.499348602845261,-0.0423267945232502
-0.502187176808461,-0.0413227726390212
-0.50502056070553,-0.0402898749346373
-0.507848566621229,-0.0392279229014
-0.510671006640319,-0.0381367380306109
-0.51348769284756,-0.0370161418135715
-0.516298437327715,-0.0358659557415834
-0.519103052165544,-0.0346860013059481
-0.521901349445808,-0.0334760999979671
-0.524693141253268,-0.0322360733089421
-0.527478239672684,-0.0309657427301745
-0.530256456788819,-0.029664929752966
-0.533027604686432,-0.0283334558686179
-0.535791495450285,-0.0269711425684319
-0.538547941165139,-0.0255778113437096
-0.541296753915755,-0.0241532836857525
-0.544037745786894,-0.022697381085862
-0.546770728863316,-0.0212099250353399
-0.549495515229783,-0.0196907370254875
-0.552211916971056,-0.0181396385476065
-0.554919746171896,-0.0165564510929984
-0.557618814917063,-0.0149409961529647
-0.560308935291319,-0.013293095218807
-0.562989919379424,-0.0116125697818269
-0.565661579266141,-0.00989924133332581
-0.568323727036228,-0.00815293136460538
-0.570976174774449,-0.00637346136696706
-0.573618734565563,-0.00456065283171252
-0.576251218494331,-0.00271432725014319
-0.578873438645516,-0.000834306113560709
-0.581485207103876,0.00107958908673352
-0.584086335954174,0.00302753685943776
-0.586676637281171,0.00500971571325062
-0.589255923169627,0.00702630415687045
-0.591824005704303,0.0090774806989958
-0.594380696969961,0.011163423848325
-0.596925809051361,0.0132843121135567
-0.599459154033265,0.0154403240033892
-0.601980544000433,0.0176316380265211
-0.604489791037626,0.0198584326916505
-0.606986707229606,0.0221208865074764
-0.609471104661133,0.0244191779826967
-0.611942795416968,0.0267534856260103
-0.614401591581873,0.0291239879461153
-0.616847305240608,0.0315308634517106
-0.619279748477934,0.0339742906514941
-0.621698733378612,0.0364544480541648
-0.624104072027403,0.0389715141684207
-0.626495576509069,0.0415256675029605
-0.62887305890837,0.0441170865664826
-0.631236331310066,0.0467459498676855
-0.63358520579892,0.0494124359152675
-0.635919494459692,0.0521167232179274
-0.638239009377143,0.0548589902843632
-0.640543562636035,0.0576394156232737
-0.642832966321127,0.0604581777433572
-0.645107032517181,0.0633154551533122
-0.647365573308958,0.0662114263618371
-0.649608400781219,0.0691462698776305
-0.651835327018725,0.0721201642093907
-0.654046164106237,0.0751332878658163
-0.656240724128516,0.0781858193556055
-0.658418819170323,0.0812779371874571
-0.660580261316419,0.0844098198700692
-0.662724862651564,0.0875816459121406
-0.664852435260521,0.0907935938223695
-0.666962791228049,0.0940458421094545
-0.66905574263891,0.0973385692820939
-0.671131101577865,0.100671953848986
-0.673188680129674,0.10404617431883
-0.6752282903791,0.107461409200324
-0.677249744410902,0.110917837002166
-0.679252854309841,0.114415636233055
-0.68123743216068,0.117954985401689
-0.683203290048178,0.121536063016766
-0.685150240057097,0.125159047586986
-0.687078094272197,0.128824117621047
-0.68898666477824,0.132531451627646
-0.690875763659986,0.136281228115483
-0.692745203002197,0.140073625593256
-0.694594794889634,0.143908822569664
-0.696424351407057,0.147786997553404
-0.698233684639228,0.151708329053176
-0.700022606670907,0.155672995577677
-0.701790929586856,0.159681175635607
-0.703538465471835,0.163733047735663
-0.705265026410605,0.167828790386544
-0.706970424487928,0.17196858209695
-0.708654471788564,0.176152601375577
-0.710316980397275,0.180381026731124
-0.711957762398821,0.184654036672291
-0.713576629877963,0.188971809707775
-0.715173394919463,0.193334524346275
-0.716747869608081,0.197742359096489
-0.718299866028578,0.202195492467116
-0.719829196265716,0.206694102966855
-0.721335672404254,0.211238369104403
-0.722819106528955,0.215828469388459
-0.72427931072458,0.220464582327722
-0.725716097075888,0.22514688643089
-0.727129277667641,0.229875560206661
-0.728518664584601,0.234650782163734
-0.729884069911528,0.239472730810808
-0.731225305733182,0.244341584656581
-0.732542184134326,0.249257522209751
-0.73383451719972,0.254220721979017
-0.735102117014125,0.259231362473077
-0.736344795662302,0.26428962220063
-0.737562365229012,0.269395679670374
-0.738754637799016,0.274549713391007
-0.739921425457075,0.279751901871229
-0.74106254028795,0.285002423619737
-0.742177794376402,0.290301457145231
-0.743266999807192,0.295649180956407
-0.74432996866508,0.301045773561966
-0.745366513034829,0.306491413470605
-0.746376445001198,0.311986279191023
-0.747359576648949,0.317530549231918
-0.748315720062843,0.323124402101988
-0.749244687327641,0.328768016309933
-0.750146290528104,0.334461570364451
-0.751020341748992,0.340205242774239
-0.751866653075067,0.345999212047997
-0.75268503659109,0.351843656694424
-0.753475304381821,0.357738755222216
-0.754237268532022,0.363684686140074
-0.754970741126454,0.369681627956695
-0.755675534249877,0.375729759180777
-0.756351459987053,0.38182925832102
-0.756998330422743,0.387980303886122
-0.757615957641707,0.394183074384781
-0.758204153728707,0.400437748325695
-0.758762730768503,0.406744504217564
-0.759291500845857,0.413103520569085
-0.759790276045529,0.419514975888957
-0.760258868452281,0.425979048685879
-0.760697090150873,0.432495917468549
-0.761104753226067,0.439065760745664
-0.761481669762623,0.445688757025925
-0.761827651845302,0.452365084818029
-0.762142511558866,0.459094922630675
-0.762426060988075,0.465878448972561
-0.762678112217691,0.472715842352386
-0.762898477332474,0.479607281278847
-0.763086968417185,0.486552944260645
-0.763243397556585,0.493553009806476
-0.763367576835436,0.50060765642504
-0.763459318338498,0.507717062625034
-0.763518434150532,0.514881406915159
-0.7635447363563,0.52210086780411
-0.763538037040561,0.529375623800589
-0.763498148288078,0.536705853413291
-0.763424882183611,0.544091735150918
-0.763424882183611,0.544091735150918
-0.76331406891496,0.551450718869859
-0.7631618202837,0.5587004528562
-0.76296837079525,0.565841413263181
-0.762733954955033,0.572874076244041
-0.76245880726847,0.579798917952018
-0.762143162240982,0.586616414540352
-0.761787254377989,0.593327042162281
-0.761391318184914,0.599931276971045
-0.760955588167176,0.606429595119882
-0.760480298830199,0.612822472762032
-0.759965684679401,0.619110386050734
-0.759411980220206,0.625293811139226
-0.758819419958033,0.631373224180748
-0.758188238398305,0.637349101328539
-0.757518670046442,0.643221918735837
-0.756810949407865,0.648992152555882
-0.756065310987996,0.654660278941913
-0.755281989292256,0.660226774047168
-0.754461218826065,0.665692114024888
-0.753603234094846,0.67105677502831
-0.752708269604019,0.676321233210674
-0.751776559859005,0.681485964725218
-0.750808339365226,0.686551445725183
-0.749803842628103,0.691518152363806
-0.748763304153056,0.696386560794328
-0.747686958445508,0.701157147169986
-0.746575040010879,0.70583038764402
-0.74542778335459,0.710406758369669
-0.744245422982064,0.714886735500172
-0.743028193398719,0.719270795188768
-0.741776329109978,0.723559413588696
-0.740490064621263,0.727753066853195
-0.739169634437994,0.731852231135504
-0.737815273065593,0.735857382588862
-0.73642721500948,0.739768997366508
-0.735005694775076,0.743587551621681
-0.733550946867804,0.74731352150762
-0.732063205793084,0.750947383177565
-0.730542706056336,0.754489612784753
-0.728989682162984,0.757940686482425
-0.727404368618447,0.761301080423818
-0.725786999928147,0.764571270762173
-0.724137810597504,0.767751733650728
-0.722457035131941,0.770842945242723
-0.720744908036878,0.773845381691395
-0.719001663817736,0.776759519149985
-0.717227536979937,0.779585833771731
-0.715422762028902,0.782324801709872
-0.713587573470051,0.784976899117648
-0.711722205808807,0.787542602148297
-0.709826893550589,0.790022386955058
-0.707901871200821,0.79241672969117
-0.705947373264922,0.794726106509874
-0.703963634248313,0.796950993564406
-0.701950888656417,0.799091867008007
-0.699909370994653,0.801149202993915
-0.697839315768444,0.80312347767537
-0.69574095748321,0.805015167205609
-0.693614530644373,0.806824747737874
-0.691460269757354,0.808552695425402
-0.689278409327573,0.810199486421433
-0.687069183860452,0.811765596879205
-0.684832827861413,0.813251502951957
-0.682569575835876,0.814657680792929
-0.680279662289263,0.81598460655536
-0.677963321726994,0.817232756392488
-0.675620788654491,0.818402606457553
-0.673252297577176,0.819494632903794
-0.670858083000468,0.820509311884449
-0.66843837942979,0.821447119552758
-0.665993421370563,0.822308532061959
-0.663523443328207,0.823094025565293
-0.661028679808145,0.823804076215997
-0.658509365315796,0.824439160167311
-0.655965734356582,0.824999753572473
-0.653398021435925,0.825486332584723
-0.650806461059245,0.8258993733573
-0.648191287731964,0.826239352043443
-0.645552735959503,0.826506744796391
-0.642891040247283,0.826702027769382
-0.640206435100726,0.826825677115657
-0.637499155025251,0.826878168988453
-0.634769434526281,0.82685997954101
-0.632017508109238,0.826771584926567
-0.62924361027954,0.826613461298363
-0.626447975542611,0.826386084809637
-0.623630838403871,0.826089931613628
-0.620792433368742,0.825725477863575
-0.617932994942644,0.825293199712717
-0.615052757630999,0.824793573314292
-0.612151955939227,0.824227074821541
-0.609230824372751,0.823594180387702
-0.606289597436991,0.822895366166014
-0.603328509637368,0.822131108309716
-0.600347795479304,0.821301882972047
-0.59734768946822,0.820408166306247
-0.594328426109536,0.819450434465553
-0.591290239908674,0.818429163603206
-0.588233365371056,0.817344829872444
-0.585158037002102,0.816197909426505
-0.582064489307234,0.814988878418631
-0.578952956791872,0.813718213002058
-0.575823673961438,0.812386389330027
-0.572676875321354,0.810993883555776
-0.569512795377039,0.809541171832544
-0.566331668633916,0.80802873031357
-0.563133729597405,0.806457035152094
-0.559919212772928,0.804826562501354
-0.556688352665906,0.80313778851459
-0.55344138378176,0.80139118934504
-0.550178540625911,0.799587241145943
-0.546900057703781,0.797726420070539
-0.54360616952079,0.795809202272066
-0.54029711058236,0.793836063903763
-0.536973115393911,0.79180748111887
-0.533634418460866,0.789723930070625
-0.530281254288645,0.787585886912268
-0.52691385738267,0.785393827797038
-0.52353246224836,0.783148228878172
-0.520137303391139,0.780849566308912
-0.516728615316426,0.778498316242495
-0.513306632529644,0.77609495483216
-0.509871589536212,0.773639958231147
-0.506423720841553,0.771133802592695
-0.502963260951088,0.768576964070043
-0.499490444370237,0.765969918816429
-0.496005505604422,0.763313142985092
-0.492508679159064,0.760607112729273
-0.489000199539584,0.757852304202209
-0.485480301251404,0.75504919355714
-0.481949218799944,0.752198256947304
-0.478407186690626,0.749299970525942
-0.474854439428871,0.746354810446291
-0.471291211520099,0.743363252861591
-0.467717737469733,0.74032577392508
-0.464134251783194,0.737242849789999
-0.460540988965902,0.734114956609585
-0.456938183523278,0.730942570537078
-0.453326069960744,0.727726167725717
-0.449704882783722,0.724466224328741
-0.446074856497631,0.721163216499389
-0.442436225607894,0.7178176203909
-0.438789224619931,0.714429912156513
-0.435134088039165,0.711000567949466
-0.431471050371015,0.707530063923
-0.427800346120903,0.704018876230353
-0.42412220979425,0.700467481024763
-0.420436875896477,0.696876354459471
-0.416744578933006,0.693245972687715
-0.413045553409258,0.689576811862734
-0.409340033830654,0.685869348137766
-0.405628254702614,0.682124057666052
-0.401910450530561,0.678341416600831
-0.398186855819915,0.67452190109534
-0.394457705076098,0.670665987302819
-0.39072323280453,0.666774151376508
-0.386983673510633,0.662846869469645
-0.383239261699828,0.658884617735468
-0.379490231877537,0.654887872327219
-0.37573681854918,0.650857109398134
-0.371979256220178,0.646792805101454
-0.368217779395953,0.642695435590417
-0.364452622581925,0.638565477018262
-0.360684020283517,0.634403405538229
-0.356912207006149,0.630209697303556
-0.353137417255242,0.625984828467482
-0.349359885536218,0.621729275183246
-0.345579846354497,0.617443513604088
-0.341797534215502,0.613128019883247
-0.338013183624652,0.608783270173961
-0.334227029087369,0.604409740629469
-0.330439305109075,0.60000790740301
-0.32665024619519,0.595578246647825
-0.322860086851136,0.59112123451715
-0.319069061582334,0.586637347164226
-0.315277404894205,0.582127060742292
-0.31148535129217,0.577590851404586
-0.30769313528165,0.573029195304348
-0.303900991368066,0.568442568594816
-0.300109154056841,0.56383144742923
-0.296317857853394,0.559196307960829
-0.292527337263147,0.554537626342851
-0.288737826791522,0.549855878728536
-0.284949560943938,0.545151541271122
-0.281162774225819,0.54042509012385
-0.277377701142584,0.535677001439956
-0.273594576199654,0.530907751372682
-0.269813633902452,0.526117816075265
-0.266035108756398,0.521307671700945
-0.262259235266913,0.516477794402961
-0.258486247939419,0.511628660334551
-0.254716381279336,0.506760745648956
-0.250949869792086,0.501874526499413
-0.247186947983091,0.496970479039162
-0.24342785035777,0.492049079421442
-0.239672811421546,0.487110803799492
-0.235922065679839,0.482156128326551
-0.23217584763807,0.477185529155857
-0.228434391801662,0.47219948244065
-0.224697932676035,0.46719846433417
-0.220966704766609,0.462182950989654
-0.217240942578807,0.457153418560343
-0.21352088061805,0.452110343199474
-0.209806753389758,0.447054201060288
-0.206098795399353,0.441985468296022
-0.202397241152256,0.436904621059916
-0.198702325153888,0.43181213550521
-0.195014281909671,0.426708487785141
-0.191333345925025,0.42159415405295
-0.187659751705371,0.416469610461875
-0.183993733756132,0.411335333165155
-0.180335526582727,0.406191798316029
-0.176685364690579,0.401039482067736
-0.173043482585108,0.395878860573516
-0.169410114771735,0.390710409986606
-0.165785495755882,0.385534606460247
-0.162169860042969,0.380351926147677
-0.158563442138419,0.375162845202136
-0.154966476547652,0.369967839776861
-0.151379197776089,0.364767386025093
-0.147801840329152,0.35956196010007
-0.144234638712261,0.354352038155032
-0.140677827430838,0.349138096343217
-0.137131640990305,0.343920610817864
-0.133596313896081,0.338700057732213
-0.130072080653588,0.333476913239502
-0.126559175768248,0.32825165349297
-0.123057833745482,0.323024754645857
-0.11956828909071,0.317796692851402
-0.116090776309355,0.312567944262843
-0.112625529906836,0.307338985033419
-0.109172784388576,0.30211029131637
-0.105732774259995,0.296882339264934
-0.102305734026515,0.291655605032351
-0.0988918981935571,0.286430564771859
-0.0954915012665419,0.281207694636698
-0.0921047777508906,0.275987470780107
-0.0887319621520249,0.270770369355324
-0.0853732889753654,0.265556866515589
-0.0820289927263337,0.26034743841414
-0.0786993079103507,0.255142561204217
-0.0753844690328377,0.249942711039059
-0.0720847105992158,0.244748364071905
-0.0688002671149062,0.239559996455993
-0.06553137308533,0.234378084344563
-0.0622782630159086,0.229203103890854
-0.0590411714120628,0.224035531248104
-0.0558203327792142,0.218875842569553
-0.0526159816227835,0.21372451400844
-0.0494283524481922,0.208582021718004
-0.0462576797608613,0.203448841851484
-0.0431041980662121,0.198325450562118
-0.0399681418696655,0.193212324003147
-0.0368497456766431,0.188109938327808
-0.0337492439925656,0.183018769689341
-0.0306668713228546,0.177939294240985
-0.0276028621729309,0.172871988135979
-0.0245574510482159,0.167817327527562
-0.0215308724541306,0.162775788568973
-0.0185233608960964,0.157747847413452
-0.0155351508795341,0.152733980214235
-0.0125664769098653,0.147734663124564
-0.00961757349251079,0.142750372297677
-0.00668867513289199,0.137781583886814
-0.00378001633642989,0.132828774045212
-0.000891831608545876,0.127892418926111
0.00197564454533918,0.12297299468275
0.00482217761980383,0.118070977468369
0.00764753310942716,0.113186843436206
0.0104514765087877,0.1083210687395
0.0132337733124647,0.10347412953149
0.0159941890150365,0.098646501965415
0.0187324891110824,0.0938386621945144
0.0214484390951809,0.0890510863720272
0.0241418044619111,0.0842842506511921
0.0268123507058515,0.0795386311852485
0.0294598433215812,0.0748147041274348
0.032084047803679,0.0701129456309908
0.0346847296467237,0.0654338318491549
0.037261654345294,0.0607778389351665
0.039814587393969,0.0561454430422643
0.0423432942873273,0.0515371203236876
0.044847540519948,0.0469533469326751
0.0473270915864095,0.0423945990224663
0.0497817129812911,0.0378613527462997
0.0522111701991714,0.0333540842574147
0.0546152287346292,0.02887326970905
0.0569936540822434,0.024419385254445
0.0593462117365929,0.0199929070468382
0.0616726671922564,0.0155943112394692
0.0639727859438129,0.0112240739855766
0.066246333485841,0.0068826714383997
0.0684930753129198,0.00257057975117714
0.0707127769196278,-0.00171172492285161
0.0729052038005443,-0.00596376643044792
0.0750701214502477,-0.0101850686183725
0.0772072953633171,-0.0143751553333866
0.0793164910343311,-0.0185335504222508
0.0813974739578688,-0.0226597777317266
0.0834500096285088,-0.0267533611085744
0.0854738635408301,-0.0308138243995558
0.0874688011894114,-0.0348406914514312
0.0894345880688318,-0.038833486110962
0.0913709896736697,-0.042791732224909
0.0932777714985044,-0.0467149536400333
0.0951546990379143,-0.0506026742030956
0.0970015377864786,-0.0544544177608573
0.0988180532387759,-0.058269708160079
0.100604010889385,-0.0620480692475221
0.102359176232885,-0.065789024869947
0.104083314763855,-0.0694920988741153
0.105776191976873,-0.0731568151067875
0.107437573366518,-0.0767826974147249
0.109067224427369,-0.0803692696446882
0.110664910654005,-0.0839160556434388
0.112230397541005,-0.0874225792577372
0.113763450582948,-0.0908883643343448
0.115263835274412,-0.0943129347200222
0.116731317109976,-0.0976958142615307
0.118165661584219,-0.101036526805631
0.11956663419172,-0.104334596199084
0.120934000427058,-0.107589546288652
0.122267525784812,-0.110800900921094
0.12356697575956,-0.113968183943172
0.124832115845881,-0.117090919201647
0.126062711538354,-0.12016863054328
0.127258528331559,-0.123200841814831
0.128419331720073,-0.126187076863063
0.129544887198475,-0.129126859534735
0.130634960261345,-0.132019713676609
0.131689316403261,-0.134865163135446
0.132707721118803,-0.137662731758006
0.133689939902548,-0.140411943391052
0.134635738249076,-0.143112321881343
0.135544881652966,-0.14576339107564
0.136417135608796,-0.148364674820706
0.137252265611145,-0.1509156969633
0.138050037154592,-0.153415981350183
0.138810215733717,-0.155865051828118
0.139532566843097,-0.158262432243863
0.140216855977311,-0.160607646444182
0.14086284863094,-0.162900218275834
0.14147031029856,-0.16513967158558
0.142039006474751,-0.167325530220183
0.142568702654093,-0.169457318026401
0.143059164331163,-0.171534558850997
0.143510157000541,-0.173556776540732
0.143921446156805,-0.175523494942366
0.144292797294534,-0.177434237902661
0.144623975908308,-0.179288529268377
0.144914747492704,-0.181085892886275
0.145164877542303,-0.182825852603117
0.145374131551682,-0.184507932265663
0.14554227501542,-0.186131655720674
0.145669073428096,-0.187696546814912
0.14575429228429,-0.189202129395138
0.14579769707858,-0.190647927308111
0.145799053305544,-0.192033464400594
0.145758126459762,-0.193358264519347
0.145674682035813,-0.194621851511131
0.145548485528274,-0.195823749222708
0.145379302431726,-0.196963481500838
0.145166898240747,-0.198040572192282
0.144911038449915,-0.199054545143801
0.144611488553811,-0.200004924202156
0.144268014047011,-0.200891233214109
0.143880380424096,-0.201712996026419
0.143448353179644,-0.202469736485849
0.142971697808234,-0.203160978439159
0.142450179804445,-0.20378624573311
0.141883564662855,-0.204345062214463
0.141271617878044,-0.204836951729979
0.14061410494459,-0.205261438126419
0.139910791357072,-0.205618045250544
0.139161442610069,-0.205906296949115
0.13836582419816,-0.206125717068893
0.137523701615924,-0.206275829456639
0.136634840357939,-0.206356157959114
0.135699005918784,-0.206366226423079
0.134715963793038,-0.206305558695294
0.133685479475281,-0.206173678622522
0.13260731846009,-0.205970110051523
0.131481246242044,-0.205694376829057
0.130307028315724,-0.205346002801886
0.129084430175706,-0.204924511816771
0.127813217316571,-0.204429427720473
0.126493155232896,-0.203860274359753
0.125124009419262,-0.203216575581371
0.123705545370245,-0.202497855232089
0.122237528580427,-0.201703637158668
0.120719724544385,-0.200833445207869
0.119151898756698,-0.199886803226452
0.117533816711944,-0.198863235061179
0.115865243904704,-0.19776226455881
0.114145945829555,-0.196583415566108
0.112375687981077,-0.195326211929832
0.110554235853848,-0.193990177496743
0.108681354942447,-0.192574836113603
0.106756810741453,-0.191079711627173
0.106756810741453,-0.191079711627173
0.10479897582197,-0.189532692843423
0.102826490158358,-0.187962097958165
0.10083952035008,-0.186368094902922
0.0988382329965969,-0.184750851609217
0.0968227946973725,-0.183110536008574
0.0947933720518688,-0.181447316032514
0.0927501316595483,-0.179761359612561
0.0906932401198735,-0.178052834680238
0.0886228640323067,-0.176321909167068
0.0865391699963105,-0.174568751004574
0.0844423246113473,-0.172793528124278
0.0823324944768796,-0.170996408457703
0.0802098461923698,-0.169177559936373
0.0780745463572803,-0.167337150491811
0.0759267615710736,-0.165475348055539
0.0737666584332122,-0.16359232055908
0.0715944035431586,-0.161688235933957
0.069410163500375,-0.159763262111694
0.0672141049043241,-0.157817567023812
0.0650063943544683,-0.155851318601836
0.0627871984502701,-0.153864684777287
0.0605566837911918,-0.151857833481689
0.0583150169766959,-0.149830932646565
0.0560623646062449,-0.147784150203438
0.0537988932793013,-0.145717654083831
0.0515247695953274,-0.143631612219266
0.0492401601537858,-0.141526192541266
0.0469452315541389,-0.139401562981355
0.0446401503958491,-0.137257891471056
0.042325083278379,-0.135095345941891
0.0400001968011908,-0.132914094325383
0.0376656575637472,-0.130714304553055
0.0353216321655106,-0.12849614455643
0.0329682872059434,-0.126259782267031
0.030605789284508,-0.124005385616382
0.028234305000667,-0.121733122536004
0.0258540009538827,-0.119443160957421
0.0234650437436176,-0.117135668812156
0.0210675999693342,-0.114810814031731
0.018661836230495,-0.11246876454767
0.0162479191265623,-0.110109688291496
0.0138260152569986,-0.107733753194731
0.0113962912212664,-0.105341127188899
0.00895891361882821,-0.102931978205522
0.00651404904914638,-0.100506474176123
0.00406186411168336,-0.0980647830322253
0.00160252540590165,-0.0956070727053519
-0.000863800468736298,-0.0931335111270257
-0.00333694691276805,-0.0906442662287695
-0.00581674732673117,-0.0881395059421062
-0.00830303511116318,-0.0856193981985587
-0.0107956436666016,-0.0830841109296502
-0.0132944063935841,-0.0805338120669033
-0.015799156692648,-0.0779686695418411
-0.0183097279643311,-0.0753888512859865
-0.0208259536091708,-0.0727945252308625
-0.0233476670277047,-0.070185859307992
-0.0258747016204703,-0.0675630214488978
-0.0284068907880051,-0.064926179585103
-0.0309440679308468,-0.0622755016481304
-0.0334860664495329,-0.0596111555695031
-0.0360327197446009,-0.0569333092807439
-0.0385838612165883,-0.0542421307133757
-0.0411393242660328,-0.0515377877989216
-0.0436989422934718,-0.0488204484689043
-0.046262548699443,-0.046090280654847
-0.0488299768844838,-0.0433474522882724
-0.0514010602491317,-0.0405921313007035
-0.0539756321939245,-0.0378244856236633
-0.0565535261193995,-0.0350446831886747
-0.0591345754260944,-0.0322528919272606
-0.0617186135145466,-0.029449279770944
-0.0643054737852939,-0.0266340146512477
-0.0668949896388736,-0.0238072644996948
-0.0694869944758233,-0.020969197247808
-0.0720813216966806,-0.0181199808271105
-0.0746778047019831,-0.0152597831691251
-0.0772762768922682,-0.0123887722053747
-0.0798765716680735,-0.00950711586738229
-0.0824785224299366,-0.00661498208667077
-0.085081962578395,-0.00371253879476312
-0.0876867255139864,-0.000799953923182189
-0.0902926446372481,0.00212260459654902
-0.0928995533487177,0.00505496883290759
-0.0955072850489329,0.00799697085437056
-0.0981156731384312,0.0109484427294151
-0.10072455101775,0.0139092165265182
-0.103333752087427,0.0168791243141569
-0.105943109748,0.0198579981608084
-0.108552457400006,0.0228456701349496
-0.111161628443982,0.0258419723050577
-0.113770456280467,0.0288467367396096
-0.116378774309998,0.0318597955070826
-0.118986415933113,0.0348809806759536
-0.121593214550348,0.0379101243146997
-0.124199003562242,0.0409470584917981
-0.126803616369332,0.0439916152757256
-0.129406886372156,0.0470436267349596
-0.13200864697125,0.0501029249379769
-0.134608731567154,0.0531693419532546
-0.137206973560404,0.0562427098492699
-0.139803206351537,0.0593228606944998
-0.142397263341092,0.0624096265574213
-0.144988977929606,0.0655028395065116
-0.147578183517616,0.0686023316102477
-0.150164713505661,0.0717079349371066
-0.152748401294277,0.0748194815555655
-0.155329080284002,0.0779368035341014
-0.157906583875373,0.0810597329411914
-0.160480745468929,0.0841881018453125
-0.163051398465207,0.0873217423149418
-0.165618376264744,0.0904604864185564
-0.168181512268077,0.0936041662246334
-0.170740639875745,0.0967526138016497
-0.173295592488285,0.0999056612180826
-0.175846203506235,0.103063140542409
-0.178392306330131,0.106224883843106
-0.180933734360512,0.109390723188651
-0.183470320997916,0.11256049064752
-0.186001899642878,0.115734018288192
-0.188528303695939,0.118911138179142
-0.191049366557633,0.122091682388848
-0.193564921628501,0.125275482985787
-0.196074802309078,0.128462372038436
-0.198578841999902,0.131652181615273
-0.201076874101511,0.134844743784773
-0.203568732014443,0.138039890615415
-0.206054249139235,0.141237454175676
-0.208533258876425,0.144437266534032
-0.211005594626549,0.14763915975896
-0.213471089790147,0.150842965918938
-0.215929577767754,0.154048517082442
-0.21838089195991,0.15725564531795
-0.220824865767151,0.160464182693939
-0.223261332590014,0.163673961278886
-0.225690125829038,0.166884813141268
-0.22811107888476,0.170096570349562
-0.230524025157718,0.173309064972245
-0.232928798048448,0.176522129077794
-0.23532523095749,0.179735594734686
-0.237713157285379,0.182949294011398
-0.240092410432654,0.186163058976408
-0.242462823799853,0.189376721698192
-0.244824230787512,0.192590114245227
-0.247176464796169,0.195803068685992
-0.249519359226363,0.199015417088961
-0.25185274747863,0.202226991522614
-0.254176462953507,0.205437624055426
-0.256490339051534,0.208647146755874
-0.258794209173246,0.211855391692437
-0.261087906719183,0.215062190933591
-0.26337126508988,0.218267376547813
-0.265644117685876,0.22147078060358
-0.267906297907708,0.224672235169368
-0.270157639155915,0.227871572313657
-0.272397974831032,0.231068624104921
-0.274627138333599,0.234263222611639
-0.276844963064152,0.237455199902287
-0.279051282423229,0.240644388045343
-0.281245929811367,0.243830619109283
-0.283428738629105,0.247013725162585
-0.285599542276979,0.250193538273725
-0.287758174155528,0.253369890511182
-0.289904467665288,0.256542613943431
-0.292038256206798,0.25971154063895
-0.294159373180594,0.262876502666216
-0.296267651987215,0.266037332093706
-0.298362926027198,0.269193860989897
-0.30044502870108,0.272345921423266
-0.302513793409399,0.275493345462291
-0.304569053552693,0.278635965175447
-0.306610642531499,0.281773612631214
-0.308638393746355,0.284906119898066
-0.310652140597798,0.288033319044483
-0.312651716486366,0.291155042138939
-0.314636954812596,0.294271121249914
-0.316607688977026,0.297381388445883
-0.318563752380193,0.300485675795324
-0.320504978422636,0.303583815366713
-0.322431200504891,0.306675639228529
-0.324342252027496,0.309760979449248
-0.326237966390988,0.312839668097346
-0.328118176995906,0.315911537241302
-0.329982717242786,0.318976418949592
-0.331831420532167,0.322034145290693
-0.333664120264585,0.325084548333083
-0.335480649840579,0.328127460145238
-0.337280842660686,0.331162712795635
-0.339064532125443,0.334190138352752
-0.340831551635388,0.337209568885066
-0.342581734591059,0.340220836461053
-0.344314914392993,0.343223773149191
-0.346030924441727,0.346218211017957
-0.3477295981378,0.349203982135827
-0.349410768881748,0.35218091857128
-0.35107427007411,0.355148852392792
-0.352719935115422,0.358107615668839
-0.354347597406223,0.3610570404679
-0.355957090347049,0.363996958858451
-0.35754824733844,0.36692720290897
-0.359120901780931,0.369847604687932
-0.36067488707506,0.372757996263816
-0.362210036621366,0.375658209705099
-0.363726183820386,0.378548077080257
-0.365223162072657,0.381427430457768
-0.366700804778716,0.384296101906108
-0.368158945339102,0.387153923493756
-0.369597417154351,0.390000727289187
-0.371016053625002,0.392836345360879
-0.372414688151592,0.395660609777308
-0.373793154134659,0.398473352606953
-0.375151284974739,0.40127440591829
-0.376488914072371,0.404063601779797
-0.377805874828092,0.406840772259949
-0.37910200064244,0.409605749427225
-0.380377124915952,0.412358365350101
-0.381631081049166,0.415098452097055
-0.382863702442619,0.417825841736563
-0.384074822496849,0.420540366337102
-0.385264274612394,0.423241857967151
-0.38643189218979,0.425930148695185
-0.387577508629576,0.428605070589681
-0.388700957332289,0.431266455719118
-0.389802071698466,0.433914136151972
-0.390880685128646,0.436547943956719
-0.391936631023365,0.439167711201838
-0.392969742783162,0.441773269955805
-0.393979853808574,0.444364452287097
-0.394966797500137,0.446941090264191
-0.395930407258391,0.449503015955564
-0.396870516483872,0.452050061429694
-0.397786958577118,0.454582058755058
-0.398679566938667,0.457098840000132
-0.399548174969056,0.459600237233393
-0.400392616068822,0.462086082523319
-0.401212723638504,0.464556207938387
-0.402008331078638,0.467010445547074
-0.402779271789762,0.469448627417857
-0.403525379172414,0.471870585619212
-0.404246486627132,0.474276152219618
-0.404942427554453,0.47666515928755
-0.405613035354914,0.479037438891487
-0.406258143429053,0.481392823099905
-0.406877585177407,0.483731143981282
-0.407471194000515,0.486052233604093
-0.408038803298914,0.488355924036817
-0.40858024647314,0.490642047347931
-0.409095356923732,0.492910435605911
-0.409583968051228,0.495160920879235
-0.410045913256164,0.497393335236379
-0.410481025939079,0.499607510745821
-0.41088913950051,0.501803279476038
-0.411270087340994,0.503980473495507
-0.411623702861069,0.506138924872705
-0.411949819461273,0.508278465676109
-0.412248270542143,0.510398927974196
-0.412518889504217,0.512500143835444
-0.412761509748031,0.514581945328328
-0.412975964674125,0.516644164521327
-0.413162087683035,0.518686633482917
-0.413319712175299,0.520709184281576
-0.413448671551454,0.522711648985779
-0.413548799212038,0.524693859664006
-0.413619928557589,0.526655648384733
-0.413661892988643,0.528596847216436
-0.41367452590574,0.530517288227592
-0.413657660709415,0.53241680348668
-0.413611130800207,0.534295225062176
-0.413534769578654,0.536152385022556
-0.413428410445292,0.537988115436299
-0.413291886800659,0.539802248371881
-0.413125032045294,0.541594615897779
-0.412927679579732,0.54336505008247
-0.412699662804513,0.545113382994431
-0.412440815120173,0.54683944670214
-0.412150969927251,0.548543073274074
-0.411829960626283,0.550224094778709
-0.411477620617807,0.551882343284522
-0.411093783302361,0.553517650859992
-0.410678282080482,0.555129849573594
-0.410230950352708,0.556718771493806
-0.409751621519576,0.558284248689104
-0.409240128981624,0.559826113227967
-0.40869630613939,0.56134419717887
-0.40811998639341,0.562838332610292
-0.407511003144224,0.564308351590709
-0.406869189792367,0.565754086188598
-0.406194379738378,0.567175368472436
-0.405486406382794,0.568572030510701
-0.404745103126153,0.569943904371869
-0.403970303368992,0.571290822124418
-0.403161840511849,0.572612615836824
-0.402319547955261,0.573909117577565
-0.401443259099766,0.575180159415117
-0.400532807345902,0.576425573417959
-0.399588026094206,0.577645191654566
-0.398608748745215,0.578838846193416
-0.397594808699468,0.580006369102986
-0.396546039357501,0.581147592451753
-0.395462274119852,0.582262348308194
-0.394343346387059,0.583350468740786
-0.393189089559659,0.584411785818007
-0.39199933703819,0.585446131608333
-0.39077392222319,0.586453338180241
-0.389512678515196,0.587433237602208
-0.388215439314745,0.588385661942713
-0.386882038022375,0.58931044327023
-0.385512308038623,0.590207413653239
-0.384106082764028,0.591076405160215
-0.382663195599127,0.591917249859636
-0.381183479944457,0.592729779819979
-0.379666769200555,0.59351382710972
-0.37811289676796,0.594269223797338
-0.376521696047209,0.594995801951309
-0.374893000438839,0.59569339364011
-0.373226643343388,0.596361830932218
-0.371522458161394,0.59700094589611
-0.369780278293393,0.597610570600264
-0.367999937139924,0.598190537113156
-0.366181268101525,0.598740677503263
-0.364324104578732,0.599260823839063
-0.362428279972084,0.599750808189033
-0.360493627682117,0.600210462621649
-0.358519981109369,0.60063961920539
-0.356507173654379,0.60103811000873
-0.354455038717683,0.601405767100149
-0.352363409699819,0.601742422548123
-0.350232120001324,0.602047908421129
-0.348061003022737,0.602322056787644
-0.345849892164594,0.602564699716145
-0.343598620827433,0.602775669275109
-0.341307022411792,0.602954797533013
-0.338974930318208,0.603101916558335
-0.33660217794722,0.603216858419551
-0.334188598699363,0.603299455185139
-0.331734025975177,0.603349538923575
-0.329238293175197,0.603366941703337
-0.326701233699964,0.603351495592902
-0.324122680950012,0.603303032660746
-0.321502468325881,0.603221384975348
-0.318840429228107,0.603106384605183
-0.316136397057228,0.602957863618729
-0.313390205213782,0.602775654084463
-0.310601687098307,0.602559588070863
-0.307770676111339,0.602309497646404
-0.304897005653417,0.602025214879565
-0.301980509125078,0.601706571838822
-0.299021019926859,0.601353400592652
-0.296018371459298,0.600965533209533
-0.292972397122933,0.600542801757941
-0.289882930318301,0.600085038306354
-0.28674980444594,0.599592074923249
-0.283572852906386,0.599063743677102
-0.280351909100179,0.598499876636391
-0.277086806427855,0.597900305869593
-0.273777378289952,0.597264863445185
-0.270423458087007,0.596593381431644
-0.267024879219558,0.595885691897447
-0.263581475088143,0.595141626911071
-0.260093079093298,0.594361018540993
-0.256559524635563,0.593543698855691
-0.252980645115473,0.59268949992364
-0.249356273933567,0.59179825381332
-0.245686244490383,0.590869792593205
-0.241970390186457,0.589903948331775
-0.238208544422328,0.588900553097505
-0.234400540598532,0.587859438958872
-0.230546212115608,0.586780437984354
-0.226645392374093,0.585663382242429
-0.222697914774524,0.584508103801572
-0.21870361271744,0.58331443473026
-0.214662319603377,0.582082207096972
-0.210573868832873,0.580811252970184
-0.206438093806466,0.579501404418374
-0.202254827924693,0.578152493510017
-0.198023904588092,0.576764352313592
-0.193745157197201,0.575336812897575
-0.189418419152556,0.573869707330443
-0.185043523854696,0.572362867680674
-0.180620304704158,0.570816126016745
-0.176148595101479,0.569229314407132
-0.171628228447198,0.567602264920313
-0.167059038141851,0.565934809624764
-0.162440857585976,0.564226780588964
-0.157773520180111,0.562478009881388
-0.153056859324794,0.560688329570515
-0.148290708420561,0.55885757172482
-0.143474900867951,0.556985568412782
-0.1386092700675,0.555072151702876
-0.133693649419747,0.553117153663581
-0.128727872325229,0.551120406363373
-0.123711772184484,0.54908174187073
-0.118645182398048,0.547000992254128
-0.113527936366461,0.544877989582045
-0.108359867490258,0.542712565922957
-0.103140809169979,0.540504553345342
-0.0978705948061593,0.538253783917676
-0.092549057799338,0.535960089708438
-0.0871760315500518,0.533623302786103
