-0.622884443542725,0.931149858966705
-0.622249580938106,0.921919068345833
-0.621634922776467,0.912722114494681
-0.621040303874974,0.903559018089558
-0.620465559050794,0.894429799806771
-0.619910523121092,0.885334480322628
-0.619375030903035,0.876273080313436
-0.618858917213791,0.867245620455504
-0.618362016870525,0.858252121425141
-0.617884164690403,0.849292603898652
-0.617425195490592,0.840367088552347
-0.61698494408826,0.831475596062532
-0.616563245300572,0.822618147105517
-0.616159933944694,0.813794762357609
-0.615774844837794,0.805005462495114
-0.615407812797037,0.796250268194343
-0.615058672639591,0.787529200131602
-0.614727259182621,0.778842278983199
-0.614413407243295,0.770189525425442
-0.614116951638778,0.761570960134639
-0.613837727186237,0.752986603787097
-0.613575568702839,0.744436477059126
-0.61333031100575,0.735920600627031
-0.613101788912137,0.727438995167122
-0.612889837239166,0.718991681355706
-0.612694290804004,0.71057867986909
-0.612514984423816,0.702200011383584
-0.61235175291577,0.693855696575494
-0.612204431097032,0.685545756121129
-0.612072853784769,0.677270210696796
-0.611956855796147,0.669029080978803
-0.611856271948331,0.660822387643458
-0.611770937058491,0.652650151367069
-0.611700685943791,0.644512392825943
-0.611645353421397,0.636409132696389
-0.611604774308477,0.628340391654715
-0.611578783422197,0.620306190377228
-0.611567215579724,0.612306549540236
-0.611569905598223,0.604341489820046
-0.611586688294862,0.596411031892968
-0.611617398486807,0.588515196435308
-0.611661870991224,0.580654004123374
-0.61171994062528,0.572827475633475
-0.611791442206142,0.565035631641918
-0.611876210550975,0.557278492825011
-0.611974080476947,0.549556079859062
-0.612084886801223,0.541868413420378
-0.612208464340971,0.534215514185268
-0.612344647913356,0.52659740283004
-0.612493272335546,0.519014100031
-0.612654172424707,0.511465626464458
-0.612827182998004,0.503952002806721
-0.613012138872606,0.496473249734096
-0.613208874865678,0.489029387922892
-0.613417225794387,0.481620438049416
-0.613637026475899,0.474246420789977
-0.61386811172738,0.466907356820882
-0.614110316365998,0.459603266818438
-0.614363475208918,0.452334171458955
-0.614627423073308,0.445100091418739
-0.614901994776333,0.437901047374099
-0.61518702513516,0.430737060001342
-0.615482348966956,0.423608149976777
-0.615787801088887,0.41651433797671
-0.61610321631812,0.40945564467745
-0.616428429471821,0.402432090755305
-0.616763275367156,0.395443696886583
-0.617107588821292,0.388490483747591
-0.617461204651397,0.381572472014637
-0.617823957674634,0.37468968236403
-0.618195682708173,0.367842135472076
-0.618576214569178,0.361029852015084
-0.618965388074818,0.354252852669362
-0.619363038042257,0.347511158111218
-0.619768999288662,0.340804789016958
-0.6201831066312,0.334133766062892
-0.620605194887039,0.327498109925327
-0.621035098873342,0.320897841280571
-0.621472653407279,0.314332980804932
-0.621917693306014,0.307803549174717
-0.622370053386714,0.301309567066235
-0.622829568466547,0.294851055155793
-0.623296073362678,0.288428034119698
-0.623769402892273,0.28204052463426
-0.624249391872501,0.275688547375786
-0.624735875120526,0.269372123020584
-0.625228687453515,0.263091272244961
-0.625727663688635,0.256846015725225
-0.626232638643052,0.250636374137684
-0.626743447133933,0.244462368158647
-0.627259923978445,0.23832401846442
-0.627781903993753,0.232221345731312
-0.628309221997024,0.226154370635631
-0.628841712805425,0.220123113853684
-0.629379211236123,0.214127596061779
-0.629921552106283,0.208167837936224
-0.630468570233072,0.202243860153328
-0.631020100433657,0.196355683389397
-0.631575977525204,0.19050332832074
-0.63213603632488,0.184686815623664
-0.632700111649851,0.178906165974478
-0.633268038317284,0.173161400049489
-0.633839651144344,0.167452538525004
-0.634414784948199,0.161779602077333
-0.634993274546016,0.156142611382782
-0.63557495475496,0.15054158711766
-0.636159660392198,0.144976549958275
-0.636747226274896,0.139447520580933
-0.637337487220222,0.133954519661944
-0.637930278045342,0.128497567877615
-0.638525433567421,0.123076685904253
-0.639122788603626,0.117691894418167
-0.639722177971125,0.112343214095665
-0.640323436487084,0.107030665613054
-0.640926398968668,0.101754269646641
-0.641530900233044,0.0965140468727365
-0.64213677509738,0.0913100179676464
-0.642743858378841,0.0861422036076791
-0.643351984894594,0.0810106244691422
-0.643960989461805,0.0759153012283436
-0.644570706897642,0.0708562545615914
-0.645180972019269,0.0658335051451933
-0.645791619643855,0.0608470736554571
-0.646402484588565,0.0558969807686906
-0.647013401670565,0.0509832471612018
-0.647624205707024,0.0461058935092985
-0.648234731515105,0.0412649404892884
-0.648844813911977,0.0364604087774795
-0.649454287714807,0.0316923190501797
-0.650062987740759,0.0269606919836967
-0.650670748807001,0.0222655482543383
-0.651277405730699,0.0176069085384124
-0.65188279332902,0.0129847935122271
-0.652486746419131,0.00839922385208994
-0.653089099818197,0.00385022023430878
-0.653689688343385,-0.000662196664808462
-0.654288346811862,-0.00513800616895382
-0.654884910040794,-0.00957718760181961
-0.655479212847348,-0.013979720287098
-0.656071090048689,-0.0183455835484811
-0.656660376461986,-0.0226747567096609
-0.657246906904404,-0.0269672190943298
-0.657830516193109,-0.0312229500261799
-0.658411039145268,-0.0354419288289034
-0.658988310578049,-0.0396241348261922
-0.659562165308616,-0.0437695473417387
-0.660132438154136,-0.0478781456992349
-0.660698963931777,-0.0519499092223732
-0.661261577458704,-0.0559848172348455
-0.661820113552085,-0.059982849060344
-0.662374407029084,-0.063943984022561
-0.66292429270687,-0.0678682014451884
-0.663469605402609,-0.0717554806519186
-0.664010179933466,-0.0756058009664437
-0.664545851116609,-0.0794191417124557
-0.665076453769203,-0.083195482213647
-0.665601822708417,-0.0869348017937096
-0.666121792751415,-0.0906370797763356
-0.666636198715364,-0.0943022954852173
-0.667144875417432,-0.0979304282440469
-0.667647657674784,-0.101521457376516
-0.668144380304587,-0.105075362206318
-0.668634878124006,-0.108592122057144
-0.66911898595021,-0.112071716252686
-0.669596538600365,-0.115514124116636
-0.670067370891636,-0.118919324972688
-0.67053131764119,-0.122287298144532
-0.670988213666194,-0.125618022955862
-0.671437893783815,-0.128911478730368
-0.671880192811218,-0.132167644791744
-0.672314945565571,-0.135386500463681
-0.672741986864039,-0.138568025069873
-0.67316115152379,-0.141712197934009
-0.673572274361989,-0.144818998379784
-0.673975190195804,-0.147888405730889
-0.6743697338424,-0.150920399311016
-0.674755740118944,-0.153914958443858
-0.675133043842604,-0.156872062453106
-0.675501479830544,-0.159791690662453
-0.675860882899932,-0.16267382239559
-0.676211087867934,-0.165518436976211
-0.676551929551716,-0.168325513728007
-0.676883242768446,-0.17109503197467
-0.677204862335289,-0.173826971039893
-0.677516623069413,-0.176521310247368
-0.677818359787983,-0.179178028920786
-0.678109907308166,-0.18179710638384
-0.678391100447129,-0.184378521960223
-0.678661774022038,-0.186922254973625
-0.678921762850059,-0.18942828474774
-0.67917090174836,-0.19189659060626
-0.679409025534105,-0.194327151872876
-0.679635969024463,-0.196719947871282
-0.679851567036599,-0.199074957925168
-0.680055654387681,-0.201392161358228
-0.680248065894873,-0.203671537494152
-0.680428636375344,-0.205913065656635
-0.680597200646259,-0.208116725169367
-0.680753593524785,-0.210282495356041
-0.680897649828088,-0.212410355540349
-0.681029204373335,-0.214500285045983
-0.681148091977693,-0.216552263196635
-0.681254147458328,-0.218566269315998
-0.681347205632405,-0.220542282727763
-0.681427101317093,-0.222480282755623
-0.681493669329557,-0.22438024872327
-0.681546744486964,-0.226242159954396
-0.68158616160648,-0.228065995772693
-0.681611755505272,-0.229851735501854
-0.681623361000506,-0.23159935846557
-0.68162081290935,-0.233308843987533
-0.681603946048968,-0.234980171391437
-0.681572595236528,-0.236613320000973
-0.681526595289196,-0.238208269139832
-0.681465781024139,-0.239764998131708
-0.681389987258523,-0.241283486300293
-0.681299048809515,-0.242763712969278
-0.681192800494281,-0.244205657462356
-0.681071077129987,-0.245609299103218
-0.680933713533801,-0.246974617215558
-0.680780544522888,-0.248301591123067
-0.680611404914416,-0.249590200149438
-0.68042612952555,-0.250840423618362
-0.680224553173458,-0.252052240853531
-0.680006510675304,-0.253225631178639
-0.679771836848257,-0.254360573917376
-0.679520366509483,-0.255457048393436
-0.679251934476148,-0.25651503393051
-0.678966375565418,-0.25753450985229
-0.67866352459446,-0.258515455482469
-0.67834321638044,-0.259457850144739
-0.678005285740526,-0.260361673162791
-0.677649567491883,-0.261226903860319
-0.677275896451678,-0.262053521561014
-0.676884107437078,-0.262841505588568
-0.676474035265248,-0.263590835266674
-0.676045514753356,-0.264301489919024
-0.675598380718568,-0.264973448869309
-0.67513246797805,-0.265606691441222
-0.67464761134897,-0.266201196958456
-0.674143645648492,-0.266756944744702
-0.673620405693785,-0.267273914123652
-0.673077726302014,-0.267752084418999
-0.672515442290345,-0.268191434954435
-0.671933388475946,-0.268591945053652
-0.671331399675983,-0.268953594040341
-0.670709310707622,-0.269276361238196
-0.67006695638803,-0.269560225970909
-0.669404171534373,-0.269805167562171
-0.668720790963818,-0.270011165335674
-0.668016649493532,-0.270178198615112
-0.66729158194068,-0.270306246724176
-0.666545423122429,-0.270395288986557
-0.665778007855946,-0.270445304725949
-0.664989170958397,-0.270456273266044
-0.664178747246949,-0.270428173930533
-0.663346571538768,-0.270360986043109
-0.662492478651021,-0.270254688927464
-0.661616303400874,-0.27010926190729
-0.660717880605493,-0.269924684306279
-0.659797045082046,-0.269700935448123
-0.658853631647698,-0.269437994656516
-0.657887475119617,-0.269135841255148
-0.656898410314968,-0.268794454567711
-0.655886272050918,-0.268413813917899
-0.654850895144633,-0.267993898629403
-0.653792114413281,-0.267534688025915
-0.652709764674027,-0.267036161431128
-0.651603680744039,-0.266498298168733
-0.650473697440482,-0.265921077562424
-0.649319649580522,-0.265304478935891
-0.648141371981328,-0.264648481612827
-0.646938699460064,-0.263953064916924
-0.645711466833898,-0.263218208171875
-0.644459508919996,-0.262443890701372
-0.643182660535524,-0.261630091829106
-0.641880756497649,-0.26077679087877
-0.640553631623538,-0.259883967174056
-0.639201120730356,-0.258951600038657
-0.637823058635271,-0.257979668796263
-0.636419280155449,-0.256968152770569
-0.634989620108056,-0.255917031285264
-0.633533913310259,-0.254826283664043
-0.632051994579224,-0.253695889230596
-0.630543698732118,-0.252525827308617
-0.629008860586108,-0.251316077221797
-0.627447314958359,-0.250066618293829
-0.625858896666039,-0.248777429848404
-0.624243440526313,-0.247448491209214
-0.622600781356349,-0.246079781699953
-0.620930753973312,-0.244671280644311
-0.61923319319437,-0.243222967365982
-0.617507933836688,-0.241734821188657
-0.615754810717434,-0.240206821436029
-0.613973658653773,-0.238638947431789
-0.612164312462873,-0.237031178499631
-0.610326606961899,-0.235383493963245
-0.608460376968018,-0.233695873146324
-0.606565457298397,-0.231968295372561
-0.604641682770203,-0.230200739965646
-0.6026888882006,-0.228393186249274
-0.600706908406757,-0.226545613547135
-0.59869557820584,-0.224658001182923
-0.596654732415014,-0.222730328480328
-0.594584205851448,-0.220762574763043
-0.592483833332306,-0.218754719354761
-0.590353449674756,-0.216706741579173
-0.588192889695964,-0.214618620759972
-0.586001988213096,-0.21249033622085
-0.58378058004332,-0.210321867285499
-0.581528500003801,-0.208113193277611
-0.579245582911705,-0.205864293520878
-0.576931663584201,-0.203575147338993
-0.574586576838453,-0.201245734055647
-0.572210157491629,-0.198876032994533
-0.569802240360895,-0.196466023479343
-0.567362660263417,-0.194015684833769
-0.564891252016362,-0.191524996381503
-0.562387850436897,-0.188993937446238
-0.559852290342187,-0.186422487351665
-0.5572844065494,-0.183810625421477
-0.554684033875702,-0.181158330979365
-0.552051007138259,-0.178465583349023
-0.549385161154238,-0.175732361854142
-0.546686330740805,-0.172958645818414
-0.543954350715127,-0.170144414565531
-0.54118905589437,-0.167289647419186
-0.538390281095702,-0.164394323703071
-0.535557861136287,-0.161458422740878
-0.532691630833293,-0.158481923856299
-0.529791425003887,-0.155464806373026
-0.526857078465234,-0.152407049614751
-0.523888426034501,-0.149308632905167
-0.520885302528855,-0.146169535567966
-0.517847542765463,-0.14298973692684
-0.51477498156149,-0.13976921630548
-0.511667453734103,-0.13650795302758
-0.508524794100469,-0.133205926416831
-0.505346837477754,-0.129863115796925
-0.502133418683124,-0.126479500491555
-0.498884372533747,-0.123055059824413
-0.495599533846789,-0.119589773119191
-0.492278737439415,-0.116083619699581
-0.488921818128793,-0.112536578889275
-0.48552861073209,-0.108948630011966
-0.48209895006647,-0.105319752391345
-0.478632670949102,-0.101649925351104
-0.475129608197151,-0.0979391282149368
-0.471589596627785,-0.0941873403065345
-0.468012471058169,-0.0903945409495892
-0.46439806630547,-0.0865607094677934
-0.460746217186854,-0.0826858251848389
-0.457056758519489,-0.0787698674244181
-0.453329525120539,-0.074812815510223
-0.449564351807173,-0.070814648765946
-0.445761073396556,-0.0667753465152788
-0.441919524705856,-0.0626948880819142
-0.438039540552237,-0.0585732527895437
-0.434120955752868,-0.05441041996186
-0.430163605124913,-0.0502063689225548
-0.426167323485541,-0.0459610789953207
-0.422131945651917,-0.0416745295038494
-0.418057306441208,-0.0373466997718334
-0.413943240670581,-0.0329775691229646
-0.409789583157201,-0.0285671168809355
-0.405596168718235,-0.0241153223694378
-0.401362832170851,-0.0196221649121641
-0.397089408332213,-0.0150876238328061
-0.392775732019489,-0.0105116784550565
-0.388421638049846,-0.00589430810260685
-0.384026961240449,-0.0012354920991499
-0.379591536408466,0.00346479023162272
-0.375115198371062,0.00820655956601844
-0.370597781945405,0.0129898365803455
-0.36603912194866,0.0178146419509113
-0.361439053197994,0.0226809963540241
-0.356797410510575,0.0275889204659914
-0.352114028703567,0.0325384349631213
-0.347388742594138,0.0375295605217215
-0.342621386999454,0.0425623178181
-0.337811796736681,0.0476367275285644
-0.332959806622987,0.0527528103294229
-0.328065251475538,0.0579105868969829
-0.323127966111499,0.0631100779075527
-0.318147785348038,0.0683513040374397
-0.313124544002321,0.0736342859629522
-0.308058076891515,0.0789590443603976
-0.302948218832786,0.0843255999060842
-0.2977948046433,0.0897339732763193
-0.292597669140224,0.0951841851474114
-0.287356647140725,0.100676256195668
-0.282071573461969,0.106210207097397
-0.276742282921122,0.111786058528905
-0.271368610335351,0.117403831166502
-0.265950390521823,0.123063545686495
-0.260487458297703,0.128765222765192
-0.254979648480159,0.1345088830789
-0.249426795886357,0.140294547303928
-0.243828735333464,0.146122236116582
-0.238185301638645,0.151991970193172
-0.238185301638645,0.151991970193172
-0.232528165591187,0.157832228169618
-0.226889122635701,0.163571845419753
-0.221268194572339,0.16921137772676
-0.215665403201255,0.174751380873821
-0.210080770322601,0.180192410644115
-0.20451431773653,0.185535022820825
-0.198966067243196,0.190779773187131
-0.193436040642751,0.195927217526214
-0.187924259735348,0.200977911621256
-0.18243074632114,0.205932411255438
-0.17695552220028,0.210791272211941
-0.171498609172921,0.215555050273947
-0.166060029039216,0.220224301224635
-0.160639803599318,0.224799580847188
-0.155237954653379,0.229281444924787
-0.149854504001553,0.233670449240612
-0.144489473443993,0.237967149577846
-0.139142884780851,0.242172101719668
-0.13381475981228,0.246285861449261
-0.128505120338434,0.250308984549805
-0.123213988159466,0.254242026804482
-0.117941385075527,0.258085543996472
-0.112687332886772,0.261840091908958
-0.107451853393353,0.265506226325119
-0.102234968395423,0.269084503028138
-0.0970366996931355,0.272575477801195
-0.0918570690866425,0.275979706427471
-0.0866960983760974,0.279297744690148
-0.0815538093616532,0.282530148372407
-0.0764302238434627,0.285677473257429
-0.0713253636216788,0.288740275128395
-0.0662392504964547,0.291719109768487
-0.0611719062679431,0.294614532960885
-0.0561233527362969,0.29742710048877
-0.0510936117016692,0.300157368135324
-0.0460827049642129,0.302805891683729
-0.0410906543240809,0.305373226917164
-0.0361174815814261,0.307859929618811
-0.0311632085364014,0.310266555571852
-0.0262278569891599,0.312593660559468
-0.0213114487398545,0.314841800364839
-0.016414005588638,0.317011530771147
-0.0115355493356634,0.319103407561573
-0.00667610178108373,0.321117986519298
-0.0018356847250518,0.323055823427503
0.00298568003227945,0.32491747406937
0.00778797069075704,0.32670349422808
0.012571165450228,0.328414439686813
0.0173352425105395,0.330050866228752
0.0220801800715385,0.331613329637077
0.0268059563330721,0.333102385694968
0.0315125494949873,0.334518590185609
0.0361999377571313,0.335862498892178
0.0408680993193511,0.337134667597859
0.0455170123814938,0.338335652085831
0.0501466551434064,0.339466008139277
0.054757005804936,0.340526291541377
0.0593480425659297,0.341517058075312
0.0639197436262344,0.342438863524264
0.0684720871856974,0.343292263671413
0.0730050514441656,0.344077814299941
0.0775186146014862,0.344796071193029
0.082012754857506,0.345447590133859
0.0864874504120724,0.34603292690561
0.0909426794650323,0.346552637291465
0.0953784202162327,0.347007277074605
0.0997946508655208,0.34739740203821
0.104191349612744,0.347723567965463
0.108568494657748,0.347986330639544
0.112926064200382,0.348186245843633
0.117264036440491,0.348323869360914
0.121582389577923,0.348399756974565
0.125881101812525,0.34841446446777
0.130160151344145,0.348368547623708
0.134419516372628,0.348262562225562
0.138659175097823,0.348097064056511
0.142879105719576,0.347872608899738
0.147079286437735,0.347589752538424
0.151259695452146,0.347249050755749
0.155420310962656,0.346851059334895
0.159561111169113,0.346396334059043
0.163682074271363,0.345885430711374
0.167783178469254,0.345318905075069
0.171864401962633,0.34469731293331
0.175925722951347,0.344021210069277
0.179967119635243,0.343291152266152
0.183988570214167,0.342507695307116
0.187990052887968,0.34167139497535
0.191971545856491,0.340782807054036
0.195933027319585,0.339842487326353
0.199874475477096,0.338850991575484
0.203795868528871,0.33780887558461
0.207697184674758,0.336716695136912
0.211578402114603,0.335575006015571
0.215439499048253,0.334384364003768
0.219280453675556,0.333145324884685
0.223101244196358,0.331858444441501
0.226901848810507,0.3305242784574
0.23068224571785,0.329143382715561
0.234442413118234,0.327716312999166
0.238182329211505,0.326243625091396
0.241901972197512,0.324725874775433
0.2456013202761,0.323163617834457
0.249280351647117,0.321557410051649
0.252939044510411,0.319907807210192
0.256577377065828,0.318215365093265
0.260195327513214,0.31648063948405
0.263792874052419,0.314704186165728
0.267369994883287,0.312886560921481
0.270926668205667,0.31102831953449
0.274462872219406,0.309130017787934
0.27797858512435,0.307192211464997
0.281473785120346,0.305215456348859
0.284948450407243,0.303200308222701
0.288402559184886,0.301147322869704
0.291836089653123,0.29905705607305
0.295249020011801,0.296930063615919
0.298641328460766,0.294766901281493
0.302012993199867,0.292568124852953
0.30536399242895,0.29033429011348
0.308694304347862,0.288065952846256
0.31200390715645,0.285763668834461
0.315292779054561,0.283427993861276
0.318560898242043,0.281059483709883
0.321808242918742,0.278658694163463
0.325034791284506,0.276226181005197
0.328240521539181,0.273762500018266
0.331425411882615,0.271268206985851
0.334589440514654,0.268743857691134
0.337732585635147,0.266190007917295
0.340854825443938,0.263607213447517
0.343956138140877,0.260996030064979
0.34703650192581,0.258357013552864
0.350095894998584,0.255690719694351
0.353134295559045,0.252997704272623
0.356151681807042,0.250278523070861
0.359148031942421,0.247533731872246
0.36212332416503,0.244763886459958
0.365077536674714,0.241969542617179
0.368010647671322,0.239151256127091
0.3709226353547,0.236309582772874
0.373813477924696,0.23344507833771
0.376683153581157,0.230558298604779
0.379531640523929,0.227649799357263
0.38235891695286,0.224720136378343
0.385164961067796,0.221769865451201
0.387949751068586,0.218799542359016
0.390713265155075,0.215809722884971
0.393455481527111,0.212800962812247
0.396176378384541,0.209773817924024
0.398875933927213,0.206728844003485
0.401554126354972,0.203666596833809
0.404210933867667,0.200587632198179
0.406846334665144,0.197492505879775
0.40946030694725,0.194381773661779
0.412052828913833,0.191255991327371
0.414623878764739,0.188115714659734
0.417173434699816,0.184961499442047
0.41970147491891,0.181793901457493
0.422207977621869,0.178613476489252
0.42469292100854,0.175420780320505
0.427156283278769,0.172216368734434
0.429598042632404,0.16900079751422
0.432018177269293,0.165774622443044
0.434416665389281,0.162538399304087
0.436793485192217,0.15929268388053
0.439148614877946,0.156038031955555
0.441482032646317,0.152774999312342
0.443793716697176,0.149504141734073
0.44608364523037,0.146226015003929
0.448351796445746,0.142941174905091
0.450598148543152,0.139650177220741
0.452822679722435,0.136353577734059
0.455025368183441,0.133051932228226
0.457206192126018,0.129745796486424
0.459365129750012,0.126435726291834
0.461502159255272,0.123122277427637
0.463617258841643,0.119806005677014
0.465710406708973,0.116487466823146
0.467781581057109,0.113167216649215
0.469830760085898,0.109845810938401
0.471857921995187,0.106523805473886
0.473863044984823,0.103201756038852
0.475846107254653,0.099880218416478
0.477807087004525,0.0965597483899467
0.479745962434285,0.0932409017424387
0.481662711743781,0.0899242342571352
0.483557313132859,0.0866103017172175
0.485429744801366,0.0832996599058669
0.487279984949151,0.0799928646062641
0.489108011776058,0.0766904716015906
0.490913803481937,0.0733930366750274
0.492697338266633,0.0701011156097559
0.494458594329995,0.0668152641889569
0.496197549871868,0.0635360381958117
0.4979141830921,0.0602639934135017
0.499608472190538,0.0569996856252077
0.50128039536703,0.0537436706141111
0.502929930821421,0.0504965041633927
0.50455705675356,0.0472587420562343
0.506161751363293,0.0440309400758163
0.507743992850468,0.0408136540053205
0.509303759414931,0.0376074396279276
0.510841029256529,0.0344128527268192
0.51235578057511,0.0312304490851759
0.513847991570521,0.0280607844861794
0.515317640442609,0.0249044147130104
0.51676470539122,0.0217618955488505
0.518189164616202,0.0186337827768804
0.519590996317402,0.0155206321802818
0.520970178694667,0.0124229995422352
0.522326689947844,0.00934144064592232
0.52366050827678,0.00627651127452393
0.524971611881322,0.00322876721122149
0.526259978961318,0.000198764239195875
0.527525587716614,-0.00281294185837144
0.528768416347057,-0.00580579529829962
0.529988443052494,-0.00877924029740726
0.531185646032773,-0.0117327210725135
0.532360003487741,-0.0146656818404367
0.533511493617244,-0.0175775668179962
0.53464009462113,-0.0204678202220105
0.535745784699246,-0.0233358862692987
0.536828542051438,-0.0261812091766795
0.537888344877555,-0.0290032331609718
0.538925171377442,-0.0318014024389943
0.539938999750947,-0.034575161227566
0.540929808197918,-0.0373239537435057
0.5418975749182,-0.0400472242036322
0.542842278111642,-0.0427444168247645
0.54376389597809,-0.0454149758237213
0.544662406717392,-0.0480583454173213
0.545537788529393,-0.0506739698223837
0.546390019613943,-0.0532612932557271
0.547219078170886,-0.0558197599341704
0.548024942400072,-0.0583488140745324
0.548807590501346,-0.0608478998936321
0.549567000674555,-0.063316461608288
0.550303151119548,-0.0657539434353194
0.55101602003617,-0.0681597895915448
0.551705585624269,-0.0705334442937832
0.552371826083693,-0.0728743517588534
0.553014719614287,-0.0751819562035743
0.553634244415899,-0.0774557018447646
0.554230378688377,-0.0796950328992433
0.554803100631567,-0.0818993935838291
0.555352388445316,-0.084068228115341
0.555878220329471,-0.0862009807105977
0.55638057448388,-0.0882970955864181
0.55685942910839,-0.0903560169596211
0.557314762402847,-0.0923771890470255
0.557746552567098,-0.0943600560654501
0.558154777800992,-0.0963040622317138
0.558539416304374,-0.0982086517626354
0.558900446277092,-0.100073268875034
0.559237845918993,-0.101897357785728
0.559551593429923,-0.103680362711536
0.559841667009731,-0.105421727869278
0.560108044858263,-0.107120897475772
0.560350705175366,-0.108777315747837
0.560569626160887,-0.110390426902291
0.560764786014673,-0.111959675155955
0.560936162936572,-0.113484504725646
0.561083735126431,-0.114964359828183
0.561207480784095,-0.116398684680385
0.561307378109414,-0.117786923499072
0.561383405302232,-0.119128520501061
0.561435540562399,-0.120422919903172
0.56146376208976,-0.121669565922224
0.561468048084163,-0.122867902775035
0.561448376745455,-0.124017374678424
0.561404726273483,-0.125117425849211
0.561337074868094,-0.126167500504213
0.561245400729134,-0.12716704286025
0.561129682056452,-0.128115497134141
0.560989897049895,-0.129012307542704
0.560826023909308,-0.129856918302759
0.56063804083454,-0.130648773631124
0.560425926025437,-0.131387317744617
0.560189657681846,-0.132071994860059
0.559929214003615,-0.132702249194267
0.559644573190591,-0.133277524964061
0.55933571344262,-0.133797266386259
0.55900261295955,-0.134260917677681
0.558645249941228,-0.134667923055144
0.558263602587501,-0.135017726735469
0.557857649098215,-0.135309772935473
0.557427367673218,-0.135543505871976
0.556972736512358,-0.135718369761796
0.55649373381548,-0.135833808821752
0.555990337782433,-0.135889267268664
0.555462526613063,-0.13588418931935
0.554910278507217,-0.135818019190628
0.554333571664743,-0.135690201099318
0.553732384285487,-0.135500179262239
0.553106694569296,-0.135247397896209
0.552456480716018,-0.134931301218047
0.5517817209255,-0.134551333444572
0.551082393397588,-0.134106938792603
0.55035847633213,-0.133597561478959
0.549609947928973,-0.133022645720458
0.548836786387964,-0.13238163573392
0.548038969908949,-0.131673975736162
0.547216476691777,-0.130899109944005
0.546369284936293,-0.130056482574267
0.545497372842346,-0.129145537843767
0.544600718609782,-0.128165719969323
0.543679300438449,-0.127116473167755
0.542733096528192,-0.125997241655881
0.54176208507886,-0.124807469650521
0.5407662442903,-0.123546601368492
0.539745552362358,-0.122214081026614
0.538699987494881,-0.120809352841706
0.537629527887717,-0.119331861030586
0.536534151740713,-0.117781049810074
0.535413837253716,-0.116156363396988
0.534268562626572,-0.114457246008146
0.53309830605913,-0.112683141860369
0.531903045751235,-0.110833495170475
0.530682759902735,-0.108907750155282
0.529437426713478,-0.106905351031609
0.52816702438331,-0.104825742016276
0.526871531112077,-0.102668367326101
0.525550925099629,-0.100432671177903
0.52420518454581,-0.0981180977885008
0.522834287650469,-0.0957240913747132
0.521438212613453,-0.093250096153359
0.520016937634608,-0.0906955563412573
0.518570440913781,-0.0880599161552265
0.517098700650821,-0.0853426198120859
0.515601695045573,-0.0825431115286541
0.514079402297885,-0.07966083552175
0.512531800607603,-0.0766952360081924
0.510958868174576,-0.0736457572048004
0.50936058319865,-0.0705118433283924
0.507736923879672,-0.0672929385957876
0.506087868417489,-0.0639884872238046
0.504413395011948,-0.0605979334292625
0.502713481862896,-0.0571207214289799
0.500988107170181,-0.0535562954397759
0.499237249133649,-0.049904099678469
0.497460885953147,-0.0461635783618784
0.495658995828523,-0.0423341757068226
0.493831556959624,-0.0384153359301208
0.491978547546297,-0.0344065032485915
0.490099945788388,-0.0303071218790539
0.488195729885744,-0.0261166360383265
0.486265878038214,-0.0218344899432284
0.484310368445644,-0.0174601278105783
0.48232917930788,-0.0129929938571951
0.480322288824771,-0.00843253229989753
0.478289675196163,-0.00377818735550468
0.476231316621903,0.000970596759164916
0.474147191301838,0.00581437582729209
0.472037277435815,0.0107537056320584
0.469901553223682,0.0157891419566445
0.467739996865285,0.020921240584232
0.465552586560472,0.0261505572980017
0.46333930050909,0.0314776478811351
0.461100116910984,0.036903068116813
0.458835013966004,0.042427373788217
0.456543969873995,0.0480511206785277
0.454226962834806,0.0537748645709269
0.451883971048282,0.059599161248595
0.449514972714271,0.0655245664947139
0.44711994603262,0.0715516360924641
0.444698869203176,0.0776809258250275
0.442251720425786,0.0839129914755845
0.439778477900298,0.0902483888273168
0.437279119826558,0.0966876736634052
0.434753624404413,0.103231401767031
0.43220196983371,0.109880128921375
0.429624134314297,0.11663441090962
0.427020096046021,0.123494803514945
0.424389833228728,0.130461862520532
0.421733324062266,0.137536143709562
0.419050546746481,0.144718202865217
0.416341479481222,0.152008595770677
0.413606100466334,0.159407878209124
0.410844387901665,0.166916605963738
0.408056319987062,0.174535334817702
0.405241874922372,0.182264620554195
0.402401030907442,0.1901050189564
0.39953376614212,0.198057085807498
0.396640058826251,0.206121376890669
0.393719887159684,0.214298447989094
0.390773229342266,0.222588854885956
0.387800063573843,0.230993153364435
0.384800368054262,0.239511899207712
0.381774120983371,0.248145648198968
0.378721300561016,0.256894956121385
0.375641884987046,0.265760378758144
0.372535852461305,0.274742471892425
0.369403181183643,0.28384179130741
0.366243849353906,0.293058892786281
0.363057835171941,0.302394332112218
0.359845116837594,0.311848665068403
0.356605672550714,0.321422447438016
0.353339480511147,0.331116235004239
0.353339480511147,0.331116235004239
0.35007168605219,0.340811244200211
0.346827425898561,0.35038870627038
0.343606665337245,0.359849199214888
0.340409369655221,0.369193301033877
0.337235504139474,0.37842158972749
0.334085034076984,0.387534643295869
0.330957924754734,0.396533039739157
0.327854141459707,0.405417357057497
0.324773649478884,0.41418817325103
0.321716414099247,0.422846066319899
0.318682400607778,0.431391614264247
0.31567157429146,0.439825395084216
0.312683900437275,0.448147986779948
0.309719344332205,0.456359967351586
0.306777871263232,0.464461914799272
0.303859446517339,0.472454407123149
0.300964035381506,0.480338022323359
0.298091603142717,0.488113338400045
0.295242115087954,0.495780933353349
0.292415536504198,0.503341385183414
0.289611832678433,0.510795271890382
0.286830968897639,0.518143171474394
0.284072910448799,0.525385661935595
0.281337622618896,0.532523321274126
0.278625070694911,0.53955672749013
0.275935219963827,0.546486458583749
0.273268035712626,0.553313092555126
0.270623483228289,0.560037207404403
0.268001527797799,0.566659381131722
0.265402134708139,0.573180191737227
0.262825269246289,0.579600217221058
0.260270896699234,0.58592003558336
0.257738982353953,0.592140224824274
0.255229491497431,0.598261362943943
0.252742389416648,0.604284027942509
0.250277641398587,0.610208797820114
0.24783521273023,0.616036250576902
0.245415068698559,0.621766964213014
0.243017174590557,0.627401516728593
0.240641495693205,0.632940486123782
0.238287997293486,0.638384450398722
0.235956644678381,0.643733987553557
0.233647403134874,0.648989675588428
0.231360237949945,0.654152092503479
0.229095114410578,0.659221816298852
0.226851997803753,0.664199424974688
0.224630853416455,0.669085496531131
0.222431646535664,0.673880608968323
0.220254342448362,0.678585340286406
0.218098906441533,0.683200268485524
0.215965303802157,0.687725971565817
0.213853499817218,0.692163027527429
0.211763459773697,0.696512014370503
0.209695148958576,0.70077351009518
0.207648532658838,0.704948092701603
0.205623576161464,0.709036340189915
0.203620244753438,0.713038830560258
0.20163850372174,0.716956141812773
0.199678318353353,0.720788851947605
0.197739653935259,0.724537538964895
0.195822475754441,0.728202780864787
0.193926749097881,0.731785155647421
0.19205243925256,0.735285241312941
0.19019951150546,0.738703615861488
0.188367931143565,0.742040857293207
0.186557663453856,0.745297543608238
0.184768673723314,0.748474252806725
0.183000927238924,0.75157156288881
0.181254389287665,0.754590051854635
0.179529025156521,0.757530297704342
0.177824800132474,0.760392878438075
0.176141679502506,0.763178372055976
0.174479628553599,0.765887356558187
0.172838612572734,0.76852040994485
0.171218596846895,0.771078110216107
0.169619546663064,0.773561035372103
0.168041427308222,0.775969763412979
0.166484204069352,0.778304872338876
0.164947842233435,0.780566940149938
0.163432307087455,0.782756544846308
0.161937563918392,0.784874264428127
0.16046357801323,0.786920676895539
0.15901031465895,0.788896360248684
0.157577739142535,0.790801892487707
0.156165816750966,0.792637851612749
0.154774512771226,0.794404815623953
0.153403792490297,0.796103362521461
0.152053621195161,0.797734070305417
0.1507239641728,0.799297516975961
0.149414786710196,0.800794280533236
0.148126054094332,0.802224938977386
0.14685773161219,0.803590070308553
0.145609784550751,0.804890252526878
0.144382178196998,0.806126063632505
0.143174877837913,0.807298081625575
0.141987848760478,0.808406884506233
0.140821056251676,0.809453050274618
0.139674465598487,0.810437156930875
0.138548042087896,0.811359782475145
0.137441751006883,0.812221504907572
0.136355557642431,0.813022902228297
0.135289427281522,0.813764552437463
0.134243325211137,0.814447033535212
0.133217216718261,0.815070923521688
0.132211067089873,0.815636800397031
0.131224841612957,0.816145242161385
0.130258505574495,0.816596826814893
0.129312024261468,0.816992132357696
0.128385362960859,0.817331736789937
0.127478486959651,0.817616218111758
0.126591361544824,0.817846154323303
0.125723952003362,0.818022123424713
0.124876223622246,0.818144703416131
0.124048141688459,0.818214472297699
0.123239671488983,0.81823200806956
0.122450778310799,0.818197888731856
0.121681427440891,0.818112692284729
0.120931584166239,0.817976996728323
0.120201213773827,0.817791380062779
0.119490281550637,0.81755642028824
0.11879875278365,0.817272695404849
0.118126592759848,0.816940783412747
0.117473766766214,0.816561262312078
0.116840240089731,0.816134710102983
0.116225978017379,0.815661704785606
0.115630945836142,0.815142824360088
0.115055108833001,0.814578646826572
0.114498432294938,0.813969750185201
0.113960881508936,0.813316712436117
0.113442421761977,0.812620111579461
0.112943018341043,0.811880525615378
0.112462636533116,0.811098532544009
0.112001241625178,0.810274710365497
0.111558798904211,0.809409637079984
0.111135273657198,0.808503890687613
0.11073063117112,0.807558049188526
0.11034483673296,0.806572690582865
0.1099778556297,0.805548392870773
0.109629653148322,0.804485734052392
0.109300194575808,0.803385292127866
0.108989445199141,0.802247645097336
0.108697370305302,0.801073370960944
0.108423935181273,0.799863047718833
0.108169105114037,0.798617253371147
0.107932845390576,0.797336565918026
0.107715121297872,0.796021563359613
0.107515898122907,0.794672823696052
0.107335141152663,0.793290924927484
0.107172815674123,0.791876445054052
0.107028886974268,0.790429962075898
0.10690332034008,0.788952053993165
0.106796081058543,0.787443298805995
0.106707134416637,0.785904274514531
0.106636445701346,0.784335559118914
0.10658398019965,0.782737730619288
0.106549703198533,0.781111367015795
0.106533579984977,0.779457046308578
0.106535575845962,0.777775346497778
0.106555656068473,0.776066845583538
0.106593785939491,0.774332121566002
0.106649930745997,0.77257175244531
0.106724055774975,0.770786316221606
0.106816126313406,0.768976390895032
0.106926107648273,0.767142554465731
0.107053965066557,0.765285384933845
0.10719966385524,0.763405460299515
0.107363169301306,0.761503358562886
0.107544446691735,0.759579657724099
0.107743461313511,0.757634935783297
0.107960178453615,0.755669770740621
0.108194563399029,0.753684740596215
0.108446581436736,0.751680423350222
0.108716197853717,0.749657397002783
0.109003377936955,0.747616239554041
0.109308086973432,0.745557529004138
0.10963029025013,0.743481843353217
0.109969953054032,0.741389760601421
0.110327040672118,0.739281858748891
0.110701518391373,0.73715871579577
0.111093351498776,0.735020909742201
0.111502505281312,0.732869018588326
0.111928945025961,0.730703620334287
0.112372636019706,0.728525292980227
0.11283354354953,0.726334614526289
0.113311632902414,0.724132162972614
0.11380686936534,0.721918516319346
0.114319218225291,0.719694252566626
0.114848644769248,0.717459949714598
0.115395114284194,0.715216185763403
0.115958592057112,0.712963538713184
0.116539043374982,0.710702586564084
0.117136433524787,0.708433907316244
0.11775072779351,0.706158078969808
0.118381891468133,0.703875679524918
0.119029889835637,0.701587286981716
0.119694688183005,0.699293479340345
0.120376251797219,0.696994834600947
0.121074545965261,0.694691930763664
0.121789535974113,0.692385345828639
0.122521187110757,0.690075657796016
0.123269464662176,0.687763444665935
0.124034333915352,0.685449284438539
0.124815760157266,0.683133755113971
0.125613708674901,0.680817434692373
0.126428144755239,0.678500901173888
0.127259033685263,0.676184732558658
0.128106340751953,0.673869506846826
0.128970031242293,0.671555802038534
0.129850070443265,0.669244196133924
0.13074642364185,0.666935267133139
0.131659056125031,0.664629593036322
0.13258793317979,0.662327751843614
0.133533020093109,0.660030321555159
0.134494282151971,0.657737880171098
0.135471684643357,0.655451005691575
0.136465192854249,0.653170276116731
0.13747477207163,0.650896269446709
0.138500387582482,0.648629563681651
0.139542004673787,0.6463707368217
0.140599588632526,0.644120366866999
0.141673104745683,0.64187903181769
0.14276251830024,0.639647309673915
0.143867794583177,0.637425778435816
0.144988898881479,0.635215016103537
0.146125796482126,0.633015600677219
0.147278452672101,0.630828110157005
0.148446832738386,0.628653122543038
0.149630901967963,0.62649121583546
0.150830625647815,0.624342968034413
0.152045969064923,0.62220895714004
0.153276897506269,0.620089761152483
0.154523376258837,0.617985958071885
0.155785370609607,0.615898125898387
0.157062845845562,0.613826842632134
0.158355767253684,0.611772686273266
0.159664100120955,0.609736234821928
0.160987809734358,0.607718066278259
0.162326861380874,0.605718758642405
0.163681220347486,0.603738889914506
0.165050851921176,0.601779038094705
0.166435721388926,0.599839781183145
0.167835794037717,0.597921697179968
0.169251035154533,0.596025364085316
0.170681410026356,0.594151359899333
0.172126883940167,0.59230026262216
0.173587422182948,0.59047265025394
0.175062990041682,0.588669100794816
0.176553552803351,0.586890192244929
0.178059075754937,0.585136502604422
0.179579524183422,0.583408609873438
0.181114863375789,0.58170709205212
0.182665058619019,0.580032527140609
0.184230075200094,0.578385493139047
0.185809878405998,0.576766568047579
0.187404433523711,0.575176329866345
0.189013705840216,0.573615356595488
0.190637660642495,0.572084226235152
0.19227626321753,0.570583516785477
0.193929478852304,0.569113806246607
0.195597272833799,0.567675672618685
0.197279610448996,0.566269693901852
0.198976456984878,0.564896448096251
0.200687777728426,0.563556513202024
0.202413537966624,0.562250467219314
0.204153702986453,0.560978888148264
0.205908238074896,0.559742353989016
0.207677108518934,0.558541442741711
0.209460279605549,0.557376732406494
0.211257716621724,0.556248800983505
0.213069384854441,0.555158226472888
0.214895249590683,0.554105586874785
0.21673527611743,0.553091460189339
0.218589429721666,0.552116424416691
0.220457675690372,0.551181057556985
0.22233997931053,0.550285937610362
0.224236305869124,0.549431642576966
0.226146620653134,0.548618750456939
0.228070888949543,0.547847839250422
0.230009076045333,0.547119486957559
0.231961147227487,0.546434271578492
0.233927067782986,0.545792771113364
0.235906802998813,0.545195563562316
0.237900318161949,0.544643226925492
0.239907578559377,0.544136339203034
0.241928549478079,0.543675478395084
0.243963196205037,0.543261222501784
0.246011484027233,0.542894149523278
0.248073378231649,0.542574837459707
0.250148844105268,0.542303864311214
0.252237846935072,0.542081808077942
0.254340352008043,0.541909246760032
0.256456324611162,0.541786758357628
0.258585730031412,0.541714920870872
0.260728533555776,0.541694312299906
0.262884700471235,0.541725510644872
0.265054196064771,0.541809093905914
0.267236985623367,0.541945640083173
0.269433034434005,0.542135727176792
0.271642307783666,0.542379933186914
0.273864770959333,0.542678836113681
0.276100389247989,0.543033013957234
0.278349127936615,0.543443044717718
0.280610952312193,0.543909506395274
0.282885827661706,0.544432976990044
0.285173719272135,0.545014034502172
0.287474592430464,0.545653256931799
0.289788412423673,0.546351222279068
0.292115144538745,0.547108508544122
0.294454754062663,0.547925693727102
0.296807206282407,0.548803355828152
0.299172466484962,0.549742072847414
0.301550499957308,0.55074242278503
0.303941271986427,0.551804983641142
0.306344747859303,0.552930333415894
0.308760892862917,0.554119050109427
0.31118967228425,0.555371711721884
0.313631051410287,0.556688896253408
0.316084995528007,0.55807118170414
0.318551469924394,0.559519146074224
0.32103043988643,0.561033367363802
0.323521870701097,0.562614423573015
0.326025727655377,0.564262892702008
0.328541976036252,0.565979352750921
0.331070581130704,0.567764381719899
0.333611508225716,0.569618557609082
0.336164722608269,0.571542458418613
0.338730189565346,0.573536662148636
0.341307874383928,0.575601746799291
0.343897742350999,0.577738290370723
0.346499758753539,0.579946870863072
0.349113888878532,0.582228066276483
0.351740098012959,0.584582454611096
0.354378351443803,0.587010613867055
0.357028614458045,0.589513122044502
0.359690852342669,0.59209055714358
0.362365030384655,0.59474349716443
0.365051113870986,0.597472520107196
0.367749068088644,0.600278203972019
0.370458858324612,0.603161126759043
0.37318044986587,0.606121866468409
0.375913807999403,0.609161001100261
0.378658898012191,0.612279108654739
0.381415685191218,0.615476767131988
0.384184134823464,0.618754554532149
0.386964212195912,0.622113048855366
0.389755882595545,0.625552828101779
0.392559111309344,0.629074470271533
0.395373863624291,0.632678553364768
0.39820010482737,0.636365655381628
0.401037800205561,0.640136354322255
0.403886915045847,0.643991228186792
0.40674741463521,0.647930854975381
0.409619264260632,0.651955812688164
0.412502429209096,0.656066679325284
0.415396874767583,0.660264032886884
0.418302566223076,0.664548451373104
0.421219468862556,0.66892051278409
0.424147547973007,0.673380795119982
0.427086768841409,0.677929876380923
0.430037096754746,0.682568334567055
0.432998496999999,0.687296747678522
0.435970934864151,0.692115693715465
0.438954375634183,0.697025750678027
0.441948784597078,0.70202749656635
0.444954127039817,0.707121509380577
0.447970368249384,0.71230836712085
0.45099747351276,0.717588647787312
0.454035408116927,0.722962929380105
0.457084137348868,0.728431789899371
0.460143626495564,0.733995807345254
0.463213840843998,0.739655559717895
0.466294745681151,0.745411625017436
0.469386306294007,0.751264581244021
0.472488487969546,0.757215006397792
0.475601255994752,0.763263478478891
0.478724575656606,0.76941057548746
0.481858412242091,0.775656875423643
0.485002731038189,0.782002956287581
0.488157497331881,0.788449396079418
0.49132267641015,0.794996772799294
0.494498233559978,0.801645664447353
0.497684134068347,0.808396649023738
0.50088034322224,0.815250304528591
0.504086826308638,0.822207208962053
0.507303548614524,0.829267940324269
0.510530475426879,0.836433076615379
0.513767572032687,0.843703195835527
0.517014803718928,0.851078875984855
0.520272135772586,0.858560695063505
0.523539533480641,0.86614923107162
0.526816962130078,0.873845062009343
0.530104387007876,0.881648765876815
0.53340177340102,0.889560920674179
0.53670908659649,0.897582104401579
0.540026291881269,0.905712895059155
0.543353354542339,0.91395387064705
0.546690239866683,0.922305609165408
0.550036913141282,0.93076868861437
0.553393339653118,0.939343686994079
