-0.649070411868514,0.083086403361524
-0.646879067811801,0.0838128757811757
-0.644694670993325,0.0845453874917595
-0.642517159226486,0.0852839074640296
-0.640346470324687,0.0860284046687402
-0.638182542101328,0.0867788480766454
-0.636025312369811,0.0875352066584994
-0.633874718943537,0.0882974493850564
-0.631730699635907,0.0890655452270706
-0.629593192260323,0.089839463155296
-0.627462134630185,0.090619172140487
-0.625337464558895,0.0914046411533976
-0.623219119859855,0.092195839164782
-0.621107038346466,0.0929927351453945
-0.619001157832127,0.0937952980659891
-0.616901416130242,0.0946034968973201
-0.614807751054212,0.0954173006101416
-0.612720100417437,0.0962366781752079
-0.610638402033319,0.0970615985632729
-0.608562593715259,0.097892030745091
-0.606492613276658,0.0987279436914164
-0.604428398530919,0.0995693063730031
-0.602369887291441,0.100416087760605
-0.600317017371626,0.101268256824977
-0.598269726584876,0.102125782536873
-0.596227952744591,0.102988633867047
-0.594191633664173,0.103856779786253
-0.592160707157024,0.104730189265246
-0.590135111036544,0.105608831274779
-0.588114783116135,0.106492674785607
-0.586099661209198,0.107381688768484
-0.584089683129134,0.108275842194164
-0.582084786689344,0.109175104033402
-0.580084909703231,0.11007944325695
-0.578089989984195,0.110988828835565
-0.576099965345637,0.111903229739999
-0.574114773600958,0.112822614941007
-0.572134352563561,0.113746953409343
-0.570158640046845,0.114676214115762
-0.568187573864213,0.115610366031017
-0.566221091829066,0.116549378125863
-0.564259131754804,0.117493219371053
-0.56230163145483,0.118441858737343
-0.560348528742544,0.119395265195485
-0.558399761431348,0.120353407716235
-0.556455267334643,0.121316255270347
-0.55451498426583,0.122283776828574
-0.552578850038311,0.123255941361671
-0.550646802465486,0.124232717840392
-0.548718779360758,0.125214075235492
-0.546794718537526,0.126199982517724
-0.544874557809193,0.127190408657842
-0.542958234989161,0.128185322626601
-0.541045687890829,0.129184693394755
-0.539136854327599,0.130188489933058
-0.537231672112873,0.131196681212264
-0.535330079060052,0.132209236203127
-0.533432012982538,0.133226123876403
-0.53153741169373,0.134247313202843
-0.529646213007031,0.135272773153204
-0.527758354735842,0.136302472698239
-0.525873774693564,0.137336380808702
-0.523992410693599,0.138374466455348
-0.522114200549347,0.13941669860893
-0.520239082074211,0.140463046240203
-0.518366993081591,0.141513478319921
-0.516497871384888,0.142567963818838
-0.514631654797504,0.143626471707709
-0.51276828113284,0.144688970957287
-0.510907688204297,0.145755430538326
-0.509049813825277,0.146825819421582
-0.50719459580918,0.147900106577807
-0.505341971969409,0.148978260977756
-0.503491880119364,0.150060251592184
-0.501644258072447,0.151146047391845
-0.499799043642058,0.152235617347491
-0.4979561746416,0.153328930429879
-0.496115588884473,0.154425955609762
-0.494277224184079,0.155526661857894
-0.492441018353818,0.15663101814503
-0.490606909207093,0.157738993441923
-0.488774834557304,0.158850556719327
-0.486944732217853,0.159965676947998
-0.485116540002141,0.161084323098689
-0.483290195723569,0.162206464142153
-0.481465637195539,0.163332069049147
-0.479642802231452,0.164461106790422
-0.477821628644708,0.165593546336735
-0.47600205424871,0.166729356658838
-0.474184016856858,0.167868506727487
-0.472367454282554,0.169010965513435
-0.4705523043392,0.170156701987436
-0.468738504840195,0.171305685120245
-0.466925993598943,0.172457883882615
-0.465114708428843,0.173613267245302
-0.463304587143297,0.174771804179059
-0.461495567555706,0.17593346365464
-0.459687587479473,0.177098214642799
-0.457880584727997,0.178266026114291
-0.45607449711468,0.17943686703987
-0.454269262452924,0.18061070639029
-0.45246481855613,0.181787513136305
-0.450661103237698,0.182967256248669
-0.448858054311031,0.184149904698137
-0.447055609589529,0.185335427455462
-0.445253706886594,0.1865237934914
-0.443452284015628,0.187714971776703
-0.44165127879003,0.188908931282126
-0.439850629023203,0.190105640978424
-0.438050272528548,0.191305069836351
-0.436250147119465,0.19250718682666
-0.434450190609358,0.193711960920106
-0.432650340811625,0.194919361087443
-0.43085053553967,0.196129356299425
-0.429050712606893,0.197341915526807
-0.427250809826695,0.198557007740342
-0.425450765012478,0.199774601910785
-0.423650515977643,0.200994667008889
-0.421850000535591,0.20221717200541
-0.420049156499723,0.203442085871101
-0.418247921683441,0.204669377576717
-0.416446233900147,0.205899016093011
-0.41464403096324,0.207130970390738
-0.412841250686123,0.208365209440652
-0.411037830882197,0.209601702213507
-0.409233709364862,0.210840417680057
-0.407428823947521,0.212081324811057
-0.405623112443575,0.21332439257726
-0.403816512666424,0.214569589949421
-0.402008962429471,0.215816885898294
-0.400200399546115,0.217066249394633
-0.39839076182976,0.218317649409193
-0.396579987093805,0.219571054912727
-0.394768013151653,0.22082643487599
-0.392954777816703,0.222083758269735
-0.391140218902359,0.223342994064717
-0.38932427422202,0.224604111231691
-0.387506881589089,0.22586707874141
-0.385687978816966,0.227131865564629
-0.383867503719053,0.228398440672101
-0.38204539410875,0.229666773034581
-0.38022158779946,0.230936831622823
-0.378396022604584,0.232208585407581
-0.376568636337522,0.23348200335961
-0.374739366811677,0.234757054449663
-0.372908151840448,0.236033707648495
-0.371074929237238,0.23731193192686
-0.369239636815448,0.238591696255512
-0.367402212388479,0.239872969605205
-0.365562593769733,0.241155720946694
-0.36372071877261,0.242439919250732
-0.361876525210512,0.243725533488074
-0.36002995089684,0.245012532629474
-0.358180933644995,0.246300885645685
-0.356329411268379,0.247590561507464
-0.354475321580393,0.248881529185562
-0.352618602394439,0.250173757650735
-0.350759191523917,0.251467215873738
-0.348897026782228,0.252761872825323
-0.347032045982774,0.254057697476245
-0.345164186938957,0.255354658797258
-0.343293387464177,0.256652725759117
-0.341419585371836,0.257951867332576
-0.339542718475335,0.259252052488388
-0.337662724588075,0.260553250197308
-0.335779541523458,0.261855429430091
-0.333893107094885,0.26315855915749
-0.332003359115756,0.264462608350259
-0.330110235399475,0.265767545979153
-0.32821367375944,0.267073341014926
-0.326313612009055,0.268379962428332
-0.324409987961719,0.269687379190125
-0.322502739430836,0.270995560271059
-0.320591804229805,0.272304474641889
-0.318677120172027,0.273614091273369
-0.316758625070905,0.274924379136253
-0.314836256739839,0.276235307201294
-0.312909952992232,0.277546844439248
-0.310979651641483,0.278858959820869
-0.309045290500994,0.280171622316909
-0.307106807384167,0.281484800898125
-0.305164140104402,0.28279846453527
-0.303217226475102,0.284112582199097
-0.301266004309667,0.285427122860362
-0.299310411421498,0.286742055489818
-0.297350385623998,0.28805734905822
-0.295385864730566,0.289372972536322
-0.293416786554605,0.290688894894878
-0.291443088909515,0.292005085104641
-0.289464709608699,0.293321512136368
-0.287481586465556,0.29463814496081
-0.285493657293489,0.295954952548723
-0.283500859905898,0.297271903870861
-0.281503132116186,0.298588967897978
-0.279500411737752,0.299906113600828
-0.277492636583999,0.301223309950166
-0.275479744468328,0.302540525916745
-0.27346167320414,0.303857730471319
-0.271438360604836,0.305174892584644
-0.269409744483817,0.306491981227472
-0.267375762654485,0.307808965370559
-0.265336352930242,0.309125813984658
-0.263291453124487,0.310442496040523
-0.261241001050624,0.311758980508909
-0.259184934522052,0.31307523636057
-0.257123191352173,0.314391232566261
-0.255055709354388,0.315706938096734
-0.252982426342099,0.317022321922745
-0.250903280128707,0.318337353015047
-0.248818208527613,0.319652000344395
-0.246727149352219,0.320966232881543
-0.244630040415925,0.322280019597245
-0.242526819532133,0.323593329462255
-0.240417424514244,0.324906131447328
-0.23830179317566,0.326218394523217
-0.236179863329781,0.327530087660677
-0.23405157279001,0.328841179830462
-0.231916859369747,0.330151640003326
-0.229775660882393,0.331461437150024
-0.22762791514135,0.332770540241309
-0.225473559960019,0.334078918247935
-0.223312533151801,0.335386540140657
-0.221144772530098,0.33669337489023
-0.218970215908311,0.337999391467406
-0.216788801099841,0.339304558842941
-0.214600465918089,0.340608845987588
-0.212405148176457,0.341912221872102
-0.210202785688345,0.343214655467237
-0.207993316267156,0.344516115743746
-0.20577667772629,0.345816571672385
-0.203552807879149,0.347115992223907
-0.201321644539134,0.348414346369067
-0.199083125519646,0.349711603078618
-0.196837188634086,0.351007731323316
-0.194583771695857,0.352302700073913
-0.192322812518358,0.353596478301164
-0.190054248914991,0.354889034975824
-0.187778018699158,0.356180339068647
-0.18549405968426,0.357470359550386
-0.183202309683698,0.358759065391796
-0.180902706510873,0.360046425563631
-0.178595187979186,0.361332409036646
-0.17627969190204,0.362616984781593
-0.173956156092834,0.363900121769229
-0.171624518364971,0.365181788970306
-0.169284716531852,0.366461955355579
-0.166936688406877,0.367740589895802
-0.164580371803449,0.36901766156173
-0.162215704534968,0.370293139324116
-0.159842624414835,0.371566992153714
-0.157461069256453,0.372839189021279
-0.155070976873222,0.374109698897566
-0.152672285078543,0.375378490753327
-0.150264931685818,0.376645533559318
-0.147848854508448,0.377910796286292
-0.145423991359834,0.379174247905004
-0.142990280053378,0.380435857386207
-0.14054765840248,0.381695593700657
-0.138096064220543,0.382953425819107
-0.135635435320966,0.384209322712311
-0.133165709517153,0.385463253351024
-0.130686824622503,0.386715186705999
-0.128198718450418,0.387965091747991
-0.1257013288143,0.389212937447754
-0.123194593527549,0.390458692776043
-0.120678450403567,0.391702326703611
-0.118152837255756,0.392943808201212
-0.115617691897515,0.394183106239601
-0.113072952142248,0.395420189789532
-0.110518555803354,0.396655027821759
-0.107954440694236,0.397887589307036
-0.105380544628294,0.399117843216118
-0.102796805418929,0.400345758519758
-0.100203160879544,0.401571304188711
-0.0975995488235389,0.402794449193731
-0.0949859070643153,0.404015162505572
-0.0923621734152746,0.405233413094988
-0.0897282856898178,0.406449169932733
-0.0870841817013465,0.407662401989563
-0.0844297992632616,0.40887307823623
-0.0817650761889646,0.410081167643489
-0.0790899502918566,0.411286639182094
-0.0764043593853391,0.412489461822799
-0.0737082412828131,0.413689604536359
-0.0710015337976801,0.414887036293528
-0.0682841747433412,0.416081726065059
-0.0655561019331977,0.417273642821707
-0.0628172531806508,0.418462755534227
-0.060067566299102,0.419649033173371
-0.0573069791019522,0.420832444709896
-0.054535429402603,0.422012959114554
-0.0517528550144555,0.423190545358099
-0.048959193750911,0.424365172411287
-0.0461543834253707,0.425536809244871
-0.043338361851236,0.426705424829606
-0.040511066841908,0.427870988136245
-0.0376724362107881,0.429033468135542
-0.0348224077712775,0.430192833798253
-0.0319609193367775,0.43134905409513
-0.0290879087206892,0.432502097996929
-0.0262033137364141,0.433651934474403
-0.0233070721973533,0.434798532498307
-0.0203991219169082,0.435941861039394
-0.0174794007084799,0.43708188906842
-0.0145478463854698,0.438218585556137
-0.0116043967612791,0.439351919473301
-0.00864898964930909,0.440481859790665
-0.00568156286296094,0.441608375478984
-0.00270205421563613,0.442731435509011
0.000289598479264366,0.443851008851502
0.00329345740833902,0.444967064477209
0.00630958475818677,0.446079571356888
0.00933804271540617,0.447188498461292
0.0123788934665962,0.448293814761176
0.0154321991983552,0.449395489227294
0.0184980220972824,0.450493490830399
0.0215764243499762,0.451587788541247
0.0246674681430355,0.452678351330592
0.0277712156630588,0.453765148169186
0.0308877290966452,0.454848148027785
0.034017070630393,0.455927319877143
0.0371593024509014,0.457002632688015
0.0403144867447688,0.458074055431153
0.0434826856985942,0.459141557077313
0.046663961498976,0.460205106597248
0.0498583763325132,0.461264672961713
0.0530659923858045,0.462320225141461
0.0562868718454486,0.463371732107248
0.0595210768980441,0.464419162829827
0.06276866973019,0.465462486279953
0.0660297125284848,0.466501671428379
0.0693042674795275,0.467536687245859
0.0725923967699166,0.468567502703149
0.075894162586251,0.469594086771001
0.0792096271151292,0.470616408420171
0.0825388525431502,0.471634436621413
0.0858819010569125,0.47264814034548
0.0892388348430152,0.473657488563126
0.0926097160880565,0.474662450245107
0.0959946069786358,0.475662994362175
0.0993935697013512,0.476659089885086
0.102806666442802,0.477650705784594
0.106233959389586,0.478637811031452
0.109675510728303,0.479620374596415
0.113131382645552,0.480598365450236
0.11660163732793,0.481571752563671
0.120086336962037,0.482540504907474
0.123585543734472,0.483504591452397
0.127099319831833,0.484463981169197
0.130627727440719,0.485418643028626
0.134170828747729,0.486368546001439
0.137728685939461,0.48731365905839
0.141301361202515,0.488253951170234
0.144888916723488,0.489189391307724
0.14849141468898,0.490119948441615
0.15210891728559,0.491045591542661
0.155741486699915,0.491966289581616
0.159389185118556,0.492882011529234
0.16305207472811,0.493792726356269
0.166730217715177,0.494698403033476
0.170423676266354,0.495599010531608
0.174132512568242,0.496494517821421
0.177856788807438,0.497384893873667
0.181596567170542,0.498270107659102
0.185351909844151,0.499150128148479
0.189122879014866,0.500024924312553
0.192909536869283,0.500894465122078
0.196711945594004,0.501758719547807
0.200530167375625,0.502617656560496
0.204364264400746,0.503471245130897
0.208214298855965,0.504319454229767
0.212080332927882,0.505162252827858
0.215962428803094,0.505999609895924
0.219860648668202,0.506831494404721
0.223775054709802,0.507657875325002
0.227705709114495,0.508478721627521
0.231652674068879,0.509294002283032
0.235616011759552,0.51010368626229
0.239595784373114,0.510907742536049
0.243592054096163,0.511706140075063
0.247604883115297,0.512498847850086
0.251634333617117,0.513285834831873
0.255680467788219,0.514067069991176
0.259743347815204,0.514842522298752
0.263823035884669,0.515612160725353
0.267919594183214,0.516375954241735
0.272033084897438,0.51713387181865
0.276163570213938,0.517885882426855
0.280311112319314,0.518631955037101
0.284475773400164,0.519372058620144
0.288657615643088,0.520106162146738
0.292856701234684,0.520834234587638
0.29707309236155,0.521556244913596
0.301306851210286,0.522272162095368
0.30555803996749,0.522981955103707
0.309826720819761,0.523685592909368
0.314112955953697,0.524383044483105
0.318416807555898,0.525074278795672
0.322738337812962,0.525759264817824
0.327077608911488,0.526437971520314
0.327077608911488,0.526437971520314
0.331381581952983,0.527114510856589
0.335597454126015,0.527792996464932
0.339725641747772,0.528473399843352
0.343766561135442,0.529155692489856
0.347720628606212,0.529839845902452
0.351588260477269,0.530525831579149
0.355369873065803,0.531213621017953
0.359065882689,0.531903185716874
0.362676705664049,0.532594497173919
0.366202758308137,0.533287526887096
0.369644456938453,0.533982246354413
0.373002217872183,0.534678627073879
0.376276457426516,0.5353766405435
0.379467591918639,0.536076258261286
0.382576037665741,0.536777451725244
0.385602210985009,0.537480192433381
0.388546528193631,0.538184451883707
0.391409405608794,0.538890201574229
0.394191259547687,0.539597413002955
0.396892506327498,0.540306057667893
0.399513562265413,0.541016107067051
0.402054843678621,0.541727532698437
0.40451676688431,0.542440306060058
0.406899748199668,0.543154398649924
0.409204203941882,0.543869781966042
0.41143055042814,0.54458642750642
0.413579203975631,0.545304306769065
0.415650580901541,0.546023391251987
0.417645097523058,0.546743652453192
0.419563170157371,0.547465061870689
0.421405215121667,0.548187591002486
0.423171648733134,0.548911211346591
0.42486288730896,0.549635894401012
0.426479347166332,0.550361611663757
0.428021444622439,0.551088334632833
0.429489595994468,0.551816034806249
0.430884217599607,0.552544683682013
0.432205725755043,0.553274252758132
0.433454536777966,0.554004713532615
0.434631066985561,0.554736037503471
0.435735732695018,0.555468196168706
0.436768950223524,0.556201161026328
0.437731135888267,0.556934903574346
0.438622706006434,0.557669395310768
0.439444076895214,0.558404607733601
0.440195664871794,0.559140512340854
0.440877886253362,0.559877080630535
0.441491157357106,0.560614284100651
0.442035894500214,0.561352094249211
0.442512513999873,0.562090482574223
0.442921432173271,0.562829420573694
0.443263065337596,0.563568879745632
0.443537829810036,0.564308831588047
0.443746141907779,0.565049247598944
0.443888417948012,0.565790099276333
0.443965074247924,0.566531358118222
0.443976527124701,0.567272995622618
0.443923192895533,0.56801498328753
0.443805487877606,0.568757292610965
0.443623828388108,0.569499895090931
0.443378630744228,0.570242762225437
0.443070311263153,0.57098586551249
0.442699286262071,0.571729176450099
0.442265972058169,0.572472666536271
0.441770784968636,0.573216307269014
0.44121414131066,0.573960070146337
0.440596457401427,0.574703926666247
0.439918149558126,0.575447848326752
0.439179634097945,0.576191806625861
0.438381327338072,0.576935773061581
0.437523645595694,0.57767971913192
0.436607005187998,0.578423616334886
0.435631822432174,0.579167436168488
0.434598513645409,0.579911150130733
0.43350749514489,0.580654729719629
0.432359183247806,0.581398146433184
0.431153994271343,0.582141371769407
0.429892344532691,0.582884377226304
0.428574650349036,0.583627134301885
0.427201328037567,0.584369614494157
0.425772793915471,0.585111789301129
0.424289464299936,0.585853630220807
0.42275175550815,0.5865951087512
0.421160083857302,0.587336196390316
0.419514865664577,0.588076864636164
0.417816517247165,0.58881708498675
0.416065454922253,0.589556828940084
0.414262095007029,0.590296067994172
0.412406853818681,0.591034773647024
0.410500147674397,0.591772917396647
0.408542392891364,0.592510470741048
0.40653400578677,0.593247405178236
0.404475402677803,0.59398369220622
0.402366999881651,0.594719303323006
0.400209213715501,0.595454210026604
0.398002460496542,0.59618838381502
0.395747156541961,0.596921796186263
0.393443718168946,0.597654418638341
0.391092561694685,0.598386222669262
0.388694103436366,0.599117179777033
0.386248759711176,0.599847261459664
0.383756946836303,0.600576439215162
0.381219081128935,0.601304684541534
0.37863557890626,0.602031968936789
0.376006856485466,0.602758263898934
0.37333333018374,0.603483540925979
0.37061541631827,0.60420777151593
0.367853531206245,0.604930927166796
0.365048091164851,0.605652979376585
0.362199512511277,0.606373899643304
0.35930821156271,0.607093659464962
0.356374604636339,0.607812230339567
0.353399108049351,0.608529583765126
0.350382138118933,0.609245691239648
0.347324111162274,0.609960524261141
0.344225443496562,0.610674054327612
0.341086551438984,0.61138625293707
0.337907851306728,0.612097091587523
0.334689759416982,0.612806541776978
0.331432692086934,0.613514575003443
0.328137065633771,0.614221162764928
0.324803296374682,0.614926276559438
0.321431800626853,0.615629887884983
0.318022994707474,0.616331968239571
0.314577294933731,0.617032489121209
0.311095117622813,0.617731422027906
0.307576879091906,0.618428738457669
0.304022995658201,0.619124409908507
0.300433883638883,0.619818407878427
0.296809959351141,0.620510703865437
0.293151639112162,0.621201269367546
0.289459339239134,0.621890075882761
0.285733476049246,0.622577094909091
0.281974465859685,0.623262297944542
0.278182724987638,0.623945656487125
0.274358669750294,0.624627142034845
0.270502716464841,0.625306726085712
0.266615281448465,0.625984380137733
0.262696781018356,0.626660075688917
0.2587476314917,0.627333784237271
0.254768249185686,0.628005477280803
0.250759050417501,0.628675126317521
0.246720451504334,0.629342702845433
0.242652868763371,0.630008178362548
0.238556718511801,0.630671524366873
0.234432417066812,0.631332712356416
0.230280380745591,0.631991713829185
0.226101025865326,0.632648500283188
0.221894768743206,0.633303043216434
0.217662025696417,0.633955314126929
0.213403213042147,0.634605284512683
0.209118747097585,0.635252925871703
0.204809044179919,0.635898209701997
0.200474520606335,0.636541107501573
0.196115592694022,0.637181590768438
0.191732676760168,0.637819631000603
0.18732618912196,0.638455199696073
0.182896546096587,0.639088268352857
0.178444164001235,0.639718808468963
0.173969459153093,0.640346791542399
0.169472847869349,0.640972189071173
0.164954746467191,0.641594972553293
0.160415571263805,0.642215113486766
0.155855738576381,0.642832583369602
0.151275664722106,0.643447353699808
0.146675766018167,0.644059395975392
0.142056458781752,0.644668681694361
0.13741815933005,0.645275182354724
0.132761283980248,0.645878869454489
0.128086249049534,0.646479714491664
0.123393470855095,0.647077688964257
0.118683365714121,0.647672764370276
0.113956349943797,0.648264912207728
0.109212839861312,0.648854103974622
0.104453251783854,0.649440311168966
0.0996780020286114,0.650023505288768
0.094887506912771,0.650603657832036
0.0900821827535206,0.651180740296776
0.0852624458680484,0.651754724180999
0.0804287125735422,0.652325580982712
0.0755813991871897,0.652893282199922
0.0707209220261787,0.653457799330638
0.0658476974076969,0.654019103872867
0.0609621416489324,0.654577167324618
0.0560646710670728,0.655131961183899
0.0511557019793058,0.655683456948717
0.0462356507028194,0.656231626117081
0.0413049335548014,0.656776440186999
0.0363639668524395,0.657317870656478
0.0314131669129215,0.657855889023526
0.0264529500534352,0.658390466786152
0.0214837325911686,0.658921575442364
0.0165059308433093,0.659449186490169
0.0115199611270452,0.659973271427576
0.00652623975956387,0.660493801752591
0.00152518305805352,0.661010748963225
-0.00348279266029827,0.661524084557484
-0.00849727107830384,0.662033780033376
-0.0135178358787752,0.66253980688891
-0.0185440707445245,0.663042136622093
-0.0235755593583641,0.663540740730934
-0.028611885403106,0.66403559071344
-0.0336526325615627,0.664526658067619
-0.0386973845165459,0.66501391429148
-0.0437457249508685,0.66549733088303
-0.0487972375473419,0.665976879340277
-0.053851505988779,0.666452531161229
-0.0589081139579914,0.666924257843895
-0.0639666451377919,0.667392030886282
-0.0690266832109921,0.667855821786398
-0.0740878118604048,0.668315602042252
-0.0791496147688416,0.668771343151851
-0.0842116756191151,0.669223016613203
-0.0892735780940373,0.669670593924316
-0.0943349058764206,0.670114046583198
-0.0993952426490769,0.670553346087858
-0.104454172094819,0.670988463936302
-0.109511277896458,0.67141937162654
-0.114566143736807,0.671846040656579
-0.119618353298678,0.672268442524427
-0.124667490264883,0.672686548728092
-0.129713138318234,0.673100330765582
-0.134754881141545,0.673509760134906
-0.139792302417625,0.67391480833407
-0.144824985829289,0.674315446861083
-0.149852515059348,0.674711647213954
-0.154874473790614,0.675103380890689
-0.159890445705899,0.675490619389297
-0.164900014488017,0.675873334207787
-0.169902763819778,0.676251496844165
-0.174898277383996,0.67662507879644
-0.179886138863481,0.67699405156262
-0.184865931941048,0.677358386640713
-0.189837240299506,0.677718055528727
-0.19479964762167,0.67807302972467
-0.199752737590351,0.67842328072655
-0.204696093888361,0.678768780032374
-0.209629300198513,0.679109499140152
-0.214551940203618,0.67944540954789
-0.219463597586489,0.679776482753597
-0.224363856029939,0.680102690255281
-0.229252299216778,0.68042400355095
-0.23412851082982,0.680740394138611
-0.238992074551877,0.681051833516273
-0.24384257406576,0.681358293181944
-0.248679593054283,0.681659744633632
-0.253502715200257,0.681956159369344
-0.258311524186494,0.682247508887089
-0.263105603695807,0.682533764684875
-0.267884537411008,0.682814898260709
-0.272647909014908,0.6830908811126
-0.277395302190321,0.683361684738556
-0.282126300620059,0.683627280636584
-0.286840487986933,0.683887640304693
-0.291537447973756,0.684142735240891
-0.29621676426334,0.684392536943185
-0.300878020538497,0.684637016909583
-0.30552080048204,0.684876146638095
-0.31014468777678,0.685109897626726
-0.31474926610553,0.685338241373487
-0.319334119151102,0.685561149376383
-0.323898830596308,0.685778593133425
-0.328442984123961,0.685990544142618
-0.332966163416872,0.686196973901973
-0.337467952157854,0.686397853909495
-0.341947934029719,0.686593155663195
-0.346405692715279,0.686782850661078
-0.350840811897346,0.686966910401154
-0.355252875258733,0.68714530638143
-0.359641466482252,0.687318010099915
-0.364006169250715,0.687484993054616
-0.368346567246934,0.687646226743542
-0.372662244153721,0.687801682664699
-0.376952783653889,0.687951332316097
-0.381217769430249,0.688095147195744
-0.385456785165615,0.688233098801646
-0.389669414542798,0.688365158631813
-0.39385524124461,0.688491298184253
-0.398013848953863,0.688611488956972
-0.402144821353371,0.68872570244798
-0.406247742125944,0.688833910155284
-0.410322194954395,0.688936083576892
-0.414367763521537,0.689032194210812
-0.418384031510181,0.689122213555053
-0.42237058260314,0.689206113107621
-0.426327000483226,0.689283864366526
-0.430252868833251,0.689355438829775
-0.434147771336027,0.689420807995376
-0.438011291674367,0.689479943361337
-0.441843013531082,0.689532816425666
-0.445642520588986,0.689579398686372
-0.449409396530889,0.689619661641461
-0.453143225039605,0.689653576788942
-0.456843589797945,0.689681115626824
-0.460510074488722,0.689702249653113
-0.464142262794747,0.689716950365819
-0.467739738398834,0.689725189262948
-0.471302084983794,0.689726937842509
-0.47482888623244,0.689722167602511
-0.478319725827583,0.68971085004096
-0.481774187452036,0.689692956655865
-0.485191854788611,0.689668458945235
-0.48857231152012,0.689637328407076
-0.491915141329376,0.689599536539397
-0.495219927899191,0.689555054840205
-0.498486254912376,0.68950385480751
-0.501713706051744,0.689445907939318
-0.504901865000108,0.689381185733639
-0.508050315440279,0.689309659688479
-0.511158641055069,0.689231301301847
-0.514226425527292,0.68914608207175
-0.517253252539758,0.689053973496198
-0.520238705775281,0.688954947073197
-0.523182368916672,0.688848974300756
-0.526083825646744,0.688736026676883
-0.528942659648308,0.688616075699585
-0.531758454604178,0.688489092866871
-0.534530794197164,0.688355049676749
-0.53725926211008,0.688213917627226
-0.539943442025738,0.688065668216311
-0.542582917626949,0.687910272942012
-0.545177272596527,0.687747703302336
-0.547726090617282,0.687577930795293
-0.550228955372028,0.687400926918888
-0.552685450543577,0.687216663171131
-0.55509515981474,0.68702511105003
-0.55745766686833,0.686826242053592
-0.55977255538716,0.686620027679826
-0.562039409054041,0.686406439426739
-0.564257811551785,0.68618544879234
-0.566427346563205,0.685957027274636
-0.568547597771113,0.685721146371636
-0.570618148858321,0.685477777581347
-0.572638583507642,0.685226892401778
-0.574608485401887,0.684968462330936
-0.576527438223869,0.68470245886683
-0.578395025656399,0.684428853507467
-0.580210831382291,0.684147617750855
-0.581974439084356,0.683858723095003
-0.583685432445407,0.683562141037917
-0.585343395148255,0.683257843077608
-0.586947910875714,0.682945800712082
-0.588498563310594,0.682625985439347
-0.589994936135709,0.682298368757411
-0.59143661303387,0.681962922164283
-0.59282317768789,0.68161961715797
-0.59415421378058,0.68126842523648
-0.595429304994754,0.680909317897821
-0.596648035013223,0.680542266640002
-0.5978099875188,0.68016724296103
-0.598914746194296,0.679784218358913
-0.599961894722525,0.679393164331659
-0.600951016786297,0.678994052377277
-0.601881696068425,0.678586853993773
-0.602753516251722,0.678171540679157
-0.603566061019,0.677748083931436
-0.60431891405307,0.677316455248618
-0.605011659036746,0.676876626128711
-0.605643879652839,0.676428568069723
-0.606215159584161,0.675972252569662
-0.606725082513525,0.675507651126536
-0.607173232123743,0.675034735238354
-0.607559192097626,0.674553476403122
-0.607882546117988,0.674063846118849
-0.608142877867641,0.673565815883544
-0.608339771029396,0.673059357195213
-0.608472809286066,0.672544441551865
-0.608541576320462,0.672021040451509
-0.608545655815398,0.671489125392151
-0.608484631453686,0.6709486678718
-0.608358086918137,0.670399639388464
-0.608165605891564,0.669842011440151
-0.607906772056779,0.669275755524869
-0.607581169096594,0.668700843140625
-0.607188380693821,0.668117245785429
-0.606727990531273,0.667524934957287
-0.606199582291762,0.666923882154208
-0.6056027396581,0.6663140588742
-0.604937046313099,0.665695436615271
-0.604202085939571,0.665067986875429
-0.603397442220329,0.664431681152681
-0.602522698838185,0.663786490945036
-0.601577439475951,0.663132387750502
-0.600561247816439,0.662469343067087
-0.599473707542461,0.661797328392798
-0.598314402336829,0.661116315225644
-0.597082915882357,0.660426275063632
-0.595778831861856,0.659727179404772
-0.594401733958137,0.65901899974707
-0.592951205854014,0.658301707588534
-0.591426831232298,0.657575274427173
-0.589828193775802,0.656839671760995
-0.588154877167338,0.656094871088007
-0.586406465089719,0.655340843906218
-0.584582541225755,0.654577561713636
-0.58268268925826,0.653804996008268
-0.580706492870046,0.653023118288123
-0.578653535743925,0.652231900051208
-0.576523401562708,0.651431312795531
-0.576523401562708,0.651431312795531
-0.574354528774894,0.650617277071857
-0.572185601169318,0.649785838649082
-0.570016570439306,0.648937156852411
-0.567847388278179,0.648071391007053
-0.565678006379262,0.647188700438214
-0.563508376435876,0.6462892444711
-0.561338450141348,0.645373182430918
-0.559168179188998,0.644440673642876
-0.556997515272151,0.64349187743218
-0.554826410084131,0.642526953124037
-0.552654815318259,0.641546060043652
-0.550482682667861,0.640549357516235
-0.548309963826259,0.63953700486699
-0.546136610486776,0.638509161421125
-0.543962574342736,0.637465986503847
-0.541787807087463,0.636407639440362
-0.539612260414279,0.635334279555878
-0.537435886016508,0.6342460661756
-0.535258635587473,0.633143158624736
-0.533080460820499,0.632025716228493
-0.530901313408907,0.630893898312077
-0.528721145046022,0.629747864200694
-0.526539907425166,0.628587773219553
-0.524357552239664,0.627413784693859
-0.522174031182838,0.62622605794882
-0.519989295948012,0.625024752309642
-0.51780329822851,0.623810027101532
-0.515615989717654,0.622582041649696
-0.513427322108768,0.621340955279342
-0.511237247095175,0.620086927315677
-0.509045716370199,0.618820117083906
-0.506852681627164,0.617540683909237
-0.504658094559391,0.616248787116877
-0.502461906860206,0.614944586032032
-0.50026407022293,0.613628239979909
-0.498064536340888,0.612299908285715
-0.495863256907404,0.610959750274657
-0.493660183615799,0.609607925271941
-0.491455268159397,0.608244592602775
-0.489248462231524,0.606869911592365
-0.4870397175255,0.605484041565917
-0.484828985734649,0.604087141848639
-0.482616218552296,0.602679371765737
-0.480401367671764,0.601260890642419
-0.478184384786375,0.599831857803891
-0.475965221589454,0.598392432575359
-0.473743829774322,0.59694277428203
-0.471520161034305,0.595483042249112
-0.469294167062725,0.594013395801811
-0.467065799552906,0.592533994265334
-0.464835010198171,0.591044996964887
-0.462601750691843,0.589546563225678
-0.460365972727245,0.588038852372913
-0.458127627997702,0.586522023731798
-0.455886668196536,0.584996236627541
-0.453643045017071,0.583461650385349
-0.45139671015263,0.581918424330429
-0.449147615296537,0.580366717787986
-0.446895712142114,0.578806690083227
-0.444640952382686,0.577238500541361
-0.442383287711575,0.575662308487593
-0.440122669822105,0.574078273247129
-0.4378590504076,0.572486554145178
-0.435592381161382,0.570887310506946
-0.433322613776776,0.569280701657639
-0.431049699947104,0.567666886922464
-0.428773591365689,0.566046025626628
-0.426494239725856,0.564418277095338
-0.424211596720927,0.562783800653801
-0.421925614044226,0.561142755627222
-0.419636243389076,0.55949530134081
-0.417343436448801,0.557841597119771
-0.415047144916724,0.556181802289312
-0.412747320486168,0.554516076174638
-0.410443914850457,0.552844578100959
-0.408136879702914,0.551167467393479
-0.405826166736862,0.549484903377406
-0.403511727645625,0.547797045377946
-0.401193514122527,0.546104052720307
-0.398871477860889,0.544406084729695
-0.396545570554037,0.542703300731317
-0.394215743895293,0.540995860050379
-0.39188194957798,0.539283922012089
-0.389544139295422,0.537567645941653
-0.387202264740943,0.535847191164278
-0.384856277607865,0.534122717005171
-0.382506129589513,0.532394382789538
-0.380151772379208,0.530662347842587
-0.377793157670276,0.528926771489524
-0.375430237156039,0.527187813055555
-0.37306296252982,0.525445631865888
-0.370691285484943,0.52370038724573
-0.368315157714731,0.521952238520287
-0.365934530912508,0.520201345014766
-0.363549356771596,0.518447866054374
-0.36115958698532,0.516691960964317
-0.358765173247003,0.514933789069802
-0.356366067249968,0.513173509696037
-0.353962220687538,0.511411282168227
-0.351553585253037,0.50964726581158
-0.349140112639788,0.507881619951303
-0.346721754541114,0.506114503912601
-0.344298462650339,0.504346077020683
-0.341870188660787,0.502576498600754
-0.33943688426578,0.500805927978022
-0.336998501158642,0.499034524477693
-0.334554991032696,0.497262447424974
-0.332106305581266,0.495489856145073
-0.329652396497676,0.493716909963195
-0.327193215475247,0.491943768204547
-0.324728714207304,0.490170590194336
-0.32225884438717,0.488397535257769
-0.319783557708169,0.486624762720053
-0.317302805863623,0.484852431906395
-0.314816540546857,0.483080702142
-0.312324713451193,0.481309732752077
-0.309827276269956,0.479539683061832
-0.307324180696467,0.477770712396471
-0.304815378424051,0.476002980081202
-0.302300821146032,0.474236645441231
-0.299780460555731,0.472471867801765
-0.297254248346473,0.47070880648801
-0.294722136211582,0.468947620825174
-0.29218407584438,0.467188470138463
-0.28964001893819,0.465431513753085
-0.287089917186337,0.463676910994245
-0.284533722282144,0.461924821187151
-0.281971385918933,0.460175403657009
-0.279402859790029,0.458428817729026
-0.276828095588754,0.45668522272841
-0.274247045008432,0.454944777980365
-0.271659659742387,0.453207642810101
-0.269065891483941,0.451473976542823
-0.266465691926419,0.449743938503738
-0.263859012763143,0.448017688018052
-0.261245805687436,0.446295384410973
-0.258626022392623,0.444577187007708
-0.255999614572027,0.442863255133463
-0.25336653391897,0.441153748113444
-0.250726732126777,0.43944882527286
-0.24808016088877,0.437748645936916
-0.245426771898273,0.436053369430819
-0.24276651684861,0.434363155079776
-0.240099347433103,0.432678162208994
-0.237425215345077,0.430998550143679
-0.234744072277854,0.429324478209039
-0.232055869924757,0.42765610573028
-0.229360559979111,0.425993592032609
-0.226658094134239,0.424337096441233
-0.223948424083463,0.422686778281358
-0.221231501520108,0.421042796878191
-0.218507278137496,0.41940531155694
-0.215775705628951,0.41777448164281
-0.213036735687797,0.416150466461009
-0.210290320007356,0.414533425336743
-0.207536410280952,0.412923517595219
-0.204774958201909,0.411320902561644
-0.20200591546355,0.409725739561225
-0.199229233759197,0.408138187919169
-0.196444864782176,0.406558406960681
-0.193652760225808,0.40498655601097
-0.190852871783417,0.403422794395241
-0.188045151148327,0.401867281438702
-0.185229550013861,0.400320176466559
-0.182406020073343,0.39878163880402
-0.179574513020095,0.39725182777629
-0.176734980547441,0.395730902708577
-0.173887374348705,0.394219022926087
-0.171031646117209,0.392716347754028
-0.168167747546278,0.391223036517606
-0.165295630329234,0.389739248542027
-0.162415246159401,0.388265143152499
-0.159526546730102,0.386800879674228
-0.156629483734661,0.385346617432422
-0.1537240088664,0.383902515752286
-0.150810073818644,0.382468733959028
-0.147887630284716,0.381045431377855
-0.144956629957939,0.379632767333972
-0.142017024531636,0.378230901152588
-0.139068765699131,0.376839992158908
-0.136111805153748,0.37546019967814
-0.133146094588808,0.37409168303549
-0.130171585697637,0.372734601556166
-0.127188230173557,0.371389114565373
-0.124195979709891,0.370055381388319
-0.121194785999964,0.36873356135021
-0.118184600737098,0.367423813776254
-0.115165375614616,0.366126297991657
-0.112137062325843,0.364841173321625
-0.1090996125641,0.363568599091366
-0.106052978022713,0.362308734626086
-0.102997110395004,0.361061739250992
-0.0999319613742964,0.359827772291291
-0.0968574826539136,0.35860699307219
-0.0937736259271789,0.357399560918895
-0.090680342887416,0.356205635156614
-0.0875775852279481,0.355025375110552
-0.0844653046420983,0.353858940105917
-0.0813434528231903,0.352706489467916
-0.0782119814645473,0.351568182521755
-0.0750708422594927,0.350444178592641
-0.07191998690135,0.349334637005781
-0.0687593670834423,0.348239717086381
-0.0655889344990932,0.347159578159649
-0.0624086408416258,0.346094379550791
-0.0592184378043639,0.345044280585014
-0.0560182770806303,0.344009440587525
-0.0528081103637488,0.342990018883531
-0.0495878893470425,0.341986174798237
-0.0463575657238351,0.340998067656852
-0.0431170911874495,0.340025856784582
-0.0398664174312094,0.339069701506633
-0.036605496148438,0.338129761148212
-0.0333342790324589,0.337206195034527
-0.0300527177765951,0.336299162490784
-0.0267607640741702,0.33540882284219
-0.0234583696185075,0.334535335413951
-0.0201454861029305,0.333678859531274
-0.0168220652207623,0.332839554519366
-0.0134880586653265,0.332017579703434
-0.0101434181299462,0.331213094408685
-0.00678809530794512,0.330426257960325
-0.0034220418926463,0.329657229683562
-4.52095773733757e-05,0.328906168903601
0.00334244994455059,0.32817323494565
0.00674098497980195,0.327458587134916
0.0101504438350576,0.326762384796604
0.0135708748169938,0.326084787255923
0.0170023262322877,0.325425953838079
0.0204448463876155,0.324786043868278
0.0238984835896541,0.324165216671728
0.0273632861450799,0.323563631573635
0.0308393023605699,0.322981447899206
0.0343265805428004,0.322418824973647
0.0378251689984482,0.321875922122166
0.0413351160341898,0.321352898669969
0.044856469956702,0.320849913942264
0.0483892790726612,0.320367127264256
0.0519335916887444,0.319904697961152
0.0554894561116279,0.319462785358161
0.0590569206479887,0.319041548780487
0.062636033604503,0.318641147553338
0.0662268432878477,0.318261741001921
0.0698293980046994,0.317903488451442
0.0734437460617348,0.317566549227109
0.0770699357656302,0.317251082654127
0.0807080154230628,0.316957248057705
0.0843580333407088,0.316685204763048
0.088020037825245,0.316435112095363
0.091694077183348,0.316207129379858
0.0953801997216945,0.316001415941738
0.0990784537469609,0.315818131106211
0.102788887565824,0.315657434198484
0.106511549484961,0.315519484543763
0.110246487811047,0.315404441467255
0.113993750850761,0.315312464294167
0.117753386910777,0.315243712349705
0.121525444297774,0.315198344959077
0.125309971318427,0.315176521447488
0.129107016279413,0.315178401140147
0.132916627487409,0.315204143362259
0.136738853249091,0.315253907439032
0.140573741871137,0.315327852695672
0.144421341660222,0.315426138457386
0.148281700923024,0.315548924049381
0.152154867966218,0.315696368796864
0.156040891096482,0.31586863202504
0.159939818620493,0.316065873059118
0.163851698844926,0.316288251224304
0.167776580076459,0.316535925845804
0.171714510621769,0.316809056248826
0.17566553878753,0.317107801758577
0.179629712880422,0.317432321700262
0.183607081207119,0.317782775399089
0.1875976920743,0.318159322180264
0.191601593788639,0.318562121368995
0.195618834656815,0.318991332290488
0.199649462985503,0.31944711426995
0.203693527081381,0.319929626632587
0.207751075251125,0.320439028703607
0.211822155801411,0.320975479808216
0.215906817038916,0.321539139271621
0.220005107270317,0.322130166419029
0.224117074802291,0.322748720575647
0.228242767941514,0.323394961066681
0.232382234994662,0.324069047217338
0.236535524268413,0.324771138352824
0.240702684069443,0.325501393798348
0.244883762704428,0.326259972879115
0.249078808480046,0.327047034920332
0.253287869702973,0.327862739247206
0.257510994679885,0.328707245184944
0.26174823171746,0.329580712058752
0.265999629122373,0.330483299193838
0.270265235201302,0.331415165915407
0.274545098260923,0.332376471548668
0.278839266607913,0.333367375418826
0.283147788548948,0.334388036851089
0.287470712390705,0.335438615170663
0.291808086439861,0.336519269702755
0.296159959003092,0.337630159772572
0.300526378387075,0.33877144470532
0.304907392898486,0.339943283826206
0.309303050844003,0.341145836460438
0.313713400530302,0.342379261933221
0.318138490264059,0.343643719569763
0.322578368351951,0.344939368695271
0.327033083100655,0.34626636863495
0.331502682816848,0.347624878714009
0.335987215807205,0.349015058257653
0.340486730378404,0.35043706659109
0.345001274837122,0.351891063039526
0.349530897490034,0.353377206928169
0.354075646643818,0.354895657582224
0.35863557060515,0.356446574326898
0.363210717680708,0.3580301164874
0.367801136177166,0.359646443388934
0.372406874401203,0.361295714356708
0.377027980659494,0.362978088715929
0.381664503258717,0.364693725791804
0.386316490505548,0.366442784909538
0.390983990706664,0.36822542539434
0.395667052168741,0.370041806571416
0.400365723198455,0.371892087765972
0.405080052102485,0.373776428303216
0.409810087187506,0.375694987508354
0.414555876760194,0.377647924706593
0.419317469127227,0.379635399223139
0.424094912595282,0.3816575703832
0.428888255471033,0.383714597511983
0.43369754606116,0.385806639934693
0.438522832672337,0.387933856976538
0.443364163611243,0.390096407962725
0.448221587184552,0.39229445221846
0.453095151698942,0.394528149068951
0.45798490546109,0.396797657839403
0.462890896777673,0.399103137855024
0.467813173955366,0.40144474844102
0.472751785300846,0.403822648922599
0.477706779120791,0.406236998624967
0.482678203721877,0.408687956873331
0.48766610741078,0.411175682992897
0.492670538494177,0.413700336308872
0.497691545278745,0.416262076146464
0.50272917607116,0.418861061830879
0.507783479178099,0.421497452687323
0.512854502906239,0.424171408041004
0.517942295562256,0.426883087217128
0.523046905452827,0.429632649540902
0.528168380884628,0.432420254337533
0.533306770164336,0.435246060932228
0.538462121598629,0.438110228650193
0.543634483494181,0.441012916816635
0.548823904157671,0.443954284756761
0.554030431895775,0.446934491795778
0.559254115015168,0.449953697258892
0.564495001822529,0.45301206047131
0.569753140624534,0.456109740758239
0.575028579727858,0.459246897444887
0.58032136743918,0.462423689856458
0.585631552065175,0.465640277318162
0.59095918191252,0.468896819155203
0.596304305287893,0.472193474692789
0.601666970497968,0.475530403256127
0.607047225849423,0.478907764170423
0.612445119648936,0.482325716760885
0.617860700203182,0.485784420352719
0.623294015818837,0.489284034271131
0.628745114802579,0.492824717841329
0.634214045461085,0.496406630388519
0.63970085610103,0.500029931237909
0.645205595029092,0.503694779714704
0.650728310551947,0.507401335144112
0.656269050976272,0.511149756851339
0.661827864608744,0.514940204161593
0.667404799756038,0.51877283640008
0.672999904724832,0.522647812892006
0.678613227821803,0.526565292962579
0.684244817353627,0.530525435937005
0.68989472162698,0.534528401140492
0.695562988948539,0.538574347898245
0.701249667624982,0.542663435535472
0.706954805962983,0.54679582337738
0.712678452269221,0.550971670749174
0.718420654850372,0.555191136976063
0.724181462013113,0.559454381383253
0.729960922064119,0.56376156329595
0.735759083310068,0.568112842039361
0.741575994057637,0.572508376938693
0.747411702613501,0.576948327319153
0.753266257284339,0.581432852505949
0.759139706376825,0.585962111824285
0.765032098197638,0.59053626459937
0.770943481053452,0.595155470156409
0.776873903250947,0.59981988782061
0.782823413096796,0.60452967691718
0.788792058897679,0.609284996771326
0.79477988896027,0.614086006708253
0.800786951591248,0.618932866053169
