0.656765674693175,0.469210442274309
0.749970557738286,0.485386999915158
0.753864329926528,0.533049658088413
0.761501623631919,0.612215119555625
0.754593757502625,0.593101735926701
0.781656755951095,0.620919793505491
0.820541921554803,0.640473574358972
0.804313925474498,0.647997290114494
0.808675424806099,0.687914331839832
0.820899677912224,0.662055974816584
0.876860884054988,0.684514360365174
0.869089745448751,0.622087606593027
0.880214452502515,0.661905828704387
0.828530862241383,0.641178850339369
0.869982995571428,0.601694008132074
0.838216650347287,0.63050812748911
0.876850399986506,0.632030018656814
0.849160551914012,0.599424914309966
0.869605951933137,0.572128921180316
0.828542710501568,0.553542544325694
0.785625862992767,0.550904105076463
0.815248452500666,0.497591265027272
0.777721225517114,0.468490021141464
0.780781858338468,0.397743490433518
0.771256262729447,0.412222471463071
0.798099758975862,0.404173586740382
0.804753933713537,0.310859456458096
0.756542784499423,0.225490572629825
0.786315640229669,0.253379311394778
0.695973511663532,0.188614812815076
0.7288168718649,0.134071422065784
0.762063903518636,0.0658709002054412
0.704246642075714,0.0299594917689856
0.691529296430618,-0.0249486292159275
0.700533599570579,-0.105522980390381
0.643601644006217,-0.129860390343131
0.699179528792281,-0.21238301240848
0.683033737856003,-0.273404176317322
0.674744865455626,-0.281137410010902
0.632826022364569,-0.439401049967651
0.56979897250789,-0.499552825480738
0.588519037646211,-0.513378419263611
0.554231795015218,-0.578300568622489
0.588991773494422,-0.570288628179244
0.566556824451926,-0.650682754790539
0.56307566300538,-0.680742247927774
0.605139987206412,-0.727579406219991
0.560557884573747,-0.719454229107433
0.543557951148713,-0.732034070691339
0.587020545392259,-0.710669903532562
0.564605528165285,-0.729394495546877
0.547373495664373,-0.753034844070257
0.615981276552009,-0.682058027676367
0.587665483125726,-0.708696101964729
0.615286669007046,-0.659515168636679
0.577607320056662,-0.641575758319137
0.579173806371964,-0.611588018123762
0.589750555511901,-0.55871862308179
0.574603293563365,-0.543458252412842
0.577861061294328,-0.503244580926372
0.574688956057345,-0.462201097969486
0.606917027192256,-0.370656798599631
0.566149634041789,-0.353567965957698
0.576915802235374,-0.342924467308879
0.542484273094496,-0.282964026521144
0.570988657745223,-0.228609115807499
0.511604261150437,-0.189338093937687
0.496739536373433,-0.160078745319623
0.468535011180866,-0.0968733153819002
0.441881580284069,-0.0519746600988819
0.404193732585225,-0.0172504438573555
0.384133646246486,0.0691209673766651
0.366223359974708,0.0647819848092259
0.296029295194004,0.110344256212037
0.229747333377749,0.155424536714769
0.196492102493562,0.176107804561612
0.0906033328209046,0.19192763624247
0.0768767519724225,0.227774661106735
0.00899192587664786,0.24742352871813
-0.0884629801865515,0.221579394343526
-0.171673445537371,0.277221487730544
-0.176606407405822,0.234125264971636
-0.323858666914078,0.305921061395797
-0.349641043403939,0.30165634166951
-0.439757493859896,0.302774995058399
-0.458114261552301,0.326413139015271
-0.502848268792415,0.317775227750541
-0.493838744705818,0.399945772890187
-0.572642874290481,0.366874308136286
-0.598558683841929,0.380461610735222
-0.610963528620678,0.435919928051976
-0.632881604654738,0.406606565367937
-0.656366403061675,0.374262987783111
-0.669321949353087,0.383056807826934
-0.647408452533031,0.44231492323249
-0.6803394237319,0.465321660571836
-0.663421684861912,0.473515710211135
-0.645674444913019,0.441911274606416
-0.586891082172845,0.434409225368383
-0.60537788918229,0.473460035329834
-0.574980206914011,0.449554395698439
-0.521555302993831,0.501212571938146
-0.466452139689741,0.488487222334189
-0.395406040190518,0.447540700532862
-0.366617091741192,0.476025277856123
-0.313878472304938,0.406586328690531
-0.258625286780129,0.40848103845489
-0.201095303510837,0.386979950038088
-0.140325774636343,0.361661141718356
-0.111395672938116,0.344435711806516
-0.0451392854714545,0.304556265643718
0.0599502626986362,0.260831697503155
0.132208151074224,0.21827530973328
0.162487321381273,0.173640521786061
0.2821668223006,0.113355253352277
0.323560557128472,0.0389916455247491
0.471332695917898,0.0125868078217632
0.528127459292911,-0.07045607612506
0.571508000086058,-0.133451377709769
0.742857651463694,-0.218291345417715
