-0.924099544390428,-0.989633691141681
-0.920368353162505,-0.975712250007749
-0.91662035829486,-0.961901915223306
-0.912855774109283,-0.9482023555186
-0.909074814927562,-0.934613239623873
-0.905277695071489,-0.921134236269371
-0.901464628862851,-0.907765014185338
-0.89763583062344,-0.894505242102019
-0.893791514675044,-0.881354588749658
-0.889931895339453,-0.868312722858501
-0.886057186938457,-0.855379313158791
-0.882167603793845,-0.842554028380773
-0.878263360227407,-0.829836537254693
-0.874344670560932,-0.817226508510794
-0.870411749116211,-0.804723610879321
-0.866464810215033,-0.792327513090519
-0.862504068179187,-0.780037883874633
-0.858529737330463,-0.767854391961907
-0.85454203199065,-0.755776706082586
-0.850541166481539,-0.743804494966914
-0.846527355124919,-0.731937427345136
-0.842500812242579,-0.720175171947497
-0.838461752156309,-0.708517397504241
-0.834410389187898,-0.696963772745613
-0.830346937659138,-0.685513966401858
-0.826271611891816,-0.674167647203221
-0.822184626207722,-0.662924483879945
-0.818086194928647,-0.651784145162275
-0.813976532376379,-0.640746299780457
-0.809855852872709,-0.629810616464734
-0.805724370739425,-0.618976763945352
-0.801582300298318,-0.608244410952555
-0.797429855871178,-0.597613226216588
-0.793267251779793,-0.587082878467695
-0.789094702345953,-0.576653036436121
-0.784912421891449,-0.56632336885211
-0.780720624738069,-0.556093544445908
-0.776519525207603,-0.545963231947759
-0.772309337621841,-0.535932100087907
-0.768090276302573,-0.525999817596598
-0.763862555571587,-0.516166053204075
-0.759626389750675,-0.506430475640584
-0.755381993161624,-0.496792753636368
-0.751129580126226,-0.487252555921674
-0.746869364966269,-0.477809551226744
-0.742601562003543,-0.468463408281825
-0.738326385559838,-0.45921379581716
-0.734044049956943,-0.450060382562995
-0.729754769516648,-0.441002837249573
-0.725458758560743,-0.43204082860714
-0.721156231411016,-0.42317402536594
-0.716847402389259,-0.414402096256218
-0.71253248581726,-0.405724710008218
-0.708211696016809,-0.397141535352186
-0.703885247309695,-0.388652241018365
-0.699553354017709,-0.380256495737
-0.69521623046264,-0.371953968238336
-0.690874090966277,-0.363744327252618
-0.68652714985041,-0.35562724151009
-0.682175621436829,-0.347602379740997
-0.677819720047323,-0.339669410675584
-0.673459660003682,-0.331828003044095
-0.669095655627695,-0.324077825576774
-0.664727921241153,-0.316418547003867
-0.660356671165844,-0.308849836055618
-0.655982119723559,-0.301371361462271
-0.651604481236086,-0.293982791954072
-0.647223970025216,-0.286683796261265
-0.642840800412739,-0.279474043114094
-0.638455186720443,-0.272353201242805
-0.634067343270118,-0.265320939377642
-0.629677484383555,-0.258376926248848
-0.625285824382542,-0.251520830586671
-0.620892577588869,-0.244752321121352
-0.616497958324326,-0.238071066583139
-0.612102180910702,-0.231476735702274
-0.607705459669788,-0.224968997209003
-0.603308008923372,-0.218547519833571
-0.598910042993245,-0.212211972306221
-0.594511776201195,-0.205962023357199
-0.590113422869013,-0.199797341716749
-0.585715197318488,-0.193717596115116
-0.58131731387141,-0.187722455282544
-0.576919986849568,-0.181811587949279
-0.572523430574752,-0.175984662845564
-0.568127859368752,-0.170241348701645
-0.563733487553356,-0.164581314247766
-0.559340529450356,-0.159004228214171
-0.554949199381539,-0.153509759331106
-0.550559711668697,-0.148097576328815
-0.546172280633619,-0.142767347937542
-0.541787120598093,-0.137518742887532
-0.537404445883911,-0.13235142990903
-0.533024470812861,-0.127265077732281
-0.528647409706733,-0.122259355087529
-0.524273476887317,-0.117333930705019
-0.519902886676401,-0.112488473314995
-0.515535853395777,-0.107722651647702
-0.511172591367234,-0.103036134433385
-0.50681331491256,-0.098428590402288
-0.502458238353546,-0.093899688284656
-0.498107576011982,-0.0894490968107336
-0.493761542209656,-0.0850764847107653
-0.489420351268359,-0.0807815207149959
-0.48508421750988,-0.0765638735536701
-0.480753355256009,-0.0724232119570323
-0.476427978828535,-0.0683592046553273
-0.472108302549248,-0.0643715203787995
-0.467794540739938,-0.0604598278576939
-0.463486907722395,-0.0566237958222551
-0.459185617818406,-0.0528630930027273
-0.454890885349764,-0.0491773881293555
-0.450602924638256,-0.0455663499323844
-0.446321950005673,-0.0420296471420584
-0.442048175773804,-0.0385669484886223
-0.437781816264439,-0.0351779227023205
-0.433523085799368,-0.031862238513398
-0.42927219870038,-0.0286195646520992
-0.425029369289265,-0.0254495698486687
-0.420794811887811,-0.0223519228333513
-0.41656874081781,-0.0193262923363916
-0.412351370401051,-0.0163723470880341
-0.408142914959322,-0.0134897558185234
-0.403943588814414,-0.0106781872581044
-0.399753606288117,-0.00793731013702163
-0.39557318170222,-0.00526679318551962
-0.391402529378512,-0.00266630513384311
-0.387241863638783,-0.00013551471223669
-0.383091398804823,0.00232590934905498
-0.378951349198422,0.00471829831978729
-0.374821929141369,0.00704198346971568
-0.370703352955453,0.00929729606859533
-0.366595834962465,0.0114845673861817
-0.362499589484194,0.0136041286922301
-0.358414830842429,0.0156563112564961
-0.35434177335896,0.0176414463487348
-0.350280631355577,0.0195598652387016
-0.346231619154069,0.0214118991961521
-0.342194951076226,0.0231978794908415
-0.338170841443837,0.0249181373925252
-0.334159504578693,0.0265730041709584
-0.330161154802583,0.0281628110958966
-0.326176006437296,0.0296878894370953
-0.322204273804622,0.0311485704643096
-0.31824617122635,0.032545185447295
-0.314301913024271,0.0338780656558069
-0.310371713520174,0.0351475423596006
-0.306455787035848,0.0363539468284315
-0.302554347893083,0.037497610332055
-0.298667610413669,0.0385788641402263
-0.294795788919395,0.0395980395227009
-0.29093909773205,0.0405554677492342
-0.287097751173426,0.0414514800895814
-0.28327196356531,0.0422864078134981
-0.279461949229494,0.0430605821907395
-0.275667922487765,0.043774334491061
-0.271890097661914,0.0444279959842179
-0.268128689073731,0.0450218979399657
-0.264383911045006,0.0455563716280596
-0.260655977897526,0.0460317483182551
-0.256945103953084,0.0464483592803076
-0.253251503533467,0.0468065357839723
-0.249575390960466,0.0471066090990046
-0.24591698055587,0.04734891049516
-0.242276486641469,0.0475337712421938
-0.238654123539052,0.0476615226098612
-0.23505010557041,0.0477324958679178
-0.231464647057331,0.0477470222861188
-0.227897962321605,0.0477054331342198
-0.224350265685022,0.0476080596819758
-0.220821771469372,0.0474552331991425
-0.217312693996443,0.047247284955475
-0.213823247588027,0.0469845462207289
-0.210353646565912,0.0466673482646594
-0.206904105251888,0.0462960223570219
-0.203474837967744,0.0458708997675718
-0.20006605903527,0.0453923117660645
-0.196677982776256,0.0448605896222553
-0.193310823512492,0.0442760646058995
-0.189964795565766,0.0436390679867526
-0.18664011325787,0.0429499310345699
-0.183336990910591,0.0422089850191067
-0.18005564284572,0.0414165612101185
-0.176796283385047,0.0405729908773605
-0.17355912685036,0.0396786052905883
-0.170344387563451,0.0387337357195571
-0.167152279846107,0.0377387134340223
-0.16398301802012,0.0366938697037391
-0.160836816407278,0.0355995357984632
-0.157713889329371,0.0344560429879497
-0.154614451108188,0.033263722541954
-0.15153871606552,0.0320229057302316
-0.148486898523156,0.0307339238225377
-0.145459212802886,0.0293971080886278
-0.142455873226499,0.0280127897982572
-0.139477094115784,0.0265813002211812
-0.136523089792532,0.0251029706271553
-0.133594074578532,0.0235781322859348
-0.130690262795573,0.022007116467275
-0.127811868765446,0.0203902544409313
-0.124959106809939,0.0187278774766592
-0.122132191250843,0.0170203168442138
-0.119331336409947,0.0152679038133508
-0.11655675660904,0.0134709696538252
-0.113808666169913,0.0116298456353927
-0.111087279414355,0.00974486302780838
-0.108392810664155,0.00781635310082782
-0.105725474241103,0.00584464712420625
-0.103085484466989,0.00383007636769912
-0.100473055663602,0.00177297210106167
-0.0978884021527327,-0.000326334405950549
-0.0953317382561694,-0.00246751188358232
-0.0928032782957023,-0.00465022906207818
-0.0903032365931209,-0.00687415467168288
-0.087831827470215,-0.00913895744264094
-0.085389265248774,-0.0114443061051971
-0.0829757642505876,-0.0137898693895959
-0.0805915387974454,-0.0161753160260821
-0.0782368032111371,-0.0186003147449001
-0.0759117718134521,-0.0210645342762949
-0.0736166589261802,-0.0235676433505108
-0.0713516788711109,-0.0261093106977926
-0.069117045970034,-0.0286892050483848
-0.0669129745447388,-0.0313069951325323
-0.0647396789170152,-0.0339623496804794
-0.0625973734086527,-0.0366549374224711
-0.0604862723414409,-0.0393844270887517
-0.0584065900371693,-0.042150487409566
-0.0563585408176277,-0.0449527871151586
-0.0543423390046056,-0.0477909949357743
-0.0523581989198928,-0.0506647796016574
-0.0504063348852785,-0.0535738098430528
-0.0484869612225528,-0.056517754390205
-0.046600292253505,-0.0594962819733588
-0.0447465422999248,-0.0625090613227585
-0.0429259256836018,-0.0655557611686493
-0.0411386567263257,-0.0686360502412752
-0.0393849497498858,-0.0717495972708814
-0.0376650190760721,-0.074896070987712
-0.035979079026674,-0.0780751401220122
-0.0343273439234812,-0.081286473404026
-0.0327100280882833,-0.0845297395639987
-0.0311273458428698,-0.0878046073321744
-0.0295795115090304,-0.0911107454387981
-0.0280667394085548,-0.0944478226141141
-0.0265892438632324,-0.0978155075883674
-0.025147239194853,-0.101213469091802
-0.0237409397252061,-0.104641375854664
-0.0223705597760813,-0.108098896607196
-0.0210363136692683,-0.111585700079644
-0.0197384157265567,-0.115101455002253
-0.0184770802697361,-0.118645830105266
-0.017252521620596,-0.122218494118929
-0.0160649541009262,-0.125819115773486
-0.0149145920325162,-0.129447363799182
-0.0138016497371555,-0.133102906926261
-0.0127263415366339,-0.136785413884969
-0.011688881752741,-0.140494553405549
-0.0106894847072664,-0.144229994218247
-0.00972836472199954,-0.147991405053307
-0.00880573611873023,-0.151778454640973
-0.007921813219248,-0.155590811711491
-0.00707681034534249,-0.159428144995104
-0.00627094181880325,-0.163290123222058
-0.00550442196141995,-0.167176415122598
-0.00477746509498218,-0.171086689426967
-0.00409028554127957,-0.17502061486541
-0.0034430976221017,-0.178977860168173
-0.00283611565923822,-0.1829580940655
-0.0022695539744787,-0.186960985287635
-0.00174362688961279,-0.190986202564823
-0.00125854872643004,-0.195033414627308
-0.000814533806720155,-0.199102290205336
-0.000411796452272677,-0.203192498029151
-5.0550984877178e-05,-0.207303706828997
0.000268988273676628,-0.21143558533512
0.000546607001599164,-0.215587802277763
0.000782090877100871,-0.219760026387172
0.00097522557839208,-0.223951926393591
0.00112579678368319,-0.228163171027264
0.00123359017118462,-0.232393429018437
0.00129839141910671,-0.236642369097354
0.00131998620565992,-0.24090965999426
0.0012981602090546,-0.245194970439399
0.00123269910750112,-0.249497969163016
0.00112338857920985,-0.253818324895355
0.000970014302391232,-0.258155706366662
0.000772361955255664,-0.262509782307181
0.000530217216013496,-0.266880221447155
0.000243365762875127,-0.271266692516831
-8.8406725949057e-05,-0.275668864246453
-0.000465314572248684,-0.280086405366265
-0.000887572097813299,-0.284518984606512
-0.00135539362443256,-0.288966270697439
-0.00186899347389607,-0.29342793236929
-0.00242858596799347,-0.29790363835231
-0.00303438542851435,-0.302393057376744
-0.00368660617724833,-0.306895858172835
-0.00438546253598495,-0.31141170947083
-0.00513116882651393,-0.315940280000972
-0.00592393937062485,-0.320481238493506
-0.00676398849010727,-0.325034253678676
-0.00765153050675078,-0.329598994286729
-0.00858677974234512,-0.334175129047907
-0.00956995051867976,-0.338762326692455
-0.0106012571575444,-0.34336025595062
-0.0116809139807286,-0.347968585552643
-0.0128091353100221,-0.352586984228772
-0.0139861354672143,-0.357215120709249
-0.015212128774095,-0.361852663724321
-0.0164873295524537,-0.366499282004231
-0.01781195212408,-0.371154644279224
-0.0191862108107636,-0.375818419279544
-0.0206103199342941,-0.380490275735438
-0.0220844938164609,-0.385169882377147
-0.023608946779054,-0.389856907934919
-0.0251838931438627,-0.394551021138997
-0.0268095472326767,-0.399251890719626
-0.0284861233672856,-0.40395918540705
-0.0302138358694791,-0.408672573931515
-0.0319928990610467,-0.413391725023264
-0.033823527263778,-0.418116307412543
-0.0357059347994627,-0.422845989829596
-0.0376403359898905,-0.427580441004667
-0.0396269451568507,-0.432319329668002
-0.0416659766221332,-0.437062324549845
-0.0437576447075274,-0.44180909438044
-0.0459021637348231,-0.446559307890033
-0.0480997480258098,-0.451312633808868
-0.0503506119022773,-0.456068740867189
-0.0526549696860148,-0.460827297795241
-0.0550130356988123,-0.46558797332327
-0.0574250242624592,-0.470350436181518
-0.0598911496987453,-0.475114355100232
-0.06241162632946,-0.479879398809655
-0.064986668476393,-0.484645236040033
-0.0676164904613339,-0.489411535521609
-0.0703013066060725,-0.49417796598463
-0.073041331232398,-0.498944196159338
-0.0758367786621004,-0.50370989477598
-0.0786878632169691,-0.508474730564799
-0.0815947992187939,-0.51323837225604
-0.0845578009893641,-0.518000488579947
-0.0875770828504696,-0.522760748266767
-0.0906528591238998,-0.527518820046742
-0.0937853441314446,-0.532274372650118
-0.0969747521948932,-0.53702707480714
-0.100221297636036,-0.541776595248051
-0.103525194776661,-0.546522602703097
-0.10688665793856,-0.551264765902522
-0.110305901443521,-0.556002753576571
-0.113783139613334,-0.560736234455489
-0.117318586769788,-0.56546487726952
-0.120912457234674,-0.570188350748908
-0.124564965329781,-0.574906323623899
-0.128276325376899,-0.579618464624737
-0.132046751697816,-0.584324442481667
-0.135876458614324,-0.589023925924933
-0.13976566044821,-0.59371658368478
-0.143714571521266,-0.598402084491453
-0.14772340615528,-0.603080097075195
-0.151792378672043,-0.607750290166253
-0.155921703393343,-0.61241233249487
-0.160111594640971,-0.617065892791292
-0.164362266736715,-0.621710639785762
-0.168673934002367,-0.626346242208526
-0.173046810759714,-0.630972368789827
-0.177481111330548,-0.635588688259911
-0.181977050036656,-0.640194869349023
-0.186534841199831,-0.644790580787406
-0.191154699141859,-0.649375491305307
-0.195836838184532,-0.653949269632968
-0.200581472649639,-0.658511584500635
-0.20538881685897,-0.663062104638553
-0.210259085134313,-0.667600498776966
-0.215192491797459,-0.672126435646119
-0.220189251170198,-0.676639583976256
-0.225249577574319,-0.681139612497622
-0.230373685331611,-0.685626189940462
-0.235561788763864,-0.69009898503502
-0.240814102192868,-0.694557666511541
-0.246130839940413,-0.699001903100269
-0.251512216328287,-0.70343136353145
-0.256958445678282,-0.707845716535328
-0.262469742312185,-0.712244630842147
-0.268046320551788,-0.716627775182153
-0.273688394718878,-0.720994818285589
-0.279396179135247,-0.7253454288827
-0.285169888122684,-0.729679275703732
-0.291009736002978,-0.733996027478928
-0.296915937097919,-0.738295352938533
-0.302888705729296,-0.742576920812793
-0.308928256218899,-0.746840399831951
-0.315034802888519,-0.751085458726252
-0.321208560059943,-0.755311766225941
-0.327449742054963,-0.759518991061263
-0.333758563195367,-0.763706801962462
-0.340135237802945,-0.767874867659782
-0.346579980199487,-0.772022856883469
-0.353093004706783,-0.776150438363767
-0.353093004706783,-0.776150438363767
-0.359619030220552,-0.780232320406314
-0.366102657451974,-0.784243641537065
-0.37254392344603,-0.788184715816746
-0.378942865247699,-0.79205585730608
-0.385299519901961,-0.795857380065791
-0.391613924453796,-0.799589598156602
-0.397886115948185,-0.803252825639238
-0.404116131430106,-0.806847376574422
-0.41030400794454,-0.810373565022879
-0.416449782536467,-0.813831705045331
-0.422553492250867,-0.817222110702502
-0.428615174132719,-0.820545096055118
-0.434634865227004,-0.823800975163901
-0.440612602578701,-0.826990062089575
-0.446548423232791,-0.830112670892864
-0.452442364234253,-0.833169115634491
-0.458294462628067,-0.836159710375182
-0.464104755459213,-0.839084769175659
-0.469873279772671,-0.841944606096646
-0.475600072613421,-0.844739535198867
-0.481285171026443,-0.847469870543046
-0.486928612056716,-0.850135926189907
-0.492530432749221,-0.852738016200174
-0.498090670148938,-0.85527645463457
-0.503609361300846,-0.857751555553819
-0.509086543249926,-0.860163633018645
-0.514522253041156,-0.862513001089771
-0.519916527719518,-0.864799973827923
-0.525269404329991,-0.867024865293823
-0.530580919917556,-0.869187989548195
-0.535851111527191,-0.871289660651763
-0.541080016203877,-0.873330192665252
-0.546267670992593,-0.875309899649384
-0.551414112938321,-0.877229095664883
-0.556519379086039,-0.879088094772474
-0.561583506480727,-0.88088721103288
-0.566606532167366,-0.882626758506826
-0.571588493190935,-0.884307051255033
-0.576529426596414,-0.885928403338228
-0.581429369428784,-0.887491128817133
-0.586288358733024,-0.888995541752473
-0.591106431554113,-0.89044195620497
-0.595883624937033,-0.891830686235349
-0.600619975926762,-0.893162045904334
-0.605315521568281,-0.894436349272649
-0.60997029890657,-0.895653910401017
-0.614584344986608,-0.896815043350162
-0.619157696853376,-0.897920062180809
-0.623690391551853,-0.89896928095368
-0.628182466127019,-0.8999630137295
-0.632633957623854,-0.900901574568992
-0.637044903087339,-0.901785277532881
-0.641415339562452,-0.902614436681889
-0.645745304094175,-0.903389366076741
-0.650034833727486,-0.904110379778162
-0.654283965507366,-0.904777791846874
-0.658492736478795,-0.905391916343601
-0.662661183686752,-0.905953067329068
-0.666789344176218,-0.906461558863997
-0.670877254992172,-0.906917705009113
-0.674924953179595,-0.90732181982514
-0.678932475783465,-0.907674217372802
-0.682899859848764,-0.907975211712821
-0.686827142420471,-0.908225116905923
-0.690714360543566,-0.908424247012831
-0.694561551263029,-0.908572916094269
-0.698368751623839,-0.90867143821096
-0.702135998670977,-0.908720127423628
-0.705863329449423,-0.908719297792998
-0.709550781004157,-0.908669263379792
-0.713198390380157,-0.908570338244736
-0.716806194622405,-0.908422836448552
-0.720374230775881,-0.908227072051965
-0.723902535885564,-0.907983359115698
-0.727391146996433,-0.907692011700475
-0.73084010115347,-0.90735334386702
-0.734249435401653,-0.906967669676057
-0.737619186785964,-0.906535303188309
-0.740949392351381,-0.906056558464501
-0.744240089142885,-0.905531749565356
-0.747491314205455,-0.904961190551598
-0.750703104584072,-0.904345195483951
-0.753875497323715,-0.903684078423138
-0.757008529469364,-0.902978153429884
-0.760102238066,-0.902227734564913
-0.763156660158602,-0.901433135888947
-0.76617183279215,-0.900594671462711
-0.769147793011623,-0.899712655346929
-0.772084577862003,-0.898787401602325
-0.774982224388268,-0.897819224289622
-0.777840769635399,-0.896808437469544
-0.780660250648376,-0.895755355202816
-0.783440704472179,-0.89466029155016
-0.786182168151786,-0.893523560572301
-0.788884678732179,-0.892345476329962
-0.791548273258337,-0.891126352883868
-0.794172988775241,-0.889866504294742
-0.796758862327869,-0.888566244623307
-0.799305930961202,-0.887225887930288
-0.801814231720221,-0.88584574827641
-0.804283801649904,-0.884426139722394
-0.806714677795231,-0.882967376328966
-0.809106897201184,-0.881469772156848
-0.811460496912741,-0.879933641266766
-0.813775513974882,-0.878359297719442
-0.816051985432588,-0.876747055575601
-0.818289948330838,-0.875097228895965
-0.820489439714613,-0.873410131741261
-0.822650496628891,-0.87168607817221
-0.824773156118653,-0.869925382249537
-0.82685745522888,-0.868128358033965
-0.82890343100455,-0.866295319586219
-0.830911120490644,-0.864426580967022
-0.832880560732142,-0.862522456237098
-0.834811788774023,-0.860583259457171
-0.836704841661268,-0.858609304687964
-0.838559756438856,-0.856600905990203
-0.840376570151767,-0.854558377424609
-0.842155319844982,-0.852482033051907
-0.84389604256348,-0.850372186932822
-0.84559877535224,-0.848229153128076
-0.847263555256244,-0.846053245698394
-0.848890419320471,-0.843844778704499
-0.8504794045899,-0.841604066207116
-0.852030548109513,-0.839331422266967
-0.853543886924288,-0.837027160944778
-0.855019458079205,-0.834691596301271
-0.856457298619245,-0.83232504239717
-0.857857445589387,-0.8299278132932
-0.859219936034611,-0.827500223050084
-0.860544806999898,-0.825042585728546
-0.861832095530227,-0.82255521538931
-0.863081838670578,-0.820038426093099
-0.86429407346593,-0.817492531900638
-0.865468836961264,-0.81491784687265
-0.866606166201561,-0.812314685069859
-0.867706098231799,-0.809683360552989
-0.868768670096958,-0.807024187382763
-0.869793918842019,-0.804337479619906
-0.870781881511961,-0.801623551325142
-0.871732595151765,-0.798882716559193
-0.87264609680641,-0.796115289382785
-0.873522423520876,-0.79332158385664
-0.874361612340143,-0.790501914041483
-0.875163700309191,-0.787656593998037
-0.875928724472999,-0.784785937787027
-0.876656721876549,-0.781890259469175
-0.877347729564819,-0.778969873105207
-0.87800178458279,-0.776025092755845
-0.878618923975441,-0.773056232481813
-0.879199184787753,-0.770063606343836
-0.879742604064706,-0.767047528402637
-0.880249218851278,-0.76400831271894
-0.880719066192451,-0.760946273353469
-0.881152183133203,-0.757861724366947
-0.881548606718516,-0.754754979820099
-0.881908373993369,-0.751626353773649
-0.882231522002741,-0.748476160288319
-0.882518087791613,-0.745304713424833
-0.882768108404965,-0.742112327243917
-0.882981620887776,-0.738899315806294
-0.883158662285027,-0.735665993172686
-0.883299269641697,-0.732412673403818
-0.883403480002766,-0.729139670560415
-0.883471330413215,-0.7258472987032
-0.883502857918023,-0.722535871892896
-0.883498099562169,-0.719205704190227
-0.883457092390635,-0.715857109655918
-0.8833798734484,-0.712490402350691
-0.883266479780443,-0.709105896335272
-0.883116948431745,-0.705703905670383
-0.882931316447286,-0.702284744416749
-0.882709620872045,-0.698848726635093
-0.882451898751003,-0.69539616638614
-0.882158187129138,-0.691927377730611
-0.881828523051432,-0.688442674729234
-0.881462943562865,-0.68494237144273
-0.881061485708415,-0.681426781931822
-0.880624186533063,-0.677896220257237
-0.88015108308179,-0.674351000479696
-0.879642212399574,-0.670791436659925
-0.879097611531395,-0.667217842858645
-0.878517317522234,-0.663630533136583
-0.877901367417071,-0.660029821554461
-0.877249798260886,-0.656416022173003
-0.876562647098657,-0.652789449052933
-0.875839950975366,-0.649150416254974
-0.875081746935992,-0.645499237839852
-0.874288072025516,-0.641836227868289
-0.873458963288916,-0.638161700401009
-0.872594457771173,-0.634475969498736
-0.871694592517267,-0.630779349222194
-0.870759404572178,-0.627072153632106
-0.869788930980885,-0.623354696789198
-0.868783208788369,-0.619627292754191
-0.86774227503961,-0.615890255587811
-0.866666166779587,-0.612143899350781
-0.86555492105328,-0.608388538103824
-0.864408574905669,-0.604624485907665
-0.863227165381735,-0.600852056823028
-0.862010729526457,-0.597071564910635
-0.860759304384814,-0.593283324231212
-0.859472927001788,-0.589487648845482
-0.858151634422357,-0.585684852814168
-0.856795463691502,-0.581875250197995
-0.855404451854203,-0.578059155057686
-0.853978635955439,-0.574236881453966
-0.85251805304019,-0.570408743447557
-0.851022740153437,-0.566575055099184
-0.849492734340159,-0.562736130469571
-0.847928072645337,-0.558892283619442
-0.846328792113949,-0.555043828609519
-0.844694929790976,-0.551191079500528
-0.843026522721399,-0.547334350353191
-0.841323607950196,-0.543473955228233
-0.839586222522348,-0.539610208186378
-0.837814403482834,-0.535743423288349
-0.836008187876635,-0.531873914594871
-0.834167612748731,-0.528001996166666
-0.832292715144101,-0.524127982064459
-0.830383532107725,-0.520252186348974
-0.828440100684584,-0.516374923080934
-0.826462457919656,-0.512496506321063
-0.824450640857923,-0.508617250130086
-0.822404686544363,-0.504737468568725
-0.820324632023958,-0.500857475697705
-0.818210514341686,-0.49697758557775
-0.816062370542528,-0.493098112269582
-0.813880237671463,-0.489219369833927
-0.811664152773472,-0.485341672331509
-0.809414152893535,-0.481465333823049
-0.80713027507663,-0.477590668369274
-0.80481255636774,-0.473717990030906
-0.802461033811842,-0.469847612868669
-0.800075744453917,-0.465979850943288
-0.797656725338945,-0.462115018315485
-0.795204013511906,-0.458253429045985
-0.79271764601778,-0.454395397195511
-0.790197659901547,-0.450541236824788
-0.787644092208186,-0.446691261994539
-0.785056979982678,-0.442845786765488
-0.782436360270002,-0.439005125198359
-0.779782270115139,-0.435169591353875
-0.777094746563068,-0.431339499292761
-0.774373826658769,-0.42751516307574
-0.771619547447222,-0.423696896763537
-0.768831945973408,-0.419885014416874
-0.766011059282305,-0.416079830096476
-0.763156924418894,-0.412281657863066
-0.760269578428155,-0.408490811777369
-0.757349058355067,-0.404707605900108
-0.754395401244611,-0.400932354292006
-0.751408644141767,-0.397165371013789
-0.748388824091514,-0.39340697012618
-0.745335978138832,-0.389657465689901
-0.742250143328702,-0.385917171765678
-0.739131356706103,-0.382186402414235
-0.735979655316015,-0.378465471696294
-0.732795076203417,-0.37475469367258
-0.729577656413291,-0.371054382403816
-0.726327432990615,-0.367364851950727
-0.72304444298037,-0.363686416374036
-0.719728723427536,-0.360019389734466
-0.716380311377092,-0.356364086092743
-0.712999243874019,-0.35272081950959
-0.709585557963296,-0.349089904045729
-0.706139290689903,-0.345471653761886
-0.702660479098821,-0.341866382718785
-0.699149160235028,-0.338274404977148
-0.695605371143506,-0.3346960345977
-0.692029148869234,-0.331131585641164
-0.688420530457191,-0.327581372168265
-0.684779552952358,-0.324045708239725
-0.681106253399715,-0.320524907916271
-0.677400668844241,-0.317019285258623
-0.673662836330917,-0.313529154327508
-0.669892792904722,-0.310054829183647
-0.666090575610637,-0.306596623887767
-0.66225622149364,-0.303154852500589
-0.658389767598714,-0.299729829082838
-0.654491250970835,-0.296321867695238
-0.650560708654986,-0.292931282398512
-0.646598177696146,-0.289558387253385
-0.642603695139294,-0.28620349632058
-0.638577298029412,-0.282866923660821
-0.634519023411478,-0.279548983334832
-0.630428908330472,-0.276249989403336
-0.626306989831375,-0.272970255927058
-0.622153304959166,-0.269710096966721
-0.617967890758825,-0.26646982658305
-0.613750784275333,-0.263249758836767
-0.609502022553669,-0.260050207788597
-0.605221642638812,-0.256871487499263
-0.600909681575744,-0.25371391202949
-0.596566176409443,-0.250577795440001
-0.59219116418489,-0.24746345179152
-0.587784681947065,-0.244371195144771
-0.583346766740947,-0.241301339560478
-0.578877455611517,-0.238254199099364
-0.574376785603754,-0.235230087822153
-0.569844793762639,-0.23222931978957
-0.56528151713315,-0.229252209062337
-0.560686992760269,-0.226299069701179
-0.556061257688975,-0.22337021576682
-0.551404348964248,-0.220465961319983
-0.546716303631067,-0.217586620421392
-0.541997158734413,-0.214732507131771
-0.537246951319267,-0.211903935511844
-0.532465718430606,-0.209101219622335
-0.527653497113412,-0.206324673523967
-0.522810324412665,-0.203574611277465
-0.517936237373344,-0.200851346943551
-0.513031273040429,-0.198155194582951
-0.5080954684589,-0.195486468256387
-0.503128860673737,-0.192845482024584
-0.498131486729921,-0.190232549948265
-0.49310338367243,-0.187647986088155
-0.488044588546245,-0.185092104504976
-0.482955138396346,-0.182565219259453
-0.477835070267712,-0.18006764441231
-0.472684421205324,-0.177599694024271
-0.467503228254161,-0.175161682156058
-0.462291528459204,-0.172753922868397
-0.457049358865432,-0.170376730222011
-0.451776756517825,-0.168030418277623
-0.446473758461364,-0.165715301095958
-0.441140401741027,-0.16343169273774
-0.435776723401795,-0.161179907263691
-0.430382760488648,-0.158960258734537
-0.424958550046566,-0.156773061211001
-0.419504129120529,-0.154618628753806
-0.414019534755516,-0.152497275423676
-0.408504803996507,-0.150409315281336
-0.402959973888483,-0.148355062387509
-0.397385081476424,-0.146334830802919
-0.391780163805308,-0.14434893458829
-0.386145257920117,-0.142397687804345
-0.38048040086583,-0.140481404511809
-0.374785629687426,-0.138600398771405
-0.369060981429887,-0.136754984643857
-0.363306493138191,-0.134945476189889
-0.357522201857319,-0.133172187470224
-0.351708144632251,-0.131435432545587
-0.345864358507966,-0.129735525476701
-0.339990880529445,-0.128072780324291
-0.334087747741667,-0.126447511149079
-0.328154997189612,-0.12486003201179
-0.32219266591826,-0.123310656973148
-0.316200790972592,-0.121799700093876
-0.310179409397587,-0.120327475434698
-0.304128558238224,-0.118894297056338
-0.298048274539484,-0.11750047901952
-0.291938595346347,-0.116146335384968
-0.285799557703793,-0.114832180213405
-0.279631198656801,-0.113558327565556
-0.273433555250352,-0.112325091502144
-0.267206664529425,-0.111132786083892
-0.260950563539,-0.109981725371526
-0.254665289324058,-0.108872223425768
-0.248350878929578,-0.107804594307342
-0.242007369400539,-0.106779152076972
-0.235634797781923,-0.105796210795383
-0.229233201118709,-0.104856084523298
-0.222802616455876,-0.10395908732144
-0.216343080838405,-0.103105533250533
-0.209854631311276,-0.102295736371302
-0.203337304919468,-0.10153001074447
-0.196791138707962,-0.100808670430761
-0.190216169721736,-0.100132029490899
-0.183612435005773,-0.0995004019856075
-0.17697997160505,-0.0989141019756102
-0.170318816564548,-0.0983734435216312
-0.163629006929248,-0.0978787406843943
-0.156910579744128,-0.0974303075246231
-0.150163572054169,-0.0970284581030417
-0.143388020904351,-0.0966735064803737
-0.136583963339653,-0.0963657667173431
-0.129751436405057,-0.0961055528746736
-0.12289047714554,-0.095893179013089
-0.116001122606084,-0.0957289591933132
-0.109083409831668,-0.09561320747607
-0.102137375867273,-0.0955462379220832
-0.0951630577578768,-0.0955283645920766
-0.0881604925484615,-0.0955599015467741
-0.0811297172840058,-0.0956411628468994
-0.0740707690094902,-0.0957724625531764
-0.0669836847698941,-0.0959541147263289
-0.059868501610198,-0.0961864334270807
-0.0527252565753811,-0.0964697327161557
-0.0455539867104241,-0.0968043266542775
-0.0383547290603061,-0.0971905293021702
-0.0311275206700078,-0.0976286547205575
-0.0238723985845085,-0.0981190169701632
-0.0165893998487885,-0.0986619301117111
-0.00927856150782736,-0.099257708205925
-0.00193992060660549,-0.0999066653135288
0.00542648580989783,-0.100609115495246
0.012820620696702,-0.101365372811801
0.0202424470088278,-0.102175751323918
0.0202424470088278,-0.102175751323918
0.0276376113516305,-0.103008445559012
0.0349520551772484,-0.103831523532069
0.0421861837108752,-0.104645109535165
0.0493404021777048,-0.105449327860376
0.0564151158029309,-0.106244302799777
0.0634107298117472,-0.107030158645445
0.0703276494293476,-0.107807019689456
0.0771662798809257,-0.108575010223886
0.0839270263916753,-0.109334254540811
0.0906102941867902,-0.110084876932307
0.0972164884914642,-0.110827001690449
0.103746014530891,-0.111560753107315
0.110199277530264,-0.112286255474979
0.116576682714778,-0.113003633085518
0.122878635309626,-0.113713010231008
0.129105540540001,-0.114414511203524
0.135257803631098,-0.115108260295144
0.141335829808111,-0.115794381797943
0.147340024296233,-0.116473000003996
0.153270792320657,-0.11714423920538
0.159128539106578,-0.117808223694172
0.16491366987919,-0.118465077762446
0.170626589863686,-0.119114925702279
0.176267704285259,-0.119757891805747
0.181837418369105,-0.120394100364926
0.187336137340415,-0.121023675671892
0.192764266424385,-0.12164674201872
0.198122210846208,-0.122263423697488
0.203410375831078,-0.122873845000271
0.208629166604188,-0.123478130219145
0.213778988390732,-0.124076403646185
0.218860246415904,-0.124668789573469
0.223873345904898,-0.125255412293072
0.228818692082908,-0.125836396097069
0.233696690175127,-0.126411865277538
0.238507745406748,-0.126981944126554
0.243252263002967,-0.127546756936192
0.247930648188976,-0.12810642799853
0.252543306189969,-0.128661081605643
0.257090642231141,-0.129210842049606
0.261573061537684,-0.129755833622497
0.265990969334793,-0.130296180616391
0.270344770847661,-0.130832007323364
0.274634871301483,-0.131363438035492
0.278861675921451,-0.131890597044851
0.283025589932759,-0.132413608643517
0.287127018560602,-0.132932597123566
0.291166367030174,-0.133447686777074
0.295144040566667,-0.133959001896118
0.299060444395276,-0.134466666772772
0.302915983741194,-0.134970805699114
0.306711063829615,-0.135471542967218
0.310446089885734,-0.135969002869162
0.314121467134743,-0.136463309697021
0.317737600801836,-0.136954587742871
0.321294896112208,-0.137442961298788
0.324793758291051,-0.137928554656849
0.32823459256356,-0.138411492109128
0.331617804154929,-0.138891897947703
0.334943798290351,-0.139369896464649
0.33821298019502,-0.139845611952042
0.34142575509413,-0.140319168701958
0.344582528212874,-0.140790691006473
0.347683704776447,-0.141260303157664
0.350729690010042,-0.141728129447605
0.353720889138852,-0.142194294168374
0.356657707388072,-0.142658921612046
0.359540549982895,-0.143122136070698
0.362369822148515,-0.143584061836404
0.365145929110127,-0.144044823201242
0.367869276092922,-0.144504544457287
0.370540268322096,-0.144963349896615
0.373159311022843,-0.145421363811303
0.375726809420355,-0.145878710493426
0.378243168739826,-0.14633551423506
0.380708794206451,-0.146791899328281
0.383124091045424,-0.147247990065166
0.385489464481937,-0.14770391073779
0.387805319741185,-0.148159785638229
0.390072062048361,-0.148615739058559
0.392290096628659,-0.149071895290857
0.394459828707273,-0.149528378627198
0.396581663509397,-0.149985313359659
0.398656006260225,-0.150442823780314
0.40068326218495,-0.150901034181241
0.402663836508765,-0.151360068854516
0.404598134456865,-0.151820052092214
0.406486561254444,-0.152281108186411
0.408329522126696,-0.152743361429183
0.410127422298813,-0.153206936112607
0.41188066699599,-0.153671956528758
0.41358966144342,-0.154138546969713
0.415254810866298,-0.154606831727547
0.416876520489817,-0.155076935094336
0.41845519553917,-0.155548981362157
0.419991241239552,-0.156023094823085
0.421485062816157,-0.156499399769196
0.422937065494177,-0.156978020492567
0.424347654498808,-0.157459081285274
0.425717235055242,-0.157942706439391
0.427046212388673,-0.158429020246997
0.428334991724295,-0.158918147000165
0.429583978287303,-0.159410210990973
0.430793577302889,-0.159905336511497
0.431964193996247,-0.160403647853812
0.433096233592572,-0.160905269309994
0.434190101317056,-0.16141032517212
0.435246202394894,-0.161918939732266
0.43626494205128,-0.162431237282507
0.437246725511406,-0.162947342114919
0.438191958000468,-0.163467378521579
0.439101044743659,-0.163991470794563
0.439974390966171,-0.164519743225945
0.4408124018932,-0.165052320107804
0.441615482749939,-0.165589325732214
0.442384038761582,-0.166130884391251
0.443118475153323,-0.166677120376993
0.443819197150354,-0.167228157981513
0.444486609977871,-0.167784121496889
0.445121118861066,-0.168345135215197
0.445723129025134,-0.168911323428512
0.446293045695269,-0.169482810428911
0.446831274096663,-0.17005972050847
0.447338219454511,-0.170642177959264
0.447814286994007,-0.171230307073369
0.448259881940344,-0.171824232142862
0.448675409518716,-0.172424077459819
0.449061274954317,-0.173029967316316
0.44941788347234,-0.173642026004428
0.44974564029798,-0.174260377816231
0.45004495065643,-0.174885147043803
0.450316219772884,-0.175516457979218
0.450559852872536,-0.176154434914552
0.450776255180579,-0.176799202141882
0.450965831922207,-0.177450883953284
0.451128988322614,-0.178109604640834
0.451266129606994,-0.178775488496607
0.45137766100054,-0.17944865981268
0.451463987728447,-0.180129242881129
0.451525515015907,-0.180817361994029
0.451562648088115,-0.181513141443457
0.451575792170265,-0.182216705521489
0.45156535248755,-0.1829281785202
0.451531734265164,-0.183647684731667
0.4514753427283,-0.184375348447966
0.451396583102153,-0.185111293961172
0.451295860611917,-0.185855645563363
0.451173580482784,-0.186608527546613
0.45103014793995,-0.187370064202999
0.450865968208606,-0.188140379824596
0.450681446513948,-0.188919598703481
0.45047698808117,-0.18970784513173
0.450252998135464,-0.190505243401419
0.450009881902024,-0.191311917804624
0.449748044606045,-0.19212799263342
0.44946789147272,-0.192953592179885
0.449169827727243,-0.193788840736093
0.448854258594808,-0.19463386259412
0.448521589300607,-0.195488782046044
0.448172225069837,-0.19635372338394
0.447806571127689,-0.197228810899883
0.447425032699357,-0.19811416888595
0.447028015010036,-0.199009921634217
0.44661592328492,-0.19991619343676
0.446189162749201,-0.200833108585654
0.445748138628073,-0.201760791372977
0.445293256146732,-0.202699366090803
0.444824920530369,-0.20364895703121
0.44434353700418,-0.204609688486272
0.443849510793357,-0.205581684748066
0.443343247123095,-0.206565070108668
0.442825151218587,-0.207559968860154
0.442295628305027,-0.208566505294599
0.441755083607609,-0.209584803704081
0.441203922351526,-0.210614988380675
0.440642549761972,-0.211657183616456
0.440071371064142,-0.212711513703502
0.439490791483229,-0.213778102933887
0.438901216244426,-0.214857075599688
0.438303050572927,-0.215948555992982
0.437696699693926,-0.217052668405843
0.437082568832618,-0.218169537130348
0.436461063214194,-0.219299286458573
0.435832588063851,-0.220442040682594
0.43519754860678,-0.221597924094487
0.434556350068176,-0.222767060986329
0.433909397673233,-0.223949575650194
0.433257096647144,-0.225145592378159
0.432599852215104,-0.2263552354623
0.431938069602305,-0.227578629194693
0.431272154033942,-0.228815897867414
0.430602510735208,-0.23006716577254
0.429929544931298,-0.231332557202145
0.429253661847405,-0.232612196448306
0.428575266708722,-0.2339062078031
0.427894764740444,-0.235214715558601
0.427212561167764,-0.236537844006886
0.426529061215876,-0.237875717440032
0.425844670109973,-0.239228460150114
0.425159793075251,-0.240596196429207
0.424474835336901,-0.241979050569389
0.423790202120119,-0.243377146862735
0.423106298650097,-0.244790609601321
0.42242353015203,-0.246219563077223
0.421742301851111,-0.247664131582517
0.421063018972534,-0.24912443940928
0.420386086741493,-0.250600610849586
0.419711910383182,-0.252092770195513
0.419040895122794,-0.253601041739136
0.418373446185523,-0.255125549772531
0.417709968796562,-0.256666418587774
0.417050868181107,-0.258223772476941
0.41639654956435,-0.259797735732108
0.415747418171485,-0.261388432645352
0.415103879227706,-0.262995987508748
0.414466337958206,-0.264620524614372
0.41383519958818,-0.2662621682543
0.413210869342821,-0.267921042720608
0.412593752447323,-0.269597272305373
0.41198425412688,-0.27129098130067
0.411382779606685,-0.273002293998575
0.410789734111932,-0.274731334691164
0.410205522867816,-0.276478227670513
0.409630551099529,-0.278243097228699
0.409065224032265,-0.280026067657797
0.408509946891219,-0.281827263249883
0.407965124901584,-0.283646808297034
0.407431163288553,-0.285484827091325
0.406908467277321,-0.287341443924832
0.406397442093082,-0.289216783089631
0.405898492961028,-0.291110968877799
0.405412025106354,-0.29302412558141
0.404938443754254,-0.294956377492543
0.404478154129921,-0.296907848903271
0.404031561458549,-0.298878664105672
0.403599070965332,-0.300868947391821
0.403181087875464,-0.302878823053794
0.402778017414138,-0.304908415383668
0.402390264806547,-0.306957848673518
0.402018235277887,-0.309027247215421
0.401662334053351,-0.311116735301452
0.401322966358132,-0.313226437223687
0.401000537417424,-0.315356477274202
0.40069545245642,-0.317506979745074
0.400408116700316,-0.319678068928379
0.400138935374304,-0.321869869116191
0.399888313703578,-0.324082504600589
0.399656656913332,-0.326316099673646
0.39944437022876,-0.32857077862744
0.399251858875055,-0.330846665754046
0.399079528077412,-0.333143885345541
0.398927783061023,-0.335462561694
0.398797029051083,-0.3378028190915
0.398687671272786,-0.340164781830116
0.398600114951325,-0.342548574201924
0.398534765311894,-0.344954320499001
0.398492027579687,-0.347382145013423
0.398472306979897,-0.349832172037264
0.398476008737718,-0.352304525862603
0.398503538078345,-0.354799330781514
0.39855530022697,-0.357316711086073
0.398631700408788,-0.359856791068357
0.398733143848993,-0.362419695020441
0.398860035772777,-0.365005547234402
0.399012781405335,-0.367614472002315
0.399191785971861,-0.370246593616257
0.399397454697548,-0.372902036368303
0.39963019280759,-0.37558092455053
0.399890405527182,-0.378283382455013
0.400178498081515,-0.381009534373829
0.400494875695786,-0.383759504599054
0.400839943595186,-0.386533417422763
0.40121410700491,-0.389331397137033
0.401617771150152,-0.392153568033939
0.402051341256106,-0.395000054405558
0.402515222547964,-0.397870980543965
0.403009820250922,-0.400766470741237
0.403535539590172,-0.403686649289449
0.404092785790909,-0.406631640480679
0.404681964078326,-0.409601568607
0.405303479677617,-0.412596557960491
0.405957737813975,-0.415616732833226
0.406645143712595,-0.418662217517281
0.407366102598671,-0.421733136304734
0.408121019697395,-0.424829613487659
0.408910300233963,-0.427951773358132
0.409734349433566,-0.43109974020823
0.4105935725214,-0.434273638330029
0.411488374722659,-0.437473592015605
0.412419161262535,-0.440699725557033
0.413386337366222,-0.44395216324639
0.414390308258915,-0.447231029375751
0.415431479165807,-0.450536448237194
0.416510255312092,-0.453868544122793
0.417627041922963,-0.457227441324624
0.418782244223615,-0.460613264134765
0.419976267439241,-0.46402613684529
0.421209516795035,-0.467466183748276
0.422482397516191,-0.470933529135798
0.423795314827901,-0.474428297299934
0.425148673955361,-0.477950612532758
0.426542880123765,-0.481500599126347
0.427978338558304,-0.485078381372776
0.429455454484174,-0.488684083564123
0.430974633126569,-0.492317829992462
0.432536279710681,-0.49597974494987
0.434140799461705,-0.499669952728422
0.435788597604834,-0.503388577620196
0.437480079365263,-0.507135743917266
0.439215649968185,-0.510911575911709
0.440995714638794,-0.514716197895601
0.442820678602283,-0.518549734161018
0.444690947083846,-0.522412309000035
0.446606925308677,-0.52630404670473
0.44856901850197,-0.530225071567177
0.450577631888919,-0.534175507879453
0.452633170694717,-0.538155479933634
0.454736040144558,-0.542165112021796
0.456886645463636,-0.546204528436015
0.459085391877145,-0.550273853468366
0.461332684610278,-0.554373211410927
0.463628928888229,-0.558502726555772
0.465974529936191,-0.562662523194978
0.46836989297936,-0.566852725620621
0.470815423242928,-0.571073458124777
0.473311525952089,-0.575324844999522
0.475858606332037,-0.579607010536932
0.478457069607965,-0.583920079029082
0.481107321005068,-0.58826417476805
0.483809765748539,-0.592639422045911
0.486564809063572,-0.597045945154741
0.489372856175361,-0.601483868386615
0.4922343123091,-0.60595331603361
0.495149582689981,-0.610454412387803
0.498119072543199,-0.614987281741268
0.501143187093948,-0.619552048386083
0.504222331567422,-0.624148836614322
0.507356911188814,-0.628777770718062
0.510547331183318,-0.63343897498938
0.513793996776128,-0.63813257372035
0.517097313192437,-0.64285869120305
0.52045768565744,-0.647617451729554
0.523875519396329,-0.652408979591939
0.5273512196343,-0.657233399082282
0.530885191596545,-0.662090834492657
0.534477840508258,-0.666981410115142
0.538129571594633,-0.671905250241811
0.541840790080864,-0.676862479164742
0.545611901192145,-0.68185322117601
0.54944331015367,-0.68687760056769
0.553335422190631,-0.69193574163186
0.557288642528223,-0.697027768660595
0.56130337639164,-0.702153805945971
0.565380029006075,-0.707313977780064
0.569519005596722,-0.712508408454951
0.573720711388776,-0.717737222262706
0.577985551607429,-0.723000543495407
0.582313931477875,-0.728298496445128
0.586706256225309,-0.733631205403947
0.591162931074923,-0.738998794663938
0.595684361251912,-0.74440138851718
0.60027095198147,-0.749839111255746
0.60492310848879,-0.755312087171713
0.609641235999066,-0.760820440557157
0.614425739737492,-0.766364295704155
0.619277024929261,-0.771943776904782
0.624195496799568,-0.777559008451114
0.629181560573605,-0.783210114635227
0.634235621476567,-0.788897219749197
0.639358084733648,-0.794620448085101
0.644549355570041,-0.800379923935013
0.64980983921094,-0.806175771591011
0.65513994088154,-0.812008115345171
0.660540065807032,-0.817877079489567
0.666010619212612,-0.823782788316277
0.671552006323473,-0.829725366117375
0.677164632364809,-0.83570493718494
0.682848902561813,-0.841721625811045
0.688605222139681,-0.847775556287768
0.694433996323603,-0.853866852907183
0.700335630338776,-0.859995639961369
0.706310529410393,-0.866162041742399
0.712359098763647,-0.872366182542351
0.718481743623732,-0.8786081866533
0.724678869215842,-0.884888178367322
0.730950880765171,-0.891206281976494
0.737298183496912,-0.897562621772891
0.743721182636259,-0.903957322048589
0.750220283408407,-0.910390507095665
0.756795891038548,-0.916862301206193
0.763448410751876,-0.923372828672252
0.770178247773586,-0.929922213785916
0.776985807328871,-0.936510580839261
0.783871494642924,-0.943138054124363
0.790835714940941,-0.949804757933299
0.797878873448113,-0.956510816558144
0.805001375389635,-0.963256354290974
0.812203625990702,-0.970041495423866
0.819486030476505,-0.976866364248895
