0.750022858989874,0.00642889467713426
0.737953332976421,0.00739235757155983
0.725969117089985,0.00837957228770779
0.714069925204633,0.00939041501433818
0.702255471194434,0.0104247619402111
0.690525468933456,0.0114824892540864
0.678879632295764,0.0125634731447244
0.667317675155429,0.0136675898008849
0.655839311386516,0.0147947154113281
0.644444254863094,0.015944726164814
0.63313221945923,0.0171174982501025
0.621902919048991,0.0183129078559539
0.610756067506447,0.019530831171128
0.599691378705663,0.020771144384385
0.588708566520708,0.0220337236844849
0.577807344825649,0.0233184452601877
0.566987427494555,0.0246251853002535
0.556248528401491,0.0259538199934423
0.545590361420527,0.0273042255285142
0.535012640425729,0.0286762780942291
0.524515079291166,0.0300698538793472
0.514097391890905,0.0314848290726285
0.503759292099014,0.032921079862833
0.49350049378956,0.0343784824387207
0.48332071083661,0.0358569129890517
0.473219657114233,0.0373562477025861
0.463197046496496,0.0388763627680839
0.453252592857467,0.0404171343743051
0.443386010071213,0.0419784387100097
0.433597012011803,0.0435601519639579
0.423885312553302,0.0451621503249096
0.41425062556978,0.0467843099816249
0.404692664935303,0.0484265071228638
0.395211144523941,0.0500886179373864
0.385805778209759,0.0517705186139528
0.376476279866825,0.0534720853413228
0.367222363369208,0.0551931943082567
0.358043742590975,0.0569337217035144
0.348940131406193,0.058693543715856
0.339911243688931,0.0604725365340415
0.330956793313255,0.062270576346831
0.322076494153234,0.0640875393429845
0.313270060082934,0.065923301711262
0.304537204976424,0.0677777396404236
0.295877642707772,0.0696507293192294
0.287291087151044,0.0715421469364393
0.278777252180309,0.0734518686808134
0.270335851669633,0.0753797707411118
0.261966599493086,0.0773257293060944
0.253669209524733,0.0792896205645214
0.245443395638644,0.0812713207051528
0.237288871708885,0.0832707059167486
0.229205351609524,0.0852876523880688
0.221192549214629,0.0873220363078736
0.213250178398268,0.0893737338649229
0.205377953034507,0.0914426212479767
0.197575586997415,0.0935285746457952
0.18984279416106,0.0956314702471384
0.182179288399508,0.0977511842407663
0.174584783586828,0.0998875928154389
0.167058993597087,0.102040572159916
0.159601632304352,0.104209998462959
0.152212413582692,0.106395747913326
0.144891051306174,0.108597696699778
0.137637259348865,0.110815721011075
0.130450751584834,0.113049697035977
0.123331241888147,0.115299500963244
0.116278444132873,0.117565008981636
0.109292072193079,0.119846097279913
0.102371839942833,0.122142642046835
0.0955174612562014,0.124454519471163
0.0887286500072531,0.126781605741656
0.0820051200700555,0.129123777047074
0.0753465853186759,0.131480909576177
0.0687527596271822,0.133852879517726
0.0622233568696417,0.13623956306048
0.0557580909201222,0.1386408363932
0.0493566756526915,0.141056575704645
0.0430188249414169,0.143486657183576
0.0367442526603661,0.145930957018752
0.0305326726836069,0.148389351398934
0.0243837988852067,0.150861716512881
0.0182973451392332,0.153347928549354
0.0122730253197541,0.155847863697113
0.00631055330083699,0.158361398144918
0.000409642956549411,0.160888408081529
-0.00542999183904108,0.163428769695705
-0.0112086372118668,0.165982359176207
-0.01692657928786,0.168549052711796
-0.0225841041929532,0.17112872649123
-0.0281814980530788,0.17372125670327
-0.033719046994169,0.176326519536677
-0.0391970371421563,0.178944391180209
-0.0446157546229732,0.181574747822628
-0.049975485562552,0.184217465652692
-0.055276516086825,0.186872420859164
-0.0605191323217246,0.189539489630801
-0.0657036203931833,0.192218548156365
-0.0708302664271333,0.194909472624614
-0.0758993565495072,0.197612139224311
-0.0809111768862372,0.200326424144214
-0.0858660135632557,0.203052203573083
-0.0907641527064952,0.205789353699679
-0.095605880441888,0.208537750712761
-0.100391482895367,0.21129727080109
-0.105121246192863,0.214067790153426
-0.10979545646031,0.216849184958528
-0.11441439982364,0.219641331405158
-0.118978362408785,0.222444105682073
-0.123487630341678,0.225257383978036
-0.12794248974825,0.228081042481806
-0.132343226754435,0.230914957382142
-0.136690127486165,0.233759004867805
-0.140983478069372,0.236613061127556
-0.145223564629988,0.239477002350153
-0.149410673293946,0.242350704724358
-0.153545090187179,0.245234044438929
-0.157627101435618,0.248126897682628
-0.161656993165196,0.251029140644214
-0.165635051501846,0.253940649512447
-0.169561562571499,0.256861300476087
-0.173436812500089,0.259790969723895
-0.177261087413547,0.26272953344463
-0.181034673437806,0.265676867827052
-0.184757856698799,0.268632849059922
-0.188430923322457,0.271597353332
-0.192054159434713,0.274570256832044
-0.1956278511615,0.277551435748817
-0.19915228462875,0.280540766271077
-0.202627745962394,0.283538124587585
-0.206054521288367,0.2865433868871
-0.209432896732599,0.289556429358383
-0.212763158421024,0.292577128190194
-0.216045592479574,0.295605359571292
-0.21928048503418,0.298640999690439
-0.222468122210776,0.301683924736393
-0.225608790135294,0.304734010897915
-0.228702774933667,0.307791134363766
-0.231750362731826,0.310855171322704
-0.234751839655704,0.31392599796349
-0.237707491831234,0.317003490474885
-0.240617605384347,0.320087525045647
-0.243482466440977,0.323177977864538
-0.246302361127055,0.326274725120317
-0.249077575568514,0.329377643001744
-0.251808395891286,0.33248660769758
-0.254495108221304,0.335601495396584
-0.257137998684501,0.338722182287516
-0.259737353406807,0.341848544559137
-0.262293458514157,0.344980458400206
-0.264806600132482,0.348117799999483
-0.267277064387714,0.35126044554573
-0.269705137405787,0.354408271227704
-0.272091105312632,0.357561153234168
-0.274435254234181,0.36071896775388
-0.276737870296368,0.363881590975601
-0.278999239625125,0.36704889908809
-0.281219648346383,0.370220768280109
-0.283399382586075,0.373397074740416
-0.285538728470135,0.376577694657772
-0.287637972124493,0.379762504220937
-0.289697399675083,0.382951379618671
-0.291717297247837,0.386144197039734
-0.293697950968686,0.389340832672886
-0.295639646963565,0.392541162706887
-0.297542671358404,0.395745063330497
-0.299407310279137,0.398952410732477
-0.301233849851695,0.402163081101585
-0.303022576202012,0.405376950626583
-0.304773775456019,0.40859389549623
-0.306487733739649,0.411813791899287
-0.308164737178834,0.415036516024513
-0.309805071899507,0.418261944060668
-0.3114090240276,0.421489952196513
-0.312976879689046,0.424720416620807
-0.314508925009776,0.427953213522311
-0.316005446115723,0.431188219089784
-0.31746672913282,0.434425309511987
-0.318893060186999,0.43766436097768
-0.320284725404192,0.440905249675622
-0.321642010910332,0.444147851794574
-0.322965202831351,0.447392043523296
-0.324254587293181,0.450637701050548
-0.325510450421755,0.45388470056509
-0.326733078343006,0.457132918255681
-0.327922757182865,0.460382230311083
-0.329079773067265,0.463632512920054
-0.330204412122138,0.466883642271356
-0.331296960473417,0.470135494553747
-0.332357704247035,0.473387945955989
-0.333386929568922,0.476640872666841
-0.334384922565013,0.479894150875063
-0.335351969361239,0.483147656769415
-0.336288356083533,0.486401266538658
-0.337194368857826,0.489654856371551
-0.338070293810053,0.492908302456854
-0.338916417066144,0.496161480983328
-0.339733024752032,0.499414268139732
-0.340520402993649,0.502666540114827
-0.341278837916929,0.505918173097372
-0.342008615647803,0.509169043276128
-0.342710022312204,0.512419026839854
-0.343383344036063,0.515667999977311
-0.344028866945315,0.518915838877259
-0.34464687716589,0.522162419728458
-0.345237660823721,0.525407618719667
-0.345801504044741,0.528651312039647
-0.346338692954882,0.531893375877158
-0.346849513680077,0.53513368642096
-0.347334252346257,0.538372119859813
-0.347793195079355,0.541608552382476
-0.348226628005304,0.544842860177711
-0.348634837250036,0.548074919434277
-0.349018108939483,0.551304606340934
-0.349376729199577,0.554531797086442
-0.349710984156252,0.557756367859562
-0.350021159935439,0.560978194849052
-0.350307542663072,0.564197154243674
-0.350570418465081,0.567413122232187
-0.3508100734674,0.570625975003352
-0.35102679379596,0.573835588745928
-0.351220865576696,0.577041839648675
-0.351392574935537,0.580244603900354
-0.351542207998419,0.583443757689725
-0.351670050891271,0.586639177205546
-0.351776389740027,0.58983073863658
-0.35186151067062,0.593018318171585
-0.351925699808981,0.596201791999322
-0.351969243281044,0.599381036308551
-0.351992427212739,0.602555927288031
-0.351995537730001,0.605726341126524
-0.35197886095876,0.608892154012788
-0.351942683024951,0.612053242135584
-0.351887290054504,0.615209481683672
-0.351812968173352,0.618360748845811
-0.351720003507428,0.621506919810764
-0.351608682182665,0.624647870767288
-0.351479290324993,0.627783477904144
-0.351332114060347,0.630913617410092
-0.351167439514658,0.634038165473892
-0.350985552813858,0.637156998284305
-0.35078674008388,0.64026999203009
-0.350571287450657,0.643377022900007
-0.35033948104012,0.646477967082817
-0.350091606978203,0.649572700767279
-0.349827951390837,0.652661100142153
-0.349548800403955,0.6557430413962
-0.349254440143489,0.65881840071818
-0.348945156735372,0.661887054296851
-0.348621236305536,0.664948878320976
-0.348282964979913,0.668003748979313
-0.347930628884436,0.671051542460623
-0.347564514145038,0.674092134953666
-0.34718490688765,0.677125402647201
-0.346792093238204,0.68015122172999
-0.346386359322635,0.683169468390791
-0.345967991266873,0.686180018818365
-0.345537275196851,0.689182749201471
-0.345094497238501,0.692177535728871
-0.344639943517756,0.695164254589324
-0.344173900160549,0.69814278197159
-0.343696653292811,0.701112994064429
-0.343208489040475,0.704074767056601
-0.342709693529474,0.707027977136866
-0.342200552885739,0.709972500493985
-0.341681353235203,0.712908213316717
-0.341152380703799,0.715834991793822
-0.340613921417459,0.71875271211406
-0.340066261502115,0.721661250466192
-0.3395096870837,0.724560483038978
-0.338944484288146,0.727450286021176
-0.338370939241386,0.730330535601548
-0.337789338069351,0.733201107968854
-0.337199966897974,0.736061879311854
-0.336603111853188,0.738912725819307
-0.335999059060925,0.741753523679974
-0.335388094647117,0.744584149082614
-0.334770504737697,0.747404478215988
-0.334146575458597,0.750214387268856
-0.33351659293575,0.753013752429978
-0.332880843295087,0.755802449888114
-0.332239612662542,0.758580355832023
-0.331593187164046,0.761347346450467
-0.330941852925532,0.764103297932204
-0.330285896072933,0.766848086465996
-0.32962560273218,0.769581588240602
-0.328961259029207,0.772303679444782
-0.328293151089945,0.775014236267296
-0.327621565040327,0.777713134896904
-0.326946787006286,0.780400251522366
-0.326269103113753,0.783075462332443
-0.325588799488661,0.785738643515894
-0.324906162256943,0.78838967126148
-0.32422147754453,0.79102842175796
-0.323535031477356,0.793654771194094
-0.322847110181352,0.796268595758643
-0.322157999782451,0.798869771640366
-0.321467986406586,0.801458175028024
-0.320777356179688,0.804033682110377
-0.320086395227691,0.806596169076184
-0.319395389676526,0.809145512114206
-0.318704625652126,0.811681587413203
-0.318014389280423,0.814204271161935
-0.31732496668735,0.816713439549161
-0.316636643998839,0.819208968763642
-0.315949707340822,0.821690734994138
-0.315264442839232,0.824158614429409
-0.314581136620001,0.826612483258216
-0.313900074809062,0.829052217669317
-0.313221543532346,0.831477693851473
-0.312545828915787,0.833888787993444
-0.311873217085317,0.836285376283991
-0.311203994166868,0.838667334911873
-0.310538446286372,0.841034540065849
-0.309876859569762,0.843386867934682
-0.309219520142971,0.845724194707129
-0.30856671413193,0.848046396571952
-0.307918727662572,0.850353349717911
-0.307275846860829,0.852644930333764
-0.306638357852634,0.854921014608274
-0.306006546763919,0.857181478730199
-0.305380699720617,0.859426198888299
-0.30476110284866,0.861655051271335
-0.30414804227398,0.863867912068067
-0.303541804122509,0.866064657467254
-0.302942674520181,0.868245163657657
-0.302350939592927,0.870409306828036
-0.30176688546668,0.872556963167151
-0.301190798267372,0.874688008863761
-0.300622964120935,0.876802320106628
-0.300063669153303,0.87889977308451
-0.299513199490407,0.880980243986169
-0.29897184125818,0.883043609000363
-0.298439880582553,0.885089744315854
-0.297917603589461,0.887118526121401
-0.297405296404834,0.889129830605764
-0.296903245154605,0.891123533957702
-0.296411735964707,0.893099512365978
-0.295931054961072,0.895057642019349
-0.295461488269632,0.896997799106577
-0.29500332201632,0.898919859816421
-0.294556842327069,0.900823700337642
-0.29412233532781,0.902709196858999
-0.293700087144475,0.904576225569253
-0.293290383902998,0.906424662657163
-0.292893511729311,0.908254384311489
-0.292509756749346,0.910065266720993
-0.292139405089035,0.911857186074432
-0.291782742874311,0.913630018560569
-0.291440056231107,0.915383640368162
-0.291111631285353,0.917117927685972
-0.290797754162984,0.918832756702759
-0.290498710989931,0.920528003607283
-0.290214787892127,0.922203544588304
-0.289946270995504,0.923859255834582
-0.289693446425995,0.925495013534876
-0.289456600309531,0.927110693877948
-0.289236018772046,0.928706173052556
-0.289031987939471,0.930281327247462
-0.28884479393774,0.931836032651425
-0.288674722892783,0.933370165453205
-0.288522060930535,0.934883601841563
-0.288387094176927,0.936376218005257
-0.288270108757891,0.937847890133049
-0.28817139079936,0.939298494413698
-0.288091226427267,0.940727907035965
-0.288029901767543,0.942136004188609
-0.287987702946121,0.943522662060391
-0.287964916088934,0.94488775684007
-0.287961827321913,0.946231164716407
-0.287978722770992,0.947552761878161
-0.288015888562103,0.948852424514093
-0.288073610821177,0.950130028812962
-0.288152175674148,0.95138545096353
-0.288251869246947,0.952618567154555
-0.288372977665508,0.953829253574798
-0.288515787055762,0.955017386413018
-0.288680583543642,0.956182841857977
-0.288867653255081,0.957325496098434
-0.28907728231601,0.958445225323148
-0.289309756852362,0.959541905720881
-0.289565362990069,0.960615413480391
-0.289844386855064,0.96166562479044
-0.29014711457328,0.962692415839787
-0.290473832270648,0.963695662817192
-0.290824826073101,0.964675241911415
-0.291200382106571,0.965631029311217
-0.291600786496991,0.966562901205357
-0.292026325370293,0.967470733782595
-0.29247728485241,0.968354403231691
-0.292953951069273,0.969213785741406
-0.293456610146816,0.970048757500499
-0.29398554821097,0.970859194697732
-0.294541051387669,0.971644973521862
-0.295123405802843,0.972405970161651
-0.295732897582427,0.973142060805859
-0.296369812852351,0.973853121643245
-0.297034437738549,0.97453902886257
-0.297727058366954,0.975199658652594
-0.298447960863496,0.975834887202077
-0.298447960863496,0.975834887202077
-0.299181602731192,0.97641793236143
-0.299912259877685,0.97692235324217
-0.300639946035849,0.977348537924718
-0.301364674938559,0.977696874489496
-0.302086460318689,0.977967751016922
-0.302805315909114,0.978161555587417
-0.303521255442708,0.978278676281402
-0.304234292652345,0.978319501179296
-0.3049444412709,0.978284418361522
-0.305651715031247,0.978173815908498
-0.306356127666261,0.977988081900644
-0.307057692908816,0.977727604418383
-0.307756424491786,0.977392771542133
-0.308452336148046,0.976983971352315
-0.30914544161047,0.97650159192935
-0.309835754611932,0.975946021353658
-0.310523288885308,0.975317647705659
-0.31120805816347,0.974616859065773
-0.311890076179295,0.973844043514422
-0.312569356665656,0.972999589132024
-0.313245913355427,0.972083883999002
-0.313919759981484,0.971097316195774
-0.314590910276699,0.970040273802762
-0.315259377973949,0.968913144900386
-0.315925176806107,0.967716317569066
-0.316588320506047,0.966450179889222
-0.317248822806644,0.965115119941275
-0.317906697440772,0.963711525805645
-0.318561958141307,0.962239785562753
-0.319214618641121,0.960700287293019
-0.31986469267309,0.959093419076863
-0.320512193970088,0.957419568994706
-0.321157136264989,0.955679125126967
-0.321799533290668,0.953872475554068
-0.322439398779999,0.952000008356429
-0.323076746465857,0.95006211161447
-0.323711590081116,0.948059173408612
-0.32434394335865,0.945991581819274
-0.324973820031334,0.943859724926877
-0.325601233832042,0.941663990811842
-0.326226198493649,0.939404767554589
-0.326848727749028,0.937082443235537
-0.327468835331055,0.934697405935109
-0.328086534972604,0.932250043733724
-0.328701840406548,0.929740744711802
-0.329314765365764,0.927169896949764
-0.329925323583124,0.924537888528029
-0.330533528791503,0.921845107527019
-0.331139394723777,0.919091942027154
-0.331742935112818,0.916278780108854
-0.332344163691502,0.91340600985254
-0.332943094192703,0.910474019338631
-0.333539740349296,0.907483196647549
-0.334134115894154,0.904433929859713
-0.334726234560152,0.901326607055544
-0.335316110080164,0.898161616315463
-0.335903756187066,0.894939345719889
-0.336489186613731,0.891660183349243
-0.337072415093034,0.888324517283946
-0.337653455357849,0.884932735604417
-0.33823232114105,0.881485226391078
-0.338809026175513,0.877982377724348
-0.33938358419411,0.874424577684647
-0.339956008929718,0.870812214352398
-0.340526314115209,0.867145675808018
-0.34109451348346,0.86342535013193
-0.341660620767342,0.859651625404552
-0.342224649699733,0.855824889706307
-0.342786614013505,0.851945531117614
-0.343346527441533,0.848013937718892
-0.343904403716692,0.844030497590563
-0.344460256571856,0.839995598813048
-0.345014099739899,0.835909629466767
-0.345565946953696,0.831772977632138
-0.346115811946121,0.827586031389584
-0.346663708450048,0.823349178819525
-0.347209650198352,0.81906280800238
-0.347753650923908,0.814727307018571
-0.34829572435959,0.810343063948517
-0.348835884238271,0.80591046687264
-0.349374144292827,0.801429903871358
-0.349910518256132,0.796901763025094
-0.350445019861061,0.792326432414266
-0.350977662840487,0.787704300119296
-0.351508460927285,0.783035754220604
-0.352037427854329,0.778321182798609
-0.352564577354495,0.773560973933733
-0.353089923160656,0.768755515706396
-0.353613479005687,0.763905196197019
-0.354135258622461,0.759010403486021
-0.354655275743855,0.754071525653822
-0.355173544102741,0.749088950780845
-0.355690077431995,0.744063066947508
-0.35620488946449,0.738994262234232
-0.356717993933101,0.733882924721437
-0.357229404570703,0.728729442489544
-0.35773913511017,0.723534203618973
-0.358247199284376,0.718297596190145
-0.358753610826196,0.713020008283479
-0.359258383468504,0.707701827979397
-0.359761530944174,0.702343443358318
-0.360263066986081,0.696945242500663
-0.3607630053271,0.691507613486852
-0.361261359700105,0.686030944397306
-0.361758143837969,0.680515623312446
-0.362253371473568,0.67496203831269
-0.362747056339776,0.66937057747846
-0.363239212169467,0.663741628890176
-0.363729852695516,0.658075580628259
-0.364218991650797,0.652372820773128
-0.364706642768185,0.646633737405205
-0.365192819780553,0.640858718604909
-0.365677536420777,0.635048152452662
-0.36616080642173,0.629202427028882
-0.366642643516288,0.62332193041399
-0.367123061437324,0.617407050688409
-0.367602073917713,0.611458175932556
-0.368079694690329,0.605475694226852
-0.368555937488047,0.59945999365172
-0.369030816043741,0.593411462287577
-0.369504344090286,0.587330488214845
-0.369976535360555,0.581217459513944
-0.370447403587424,0.575072764265295
-0.370916962503767,0.568896790549318
-0.371385225842457,0.562689926446433
-0.37185220733637,0.55645256003706
-0.37231792071838,0.550185079401621
-0.372782379721361,0.543887872620535
-0.373245598078188,0.537561327774222
-0.373707589521735,0.531205832943103
-0.374168367784877,0.524821776207599
-0.374627946600487,0.51840954564813
-0.375086339701441,0.511969529345116
-0.375543560820613,0.505502115378977
-0.375999623690876,0.499007691830134
-0.376454542045106,0.492486646779007
-0.376908329616177,0.485939368306017
-0.377361000136963,0.479366244491583
-0.377812567340339,0.472767663416127
-0.378263044959179,0.466144013160069
-0.378712446726357,0.459495681803829
-0.379160786374748,0.452823057427826
-0.379608077637227,0.446126528112483
-0.380054334246667,0.439406481938219
-0.380499569935944,0.432663306985454
-0.380943798437931,0.425897391334609
-0.381387033485502,0.419109123066104
-0.381829288811533,0.41229889026036
-0.382270578148898,0.405467080997796
-0.382710915230471,0.398614083358834
-0.383150313789126,0.391740285423893
-0.383588787557738,0.384846075273395
-0.384026350269182,0.377931840987759
-0.384463015656331,0.370997970647405
-0.38489879745206,0.364044852332755
-0.385333709389244,0.357072874124228
-0.385767765200756,0.350082424102244
-0.386200978619472,0.343073890347225
-0.386633363378265,0.33604766093959
-0.387064933210011,0.329004123959761
-0.387495701847583,0.321943667488156
-0.387925683023856,0.314866679605197
-0.388354890471704,0.307773548391304
-0.388783337924002,0.300664661926897
-0.389211039113624,0.293540408292397
-0.389638007773444,0.286401175568224
-0.390064257636337,0.279247351834798
-0.390489802435178,0.27207932517254
-0.39091465590284,0.26489748366187
-0.391338831772198,0.257702215383209
-0.391762343776127,0.250493908416976
-0.392185205647501,0.243272950843593
-0.392607431119194,0.23603973074348
-0.39302903392408,0.228794636197055
-0.393450027795035,0.221538055284742
-0.393870426464932,0.214270376086959
-0.394290243666646,0.206991986684127
-0.394709493133051,0.199703275156666
-0.395128188597021,0.192404629584997
-0.395546343791432,0.185096438049541
-0.395963972449158,0.177779088630716
-0.396381088303072,0.170452969408945
-0.396797705086049,0.163118468464646
-0.397213836530965,0.155775973878241
-0.397629496370692,0.14842587373015
-0.398044698338106,0.141068556100794
-0.39845945616608,0.133704409070591
-0.39887378358749,0.126333820719964
-0.399287694335209,0.118957179129333
-0.399701202142113,0.111574872379116
-0.400114320741074,0.104187288549736
-0.400527063864969,0.0967948157216125
-0.400939445246671,0.0893978419751657
-0.401351478619055,0.0819967553908158
-0.401763177714995,0.0745919440489834
-0.402174556267365,0.067183796030089
-0.40258562800904,0.0597726994145529
-0.402996406672894,0.0523590422827952
-0.403406905991802,0.0449432127152365
-0.403817139698638,0.0375255987922971
-0.404227121526277,0.0301065885943972
-0.404636865207592,0.0226865702019577
-0.405046384475458,0.0152659316953982
-0.405455693062751,0.00784506115513978
-0.405864804702343,0.000424346661602182
-0.406273733127109,-0.00699582370479365
-0.406682492069925,-0.014415061863628
-0.407091095263664,-0.0218329797344798
-0.4074995564412,-0.0292491892369294
-0.407907889335409,-0.0366633022905558
-0.408316107679163,-0.0440749308149391
-0.408724225205339,-0.0514836867296586
-0.40913225564681,-0.0588891819542944
-0.409540212736451,-0.0662910284084255
-0.409948110207135,-0.0736888380116322
-0.410355961791738,-0.0810822226834936
-0.410763781223134,-0.0884707943435898
-0.411171582234197,-0.0958541649114998
-0.411579378557802,-0.103231946306804
-0.411987183926823,-0.110603750449081
-0.412395012074134,-0.117969189257912
-0.41280287673261,-0.125327874652875
-0.413210791635126,-0.132679418553552
-0.413618770514554,-0.140023432879519
-0.414026827103771,-0.147359529550359
-0.414434975135651,-0.154687320485649
-0.414843228343067,-0.162006417604971
-0.415251600458895,-0.169316432827904
-0.415660105216008,-0.176616978074027
-0.416068756347281,-0.183907665262919
-0.416477567585588,-0.191188106314161
-0.416886552663805,-0.198457913147332
-0.417295725314804,-0.205716697682012
-0.417705099271462,-0.21296407183778
-0.418114688266651,-0.220199647534217
-0.418524506033247,-0.227423036690901
-0.418934566304123,-0.234633851227412
-0.419344882812155,-0.24183170306333
-0.419755469290216,-0.249016204118236
-0.420166339471182,-0.256186966311707
-0.420577507087925,-0.263343601563324
-0.420988985873322,-0.270485721792667
-0.421400789560246,-0.277612938919315
-0.421812931881571,-0.284724864862847
-0.422225426570173,-0.291821111542845
-0.422638287358925,-0.298901290878886
-0.423051527980701,-0.305965014790551
-0.423465162168377,-0.313011895197419
-0.423879203654827,-0.32004154401907
-0.424293666172924,-0.327053573175084
-0.424708563455544,-0.334047594585041
-0.425123909235561,-0.341023220168519
-0.425539717245849,-0.347980061845099
-0.425956001219283,-0.35491773153436
-0.426372774888736,-0.361835841155882
-0.426790051987084,-0.368734002629244
-0.427207846247201,-0.375611827874026
-0.427626171401961,-0.382468928809808
-0.428045041184239,-0.38930491735617
-0.428464469326909,-0.39611940543269
-0.428884469562845,-0.40291200495895
-0.429305055624922,-0.409682327854527
-0.429726241246014,-0.416429986039003
-0.430148040158995,-0.423154591431956
-0.430570466096741,-0.429855755952967
-0.430993532792125,-0.436533091521614
-0.431417253978022,-0.443186210057478
-0.431841643387306,-0.449814723480137
-0.432266714752852,-0.456418243709173
-0.432692481807534,-0.462996382664164
-0.433118958284226,-0.469548752264691
-0.433546157915803,-0.476074964430331
-0.433974094435139,-0.482574631080667
-0.434402781575109,-0.489047364135276
-0.434832233068586,-0.495492775513739
-0.435262462648447,-0.501910477135635
-0.435693484047563,-0.508300080920544
-0.436125310998812,-0.514661198788045
-0.436557957235065,-0.520993442657719
-0.436991436489199,-0.527296424449144
-0.437425762494087,-0.533569756081901
-0.437860948982604,-0.539813049475569
-0.438297009687624,-0.546025916549728
-0.438733958342022,-0.552207969223957
-0.439171808678672,-0.558358819417837
-0.439610574430448,-0.564478079050945
-0.440050269330225,-0.570565360042864
-0.440490907110877,-0.576620274313171
-0.440932501505278,-0.582642433781446
-0.441375066246304,-0.58863145036727
-0.441818615066828,-0.594586935990222
-0.442263161699725,-0.600508502569881
-0.442708719877869,-0.606395762025827
-0.443155303334134,-0.61224832627764
-0.443602925801396,-0.6180658072449
-0.444051601012528,-0.623847816847185
-0.444501342700405,-0.629593967004076
-0.444952164597901,-0.635303869635153
-0.44540408043789,-0.640977136659994
-0.445857103953248,-0.64661337999818
-0.446311248876848,-0.65221221156929
-0.446766528941564,-0.657773243292904
-0.447222957880272,-0.663296087088602
-0.447680549425846,-0.668780354875963
-0.448139317311159,-0.674225658574567
-0.448599275269087,-0.679631610103992
-0.449060437032503,-0.684997821383821
-0.449522816334283,-0.69032390433363
-0.4499864269073,-0.695609470873002
-0.45045128248443,-0.700854132921514
-0.450917396798545,-0.706057502398746
-0.451384783582522,-0.711219191224279
-0.451853456569233,-0.716338811317692
-0.452323429491555,-0.721415974598564
-0.45279471608236,-0.726450292986476
-0.453267330074523,-0.731441378401007
-0.45374128520092,-0.736388842761736
-0.454216595194423,-0.741292297988242
-0.454693273787908,-0.746151356000107
-0.455171334714249,-0.750965628716909
-0.455650791706321,-0.755734728058228
-0.456131658496997,-0.760458265943644
-0.456613948819152,-0.765135854292736
-0.457097676405661,-0.769767105025084
-0.457582854989398,-0.774351630060268
-0.458069498303237,-0.778889041317866
-0.458557620080053,-0.78337895071746
-0.45904723405272,-0.787820970178628
-0.459538353954113,-0.79221471162095
-0.460030993517106,-0.796559786964006
-0.460525166474573,-0.800855808127376
-0.461020886559388,-0.805102387030638
-0.461518167504427,-0.809299135593373
-0.462017023042564,-0.81344566573516
-0.462517466906673,-0.81754158937558
-0.463019512829627,-0.821586518434211
-0.463523174544303,-0.825580064830633
-0.464028465783574,-0.829521840484426
-0.464535400280314,-0.83341145731517
-0.465043991767398,-0.837248527242443
-0.465554253977701,-0.841032662185827
-0.466066200644096,-0.8447634740649
-0.466579845499459,-0.848440574799242
-0.467095202276663,-0.852063576308433
-0.467612284708583,-0.855632090512052
-0.468131106528094,-0.859145729329679
-0.468651681468069,-0.862604104680894
-0.469174023261383,-0.866006828485276
-0.469698145640911,-0.869353512662405
-0.470224062339527,-0.87264376913186
-0.470751787090105,-0.875877209813221
-0.47128133362552,-0.879053446626069
-0.471812715678646,-0.882172091489982
-0.472345946982358,-0.88523275632454
-0.472881041269529,-0.888235053049322
-0.473418012273035,-0.891178593583909
-0.47395687372575,-0.894062989847881
-0.474497639360548,-0.896887853760815
-0.475040322910303,-0.899652797242294
-0.47558493810789,-0.902357432211894
-0.476131498686184,-0.905001370589198
-0.476680018378058,-0.907584224293784
-0.477230510916388,-0.910105605245231
-0.477782990034047,-0.912565125363121
-0.47833746946391,-0.914962396567031
-0.478893962938851,-0.917297030776542
-0.479452484191745,-0.919568639911233
-0.480013046955466,-0.921776835890684
-0.480575664962889,-0.923921230634476
-0.481140351946888,-0.926001436062186
-0.481707121640337,-0.928017064093396
-0.482275987776111,-0.929967726647684
-0.482846964087084,-0.93185303564463
-0.48342006430613,-0.933672603003814
-0.483995302166124,-0.935426040644816
-0.484572691399941,-0.937112960487214
-0.485152245740455,-0.93873297445059
-0.485733978920539,-0.940285694454522
-0.486317904673069,-0.94177073241859
-0.486904036730919,-0.943187700262374
-0.487492388826964,-0.944536209905453
-0.488082974694077,-0.945815873267407
-0.488675808065133,-0.947026302267816
-0.489270902673007,-0.948167108826259
-0.489868272250572,-0.949237904862316
-0.490467930530704,-0.950238302295567
-0.491069891246277,-0.95116791304559
-0.491674168130165,-0.952026349031967
-0.492280774915242,-0.952813222174276
-0.492889725334384,-0.953528144392097
-0.493501033120463,-0.95417072760501
-0.494114712006356,-0.954740583732594
-0.494730775724935,-0.955237324694429
-0.495349238009076,-0.955660562410095
-0.495970112591653,-0.956009908799171
-0.49659341320554,-0.956284975781237
-0.497219153583612,-0.956485375275873
-0.497847347458743,-0.956610719202658
-0.498478008563808,-0.956660619481171
-0.498478008563808,-0.956660619481171
-0.499087737427551,-0.95667176053472
-0.499653251000783,-0.956681046770267
-0.50017473764948,-0.956688420082883
-0.500652385739616,-0.956693822367636
-0.501086383637168,-0.956697195519595
-0.501476919708109,-0.956698481433826
-0.501824182318415,-0.9566976220054
-0.502128359834061,-0.956694559129385
-0.502389640621022,-0.95668923470085
-0.502608213045273,-0.956681590614863
-0.502784265472789,-0.956671568766492
-0.502917986269545,-0.956659111050806
-0.503009563801517,-0.956644159362875
-0.503059186434678,-0.956626655597765
-0.503067042535005,-0.956606541650546
-0.503033320468472,-0.956583759416287
-0.502958208601054,-0.956558250790056
-0.502841895298726,-0.956529957666921
-0.502684568927464,-0.956498821941951
-0.502486417853243,-0.956464785510215
-0.502247630442037,-0.956427790266781
-0.501968395059821,-0.956387778106717
-0.501648900072571,-0.956344690925093
-0.501289333846262,-0.956298470616977
-0.500889884746868,-0.956249059077438
-0.500450741140365,-0.956196398201542
-0.499972091392728,-0.956140429884361
-0.499454123869932,-0.956081096020962
-0.498897026937951,-0.956018338506414
-0.498300988962761,-0.955952099235784
-0.497666198310338,-0.955882320104142
-0.496992843346655,-0.955808943006557
-0.496281112437688,-0.955731909838097
-0.495531193949412,-0.95565116249383
-0.494743276247803,-0.955566642868825
-0.493917547698835,-0.95547829285815
-0.493054196668483,-0.955386054356875
-0.492153411522722,-0.955289869260067
-0.491215380627527,-0.955189679462796
-0.490240292348874,-0.955085426860129
-0.489228335052737,-0.954977053347136
-0.488179697105092,-0.954864500818884
-0.487094566871912,-0.954747711170443
-0.485973132719175,-0.954626626296881
-0.484815583012854,-0.954501188093267
-0.483622106118925,-0.954371338454668
-0.482392890403362,-0.954237019276154
-0.481128124232142,-0.954098172452794
-0.479827995971237,-0.953954739879655
-0.478492693986625,-0.953806663451807
-0.477122406644279,-0.953653885064317
-0.475717322310176,-0.953496346612255
-0.474277629350289,-0.953333989990689
-0.472803516130594,-0.953166757094688
-0.471295171017066,-0.952994589819319
-0.469752782375681,-0.952817430059653
-0.468176538572412,-0.952635219710757
-0.466566627973236,-0.952447900667699
-0.464923238944127,-0.952255414825549
-0.46324655985106,-0.952057704079375
-0.46153677906001,-0.951854710324245
-0.459794084936953,-0.951646375455228
-0.458018665847863,-0.951432641367393
-0.456210710158715,-0.951213449955808
-0.454370406235485,-0.950988743115542
-0.452497942444147,-0.950758462741663
-0.450593507150677,-0.950522550729239
-0.44865728872105,-0.95028094897334
-0.44668947552124,-0.950033599369035
-0.444690255917223,-0.94978044381139
-0.442659818274973,-0.949521424195476
-0.440598350960467,-0.94925648241636
-0.438506042339678,-0.948985560369112
-0.436383080778582,-0.948708599948798
-0.434229654643154,-0.94842554305049
-0.432045952299369,-0.948136331569254
-0.429832162113202,-0.94784090740016
-0.427588472450628,-0.947539212438275
-0.425315071677622,-0.947231188578669
-0.423012148160159,-0.94691677771641
-0.420679890264215,-0.946595921746567
-0.418318486355763,-0.946268562564208
-0.41592812480078,-0.945934642064402
-0.41350899396524,-0.945594102142217
-0.411061282215119,-0.945246884692722
-0.408585177916391,-0.944892931610985
-0.406080869435031,-0.944532184792075
-0.403548545137015,-0.944164586131061
-0.400988393388318,-0.943790077523011
-0.398400602554913,-0.943408600862993
-0.395785361002778,-0.943020098046077
-0.393142857097886,-0.94262451096733
-0.390473279206214,-0.942221781521822
-0.387776815693734,-0.941811851604621
-0.385053654926424,-0.941394663110795
-0.382303985270257,-0.940970157935413
-0.37952799509121,-0.940538277973544
-0.376725872755256,-0.940098965120255
-0.373897806628371,-0.939652161270616
-0.371043985076531,-0.939197808319696
-0.368164596465709,-0.938735848162563
-0.365259829161882,-0.938266222694284
-0.362329871531023,-0.937788873809929
-0.359374911939109,-0.937303743404568
-0.356395138752115,-0.936810773373267
-0.353390740336014,-0.936309905611095
-0.350361905056783,-0.935801082013122
-0.347308821280396,-0.935284244474415
-0.344231677372829,-0.934759334890044
-0.341130661700056,-0.934226295155076
-0.338005962628052,-0.933685067164581
-0.334857768522794,-0.933135592813627
-0.331686267750254,-0.932577813997282
-0.32849164867641,-0.932011672610615
-0.325274099667235,-0.931437110548694
-0.322033809088705,-0.930854069706589
-0.318770965306795,-0.930262491979368
-0.31548575668748,-0.929662319262099
-0.312178371596734,-0.92905349344985
-0.308848998400533,-0.928435956437691
-0.305497825464853,-0.92780965012069
-0.302125041155667,-0.927174516393915
-0.298730833838951,-0.926530497152436
-0.295315391880681,-0.92587753429132
-0.291878903646831,-0.925215569705636
-0.288421557503376,-0.924544545290453
-0.284943541816291,-0.923864402940839
-0.281445044951551,-0.923175084551863
-0.277926255275132,-0.922476532018593
-0.274387361153008,-0.921768687236098
-0.270828550951155,-0.921051492099447
-0.267250013035547,-0.920324888503708
-0.26365193577216,-0.919588818343949
-0.260034507526968,-0.91884322351524
-0.256397916665946,-0.918088045912648
-0.252742351555071,-0.917323227431243
-0.249068000560316,-0.916548709966092
-0.245375052047656,-0.915764435412265
-0.241663694383068,-0.914970345664829
-0.237934115932525,-0.914166382618855
-0.234186505062004,-0.913352488169409
-0.230421050137478,-0.912528604211561
-0.226637939524923,-0.911694672640379
-0.222837361590314,-0.910850635350932
-0.219019504699626,-0.909996434238289
-0.215184557218835,-0.909132011197517
-0.211332707513914,-0.908257308123685
-0.20746414395084,-0.907372266911863
-0.203579054895587,-0.906476829457118
-0.19967762871413,-0.905570937654519
-0.195760053772444,-0.904654533399134
-0.191826518436505,-0.903727558586033
-0.187877211072287,-0.902789955110284
-0.183912320045766,-0.901841664866955
-0.179932033722916,-0.900882629751115
-0.175936540469713,-0.899912791657832
-0.171926028652131,-0.898932092482176
-0.167900686636146,-0.897940474119213
-0.163860702787733,-0.896937878464014
-0.159806265472866,-0.895924247411647
-0.155737563057521,-0.89489952285718
-0.151654783907673,-0.893863646695681
-0.147558116389297,-0.89281656082222
-0.143447748868367,-0.891758207131865
-0.13932386971086,-0.890688527519685
-0.13518666728275,-0.889607463880747
-0.131036329950011,-0.88851495811012
-0.12687304607862,-0.887410952102874
-0.122697004034551,-0.886295387754077
-0.118508392183779,-0.885168206958797
-0.114307398892279,-0.884029351612102
-0.110094212526027,-0.882878763609063
-0.105869021450996,-0.881716384844746
-0.101632014033163,-0.88054215721422
-0.097383378638503,-0.879356022612554
-0.0931233036329901,-0.878157922934818
-0.0888519773825996,-0.876947800076078
-0.0845695882533065,-0.875725595931403
-0.0802763246110861,-0.874491252395863
-0.0759723748219133,-0.873244711364527
-0.0716579272517632,-0.871985914732461
-0.0673331702666107,-0.870714804394735
-0.0629982922324311,-0.869431322246418
-0.0586534815151992,-0.868135410182577
-0.0542989264808903,-0.866827010098283
-0.0499348154954791,-0.865506063888602
-0.0455613369249408,-0.864172513448604
-0.0411786791352506,-0.862826300673358
-0.0367870304923834,-0.861467367457931
-0.0323865793623142,-0.860095655697393
-0.0279775141110181,-0.858711107286811
-0.0235600231044704,-0.857313664121256
-0.0191342947086457,-0.855903268095794
-0.0147005172895193,-0.854479861105494
-0.0102588792130661,-0.853043385045426
-0.00580956884526138,-0.851593781810658
-0.00135277455207994,-0.850130993296258
0.00311131530050304,-0.848654961397295
0.00758251234651267,-0.847165628008837
0.0120606282199736,-0.845662935025953
0.0165454745549111,-0.844146824343712
0.0210368629853498,-0.842617237857182
0.0255346051453151,-0.841074117461431
0.0300385126688315,-0.839517405051529
0.0345483971899243,-0.837947042522543
0.0390640703426182,-0.836362971769543
0.0435853437609384,-0.834765134687596
0.0481120290789096,-0.833153473171772
0.052643937930557,-0.831527929117139
0.0571808819499053,-0.829888444418766
0.0617226727709798,-0.82823496097172
0.066269122027805,-0.826567420671071
0.0708200413544063,-0.824885765411888
0.0753752423848082,-0.823189937089238
0.0799345367530362,-0.82147987759819
0.0844977360931148,-0.819755528833814
0.0890646520390692,-0.818016832691176
0.0936350962249241,-0.816263731065347
0.0982088802847049,-0.814496165851394
0.102785815852436,-0.812714078944387
0.107365714562143,-0.810917412239393
0.11194838804785,-0.809106107631481
0.116533647943583,-0.80728010701572
0.121121305883366,-0.805439352287179
0.125711173501225,-0.803583785340925
0.130303062431183,-0.801713348072028
0.134896784307268,-0.799827982375556
0.139492150763502,-0.797927630146577
0.144088973433912,-0.79601223328016
0.148687063952521,-0.794081733671375
0.153286233953356,-0.792136073215288
0.157886295070441,-0.790175193806969
0.162487058937801,-0.788199037341487
0.16708833718946,-0.786207545713909
0.171689941459445,-0.784200660819305
0.176291683381779,-0.782178324552743
0.180893374590489,-0.780140478809292
0.185494826719598,-0.77808706548402
0.190095851403132,-0.776018026471995
0.194696260275116,-0.773933303668286
0.199295864969574,-0.771832838967963
0.203894477120532,-0.769716574266093
0.208491908362014,-0.767584451457744
0.213087970328046,-0.765436412437987
0.217682474652652,-0.763272399101888
0.222275232969858,-0.761092353344517
0.226866056913688,-0.758896217060942
0.231454758118168,-0.756683932146232
0.236041148217322,-0.754455440495455
0.240625038845174,-0.75221068400368
0.245206241635752,-0.749949604565975
0.249784568223078,-0.747672144077409
0.254359830241179,-0.745378244433051
0.258931839324078,-0.743067847527969
0.263500407105802,-0.740740895257231
0.268065345220374,-0.738397329515906
0.272626465301821,-0.736037092199064
0.277183578984166,-0.733660125201771
0.281736497901435,-0.731266370419098
0.286285033687653,-0.728855769746112
0.290828997976845,-0.726428265077881
0.295368202403035,-0.723983798309476
0.29990245860025,-0.721522311335963
0.304431578202512,-0.719043746052412
0.308955372843849,-0.716548044353891
0.313473654158283,-0.714035148135469
0.317986233779842,-0.711504999292215
0.322492923342548,-0.708957539719196
0.326993534480428,-0.706392711311481
0.331487878827507,-0.70381045596414
0.335975768017809,-0.70121071557224
0.340457013685359,-0.69859343203085
0.344931427464182,-0.695958547235039
0.349398820988303,-0.693306003079875
0.353859005891748,-0.690635741460427
0.35831179380854,-0.687947704271763
0.362756996372706,-0.685241833408952
0.367194425218269,-0.682518070767062
0.371623891979256,-0.679776358241163
0.376045208289691,-0.677016637726322
0.380458185783598,-0.674238851117608
0.384862636095003,-0.67144294031009
0.389258370857931,-0.668628847198836
0.393645201706406,-0.665796513678915
0.398022940274455,-0.662945881645395
0.4023913981961,-0.660076892993345
0.406750387105369,-0.657189489617833
0.411099718636285,-0.654283613413929
0.415439204422873,-0.6513592062767
0.419768656099159,-0.648416210101215
0.424087885299168,-0.645454566782543
0.428396703656923,-0.642474218215752
0.432694922806451,-0.639475106295911
0.436982354381777,-0.636457172918088
0.441258810016924,-0.633420359977352
0.445524101345919,-0.630364609368772
0.449778040002786,-0.627289862987416
0.45402043762155,-0.624196062728352
0.458251105836236,-0.621083150486649
0.462469856280868,-0.617951068157377
0.466676500589474,-0.614799757635602
0.470870850396075,-0.611629160816394
0.475052717334699,-0.608439219594822
0.47922191303937,-0.605229875865953
0.483378249144112,-0.602001071524857
0.487521537282951,-0.598752748466602
0.491651589089912,-0.595484848586257
0.495768216199019,-0.59219731377889
0.499871230244298,-0.588890085939569
0.503960442859773,-0.585563106963364
0.50803566567947,-0.582216318745343
0.512096710337414,-0.578849663180574
0.516143388467629,-0.575463082164126
0.52017551170414,-0.572056517591067
0.524192891680972,-0.568629911356467
0.528195340032151,-0.565183205355393
0.532182668391702,-0.561716341482915
0.536154688393648,-0.5582292616341
0.540111211672015,-0.554721907704017
0.544052049860829,-0.551194221587735
0.547977014594113,-0.547646145180323
0.551885917505894,-0.544077620376849
0.555778570230196,-0.540488589072381
0.559654784401043,-0.536878993161988
0.563514371652461,-0.533248774540739
0.567357143618476,-0.529597875103702
0.571182911933111,-0.525926236745946
0.574991488230391,-0.522233801362539
0.578782684144343,-0.51852051084855
0.58255631130899,-0.514786307099047
0.586312181358358,-0.5110311320091
0.590050105926471,-0.507254927473776
0.593769896647355,-0.503457635388144
0.597471365155034,-0.499639197647272
0.601154323083534,-0.49579955614623
0.604818582066879,-0.491938652780086
0.608463953739094,-0.488056429443908
0.612090249734205,-0.484152828032765
0.615697281686236,-0.480227790441725
0.619284861229212,-0.476281258565858
0.622852799997159,-0.47231317430023
0.6264009096241,-0.468323479539912
0.629929001744062,-0.464312116179972
0.633436887991068,-0.460279026115478
0.636924379999145,-0.456224151241499
0.640391289402316,-0.452147433453103
0.643837427834608,-0.448048814645359
0.647262606930044,-0.443928236713335
0.65066663832265,-0.439785641552101
0.654049333646451,-0.435620971056724
0.657410504535472,-0.431434167122273
0.660749962623737,-0.427225171643817
0.664067519545272,-0.422993926516424
0.667362986934101,-0.418740373635162
0.67063617642425,-0.414464454895102
0.673886899649743,-0.41016611219131
0.677114968244606,-0.405845287418855
0.680320193842863,-0.401501922472807
0.68350238807854,-0.397135959248233
0.686661362585661,-0.392747339640203
0.689796928998251,-0.388336005543784
0.692908898950335,-0.383901898854045
0.695997084075939,-0.379444961466055
0.699061296009087,-0.374965135274883
0.702101346383804,-0.370462362175596
0.705117046834115,-0.365936584063264
0.708108208994044,-0.361387742832955
0.711074644497618,-0.356815780379738
0.714016164978861,-0.352220638598681
0.716932582071797,-0.347602259384853
0.719823707410453,-0.342960584633321
0.722689352628852,-0.338295556239156
0.72552932936102,-0.333607116097425
0.728343449240981,-0.328895206103197
0.731131523902762,-0.32415976815154
0.733893364980385,-0.319400744137524
0.736628784107878,-0.314618075956216
0.739337592919263,-0.309811705502686
0.742019603048568,-0.304981574672001
0.744674626129815,-0.30012762535923
0.747302473797032,-0.295249799459443
0.749902957684241,-0.290348038867706
0.752475889425469,-0.28542228547909
0.755021080654739,-0.280472481188662
0.757538343006079,-0.275498567891491
0.760027488113511,-0.270500487482646
0.762488327611061,-0.265478181857195
0.764920673132755,-0.260431592910207
0.767324336312616,-0.25536066253675
0.76969912878467,-0.250265332631894
0.772044862182943,-0.245145545090705
0.774361348141458,-0.240001241808254
0.776648398294241,-0.234832364679607
0.778905824275317,-0.229638855599836
0.78113343771871,-0.224420656464006
0.783331050258447,-0.219177709167188
0.78549847352855,-0.21390995560445
0.787635519163047,-0.20861733767086
0.789741998795961,-0.203299797261487
