0.0910352240738856,-0.355617026694939
-0.679959024025892,0.952203256669597
0.791359194522788,-0.0974782279927169
0.559743146795197,0.170903217405741
0.328127099067606,0.439284662804199
0.716722571313934,-0.412191122489674
0.0548075295196548,-0.415744195261154
-0.607107512274624,-0.419297268032634
0.796876979842768,-0.299783355652789
-0.675274182742261,-0.625413466825227
