0.0443174006948381,0.354483055786474
0.0238770101461021,0.331193570333069
0.0037439112066754,0.309036906229307
-0.0160795464456872,0.287987245248524
-0.0355910131332309,0.268018769164058
-0.0547881391782011,0.249105659749245
-0.073668574902843,0.231222098777422
-0.0922299706294018,0.214342268021926
-0.110469976680123,0.198440349256094
-0.128386243377252,0.183490524253262
-0.145976421043033,0.169466974786768
-0.163238159999713,0.156343882629949
-0.180169110569536,0.144095429556141
-0.196766923074747,0.132695797338681
-0.213029247837593,0.122119167750906
-0.228953735180317,0.112339722566153
-0.244538035425166,0.103331643557758
-0.259779798894385,0.0950691124990595
-0.274676675910219,0.087526311163393
-0.289226316794913,0.0806774213240958
-0.303426371870713,0.0744966247545048
-0.317274491459863,0.0689581032279567
-0.33076832588461,0.0640360385177885
-0.343905525467198,0.059704612397337
-0.356683740529872,0.0559380066399391
-0.369100621394879,0.0527104030189316
-0.381153818384462,0.0499959833076513
-0.392840981820869,0.0477689292794352
-0.404159762026343,0.0460034227076201
-0.415107809323129,0.0446736453655428
-0.425682774033475,0.0437537790265402
-0.435882306479623,0.0432180054639492
-0.445704056983821,0.0430405064511067
-0.455145675868313,0.0431954637613493
-0.464204813455344,0.0436570591680142
-0.47287912006716,0.044399474444438
-0.481166246026005,0.0453968913639576
-0.489063841654126,0.04662349169991
-0.496569557273768,0.0480534572256319
-0.503681043207175,0.0496609697144603
-0.510395949776593,0.0514202109397319
-0.516711927304268,0.0533053626747836
-0.522626626112444,0.0552906066929524
-0.528137696523367,0.057350124767575
-0.533242788859282,0.0594580986719883
-0.537939553442434,0.0615887101795291
-0.542225640595069,0.0637161410635344
-0.546098700639432,0.0658145730973409
-0.549556383897769,0.0678581880542856
-0.552596340692324,0.0698211677077052
-0.555216221345342,0.0716776938309368
-0.55741367617907,0.0734019481973169
-0.559186355515752,0.0749681125801827
-0.560531909677633,0.0763503687528709
-0.56144798898696,0.0775228984887184
-0.561932243765976,0.078459883561062
-0.561982324336928,0.0791355057432385
-0.561595881022061,0.079523946808585
-0.56077056414362,0.0795993885304381
-0.55950402402385,0.0793360126821348
-0.557793910984996,0.0787080010370119
-0.555637875349304,0.0776895353684062
-0.553033567439019,0.0762547974496547
-0.549978637576387,0.0743779690540942
-0.546470736083652,0.0720332319550616
-0.54250751328306,0.0691947679258936
-0.538086619496857,0.0658367587399272
-0.533205705047286,0.0619333861704992
-0.527862420256595,0.0574588319909465
-0.522054415447027,0.0523872779746059
-0.515779340940829,0.0466929058948143
-0.509034847060245,0.0403498975249086
-0.501818584127521,0.0333324346382255
-0.494128202464902,0.025614699008102
-0.485961352394633,0.0171708724078749
-0.47731568423896,0.00797513661088106
-0.468188848320128,-0.00199832660954262
-0.458578494960382,-0.0127753354800593
-0.448482274481968,-0.0243817082273322
-0.43789783720713,-0.0368432630780244
-0.426822833458114,-0.0501858182587989
-0.415254913557166,-0.0644351919963191
-0.40319172782653,-0.079617202517248
-0.390630926588452,-0.0957576680482489
-0.377570160165177,-0.112882406815985
-0.36400707887895,-0.131017237047119
-0.349939333052017,-0.150187976968314
-0.335364573006623,-0.170420444806234
-0.320280449065013,-0.191740458787541
-0.304684611549433,-0.214173837138899
-0.288574710782127,-0.237746398086971
-0.271948397085341,-0.26248395985842
-0.254803320781321,-0.288412340679909
-0.237137132192311,-0.315557358778101
-0.218947481640557,-0.34394483237966
-0.200232019448304,-0.373600579711248
-0.180988395937797,-0.404550418999529
-0.161214261431283,-0.436820168471167
-0.140907266251005,-0.470435646352823
-0.120065060719209,-0.505422670871161
-0.104080761299154,-0.532578548017214
-0.0829410053919737,-0.568185126292999
-0.0625438718783809,-0.601557295084512
-0.0428792876634104,-0.632733772145969
-0.0239371796520974,-0.661753275231587
-0.00570747474947669,-0.688654522095579
0.0118199001394166,-0.713476230492162
0.0286550181095477,-0.736257118175551
0.0448079522558815,-0.75703590289996
0.0602887756733831,-0.775851302419607
0.0751075614570175,-0.792742034488706
0.0892743827017498,-0.807746816861472
0.102799312502545,-0.82090436729212
0.115692423954368,-0.832253403534867
0.127963790152184,-0.841832643343927
0.139623484190958,-0.849680804473517
0.150681579165655,-0.85583660467785
0.161148148171241,-0.860338761711144
0.171033264302679,-0.863225993327612
0.180347000654936,-0.864537017281471
0.189099430322975,-0.864310551326935
0.197300626401763,-0.862585313218221
0.204960661986265,-0.859400020709544
0.212089610171444,-0.854793391555118
0.218697544052267,-0.84880414350916
0.224794536723698,-0.841470994325884
0.230390661280703,-0.832832661759507
0.235495990818246,-0.822927863564243
0.240120598431293,-0.811795317494308
0.244274557214808,-0.799473741303918
0.247967940263757,-0.786001852747287
0.251210820673105,-0.771418369578631
0.254013271537816,-0.755762009552165
0.256385365952855,-0.739071490422105
0.258337177013189,-0.721385529942667
0.259878777813781,-0.702742845868065
0.261020241449597,-0.683182155952515
0.261771641015602,-0.662742177950232
0.262143049606761,-0.641461629615432
0.262144540318039,-0.619379228702331
0.261786186244401,-0.596533692965142
0.261078060480812,-0.572963740158083
0.260030236122236,-0.548708088035368
0.25865278626364,-0.523805454351212
0.256955783999988,-0.498294556859832
0.254949302426245,-0.472214113315441
0.252643414637377,-0.445602841472257
0.250048193728347,-0.418499459084494
0.247173712794122,-0.390942683906367
0.244030044929666,-0.362971233692093
0.240627263229944,-0.334623826195885
0.236975440789922,-0.305939179171961
0.233084650704564,-0.276956010374534
0.228964966068836,-0.247713037557821
0.224626459977702,-0.218248978476037
0.220079205526128,-0.188602550883397
0.215333275809078,-0.158812472534116
0.210398743921518,-0.128917461182411
0.205285682958412,-0.098956234582496
0.200004166014727,-0.0689675104885868
0.194564266185425,-0.0389900066548987
0.188976056565474,-0.0090624408356472
0.183249610249838,0.0207764692149525
0.177395000333481,0.0504880057426848
0.171422299911369,0.0800334509933344
0.165341582078467,0.109374087212686
0.15916291992974,0.138471196646524
0.152896386560153,0.167286061540633
0.146552055064671,0.195779964140799
0.140139998538259,0.223914186692804
0.133670290075882,0.251650011442435
0.127153002772506,0.278948720635475
0.120598209723094,0.305771596517709
0.114015984022613,0.332079921334922
0.107416398766027,0.357834977332899
0.100809527048301,0.382998046757424
0.0942054419644003,0.407530411854282
0.0876142166092902,0.431393354869256
0.0810459240779355,0.454548158048133
0.0745106374653012,0.476956103636697
0.0680184298663524,0.498578473880732
0.0615793743760541,0.519376551026022
0.0552035440893714,0.539311617318353
0.0489010121012692,0.558344955003509
0.0426818515067127,0.576437846327274
0.0365561354006669,0.593551573535434
0.0305339368780967,0.609647418873773
0.0246253290339673,0.624686664588075
0.0188403849632437,0.638630592924125
0.0131891777608909,0.651440486127709
0.0076817805218739,0.663077626444609
0.00232826634115783,0.673503296120612
-0.0028612916862923,0.682678777401501
-0.00787682046551148,0.690565352533061
-0.0127082469015346,0.697124303761077
-0.0173454978993968,0.702316913331334
-0.0217785003641328,0.706104463489615
-0.0259971812007777,0.708448236481706
-0.0299914673143665,0.709309514553392
-0.0337512856099341,0.708649579950456
-0.0364112202298434,0.707133042031515
-0.0395774210938458,0.704424815867607
-0.0421828197497428,0.701534127773517
-0.0442465741299792,0.69846911120074
-0.0457878421669999,0.695237899600771
-0.0468257817932499,0.691848626425107
-0.047379550941174,0.688309425125243
-0.047468307543217,0.684628429152673
-0.0471112095318239,0.680813771958893
-0.0463274148394396,0.6768735869954
-0.0451360813985089,0.672816007713688
-0.0435563671414767,0.668649167565253
-0.0416074300007878,0.664381200001589
-0.0393084279088873,0.660020238474194
-0.0366785187982198,0.655574416434561
-0.0337368606012304,0.651051867334187
-0.0305026112503639,0.646460724624567
-0.0269949286780652,0.641809121757196
-0.0232329708167791,0.63710519218357
-0.0192358955989506,0.632357069355185
-0.0150228609570245,0.627572886723535
-0.0106130248234457,0.622760777740116
-0.00602554513065906,0.617928875856424
-0.00127957981110951,0.613085314523954
0.00360571320275811,0.608238227194201
0.00861117597849891,0.603395747318661
0.013717650583668,0.59856600834883
0.0189059790858205,0.593757143736202
0.0241570035525116,0.588977286932274
0.0294515660512963,0.58423457138854
0.0347705086497298,0.579537130556496
0.0400946734153672,0.574893097887638
0.0454049024157636,0.570310606833461
0.0506820377184741,0.565797790845461
0.0559069213910539,0.561362783375132
0.0610603955010581,0.55701371787397
0.0661233021160418,0.552758727793472
0.0710764833035601,0.548605946585131
0.0759007811311681,0.544563507700444
0.0805770376664211,0.540639544590907
0.085086094976874,0.536842190708014
0.0894087951300819,0.53317957950326
0.0935259801936001,0.529659844428143
0.0974184922349837,0.526291118934156
0.101067173321788,0.523081536472795
0.104452865521567,0.520039230495556
0.107556410901878,0.517172334453934
0.110358651530274,0.514488981799425
0.112840429474311,0.511997305983524
0.114982586801544,0.509705440457727
0.116765965579528,0.507621518673528
0.118171407875819,0.505753674082424
0.119179755757971,0.504110040135909
0.119771851293539,0.50269875028548
0.119928536550079,0.501527937982632
0.119630653595146,0.500605736678859
0.118859044496295,0.499940279825658
0.117594551321081,0.499539700874525
0.115818016137059,0.499412133276954
0.113510281011785,0.49956571048444
0.110652188012812,0.50000856594848
0.107224579207697,0.500748833120569
0.103208296663995,0.501794645452202
0.0985841824492608,0.503154136394875
0.0933330786310492,0.504835439400083
0.0874358272769156,0.506846687919321
0.0808732704544151,0.509196015404086
0.0736262502311028,0.511891555305871
0.0656756086745338,0.514941441076174
0.0570021878522633,0.518353806166489
0.0475868298318465,0.522136784028312
0.0374103766808383,0.526298508113138
0.0264536704667939,0.530847111872463
0.0146975532572684,0.535790728757782
0.00212286711981707,0.54113749222059
-0.0112895458780051,0.546895535712383
-0.0255588436686431,0.553072992684657
-0.0407041841845415,0.559677996588906
-0.0567447253581455,0.566718680876627
-0.0736996251218996,0.574203178999315
-0.0915880414082492,0.582139624408464
-0.110429132149639,0.590536150555572
-0.130242055278513,0.599400890892132
-0.151045968727318,0.608741978869641
-0.172860030428497,0.618567547939594
-0.195703398314496,0.628885731553486
-0.219595230317759,0.639704663162813
-0.244554684370732,0.65103247621907
-0.270600918405859,0.662877304173753
-0.297753090355585,0.675247280478358
-0.326030358152355,0.688150538584378
-0.355451879728614,0.701595211943311
-0.386036813016806,0.715589434006651
-0.417804315949378,0.730141338225895
-0.450773546458773,0.745259058052536
-0.484963662477436,0.760950726938071
-0.520393821937813,0.777224478333996
-0.557083182772348,0.794088445691805
-0.595050902913486,0.811550762462995
-0.634316140293671,0.829619562099059
