0.588214458665174,0.113813724814806
-0.0362853501974818,-0.295068040552463
0.0822974165775152,0.737838632356214
-0.378643748408682,0.729915890232525
-0.83958491339488,0.721993148108835
-0.128556242768034,-0.827809889204735
0.543475292014392,-0.466595382076496
1.21550682679682,-0.105380874948257
-0.176367109541697,-0.624433618551054
0.0756378103640967,0.468816218792598
