0.834680519144007,-0.431628287805563
0.81954033952716,-0.458171970654328
0.795226113983306,-0.413003169945486
0.751144264308673,-0.414638853625144
0.777463855929626,-0.391329264448131
0.747347516226688,-0.398072649915116
0.752156602769752,-0.383683206383383
0.731811466363136,-0.396620849905925
0.732054657398915,-0.379650551544057
0.72677743250542,-0.395713376835121
0.696215508516461,-0.378618976194682
0.719545903778569,-0.351259517506979
0.694895064685112,-0.347502589211067
0.6611970187121,-0.361110129142821
0.633780494733732,-0.361564391387257
0.637502924219553,-0.365286908111382
0.626752732651353,-0.344089388381302
0.634067567311169,-0.362252133843367
0.585025856689492,-0.334313757571442
0.592879386035524,-0.327551833541082
0.567837781921792,-0.319701714101021
0.610735500563503,-0.309705573618115
0.559573714565914,-0.31149254425312
0.54909106290927,-0.315736665166766
0.529372260607402,-0.330482329010545
0.536037288800531,-0.261292143284319
0.521255923717658,-0.290217251820754
0.50531689644503,-0.285776510479566
0.504559854971849,-0.246995291208146
0.487177001400092,-0.278758303123777
0.498288714609405,-0.258293689889309
0.492395099317488,-0.273898550578358
0.439049616337359,-0.248186121120149
0.442256942749364,-0.256620795439707
0.416762957243807,-0.256464535162564
0.421729307119,-0.247308882124862
0.394654148554832,-0.262155988568081
0.392013624075985,-0.262125283080754
0.391396106051209,-0.233717242882897
0.377121056707344,-0.218214935781828
0.371478063091748,-0.2249048444564
0.345197942545301,-0.222529770679662
0.351802164601323,-0.216289700682776
0.342054717282119,-0.212055643701065
0.345018693164834,-0.213160691768736
0.3239918617589,-0.189804748371489
0.308051233075809,-0.193202977800734
0.277572696170889,-0.204603582499043
0.312682861659902,-0.168591013040002
0.275198186212763,-0.179122646674032
0.251143642701706,-0.175479234492607
0.266231226159075,-0.179923490432268
0.25702098719824,-0.176121775558423
0.247869833555244,-0.172367187517112
0.226276425426919,-0.169192370979036
0.245702457938231,-0.157584517938441
0.214663548746691,-0.144458687615715
0.184615522222841,-0.123402598562709
0.202996113609511,-0.15429477154238
0.194196932974552,-0.150819117542566
0.162366776656276,-0.166032675147364
0.176773167859208,-0.144005180850948
0.143298760835135,-0.163965479049367
0.15958139161695,-0.137373190997405
0.151072197073349,-0.134124970545186
0.161679751539872,-0.114198190808253
0.11491333823569,-0.134322847353775
0.119876905277354,-0.127381183682065
0.116428416796113,-0.124805057329197
0.0997798530479043,-0.13844269577356
0.131465321793762,-0.132984296564571
0.0935773032736361,-0.0863610508791073
0.0992957565824794,-0.136398258416869
0.0853084112726632,-0.141401824068842
0.0691302016581834,-0.104084397202692
0.0659279785335175,-0.0772022091171298
0.0621210747960103,-0.107608865978933
0.041239228400156,-0.123398937813002
0.0415679622156505,-0.0760480093006332
0.0302827171562744,-0.0906924118849672
0.0129380858146691,-0.0967921450460548
0.0151353167891491,-0.0856323386535474
-0.00056892806159615,-0.0770673955459134
-0.00874273158110956,-0.0546419845574444
0.00831102761301471,-0.0672574031679987
-0.0157438742501117,-0.0532200755947159
-0.0371424928090758,-0.048375202997872
-0.0157349797067878,-0.0690962019079554
-0.0361361863373298,-0.0692305376981983
-0.0590409275314656,-0.0637216376734895
-0.0178799271520242,-0.065233419211491
-0.0572862758846137,-0.0628133342565843
-0.0642274040943367,-0.0607545486895116
-0.0242772074731385,-0.0543079346813369
-0.0896555048764888,-0.0442254496272786
-0.118612312986153,-0.0510901425088329
-0.101543399867608,-0.0320532508708196
-0.0721739434233045,-0.0527656357855161
-0.0771278189570743,-0.053934803485497
-0.0952232896538482,-0.0699969270678625
-0.117813609856488,-0.0457031026270821
-0.12427084658658,-0.0439962931401908
-0.130674922096471,-0.0423276809272008
-0.133256353220717,-0.0896046555806239
-0.144567756130672,-0.0103949776647078
-0.156045427069948,-0.0557204520390319
-0.170871629336814,-0.0532959345116067
-0.149831554654592,-0.0202827663809735
-0.172499146258455,-0.00707423161251561
-0.163351158699145,-0.038116104326105
-0.19320782943734,-0.0894805578599778
-0.192778452926824,-0.0160574183561992
-0.15321624040479,-0.0128311164060918
-0.197645689558282,-0.0264418471971288
-0.225516879230304,-0.0180531246287177
-0.209145242164914,-0.0240287567531961
-0.219499711660565,-0.0283251280656028
-0.186242612753544,-0.0349098087459608
-0.227682905979002,-0.036127943266418
-0.252308412520841,-0.0278119645847361
-0.217106875466851,-0.0292263087825795
-0.254133922491166,-0.0175512133933334
-0.238019200411892,0.0288600693272037
-0.231883766567301,0.0110293084357132
-0.268609757134407,-0.0254993830029227
-0.264464814427863,-0.0549842131349581
-0.243577873323575,0.000431616564363078
-0.263976308362678,-0.0146884837623435
-0.260896253525643,0.000312180128243951
-0.3019073094973,0.00609722300283105
-0.28889643477644,-0.0103747544522079
-0.284557547541806,0.00571162013765353
-0.298676883761024,-0.00912715688500607
-0.302539981259138,-0.0207595496057534
-0.282536560503414,0.00251982442059317
-0.312977259575068,-0.00749941465420931
-0.317645789069469,-0.00702107939905021
-0.308052885724066,0.0109275972131813
-0.326836179792558,-0.00615968370604898
-0.331358282821151,-0.00577625879642598
-0.350795679528626,-0.0122363248485166
-0.340256908712192,-0.00510304367148315
-0.344633673374543,-0.00481288898438238
-0.324740154645665,0.00998605220781635
-0.370628457945392,-0.00482021238535546
-0.357475225028343,-0.00412604959387738
-0.357087361600657,0.00106177099769732
-0.361857763392279,-0.0111130659704114
-0.379008056062668,0.0126081146055822
-0.37392807538735,-0.00363191783182133
-0.391578910049709,0.00305039290421845
-0.391111352469487,-0.00539886798457212
-0.371404490600824,-0.0111396603352882
-0.411152264687257,-0.00702309373631036
-0.393429489579174,-0.00367551026117503
-0.397189028249465,-0.0037705740057312
-0.400901934296952,-0.0038939942861048
-0.41364568251114,-0.0119672326592692
-0.408188332123323,-0.00422517551074257
-0.389362426625386,-0.0097694626944393
-0.415289650257901,-0.0046675960479648
-0.418771206690646,-0.00493006546906897
-0.422206855900299,-0.00521979801064798
-0.425596718786811,-0.00553661143681133
-0.437807132720664,-0.00854504486911947
-0.430440730678661,-0.0210112573460585
-0.435492798507017,-0.00664771466390304
-0.452154163214177,0.0134105406054186
-0.441863469870564,-0.00752051358022788
-0.482777550926944,-0.0156609936721096
-0.448053897540389,-0.0084972623735195
-0.436422859637586,-0.0238477823384341
-0.444268053594928,-0.0205450916376111
-0.457003697868555,-0.010154102454687
-0.438558689246943,-0.0239067879677989
-0.462747747802389,-0.0113843476842302
-0.465553390383677,-0.01203662914396
-0.46728384724583,0.00767574560074214
-0.494903157252646,-0.0172386820776829
-0.473706239384454,-0.0141399220722965
-0.480714050571041,-0.0258410472502618
-0.478922615431915,-0.0156623354565725
-0.466012738352803,-0.0146691431095089
-0.485000902609301,-0.0291299005780256
-0.485842948518511,-0.0131973078041049
-0.50326996645903,-0.0139757084832004
-0.479598117302056,-0.0117940009015888
-0.482317951469964,-0.00363146904687062
-0.492790820941016,-0.0147820937799901
-0.49805822265561,-0.0226821462290798
-0.500257554999084,-0.0236612583724339
-0.502414486218068,-0.0246623487954398
-0.508355525407093,-0.00468665713666942
-0.494613805123104,-0.0342052727254815
-0.508632082127589,-0.0277956673834654
-0.496092768865271,-0.0455239751653508
-0.512567356943931,-0.0299910968490842
-0.545035381766872,-0.0161912393631407
-0.491166052318671,-0.0123541945100491
-0.518158003482468,-0.0334404219401065
-0.517171284908919,-0.0581110935705724
-0.512968156091709,-0.0157977762343305
-0.514692369026467,-0.0577534640914865
-0.516797975722887,-0.0527316853246143
-0.48772873507643,-0.0380851019984503
-0.558285799748467,-0.0365842308646509
-0.490682146630182,-0.0700694717669014
-0.531257487151662,-0.0435201371096065
-0.532712096946919,-0.0448669761954588
-0.580968072005177,-0.0598585982181861
-0.555187681520157,-0.110947257520322
-0.502650447155512,-0.0418234107203202
-0.537057704774317,-0.0384711672604589
-0.472191656652196,-0.0499771497424653
-0.535605619709294,-0.0427028968230388
-0.536315348483461,-0.0644632794777613
-0.532550511618196,-0.0809260123976323
-0.537262334564659,-0.049544855763113
-0.545065772496784,-0.0593336899813817
-0.54608455761044,-0.0608761844631243
-0.555218546674251,-0.0855730188879509
-0.554066199660884,-0.0491902945186343
-0.548908026395877,-0.0656030995977653
-0.534324494381712,-0.0271298470527715
-0.550597475789412,-0.068835413736466
-0.547371129083849,-0.0982667923369022
-0.530942923190067,-0.0983268673439596
-0.541765679304272,-0.068434869231948
-0.562830905222063,-0.0756712963769153
-0.554153130815123,-0.0771891994942324
-0.561228928576305,-0.090152758020184
-0.545397878267877,-0.0993256328657438
-0.557545317270237,-0.0689427538101184
-0.58118851328486,-0.0626607097323145
-0.535727339672722,-0.0688577393072381
-0.562332125930654,-0.0791716011298754
-0.565659348613109,-0.103322578692753
-0.582581820021281,-0.0930424281116219
-0.553535649620064,-0.0597520683116983
-0.565516433137982,-0.0591303135575961
-0.558680479942506,-0.0968441096779809
-0.571810759234391,-0.0724742951725025
-0.581643082213084,-0.103245988970022
-0.57720871964896,-0.0785245808547491
-0.585514169851206,-0.0768820702376861
-0.569351831887357,-0.112903262728408
-0.559285504134998,-0.108236650570521
-0.558928121859196,-0.101443127861431
-0.586095079870881,-0.0985973416860535
-0.573175346020294,-0.0993929029312838
-0.569698679238411,-0.10429649015594
-0.573188248046953,-0.130142490279281
-0.572168729084192,-0.0862708366047076
-0.558372001254976,-0.1220608590428
-0.568303701778752,-0.101584569429193
-0.554829585279737,-0.125055961798057
-0.571248214078068,-0.141247060397776
-0.580547365889401,-0.148684479505724
-0.557505729001725,-0.0882769814797394
-0.556230834413394,-0.134321948980657
-0.553994155343035,-0.14485363919244
-0.555243350310837,-0.138486154835132
-0.550749967523801,-0.156946167075625
-0.554120597296623,-0.142686518815331
-0.553508797197524,-0.14479980451285
-0.558375675609603,-0.148745006091105
-0.5521849543151,-0.149051672143276
-0.571538949249241,-0.136821612378926
-0.550728260520054,-0.153336053181615
-0.543417688269287,-0.142247001819599
-0.572492027824577,-0.149718472774351
-0.548296240115475,-0.15982039825088
-0.547420188990554,-0.161996523933541
-0.546511650537187,-0.164179684552838
-0.545570745655328,-0.166369697872881
-0.584359043982228,-0.180849213320607
-0.556502523744447,-0.151050593130527
-0.530171960900933,-0.175425044222026
-0.545153710420617,-0.209329207401554
-0.524308660732741,-0.162316261585718
-0.53925239176312,-0.179643479298923
-0.53808830708046,-0.181876358919251
-0.536892823168921,-0.1841146333532
-0.536625271718399,-0.155862780567858
-0.543062437094724,-0.161745052184694
-0.540801861114388,-0.215043613324097
-0.543793599217648,-0.166110828538268
-0.530448646676359,-0.195380549471109
-0.529067306290536,-0.19764736583309
-0.499973893313696,-0.215130326759063
-0.566683838952455,-0.175647233079828
-0.524740451157576,-0.204471800949804
-0.537660215098878,-0.183874024564846
-0.521933873390159,-0.194968961489716
-0.520141883960369,-0.211328388158975
-0.518549211969019,-0.213620211703978
-0.466679420944276,-0.241607294823963
-0.506095974058251,-0.20365234896619
-0.522679611484454,-0.204677920664763
-0.514980023078894,-0.202021234116907
-0.545087154144171,-0.211078349345067
-0.50016905036074,-0.245109521524114
-0.532372465951423,-0.254460483062009
-0.481826883208228,-0.238288715553823
-0.505049591941389,-0.212911957129277
-0.501008575922121,-0.236664771345644
-0.499095780503029,-0.238977850539385
-0.514427315850523,-0.229104737793782
-0.497706098111884,-0.234740715321144
-0.469286202454069,-0.253868832115327
-0.523235707670482,-0.272537059425318
-0.506689476253213,-0.238092383725202
-0.50618238862952,-0.281068246626161
-0.484918434524337,-0.255182689343807
-0.490333430495289,-0.250271380333417
-0.48061817687164,-0.259811446212433
-0.501015873356629,-0.296417354593763
-0.476208764696871,-0.264436998254447
-0.473963427913589,-0.266748116875748
-0.471691165199644,-0.269057887582724
-0.496561327566502,-0.246825778478093
-0.495468261861255,-0.248608944400139
-0.481049391702125,-0.280014204687781
-0.487356264552566,-0.266016849100689
-0.459930194168295,-0.280580144146573
-0.505106907203298,-0.281426642978897
-0.452217275162222,-0.289844548729245
-0.452558237978448,-0.287465660016
-0.400322002987245,-0.270930929358307
-0.484717777005116,-0.301909380409813
-0.444953741308733,-0.294324283549381
-0.442367797623076,-0.296603664885009
-0.46505584261326,-0.323983185010304
-0.437119968457847,-0.301151094377673
-0.463394973193759,-0.283219555230672
-0.464581698923451,-0.294015837462631
-0.42141518552386,-0.291164718447426
-0.448792495094054,-0.301282192502952
-0.440827324020149,-0.367753294773083
-0.430150849047695,-0.324491152291899
-0.443487770507969,-0.31367391725352
-0.415133826537639,-0.319162975369851
-0.376913518076014,-0.34512800252342
-0.382680887683607,-0.337994101982144
-0.385831197743401,-0.353843556104659
-0.433151846906715,-0.306307894953728
-0.405949209536182,-0.33694348719618
-0.393916654053406,-0.335164630965532
-0.394626211940295,-0.334635745026344
-0.383284213613206,-0.333063989788621
-0.380321039669196,-0.343217985953999
-0.369824890494276,-0.320644947778998
-0.357322474739564,-0.337442379210266
-0.385786325957387,-0.347495659546119
-0.367368976206105,-0.365448983875458
-0.358637926783571,-0.371324789870991
-0.368920087029233,-0.350151989468552
-0.366587558972402,-0.354029879335804
-0.397868332585538,-0.357878647716002
-0.353343520173407,-0.355177297435698
-0.3568371939324,-0.360348959211415
-0.348537678174824,-0.351789672153079
-0.350227508409041,-0.364516973746358
-0.34689019569821,-0.366587022691519
-0.33455512792864,-0.372161227736856
-0.354505054062465,-0.370122837125489
-0.336749828568529,-0.372739149407074
-0.33332729952608,-0.374769910819314
-0.329883768650605,-0.376790394758599
-0.314799406686365,-0.361049552477663
-0.322934185000387,-0.380799801274738
-0.330213662880375,-0.378647195965876
-0.326587478166663,-0.397962079976178
-0.268912852836903,-0.378622275567473
-0.336183441576809,-0.397610332306291
-0.308285963579151,-0.418910956773234
-0.28862124352565,-0.376511593561177
-0.284773933642178,-0.396129704525916
-0.294319957068869,-0.396389881242959
-0.30527677564925,-0.39116947559928
-0.294201798285285,-0.45432766593256
-0.291326200628945,-0.417984904556237
-0.263763772160046,-0.378583058799245
-0.28791135126935,-0.416115816667035
-0.250692800974163,-0.40660418566269
-0.271952034497083,-0.397512023376019
-0.282857912068671,-0.407077395600296
-0.268236894898482,-0.423334742364749
-0.269516880435063,-0.463567933144875
-0.23067666641531,-0.418650312439057
-0.249057327137221,-0.418271995322701
-0.262660097331242,-0.412514656816559
-0.232412643187597,-0.428324377269149
-0.221523385158343,-0.43012163899055
-0.222688019378038,-0.440254025700776
-0.229411510553119,-0.426792686398186
-0.22011650157181,-0.460744893755977
-0.216450666550983,-0.435545019384289
-0.229509240425951,-0.42175874432588
-0.22061444780735,-0.447459572707284
-0.206425796766738,-0.463888819326033
-0.219490506094265,-0.404568532316012
-0.205281113084994,-0.436451284388014
-0.226601766766334,-0.433197826591237
-0.197167004655873,-0.439391954737802
-0.193103512872027,-0.440796416165875
-0.189035933814386,-0.442157253651022
-0.196405072404179,-0.422071123248159
-0.155302530259938,-0.429255007497482
-0.161108680121985,-0.43343159657541
-0.192163895110013,-0.453025437135245
-0.174634307829634,-0.435424926309809
-0.16065527087771,-0.413630428898089
-0.160461316405562,-0.450480034607309
-0.159867143471278,-0.4627307064277
-0.152269094308797,-0.452477834761395
-0.148169075624525,-0.453414473209189
-0.141595871165999,-0.437580890707261
-0.172431225913397,-0.453226994881239
-0.106921838246388,-0.454798029887083
-0.131746527665087,-0.456751057517077
-0.127636039016124,-0.45748380580431
-0.105678757503414,-0.448024085981389
-0.0880612416658783,-0.450791737439724
-0.129502669094185,-0.47835302751092
-0.11117927766276,-0.46001577528078
-0.107062152281524,-0.460550106312864
-0.108247543138886,-0.456476073665049
-0.0765317839080337,-0.436649699786689
-0.0947061853036166,-0.4619198148597
-0.0905865104639026,-0.462299352579561
-0.0488202374728544,-0.440404745683671
-0.0689380382449816,-0.449089260934016
-0.0782265750136809,-0.463209935178922
-0.0741068039842358,-0.463438182246023
-0.0600003909887056,-0.441513023228407
-0.0325458046554466,-0.480798264302423
-0.0841726765497858,-0.476853991663055
-0.0576328459175117,-0.463980605950103
-0.0372868006387697,-0.459767124654465
-0.0494010891249368,-0.464032543890578
-0.0342660722501367,-0.466764190052321
-0.0349670490688716,-0.477711898978256
-0.07569949054639,-0.450081519744541
-0.0636922610024424,-0.460671699763649
-0.0288467673089996,-0.463536886956927
-0.0247414273228426,-0.463332278022526
0.0152806391004284,-0.473866377002515
-0.0244107184603884,-0.461424446956417
-0.083254368628836,-0.477260065967571
-0.00834359294487327,-0.462169547666575
0.0173686198701376,-0.442626687158838
0.00143696688093544,-0.458425308664152
0.00605066208582988,-0.4266997749739
0.0382209104164086,-0.46158345609422
0.0233147240984493,-0.452940025089626
0.00762261140170235,-0.453214222640635
0.00661811341659839,-0.449468642101954
0.0283154201775782,-0.426185333366906
0.0283720509426132,-0.457599044975424
0.0467442176086499,-0.458236099195983
0.0313477963023909,-0.442132487781095
0.0496795907983144,-0.470269980202756
0.027843136531573,-0.468381078535225
0.0486300484593737,-0.453936574370251
0.0526673838157842,-0.453111080925885
0.0566996066881886,-0.452255098511579
0.0607265637472902,-0.45136884604355
0.0531305192116755,-0.473284037438861
0.0754672539545975,-0.486069282797872
0.111711485070626,-0.429316191343138
0.046726938564284,-0.466191063938065
0.0825883661239547,-0.467017981308597
0.0661542036519397,-0.443419602411576
0.07125842887898,-0.44629713620723
0.0666133816356556,-0.424287107798074
0.0967069163466256,-0.442066542589492
0.087741284638382,-0.430043320672729
0.138039441261319,-0.455107797135253
0.108583503154898,-0.438452437739634
0.0992786994428049,-0.448197373944969
0.134081273758514,-0.418631441215186
0.119871822125933,-0.401303587351502
0.12431660937764,-0.433250714881443
0.132504571982395,-0.429874078293913
0.127920016520277,-0.431109834277574
0.136034315378098,-0.429069897511592
0.13992375701884,-0.427624216374565
0.13263737348814,-0.452566430236323
0.183829396803519,-0.424097943703651
0.15154055425268,-0.423134011749288
0.154990033561711,-0.402006680661098
0.159240612708619,-0.420015096816103
0.161220757722223,-0.388683565682389
0.166903661664491,-0.416797868954537
0.17072092425666,-0.415152934966153
0.164033684832935,-0.404666138270726
0.178326159022983,-0.411791521455265
0.166556380798804,-0.40037082273695
0.198758844916518,-0.410823099835411
0.177320660435462,-0.395475158420035
0.193415173663254,-0.404788641951067
0.197161229799846,-0.402980854819109
0.193167266755857,-0.371724448488523
0.184627235250063,-0.408834111061721
0.184026926141125,-0.373616039364826
0.182764727493068,-0.392223801879873
0.1914351898393,-0.412213155615628
0.207123815065141,-0.415015285965413
0.223073037611844,-0.389711710245468
0.226728515184263,-0.387730940208126
0.252130615654409,-0.410831955909703
0.239194174927962,-0.387866626753663
0.237622260770189,-0.381665679319772
0.304477882467292,-0.392941166808868
0.274214531171403,-0.354428207860961
0.235250586130365,-0.403676042875232
0.230924128880433,-0.386237504268955
0.251584828496743,-0.376145927437074
0.275908947525574,-0.346102283205862
0.262597314944862,-0.366824285299477
0.288492537233451,-0.34269494321971
0.26961343429059,-0.362414566062407
0.2854576056637,-0.380431720025749
0.276574144620651,-0.357932803842931
0.263827307930878,-0.371732008854528
0.28347821930067,-0.35338074997078
0.290310572387032,-0.339562189527677
0.268280911676961,-0.323181483318304
0.293725456214177,-0.346424703347575
0.297111555173087,-0.344072772587379
0.29474960411074,-0.365712846853644
0.301777947378865,-0.304518580069533
0.282809250480822,-0.324551050899972
0.292782988076717,-0.36004712090453
0.315983149000126,-0.336161776552653
0.326823733334262,-0.327571681759734
0.330738035041825,-0.310663855098067
0.317732829701764,-0.334116515075459
0.357614856946887,-0.304205940072812
0.334774838264224,-0.331839428920848
0.338045831139201,-0.308318227785385
0.365481047569901,-0.308717527310791
0.347720806123335,-0.282639478285904
0.34286389249733,-0.309538110156759
0.362485998486991,-0.324705431857978
0.36451058576567,-0.283083654749146
0.317239705729716,-0.296383126331572
0.371757070448327,-0.294619594423424
0.357482310854325,-0.306315090230869
0.369925038962442,-0.290934303745356
0.364500282998188,-0.291263432530604
0.348057458178425,-0.304010666425851
0.403338063369756,-0.274782603133419
0.37350160631739,-0.283252116879481
0.376464734280031,-0.280559375587468
0.379408950121964,-0.277855847784996
0.381536194641871,-0.287367450641667
0.408954093594577,-0.281045886650526
0.387614846647355,-0.260042681774995
0.39234828665758,-0.269614886790341
0.403072431829899,-0.272624557195656
0.392222004182085,-0.243794391422983
0.39947604197476,-0.258647519837023
0.405037919423885,-0.25460548135722
0.405030547933564,-0.253074825767809
0.407777209457103,-0.250275473252653
0.410503272237671,-0.247467742305418
0.430188908555004,-0.230728816595082
0.428738280400229,-0.243175947973087
0.433474963970915,-0.236037906055334
0.423454019952109,-0.217797372633068
0.40492350482218,-0.26060941494415
0.427419646062205,-0.234559834193899
0.479288492785662,-0.272754819951113
0.434638960339172,-0.228687274530713
0.451820660762734,-0.180407532061788
0.426814271966591,-0.227768794924781
0.438595690164847,-0.193459249056321
0.443949112294454,-0.200621648195578
0.443997837944681,-0.210304409550758
0.490752810569222,-0.201107823593225
0.448818100867898,-0.204495229274728
0.451193730976578,-0.201583216019683
0.49109471976893,-0.195765632210295
0.44752736523199,-0.218372734367103
0.467217347433587,-0.170690794076587
0.439621528738159,-0.202280876016796
0.46272073481882,-0.186957675222809
0.457321509246904,-0.187844693050847
0.466680815116503,-0.139921910554523
0.458604163811553,-0.169638165056906
0.471511762093426,-0.175191808132321
0.508789951836611,-0.163790575321286
0.488209816601193,-0.126025943719266
0.436090985850941,-0.158387571837609
0.4584574669899,-0.148530505667126
0.515612690694672,-0.158434672527511
0.479647888998771,-0.174350426735641
0.485943622415692,-0.154506534495961
0.48790390894277,-0.15154512728758
0.489838383530791,-0.14858278479848
0.491746892850456,-0.145619725944877
0.462293887474911,-0.142493717617469
0.454959802940574,-0.081149967986321
0.466596255670057,-0.117428320421254
0.476303729932208,-0.144619775244833
0.486754137006563,-0.115938652375523
0.508645964585345,-0.140919956912423
0.484083733847312,-0.104639810331168
0.498736768987446,-0.106951409501246
0.500963479051065,-0.134630611550274
0.509370163842305,-0.115997898928843
0.51045639912237,-0.0987447253143778
0.512567901890745,-0.110086828773253
0.503819017320191,-0.0818915092985939
0.491825960307251,-0.111312437071552
0.517154436521073,-0.101236742427744
0.50652427452172,-0.0955713441757959
0.490789890138925,-0.118919936103826
0.521485204317483,-0.0924117327368829
0.539238278385392,-0.0968890686145055
0.52422824577229,-0.0865452433006652
0.501577367438849,-0.102715808721561
0.526854546492754,-0.0806942773686195
0.528123535754367,-0.0777751630072023
0.529362879844504,-0.0748605862704776
0.549066329411011,-0.0796581945327743
0.563685008478331,-0.0995607713715815
0.561889713720236,-0.0388945386213084
0.536673575716158,-0.0453229189245888
0.582746079686698,-0.0754604639687579
0.555717341591272,-0.0670521036128513
0.537195344013226,-0.0546039915669714
0.538192006876878,-0.0517335968115776
0.536314088132426,-0.0404412522440938
0.540092103869449,-0.0460125498289275
0.548963114605096,-0.0722582378940813
0.541866873687063,-0.0403192856585704
0.542706877582019,-0.0374836194185428
0.513517980862963,-0.0464434728009642
0.544291356697749,-0.0318353132098721
0.543701005407347,-0.0839417085656805
0.534728049525478,0.0135271873116278
0.546043186197295,-0.036211778588637
0.547073907012164,-0.0206369355321282
0.544966677997277,0.0223878304332114
0.50967565965256,0.0011981043667839
0.548817882947718,-0.0123310035317863
0.549295951686535,-0.0210123196204328
0.513943105052168,-0.0358391083936082
0.550263313175578,-0.00411122581047989
0.570399024780263,0.00315954566600737
0.490861759441957,-0.00731342680080969
0.539323822854616,-0.0171095577582678
0.551718993678023,0.00670424396043903
0.551997684500935,0.00938089591574544
0.552241976944176,0.0120462238436498
0.542134861068643,0.0180160103242019
0.561516442044931,-0.00918545699374473
0.552766930702893,0.0199720743007849
0.566418516299292,0.000566411473388779
0.572095823594675,0.0383119793077264
0.547302198112507,0.0311751733039809
0.552975989755098,0.0303680576095366
0.56143072716919,0.02910424461897
0.583150730191191,0.0309461044333956
0.525629754819464,0.0462956330483682
0.552615048582564,0.0405548352041481
0.5410341814173,0.056041803336563
0.567858409061119,0.0304800686254218
0.551964376877756,0.0480491988758691
0.533519570861436,0.05427436246295
0.542068250509836,0.0864865348491828
0.552384221618765,0.066385119851314
0.545866801085445,0.064874648934788
0.546433642644056,0.0626854859543475
0.508654332588975,0.0313682510371966
0.549154546363387,0.0650145593804058
0.546334643783151,0.0426521586626764
0.536273426167185,0.107294248955391
0.554235715587307,0.0801715087074256
0.530354078567153,0.0556554285902641
0.546017442427349,0.0766528468259121
0.542259293743785,0.123630094707987
0.498307272854824,0.0792179207076693
0.554762166323281,0.0963806241381272
0.508774271081571,0.0857162967909934
0.541916881724232,0.0878602651402621
0.547068033446442,0.0723386108423443
0.564379216576476,0.0826335859166403
0.538986112930735,0.094366515302662
0.50872080661926,0.113624452484519
0.531281594655112,0.107177279218362
0.5106377483843,0.0950466406447211
0.501545249399008,0.109486263620542
0.533304155783151,0.104827624790886
0.532046783016201,0.106860480325217
0.549451032421875,0.101234647573506
0.529409829510494,0.110865073700832
0.542535648937278,0.106922671066481
0.550036632422295,0.0946223185051573
0.531376082118397,0.117531839544392
0.510597924750163,0.117570380794215
0.525080282035028,0.106288956832246
0.50757055595771,0.151884139608253
0.507375532387873,0.152229494638161
0.527440226385523,0.153372032795021
0.515707332113303,0.123834049119372
0.494168595694953,0.119336508478651
0.517678724591087,0.131881203045264
0.521352245816098,0.119774982855398
0.490816862063339,0.125676262724008
0.531186332274324,0.17729150684607
0.512923138238487,0.156614446126321
0.504245972222594,0.14539479365004
0.523709790046803,0.147030969498762
0.498151574736883,0.142963518065889
0.521080772350947,0.120128342741592
0.529352863417016,0.101748235651914
0.491587843768906,0.147570383724419
0.489311714975988,0.149055628168374
0.499436586510261,0.128602026123088
0.484626209708985,0.151949237395655
0.464156783790159,0.150845522916379
0.450529799669664,0.176789080216762
0.485455787791432,0.135502676218829
0.498215568998559,0.133584569222229
0.452936407020561,0.163163326279085
0.469492672749267,0.159999265824873
0.473152060984134,0.19469538482439
0.458923537743567,0.124677430191229
0.461312490067449,0.163658619107167
0.467351671697324,0.159399475996294
0.455629033463961,0.165958744523129
0.473165373244225,0.184597405191424
0.426782204390539,0.162074161668005
0.447172397846634,0.176977292208994
0.443704596844843,0.170216450117903
0.424881080624156,0.14981842801755
0.428915096751621,0.175942777672908
0.434268606522035,0.173103106370657
0.438131635214211,0.173750463520919
0.429977968144796,0.180668991033382
0.424405733870209,0.17572037547121
0.390999924183119,0.191015479085723
0.420183355567305,0.171407716962907
0.425438549177607,0.214785484903998
0.391188618933031,0.159839491522961
0.407007741237591,0.179467798666924
0.403382782015461,0.180123109264337
0.39970901145977,0.180746517710002
0.41491758123687,0.184991735029118
0.374649983179957,0.186281442562577
0.38178277263877,0.141257498444895
0.360243810825388,0.205606429784787
0.380602622152516,0.18337736559453
0.392754226409117,0.168926461919569
0.395839961304129,0.192737952498108
0.386944483041461,0.21879652352951
0.375124240263872,0.220509597530284
0.385310416501702,0.198591840818884
0.363501136954209,0.16729995241205
0.351760668909727,0.185659365718843
0.353728477766216,0.202824028917833
0.336509159684506,0.172964689016724
0.313869020712525,0.18248965992005
0.311453360691265,0.183323320613488
0.341635718903606,0.209300682605276
0.325059608020179,0.186263037296294
0.313910752287791,0.1834373775016
0.324087893455845,0.186683160004461
0.302966476419998,0.178463184351503
0.33832034920391,0.187728575998199
0.302920856619083,0.201756030115004
0.311840550814442,0.167726936735179
0.266709978914661,0.174542461407107
0.276912294380079,0.161781805600287
0.281506257119967,0.184719612527269
0.257487785405125,0.151789014823947
0.290852287053653,0.180982311569085
0.225188944712251,0.168365621566892
0.229781893983766,0.143847639015354
0.213504601919883,0.202925136828709
0.257326548201863,0.167641359900179
0.241800871162565,0.185360672266079
0.239184533231911,0.180766478705164
0.254435513165188,0.170043612983072
0.222628902105731,0.187497387122796
0.222421638723562,0.178633651981414
0.224927760546729,0.162839004415487
0.223630174308384,0.228525784520808
0.200665100846797,0.20516812961095
0.215043269040495,0.188427521987354
0.19338561329639,0.174267224208487
0.202263332455512,0.216438836035636
0.170150123554149,0.175247550112869
0.157671154388848,0.143349203523957
0.153980736530586,0.185890103969403
0.167806364990688,0.19055706085205
0.162960642303841,0.168862434803764
0.172394298992048,0.156640808995953
0.150585709230327,0.166562741632681
0.134416183094248,0.188553708418485
0.164680677908902,0.148461437404841
0.115012657797371,0.155800248340086
0.120030632206197,0.140195342468408
0.0891172514534424,0.180665005240235
0.121910598572338,0.183092971941425
0.123750251628574,0.18670826725961
0.103592356746442,0.121560868620621
0.104281289607601,0.15777595713059
0.0909525912875853,0.157225917109167
0.0851927238434334,0.156485949699983
0.0794695054424389,0.155780458802884
0.0887921157777374,0.15422698530751
0.0899994759291918,0.116621330929582
0.0392705648104398,0.166014286947529
0.0211045243744652,0.145605087115956
0.0716674182900601,0.160036505589512
0.0473963633391826,0.121416838569893
-0.00523040474547552,0.137588503579497
0.0349928986276564,0.151355353915535
0.0295956871798938,0.150951777072592
0.0485709050236445,0.134274520341295
0.00981619115891984,0.153501477576252
-0.0433292298309564,0.164247482264888
0.00836395875663329,0.149661763688182
0.00314487994441176,0.149419403332852
-0.0365884574588958,0.128856318837714
-0.024002256873309,0.14975856389733
-0.00644924366433857,0.14412566050885
-0.0277433440805328,0.101248059202809
-0.0224216548386724,0.148679154440152
-0.0321600408093789,0.11975249969124
0.0111060260924301,0.133046899057133
-0.00119036235487002,0.105077358677081
-0.0526039223429903,0.109283820105125
-0.0366121333111364,0.119978586125521
-0.0778382774452389,0.167699046977287
-0.0432515520980924,0.164318635716481
-0.0281828599974299,0.122188231578991
-0.0454419578695271,0.157291318666564
-0.0709445118830287,0.149481980589088
-0.0756078814862072,0.149724247990235
-0.0527760676233868,0.150131727999316
-0.134671599352196,0.163070450189622
-0.0999323211826646,0.183426985698568
-0.0939221365619917,0.15097853032733
-0.0984163205450593,0.151362473588663
-0.102876923033117,0.151774193718393
-0.0913054566914428,0.190541244069419
-0.0908996195636633,0.156356739802383
-0.126775081475334,0.136238670951665
-0.15310392603118,0.18940299620601
-0.126984870303393,0.153370375848694
-0.128940098307819,0.154817407065139
-0.132132711484242,0.135145893721087
-0.115458502858754,0.154074585816482
-0.167479226680685,0.140878511267961
-0.119338294050061,0.160227283947112
-0.149751541696938,0.158083163512511
-0.141242726195537,0.157571283033463
-0.157847609732165,0.159569574376791
-0.161847018305515,0.160350630036647
-0.171829887203843,0.128667419293879
-0.152004864381522,0.139845553708012
-0.162573158250669,0.178580975655547
-0.177522471196136,0.163722845165866
-0.179815985099701,0.173988792185859
-0.185168081735171,0.165555142807362
-0.172355991213978,0.18637731259435
-0.192686523906511,0.167482915420505
-0.196398269878473,0.168482139588409
-0.200078479387522,0.169504674195584
-0.203727237643331,0.170550333140816
-0.18611276181047,0.146606687453212
-0.172763217531686,0.160011585512812
-0.192018081798945,0.152969411566887
-0.195898797700415,0.166960908527468
-0.222002711543176,0.191255750311692
-0.198897058503166,0.185539918674651
-0.235798753099857,0.165378603683801
-0.235702312184363,0.205927302698092
-0.23516481514545,0.180971152160243
-0.238503747400742,0.182237818919301
-0.241812165709173,0.183525562903066
-0.245090155280411,0.184834198010327
-0.227860114673731,0.187628974164989
-0.259315686656419,0.20828222255443
-0.313106922831488,0.196662843833343
-0.267763619788025,0.20130820803951
-0.211464259053925,0.199939272636806
-0.264123860968382,0.193114300579308
-0.267191235250061,0.194563962717049
-0.257083186523838,0.173415439314342
-0.276456225977165,0.171625432065338
-0.275843271540016,0.14724635379394
-0.278057978622475,0.185941320963417
-0.282083604954486,0.202099586088265
-0.282389546285289,0.200277310312254
-0.26726519029215,0.216135881412387
-0.259984941852015,0.21287873858688
-0.293469211253511,0.208461693931441
-0.319301163450411,0.166870289071065
-0.291889484850581,0.24229097181095
-0.301703825929651,0.213420063898138
-0.290397150009336,0.209253237303231
-0.307049804312078,0.216811799540739
-0.315382111634783,0.228345231632302
-0.294475128847997,0.213488234378719
-0.325993175411032,0.212864891302244
-0.31739979326108,0.223795344777782
-0.319708128410357,0.209135092296762
-0.308454890768441,0.231810810253545
-0.325549354084771,0.218871771014622
-0.32165380396452,0.217991335911887
-0.327816673848844,0.221454264310438
-0.334804272415347,0.224610685366718
-0.352450986726746,0.219742639434715
-0.341513592392776,0.276365315505331
-0.301691839696636,0.235732871729704
-0.32698160217323,0.248674764997914
-0.31505748387548,0.235482569390596
-0.34576309835163,0.246239377804608
-0.343421125508149,0.270306805143075
-0.3320454011796,0.297443788793151
-0.328824521152509,0.23933246258317
-0.357671895865672,0.263195832835076
-0.37734386657043,0.265769897750028
-0.348815790987674,0.240437750868974
-0.360490729397383,0.260271338567098
-0.378211040018345,0.26815788886395
-0.364457997118757,0.264395910851679
-0.36640195255061,0.266476506594261
-0.375788885880252,0.253255563261941
-0.377820008287814,0.274148447984375
-0.372076127646882,0.272789299008608
-0.37391523964478,0.274916611204879
-0.349436470993725,0.274136985891784
-0.373307805560686,0.277445407024211
-0.399378148352032,0.287124300554832
-0.381012561389958,0.283536137581713
-0.382722536313004,0.285717658067791
-0.384406939450091,0.287909461908189
-0.385200967823393,0.311477369462546
-0.405556272729716,0.306395260578276
-0.415331315479144,0.294297285750924
-0.417997412903522,0.261007668275618
-0.401562070915631,0.307013645598042
-0.379386374478253,0.315636903776801
-0.39548890901522,0.303524390210015
-0.39697180541279,0.305791761241289
-0.411371209201542,0.32228585794537
-0.399863268720836,0.31035214253282
-0.424400190814202,0.294576213715768
-0.373153862022552,0.263485114800403
-0.444469299094761,0.336892101561124
-0.370400552021225,0.325449188303093
-0.40731659288456,0.329160756986579
-0.407949157844528,0.324225000951888
-0.409211877699954,0.32656314833006
-0.433967916881026,0.330453014076661
-0.403083797376333,0.35977427882119
-0.424972357542319,0.346686682564978
-0.414023229099523,0.335983212155373
-0.400749453502858,0.314344915979418
-0.416286380921416,0.340731123238616
-0.452319737149224,0.389748989805515
-0.435739022166994,0.334855339186578
-0.429786891482035,0.347092250203279
-0.424930528623759,0.326159728032629
-0.381502360794346,0.389678306446445
-0.441615975360654,0.348525160310038
-0.443500251340071,0.348810604551413
-0.413058260946789,0.398371165027497
-0.437872581235123,0.353175916765297
-0.388026825603469,0.332146345234154
-0.427069830515232,0.367220625637568
-0.427912903236366,0.369655103114635
-0.41243009326238,0.358316293390415
-0.429531621174873,0.374534623099452
-0.440835757633607,0.357581606626274
-0.431061003839504,0.379426989117088
-0.423122978495474,0.360974206130099
-0.432501732907624,0.384330712357835
-0.428737567471878,0.391934481319156
-0.4338544900566,0.389244304011983
-0.434498092185586,0.391704335241049
-0.430962749402664,0.396050102118397
-0.435720169600908,0.396629937997097
-0.425145861454686,0.392966708407277
-0.433597288861785,0.417413217721255
-0.442783592575844,0.41256978456387
-0.437906202931729,0.406498093866874
-0.460677680595282,0.427786990241605
-0.443052756856987,0.414058168979553
-0.440939463808052,0.399578839970117
-0.439752618778564,0.416378924815505
-0.440161796580931,0.418849717274632
-0.450850651151748,0.404306594607821
-0.437993903199534,0.48124436671255
-0.442909188013876,0.434511478232177
-0.414552618715747,0.395679858627725
-0.450314712188777,0.412438453529996
-0.442183044801304,0.433665053900485
-0.457020227372122,0.458455773007763
-0.4368646468458,0.423229493813426
-0.443833186469215,0.453311178635562
-0.443013162282057,0.435163996072495
-0.475443740976448,0.451012564403154
-0.452845383602538,0.445307335154561
-0.427817849848884,0.433195615172516
-0.446062801755023,0.439774291132576
-0.403733155249076,0.458877317655434
-0.462747105265926,0.443489727186732
-0.450262184274391,0.452678574426238
-0.444052757602889,0.463119997830592
-0.483149399110759,0.465766695669672
-0.444090672167349,0.467989005978802
-0.444080943068273,0.470417812596647
-0.444052203327887,0.472842572775367
-0.444004538155863,0.47526310041375
-0.443938032761872,0.47767920941058
-0.406579473317758,0.464546552461706
-0.438494873359654,0.490624361150515
-0.443626327344798,0.484899163539625
-0.441015855108779,0.499818914305938
-0.451288709924741,0.483144058151482
-0.470577333554437,0.5150367193127
-0.442952126401176,0.494452617923004
-0.442737966779589,0.496826678143732
-0.442505733823072,0.499194644811985
-0.459746805324864,0.525004857370767
-0.419420623148176,0.494385944256428
-0.441701447040641,0.506260122489767
-0.421211612552904,0.531656600086265
-0.464773070402031,0.470394421948245
-0.435942228825903,0.553564631521601
-0.433843907331517,0.505554358910448
-0.438963588699323,0.525089247592547
-0.416122593929469,0.539792300738726
-0.439208116964263,0.522498223841469
-0.447718417729645,0.512128492169837
-0.459914910904544,0.540886715900352
-0.435376473936472,0.539043538985384
-0.437404489679705,0.531602138478172
-0.447863857969926,0.563408368909977
-0.478681119936654,0.551518537069191
-0.43587512148881,0.538337432567832
-0.435332139357236,0.540563891984034
-0.434772702874476,0.542780721924703
-0.406614208145367,0.53794428154382
-0.433604807694079,0.547184748974593
-0.432996519415784,0.549371573881386
-0.45186435993769,0.523859088764552
-0.431731687531354,0.553713915952599
-0.429082253821383,0.556738350507472
-0.432091566351355,0.555426486211763
-0.445176551567243,0.563444853986717
-0.429011388321919,0.562268158291558
-0.428292094859187,0.564378457910162
-0.444089229973474,0.586805958030238
-0.426807042008968,0.568563841279514
-0.41600612844349,0.590731203353636
-0.425260602656884,0.572701029483633
-0.434410388765833,0.565849394752396
-0.405932761688862,0.557267688830398
-0.422827335106996,0.578813189083761
-0.436718174178643,0.590312858858385
-0.421130411838723,0.582823375832322
-0.422426222558818,0.606508968307207
-0.443975836141258,0.603286659952267
-0.429763770744454,0.566159380580622
-0.419960721728577,0.609247826163704
-0.416631467076284,0.592611934685927
-0.443058455057219,0.63035646508102
-0.398702561274006,0.622597920755027
-0.386882876182157,0.602614963631153
-0.400212012218616,0.59176500461848
-0.411774419578411,0.602043443392752
-0.392551352034055,0.590143425376331
-0.40252591180854,0.601206086718482
-0.425951784425907,0.609237978047602
-0.395352353689007,0.630059434908681
-0.392647711613573,0.57350195168067
-0.405488263872245,0.612857193833604
-0.404393220387501,0.614603419246886
-0.391231982310967,0.647527003792859
-0.436750969622044,0.633420979088695
-0.423505340307554,0.587766688298299
-0.399880882611554,0.621421307683539
-0.413703149213862,0.61235217058239
-0.397546608356786,0.62472743855499
-0.372628941704467,0.624483245697823
-0.395161172760644,0.627963042115578
-0.358861992077105,0.613174890610324
-0.35963251118811,0.636490515233555
-0.391488583020592,0.632680951977357
-0.405027966772082,0.619548354618598
-0.38897822640949,0.635733723718315
-0.400412959466812,0.636516449132744
-0.376988617093459,0.636007555622094
-0.38787248480993,0.652544330836631
-0.383811868452875,0.641610563955995
-0.405681871176369,0.643800640475086
-0.381157230462092,0.6444316548333
-0.409268721198379,0.639756800603119
-0.395368831829448,0.647877755691047
-0.351963813323984,0.65205445706271
-0.386879459460624,0.640724885216871
-0.387171836145221,0.633040393229902
-0.371553304873454,0.613286083764964
-0.371502468798923,0.653664091570158
-0.357270983259476,0.673905896902287
-0.368642912044173,0.656112537488151
-0.367196717478082,0.657304264416134
-0.356426367620257,0.658933087324989
-0.357446160283677,0.664941943883231
-0.362793491540997,0.66074722786146
-0.361304486181266,0.66185018955965
-0.344291752730736,0.66804665330832
-0.33263481945538,0.61830816923394
-0.348943177829344,0.656484494301574
-0.366604022957819,0.652235145510001
-0.358748544978425,0.678524576982228
-0.306686380004662,0.660655814773315
-0.315371408506938,0.644386225521175
-0.34902197264338,0.669842614465876
-0.364803374440236,0.666029107962899
-0.340448264271661,0.662829841258347
-0.371055883875115,0.688511387782477
-0.342642597240167,0.673265293273248
-0.341023872469727,0.674059203790512
-0.328268756403304,0.691753988567854
-0.336574901440105,0.689626765021763
-0.340098642013296,0.664975945546577
-0.349767583299153,0.663733986935885
-0.332791223583248,0.677648896208686
-0.331117485266791,0.678289559950196
-0.321632518891454,0.686557315403196
-0.328642657206148,0.684239532376398
-0.326043387013173,0.680053651868631
-0.304798749460986,0.6871392674054
-0.334615781224927,0.641350895682699
-0.33628643911777,0.682751001539545
-0.30419855683537,0.691726887034766
-0.295485254787166,0.694668486263485
-0.315664884507191,0.682854539718857
-0.302429105239259,0.655364306213474
-0.326299835121971,0.681068550390041
-0.278511712766,0.674123155760138
-0.304032152098106,0.67334517693663
-0.302542757712864,0.67284255681044
-0.304994645076951,0.684652201368446
-0.30318920087317,0.684851453227687
-0.303824170077893,0.652801405785526
-0.29955587566801,0.685162260536085
-0.297728165085973,0.685273443782814
-0.302700318184674,0.682690523216016
-0.300887399035249,0.685377240280519
-0.29220186393808,0.685427878678561
-0.276541929537596,0.66535363975288
-0.288482540768042,0.685379711893221
-0.286612598090602,0.68530973318216
-0.292626591887774,0.668973143455626
-0.295558843974623,0.711114412871206
-0.272535823136759,0.689966744235612
-0.279066274990357,0.684719507186985
-0.277003479819105,0.650393329776741
-0.262051144036513,0.703599526731596
-0.267101232035395,0.725141770270126
-0.295113648293198,0.735227385325292
-0.269490018961763,0.683269567012408
-0.266747028309919,0.685991077759724
-0.265617105150852,0.682463254177462
-0.246417894028122,0.658195743668327
-0.273378087579126,0.677452129520303
-0.257469840406281,0.683630853023829
-0.257802321498305,0.680454434171117
-0.25070926829558,0.677432290591265
-0.28541921314578,0.684940583514932
-0.260840855927212,0.651396938494603
-0.249900140987231,0.677907429651445
-0.241788101041255,0.659800299360739
-0.239637537614756,0.633905504935927
-0.256687482243809,0.702611801704196
-0.241916017036558,0.674810330140778
-0.239907821458984,0.673948707161666
-0.237894930464788,0.67305177273955
-0.235877429263642,0.672119340773214
-0.259983025270883,0.688802525824382
-0.21003063749187,0.677101489536141
-0.187208402016752,0.66588959617498
-0.244847534429889,0.668160819712758
-0.213502435218772,0.636290528486822
-0.242999563189994,0.697152474462335
-0.218110911666202,0.70100363935624
-0.193388169456326,0.664342048148019
-0.212549718162091,0.647394524161701
