-0.173448453829369,-0.467843651601315
-0.168237664865312,-0.459522676689734
-0.163061273330818,-0.451262143560979
-0.157919242080909,-0.443061798670727
-0.152811533970609,-0.434921388474655
-0.147738111854938,-0.426840659428441
-0.14269893858892,-0.418819357987762
-0.137693977027575,-0.410857230608295
-0.132723190025928,-0.402954023745717
-0.127786540438999,-0.395109483855706
-0.122883991121811,-0.387323357393939
-0.118015504929385,-0.379595390816092
-0.113181044716745,-0.371925330577844
-0.108380573338913,-0.364312923134872
-0.103614053650909,-0.356757914942852
-0.0988814485077579,-0.349260052457461
-0.0941827207644803,-0.341819082134378
-0.0895178332760988,-0.33443475042928
-0.0848867488976356,-0.327106803797842
-0.0802894304841127,-0.319834988695744
-0.0757258408905526,-0.312619051578661
-0.0711959429719772,-0.305458738902272
-0.0666996995834087,-0.298353797122253
-0.0622370735798693,-0.291303972694282
-0.0578080278163813,-0.284309012074036
-0.0534125251479668,-0.277368661717192
-0.049050528429648,-0.270482668079427
-0.044722000516447,-0.263650777616418
-0.040426904263386,-0.256872736783844
-0.0361652025254873,-0.25014829203738
-0.0319368581577729,-0.243477189832705
-0.027741834015265,-0.236859176625495
-0.023580092952986,-0.230293998871428
-0.0194515978259578,-0.22378140302618
-0.0153563114892027,-0.21732113554543
-0.011294196797743,-0.210912942884854
-0.00726521660660063,-0.204556571500129
-0.00326933377079792,-0.198251767846933
0.00069348885464298,-0.191998278380944
0.0046232884146999,-0.185795849557837
0.00852010205435065,-0.179644227833291
0.0123839669185731,-0.173543159662982
0.016214920152345,-0.167492391502589
0.0200129989006442,-0.161491669807787
0.0237782403084485,-0.155540741034255
0.0275106815207357,-0.149639351637669
0.0312103596824838,-0.143787248073707
0.0348773119386704,-0.137984176798046
0.0385115754342734,-0.132229884266363
0.0421131873142707,-0.126524116934336
0.0456821847236401,-0.120866621257641
0.0492186048073593,-0.115257143691956
0.0527224847104062,-0.109695430692958
0.0561938615777586,-0.104181228716324
0.0596327725543944,-0.0987142842177322
0.0630392547852914,-0.0932943436528589
0.0664133454154274,-0.0879211534773815
0.0697550815897801,-0.0825944601469774
0.0730645004533275,-0.0773140101173236
0.0763416391510473,-0.0720795498440975
0.0795865348279175,-0.0668908257829762
0.0827992246289157,-0.0617475843896371
0.0859797456990199,-0.0566495721197572
0.0891281351832078,-0.0515965354290137
0.0922444302264572,-0.0465882207730841
0.095328667973746,-0.0416243746076454
0.0983808855700521,-0.0367047433883749
0.101401120160353,-0.0318290735709498
0.104389408889627,-0.0269971116110473
0.107345788902852,-0.0222086039643447
0.110270297345005,-0.0174632970865191
0.113162971361064,-0.0127609374332478
0.116023848096008,-0.00810127146020807
0.118852964694814,-0.00348404562307698
0.121650358302459,0.00109099362246809
0.124416066063922,0.00562409982074993
0.12715012512418,0.0101155265160915
0.129852572628212,0.0145655272528154
0.132523445720995,0.0189743555752445
0.135162781547506,0.0233422650277015
0.137770617252725,0.0276695091545092
0.140346989981627,0.0319563414999904
0.142891936879193,0.0362030156084678
0.145405495090398,0.0404097850242644
0.147887701760222,0.0445769032917027
0.150338594033641,0.0487046239551056
0.152758209055634,0.052793200558796
0.155146583971178,0.0568428866470965
0.157503755925252,0.06085393576433
0.159829762062833,0.0648266014548192
0.162124639528898,0.0687611372628869
0.164388425468427,0.0726577967328558
0.166621157026396,0.0765168334090488
0.168822871347784,0.0803385008357887
0.170993605577567,0.0841230525573982
0.173133396860725,0.0878707421182
0.175242282342235,0.091581823062517
0.177320299167074,0.095256548934672
0.179367484480221,0.0988951732789877
0.181383875426653,0.102497949639787
0.183369509151348,0.106065131561392
0.185324422799285,0.109596972588127
0.18724865351544,0.113093726264313
0.189142238444792,0.116555646134274
0.191005214732318,0.119982985742333
0.192837619522997,0.123375998632811
0.194639489961805,0.126734938350033
0.196410863193722,0.13006005843832
0.198151776363724,0.133351612441996
0.19986226661679,0.136609853905383
0.201542371097897,0.139835036372804
0.203192126952023,0.143027413388582
0.204811571324147,0.14618723849704
0.206400741359245,0.1493147652425
0.207959674202296,0.152410247169285
0.209488406998278,0.155473937821718
0.210986976892167,0.158506090744122
0.212455421028943,0.16150695948082
0.213893776553583,0.164476797576133
0.215302080611065,0.167415858574386
0.216680370346366,0.170324396019901
0.218028682904465,0.173202663457
0.219347055430339,0.176050914430007
0.220635525068965,0.178869402483243
0.221894128965323,0.181658381161033
0.22312290426439,0.184418104007699
0.224321888111143,0.187148824567563
0.225491117650561,0.189850796384948
0.22663063002762,0.192524273004178
0.2277404623873,0.195169507969574
0.228820651874577,0.19778675482546
0.229871235634431,0.200376267116158
0.230892250811837,0.202938298385992
0.231883734551775,0.205473102179284
0.232845723999222,0.207980932040356
0.233778256299156,0.210462041513532
0.234681368596555,0.212916684143134
0.235555098036396,0.215345113473485
0.236399481763658,0.217747583048908
0.237214556923318,0.220124346413726
0.238000360660354,0.222475657112261
0.238756930119743,0.224801768688836
0.239484302446465,0.227102934687774
0.240182514785496,0.229379408653398
0.240851604281814,0.231631444130031
0.241491608080398,0.233859294661995
0.242102563326224,0.236063213793613
0.242684507164271,0.238243455069208
0.243237476739517,0.240400272033102
0.24376150919694,0.242533918229619
0.244256641681516,0.244644647203081
0.244722911338225,0.246732712497811
0.245160355312044,0.248798367658132
0.24556901074795,0.250841866228367
0.245948914790922,0.252863461752837
0.246300104585937,0.254863407775867
0.246622617277974,0.256841957841779
0.246916490012009,0.258799365494895
0.247181759933021,0.260735884279539
0.247418464185988,0.262651767740033
0.247626639915888,0.2645472694207
0.247806324267698,0.266422642865863
0.247957554386396,0.268278141619844
0.24808036741696,0.270114019226967
0.248174800504367,0.271930529231553
0.248240890793596,0.273727925177927
0.248278675429625,0.27550646061041
0.248288191557431,0.277266389073326
0.248269476321992,0.279007964110997
0.248222566868286,0.280731439267746
0.24814750034129,0.282437068087895
0.248044313885983,0.284125104115768
0.247913044647343,0.285795800895688
0.247753729770347,0.287449411971977
0.247566406399972,0.289086190888957
0.247351111681198,0.290706391190952
0.247107882759001,0.292310266422285
0.246836756778359,0.293898070127278
0.246537770884251,0.295470055850253
0.246210962221654,0.297026477135535
0.245856367935546,0.298567587527445
0.245474025170904,0.300093640570307
0.245063971072708,0.301604889808442
0.244626242785933,0.303101588786175
0.244160877455559,0.304583991047827
0.243667912226563,0.306052350137722
0.243147384243922,0.307506919600181
0.242599330652616,0.308947952979529
0.242023788597621,0.310375703820088
0.241420795223915,0.31179042566618
0.240790387676476,0.313192372062129
0.240132603100282,0.314581796552256
0.239447478640312,0.315958952680886
0.238735051441541,0.31732409399234
0.237995358648949,0.318677474030942
0.237228437407514,0.320019346341013
0.236434324862212,0.321349964466878
0.235613058158023,0.322669581952859
0.234764674439923,0.323978452343278
0.233889210852891,0.325276829182459
0.232986704541904,0.326564966014724
0.23205719265194,0.327843116384395
0.231100712327977,0.329111533835796
0.230117300714993,0.33037047191325
0.229106994957966,0.331620184161079
0.228069832201873,0.332860924123606
0.227005849591693,0.334092945345154
0.225915084272402,0.335316501370045
0.22479757338898,0.336531845742603
0.223653354086403,0.33773923200715
0.22248246350965,0.338938913708009
0.221284938803699,0.340131144389502
0.220060817113526,0.341316177595953
0.218810135584111,0.342494266871684
0.217532931360431,0.343665665761018
0.216229241587463,0.344830627808278
0.214899103410186,0.345989406557787
0.213542553973577,0.347142255553867
0.212159630422614,0.348289428340841
0.210750369902275,0.349431178463031
0.209314809557538,0.350567759464762
0.207852986533381,0.351699424890355
0.206364937974781,0.352826428284133
0.204850701026717,0.35394902319042
0.203310312834165,0.355067463153537
0.201743810542105,0.356182001717808
0.200151231295513,0.357292892427555
0.198532612239368,0.358400388827101
0.196887990518647,0.359504744460769
0.195217403278328,0.360606212872882
0.19352088766339,0.361705047607762
0.191798480818809,0.362801502209733
0.190050219889564,0.363895830223116
0.188276142020632,0.364988285192236
0.186476284356992,0.366079120661414
0.184650684043621,0.367168590174973
0.182799378225497,0.368256947277237
0.180922404047597,0.369344445512527
0.179019798654901,0.370431338425167
0.177091599192384,0.37151787955948
0.175137842805026,0.372604322459788
0.173158566637804,0.373690920670414
0.171153807835696,0.37477792773568
0.16912360354368,0.375865597199911
0.167067990906733,0.376954182607427
0.164987007069833,0.378043937502553
0.162880689177959,0.379135115429611
0.160749074376088,0.380227969932923
0.158592199809197,0.381322754556813
0.156410102622266,0.382419722845603
0.15420281996027,0.383519128343617
0.151970388968189,0.384621224595176
0.149712846791,0.385726265144603
0.147430230573681,0.386834503536222
0.14512257746121,0.387946193314356
0.142789924598565,0.389061588023326
0.140432309130722,0.390180941207456
0.138049768202661,0.391304506411068
0.135642338959359,0.392432537178485
0.133210058545794,0.393565287054031
0.130752964106944,0.394703009582028
0.128271092787786,0.395845958306798
0.125764481733299,0.396994386772664
0.123233168088459,0.39814854852395
0.120677188998246,0.399308697104977
0.118096581607636,0.400475086060069
0.115491383061608,0.401647968933549
0.11286163050514,0.402827599269739
0.110207361083209,0.404014230612962
0.107528611940793,0.405208116507541
0.104825420222869,0.406409510497799
0.102097823074417,0.407618666128058
0.0993458576404131,0.408835836942641
0.0965695610658355,0.410061276485871
0.0937689704956622,0.41129523830207
0.0909441230748709,0.412537975935563
0.0880950559484395,0.41378974293067
0.0852218062613456,0.415050792831716
0.0823244111585674,0.416321379183022
0.0794029077850824,0.417601755528912
0.0764573332858686,0.418892175413708
0.0734877248059036,0.420192892381734
0.0704941194901656,0.421504159977312
0.067476554483632,0.422826231744764
0.064435066931281,0.424159361228414
0.0613696939780901,0.425503801972584
0.0582804727690374,0.426859807521597
0.0551674404491005,0.428227631419776
0.0520306341632574,0.429607527211443
0.0488700910564857,0.430999748440922
0.0456858482737635,0.432404548652535
0.0424779429600683,0.433822181390606
0.0392464122603783,0.435252900199455
0.035991293319671,0.436696958623408
0.0327126232829244,0.438154610206785
0.0294104392951162,0.439626108493911
0.0260847785012244,0.441111707029108
0.0227356780462266,0.442611659356698
0.0193631750751008,0.444126219021004
0.0159673067328247,0.44565563956635
0.0125481101643763,0.447200174537058
0.00910562251473315,0.44876007747745
0.00563988092887333,0.45033560193185
0.00215092255177445,0.451927001444581
-0.00136121547158541,0.453534529559964
-0.00489649599622878,0.455158439822323
-0.00845488187717744,0.456798985775981
-0.0120363359694539,0.45845642096526
-0.0156408211280801,0.460130998934484
-0.0192683002080785,0.461822973227974
-0.022918736064471,0.463532597390054
-0.0265920915522799,0.465260124965047
-0.0302883295265272,0.467005809497275
-0.0340074128422355,0.468769904531061
-0.0377493043544264,0.470552663610728
-0.0415139669181228,0.472354340280598
-0.0453013633883461,0.474175188084995
-0.0491114566201191,0.476015460568241
-0.0529442094684635,0.477875411274659
-0.0567995847884019,0.479755293748572
-0.0606775454349561,0.481655361534303
-0.0645780542631486,0.483575868176173
-0.0685010741280014,0.485517067218507
-0.0724465678845368,0.487479212205627
-0.0764144983877766,0.489462556681855
-0.0804048284927436,0.491467354191515
-0.0844175210544594,0.493493858278928
-0.0884525389279467,0.495542322488419
-0.0925098449682271,0.49761300036431
-0.0965894020303233,0.499706145450923
-0.100691172969257,0.501822011292582
-0.104815120640051,0.503960851433608
-0.108961207897727,0.506122919418326
-0.113129397597307,0.508308468791057
-0.117319652593814,0.510517753096124
-0.121531935742269,0.512751025877851
-0.125766209897695,0.515008540680559
-0.130022437915115,0.517290551048573
-0.134300582649549,0.519597310526214
-0.138600606956021,0.521929072657805
-0.142922473689552,0.524286090987669
-0.147266145705165,0.52666861906013
-0.151631585857882,0.529076910419509
-0.156018757002725,0.531511218610129
-0.160427621994716,0.533971797176314
-0.164858143688878,0.536458899662385
-0.169310284940232,0.538972779612666
-0.173784008603801,0.54151369057148
-0.178279277534607,0.544081886083149
-0.182796054587672,0.546677619691997
-0.187334302618019,0.549301144942345
-0.191893984480669,0.551952715378517
-0.196475063030644,0.554632584544835
-0.201077501122968,0.557341005985622
-0.205701261612661,0.560078233245202
-0.210346307354747,0.562844519867896
-0.215012601204247,0.565640119398028
-0.219700106016184,0.56846528537992
-0.224408784645579,0.571320271357895
-0.229138599947455,0.574205330876276
-0.233889514776835,0.577120717479386
-0.238661491988739,0.580066684711547
-0.243454494438192,0.583043486117082
-0.248268484980213,0.586051375240315
-0.253103426469827,0.589090605625567
-0.257959281762055,0.592161430817162
-0.262836013711918,0.595264104359422
-0.26773358517444,0.59839887979667
-0.272651959004643,0.601566010673229
-0.277591098057548,0.604765750533422
-0.282550965188178,0.607998352921571
-0.287531523251556,0.611264071381999
-0.292532735102702,0.61456315945903
-0.29755456359664,0.617895870696985
-0.302596971588391,0.621262458640188
-0.307659921932979,0.624663176832961
-0.312743377485424,0.628098278819627
-0.317847301100749,0.631568018144509
-0.322971655633977,0.63507264835193
-0.328116403940129,0.638612422986212
-0.333281508874228,0.642187595591679
-0.338466933291295,0.645798419712652
-0.343672640046354,0.649445148893455
-0.348898591994426,0.653128036678411
-0.354144751990533,0.656847336611842
-0.359411082889697,0.660603302238072
-0.364697547546942,0.664396187101422
-0.370004108817288,0.668226244746216
-0.375330729555758,0.672093728716776
-0.380677372617375,0.675998892557426
-0.38604400085716,0.679941989812487
-0.391430577130136,0.683923274026284
-0.396837064291324,0.687942998743137
-0.402263425195748,0.692001417507372
-0.407709622698428,0.696098783863309
-0.413175619654389,0.700235351355273
-0.41866137891865,0.704411373527584
-0.424166863346235,0.708627103924568
-0.429692035792166,0.712882796090546
-0.435236859111465,0.71717870356984
-0.435236859111465,0.71717870356984
-0.440764429486558,0.721452515098235
-0.446237972557801,0.725642012697324
-0.451657645367113,0.729747589840147
-0.457023604956411,0.733769639999745
-0.462336008367614,0.737708556649158
-0.46759501264264,0.741564733261425
-0.472800774823406,0.745338563309588
-0.477953451951831,0.749030440266687
-0.483053201069834,0.752640757605761
-0.488100179219331,0.75616990879985
-0.493094543442242,0.759618287321996
-0.498036450780483,0.762986286645238
-0.502926058275975,0.766274300242617
-0.507763522970634,0.769482721587172
-0.512549001906378,0.772611944151943
-0.517282652125126,0.775662361409972
-0.521964630668796,0.778634366834298
-0.526595094579306,0.781528353897962
-0.531174200898573,0.784344716074002
-0.535702106668517,0.787083846835462
-0.540178968931055,0.789746139655378
-0.544604944728105,0.792331988006793
-0.548980191101585,0.794841785362746
-0.553304865093414,0.797275925196278
-0.55757912374551,0.799634800980429
-0.56180312409979,0.801918806188239
-0.565977023198173,0.804128334292748
-0.570100978082576,0.806263778766996
-0.574175145794919,0.808325533084024
-0.578199683377118,0.810313990716871
-0.582174747871093,0.812229545138579
-0.58610049631876,0.814072589822187
-0.58997708576204,0.815843518240735
-0.593804673242848,0.817542723867263
-0.597583415803104,0.819170600174812
-0.601313470484725,0.820727540636423
-0.604994994329631,0.822213938725134
-0.608628144379738,0.823630187913987
-0.612213077676964,0.824976681676021
-0.615749951263229,0.826253813484277
-0.61923892218045,0.827461976811796
-0.622680147470545,0.828601565131616
-0.626073784175432,0.829672971916778
-0.62941998933703,0.830676590640323
-0.632718919997256,0.831612814775291
-0.635970733198028,0.832482037794722
-0.639175585981265,0.833284653171655
-0.642333635388885,0.834021054379133
-0.645445038462806,0.834691634890193
-0.648509952244945,0.835296788177877
-0.651528533777222,0.835836907715226
-0.654500940101553,0.836312386975278
-0.657427328259858,0.836723619431075
-0.660307855294054,0.837070998555656
-0.663142678246059,0.837354917822062
-0.665931954157792,0.837575770703332
-0.668675840071171,0.837733950672508
-0.671374493028113,0.837829851202629
-0.674028070070537,0.837863865766736
-0.676636728240361,0.837836387837869
-0.679200624579503,0.837747810889067
-0.68171991612988,0.837598528393371
-0.684194759933412,0.837388933823821
-0.686625313032016,0.837119420653459
-0.689011732467611,0.836790382355322
-0.691354175282114,0.836402212402453
-0.693652798517443,0.83595530426789
-0.695907759215517,0.835450051424675
-0.698119214418254,0.834886847345848
-0.700287321167571,0.834266085504448
-0.702412236505388,0.833588159373516
-0.704494117473621,0.832853462426092
-0.70653312111419,0.832062388135216
-0.708529404469011,0.831215329973929
-0.710483124580004,0.83031268141527
-0.712394438489087,0.82935483593228
-0.714263503238177,0.828342186998
-0.716090475869192,0.827275128085468
-0.717875513424051,0.826154052667726
-0.719618772944671,0.824979354217814
-0.721320411472972,0.823751426208771
-0.722980586050871,0.822470662113639
-0.724599453720285,0.821137455405456
-0.726177171523134,0.819752199557264
-0.727713896501335,0.818315288042103
-0.729209785696806,0.816827114333012
-0.730664996151466,0.815288071903033
-0.732079684907232,0.813698554225205
-0.733454009006023,0.812058954772568
-0.734788125489756,0.810369667018163
-0.73608219140035,0.808631084435029
-0.737336363779724,0.806843600496208
-0.738550799669794,0.805007608674739
-0.739725656112479,0.803123502443662
-0.740861090149697,0.801191675276018
-0.741957258823367,0.799212520644847
-0.743014319175406,0.797186432023188
-0.744032428247733,0.795113802884083
-0.745011743082265,0.792995026700571
-0.74595242072092,0.790830496945693
-0.746854618205618,0.788620607092489
-0.747718492578275,0.786365750613998
-0.74854420088081,0.784066320983262
-0.749331900155142,0.78172271167332
-0.750081747443187,0.779335316157213
-0.750793899786865,0.77690452790798
-0.751468514228093,0.774430740398662
-0.752105747808789,0.7719143471023
-0.752705757570872,0.769355741491933
-0.753268700556259,0.766755317040602
-0.753794733806869,0.764113467221346
-0.75428401436462,0.761430585507206
-0.75473669927143,0.758707065371223
-0.755152945569217,0.755943300286435
-0.755532910299898,0.753139683725884
-0.755876750505394,0.750296609162611
-0.75618462322762,0.747414470069654
-0.756456685508496,0.744493659920054
-0.756693094389938,0.741534572186851
-0.756894006913867,0.738537600343086
-0.7570595801222,0.735503137861799
-0.757189971056854,0.732431578216029
-0.757285336759747,0.729323314878818
-0.757345834272799,0.726178741323205
-0.757371620637927,0.722998251022231
-0.757362852897049,0.719782237448935
-0.757319688092083,0.716531094076359
-0.757242283264947,0.713245214377541
-0.75713079545756,0.709924991825523
-0.756985381711839,0.706570819893344
-0.756806199069703,0.703183092054045
-0.75659340457307,0.699762201780666
-0.756347155263858,0.696308542546247
-0.756067608183984,0.692822507823828
-0.755754920375367,0.689304491086449
-0.755409248879925,0.685754885807152
-0.755030750739577,0.682174085458975
-0.754619582996239,0.67856248351496
-0.754175902691831,0.674920473448145
-0.753699866868271,0.671248448731572
-0.753191632567476,0.667546802838281
-0.752651356831365,0.663815929241312
-0.752079196701855,0.660056221413705
-0.751475309220865,0.6562680728285
-0.750839851430314,0.652451876958738
-0.750172980372118,0.648608027277458
-0.749474853088196,0.644736917257701
-0.748745626620467,0.640838940372507
-0.747985458010848,0.636914490094917
-0.747194504301257,0.632963959897969
-0.746372922533612,0.628987743254706
-0.745520869749833,0.624986233638166
-0.744638502991836,0.620959824521391
-0.743725979301539,0.616908909377419
-0.742783455720862,0.612833881679292
-0.741811089291722,0.60873513490005
-0.740809037056036,0.604613062512733
-0.739777456055724,0.60046805799038
-0.738716503332703,0.596300514806033
-0.737626335928891,0.592110826432732
-0.736507110886207,0.587899386343516
-0.735358985246569,0.583666588011426
-0.734182116051894,0.579412824909501
-0.7329766603441,0.575138490510783
-0.731742775165107,0.570843978288312
-0.730480617556831,0.566529681715127
-0.729190344561192,0.562195994264269
-0.727872113220106,0.557843309408778
-0.726526080575493,0.553472020621694
-0.72515240366927,0.549082521376057
-0.723751239543355,0.544675205144909
-0.722322745239668,0.540250465401288
-0.720867077800124,0.535808695618235
-0.719384394266643,0.53135028926879
-0.717874851681143,0.526875639825993
-0.716338607085542,0.522385140762885
-0.714775817521758,0.517879185552506
-0.713186640031709,0.513358167667896
-0.711571231657312,0.508822480582095
-0.709929749440488,0.504272517768144
-0.708262350423153,0.499708672699082
-0.706569191647224,0.49513133884795
-0.704850430154622,0.490540909687787
-0.703106222987263,0.485937778691635
-0.701336727187066,0.481322339332534
-0.699542099795949,0.476694985083523
-0.697722497855829,0.472056109417642
-0.695878078408626,0.467406105807933
-0.694008998496257,0.462745367727435
-0.692115415160639,0.458074288649188
-0.690197485443692,0.453393262046233
-0.688255366387334,0.448702681391609
-0.686289215033482,0.444002940158358
-0.684299188424055,0.439294431819518
-0.68228544360097,0.434577549848131
-0.680248137606146,0.429852687717237
-0.678187427481501,0.425120238899875
-0.676103470268953,0.420380596869086
-0.673996423010419,0.41563415509791
-0.671866442747819,0.410881307059388
-0.669713686523071,0.406122446226559
-0.667538311378091,0.401357966072464
-0.665340474354799,0.396588260070143
-0.663120332495113,0.391813721692636
-0.66087804284095,0.387034744412983
-0.658613762434229,0.382251721704225
-0.656327648316867,0.377465047039401
-0.654019857530784,0.372675113891552
-0.651690547117897,0.367882315733719
-0.649339874120123,0.363087046038941
-0.646967995579382,0.358289698280258
-0.644575068537591,0.353490665930711
-0.642161250036669,0.34869034246334
-0.639726697118533,0.343889121351185
-0.637271566825101,0.339087396067286
-0.634796016198292,0.334285560084684
-0.632300202280024,0.329484006876418
-0.629784282112215,0.32468312991553
-0.627248412736783,0.319883322675058
-0.624692751195646,0.315084978628044
-0.622117454530722,0.310288491247527
-0.619522679783929,0.305494254006548
-0.616908583997185,0.300702660378147
-0.614275324212409,0.295914103835364
-0.611623057471519,0.291128977851239
-0.608951940816432,0.286347675898812
-0.606262131289066,0.281570591451125
-0.603553785931341,0.276798117981216
-0.600827061785173,0.272030648962126
-0.598082115892482,0.267268577866895
-0.595319105295184,0.262512298168564
-0.592538187035199,0.257762203340173
-0.589739518154444,0.253018686854761
-0.586923255694837,0.248282142185369
-0.584089556698297,0.243552962805038
-0.581238578206741,0.238831542186807
-0.578370477262088,0.234118273803717
-0.575485410906256,0.229413551128807
-0.572583536181163,0.224717767635119
-0.569665010128726,0.220031316795692
-0.566729989790865,0.215354592083566
-0.563778632209497,0.210687986971782
-0.560811094426539,0.206031894933379
-0.557827533483912,0.201386709441399
-0.554828106423531,0.196752823968881
-0.551812970287316,0.192130631988865
-0.548782282117185,0.187520526974392
-0.545736198955056,0.182922902398502
-0.542674877842846,0.178338151734235
-0.539598475822474,0.173766668454631
-0.536507149935858,0.16920884603273
-0.533401057224916,0.164665077941573
-0.530280354731567,0.1601357576542
-0.527145199497727,0.155621278643651
-0.523995748565316,0.151122034382966
-0.520832158976252,0.146638418345185
-0.517654587772452,0.142170824003349
-0.514463191995835,0.137719644830498
-0.511258128688318,0.133285274299672
-0.50803955489182,0.128868105883911
-0.504807627648259,0.124468533056255
-0.501562503999554,0.120086949289745
-0.498304340987621,0.11572374805742
-0.495033295654379,0.111379322832322
-0.491749525041747,0.107054067087489
-0.488453186191643,0.102748374295964
-0.485144436145983,0.0984626379307843
-0.481823431946688,0.0941972514649918
-0.478490330635674,0.0899526083716261
-0.47514528925486,0.0857291021237278
-0.471788464846163,0.0815271261943366
-0.468420014451503,0.0773470740564932
-0.465040095112797,0.0731893391832372
-0.461648863871963,0.0690543150476095
-0.458246477770919,0.0649423951226496
-0.454833093851583,0.0608539728813983
-0.451408869155874,0.0567894417968954
-0.44797396072571,0.0527491953421814
-0.444528525603008,0.0487336269902962
-0.441072720829687,0.0447431302142802
-0.437606703447665,0.0407780984871734
-0.434130630498859,0.0368389252820163
-0.430644659025189,0.0329260040718487
-0.427148946068572,0.0290397283297113
-0.423643648670926,0.0251804915286437
-0.420128923874169,0.0213486871416867
-0.41660492872022,0.0175447086418799
-0.413071820250996,0.0137689495022641
-0.409529755508416,0.010021803195879
-0.405978891534398,0.00630366319576521
-0.402419385370859,0.00261492297496256
-0.398851394059718,-0.00104402399348852
-0.395275074642893,-0.004672784236548
-0.391690584162302,-0.00827096428117542
-0.388098079659864,-0.0118381706543309
-0.384497718177495,-0.015374009882974
-0.380889656757115,-0.0188780884940647
-0.377274052440642,-0.0223500130145626
-0.373651062269993,-0.0257893899714278
-0.370020843287086,-0.0291958258916197
-0.36638355253384,-0.0325689273020985
-0.362739347052174,-0.0359083007298237
-0.359088383884004,-0.0392135527017554
-0.355430820071249,-0.042484289744853
-0.351766812655827,-0.0457201183860768
-0.348096518679656,-0.0489206451523861
-0.344420095184655,-0.0520854765707411
-0.340737699212741,-0.0552142191681013
-0.337049487805833,-0.0583064794714268
-0.333355618005848,-0.0613618640076771
-0.329656246854705,-0.0643799793038123
-0.325951531394321,-0.0673604318867919
-0.322241628666616,-0.070302828283576
-0.318526695713506,-0.0732067750211241
-0.31480688957691,-0.0760718786263963
-0.311082367298747,-0.0788977456263522
-0.307353285920934,-0.0816839825479517
-0.303619802485389,-0.0844301959181545
-0.299882074034031,-0.0871359922639206
-0.296140257608777,-0.0898009781122095
-0.292394510251546,-0.0924247599899813
-0.288644989004256,-0.0950069444241956
-0.284891850908824,-0.0975471379418124
-0.281135253007169,-0.100044947069791
-0.277375352341209,-0.102499978335092
-0.273612305952863,-0.104911838264675
-0.269846270884047,-0.107280133385499
-0.266077404176681,-0.109604470224525
-0.262305862872682,-0.111884455308712
-0.258531804013969,-0.114119695165019
-0.254755384642459,-0.116309796320408
-0.250976761800072,-0.118454365301837
-0.247196092528723,-0.120553008636267
-0.243413533870333,-0.122605332850657
-0.239629242866818,-0.124610944471967
-0.235843376560098,-0.126569450027157
-0.23205609199209,-0.128480456043186
-0.228267546204712,-0.130343569047015
-0.224477896239882,-0.132158395565603
-0.220687299139519,-0.13392454212591
-0.21689591194554,-0.135641615254895
-0.213103891699864,-0.13730922147952
-0.209311395444409,-0.138926967326743
-0.205518580221092,-0.140494459323524
-0.201725603071833,-0.142011303996823
-0.197932621038548,-0.1434771078736
-0.194139791163156,-0.144891477480815
-0.190347270487576,-0.146254019345427
-0.186555216053725,-0.147564339994396
-0.182763784903521,-0.148822045954682
-0.178973134078883,-0.150026743753246
-0.175183420621729,-0.151178039917045
-0.171394801573976,-0.152275540973042
-0.167607433977542,-0.153318853448194
-0.163821474874347,-0.154307583869463
-0.160037081306308,-0.155241338763807
-0.156254410315342,-0.156119724658188
-0.152473618943369,-0.156942348079563
-0.148694864232306,-0.157708815554894
-0.144918303224071,-0.15841873361114
-0.141144092960583,-0.159071708775261
-0.137372390483759,-0.159667347574217
-0.133603352835518,-0.160205256534967
-0.129837137057778,-0.160685042184471
-0.126073900192456,-0.161106311049689
-0.122313799281472,-0.161468669657582
-0.118556991366742,-0.161771724535108
-0.114803633490185,-0.162015082209227
-0.11105388269372,-0.1621983492069
-0.107307896019264,-0.162321132055086
-0.103565830508735,-0.162383037280745
-0.0998278432040518,-0.162383671410836
-0.096094091147132,-0.16232264097232
-0.092364731379894,-0.162199552492157
-0.0886399209442556,-0.162014012497305
-0.0849198168821352,-0.161765627514725
-0.0812045762354506,-0.161454004071377
-0.0774943560461202,-0.161078748694221
-0.0737893133560618,-0.160639467910216
-0.0700896052071937,-0.160135768246322
-0.0663953886414338,-0.159567256229499
-0.0627068207007005,-0.158933538386706
-0.0590240584269116,-0.158234221244905
-0.0553472588619854,-0.157468911331053
-0.0516765790478397,-0.156637215172112
-0.0480121760263931,-0.155738739295041
-0.0443542068395631,-0.154773090226799
-0.0407028285292683,-0.153739874494347
-0.0370581981374264,-0.152638698624644
-0.0334204727059559,-0.151469169144651
-0.0297898092767744,-0.150230892581326
-0.0261663648918005,-0.14892347546163
-0.0225502965929519,-0.147546524312523
-0.018941761422147,-0.146099645660964
-0.0153409164213036,-0.144582446033913
-0.0117479186323402,-0.14299453195833
-0.00816292509717436,-0.141335509961175
-0.00458609285772465,-0.139604986569408
-0.00101757895590882,-0.137802568309988
-0.00101757895590882,-0.137802568309988
0.00252167290841487,-0.135955943715565
0.00601102607697809,-0.134093171917945
0.00945078407024718,-0.13221441534282
0.0128412504086885,-0.130319836415883
0.0161827286127684,-0.128409597562828
0.0194755222029532,-0.126483861209347
0.0227199346997093,-0.124542789781132
0.025916269623503,-0.122586545703878
0.0290648304948007,-0.120615291403276
0.0321659208340686,-0.11862918930502
0.0352198441617733,-0.116628401834803
0.038226903998381,-0.114613091418317
0.041187403864358,-0.112583420481255
0.0441016472801707,-0.11053955144931
0.0469699377662855,-0.108481646748175
0.0497925788431687,-0.106409868803543
0.0525698740312867,-0.104324380041107
0.0553021268511057,-0.10222534288656
0.0579896408230922,-0.100112919765594
0.0606327194677125,-0.0979872731039029
0.063231666305433,-0.0958485653271789
0.0657867848567199,-0.0936969588611151
0.0682983786420397,-0.0915326161314044
0.0707667511818588,-0.0893556995637396
0.0731922059966433,-0.0871663715838138
0.0755750466068597,-0.0849647946173197
0.0779155765329744,-0.0827511310899501
0.0802140992954537,-0.0805255434273982
0.0824709184147639,-0.0782881940553566
0.0846863374113713,-0.0760392453995183
0.0868606598057424,-0.0737788598855761
0.0889941891183435,-0.071507199939223
0.091087228869641,-0.0692244279861518
0.0931400825801011,-0.0669307064520554
0.0951530537701902,-0.0646261977626267
0.0971264459603747,-0.0623110643435585
0.099060562671121,-0.0599854686205439
0.100955707422895,-0.0576495730192755
0.102812183736164,-0.0553035399654464
0.104630295131394,-0.0529475318847493
0.10641034512905,-0.0505817112028773
0.1081526372496,-0.0482062403455231
0.10985747501351,-0.0458212817383797
0.111525161941246,-0.0434269978071399
0.113156001553275,-0.0410235509774967
0.114750297370062,-0.0386111036751428
0.116308352912075,-0.0361898183257712
0.117830471699779,-0.0337598573550748
0.119316957253641,-0.0313213831887465
0.120768113094128,-0.028874558252479
0.122184242741705,-0.0264195449719654
0.123565649716839,-0.0239565057728985
0.124912637539996,-0.0214856030809712
0.126225509731643,-0.0190069993218763
0.127504569812245,-0.0165208569213068
0.128750121302271,-0.0140273383049555
0.129962467722185,-0.0115266058985153
0.131141912592454,-0.00901882212767908
0.132288759433544,-0.00650414941813974
0.133403311765922,-0.0039827501955902
0.134485873110054,-0.00145478688572331
0.135536746986407,0.00107957808576808
0.136556236915446,0.00362018229319107
0.137544646417639,0.00616686331085273
0.138502279013451,0.00871945871306023
0.139429438223349,0.0112778060741207
0.140326427567799,0.0138417429683412
0.141193550567267,0.0164111069700289
0.142031110742221,0.0189857356534909
0.142839411613125,0.0215654665930343
0.143618756700448,0.0241501373629662
0.144369449524654,0.0267395855375937
0.14509179360621,0.0293336486912241
0.145786092465583,0.0319321643981642
0.146452649623239,0.0345349702327215
0.147091768599645,0.0371419037692028
0.147703752915266,0.0397528025819153
0.148288906090569,0.0423675042451662
0.14884753164602,0.0449858463332626
0.149379933102086,0.0476076664205115
0.149886413979233,0.0502328020812201
0.150367277797928,0.0528610908896956
0.150822828078636,0.0554923704202449
0.151253368341824,0.0581264782471754
0.151659202107959,0.060763251944794
0.152040632897507,0.0634025290874079
0.152397964230934,0.0660441472493242
0.152731499628706,0.0686879440048499
0.15304154261129,0.0713337569282924
0.153328396699152,0.0739814235939586
0.153592365412759,0.0766307815761556
0.153833752272577,0.0792816684491907
0.154052860799072,0.0819339217873709
0.154249994512711,0.0845873791650032
0.154425456933959,0.0872418781563949
0.154579551583284,0.0898972563358531
0.154712581981152,0.0925533512776848
0.154824851648028,0.0952100005561973
0.15491666410438,0.0978670417456975
0.154988322870673,0.100524312420493
0.155040131467375,0.10318165015489
0.155072393414951,0.105838892523196
0.155085412233867,0.108495877099719
0.155079491444591,0.111152441458765
0.155054934567588,0.113808423174641
0.155012045123325,0.116463659821656
0.154951126632268,0.119117988974115
0.154872482614883,0.121771248206325
0.154776416591638,0.124423275092595
0.154663232082997,0.127073907207231
0.154533232609428,0.12972298212454
0.154386721691397,0.132370337418829
0.15422400284937,0.135015810664406
0.154045379603813,0.137659239435578
0.153851155475194,0.140300461306651
0.153641633983977,0.142939313851932
0.153417118650631,0.14557563464573
0.15317791299562,0.148209261262351
0.152924320539412,0.150840031276102
0.152656644802472,0.15346778226129
0.152375189305267,0.156092351792223
0.152080257568264,0.158713577443207
0.151772153111928,0.16133129678855
0.151451179456726,0.163945347402558
0.151117640123125,0.16655556685954
0.15077183863159,0.169161792733801
0.150414078502589,0.171763862599649
0.150044663256587,0.174361614031392
0.149663896414051,0.176954884603336
0.149272081495447,0.179543511889788
0.148869522021241,0.182127333465056
0.1484565215119,0.184706186903447
0.148033383487891,0.187279909779267
0.147600411469678,0.189848339666824
0.14715790897773,0.192411314140425
0.146706179532512,0.194968670774378
0.146245526654491,0.197520247142989
0.145776253864132,0.200065880820565
0.145298664681903,0.202605409381413
0.14481306262827,0.205138670399841
0.144319751223698,0.207665501450156
0.143819033988655,0.210185740106665
0.143311214443606,0.212699223943675
0.142796596109018,0.215205790535492
0.142275482505358,0.217705277456425
0.141748177153092,0.220197522280781
0.141214983572685,0.222682362582865
0.140676205284605,0.225159635936987
0.140132145809318,0.227629179917451
0.139583108667289,0.230090832098567
0.139029397378986,0.232544430054641
0.138471315464876,0.234989811359979
0.137909166445423,0.23742681358889
0.137343253841094,0.23985527431568
0.136773881172357,0.242275031114656
0.136201351959677,0.244685921560126
0.13562596972352,0.247087783226397
0.135048037984353,0.249480453687775
0.134467860262642,0.251863770518568
0.133885740078854,0.254237571293083
0.133301980953455,0.256601693585627
0.132716886406911,0.258955974970507
0.132130759959689,0.26130025302203
0.131543905132255,0.263634365314504
0.130956625445075,0.265958149422236
0.130369224418616,0.268271442919532
0.129782005573344,0.2705740833807
0.129195272429725,0.272865908380046
0.128609328508226,0.275146755491879
0.128024477329313,0.277416462290505
0.127441022413452,0.279674866350231
0.126859267281111,0.281921805245365
0.126279515452754,0.284157116550213
0.125702070448849,0.286380637839082
0.125127235789861,0.28859220668628
0.124555314996258,0.290791660666114
0.123986611588506,0.292978837352891
0.12342142908707,0.295153574320919
0.122860071012417,0.297315709144503
0.122302840885014,0.299465079397951
0.121750042225327,0.301601522655571
0.121201978553822,0.30372487649167
0.120658953390966,0.305834978480554
0.120121270257224,0.307931666196531
0.119589232673064,0.310014777213908
0.119063144158952,0.312084149106991
0.118543308235353,0.314139619450089
0.118030028422735,0.316181025817508
0.117523608241564,0.318208205783556
0.117024351212306,0.320220996922539
0.116532560855427,0.322219236808764
0.116048540691394,0.324202763016539
0.115572594240672,0.326171413120171
0.11510502502373,0.328125024693967
0.114646136561032,0.330063435312234
0.114196232373045,0.33198648254928
0.113755615980236,0.33389400397941
0.11332459090307,0.335785837176933
0.112903460662015,0.337661819716155
0.112492528777537,0.339521789171384
0.112092098770101,0.341365583116927
0.111702474160174,0.343193039127091
0.111323958468223,0.345003994776182
0.110956855214714,0.346798287638509
0.110601467920113,0.348575755288378
0.110258100104887,0.350336235300096
0.109927055289502,0.352079565247971
0.109608636994424,0.353805582706309
0.109303148740119,0.355514125249418
0.109010894047055,0.357205030451605
0.108732176435697,0.358878135887177
0.108467299426512,0.36053327913044
0.108216566539966,0.362170297755703
0.107980281296525,0.363789029337273
0.107758747216656,0.365389311449455
0.107552267820825,0.366970981666558
0.107361146629499,0.368533877562889
0.107185687163143,0.370077836712755
0.107026192942225,0.371602696690462
0.10688296748721,0.373108295070318
0.106756314318565,0.374594469426631
0.106646536956756,0.376061057333706
0.106553938922249,0.377507896365852
0.106478823735512,0.378934824097376
0.10642149491701,0.380341678102584
0.106382255987209,0.381728295955783
0.106361410466576,0.383094515231282
0.106359261875578,0.384440173503386
0.10637611373468,0.385765108346403
0.106412269564349,0.387069157334641
0.106468032885052,0.388352158042406
0.106543707217254,0.389613948044005
0.106639596081422,0.390854364913746
0.106756002998023,0.392073246225935
0.106893231487522,0.39327042955488
0.107051585070386,0.394445752474888
0.107231367267082,0.395599052560266
0.107432881598076,0.396730167385321
0.107656431583834,0.39783893452436
0.107902320744822,0.39892519155169
0.108170852601507,0.399988776041619
0.108462330674355,0.401029525568454
0.108777058483833,0.402047277706501
0.109115339550406,0.403041870030068
0.109477477394542,0.404013140113462
0.109863775536706,0.404960925530989
0.110274537497365,0.405885063856958
0.110710066796986,0.406785392665676
0.111170666956034,0.407661749531448
0.111656641494976,0.408513972028583
0.112168293934278,0.409341897731388
0.112705927794407,0.41014536421417
0.113269846595829,0.410924209051235
0.11386035385901,0.411678269816891
0.114477753104417,0.412407384085446
0.115122347852517,0.413111389431205
0.115794441623774,0.413790123428477
0.116494337938656,0.414443423651568
0.117222340317629,0.415071127674786
0.11797875228116,0.415673073072437
0.118763877349715,0.41624909741883
0.119578019043759,0.41679903828827
0.12042148088376,0.417322733255065
0.121294566390184,0.417820019893522
0.122197579083497,0.418290735777949
0.123130822484166,0.418734718482652
0.124094600112657,0.419151805581938
0.125089215489435,0.419541834650115
0.126114972134969,0.41990464326149
0.127172173569723,0.420240068990369
0.128261123314165,0.420547949411061
0.12938212488876,0.420828122097871
0.130535481813975,0.421080424625108
0.131721497610276,0.421304694567078
0.13294047579813,0.421500769498089
0.134192719898003,0.421668486992447
0.135478533430362,0.421807684624459
0.136798219915672,0.421918199968434
0.1381520828744,0.421999870598677
0.139540425827013,0.422052534089497
0.140963552293976,0.422076028015199
0.142421765795757,0.422070189950092
0.143915369852821,0.422034857468482
0.145444667985635,0.421969868144676
0.147009963714665,0.421875059552982
0.148611560560377,0.421750269267707
0.150249762043238,0.421595334863158
0.151924871683715,0.421410093913641
0.153637193002273,0.421194383993465
0.155387029519379,0.420948042676936
0.157174684755499,0.420670907538361
0.159000462231099,0.420362816152047
0.160864665466647,0.420023606092303
0.162767597982608,0.419653114933433
0.164709563299449,0.419251180249747
0.166690864937635,0.41881763961555
0.168711806417634,0.41835233060515
0.170772691259912,0.417855090792855
0.172873822984934,0.41732575775297
0.175015505113168,0.416764169059804
0.17719804116508,0.416170162287664
0.179421734661136,0.415543575010856
0.181686889121802,0.414884244803688
0.183993808067545,0.414192009240466
0.186342795018831,0.413466705895499
0.188734153496127,0.412708172343093
0.191168187019898,0.411916246157554
0.193645199110612,0.411090764913191
0.196165493288734,0.410231566184311
0.198729373074731,0.40933848754522
0.201337141989069,0.408411366570225
0.203989103552214,0.407450040833635
0.206685561284634,0.406454347909755
0.209426818706794,0.405424125372893
0.21221317933916,0.404359210797356
0.2150449467022,0.403259441757452
0.217922424316378,0.402124655827487
0.220845915702163,0.400954690581768
0.223815724380019,0.399749383594603
0.226832153870414,0.398508572440298
0.229895507693813,0.397232094693162
0.233006089370684,0.3959197879275
0.236164202421492,0.39457148971762
0.239370150366703,0.39318703763783
0.242624236726785,0.391766269262436
0.245926765022203,0.390309022165745
0.249278038773424,0.388815133922065
0.252678361500914,0.387284442105702
0.256128036725139,0.385716784290964
0.259627367966567,0.384111998052158
0.263176658745662,0.382469920963591
0.266776212582892,0.38079039059957
0.270426332998723,0.379073244534402
0.274127323513621,0.377318320342394
0.277879487648053,0.375525455597854
0.281683128922485,0.373694487875089
0.285538550857383,0.371825254748405
0.289446056973213,0.36991759379211
0.293405950790443,0.367971342580511
0.297418535829537,0.365986338687915
0.301484115610964,0.363962419688629
0.305602993655188,0.361899423156961
0.309775473482677,0.359797186667216
0.314001858613897,0.357655547793704
0.318282452569314,0.355474344110729
0.322617558869394,0.353253413192601
0.327007481034603,0.350992592613626
0.331452522585409,0.34869171994811
0.335952987042278,0.346350632770362
0.340509177925675,0.343969168654687
0.345121398756067,0.341547165175394
0.349789953053921,0.33908445990679
0.354515144339703,0.336580890423181
0.359297276133878,0.334036294298875
0.364136651956915,0.331450509108178
0.369033575329278,0.328823372425398
0.373988349771435,0.326154721824843
0.379001278803851,0.323444394880819
0.384072665946993,0.320692229167632
0.389202814721327,0.317898062259592
0.39439202864732,0.315061731731003
0.399640611245438,0.312183075156175
0.404948866036147,0.309261930109412
0.410317096539914,0.306298134165024
0.415745606277206,0.303291524897317
0.421234698768487,0.300241939880598
0.426784677534225,0.297149216689174
0.432395846094886,0.294013192897353
0.438068507970937,0.290833706079441
0.443802966682843,0.287610593809745
0.449599525751072,0.284343693662573
0.455458488696088,0.281032843212232
0.46138015903836,0.277677880033029
0.467364840298353,0.27427864169927
0.473412835996534,0.270834965785264
0.479524449653368,0.267346689865317
0.485699984789323,0.263813651513737
0.491939744924864,0.26023568830483
0.498244033580458,0.256612637812903
0.504613154276571,0.252944337612265
0.51104741053367,0.249230625277221
0.51754710587222,0.245471338382079
0.52411254381269,0.241666314501146
0.530744027875543,0.237815391208729
0.537441861581248,0.233918406079136
0.54420634845027,0.229975196686673
0.551037792003076,0.225985600605648
0.557936495760132,0.221949455410367
0.564902763241904,0.217866598675138
0.571936897968859,0.213736867974268
0.579039203461463,0.209560100882064
0.586209983240182,0.205336134972833
0.593449540825484,0.201064807820882
0.600758179737833,0.196745957000519
0.608136203497697,0.19237942008605
0.615583915625542,0.187965034651782
0.623101619641834,0.183502638272024
0.630689619067039,0.178992068521081
0.638348217421625,0.174433162973261
