0.259757216290193,-0.938337214090032
-0.909272700493768,-0.259275230855112
0.132087513849381,-0.675818104817322
-0.68164039519183,-0.657822842021787
-1.49536830423304,-0.639827579226253
-0.0355808651281524,-0.923075927781352
0.0159630412321226,-0.793670986045867
0.0675069475923975,-0.664266044310383
-0.17694818049487,0.127041672341453
-0.0587407255450794,-0.0968279961158973
