-0.667131552675198,-0.100519485443455
-0.642969235214472,-0.0659236652579088
-0.597019433248209,-0.112667317966698
-0.625371927608428,-0.113855607329257
-0.628378978283981,-0.14476384406066
-0.597258569819681,-0.0981526182632313
-0.56976715927567,-0.158748743370192
-0.528277973532719,-0.208540904078492
-0.562645334345183,-0.139193697243762
-0.48135834293831,-0.202302348806729
-0.527369930822288,-0.179047035621044
-0.496662626710544,-0.176136290484992
-0.517437893227768,-0.214065059188456
-0.466585116901887,-0.170107867638268
-0.433008839772806,-0.1935368117482
-0.462277451655231,-0.192162776264343
-0.405905795915929,-0.2228619200776
-0.390719953679157,-0.228131327323107
-0.351590083313299,-0.195934839492802
-0.353386821014238,-0.282788317981504
-0.373585745264942,-0.215233093243926
-0.331290966558874,-0.246592441918866
-0.355548716551191,-0.285882917292763
-0.27660322938955,-0.255083431638301
-0.245951772057796,-0.287850790691162
-0.273945997682843,-0.26099052793623
-0.25961838648544,-0.23666420597004
-0.292965923176599,-0.312587702405419
-0.205939258299589,-0.227953565392565
-0.218659723479544,-0.271490111294713
-0.218905206737588,-0.245344680439912
-0.19178068326407,-0.275329378826722
-0.226917999330628,-0.313997391541455
-0.167234140139419,-0.285131297687481
-0.136984301625444,-0.234394999513783
-0.172937958189492,-0.317338029941143
-0.157596200046341,-0.308828759650117
-0.10865501492636,-0.304623029473248
-0.10166154073245,-0.2817124663535
-0.0892846412264112,-0.281762821905129
-0.0770308706061486,-0.281605511085471
-0.104576367593026,-0.289825642245983
-0.0586008753803802,-0.268097584024961
-0.0549177785585518,-0.23120548227126
-0.029239163366759,-0.278951018443823
0.0240509476795787,-0.291215135563531
-0.00607179536079119,-0.276444612550084
0.0053311521215785,-0.274905617221209
0.0556529139338405,-0.287210474206637
0.0660297444431213,-0.235860207137062
0.0388217966558898,-0.269176310316472
0.0497472644657444,-0.266904336767163
0.0605543515594826,-0.264455545456477
0.0984029269970905,-0.284834386586034
0.0461048982722873,-0.271622999231106
0.0922692853520493,-0.256073972131078
0.107467797071839,-0.272666567440257
0.137476110405065,-0.292499860908911
0.122933037208548,-0.246193584783009
0.15621451105692,-0.229943350827643
0.185452011278429,-0.196425235235003
0.152556290510714,-0.234883792784565
0.209508118748623,-0.238517656256303
0.15702402231145,-0.248342272901814
0.199254238715102,-0.23224611552889
0.229841602876483,-0.213059304589527
0.215491167934831,-0.199212018522765
0.208724034978985,-0.208253632325731
0.221267349659948,-0.189772100797982
0.221616314086425,-0.176937207805561
0.271266722878394,-0.229324869141273
0.20221383984758,-0.141728300646259
0.227013200186471,-0.161430578872754
0.272694933362229,-0.225696966268941
0.224736630422789,-0.155231752525455
0.313580998618171,-0.156550202535534
0.237785934582429,-0.171554854594704
0.341008927582329,-0.137638532642738
0.311808472128622,-0.141073730067677
0.297366599050767,-0.139489879503363
0.357203864724118,-0.157162825519648
0.324242850985681,-0.128080246375774
0.369885460713802,-0.16544639911372
0.331720311089125,-0.139246021328991
0.319309144720847,-0.152322042842047
0.390688625720021,-0.0662243755707017
0.36182645428603,-0.137171007266573
0.332289639152984,-0.0540400176388853
0.374105893271407,-0.0802250019603679
0.337821678646703,-0.0337874515136729
0.359082173606088,-0.0211637425062744
0.409390176907504,-0.103287078929984
0.350551771341585,-0.0136042112107451
0.382149888693717,-0.0235842668502006
0.432491715503844,-0.0854735429282723
0.405520813895514,-0.00984302333942395
0.402559444882289,0.00319084242140021
0.403318688206802,-0.0350258567219338
0.453622314648696,-0.0291666708454723
0.419723865355475,0.000828830637180783
0.407505703566632,-0.0220408716556979
0.494491438537534,0.0386914922308208
0.451123446695526,-0.0184683392736177
0.464012182307365,0.0346715349978216
0.469208720312317,0.0427724011955949
0.474307848683817,0.0509138371276481
0.525633124389814,0.0905185346485541
0.497950214218954,0.0706492830793505
0.489024732805654,0.0755558561545619
0.493738179451394,0.08383386384881
0.546872638044082,0.0608839459159341
0.502879174735397,0.100470456960267
0.50730751473527,0.108823900942491
0.511641610548131,0.117197348919056
0.557738122183836,0.0876036850501509
0.520028652336034,0.133993973985237
0.499697184165156,0.108069310721412
0.528043465545547,0.150839766418871
0.547170746076219,0.114297767356491
0.522562861449509,0.167474338567523
0.539374681189422,0.176155656327179
0.542969068015161,0.184596590428741
0.546472771781133,0.193034392067212
0.538585997474596,0.178973227682363
0.538725846432318,0.16656056728333
0.596999502248762,0.178723372924578
0.514314637418449,0.229594666163102
0.562644893542651,0.235086438200963
0.534513316096083,0.236999018608869
0.617073196246536,0.202118861890254
0.588169208619855,0.218302356183946
0.559069589958928,0.242620228089522
0.569943884274853,0.246145857448826
0.554613656922517,0.288208534851662
0.578421094982351,0.269030691325639
0.611398625536428,0.297593244582061
0.599336687198275,0.346633085841537
0.631839652532258,0.276838813841574
0.635373604547186,0.346757508936574
0.625502475410658,0.301119159035677
0.585520062177279,0.378199322819895
0.642698525962768,0.301715043601983
0.598112752989021,0.35717370264917
0.599803514765821,0.364951886821979
0.601412298460563,0.372670382746865
0.564853177823209,0.409103659450596
0.635720210117341,0.436213478199565
0.605750737860491,0.395442033859052
0.610743863383173,0.426294403614029
0.608240394531576,0.410277563540195
0.609365619030874,0.417583944910195
0.611676198400413,0.390714897570763
0.588262025139104,0.468894234720418
0.612267625353448,0.439026706527999
0.613078390671883,0.44600693051156
0.640186138236763,0.458924757798988
0.635353456969123,0.482900515441256
0.652836541084332,0.489417287264377
0.574423427421805,0.48785986707568
0.615975746982106,0.479537143974409
0.616326693953395,0.48595101035354
0.632923592749613,0.476530678456336
0.588415331298779,0.467683449752215
0.62244710283981,0.467628990998601
0.616981923562867,0.51054686424219
0.63061120263108,0.492754544042931
0.605190384150054,0.516002152791115
0.624345528639553,0.566264932004216
0.580139387734176,0.545064742420288
0.616146380514789,0.538714751628352
0.582346427445996,0.509746984571951
0.657026778860936,0.523361071296918
0.597754128369015,0.59356106013789
0.608523291605316,0.540335748770739
0.654187004936719,0.536879309624381
0.612782298768704,0.568312550809347
0.611976703302615,0.572763683964667
0.646929065805288,0.610436065854101
0.568381000987865,0.540905344163155
0.621701611738974,0.596629114302659
0.656238689787111,0.623573823727392
0.575766191669814,0.585169103613929
0.564826502704411,0.59871858522133
0.641424349156532,0.603606071061185
0.567022260821496,0.597684786226754
0.596940306138701,0.594472457172638
0.574596732572959,0.655433697631582
0.615507755008919,0.632367102122057
0.573845459051564,0.571688342647489
0.625540433103707,0.6624340708874
0.629251060079639,0.586996177282451
0.594681047539873,0.644108717323231
0.589983035085421,0.622578744731339
0.606202324228792,0.589040768503254
0.5860739743636,0.625679806305596
0.605308739800855,0.63399211276832
0.562575216671144,0.619204462449352
0.579747884775349,0.628894010572973
0.577517438034346,0.629571825633727
0.560824100805982,0.650801447654191
0.574058987252249,0.630210724169379
0.571684726242571,0.630396485245799
0.554917382994388,0.651263936804189
0.562464501657666,0.663225102209345
0.55734665654708,0.633789918094655
0.526747759092425,0.62023664499235
0.559119985029724,0.628763407892038
0.540117398521198,0.664653092985137
0.553782574437904,0.626952690559198
0.598421876839536,0.673601696638689
0.548274927565882,0.624505018857639
0.583491752246628,0.671212925725329
0.585202859674241,0.658478830529564
0.539705598079406,0.619674902069013
0.534754647964555,0.594550007239991
0.543585836751169,0.570086308901274
0.567012277145089,0.630390332787544
0.527732356196997,0.611157641601929
0.524645601019197,0.608671007381924
0.52152276325531,0.606045523258346
0.519439580007568,0.641341852996029
0.527920002590591,0.608771437142337
0.499901029457125,0.638625426598923
0.508683539306834,0.594195865105527
0.505390003338465,0.590906714497
0.461004042108136,0.607380155582672
0.538272833336972,0.552222671028009
0.497451278454746,0.567426357494859
0.472659219302437,0.545736175666239
0.469348400383294,0.610538140415862
0.453418349604389,0.575000539488077
0.516007736609384,0.555133107493618
0.465959836314226,0.530709075483938
0.485496740248884,0.564516711764347
0.470790687376275,0.551387703801322
0.438552540498525,0.518397999092042
0.463541456894237,0.542143921837041
0.444147708854348,0.495217691542905
0.456194526752399,0.532491538816445
0.490480092179367,0.515577191931587
0.448755078137934,0.522446865690422
0.445002278524457,0.517282517510026
0.430209641778366,0.549234460258169
0.414858701903927,0.466597844441539
0.418082395123279,0.48704507724498
0.474063773400012,0.4697968431538
0.448170547833386,0.453810940897157
0.401916847487635,0.53111549702129
0.418175722697225,0.478671491149768
0.414271563855108,0.472828583939275
0.40575778111986,0.495714750600279
0.421695151721741,0.467233430898748
0.396647861086659,0.436578823025356
0.379706898918796,0.415398456702091
0.409591886950221,0.470921041396362
0.389611572799655,0.439624527062554
0.363994457682881,0.468340827527394
0.382516498094819,0.423533372359652
0.394399402805649,0.381485180041399
0.393915641920352,0.372884195797645
0.32372755131342,0.442561450399732
0.357949174439685,0.420827820900521
0.411413234786,0.343683242159904
0.358227444077281,0.384012846590726
0.344786982540445,0.384725034747351
0.35490512737664,0.339866319551477
0.348605881471257,0.339976835388308
0.341887337922059,0.356696628396539
0.2895795664464,0.385249985958461
0.333688607362904,0.342796691847633
0.329584339482328,0.33579340275124
0.284141235931412,0.288335354312768
0.315179337042056,0.283609223361004
0.319522580012824,0.273849104179337
0.313149695749285,0.307472347826148
0.273708846307674,0.266702631750712
0.338532347014897,0.271201285652957
0.293182924644571,0.278888193431744
0.32417620221427,0.257734077007413
0.263546476663384,0.287932046831092
0.288516254841115,0.264291345394639
0.23471217491075,0.305843963125814
0.276740579785531,0.256372073181877
0.27624575792935,0.242505378987497
0.272166757880267,0.235228024838056
0.266920443180277,0.219677547617328
0.275593323490462,0.178363105271854
0.284906428424933,0.211560669870763
0.2559238562487,0.206096151341283
0.233136751541269,0.155313312352507
0.271467605564719,0.199225202747262
0.248180861724943,0.186049555581824
0.257629979174864,0.148967696687742
0.21909270671241,0.129713864929819
0.242626899297974,0.137914795111488
0.259604932236111,0.123553839287248
0.211206583625206,0.145311580459824
0.208087997689557,0.171177740493432
0.233459927229368,0.157553234624094
0.212143905215646,0.126695332107045
0.166112454166478,0.164043350684198
0.207700998669978,0.116905937572266
0.226338506590285,0.103734034063439
0.205744601318766,0.147457516044907
0.214195565512312,0.113429732701794
0.145677926697403,0.117792351226525
0.135757274607532,0.0861718638021931
0.181499366535886,0.0707930117568189
0.198184557149944,0.0379899848356068
0.182484775058064,0.0900620948879535
0.19928389782209,0.0456110895924283
0.131126003812088,0.0801814259351032
0.20009526921906,0.0766783132336171
0.111212397563528,0.0608843236395686
0.155805862707085,0.0240797960596781
0.152234547612837,0.0176176946088729
0.148689971826959,0.0112145135339894
0.145172782997848,0.00487229170388848
0.120896531795676,-0.0405219274977217
0.147497783019503,0.00805363497932964
0.134792014735079,-0.0137682296291117
0.131390850217,-0.019846225791475
0.132938264950315,-0.0624392856173206
0.124681044425484,-0.0317867184800819
0.165244511941991,0.00582532286985826
0.118098920616135,-0.0434262858614573
0.129352475254337,-0.00756760701429575
0.158191069893231,-0.0635983704925537
0.13100543237592,-0.0279248827411037
0.0982242213903317,-0.0445013389511352
0.0883224901668842,-0.0950922132903901
0.121006183832947,-0.0614806335518167
0.113912246298916,-0.129727346997165
0.093150868943852,-0.0866490832969231
0.122798839103662,-0.122138557576124
0.0912896017205384,-0.0880176231818816
0.118955383729351,-0.0745602154462223
0.0815776458671795,-0.106030845448229
0.078785189909751,-0.110621944431061
0.0760343691738113,-0.115107229054174
0.0878496112927548,-0.150937111528929
0.0626679762461317,-0.0957567577179228
0.0438919373739323,-0.14956478943551
0.0654603914128696,-0.131949446572216
0.0891636878002606,-0.088898511057866
0.0604400527196393,-0.139682658582542
0.0458040287204917,-0.187510594665554
0.0340610782383268,-0.182983849383154
0.0641451711990677,-0.18563105758677
0.0012022624351316,-0.170537882314988
0.0502646826092475,-0.17144523702302
0.030439650901491,-0.174835750996306
0.0245747523265235,-0.128839133696362
0.042257260228994,-0.165648939445198
0.0402086856229609,-0.16830234440923
0.0837096452605647,-0.218184441641074
0.0362681768467875,-0.173191806683958
0.0254023049240612,-0.168138920807409
0.0325408396411142,-0.177511212961834
0.0307587294982063,-0.1794520479298
0.0290318551931127,-0.181244252291971
0.0475431955580171,-0.174647339523513
0.0151104793186932,-0.2160064985062
0.047297265711462,-0.213416468089858
0.0226896693188113,-0.186885986305487
0.0212486889287365,-0.18790445460577
0.050561447530376,-0.143713402241404
7.3774357427267e-05,-0.181429163592929
0.0172830687212569,-0.189986521117417
0.0160824611343334,-0.190349300928695
0.0379147665495006,-0.208734643161507
0.0138670305742197,-0.190565763799183
0.0128535028978225,-0.190415369120671
0.0449661934801598,-0.191113975488476
0.0110180609943295,-0.18958713319183
0.0399368308538811,-0.215779432608445
-0.000912948361345887,-0.191345065202009
-0.00546410300886372,-0.215305737630442
0.00813176513965027,-0.185763786718779
-0.0151689014351253,-0.212064525170269
-0.00556908875974104,-0.173310056235894
-0.00409445291495905,-0.162500794654949
0.00632612780252436,-0.178942534419332
-0.0184926884194832,-0.173211405844617
0.00584150904597306,-0.174366916207494
0.00570601641508793,-0.171780723045034
0.00566396562449363,-0.152552087462627
-0.00460012304161599,-0.119011471114742
0.0244484373997164,-0.156815377047406
0.0289319660515016,-0.196421179697259
0.0447194029831664,-0.16803009829895
-0.0141492225618378,-0.124513510696022
0.0510945226460843,-0.109644597962684
-0.0337764392190678,-0.186403989490777
-0.00615946674822074,-0.15467742589191
0.0161479689747581,-0.0961684263331584
0.0383018476761696,-0.11401564866653
-0.0394021354202536,-0.0892252019467112
0.0498300477328692,-0.117722023336319
-0.0341229959140954,-0.0901964065206605
0.0504972257333986,-0.113250330710803
0.0132079356439474,-0.104783483484275
0.03155194820686,-0.101755049757833
0.0154389425468689,-0.0932761722647532
-0.0206191603260584,-0.114934426982418
0.0651185480261187,-0.108897462530009
-0.0177725725776472,-0.0916941591838274
0.0204642492083615,-0.0706850999373218
0.0612583670804011,-0.0807755580949627
0.0611042103319094,-0.0837330610778527
-0.0151559127604521,-0.0349818364490345
0.0261578527358798,-0.0486529795429369
0.0618974069641918,-0.0191616751146068
-0.0172528697836695,-0.0405102740162644
0.0308068826264476,-0.0324915278974515
0.0642476927766256,-0.0647458498503751
0.0420503226286794,-0.0613725293881496
0.0357340689294998,-0.016637657259427
0.0264873359065406,-0.0337374119358465
0.0391527010697603,-0.00623784311761333
0.0193154394957405,-0.0316392622273421
0.042663923179171,0.0040274364351313
0.0444503760844245,0.00910989675071688
0.0462553212165058,0.0141590486311722
0.0301186990796008,0.00810982477669434
0.0783525294715791,0.000485692135197446
0.070948249789001,-0.0171765092642835
0.0674113316748528,0.00683346810019397
0.0555031188489651,0.0389089756480941
0.0573864304837947,0.0437605534027273
0.0592773720593793,0.04857958155055
0.0552937784912323,0.00483297155114303
0.0400537177505363,0.0788600014055729
0.0649804588791306,0.0628424523936118
0.0272994356228614,0.058761754359281
0.0750560185575633,0.0369251642898633
0.0337678212494938,0.0317376712530233
0.0537360535249995,0.0399716922246312
0.0744933719128455,0.085973029373435
0.0763831539733285,0.0905039892420188
0.0782650484230341,0.0950034835442488
0.0474568040320351,0.0591583324848715
0.0579009218893403,0.13096864647917
0.0734532501369281,0.14301417409764
0.0896763935125092,0.120477029546111
0.0875018950795344,0.117032765701692
0.0434709786259501,0.0913942819557878
0.0681780751720391,0.147888922363238
0.118367766314609,0.117884551131248
0.0682799834972654,0.0893418805826108
0.0963087881936075,0.138291669307144
0.098001503084645,0.142452197046498
0.126583207523601,0.188492873174047
0.0611783443742747,0.112939578550446
0.102914388701445,0.15475322557391
0.0681376382177106,0.130039329623948
0.130637423863096,0.12529420122004
0.113932187618339,0.188305043505828
0.10902136620006,0.170737349749978
0.150966862574886,0.130616674830851
0.138053433438241,0.198907557001648
0.152500946271113,0.139946304564782
0.138128068246057,0.171377371862311
0.129684355164422,0.239932608075385
0.117029668584236,0.19383352741042
0.137700961120861,0.161709705151926
0.119342202850391,0.20130105326572
0.120424568361172,0.204991954005666
0.0979346817780121,0.194283429073007
0.0983272380963598,0.250783592632179
0.12335743734249,0.215894508323239
0.124225145302076,0.21947233847516
0.125035309485981,0.22302217199019
0.125786378139051,0.226544117272373
0.126476799506133,0.230038282725755
0.163940862262081,0.227836073688441
0.165416627702793,0.266377096412733
0.128168662339916,0.240355184153555
0.0941192366649947,0.212535872541285
0.156306303799242,0.211500817677757
0.107055609831221,0.255137631458554
0.172890284016055,0.231894695226968
0.127027205466385,0.271294803881872
0.0888785199922491,0.276979792558953
0.129704026313881,0.263475895565592
0.129624911694978,0.266671637569182
0.129466528728247,0.26984090059252
0.129227325658535,0.27298379303965
0.12890575073069,0.27610042331462
0.079763525782233,0.244280609063885
0.140644467296786,0.262300368372644
0.155251259443216,0.266108829240119
0.0922498602612911,0.269142013349531
0.0991914254799386,0.316519558458573
0.122687898809387,0.331334622658804
0.098634386966269,0.312385380773418
0.120473589876382,0.257274385605121
0.122048803163773,0.30298618470963
0.144580374131528,0.346409080006832
0.140771384745577,0.33898198560871
0.118057007786324,0.31149099625831
0.108399310290146,0.333247319105216
0.140848154167001,0.315990471021097
0.0988015059560117,0.284290465362363
0.0864180929713876,0.353770257961803
0.109332431919342,0.325170069168706
0.150224999510542,0.312739310553677
0.105081339702376,0.330470763209172
0.0997788933015256,0.290260452061426
0.112525712859539,0.345774640417081
0.0564096585857732,0.386175361472521
0.0952058576928295,0.340783889427498
0.043688984404635,0.317081146154787
0.129788391816858,0.370735289459501
0.125671118531838,0.376348103556069
0.117015974098709,0.308470006857705
0.102099312464531,0.339551374480016
0.0357724625514263,0.343213281130611
0.0457733044934036,0.332984213568579
0.069614110216956,0.360281376919959
0.0248020783866282,0.361495200359162
0.0951985702811456,0.339569740131579
0.0436102815151744,0.386485873739152
0.102587842387606,0.348784143149732
0.0123082855880156,0.328153702642619
0.0545986863323476,0.336269695819417
0.0223490684722473,0.373480410195388
0.0133688134596496,0.373734364448026
0.0306836807877855,0.380475131585634
0.0256487984895014,0.382608348685324
0.013004589849899,0.389175377264624
-0.015768340849927,0.425489073382275
0.00454433177918567,0.371597688736265
0.0193844594384697,0.422981961084465
-0.00342123928432631,0.433616818051009
0.00921183661528588,0.428167669664393
-0.0277777656350322,0.383558137939196
-0.0242276843285611,0.37375262440733
-0.0264909036691197,0.400843396967103
-0.0330710706950055,0.402764400226422
0.00903085385777411,0.384678672857669
-0.00695430429550196,0.414745583411016
-0.10318655653936,0.401222843051199
-0.10553818544732,0.396985974647652
-0.0842434695863111,0.374541394746045
-0.0605764845477742,0.443140955869502
-0.093397986252672,0.399941703886826
-0.0917130268746763,0.417399026416524
-0.099816625221007,0.419138305765415
-0.0697239178416441,0.391833432173007
-0.0786663709749665,0.452565992859304
-0.148277719250667,0.434602672015607
-0.134016825382686,0.425900011947687
-0.0983625453621161,0.44772634971348
-0.152210134101485,0.429165135967488
-0.201897227951233,0.444782498142255
-0.171148800633891,0.432354263582887
-0.210486747272371,0.463213126671923
-0.207802631037167,0.392017521839683
-0.200981502048197,0.436997358818528
-0.215535249312546,0.464993024692007
-0.221837874544987,0.440000289564518
-0.2474217166928,0.425091535513449
-0.241114440464063,0.443573272250748
-0.216240381285868,0.415462660638698
-0.265929454453488,0.445788135015491
-0.232760578282543,0.413584823490932
-0.289189489947652,0.448574784185205
-0.293957076956692,0.406841430076566
-0.343124511124154,0.420354785365182
-0.348757086418302,0.49120967063563
-0.338200122221936,0.453937871574916
-0.369922586536764,0.452720882054852
-0.344914758476361,0.467944408946339
-0.377186217840189,0.457779667263636
-0.373930825866607,0.463891504172421
-0.404261234776104,0.460256528615103
-0.413363395126357,0.504158361424964
-0.432218163979113,0.462666933118188
-0.469320664328212,0.497841945240362
-0.470606026592539,0.489290841945778
-0.475834298999609,0.466159830352895
-0.443726919946445,0.468901735986441
-0.503478079007499,0.473889247017734
-0.560383271795872,0.461997136913535
-0.491557004989666,0.515266718765492
-0.595342378922853,0.499518794205981
-0.527971100332601,0.467298784427185
-0.541449540929907,0.44838228995556
-0.567214881036435,0.484355361995761
-0.6191750831148,0.475782331333111
-0.590297767319109,0.485634439230563
-0.693966329762779,0.525325093193874
-0.671259128801557,0.478714191115991
-0.689112124165696,0.479661790484919
-0.7280979950724,0.48307491379235
-0.725564895627723,0.481513108808998
-0.774110441594466,0.528891476335801
-0.782025705899992,0.486761314375062
-0.782134280982437,0.484182011321365
