-0.533498651954116,-0.0620868130162977
-0.530273607759778,-0.0690272622817993
-0.527060229508828,-0.0759192794725553
-0.523858457964364,-0.082762936328565
-0.520668233889485,-0.0895583045898277
-0.517489498047291,-0.0963054559963427
-0.51432219120088,-0.103004462288109
-0.511166254113352,-0.109655395205126
-0.508021627547805,-0.116258326487393
-0.504888252267339,-0.12281332787491
-0.501766069035052,-0.129320471107675
-0.498655018614044,-0.135779827925688
-0.495555041767414,-0.142191470068948
-0.492466079258261,-0.148555469277455
-0.489388071849683,-0.154871897291207
-0.486320960304779,-0.161140825850204
-0.48326468538665,-0.167362326694446
-0.480219187858394,-0.173536471563931
-0.477184408483109,-0.179663332198659
-0.474160288023896,-0.185742980338628
-0.471146767243852,-0.191775487723839
-0.468143786906077,-0.197760926094291
-0.465151287773671,-0.203699367189983
-0.462169210609731,-0.209590882750913
-0.459197496177358,-0.215435544517082
-0.45623608523965,-0.221233424228489
-0.453284918559706,-0.226984593625133
-0.450343936900625,-0.232689124447013
-0.447413081025507,-0.238347088434128
-0.444492291697449,-0.243958557326479
-0.441581509679553,-0.249523602864063
-0.438680675734915,-0.255042296786881
-0.435789730626636,-0.260514710834931
-0.432908615117815,-0.265940916748213
-0.43003726997155,-0.271320986266726
-0.42717563595094,-0.276654991130469
-0.424323653819085,-0.281943003079443
-0.421481264339084,-0.287185093853645
-0.418648408274035,-0.292381335193076
-0.415825026387038,-0.297531798837733
-0.413011059441192,-0.302636556527618
-0.410206448199596,-0.307695680002729
-0.407411133425348,-0.312709241003065
-0.404625055881548,-0.317677311268626
-0.401848156331295,-0.32259996253941
-0.399080375537688,-0.327477266555418
-0.396321654263826,-0.332309295056648
-0.393571933272808,-0.3370961197831
-0.390831153327733,-0.341837812474773
-0.388099255191701,-0.346534444871666
-0.385376179627809,-0.351186088713778
-0.382661867399157,-0.355792815741109
-0.379956259268845,-0.360354697693658
-0.377259295999971,-0.364871806311425
-0.374570918355633,-0.369344213334408
-0.371891067098933,-0.373771990502607
-0.369219682992968,-0.378155209556021
-0.366556706800837,-0.38249394223465
-0.363902079285639,-0.386788260278492
-0.361255741210474,-0.391038235427547
-0.358617633338441,-0.395243939421815
-0.355987696432638,-0.399405444001293
-0.353365871256164,-0.403522820905983
-0.350752098572119,-0.407596141875883
-0.348146319143602,-0.411625478650992
-0.345548473733712,-0.415610902971309
-0.342958503105547,-0.419552486576835
-0.340376348022207,-0.423450301207567
-0.337801949246791,-0.427304418603506
-0.335235247542398,-0.431114910504651
-0.332676183672126,-0.434881848651001
-0.330124698399075,-0.438605304782554
-0.327580732486345,-0.442285350639312
-0.325044226697033,-0.445922057961272
-0.32251512179424,-0.449515498488434
-0.319993358541063,-0.453065743960797
-0.317478877700603,-0.456572866118361
-0.314971620035958,-0.460036936701125
-0.312471526310226,-0.463458027449088
-0.309978537286508,-0.46683621010225
-0.307492593727903,-0.470171556400609
-0.305013636397509,-0.473464138084165
-0.302541606058425,-0.476714026892917
-0.30007644347375,-0.479921294566865
-0.297618089406584,-0.483086012846007
-0.295166484620025,-0.486208253470344
-0.292721569877173,-0.489288088179874
-0.290283285941126,-0.492325588714596
-0.287851573574984,-0.49532082681451
-0.285426373541845,-0.498273874219616
-0.283007626604809,-0.501184802669911
-0.280595273526975,-0.504053683905397
-0.278189255071442,-0.506880589666071
-0.275789512001308,-0.509665591691934
-0.273395985079673,-0.512408761722984
-0.271008615069636,-0.515110171499221
-0.268627342734295,-0.517769892760644
-0.266252108836751,-0.520387997247252
-0.263882854140101,-0.522964556699045
-0.261519519407446,-0.525499642856021
-0.259162045401884,-0.527993327458181
-0.256810372886513,-0.530445682245523
-0.254464442624434,-0.532856778958047
-0.252124195378745,-0.535226689335752
-0.249789571912545,-0.537555485118637
-0.247460512988933,-0.539843238046701
-0.245136959371009,-0.542090019859944
-0.24281885182187,-0.544295902298366
-0.240506131104618,-0.546460957101964
-0.238198737982349,-0.548585256010739
-0.235896613218164,-0.55066887076469
-0.233599697575161,-0.552711873103816
-0.23130793181644,-0.554714334768117
-0.229021256705099,-0.556676327497591
-0.226739613004238,-0.558597923032238
-0.224462941476956,-0.560479193112057
-0.222191182886351,-0.562320209477048
-0.219924277995522,-0.56412104386721
-0.21766216756757,-0.565881768022541
-0.215404792365592,-0.567602453683042
-0.213152093152688,-0.569283172588712
-0.210904010691957,-0.570923996479549
-0.208660485746498,-0.572524997095553
-0.206421459079409,-0.574086246176724
-0.204186871453791,-0.575607815463061
-0.201956663632741,-0.577089776694562
-0.19973077637936,-0.578532201611228
-0.197509150456745,-0.579935161953057
-0.195291726627997,-0.581298729460049
-0.193078445656213,-0.582622975872203
-0.190869248304494,-0.583907972929518
-0.188664075335938,-0.585153792371994
-0.186462867513645,-0.586360505939629
-0.184265565600713,-0.587528185372424
-0.18207211036024,-0.588656902410377
-0.179882442555328,-0.589746728793488
-0.177696502949073,-0.590797736261756
-0.175514232304577,-0.59180999655518
-0.173335571384936,-0.592783581413759
-0.171160460953251,-0.593718562577493
-0.168988841772621,-0.594615011786381
-0.166820654606144,-0.595473000780423
-0.16465584021692,-0.596292601299617
-0.162494339368048,-0.597073885083963
-0.160336092822626,-0.59781692387346
-0.158181041343754,-0.598521789408107
-0.156029125694531,-0.599188553427904
-0.153880286638055,-0.59981728767285
-0.151734464937427,-0.600408063882945
-0.149591601355744,-0.600960953798186
-0.147451636656106,-0.601476029158575
-0.145314511601612,-0.601953361704109
-0.143180166955361,-0.602393023174789
-0.141048543480453,-0.602795085310613
-0.138919581939985,-0.603159619851581
-0.136793223097057,-0.603486698537692
-0.134669407714769,-0.603776393108946
-0.132548076556219,-0.604028775305342
-0.130429170384506,-0.604243916866878
-0.128312629962729,-0.604421889533554
-0.126198396053987,-0.60456276504537
-0.12408640942138,-0.604666615142325
-0.121976610828007,-0.604733511564417
-0.119868941036965,-0.604763526051647
-0.117763340811356,-0.604756730344014
-0.115659750914276,-0.604713196181517
-0.113558112108827,-0.604632995304154
-0.111458365158105,-0.604516199451926
-0.109360450825212,-0.604362880364831
-0.107264309873245,-0.60417310978287
-0.105169883065304,-0.603946959446041
-0.103077111164487,-0.603684501094343
-0.100985934933894,-0.603385806467776
-0.0988962951366244,-0.603050947306339
-0.0968081325357763,-0.602679995350031
-0.094721387894449,-0.602273022338851
-0.0926360019757417,-0.6018301000128
-0.0905519155427534,-0.601351300111876
-0.088469069358583,-0.600836694376078
-0.0863874041863297,-0.600286354545406
-0.0843068607890925,-0.599700352359858
-0.0822273799299704,-0.599078759559435
-0.0801489023720623,-0.598421647884136
-0.0780713688784675,-0.597729089073958
-0.0759947202122849,-0.597001154868904
-0.0739188971366136,-0.59623791700897
-0.0718438404145526,-0.595439447234157
-0.0697694908092008,-0.594605817284464
-0.0676957890836576,-0.59373709889989
-0.0656226760010217,-0.592833363820434
-0.0635500923243922,-0.591894683786096
-0.0614779788168682,-0.590921130536875
-0.0594062762415488,-0.58991277581277
-0.057334925361533,-0.588869691353781
-0.0552638669399197,-0.587791948899906
-0.0531930417398081,-0.586679620191145
-0.0511223905242971,-0.585532776967498
-0.049051854056486,-0.584351490968963
-0.0469813730994735,-0.58313583393554
-0.0449108884163588,-0.581885877607228
-0.042840340770241,-0.580601693724026
-0.040769670924219,-0.579283354025934
-0.038698819641392,-0.577930930252952
-0.0366277276848588,-0.576544494145077
-0.0345563358177188,-0.575124117442309
-0.0324845848030706,-0.573669871884649
-0.0304124154040136,-0.572181829212094
-0.0283397683836466,-0.570660061164645
-0.0262665845050689,-0.5691046394823
-0.0241928045313792,-0.567515635905059
-0.0221183692256769,-0.565893122172922
-0.0200432193510607,-0.564237170025886
-0.0179672956706299,-0.562547851203953
-0.0158905389474833,-0.56082523744712
-0.0138128899447202,-0.559069400495387
-0.0117342894254394,-0.557280412088754
-0.0096546781527401,-0.555458343967219
-0.0075739968897212,-0.553603267870783
-0.00549218639948194,-0.551715255539444
-0.00340918744512113,-0.549794378713201
-0.00132494078973802,-0.547840709132055
0.000760612803568553,-0.545854318536003
0.00284753257169935,-0.543835278665046
0.00493587775155556,-0.541783661259182
0.00702570758003791,-0.539699538058411
0.00911708129404756,-0.537582980802733
0.0112100581304853,-0.535434061232146
0.0133046973262523,-0.533252851086649
0.0154010581182493,-0.531039422106243
0.0174991997433774,-0.528793846030926
0.0195991814385375,-0.526516194600698
0.0217010624406306,-0.524206539555557
0.0238049019865576,-0.521864952635503
0.0259107593132196,-0.519491505580536
0.0280186936575174,-0.517086270130655
0.0301287642563521,-0.514649318025858
0.0322410303466245,-0.512180721006146
0.0343555511652357,-0.509680550811517
0.0364723859490866,-0.50714887918197
0.0385915939350783,-0.504585777857506
0.0407132343601114,-0.501991318578123
0.0428373664610874,-0.499365573083821
0.0449640494749067,-0.496708613114598
0.0470933426384707,-0.494020510410455
0.0492253051886801,-0.49130133671139
0.051359996362436,-0.488551163757402
0.0534974753966393,-0.485770063288492
0.055637801528191,-0.482958107044657
0.0577810339939919,-0.480115366765898
0.0599272320309433,-0.477241914192214
0.0620764548759458,-0.474337821063604
0.0642287617659007,-0.471403159120067
0.0663842119377086,-0.468438000101603
0.0685428646282707,-0.46544241574821
0.0707047790744879,-0.462416477799889
0.0728700145132613,-0.459360257996638
0.0750386301814916,-0.456273828078456
0.07721068531608,-0.453157259785344
0.0793862391539272,-0.4500106248573
0.0815653509319344,-0.446833995034323
0.0837480798870024,-0.443627442056413
0.0859344852560324,-0.440391037663568
0.0881246262759251,-0.43712485359579
0.0903185621835816,-0.433828961593075
0.0925163522159028,-0.430503433395425
0.0947180556097898,-0.427148340742837
0.0969237316021433,-0.423763755375312
0.0991334394298645,-0.420349749032849
0.101347238329854,-0.416906393455447
0.103565187539013,-0.413433760383104
0.105787346294243,-0.409931921555821
0.108013773832445,-0.406400948713597
0.110244529390518,-0.402840913596431
0.112479672205365,-0.399251887944322
0.114719261513887,-0.39563394349727
0.116963356552983,-0.391987151995274
0.119212016559556,-0.388311585178332
0.121465300770506,-0.384607314786445
0.123723268422735,-0.380874412559612
0.125985978753142,-0.377112950237831
0.12825349099863,-0.373322999561103
0.130525864396099,-0.369504632269426
0.13280315818245,-0.3656579201028
0.135085431594583,-0.361782934801224
0.137372743869401,-0.357879748104697
0.139665154243804,-0.353948431753219
0.141962721954692,-0.349989057486789
0.144265506238968,-0.346001697045405
0.146573566333531,-0.341986422169068
0.148886961475283,-0.337943304597777
0.151205750901125,-0.33387241607153
0.153529993847957,-0.329773828330328
0.155859749552681,-0.325647613114169
0.158195077252198,-0.321493842163053
0.160536036183408,-0.317312587216979
0.162882685583213,-0.313103920015946
0.165235084688513,-0.308867912299954
0.16759329273621,-0.304604635809001
0.169957368963204,-0.300314162283088
0.172327372606397,-0.295996563462212
0.174703362902689,-0.291651911086375
0.177085399088981,-0.287280276895575
0.179473540402175,-0.28288173262981
0.181867846079171,-0.278456350029081
0.18426837535687,-0.274004200833387
0.186675187472173,-0.269525356782727
0.189088341661981,-0.2650198896171
0.191507897163196,-0.260487871076506
0.193933913212717,-0.255929372900943
0.196366449047447,-0.251344466830412
0.198805563904285,-0.246733224604911
0.201251317020134,-0.242095717964439
0.203703767631893,-0.237432018648996
0.206162974976464,-0.232742198398582
0.208628998290748,-0.228026328953195
0.211101896811646,-0.223284482052835
0.213581729776058,-0.218516729437501
0.216068556420886,-0.213723142847191
0.218562435983031,-0.208903794021907
0.221063427699394,-0.204058754701646
0.223571590806875,-0.199188096626409
0.226086984542375,-0.194291891536194
0.228609668142796,-0.189370211171
0.231139700845039,-0.184423127270827
0.233677141886004,-0.179450711575675
0.236222050502593,-0.174453035825542
0.238774485931705,-0.169430171760428
0.241334507410244,-0.164382191120331
0.243902174175108,-0.159309165645252
0.2464775454632,-0.154211167075189
0.24906068051142,-0.149088267150143
0.251651638556669,-0.143940537610111
0.254250478835848,-0.138768050195094
0.256857260585858,-0.13357087664509
0.259472043043601,-0.128349088700099
0.262094885445976,-0.123102758100121
0.264725847029885,-0.117831956585154
0.26736498703223,-0.112536755895197
0.27001236468991,-0.107217227770251
0.272668039239827,-0.101873443950313
0.275332069918882,-0.0965054761753849
0.278004515963976,-0.0911133961854639
0.280685436612009,-0.0856972757205502
0.283374891099883,-0.0802571865206427
0.286072938664499,-0.074793200325741
0.288779638542758,-0.0693053888758439
0.29149504997156,-0.0637938239109513
0.294219232187806,-0.0582585771710619
0.296952244428398,-0.0526997203961754
0.299694145930237,-0.0471173253262907
0.302444995930223,-0.0415114637014075
0.305204853665258,-0.0358822072615246
0.307973778372242,-0.0302296277466416
0.310751829288076,-0.0245537968967576
0.313539065649661,-0.0188547864518721
0.316335546693899,-0.013132668151984
0.31914133165769,-0.00738751373709312
0.321956479777935,-0.00161939494719809
0.324781050291536,0.00417161647770124
0.327615102435392,0.00998544879760613
0.330458695446406,0.0158220302725167
0.333311888561477,0.0216812891624344
0.336174741017508,0.0275631537273592
0.339047312051398,0.0334675522272925
0.34192966090005,0.0393944129222345
0.344821846800363,0.0453436640721864
0.347723928989239,0.0513152339371484
0.350635966703579,0.0573090507771218
0.353558019180284,0.0633250428521067
0.356490145656254,0.0693631384221045
0.359432405368391,0.0754232657471153
0.362384857553596,0.0815053530871404
0.365347561448769,0.0876093287021799
0.368320576290812,0.0937351208522352
0.371303961316625,0.0998826577973065
0.37429777576311,0.106051867797395
0.377302078867168,0.112242679112501
0.380316929865699,0.118455020002625
0.383342387995604,0.124688818727768
0.386378512493784,0.130944003547932
0.389425362597141,0.137220502723116
0.392482997542575,0.143518244513321
0.395551476566987,0.149837157178548
0.398630858907279,0.156177168978798
0.401721203800351,0.162538208174071
0.404822570483104,0.168920203024369
0.407935018192438,0.175323081789691
0.411058606165256,0.18174677273004
0.414193393638458,0.188191204105414
0.417339439848945,0.194656304175816
0.420496804033618,0.201142001201245
0.423665545429378,0.207648223441703
0.426845723273125,0.214174899157191
0.430037396801761,0.220721956607708
0.433240625252187,0.227289324053256
0.436455467861304,0.233876929753836
0.439681983866013,0.240484701969447
0.442920232503214,0.247112568960092
0.446170273009809,0.253760458985771
0.449432164622698,0.260428300306484
0.449432164622698,0.260428300306484
0.452693318102833,0.267067055799669
0.45594109418316,0.273627914333313
0.459175477058578,0.280111143153239
0.462396450923984,0.286517009505273
0.465603999974276,0.292845780635238
0.468798108404351,0.299097723788957
0.471978760409107,0.305273106212256
0.475145940183442,0.311372195150957
0.478299631922253,0.317395257850885
0.481439819820437,0.323342561557863
0.484566488072893,0.329214373517716
0.487679620874517,0.335010960976268
0.490779202420208,0.340732591179343
0.493865216904863,0.346379531372765
0.496937648523379,0.351952048802357
0.499996481470654,0.357450410713944
0.503041699941586,0.362874884353349
0.506073288131071,0.368225736966397
0.509091230234009,0.373503235798911
0.512095510445296,0.378707648096716
0.51508611295983,0.383839241105636
0.518063021972509,0.388898282071494
0.521026221678229,0.393885038240115
0.52397569627189,0.398799776857322
0.526911429948387,0.403642765168939
0.529833406902619,0.408414270420791
0.532741611329483,0.413114559858701
0.535636027423878,0.417743900728494
0.5385166393807,0.422302560275993
0.541383431394847,0.426790805747023
0.544236387661216,0.431208904387406
0.547075492374706,0.435557123442968
0.549900729730214,0.439835730159533
0.552712083922636,0.444044991782923
0.555509539146872,0.448185175558964
0.558293079597818,0.452256548733479
0.561062689470373,0.456259378552292
0.563818352959433,0.460193932261228
0.566560054259896,0.464060477106109
0.56928777756666,0.467859280332761
0.572001507074622,0.471590609187006
0.574701226978681,0.47525473091467
0.577386921473732,0.478851912761576
0.580058574754675,0.482382421973548
0.582716171016407,0.48584652579641
0.585359694453824,0.489244491475986
0.587989129261825,0.4925765862581
0.590604459635308,0.495843077388576
0.59320566976917,0.499044232113238
0.595792743858308,0.502180317677909
0.59836566609762,0.505251601328415
0.600924420682004,0.508258350310579
0.603468991806357,0.511200831870224
0.605999363665577,0.514079313253175
0.608515520454561,0.516894061705256
0.611017446368207,0.519645344472291
0.613505125601413,0.522333428800104
0.615978542349076,0.524958581934518
0.618437680806093,0.527521071121358
0.620882525167362,0.530021163606448
0.623313059627782,0.532459126635611
0.625729268382249,0.534835227454672
0.62813113562566,0.537149733309455
0.630518645552914,0.539402911445783
0.632891782358908,0.541595029109481
0.63525053023854,0.543726353546373
0.637594873386707,0.545797152002282
0.639924795998307,0.547807691723033
0.642240282268237,0.549758239954449
0.644541316391395,0.551649063942354
0.646827882562678,0.553480430932573
0.649099964976985,0.55525260817093
0.651357547829213,0.556965862903248
0.653600615314258,0.558620462375352
0.655829151627019,0.560216673833065
0.658043140962394,0.561754764522211
0.660242567515279,0.563235001688614
0.662427415480573,0.564657652578099
0.664597669053173,0.566022984436489
0.666753312427977,0.567331264509609
0.668894329799882,0.568582760043282
0.671020705363786,0.569777738283332
0.673132423314586,0.570916466475583
0.67522946784718,0.571999211865859
0.677311823156466,0.573026241699985
0.67937947343734,0.573997823223784
0.681432402884701,0.574914223683079
0.683470595693447,0.575775710323696
0.685494036058474,0.576582550391459
0.687502708174681,0.57733501113219
0.689496596236964,0.578033359791714
0.691475684440222,0.578677863615855
0.693439956979353,0.579268789850438
0.695389398049252,0.579806405741285
0.697323991844819,0.580290978534221
0.699243722560951,0.58072277547507
0.701148574392545,0.581102063809656
0.703038531534499,0.581429110783803
0.704913578181711,0.581704183643335
0.706773698529077,0.581927549634076
0.708618876771497,0.58209947600185
0.710449097103866,0.58222022999248
0.712264343721083,0.582290078851791
0.714064600818046,0.582309289825607
0.715849852589652,0.582278130159752
0.717620083230798,0.58219686710005
0.719375276936382,0.582065767892324
0.721115417901302,0.581885099782399
0.722840490320455,0.581655130016098
0.724550478388739,0.581376125839247
0.726245366301051,0.581048354497667
0.727925138252289,0.580672083237185
0.729589778437351,0.580247579303623
0.731239271051134,0.579775109942806
0.732873600288535,0.579254942400557
0.734492750344453,0.578687343922701
0.736096705413784,0.578072581755061
0.737685449691427,0.577410923143462
0.739258967372278,0.576702635333727
0.740817242651237,0.575947985571681
0.742360259723199,0.575147241103147
0.743888002783063,0.574300669173949
0.745400456025726,0.573408537029912
0.746897603646086,0.572471111916859
0.74837942983904,0.571488661080615
0.749845918799487,0.570461451767003
0.751297054722322,0.569389751221847
0.752732821802445,0.568273826690971
0.754153204234753,0.5671139454202
0.755558186214143,0.565910374655357
0.756947751935512,0.564663381642266
0.758321885593759,0.563373233626751
0.759680571383781,0.562040197854637
0.761023793500475,0.560664541571746
0.76235153613874,0.559246532023904
0.763663783493472,0.557786436456934
0.764960519759569,0.55628452211666
0.766241729131929,0.554741056248906
0.76750739580545,0.553156306099496
0.768757503975028,0.551530538914254
0.769992037835562,0.549864021939004
0.771210981581949,0.54815702241957
0.772414319409087,0.546409807601776
0.773602035511873,0.544622644731447
0.774774114085205,0.542795801054405
0.775930539323979,0.540929543816474
0.777071295423096,0.53902414026348
0.77819636657745,0.537079857641245
0.779305736981941,0.535096963195595
0.780399390831465,0.533075724172352
0.781477312320921,0.531016407817341
0.782539485645205,0.528919281376386
0.783585894999216,0.52678461209531
0.78461652457785,0.524612667219938
0.785631358576006,0.522403713996094
0.786630381188582,0.520158019669602
0.787613576610474,0.517875851486285
0.78858092903658,0.515557476691968
0.789532422661798,0.513203162532474
0.790468041681025,0.510813176253628
0.79138777028916,0.508387785101254
0.792291592681098,0.505927256321175
0.793179493051739,0.503431857159216
0.79405145559598,0.500901854861201
0.794907464508718,0.498337516672952
0.79574750398485,0.495739109840296
0.796571558219275,0.493106901609054
0.79737961140689,0.490441159225052
0.798171647742593,0.487742149934114
0.79894765142128,0.485010140982063
0.79970760663785,0.482245399614723
0.800451497587201,0.479448193077919
0.801179308464229,0.476618788617474
0.801891023463833,0.473757453479212
0.802586626780909,0.470864454908958
0.803266102610356,0.467940060152535
0.803929435147072,0.464984536455767
0.804576608585952,0.461998151064479
0.805207607121896,0.458981171224493
0.805822414949801,0.455933864181635
0.806421016264565,0.452856497181728
0.807003395261084,0.449749337470596
0.807569536134257,0.446612652294063
0.80811942307898,0.443446708897953
0.808653040290153,0.44025177452809
0.809170371962672,0.437028116430299
0.809671402291434,0.433776001850402
0.810156115471338,0.430495698034225
0.810624495697281,0.42718747222759
0.811076527164161,0.423851591676322
0.811512194066874,0.420488323626246
0.811931480600319,0.417097935323184
0.812334370959394,0.413680694012961
0.812720849338995,0.410236866941401
0.813090899934021,0.406766721354328
0.813444506939368,0.403270524497566
0.813781654549936,0.399748543616938
0.81410232696062,0.39620104595827
0.814406508366318,0.392628298767384
0.81469418296193,0.389030569290105
0.814965334942351,0.385408124772256
0.815219948502479,0.381761232459663
0.815458007837212,0.378090159598148
0.815679497141448,0.374395173433536
0.815884400610084,0.37067654121165
0.816072702438018,0.366934530178315
0.816244386820147,0.363169407579355
0.816399437951368,0.359381440660593
0.81653784002658,0.355570896667854
0.81665957724068,0.351738042846961
0.816764633788566,0.347883146443739
0.816852993865135,0.344006474704011
0.816924641665284,0.340108294873602
0.816979561383911,0.336188874198335
0.817017737215915,0.332248479924035
0.817039153356191,0.328287379296525
0.817043793999639,0.32430583956163
0.817031643341155,0.320304127965173
0.817002685575638,0.316282511752978
0.816956904897984,0.31224125817087
0.816894285503091,0.308180634464672
0.816814811585857,0.304100907880208
0.81671846734118,0.300002345663303
0.816605236963956,0.29588521505978
0.816475104649084,0.291749783315463
0.816328054591461,0.287596317676176
0.816164070985985,0.283425085387743
0.815983138027553,0.279236353695989
0.815785239911063,0.275030389846737
0.815570360831412,0.270807461085811
0.815338484983498,0.266567834659035
0.815089596562219,0.262311777812233
0.814823679762472,0.258039557791229
0.814540718779154,0.253751441841847
0.814240697807164,0.249447697209911
0.813923601041399,0.245128591141246
0.813589412676756,0.240794390881674
0.813238116908133,0.23644536367702
0.812869697930427,0.232081776773108
0.812484139938537,0.227703897415762
0.812081427127359,0.223311992850806
0.811661543691792,0.218906330324064
0.811224473826732,0.214487177081359
0.810770201727078,0.210054800368517
0.810298711587727,0.20560946743136
0.809809987603576,0.201151445515713
0.809304013969523,0.1966810018674
0.808780774880467,0.192198403732245
0.808240254531303,0.187703918356071
0.80768243711693,0.183197812984703
0.807107306832245,0.178680354863965
0.806514847872147,0.17415181123968
0.805905044431532,0.169612449357673
0.805277880705298,0.165062536463768
0.804633340888343,0.160502339803788
0.803971409175564,0.155932126623558
0.803292069761859,0.151352164168901
0.802595306842125,0.146762719685642
0.801881104611261,0.142164060419604
0.801149447264162,0.137556453616612
0.800400318995728,0.13294016652249
0.799633704000856,0.128315466383061
0.798849586474443,0.123682620444149
0.798047950611387,0.119041895951579
0.797228780606585,0.114393560151174
0.796392060654935,0.109737880288758
0.795537774951335,0.105075123610156
0.794665907690681,0.100405557361191
0.793776443067873,0.0957294487876876
0.792869365277807,0.0910470651354694
0.79194465851538,0.0863586736503603
0.791002306975491,0.0816645415781847
0.790042294853037,0.076964936164766
0.789064606342915,0.0722601246559288
0.788069225640024,0.0675503742974965
0.78705613693926,0.0628359523352936
0.786025324435522,0.0581171260151436
0.784976772323706,0.053394162582871
0.783910464798711,0.0486673292842992
0.782826386055434,0.0439368933652528
0.781724520288772,0.0392031220715552
0.780604851693623,0.0344662826490308
0.779467364464886,0.0297266423435032
0.778312042797456,0.0249844684007968
0.777138870886232,0.0202400280667352
0.775947832926112,0.0154935885871428
0.774738913111992,0.010745417207843
0.773512095638772,0.00599578117466038
0.772267364701347,0.00124494773341843
0.771004704494616,-0.00350681587005847
0.769724099213476,-0.0082592423899467
0.768425533052825,-0.0130120645804219
0.767108990207561,-0.0177650151956605
0.76577445487258,-0.0225178269898382
0.764421911242781,-0.0272702327171313
0.763051343513061,-0.0320219651317154
0.761662735878318,-0.0367727569877671
0.760256072533449,-0.0415223410394618
0.758831337673352,-0.046270450040976
0.757388515492924,-0.0510168167464854
0.755927590187063,-0.0557611739101664
0.754448545950667,-0.0605032542861945
0.752951366978633,-0.0652427906287463
0.751436037465859,-0.0699795156919973
0.749902541607242,-0.0747131622301239
0.74835086359768,-0.0794434629973018
0.74678098763207,-0.0841701507477075
0.74519289790531,-0.0888929582355164
0.743586578612298,-0.093611618214905
0.741962013947931,-0.0983258634400491
0.740319188107106,-0.103035426665125
0.738658085284722,-0.107740040644308
0.736978689675676,-0.112439438131775
0.735280985474865,-0.117133351881702
0.733564956877187,-0.121821514648264
0.73183058807754,-0.126503659185638
0.73007786327082,-0.131179518247999
0.728306766651927,-0.135848824589525
0.726517282415756,-0.14051131096439
0.724709394757207,-0.145166710126771
0.722883087871176,-0.149814754830843
0.721038345952561,-0.154455177830784
0.719175153196259,-0.159087711880768
0.717293493797169,-0.163712089734972
0.715393351950187,-0.168328044147572
0.713474711850212,-0.172935307872744
0.711537557692141,-0.177533613664664
0.70958187367087,-0.182122694277507
0.707607643981299,-0.186702282465451
0.705614852818325,-0.191272110982671
0.703603484376844,-0.195831912583343
0.701573522851756,-0.200381420021642
0.699524952437956,-0.204920366051746
0.697457757330344,-0.20944848342783
0.695371921723815,-0.21396550490407
0.693267429813269,-0.218471163234642
0.691144265793602,-0.222965191173722
0.689002413859713,-0.227447321475486
0.686841858206498,-0.231917286894111
0.684662583028856,-0.236374820183771
0.682464572521683,-0.240819654098644
0.680247810879878,-0.245251521392905
0.678012282298337,-0.24967015482073
0.67575797097196,-0.254075287136296
0.673484861095642,-0.258466651093778
0.671192936864282,-0.262843979447352
0.668882182472778,-0.267207004951195
0.666552582116026,-0.271555460359481
0.664204119988924,-0.275889078426389
0.661836780286371,-0.280207591906092
0.659450547203263,-0.284510733552769
0.657045404934499,-0.288798236120593
0.654621337674975,-0.293069832363742
0.652178329619589,-0.297325255036391
0.64971636496324,-0.301564236892717
0.647235427900823,-0.305786510686896
0.644735502627238,-0.309991809173103
0.642216573337381,-0.314179865105514
0.63967862422615,-0.318350411238307
0.637121639488443,-0.322503180325656
0.634545603319158,-0.326637905121737
0.631950499913191,-0.330754318380727
0.629336313465441,-0.334852152856802
0.626703028170804,-0.338931141304137
0.624050628224179,-0.34299101647691
0.621379097820464,-0.347031511129294
0.618688421154555,-0.351052358015468
0.61597858242135,-0.355053289889607
0.613249565815747,-0.359034039505886
0.610501355532644,-0.362994339618482
0.607733935766937,-0.366933922981571
0.604947290713525,-0.370852522349328
0.602141404567306,-0.374749870475931
0.599316261523176,-0.378625700115555
0.596471845776033,-0.382479744022375
0.593608141520775,-0.386311734950569
0.5907251329523,-0.390121405654311
0.587822804265504,-0.393908488887778
0.584901139655286,-0.397672717405147
0.581960123316544,-0.401413823960592
0.578999739444174,-0.405131541308291
0.576019972233074,-0.408825602202418
0.573020805878142,-0.412495739397151
0.570002224574276,-0.416141685646665
0.566964212516372,-0.419763173705136
0.56390675389933,-0.42335993632674
0.560829832918045,-0.426931706265653
0.557733433767416,-0.430478216276051
0.55461754064234,-0.433999199112111
0.551482137737715,-0.437494387528008
0.548327209248439,-0.440963514277918
0.545152739369408,-0.444406312116017
0.541958712295522,-0.447822513796482
0.538745112221676,-0.451211852073488
0.535511923342769,-0.454574059701212
0.532259129853698,-0.457908869433828
0.528986715949361,-0.461216014025515
0.525694665824656,-0.464495226230446
0.52238296367448,-0.467746238802799
0.52238296367448,-0.467746238802799
0.51905401963738,-0.470964531311819
0.515710368320847,-0.474145803459747
0.51235218062319,-0.477290118200251
0.508979627442719,-0.480397538487
0.505592879677743,-0.483468127273662
0.502192108226573,-0.486501947513906
0.498777483987519,-0.4894990621614
0.49534917785889,-0.492459534169814
0.491907360738996,-0.495383426492815
0.488452203526147,-0.498270802084072
0.484983877118653,-0.501121723897254
0.481502552414824,-0.503936254886029
0.478008400312969,-0.506714458004066
0.474501591711398,-0.509456396205034
0.470982297508422,-0.5121621324426
0.467450688602349,-0.514831729670434
0.463906935891491,-0.517465250842204
0.460351210274156,-0.520062758911578
0.456783682648655,-0.522624316832226
0.453204523913297,-0.525149987557815
0.449613904966392,-0.527639834042015
0.44601199670625,-0.530093919238493
0.442398970031182,-0.532512306100919
0.438774995839496,-0.534895057582961
0.435140245029502,-0.537242236638288
0.431494888499511,-0.539553906220567
0.427839097147832,-0.541830129283469
0.424173041872775,-0.54407096878066
0.420496893572651,-0.54627648766581
0.416810823145767,-0.548446748892588
0.413115001490436,-0.550581815414661
0.409409599504966,-0.552681750185699
0.405694788087667,-0.55474661615937
0.401970738136849,-0.556776476289343
0.398237620550823,-0.558771393529285
0.394495606227897,-0.560731430832866
0.390744866066382,-0.562656651153755
0.386985570964587,-0.564547117445619
0.383217891820822,-0.566402892662128
0.379441999533398,-0.568224039756949
0.375658065000624,-0.570010621683752
0.371866259120809,-0.571762701396206
0.368066752792264,-0.573480341847977
0.364259716913299,-0.575163605992736
0.360445322382223,-0.576812556784151
0.356623740097347,-0.578427257175889
0.352795140956979,-0.580007770121621
0.34895969585943,-0.581554158575014
0.34511757570301,-0.583066485489737
0.341268951386028,-0.584544813819459
0.337413993806795,-0.585989206517847
0.33355287386362,-0.587399726538572
0.329685762454813,-0.5887764368353
0.325812830478684,-0.590119400361701
0.321934248833543,-0.591428680071444
0.318050188417699,-0.592704338918196
0.314160820129463,-0.593946439855627
0.310266314867144,-0.595155045837405
0.306366843529052,-0.596330219817198
0.302462577013497,-0.597472024748675
0.298553686218789,-0.598580523585505
0.294640342043237,-0.599655779281357
0.290722715385152,-0.600697854789898
0.286800977142843,-0.601706813064797
0.282875298214621,-0.602682717059724
0.278945849498794,-0.603625629728345
0.275012801893673,-0.604535614024331
0.271076326297568,-0.605412732901349
0.267136593608788,-0.606257049313069
0.263193774725644,-0.607068626213158
0.259248040546444,-0.607847526555286
0.2552995619695,-0.60859381329312
0.251348509893121,-0.60930754938033
0.247395055215616,-0.609988797770583
0.243439368835296,-0.610637621417549
0.23948162165047,-0.611254083274896
0.235521984559448,-0.611838246296293
0.231560628460541,-0.612390173435408
0.227597724252057,-0.61290992764591
0.223633442832307,-0.613397571881467
0.219667955099601,-0.613853169095748
0.215701431952248,-0.614276782242421
0.211734044288558,-0.614668474275155
0.207765963006841,-0.615028308147619
0.203797359005408,-0.615356346813481
0.199828403182567,-0.615652653226409
0.195859266436628,-0.615917290340072
0.191890119665902,-0.61615032110814
0.187921133768699,-0.61635180848428
0.183952479643327,-0.61652181542216
0.179984328188097,-0.61666040487545
0.176016850301319,-0.616767639797818
0.172050216881303,-0.616843583142933
0.168084598826359,-0.616888297864462
0.164120167034795,-0.616901846916076
0.160157092404923,-0.616884293251442
0.156195545835052,-0.616835699824228
0.152235698223491,-0.616756129588104
0.148277720468551,-0.616645645496737
0.144321783468542,-0.616504310503797
0.140368058121773,-0.616332187562953
0.136416715326554,-0.616129339627871
0.132467925981196,-0.615895829652222
0.128521860984007,-0.615631720589674
0.124578691233298,-0.615337075393895
0.120638587627378,-0.615011957018554
0.116701721064558,-0.614656428417319
0.112768262443147,-0.614270552543859
0.108838382661455,-0.613854392351842
0.104912252617792,-0.613408010794938
0.100990043210468,-0.612931470826814
0.0970719253377918,-0.61242483540114
0.0931580698980745,-0.611888167471583
0.0892486477896254,-0.611321529991812
0.0853438299107544,-0.610724985915497
0.0814437871597714,-0.610098598196305
0.0775486904349862,-0.609442429787904
0.0736587106347085,-0.608756543643965
0.0697740186572483,-0.608041002718154
0.0658947854009154,-0.607295869964141
0.0620211817640196,-0.606521208335594
0.0581533786448708,-0.605717080786182
0.0542915469417788,-0.604883550269574
0.0504358575530535,-0.604020679739437
0.0465864813770046,-0.603128532149441
0.042743589311942,-0.602207170453253
0.0389073522561756,-0.601256657604543
0.0350779411080153,-0.60027705655698
0.0312555267657708,-0.599268430264231
0.0274402801277519,-0.598230841679966
0.0236323720922686,-0.597164353757852
0.0198319735576306,-0.596069029451558
0.0160392554221479,-0.594944931714754
0.0122543885841302,-0.593792123501107
0.00847754394188731,-0.592610667764286
0.00470889239372922,-0.591400627457959
0.000948604837965689,-0.590162065535796
-0.00280314782709352,-0.588895044951464
-0.00654619470313848,-0.587599628658633
-0.0102803648918593,-0.586275879610971
-0.0140054874949462,-0.584923860762146
-0.0177213916140895,-0.583543635065827
-0.0214279063509791,-0.582135265475682
-0.0251248608073052,-0.580698814945381
-0.0288120840847581,-0.579234346428591
-0.0324894052850279,-0.577741922878982
-0.0361566535098049,-0.576221607250221
-0.0398136578607788,-0.574673462495977
-0.0434602474396402,-0.57309755156992
-0.0470962513480792,-0.571493937425716
-0.0507214986877859,-0.569862683017036
-0.0543358185604503,-0.568203851297547
-0.0579390400677629,-0.566517505220919
-0.0615309923114136,-0.564803707740819
-0.0651115043930926,-0.563062521810916
-0.0686804054144902,-0.561294010384879
-0.0722375244772963,-0.559498236416377
-0.0757826906832014,-0.557675262859077
-0.0793157331338954,-0.555825152666649
-0.0828364809310686,-0.553947968792761
-0.086344763176411,-0.552043774191082
-0.0898404089716129,-0.550112631815279
-0.0933232474183644,-0.548154604619022
-0.0967931076183557,-0.54616975555598
-0.100249818673277,-0.544158147579821
-0.103693209684818,-0.542119843644212
-0.10712310975467,-0.540054906702824
-0.110539347984522,-0.537963399709324
-0.113941753476065,-0.535845385617381
-0.117330155330988,-0.533700927380664
-0.120704382650982,-0.531530087952841
-0.124064264537738,-0.529332930287581
-0.127409630092944,-0.527109517338552
-0.130740308418292,-0.524859912059423
-0.134056128615472,-0.522584177403862
-0.137356919786173,-0.520282376325539
-0.140642511032086,-0.517954571778121
-0.143912731454902,-0.515600826715277
-0.147167410156309,-0.513221204090675
-0.150406376237999,-0.510815766857985
-0.153629458801661,-0.508384577970875
-0.156836486948986,-0.505927700383012
-0.160027289781664,-0.503445197048067
-0.163201696401384,-0.500937130919707
-0.166359535909838,-0.498403564951602
-0.169500637408716,-0.495844562097418
-0.172624829999706,-0.493260185310826
-0.175731942784501,-0.490650497545494
-0.178821804864789,-0.48801556175509
-0.181894245342261,-0.485355440893283
-0.184949093318607,-0.48267019791374
-0.187986177895518,-0.479959895770132
-0.191005328174683,-0.477224597416127
-0.194006373257793,-0.474464365805392
-0.196989142246537,-0.471679263891597
-0.199953464242606,-0.468869354628411
-0.202899168347691,-0.466034700969501
-0.20582608366348,-0.463175365868536
-0.208734039291665,-0.460291412279185
-0.211622864333936,-0.457382903155116
-0.214492387891983,-0.454449901449999
-0.217342439067495,-0.4514924701175
-0.220172846962163,-0.44851067211129
-0.222983440677678,-0.445504570385037
-0.225774049315729,-0.442474227892409
-0.228544501978006,-0.439419707587074
-0.2312946277662,-0.436341072422702
-0.234024255782001,-0.433238385352961
-0.236733215127099,-0.430111709331519
-0.239421334903185,-0.426961107312045
-0.242088444211947,-0.423786642248208
-0.244734372155077,-0.420588377093676
-0.247358947834265,-0.417366374802117
-0.249962000351201,-0.414120698327201
-0.252543358807574,-0.410851410622595
-0.255102852305076,-0.407558574641969
-0.257640309945396,-0.404242253338991
-0.260155560830224,-0.400902509667329
-0.262648434061251,-0.397539406580652
-0.265118758740167,-0.394153007032629
-0.267566363968662,-0.390743373976927
-0.269991078848426,-0.387310570367217
-0.272392732481149,-0.383854659157166
-0.274771153968522,-0.380375703300443
-0.277126172412234,-0.376873765750716
-0.279457616913976,-0.373348909461654
-0.281765316575438,-0.369801197386925
-0.28404910049831,-0.366230692480199
-0.286308797784283,-0.362637457695142
-0.288544237535045,-0.359021555985426
-0.290755248852288,-0.355383050304717
-0.292941660837702,-0.351722003606684
-0.295103302592977,-0.348038478844996
-0.297240003219803,-0.344332538973322
-0.29935159181987,-0.340604246945329
-0.301437897494868,-0.336853665714687
-0.303498749346488,-0.333080858235064
-0.30553397647642,-0.329285887460129
-0.307543407986353,-0.32546881634355
-0.309526872977979,-0.321629707838996
-0.311484200552986,-0.317768624900135
-0.313415219813066,-0.313885630480636
-0.315319759859909,-0.309980787534167
-0.317197649795204,-0.306054159014398
-0.319048718720642,-0.302105807874995
-0.320872795737913,-0.29813579706963
-0.322669709948707,-0.294144189551968
-0.324439290454714,-0.29013104827568
-0.326181366357625,-0.286096436194434
-0.327895766759129,-0.282040416261898
-0.329582320760917,-0.277963051431741
-0.331240857464679,-0.273864404657632
-0.332871205972105,-0.269744538893238
-0.334473195384886,-0.265603517092229
-0.336046654804711,-0.261441402208273
-0.33759141333327,-0.257258257195039
-0.339107300072254,-0.253054145006195
-0.340594144123353,-0.248829128595411
-0.342051774588257,-0.244583270916353
-0.343480020568657,-0.240316634922691
-0.344878711166241,-0.236029283568094
-0.346247675482702,-0.23172127980623
-0.347586742619728,-0.227392686590768
-0.34889574167901,-0.223043566875376
-0.350174501762238,-0.218673983613722
-0.351422851971102,-0.214283999759476
-0.352640621407292,-0.209873678266306
-0.353827639172499,-0.20544308208788
-0.354983734368412,-0.200992274177867
-0.356108736096723,-0.196521317489935
-0.35720247345912,-0.192030274977754
-0.358264775557295,-0.187519209594991
-0.359295471492937,-0.182988184295316
-0.360294390367736,-0.178437262032396
-0.361261361283383,-0.173866505759901
-0.362196213341568,-0.169275978431499
-0.36309877564398,-0.164665743000858
-0.363968877292311,-0.160035862421647
-0.36480634738825,-0.155386399647534
-0.365611015033488,-0.150717417632189
-0.366382709329714,-0.14602897932928
-0.367121259378619,-0.141321147692474
-0.367826494281893,-0.136593985675442
-0.368498243141226,-0.131847556231851
-0.369136335058308,-0.127081922315369
-0.369740599134829,-0.122297146879667
-0.37031086447248,-0.117493292878411
-0.370846960172951,-0.112670423265271
-0.371348715337932,-0.107828600993915
-0.371815959069113,-0.102967889018012
-0.372248520468184,-0.0980883502912298
-0.372646228636835,-0.0931900477672378
-0.373008912676757,-0.088273044399704
-0.37333640168964,-0.0833374031422975
-0.373628524777173,-0.0783831869486862
-0.373885111041047,-0.0734104587725391
-0.374105989582953,-0.0684192815675245
-0.37429098950458,-0.0634097182873113
-0.374439939907618,-0.0583818318855677
-0.374552669893758,-0.0533356853159626
-0.37462900856469,-0.0482713415321641
-0.374668785022104,-0.0431888634878413
-0.37467182836769,-0.0380883141366623
-0.374637967703138,-0.032969756432296
-0.374567032130139,-0.0278332533284107
-0.374458850750383,-0.0226788677786752
-0.374313252665559,-0.0175066627367577
-0.374130066977358,-0.0123167011563272
-0.37390912278747,-0.00710904599105187
-0.373650249197585,-0.00188376019460071
-0.373353275309394,0.00335909327935827
-0.373018030224587,0.00861945147715602
-0.372644343044853,0.0138972514451244
-0.372232042871883,0.0191924302295944
-0.371780958807367,0.0245049248768979
-0.371290919952996,0.0298346724333659
-0.370761755410459,0.0351816099453303
-0.370193294281446,0.0405456744591222
-0.369585365667648,0.0459268030210733
-0.368937798670755,0.0513249326775146
-0.368250422392457,0.0567400004747782
-0.367523065934444,0.0621719434591949
-0.366755558398406,0.0676206986770967
-0.365947728886034,0.0730862031748145
-0.365099406499018,0.0785683939986802
-0.364210420339048,0.0840672081950249
-0.363280599507813,0.0895825828101804
-0.362309773107005,0.0951144548904776
-0.361297770238313,0.100662761482249
-0.360244420003427,0.106227439631824
-0.359149551504038,0.111808426385536
-0.358012993841836,0.117405658789716
-0.356834576118511,0.123019073890696
-0.355614127435753,0.128648608734805
-0.354351476895252,0.134294200368377
-0.353046453598699,0.139955785837743
-0.351698886647783,0.145633302189233
-0.350308605144196,0.15132668646918
-0.348875438189625,0.157035875723915
-0.347399214885764,0.162760806999769
-0.3458797643343,0.168501417343074
-0.344316915636925,0.174257643800161
-0.342710497895328,0.180029423417362
-0.3410603402112,0.185816693241007
-0.339366271686231,0.19161939031743
-0.337628121422111,0.19743745169296
-0.33584571852053,0.20327081441393
-0.334018892083179,0.20911941552667
-0.332147471211747,0.214983192077513
-0.330231285007925,0.220862081112789
-0.328270162573402,0.226756019678831
-0.32626393300987,0.232664944821969
-0.324212425419018,0.238588793588536
-0.322115468902536,0.244527503024861
-0.319972892562115,0.250481010177278
-0.317784525499444,0.256449252092117
-0.315550196816214,0.26243216581571
-0.313269735614115,0.268429688394389
-0.310942970994837,0.274441756874483
-0.308569732060071,0.280468308302326
-0.306149847911506,0.286509279724249
-0.303683147650833,0.292564608186583
-0.301169460379741,0.298634230735659
-0.298608615199922,0.304718084417809
-0.296000441213064,0.310816106279364
-0.293344767520859,0.316928233366656
-0.290641423224996,0.323054402726016
-0.287890237427166,0.329194551403776
-0.285091039229058,0.335348616446267
-0.282243657732364,0.341516534899821
-0.279347922038772,0.347698243810769
-0.276403661249974,0.353893680225441
-0.273410704467659,0.360102781190171
-0.270368880793518,0.366325483751289
-0.26727801932924,0.372561724955128
-0.264137949176517,0.378811441848016
-0.260948499437037,0.385074571476288
-0.257709499212492,0.391351050886274
-0.25442077760457,0.397640817124305
-0.251082163714964,0.403943807236714
-0.247693486645362,0.41025995826983
-0.244254575497455,0.416589207269987
-0.240765259372933,0.422931491283515
-0.237225367373486,0.429286747356745
-0.233634728600804,0.43565491253601
-0.229993172156578,0.44203592386764
-0.226300527142498,0.448429718397967
-0.222556622660253,0.454836233173323
-0.218761287811534,0.461255405240038
-0.214914351698032,0.467687171644445
-0.211015643421435,0.474131469432875
-0.207064992083436,0.480588235651659
-0.203062226785722,0.487057407347129
-0.199007176629986,0.493538921565616
-0.194899670717916,0.500032715353451
-0.190739538151204,0.506538725756966
-0.186526608031539,0.513056889822493
-0.182260709460611,0.519587144596363
-0.177941671540111,0.526129427124907
