-0.460869494676226,0.610534310746612
-0.351872328771356,0.714797922046874
-0.346201308374735,0.714058922743002
-0.340569757231129,0.713281879366552
-0.334977549931616,0.712466977775021
-0.329424561067275,0.711614403825906
-0.216416225681292,0.81436228800167
-0.318435737008416,0.709796982284911
-0.312999650996053,0.708832506408027
-0.307602281783173,0.707831101603548
-0.302243503960852,0.706792953728969
-0.296923192120167,0.705718248641791
-0.291641220852198,0.704607172199508
-0.286397464748021,0.703459910259619
-0.281191798398713,0.702276648679621
-0.276024096395354,0.70105757331701
-0.265802083790788,0.698512724673942
-0.260747522371738,0.697187323108477
-0.255730423662945,0.69582685119039
-0.250750662255489,0.694431494777177
-0.245808112740447,0.693001439726334
-0.240902649708895,0.691536871895359
-0.236034147751913,0.69003797714175
-0.231202481460577,0.688504941323003
-0.109644560903662,0.778933932705955
-0.221649154239156,0.685337189920087
-0.216927242491226,0.68370284605091
-0.212241664773253,0.682035104546586
-0.207592295676315,0.68033415126461
-0.109980778659932,0.797643033602801
-0.0850091590246326,0.767711273844068
-0.193860186022488,0.675033879327744
-0.189354397320466,0.673201937510133
-0.184884190194868,0.671337713202357
-0.18044943923677,0.669441392261912
-0.176050019037251,0.667513160546296
-0.171685804187389,0.665553203913007
-0.16735666927826,0.66356170821954
-0.163062488900943,0.661538859323394
-0.272621701274727,0.565741294887702
-0.154578490106053,0.657399845353051
-0.150388420870636,0.655284051993848
-0.146232804531342,0.653137648861955
-0.142111515679247,0.650960821814868
-0.13802442890543,0.648753756710085
-0.133971418800968,0.646516639405102
-0.229105538200646,0.531466665985092
-0.12596712696442,0.641952991624528
-0.122015594414489,0.63962683286393
-0.118097636898224,0.637271365333122
-0.114213129006703,0.6348867748896
-0.110361945331002,0.632473247390862
-0.106543960462201,0.630030968694405
-0.102759048991376,0.627560124657727
-0.0990070855096046,0.625060901138323
-0.0952879446079654,0.622533483993692
-0.0916015008775357,0.619978059081331
-0.0879476289093929,0.617394812258737
-0.0843262032946149,0.614783929383407
-0.0807370986242794,0.612145596312838
-0.0771801894894639,0.609479998904528
-0.0736553504812461,0.606787323015973
-0.0701624561907037,0.604067754504671
-0.0667013812089144,0.601321479228119
-0.0632720001269558,0.598548683043815
-0.0598741875359056,0.595749551809254
-0.0565078180268413,0.592924271381936
0.0374972886490244,0.704753645372446
0.0585859684631676,0.692057561903257
-0.0465961139023416,0.584293393518402
-0.0433542626319981,0.581365374895021
-0.0401432273990289,0.578412136366368
-0.146983197754965,0.458659743852203
-0.0338131034095244,0.572430743023234
-0.0306937638351442,0.569402959923747
-0.0276047386624491,0.566350700348976
-0.0245459024825166,0.563274150156419
-0.0215171298864244,0.560173495203572
-0.0185182954652501,0.557048921347933
-0.0155492738100715,0.553900614447
-0.0126099395119662,0.550728760358268
-0.00970016716201179,0.547533544939236
-0.00681983135128601,0.544315154047401
-0.122989042668403,0.425920406782466
-0.00114696771183093,0.537809589275309
0.00164581093474304,0.534522787110046
0.00440965467777779,0.531213552901969
0.00714468892619562,0.527882072508574
0.00985103908891884,0.524528531787359
0.104518854464563,0.62874132795247
-0.0965337878807679,0.410436307522673
0.0177992391521445,0.514337406231765
0.0203921070613128,0.510897482774241
0.0229569179293983,0.507436428276382
0.0254937971653232,0.503954428595687
0.0280028701780099,0.500451669589651
0.0304842623763807,0.496928337115773
0.032938099169358,0.493384617031549
0.0353645059658642,0.489820695194477
0.0401355312051522,0.482632989691776
0.0424804004657789,0.479009577741142
0.0447983413656237,0.475366707467648
0.0493539397186571,0.46802333538207
0.0515918479896905,0.464323205284981
0.0538033295356313,0.46060436029502
0.0559885097654021,0.456866986269686
0.170889902587778,0.552312223317996
0.0623874966469169,0.445545548556413
0.0644687257012304,0.441735916964556
0.0665242804839856,0.437908685624811
0.0685542864041046,0.434064040394675
0.0705588688705099,0.430202167131646
-0.047145779117883,0.326234163372762
0.0744922650778686,0.422427479936897
0.0764213296366667,0.418515037720171
0.0783254723774403,0.414586110900541
0.199730399752061,0.526092642159444
0.0820594940406038,0.406679546882555
0.0838896237808382,0.402702281399194
0.0856953333387377,0.398709274742916
0.0874767481232244,0.394700712771221
0.090967195007649,0.386637666311562
0.207599963318306,0.477831426859013
0.0943619677054909,0.378514628880194
0.0960237897567492,0.374431078193863
0.0976620694881287,0.370333087337096
0.099276932308552,0.36622084216739
0.100868503626941,0.362094528542244
0.00204774513754481,0.258122676281679
0.105504722659128,0.349633035509129
0.208310352803863,0.447591752376133
0.218934482639432,0.439736562659618
0.111367875148191,0.332832028443628
0.112777629171512,0.328599858044851
0.114165220373101,0.324355291908107
0.115530774161879,0.320098515890894
0.116874415946768,0.315829715850709
0.118196271136692,0.311549077645049
0.119496465140572,0.307256787131411
0.120775123367331,0.302953030167292
0.122032371225891,0.298637992610191
0.00797407610806579,0.175953153985765
0.124483137474104,0.289974819147026
0.125676906681601,0.285627054955957
0.126849767156589,0.281268753601893
0.128001844307989,0.276900100942333
0.129133263544725,0.272521282834772
0.130244150275718,0.268132485136707
0.131334629909891,0.263733893705637
0.132404827856166,0.259325694399059
0.133454869523466,0.254908073074469
0.134484880320712,0.250481215589364
0.135494985656827,0.246045307801243
0.136485310940734,0.241600535567601
0.0345794459430241,0.131937481897206
0.138407122987612,0.232685141193747
0.0434124198518195,0.124698225267282
0.140251319732724,0.22373651932778
0.141144625889424,0.219250212728997
0.0281248315370057,0.0922349259380807
0.143710880403165,0.205745540559415
0.245844065846511,0.29966550253039
0.145328250871252,0.196706157376972
0.146109272569739,0.192176142837426
0.146872019123087,0.187639494142326
0.147616615940216,0.18309639714917
0.14834318843005,0.178547037715454
0.239112998712165,0.282954800161048
0.149742762063519,0.169430274956333
0.150416014024999,0.164863243345923
0.0440010583912814,0.0471435216267546
0.035606440402633,0.0535742336845821
0.152331135395491,0.151129777881257
0.15293504904408,0.146541785373548
0.153521941636752,0.141949017285257
0.154091938582429,0.137351659473881
0.154645165290034,0.132749897796917
0.155181747168488,0.128143918111864
0.156205478073637,0.118920048147475
0.156692877918175,0.114302529583134
0.0460228447153793,0.00661312442960808
0.157619373435793,0.105057254577645
0.0663190415271979,0.00557745010097557
0.158482299450946,0.095799568119727
0.0401728657921722,-0.00683654612851763
0.159659690312698,0.0818930194657479
0.160021456059376,0.0772529082865164
0.160368081883973,0.072610809389161
0.16069969319541,0.0679669086311785
0.16101641540261,0.0633213918700665
0.161318373914495,0.0586744449633223
0.161878501488009,0.0493770041429251
0.162136921367484,0.0447268819442666
0.162381079187332,0.0400760730299647
0.162611100356477,0.035424763257516
0.162827110283842,0.0307731384844184
0.163029234378348,0.0261213845681683
0.264773266339527,0.134935235511617
0.163392326704473,0.016818232736201
0.163701380606232,0.00751679462159158
0.16383595667028,0.0028671828520391
0.163957399355004,-0.0017814429156825
0.263309601112895,0.10458211234998
0.164161386222167,-0.0110749930156437
0.164244181222451,-0.0157195456328888
0.270615042459156,0.0859393655777244
0.164372001401035,-0.0250032767144228
0.164417277397181,-0.0296420834637173
0.164450297876458,-0.0342786032087001
0.16447118824779,-0.0389126500918748
0.164480073920098,-0.0435440382557434
0.164435956832104,-0.0574203918565434
0.164348821108567,-0.0666545932730996
0.164288312174103,-0.0712661261136929
0.164216676403072,-0.0758736992325003
0.164134039204397,-0.0804771267720244
0.164040525986999,-0.0850762228747682
0.163936262159801,-0.0896708016832342
0.163821373131725,-0.0942606773399256
0.258292857164528,0.0105293691318838
0.163560221108629,-0.103425575767995
0.163414208931454,-0.108000226824379
0.0690679003059503,-0.21709990604967
0.163091939290461,-0.117133003334359
0.162915932644487,-0.12169075707296
0.265405506880856,-0.0380598443075076
0.162329930311728,-0.135327249933246
0.162115686765603,-0.139859871909844
0.161892197516747,-0.144385746302198
0.16165958797408,-0.148904687252811
0.161417983546526,-0.153416508904186
0.161167509643007,-0.157921025398825
0.160908291672446,-0.162418050879232
0.0489337363053437,-0.27899323047421
0.160079427447729,-0.175862322660085
0.15978648729822,-0.18032752550859
0.0635658624329165,-0.287451644465836
0.159176381340832,-0.189232484442946
0.158859466350797,-0.193671868813803
0.158202539392658,-0.20252351807539
0.157515652523242,-0.211337768980159
0.156799809013927,-0.220113134668133
0.156431342041614,-0.224485770912078
0.156056012136093,-0.228848128279333
0.155673944706287,-0.233200020912401
0.155285265161118,-0.237541262953783
0.154890098909509,-0.241871668545984
0.154488571360381,-0.246191051831506
0.154080807922657,-0.250499226952851
0.15366693400526,-0.254796008052522
0.153247075017112,-0.259081209273023
0.152821356367134,-0.263354644756856
0.15238990346425,-0.267616128646523
0.151952841717382,-0.271865475084529
0.151510296535453,-0.276102498213375
0.151062393327383,-0.280327012175564
0.150609257502097,-0.284538831113599
0.150151014468515,-0.288737769169984
0.149219708412157,-0.29709625920781
0.148269478429688,-0.305400995429066
0.147787580488468,-0.309532741214738
0.261244019949848,-0.205392494006088
0.146810845750667,-0.31775405884868
0.145817695265201,-0.325917905516108
0.1453152776394,-0.329977812593637
0.143786160136791,-0.342067238511512
0.0307433249825347,-0.453032954701924
0.142749782036605,-0.350049751119532
0.142226879283744,-0.354017318449882
0.141701001274268,-0.357968845321129
0.1411722734171,-0.361904145875775
0.140640821121161,-0.365823034256323
0.140106769795374,-0.369725324605277
0.139570244848662,-0.373610831065138
0.139031371689946,-0.37747936777841
0.252464918771258,-0.277699200295967
0.137401917031001,-0.38898130086372
0.136854905113495,-0.392780100015664
0.136306172028597,-0.396561000133533
0.13575584318523,-0.400323815359829
0.135204043992316,-0.404068359837056
0.134650899858777,-0.407794447707716
0.0399433015721421,-0.515644902940433
0.132984651903636,-0.418860113105323
0.131310814204077,-0.429752978173932
0.130751766935991,-0.433344665788704
0.13019237799866,-0.436916409936932
0.129632772801004,-0.440468024761118
0.0371986132038738,-0.536594027851936
0.128513415260412,-0.447510123007377
0.127953913735319,-0.451000234714456
0.127394697585593,-0.454469473667505
0.126835892220154,-0.457917654009026
0.126277623047926,-0.461344589881523
0.125720015477831,-0.464750095427499
0.125163194918791,-0.468133984789455
0.124607286779728,-0.471496072109895
0.124052416469565,-0.474836171531322
0.123498709397224,-0.478154097196239
0.122946290971628,-0.481449663247147
0.122395286601698,-0.484722683826551
0.121845821696358,-0.487972973076953
0.120752011915134,-0.494404614160762
0.119665864899334,-0.500743099638597
0.224351563442673,-0.407253449832051
0.116990605926991,-0.516172000038444
0.11646343315827,-0.51918475383648
0.115939179352284,-0.522172731873046
0.0149770078592065,-0.626479874833224
0.114899930264207,-0.528073617231774
0.11438518579996,-0.530986152838943
0.113873861934138,-0.533873169254652
0.113366084075661,-0.536734480621404
0.112361668016438,-0.542379244778049
0.111865280633535,-0.545162325852946
0.110884774205761,-0.550648956708408
0.110400905978733,-0.553352134773976
0.109921461621508,-0.556028306788108
0.108510925857875,-0.563892927946907
0.108050431069085,-0.566459217180317
0.10759498719471,-0.568997571074804
0.200713077054747,-0.462990800415006
0.106699753824893,-0.573989729417019
0.106260215147296,-0.576443162149753
0.00739522172237307,-0.698360590093203
0.105397920851336,-0.581263805450988
0.104558840027171,-0.585968246816597
0.104148318189317,-0.588276427129799
0.103743975946179,-0.590554999386603
0.103345938706679,-0.592803777729512
0.102954331879739,-0.595022576301029
0.102569280874282,-0.597211209243655
0.10219091109923,-0.599369490699896
0.101819347963505,-0.601497234812252
0.101097143245727,-0.605660367575324
0.100746752481519,-0.607695384511045
0.100403669992327,-0.609699120672894
0.100068021187074,-0.611671390203373
-0.00248581542086129,-0.72948358922108
0.0994195262640756,-0.615520785940232
0.0991069309641742,-0.617397540431619
0.0988022709839011,-0.619242084861646
0.0985056717321789,-0.621054233372818
0.0982172586179297,-0.622833800107637
0.097937157050076,-0.624580599208605
0.0976654924375401,-0.626294444818226
0.0974023901892443,-0.627975151079003
0.0971479757141109,-0.629622532133438
0.096438113016909,-0.634362865483721
0.0962197037236489,-0.635875087137817
0.0960106092481629,-0.637353054298085
0.00517174514109739,-0.750240715750321
0.0952698877024074,-0.642918660850939
-0.0140776159640906,-0.742145419598115
0.094818297166914,-0.646724086563026
0.094818297166914,-0.646724086563026
0.208688645414629,-0.545224379541409
0.0945473037859099,-0.649055647936036
0.09441135728617,-0.650147777556255
0.201898537772182,-0.547335366407568
0.0940011864642971,-0.653132689298244
0.0938635379478713,-0.654031369491146
0.0937253530760862,-0.654882338816067
0.0935865875084665,-0.655685857868545
0.0934471969045371,-0.656442187244119
0.0931663632258488,-0.657814319346713
0.0930248314701396,-0.65843064326481
-0.0219952675011582,-0.75588571623335
0.0927393164236152,-0.6595251098123
0.0923042499089364,-0.660825265344862
0.0921572386568383,-0.661168614427559
0.092009158963679,-0.661467379788742
0.201135658064191,-0.541944781484344
0.0915580658330826,-0.662098779498602
0.0914052689709272,-0.662221815929122
0.0912511819653348,-0.662301571615824
0.0910957604758303,-0.662338307154247
0.0907807366831844,-0.662283760168409
0.0906210456990928,-0.662192998835228
0.0904598428691885,-0.662060259735924
0.0902970838529963,-0.661885803466035
0.0901327243100412,-0.661669890621101
0.0897990262819413,-0.661114737588254
0.0896295991158463,-0.660776018591419
0.0894583940610876,-0.660396885401695
0.0892853667771903,-0.659977598614622
0.089110472923679,-0.659518418825737
0.0889336681600787,-0.65901960663058
0.0887549081459142,-0.65848142262469
-0.0303883301679642,-0.754457692195519
0.088391345003992,-0.657287981562868
0.179226793790504,-0.543990217302555
0.0880194287741112,-0.655940180404583
0.0878302273999985,-0.655209046278114
0.0876388047324706,-0.654440103914146
0.198442346068741,-0.546091091535105
0.087249118155269,-0.652789836855871
0.0868500143187051,-0.650991463994069
0.0858087263426401,-0.645861250214935
0.0853738686483739,-0.643560924559749
0.0851523319028029,-0.642358609797841
0.0847008209124097,-0.63985097938309
0.0844707579866371,-0.638546184921325
0.0840017955715642,-0.63583594046671
0.192330553823088,-0.529634883817504
0.0832755954330082,-0.631522843890165
0.0825210233039127,-0.626918725733007
0.0817368819914486,-0.622030622074791
0.0811971025860434,-0.618617591187023
0.0809219743027867,-0.616865568995069
0.0800751030450981,-0.611430602573397
0.0794921734619555,-0.607660814376163
0.0791950710255536,-0.605732758889328
0.0788941510386312,-0.603776276604398
0.0779680423699892,-0.597738874916438
0.0776514087762331,-0.595671291394524
0.0773307359295807,-0.593576584052211
0.0770059794895568,-0.591455013485039
0.0766770951156864,-0.589306840288546
-0.0224707227638123,-0.684844745810322
0.0742555977509752,-0.5735466443174
0.175040964445713,-0.476428095654318
0.0735240625493546,-0.568819161464626
0.0731514601108847,-0.566419294729575
0.0720057813591348,-0.559078320436229
0.18420213967291,-0.440790419929564
0.0704115209609354,-0.548970210739444
0.0700007515565751,-0.546387752052355
0.0695850117493403,-0.543783642051188
0.0691642571987559,-0.54115814133148
0.0687384435643466,-0.538511510488771
0.177106654578868,-0.430221287968989
0.0678714616821533,-0.533155900816507
0.0674302047534188,-0.53044744317803
0.0669837113789589,-0.527718897798707
0.0665319372182985,-0.524970525274079
0.0651444866143625,-0.51660905078375
0.0646711459041484,-0.513783975633289
0.0637079126775162,-0.508078513425074
0.0632179314801478,-0.505198647558398
0.0627223147727776,-0.502301039310728
-0.0333473707534893,-0.607207179287425
-0.0402573470551268,-0.601381066936863
0.166842004572386,-0.366599499758697
0.0585491818967349,-0.478512719078285
0.0580008502779672,-0.475467156200929
0.0574464397444462,-0.47240645689797
0.0568859059556968,-0.469330881764946
0.0563192045712437,-0.466240691397397
0.055746291250612,-0.463136146390863
0.0545816514389118,-0.45688503484299
0.0539898362668931,-0.453738989492731
-0.0659573202065123,-0.540364947849284
-0.0510097678513957,-0.534034152807949
0.0496657466499321,-0.431358522199856
0.0490215755599745,-0.428113275470049
0.159803135971307,-0.317828776168419
0.0450133726441075,-0.408415138592192
0.044321062251008,-0.405096771921079
0.159848477072531,-0.300227305193046
0.0429152339087141,-0.398432089203157
0.0422016272785694,-0.395086294347426
0.0400175054664423,-0.384998222939625
0.146546564940842,-0.261418680424302
0.0362303022787453,-0.368031450190265
0.0338678292847292,-0.357770860502552
-0.0718438557256052,-0.465430094211209
0.0322545453302168,-0.35090125812052
0.0297762796511929,-0.340558252572918
0.0280846920614631,-0.333640221172769
0.0263611622509943,-0.32670646650292
-0.0843394585334952,-0.441621584291412
0.0246053354959852,-0.319759073327681
0.0237151999130902,-0.316280913789389
0.121528138682335,-0.201884727645927
0.0209953722571414,-0.305831710518289
-0.0852688033388447,-0.418199421066159
0.0191405263257042,-0.29885591041276
0.0182004820903188,-0.295365892769173
0.0143551287399112,-0.281397785485259
0.0133722745977171,-0.277905052464583
0.0123807254527358,-0.274412558155107
0.00832669203543576,-0.260450179939976
0.00729100276939126,-0.256962788119582
0.00519269675991282,-0.249993671927633
0.00412999133552859,-0.246512468747157
0.00197725394509433,-0.239558075194894
-0.000212214437395331,-0.232616102691146
-0.00934449236393226,-0.205014118447543
-0.0105288792172044,-0.201586834642768
-0.0117229365637171,-0.19816552265105
-0.0129267087439455,-0.19475044306793
-0.0141402400983646,-0.191341856488946
-0.0153635749674498,-0.187940023509636
-0.0190928440674524,-0.177777652125149
-0.127781945354792,-0.292875136883396
-0.0216288539494952,-0.171041283452081
-0.0229119410565543,-0.167685444577141
-0.0294799718712333,-0.151040128639946
-0.0308244074733719,-0.14773966530878
-0.0349201712867457,-0.137900165747535
-0.0377031714062116,-0.131394680688971
-0.0391105517605351,-0.128158974340985
-0.0419572947607386,-0.121722936985303
-0.0492627848508351,-0.105851360872935
-0.0537772005853306,-0.0964886794454784
-0.0568421841164291,-0.0903180118528098
-0.0583914208158343,-0.0872547958507834
-0.0599518799251103,-0.0842066725056807
-0.0631066427351753,-0.0781567461684033
0.0231804412882069,0.0358366685794211
-0.0711930457663374,-0.0633142935091097
-0.0728448804116853,-0.0603962928588032
-0.182035527933883,-0.150084033715985
-0.0812792625601353,-0.0460730717696784
-0.0864816552436792,-0.0377019462855345
-0.205994424993294,-0.126050153715187
-0.0900097241216585,-0.0322183755423104
-0.207253133898372,-0.130308693786628
-0.193624446072992,-0.116955829452056
-0.0990418076556487,-0.0188647786190779
-0.100884906744369,-0.0162570577018569
-0.10274033675484,-0.0136709443300355
-0.1083810557215,-0.00604485544235914
-0.112204002550066,-0.00107361149578833
-0.114134349241012,0.00137738409731591
-0.118033010878606,0.00620881954546718
-0.120001414506204,0.00858873820943611
-0.121982592460304,0.0109444433726151
-0.12397658908138,0.0132756744394653
-0.130035934351216,0.0201199171066521
-0.233377060757091,-0.0881855380835463
-0.138297212704158,0.0288871271849291
-0.140395354918149,0.0310131840417433
-0.251534719402083,-0.0727600999784358
-0.144631336880365,0.035184578791292
-0.146769265309539,0.0372293954929485
-0.151085218766398,0.041235964572331
-0.153263332475032,0.0431971957589788
-0.157660055555086,0.0470342484484926
-0.135477267777778,0.0283226004042213
-0.164357044439259,0.0525723943402229
-0.184342382973307,0.0560906689480569
-0.182821974063653,0.0660154887324931
-0.296066630516243,-0.0202686180251558
-0.188278422324311,0.0569435522455528
-0.25854957110938,0.046750115550431
-0.317293246130902,-0.0140988842534784
-0.207761346017921,0.0790899531260074
-0.232203777022274,0.065348732174801
-0.271986110633656,0.107801237504219
-0.131370694524886,0.187236432118815
-0.238308680955029,0.0920983266119854
-0.229610440883387,0.0857905757042674
-0.249165194807009,0.0949717651694956
-0.280802888678704,0.0984879360640985
-0.265907243973514,0.098120323431889
-0.268751503682691,0.0985062188825853
-0.288037681927878,0.0999721881310126
-0.274486637749404,0.0991566379158102
-0.148234070664423,0.198507732178471
-0.167557243672291,0.188533695715877
-0.257310900412128,0.0777752050949343
-0.19100857361908,0.19039843459586
-0.291021999608865,0.116708005149494
-0.285903936888796,0.0778347435497564
-0.222994105847808,0.224164478601883
-0.322645651917555,0.0982964773779636
-0.335711691048803,0.13774605213399
-0.364484510235463,0.11416531703569
-0.348280678033259,0.0936072397514724
-0.351559634020148,0.0928116647143115
-0.354855310635826,0.0919686831733872
-0.358167752220769,0.0910780345331606
-0.36484310766035,0.0891526935726442
-0.368206110195938,0.0881174800612764
-0.374982986601086,0.0859006639986263
-0.487058066736622,-0.0133555531910335
-0.385276144650862,0.0822055583717798
-0.399240858775689,0.0765773603286519
-0.402775279944312,0.0750433252034431
-0.417087265382724,0.0683914243787307
-0.420709058635683,0.0665982061138881
-0.428005511796954,0.0628536537450321
-0.439083023284369,0.0568376266607361
-0.44281112627421,0.0547247889755448
-0.446557102745196,0.0525577693025754
-0.557219160880304,-0.0601868165984367
-0.461336751848502,0.0441416914915612
-0.464956824355863,0.04214909796198
-0.482610306798603,0.0328391257419077
-0.381937795539859,0.137148510005493
-0.492846446321045,0.0277643354720673
-0.50281704800713,0.0230626703254873
-0.509317170382117,0.0201313692665918
-0.512523277455894,0.0187257278421195
-0.611471203280322,-0.0963366132978304
-0.521966300266373,0.014745105561916
-0.525055685634031,0.0134959614588393
-0.528115998500997,0.0122851636805515
-0.534149579414188,0.00997736228944669
-0.542982986287144,0.00679547758310633
-0.551557071851936,0.00394190487977014
-0.45394870085247,0.09931553540516
-0.557129637106168,0.00221776927178389
-0.5598730017076,0.00140824171939012
-0.5731623712713,-0.00212644161554512
-0.575735056687691,-0.00273296581269345
-0.578279446669414,-0.00330674532508489
-0.585743275709915,-0.00483472777595778
-0.590578476019707,-0.00569536469352854
-0.595301530678857,-0.00643249172544771
-0.597621111315277,-0.00675551703984795
-0.599912785050041,-0.0070485984895073
-0.608801274379223,-0.0079277096852157
-0.615176734255114,-0.00828788141119363
-0.619289161193587,-0.00839020599006112
-0.629090168050202,-0.00818190623238428
-0.630968418700277,-0.00806317397781023
-0.63281945317405,-0.00791947709407932
-0.634643314641856,-0.0077511267834155
-0.636440046274029,-0.00755843424804282
-0.530530022694189,0.107539271950775
-0.648261158609644,-0.00555414519540122
-0.652924719109602,-0.00436115102460731
-0.657348384952001,-0.0029798858516095
-0.65876983177046,-0.00247907840383248
-0.661533321735876,-0.0014187521364558
-0.662875451223502,-0.000859855721304143
-0.665480695060263,0.000313847660805781
-0.666743895750068,0.000928032223316057
-0.6691916705242,0.00220951108012723
-0.671534897626592,0.00355972823116587
-0.765261404442105,-0.10362198221389
-0.673773922419922,0.00497619405864001
-0.675909090266866,0.0064564189447576
-0.677940746530103,0.00799791327172669
-0.680794902186363,0.0104195889248568
-0.685811503903075,0.0156260941965763
-0.688647268998178,0.0193391297890199
-0.782380330962613,-0.0905903569058458
-0.690509023143812,0.0222368136230916
-0.693555974626744,0.0282861032760701
-0.693976601719316,0.0293236033384689
-0.694372430174327,0.0303686407054804
-0.695089863853009,0.0324800825444462
-0.695411555417349,0.0335458646119523
-0.695708621025467,0.0346179391751753
-0.792281177408315,-0.0767700306109148
-0.697203791906608,0.0433837212598858
-0.697334346988108,0.0456163075825518
-0.697349154417145,0.0489859285953872
-0.595106103690297,0.149165334863784
-0.696731352442788,0.0557690311046928
-0.696544964696762,0.0569016031152126
-0.695562651624074,0.0614263516251804
-0.69525809868543,0.0625545978585244
-0.584081060363597,0.157139117020378
-0.694203591385717,0.0659272991770175
-0.693805283359002,0.0670464831485889
-0.692470546883108,0.0703845288283879
-0.690366281017667,0.0747781236369556
-0.688546129657114,0.0780195780921681
-0.686519886011052,0.0812056322081919
-0.586834938954271,0.183483253766657
-0.679216257350177,0.0903473679206519
-0.676377300552444,0.0932277960794413
-0.578734245603425,0.197838429129922
-0.563208519940328,0.200138453007437
-0.660499733202505,0.105245994684274
-0.659201864189596,0.106000698080998
-0.657882391143893,0.106739909817759
-0.653794779513367,0.108861483046023
-0.652389322039835,0.109535616120691
-0.649514285719743,0.110832428054553
-0.648044793213854,0.1114544845093
-0.646554042037847,0.112058559686291
-0.645042075362059,0.112644342383303
-0.643508936356823,0.113211521398112
-0.640379314039349,0.114288823572225
-0.637165520448102,0.115287976590836
-0.625259380271432,0.118133643699535
-0.618000527572202,0.119275147243542
-0.616134502461327,0.119502343840636
-0.614248038916694,0.119705646317718
-0.610413969207494,0.120039324102953
-0.598425727384513,0.120434533547094
-0.594268787087318,0.120356029998646
-0.680314306270065,0.00605867131482228
-0.58788375786679,0.120032616586849
-0.581320222204611,0.119454944614728
-0.574579345699818,0.118614611622234
-0.569987480944077,0.117904317475155
-0.560570232558535,0.116112352735934
-0.525194178112625,0.105679613607343
-0.508903407445731,0.099077699512655
-0.506123443080027,0.0978454628650772
-0.503325069286295,0.09657470559296
-0.491948343237782,0.091100246214619
-0.480280519967596,0.08498456066573
-0.37992506026405,0.200495818820195
-0.449855542987873,0.0667592773632805
-0.424247067427854,0.0489947788188147
-0.411027596301333,0.0389963339876557
-0.397534986812365,0.0282272028607646
-0.390687118588657,0.0225474058919394
-0.362626614294798,-0.00219808243437178
-0.359044497536198,-0.00552436211259527
-0.355445957184965,-0.0089034777176622
-0.351831036411433,-0.0123357404517962
-0.340888423260397,-0.0229545234508423
-0.291799793595473,-0.0747338947658754
-0.276159214573587,-0.0926211436635663
-0.260271054027381,-0.111463310573598
-0.256260653055165,-0.116325392257214
-0.211148712257037,-0.173918488801095
-0.20695806460375,-0.179535970474191
-0.168584118433204,-0.233054426409999
-0.249454425085323,-0.364032546515034
-0.120107138671221,-0.305943793745674
-0.115616017847026,-0.312991056970974
-0.205332909772824,-0.454579015990219
0.0221445299613842,-0.28807882408014
-0.0513074646925718,-0.419302685466853
-0.0466133761652324,-0.427455245829924
-0.0229460096722472,-0.469366913094405
-0.00858960482347304,-0.495444209092462
