-0.849810839579331,-0.0359780448777896
-0.0810528952885023,-0.297953490321327
0.59858924639074,-0.875010857390685
0.856102526866344,-0.789718795607673
1.11361580734195,-0.70442673382466
-0.923010391300127,-0.249901928075086
0.136520542431666,0.276631374163515
1.19605147616346,0.803164676402116
-0.0795082782332688,-0.38160294827689
0.794881972339086,0.131576404222193
