-0.594803680260923,-0.721165299899863
-0.585963004033612,-0.711340377950518
-0.577152890466647,-0.701580848792448
-0.568373303925101,-0.691886481039231
-0.559624208774049,-0.682257043304441
-0.550905569378564,-0.672692304201654
-0.542217350103717,-0.663192032344445
-0.533559515314583,-0.65375599634639
-0.524932029376235,-0.644383964821064
-0.516334856653745,-0.635075706382043
-0.507767961512187,-0.625830989642902
-0.499231308316633,-0.616649583217217
-0.490724861432158,-0.607531255718563
-0.482248585223834,-0.598475775760516
-0.473802444056734,-0.589482911956651
-0.465386402295931,-0.580552432920543
-0.457000424306499,-0.571684107265769
-0.44864447445351,-0.562877703605903
-0.440318517102038,-0.554132990554521
-0.432022516617156,-0.545449736725199
-0.423756437363937,-0.536827710731512
-0.415520243707453,-0.528266681187035
-0.407313900012779,-0.519766416705345
-0.399137370644987,-0.511326685900015
-0.39099061996915,-0.502947257384623
-0.382873612350342,-0.494627899772743
-0.374786312153635,-0.486368381677951
-0.366728683744103,-0.478168471713822
-0.358700691486819,-0.470027938493933
-0.350702299746856,-0.461946550631857
-0.342733472889287,-0.453924076741171
-0.334794175279184,-0.445960285435451
-0.326884371281622,-0.438054945328271
-0.319004025261674,-0.430207825033208
-0.311153101584412,-0.422418693163836
-0.303331564614909,-0.414687318333732
-0.29553937871824,-0.40701346915647
-0.287776508259476,-0.399396914245626
-0.28004291760369,-0.391837422214776
-0.272338571115957,-0.384334761677495
-0.264663433161349,-0.376888701247358
-0.25701746810494,-0.369499009537942
-0.249400640311801,-0.362165455162821
-0.241812914147007,-0.354887806735571
-0.234254253975631,-0.347665832869768
-0.226724624162746,-0.340499302178987
-0.219223989073424,-0.333387983276803
-0.211752313072739,-0.326331644776792
-0.204309560525765,-0.319330055292529
-0.196895695797573,-0.312382983437591
-0.189510683253238,-0.305490197825551
-0.182154487257832,-0.298651467069987
-0.174827072176429,-0.291866559784473
-0.167528402374101,-0.285135244582584
-0.160258442215922,-0.278457290077897
-0.153017156066964,-0.271832464883987
-0.145804508292302,-0.265260537614429
-0.138620463257008,-0.258741276882798
-0.131464985326155,-0.252274451302671
-0.124338038864816,-0.245859829487622
-0.117239588238065,-0.239497180051228
-0.110169597810974,-0.233186271607063
-0.103128031948617,-0.226926872768703
-0.0961148550160663,-0.220718752149724
-0.0891300313783957,-0.214561678363701
-0.0821735254006782,-0.20845542002421
-0.0752453014479866,-0.202399745744825
-0.0683453238853942,-0.196394424139123
-0.0614735570779742,-0.190439223820679
-0.0546299653907995,-0.184533913403069
-0.0478145131889434,-0.178678261499867
-0.0410271648374789,-0.172872036724649
-0.0342678847014793,-0.167115007690992
-0.0275366371460175,-0.16140694301247
-0.0208333865361665,-0.155747611302659
-0.0141580972369998,-0.150136781175134
-0.00751073361359025,-0.144574221243471
-0.00089126003101106,-0.139059700121245
0.00570035914566477,-0.133592986422032
0.012264159551364,-0.128173848759407
0.0188001768210136,-0.122802055746946
0.0253084465895404,-0.117477375998224
0.0317890044918713,-0.112199578126816
0.0382418861629333,-0.106968430746299
0.044667127237653,-0.101783702470248
0.0510647633509576,-0.0966451619122373
0.0574348301377738,-0.0915525776858434
0.0637773632330287,-0.0865057184046416
0.0700923982716489,-0.0815043526822073
0.0763799708885614,-0.076548249132116
0.0826401167186931,-0.0716371763679432
0.088872871396971,-0.0667709030032643
0.0950782705583219,-0.061949197651655
0.101256349837673,-0.0571718289266904
0.10740714486995,-0.0524385654419463
0.113530691290081,-0.0477491758109981
0.119627024732993,-0.0431034286474213
0.125696180833612,-0.0385010925647914
0.131738195226865,-0.0339419361766835
0.13775310354768,-0.0294257280966736
0.143740941430983,-0.024952236938337
0.1497017445117,-0.0205212313152492
0.15563554842476,-0.0161324798409855
0.161542388805088,-0.0117857511291215
0.167422301287612,-0.00748081379323269
0.173275321507258,-0.00321743644689466
0.179101485098954,0.00100461229631739
0.184900827697626,0.00518556382282781
0.190673384938201,0.00932564951906104
0.196419192455606,0.0134251007714418
0.202138285884769,0.0174841489663944
0.207830700860615,0.0215030254903436
0.213496473018072,0.0254819617297136
0.219135637992066,0.0294211890709293
0.224748231417525,0.033320938900415
0.230334288929375,0.0371814426045953
0.235893846162544,0.0410029315698946
0.241426938751958,0.0447856371827375
0.246933602332543,0.0485297908295485
0.252413872539228,0.0522356238967523
0.257867785006939,0.0559033677707731
0.263295375370602,0.0595332538380357
0.268696679265145,0.0631255134849644
0.274071732325494,0.066680378097984
0.279420570186577,0.0701980790635187
0.28474322848332,0.0736788477679932
0.29003974285065,0.0771229155978321
0.295310148923494,0.0805305139394598
0.300554482336779,0.0839018741793007
0.305772778725432,0.0872372277037796
0.31096507372438,0.0905368058993209
0.316131402968549,0.093800840152349
0.321271802092867,0.0970295618492886
0.32638630673226,0.100223202376564
0.331474952521655,0.1033819931206
0.336537775095979,0.106506165467821
0.341574810090159,0.109595950804652
0.346586093139123,0.112651580517516
0.351571659877796,0.11567328599284
0.356531545941106,0.118661298617046
0.361465786963979,0.12161584977656
0.366374418581343,0.124537170857806
0.371257476428124,0.127425493247208
0.376114996139249,0.130281048331192
0.380947013349645,0.133104067496181
0.38575356369424,0.135894782128601
0.390534682807959,0.138653423614876
0.39529040632573,0.141380223341429
0.40002076988248,0.144075412694687
0.404725809113135,0.146739223061072
0.409405559652623,0.149371885827011
0.41406005713587,0.151973632378927
0.418689337197803,0.154544694103245
0.42329343547335,0.157085302386389
0.427872387597436,0.159595688614784
0.432426229204989,0.162076084174855
0.436954995930936,0.164526720453025
0.441458723410204,0.16694782883572
0.445937447277719,0.169339640709364
0.450391203168409,0.171702387460382
0.454820026717199,0.174036300475197
0.459223953559019,0.176341611140235
0.463603019328793,0.178618550841921
0.467957259661449,0.180867350966677
0.472286710191914,0.18308824290093
0.476591406555114,0.185281458031104
0.480871384385978,0.187447227743623
0.485126679319431,0.189585783424911
0.4893573269904,0.191697356461394
0.493563363033813,0.193782178239495
0.497744823084595,0.19584048014564
0.501901742777675,0.197872493566252
0.506034157747979,0.199878449887757
0.510142103630433,0.201858580496579
0.514225616059966,0.203813116779142
0.518284730671502,0.20574229012187
0.522319483099971,0.20764633191119
0.526329908980298,0.209525473533524
0.53031604394741,0.211379946375297
0.534277923636234,0.213209981822935
0.538215583681697,0.215015811262861
0.542129059718727,0.2167976660815
0.546018387382249,0.218555777665276
0.54988360230719,0.220290377400615
0.553724740128479,0.22200169667394
0.55754183648104,0.223689966871676
0.561334926999803,0.225355419380248
0.565104047319692,0.22699828558608
0.568849233075636,0.228618796875597
0.57257051990256,0.230217184635223
0.576267943435393,0.231793680251382
0.57994153930906,0.2333485151105
0.583591343158489,0.234881920599
0.587217390618607,0.236394128103308
0.59081971732434,0.237885369009847
0.594398358910615,0.239355874705043
0.59795335101236,0.24080587657532
0.601484729264501,0.242235606007102
0.604992529301965,0.243645294386814
0.608476786759678,0.24503517310088
0.611937537272569,0.246405473535725
0.615374816475563,0.247756427077774
0.618788660003588,0.249088265113451
0.62217910349157,0.25040121902918
0.625546182574437,0.251695520211386
0.628889932887115,0.252971400046493
0.63221039006453,0.254229089920927
0.635507589741611,0.255468821221111
0.638781567553284,0.256690825333471
0.642032359134476,0.25789533364443
0.645260000120113,0.259082577540413
0.648464526145123,0.260252788407844
0.651645972844431,0.261406197633149
0.654804375852967,0.262543036602752
0.657939770805656,0.263663536703077
0.661052193337425,0.264767929320548
0.6641416790832,0.265856445841591
0.66720826367791,0.26692931765263
0.670251982756481,0.267986776140089
0.673272871953839,0.269029052690393
0.676270966904911,0.270056378689966
0.679246303244625,0.271068985525233
0.682198916607907,0.272067104582618
0.685128842629685,0.273050967248546
0.688036116944885,0.274020804909442
0.690920775188433,0.27497684895173
0.693782852995258,0.275919330761834
0.696622386000285,0.276848481726179
0.699439409838441,0.27776453323119
0.702233960144655,0.278667716663291
0.705006072553852,0.279558263408906
0.707755782700959,0.280436404854461
0.710483126220903,0.281302372386379
0.713188138748611,0.282156397391085
0.71587085591901,0.282998711255004
0.718531313367027,0.28382954536456
0.721169546727589,0.284649131106178
0.723785591635622,0.285457699866282
0.726379483726054,0.286255483031297
0.728951258633811,0.287042711987647
0.731500951993821,0.287819618121756
0.734028599441009,0.288586432820051
0.736534236610304,0.289343387468954
0.739017899136632,0.29009071345489
0.741479622654919,0.290828642164284
0.743919442800093,0.291557404983561
0.746337395207081,0.292277233299144
0.748733515510809,0.292988358497459
0.751107839346205,0.29369101196493
0.753460402348195,0.294385425087982
0.755791240151706,0.295071829253038
0.758100388391665,0.295750455846524
0.760387882702999,0.296421536254864
0.762653758720635,0.297085301864483
0.764898052079499,0.297741984061804
0.767120798414519,0.298391814233254
0.769322033360622,0.299035023765255
0.771501792552733,0.299671844044233
0.773660111625782,0.300302506456612
0.775797026214693,0.300927242388817
0.777912571954394,0.301546283227273
0.780006784479812,0.302159860358403
0.782079699425874,0.302768205168632
0.784131352427507,0.303371549044385
0.786161779119637,0.303970123372086
0.788171015137191,0.304564159538161
0.790159096115097,0.305153888929032
0.792126057688282,0.305739542931126
0.794071935491671,0.306321352930865
0.795996765160192,0.306899550314676
0.797900582328772,0.307474366468983
0.799783422632338,0.308046032780209
0.801645321705817,0.308614780634779
0.803486315184135,0.309180841419119
0.80530643870222,0.309744446519652
0.807105727894997,0.310305827322804
0.808884218397395,0.310865215214998
0.810641945844341,0.311422841582659
0.81237894587076,0.311978937812211
0.81409525411158,0.31253373529008
0.815790906201728,0.313087465402689
0.81746593777613,0.313640359536464
0.819120384469714,0.314192649077828
0.820754281917407,0.314744565413207
0.822367665754134,0.315296339929024
0.823960571614824,0.315848204011705
0.825533035134403,0.316400389047673
0.827085091947798,0.316953126423354
0.828616777689936,0.317506647525171
0.830128127995743,0.31806118373955
0.831619178500148,0.318616966452915
0.833089964838075,0.31917422705169
0.834540522644453,0.3197331969223
0.835970887554209,0.32029410745117
0.837381095202268,0.320857190024723
0.838771181223559,0.321422676029385
0.840141181253007,0.32199079685158
0.841491130925541,0.322561783877733
0.842821065876086,0.323135868494267
0.84413102173957,0.323713282087609
0.845421034150919,0.324294256044181
0.84669113874506,0.324879021750409
0.847941371156921,0.325467810592717
0.849171767021428,0.32606085395753
0.850382361973508,0.326658383231272
0.851573191648088,0.327260629800368
0.852744291680095,0.327867825051241
0.853895697704456,0.328480200370318
0.855027445356097,0.329097987144022
0.856139570269945,0.329721416758778
0.857232108080928,0.33035072060101
0.858305094423973,0.330986130057143
0.859358564934005,0.331627876513601
0.860392555245952,0.332276191356809
0.861407100994742,0.332931305973192
0.8624022378153,0.333593451749173
0.863378001342554,0.334262860071178
0.86433442721143,0.334939762325631
0.865271551056856,0.335624389898956
0.866189408513758,0.336316974177579
0.867088035217064,0.337017746547923
0.867967466801699,0.337726938396413
0.868827738902592,0.338444781109473
0.869668887154668,0.339171506073529
0.870490947192855,0.339907344675004
0.871293954652081,0.340652528300324
0.87207794516727,0.341407288335912
0.872842954373351,0.342171856168194
0.87358901790525,0.342946463183593
0.874316171397895,0.343731340768534
0.875024450486211,0.344526720309442
0.875713890805127,0.345332833192741
0.876384527989568,0.346149910804857
0.877036397674463,0.346978184532212
0.877669535494737,0.347817885761232
0.878283977085317,0.348669245878342
0.878879758081131,0.349532496269966
0.879456914117105,0.350407868322528
0.880015480828167,0.351295593422453
0.880555493849242,0.352195902956165
0.881076988815259,0.353109028310089
0.881580001361143,0.35403520087065
0.882064567121822,0.354974652024272
0.882530721732223,0.35592761315738
0.882978500827272,0.356894315656397
0.883407940041897,0.357874990907749
0.883819075011024,0.35886987029786
0.884211941369581,0.359879185213155
0.884586574752493,0.360903167040058
0.884943010794688,0.361942047164994
0.885281285131093,0.362996056974387
0.885601433396635,0.364065427854661
0.885903491226241,0.365150391192242
0.886187494254837,0.366251178373554
0.88645347811735,0.36736802078502
0.886701478448708,0.368501149813067
0.886931530883836,0.369650796844118
0.887143671057663,0.370817193264598
0.887337934605115,0.372000570460931
0.887514357161119,0.373201159819542
0.887672974360601,0.374419192726856
0.887813821838489,0.375654900569296
0.88793693522971,0.376908514733288
0.88804235016919,0.378180266605256
0.888130102291856,0.379470387571624
0.888200227232635,0.380779109018818
0.888252760626455,0.382106662333261
0.888287738108241,0.383453278901378
0.888305195312921,0.384819190109593
0.888305167875422,0.386204627344332
0.888287691430671,0.387609821992018
0.888252801613593,0.389035005439077
0.888200534059118,0.390480409071932
0.88813092440217,0.391946264277009
0.888044008277678,0.393432802440731
0.887939821320568,0.394940254949523
0.887818399165766,0.39646885318981
0.887679777448201,0.398018828548017
0.887523991802798,0.399590412410567
0.887351077864485,0.401183836163885
0.887161071268188,0.402799331194397
0.886954007648834,0.404437128888526
0.886729922641351,0.406097460632696
0.886488851880665,0.407780557813333
0.886230831001703,0.409486651816861
0.885955895639392,0.411215974029705
0.885664081428658,0.412968755838288
0.885355424004429,0.414745228629036
0.885029959001632,0.416545623788373
0.884687722055193,0.418370172702724
0.88432874880004,0.420219106758512
0.883953074871099,0.422092657342164
0.883560735903297,0.423991055840102
0.883151767531561,0.425914533638752
0.882726205390817,0.427863322124538
0.882284085115994,0.429837652683885
0.881825442342017,0.431837756703217
0.881350312703814,0.433863865568958
0.880858731836311,0.435916210667534
0.880350735374436,0.437995023385369
0.880350735374436,0.437995023385369
0.879824792090247,0.440051501493026
0.879279421912453,0.442036975878718
0.878714737210957,0.443951877605346
0.878130850355662,0.445796637735807
0.877527873716469,0.447571687333003
0.87690591966328,0.449277457459831
0.876265100565997,0.450914379179192
0.875605528794524,0.452482883553985
0.874927316718762,0.453983401647109
0.874230576708612,0.455416364521465
0.873515421133978,0.45678220323995
0.872781962364762,0.458081348865465
0.872030312770865,0.459314232460909
0.87126058472219,0.460481285089181
0.87047289058864,0.461582937813182
0.869667342740116,0.462619621695809
0.86884405354652,0.463591767799964
0.868003135377755,0.464499807188544
0.867144700603723,0.46534417092445
0.866268861594326,0.466125290070581
0.865375730719466,0.466843595689836
0.864465420349046,0.467499518845115
0.863538042852967,0.468093490599317
0.862593710601132,0.468625942015342
0.861632535963444,0.469097304156089
0.860654631309803,0.469508008084457
0.859660109010113,0.469858484863346
0.858649081434276,0.470149165555656
0.857621660952193,0.470380481224285
0.856577959933767,0.470552862932133
0.855518090748901,0.470666741742099
0.854442165767496,0.470722548717084
0.853350297359454,0.470720714919986
0.852242597894679,0.470661671413704
0.851119179743071,0.470545849261139
0.849980155274533,0.470373679525189
0.848825636858968,0.470145593268754
0.847655736866277,0.469862021554734
0.846470567666363,0.469523395446027
0.845270241629128,0.469130146005534
0.844054871124474,0.468682704296153
0.842824568522303,0.468181501380785
0.841579446192518,0.467626968322327
0.840319616505021,0.467019536183681
0.839045191829713,0.466359636027745
0.837756284536497,0.465647698917419
0.836453006995276,0.464884155915601
0.835135471575951,0.464069438085193
0.833803790648425,0.463203976489092
0.832458076582599,0.462288202190199
0.831098441748377,0.461322546251412
0.82972499851566,0.460307439735632
0.82833785925435,0.459243313705757
0.826937136334349,0.458130599224687
0.825522942125561,0.456969727355322
0.824095388997886,0.455761129160561
0.822654589321228,0.454505235703302
0.821200655465488,0.453202478046447
0.819733699800568,0.451853287252893
0.818253834696371,0.450458094385541
0.8167611725228,0.449017330507291
0.815255825649755,0.44753142668104
0.813737906447139,0.446000813969689
0.812207527284856,0.444425923436137
0.810664800532805,0.442807186143284
0.809109838560891,0.441145033154029
0.807542753739015,0.439439895531271
0.805963658437078,0.43769220433791
0.804372665024985,0.435902390636845
0.802769885872636,0.434070885490976
0.801155433349934,0.432198119963202
0.799529419826781,0.430284525116423
0.797891957673079,0.428330532013537
0.79624315925873,0.426336571717445
0.794583136953637,0.424303075291045
0.792912003127702,0.422230473797238
0.791229870150827,0.420119198298922
0.789536850392914,0.417969679858997
0.787833056223866,0.415782349540362
0.786118600013584,0.413557638405917
0.784393594131971,0.411295977518562
0.782658150948928,0.408997797941195
0.780912382834359,0.406663530736716
0.779156402158165,0.404293606968024
0.777390321290249,0.40188845769802
0.775614252600512,0.399448513989601
0.773828308458857,0.396974206905668
0.772032601235186,0.394465967509121
0.770227243299402,0.391924226862858
0.768412347021406,0.389349416029779
0.7665880247711,0.386741966072783
0.764754388918388,0.38410230805477
0.76291155183317,0.381430873038639
0.76105962588535,0.37872809208729
0.759198723444829,0.375994396263622
0.75732895688151,0.373230216630534
0.755450438565295,0.370435984250926
0.753563280866085,0.367612130187697
0.751667596153784,0.364759085503747
0.749763496798293,0.361877281261975
0.747851095169515,0.35896714852528
0.745930503637351,0.356029118356563
0.744001834571704,0.353063621818721
0.742065200342477,0.350071089974656
0.740120713319571,0.347051953887266
0.738168485872888,0.34400664461945
0.736208630372331,0.340935593234108
0.734241259187802,0.337839230794139
0.732266484689204,0.334717988362444
0.730284419246437,0.33157229700192
0.728295175229404,0.328402587775468
0.726298865008009,0.325209291745987
0.724295600952152,0.321992839976377
0.722285495431737,0.318753663529536
0.720268660816664,0.315492193468365
0.718245209476837,0.312208860855763
0.716215253782158,0.308904096754628
0.714178906102528,0.305578332227861
0.712136278807851,0.302231998338361
0.710087484268028,0.298865526149028
0.708032634852961,0.29547934672276
0.705971842932552,0.292073891122458
0.703905220876704,0.288649590411019
0.70183288105532,0.285206875651346
0.699754935838301,0.281746177906335
0.697671497595548,0.278267928238887
0.695582678696966,0.274772557711902
0.693488591512455,0.271260497388278
0.691389348411918,0.267732178330915
0.689285061765257,0.264188031602713
0.687175843942374,0.260628488266571
0.685061807313172,0.257053979385388
0.682943064247553,0.253464936022064
0.680819727115418,0.249861789239498
0.67869190828667,0.246244970100589
0.676559720131212,0.242614909668238
0.674423275018946,0.238972039005343
0.672282685319772,0.235316789174803
0.670138063403595,0.231649591239519
0.667989521640316,0.22797087626239
0.665837172399836,0.224281075306315
0.663681128052059,0.220580619434193
0.661521500966887,0.216869939708923
0.659358403514222,0.213149467193407
0.657191948063966,0.209419632950542
0.65502224698602,0.205680868043228
0.652849412650288,0.201933603534365
0.650673557426672,0.198178270486851
0.648494793685073,0.194415299963587
0.646313233795395,0.190645123027472
0.644128990127538,0.186868170741405
0.641942175051405,0.183084874168286
0.6397529009369,0.179295664371013
0.637561280153922,0.175500972412487
0.635367425072376,0.171701229355607
0.633171448062163,0.167896866263272
0.630973461493185,0.164088314198382
0.628773577735345,0.160276004223836
0.626571909158544,0.156460367402534
0.624368568132685,0.152641834797374
0.62216366702767,0.148820837471257
0.619957318213401,0.144997806487081
0.617749634059781,0.141173172907747
0.615540726936711,0.137347367796153
0.613330709214094,0.1335208222152
0.611119693261832,0.129693967227785
0.608907791449827,0.12586723389681
0.606695116147982,0.122041053285172
0.604481779726198,0.118215856455773
0.602267894554378,0.11439207447151
0.600053573002423,0.110570138395284
0.597838927440237,0.106750479289994
0.595624070237722,0.102933528218539
0.593409113764778,0.0991197162438189
0.59119417039131,0.0953094744287328
0.588979352487218,0.0915032338361803
0.586764772422405,0.0877014255290609
0.584550542566774,0.0839044805702737
0.582336775290226,0.0801128300227184
0.580123582962664,0.0763269049492943
0.57791107795399,0.0725471364129009
0.575699372634105,0.0687739554764374
0.573488579372913,0.0650077932028034
0.571278810540315,0.0612490806548983
0.569070178506214,0.0574982488956215
0.566862795640512,0.0537557289878723
0.564656774313111,0.0500219519945502
0.562452226893913,0.0462973489785547
0.56024926575282,0.0425823510027852
0.558048003259735,0.0388773891301409
0.555848551784559,0.0351828944235214
0.553651023697196,0.0314992979458262
0.551455531367546,0.0278270307599545
0.549262187165513,0.0241665239288058
0.547071103460999,0.0205182085152794
0.544882392623905,0.016882515582275
0.542696167024134,0.013259876192692
0.540512539031588,0.00965072140942944
0.53833162101617,0.00605548229538695
0.536153525347781,0.00247458991346408
0.533978364396323,-0.00109152467344005
0.5318062505317,-0.00464243040242565
0.529637296123812,-0.00817769621059368
0.527471613542563,-0.0116968910350445
0.525309315157854,-0.0151995838128788
0.523150513339588,-0.018685343481197
0.520995320457667,-0.0221537389770999
0.518843848881992,-0.0256043392376879
0.516696210982467,-0.0290367132000619
0.514552519128993,-0.032450429801322
0.512412885691473,-0.0358450579785692
0.510277423039809,-0.0392201666689039
0.508146243543902,-0.0425753248094268
0.506019459573656,-0.0459101013372382
0.503897183498972,-0.0492240651894392
0.501779527689752,-0.0525167853031298
0.4996666045159,-0.055787830615411
0.497558526347316,-0.0590367700633831
0.495455405553903,-0.0622631725841471
0.493357354505564,-0.0654666071148031
0.4912644855722,-0.0686466425924521
0.489176911123713,-0.0718028479541943
0.487094743530007,-0.0749347921371307
0.485018095160982,-0.0780420440783614
0.482947078386542,-0.0811241727149875
0.480881805576589,-0.0841807469841091
0.478822389101024,-0.0872113358228272
0.476768941329749,-0.0902155081682421
0.474721574632668,-0.0931928329574546
0.472680401379682,-0.0961428791275651
0.470645533940694,-0.0990652156156743
0.468617084685605,-0.101959411358883
0.466595165984317,-0.104825035294291
0.464579890206734,-0.107661656359
0.462571369722757,-0.110468843490109
0.460569716902288,-0.113246165624721
0.45857504411523,-0.115993191699934
0.456587463731484,-0.118709490652851
0.454607088120954,-0.12139463142057
0.45263402965354,-0.124048182940194
0.450668400699146,-0.126669714148822
0.448710313627674,-0.129258793983555
0.446759880809025,-0.131814991381494
0.444817214613102,-0.134337875279739
0.442882427409806,-0.136827014615391
0.440955631569042,-0.139281978325551
0.439036939460709,-0.141702335347318
0.437126463454712,-0.144087654617794
0.435224315920951,-0.14643750507408
0.433330609229329,-0.148751455653275
0.431445455749749,-0.15102907529248
0.429568967852111,-0.153269932928797
0.42770125790632,-0.155473597499325
0.425842438282276,-0.157639637941165
0.423992621349882,-0.159767623191418
0.422151919479041,-0.161857122187184
0.420320445039653,-0.163907703865565
0.418498310401623,-0.165918937163659
0.41668562793485,-0.167890391018569
0.414882510009239,-0.169821634367394
0.413089068994691,-0.171712236147236
0.411305417261109,-0.173561765295194
0.409531667178394,-0.17536979074837
0.407767931116448,-0.177135881443864
0.406014321445175,-0.178859606318776
0.404270950534475,-0.180540534310208
0.402537930754252,-0.182178234355259
0.400815374474408,-0.183772275391031
0.399103394064844,-0.185322226354624
0.397402101895462,-0.186827656183138
0.395711610336166,-0.188288133813674
0.394032031756857,-0.189703228183333
0.392363478527438,-0.191072508229215
0.39070606301781,-0.192395542888421
0.389059897597876,-0.193671901098051
0.387425094637538,-0.194901151795207
0.385801766506698,-0.196082863916988
0.384190025575258,-0.197216606400495
0.382589984213121,-0.19830194818283
0.381001754790189,-0.199338458201091
0.379425449676364,-0.20032570539238
0.377861181241548,-0.201263258693798
0.376309061855643,-0.202150687042445
0.374769203888551,-0.202987559375422
0.373241719710176,-0.203773444629829
0.371726721690418,-0.204507911742767
0.37022432219918,-0.205190529651337
0.368734633606365,-0.205820867292638
0.367257768281874,-0.206398493603772
0.36579383859561,-0.20692297752184
0.364342956917475,-0.207393887983941
0.362905235617371,-0.207810793927177
0.361480787065199,-0.208173264288647
0.360069723630864,-0.208480868005454
0.358672157684266,-0.208733174014696
0.357288201595308,-0.208929751253475
0.355917967733892,-0.209070168658891
0.35456156846992,-0.209153995168046
0.353219116173294,-0.209180799718038
0.351890723213917,-0.20915015124597
0.350576501961691,-0.209061618688942
0.349276564786517,-0.208914770984054
0.347991024058299,-0.208709177068407
0.346719992146938,-0.208444405879101
0.345463581422337,-0.208120026353237
0.344221904254398,-0.207735607427916
0.342995073013022,-0.207290718040237
0.341783200068112,-0.206784927127303
0.340586397789571,-0.206217803626213
0.3394047785473,-0.205588916474068
0.338238454711202,-0.204897834607969
0.337087538651179,-0.204144126965015
0.335952142737133,-0.203327362482309
0.334832379338966,-0.202447110096949
0.333728360826581,-0.201502938746038
0.332640199569879,-0.200494417366675
0.331568007938763,-0.199421114895961
0.330511898303135,-0.198282600270997
0.329471983032897,-0.197078442428882
0.328448374497952,-0.195808210306719
0.327441185068201,-0.194471472841607
0.326450527113547,-0.193067798970647
0.325476513003892,-0.19159675763094
0.324519255109138,-0.190057917759586
0.323578865799187,-0.188450848293685
0.322655457443942,-0.186775118170339
0.321749142413305,-0.185030296326648
0.320860033077178,-0.183215951699712
0.319988241805462,-0.181331653226632
0.319133880968061,-0.179376969844509
0.318297062934877,-0.177351470490443
0.317477900075811,-0.175254724101535
0.316676504760766,-0.173086299614886
0.315892989359645,-0.170845765967595
0.315127466242348,-0.168532692096764
0.314380047778779,-0.166146646939493
0.313650846338839,-0.163687199432883
0.312939974292432,-0.161153918514034
0.312247544009458,-0.158546373120048
0.311573667859821,-0.155864132188023
0.310918458213422,-0.153106764655062
0.310282027440164,-0.150273839458265
0.309664487909948,-0.147364925534732
0.309065951992678,-0.144379591821563
0.308486532058254,-0.141317407255861
0.30792634047658,-0.138177940774724
0.307385489617558,-0.134960761315254
0.306864091851089,-0.131665437814551
0.306362259547076,-0.128291539209715
0.305880105075421,-0.124838634437849
0.305417740806027,-0.121306292436051
0.304975279108795,-0.117694082141422
0.304552832353628,-0.114001572491064
0.304150512910428,-0.110228332422077
0.303768433149096,-0.106373930871561
0.303406705439536,-0.102437936776616
0.30306544215165,-0.0984199190743445
0.302744755655339,-0.0943194467018459
0.302444758320506,-0.0901360885962207
0.302165562517053,-0.08586941369457
0.301907280614883,-0.0815189909339939
0.301670024983896,-0.0770843892515934
0.301453907993997,-0.0725651775844687
0.301259042015086,-0.0679609248697207
0.301085539417066,-0.0632712000444498
0.300933512569839,-0.0584955720457568
0.300803073843308,-0.0536336098107419
0.300694335607374,-0.0486848822765061
0.30060741023194,-0.0436489583801497
0.300542410086908,-0.0385254070587736
0.30049944754218,-0.0333137972494779
0.300478634967659,-0.0280136978893637
0.300480084733246,-0.0226246779155311
0.300503909208843,-0.0171463062650812
0.300550220764354,-0.0115781518751141
0.300619131769679,-0.00591978368273082
0.300710754594722,-0.000170770625031513
0.300825201609385,0.00566931836088283
0.300962585183569,0.011600914337912
0.301123017687177,0.0176244483689549
0.301306611490111,0.0237403515169116
0.301513478962273,0.0299490548446809
0.301743732473566,0.0362509894151628
0.301997484393891,0.0426465862912561
0.302274847093151,0.0491362765358608
0.302575932941248,0.0557204912118757
0.302900854308084,0.0623996613822009
0.303249723563562,0.0691742181097351
0.303622653077583,0.0760445924573785
0.30401975522005,0.0830112154880297
0.304441142360865,0.0900745182645888
0.30488692686993,0.0972349318499546
0.305357221117148,0.104492887307027
0.30585213747242,0.111848815698705
0.306371788305648,0.119303148087889
0.306916285986736,0.126856315537477
0.307485742885585,0.134508749110369
0.308080271372097,0.142260879869465
0.308699983816174,0.150113138877664
0.308699983816174,0.150113138877664
0.309320990320177,0.15796328972554
0.309919464293182,0.165709148283138
0.310495613065167,0.173351224032568
0.311049643966112,0.180890026455936
0.311581764325993,0.18832606503535
0.312092181474791,0.195659849252919
0.312581102742483,0.202891888590751
0.313048735459047,0.210022692530952
0.313495286954463,0.217052770555632
0.313920964558708,0.223982632146897
0.314325975601761,0.230812786786855
0.314710527413601,0.237543743957616
0.315074827324205,0.244176013141285
0.315419082663553,0.250710103819972
0.315743500761622,0.257146525475783
0.316048288948391,0.263485787590828
0.316333654553839,0.269728399647213
0.316599804907943,0.275874871127047
0.316846947340683,0.281925711512437
0.317075289182036,0.287881430285491
0.317285037761982,0.293742536928318
0.317476400410498,0.299509540923024
0.317649584457563,0.305182951751718
0.317804797233155,0.310763278896507
0.317942246067253,0.3162510318395
0.318062138289836,0.321646720062804
0.318164681230881,0.326950853048528
0.318250082220367,0.332163940278778
0.318318548588272,0.337286491235663
0.318370287664576,0.342319015401291
0.318405506779255,0.347262022257769
0.31842441326229,0.352116021287205
0.318427214443657,0.356881521971708
0.318414117653336,0.361559033793385
0.318385330221306,0.366149066234343
0.318341059477543,0.370652128776692
0.318281512752027,0.375068730902538
0.318206897374737,0.379399382093989
0.31811742067565,0.383644591833153
0.318013289984745,0.387804869602139
0.317894712632001,0.391880724883053
0.317761895947396,0.395872667158005
0.317615047260907,0.3997812059091
0.317454373902515,0.403606850618449
0.317280083202197,0.407350110768157
0.317092382489931,0.411011495840334
0.316891479095697,0.414591515317087
0.316677580349472,0.418090678680523
0.316450893581234,0.421509495412752
0.316211626120963,0.424848474995879
0.315959985298636,0.428108126912014
0.315696178444233,0.431288960643265
0.315420412887731,0.434391485671738
0.315132895959109,0.437416211479542
0.314833834988345,0.440363647548785
0.314523437305418,0.443234303361575
0.314201910240307,0.446028688400019
0.313869461122989,0.448747312146225
0.313526297283442,0.451390684082301
0.313172626051647,0.453959313690355
0.31280865475758,0.456453710452495
0.31243459073122,0.458874383850829
0.312050641302546,0.461221843367464
0.311657013801536,0.463496598484509
0.311253915558169,0.46569915868407
0.310841553902423,0.467830033448257
0.310420136164276,0.469889732259176
0.309989869673706,0.471878764598937
0.309550961760693,0.473797639949645
0.309103619755215,0.47564686779341
0.308648050987249,0.47742695761234
0.308184462786775,0.479138418888541
0.307713062483771,0.480781761104123
0.307234057408215,0.482357493741192
0.306747654890086,0.483866126281856
0.306254062259362,0.485308168208224
0.305753486846021,0.486684129002404
0.305246135980043,0.487994518146502
0.304732216991405,0.489239845122628
0.304211937210085,0.490420619412888
0.303685503966063,0.491537350499391
0.303153124589316,0.492590547864245
0.302615006409824,0.493580720989556
0.302071356757564,0.494508379357435
0.301522382962514,0.495374032449987
0.300968292354654,0.496178189749321
0.300409292263962,0.496921360737544
0.299845590020416,0.497604054896766
0.299277392953995,0.498226781709092
0.298704908394676,0.498790050656632
0.298128343672439,0.499294371221493
0.297547906117262,0.499740252885783
0.296963803059122,0.50012820513161
0.296376241828,0.500458737441081
0.295785429753872,0.500732359296305
0.295191574166718,0.500949580179389
0.294594882396516,0.501110909572442
0.293995561773244,0.50121685695757
0.293393819626881,0.501267931816882
0.292789863287405,0.501264643632486
0.292183900084795,0.501207501886489
0.291576137349029,0.501097016061
0.290966782410085,0.500933695638126
0.290356042597942,0.500718050099975
0.289744125242578,0.500450588928655
0.289131237673972,0.500131821606273
0.288517587222101,0.499762257614939
0.287903381216946,0.499342406436758
0.287288826988483,0.49887277755384
0.286674131866692,0.498353880448293
0.28605950318155,0.497786224602222
0.285445148263036,0.497170319497738
0.28483127444113,0.496506674616948
0.284218089045808,0.495795799441959
0.283605799407049,0.495038203454879
0.282994612854832,0.494234396137817
0.282384736719136,0.49338488697288
0.281776378329938,0.492490185442175
0.281169745017218,0.491550801027811
0.280565044110953,0.490567243211896
0.279962482941121,0.489540021476537
0.279362268837702,0.488469645303842
0.278764609130674,0.48735662417592
0.278169711150015,0.486201467574877
0.277577782225704,0.485004684982822
0.276989029687719,0.483766785881863
0.276403660866038,0.482488279754107
0.27582188309064,0.481169676081663
0.275243903691503,0.479811484346638
0.274669929998606,0.478414214031139
0.274100169341927,0.476978374617276
0.273534829051445,0.475504475587155
0.272974116457137,0.473993026422885
0.272418238888983,0.472444536606573
0.271867403676961,0.470859515620327
0.271321818151049,0.469238472946255
0.270781689641225,0.467581918066466
0.270247225477469,0.465890360463066
0.269718632989758,0.464164309618163
0.269196119508071,0.462404275013866
0.268679892362386,0.460610766132283
0.268170158882682,0.45878429245552
0.267667126398937,0.456925363465686
0.267171002241129,0.455034488644889
0.266681993739238,0.453112177475237
0.266200308223241,0.451158939438838
0.265726153023116,0.449175284017798
0.265259735468843,0.447161720694227
0.2648012628904,0.445118758950232
0.264350942617765,0.44304690826792
0.263908981980916,0.440946678129401
0.263475588309832,0.438818578016781
0.263050968934491,0.436663117412168
0.262635331184872,0.434480805797671
0.262228882390953,0.432272152655396
0.261831829882713,0.430037667467453
0.261444380990129,0.427777859715948
0.261066743043181,0.42549323888299
0.260699123371847,0.423184314450686
0.260341729306105,0.420851595901145
0.259994768175934,0.418495592716474
0.259658447311312,0.416116814378781
0.259332974042217,0.413715770370173
0.259018555698629,0.41129297017276
0.258715399610524,0.408848923268648
0.258423713107882,0.406384139139945
0.258143703520682,0.403899127268759
0.257875578178901,0.401394397137199
0.257619544412518,0.398870458227371
0.257375809551511,0.396327820021384
0.25714458092586,0.393766992001346
0.256926065865541,0.391188483649364
0.256720471700535,0.388592804447546
0.256528005760818,0.385980463878001
0.25634887537637,0.383351971422835
0.256183287877168,0.380707836564157
0.256031450593193,0.378048568784075
0.25589357085442,0.375374677564696
0.25576985599083,0.372686672388129
0.255660513332401,0.369985062736481
0.255565750209111,0.36727035809186
0.255485773950938,0.364543067936373
0.25542079188786,0.361803701752129
0.255371011349858,0.359052769021236
0.255336639666908,0.356290779225802
0.255317884168989,0.353518241847933
0.255314952186079,0.350735666369739
0.255328051048157,0.347943562273326
0.255357388085202,0.345142439040804
0.255403170627192,0.342332806154278
0.255465606004105,0.339515173095859
0.255544901545919,0.336690049347652
0.255641264582613,0.333857944391767
0.255754902444166,0.331019367710311
0.255886022460556,0.328174828785391
0.256034831961761,0.325324837099116
0.25620153827776,0.322469902133594
0.256386348738531,0.319610533370932
0.256589470674052,0.316747240293238
0.256811111414302,0.313880532382621
0.25705147828926,0.311010919121187
0.257310778628904,0.308138909991045
0.257589219763211,0.305265014474302
0.257887009022162,0.302389742053067
0.258204353735733,0.299513602209447
0.258541461233904,0.29663710442555
0.258898538846653,0.293760758183484
0.259275793903958,0.290885072965357
0.259673433735797,0.288010558253277
0.26009166567215,0.285137723529351
0.260530697042995,0.282267078275687
0.260990735178309,0.279399131974394
0.261471987408072,0.276534394107578
0.261974661062262,0.273673374157349
0.262498963470857,0.270816581605813
0.263045101963835,0.267964525935078
0.263613283871176,0.265117716627253
0.264203716522857,0.262276663164445
0.264816607248857,0.259441875028763
0.265452163379154,0.256613861702313
0.266110592243727,0.253793132667204
0.266792101172554,0.250980197405543
0.267496897495614,0.248175565399439
0.268225188542885,0.245379746130999
0.268977181644345,0.242593249082332
0.269753084129973,0.239816583735544
0.270553103329748,0.237050259572744
0.271377446573646,0.23429478607604
0.272226321191648,0.231550672727539
0.273099934513732,0.22881842900935
0.273998493869875,0.22609856440358
0.274922206590057,0.223391588392336
0.275871280004256,0.220698010457728
0.276845921442449,0.218018340081863
0.277846338234617,0.215353086746847
0.278872737710736,0.212702759934791
0.279925327200786,0.210067869127801
0.281004314034744,0.207448923807984
0.28210990554259,0.20484643345745
0.283242309054302,0.202260907558305
0.284401731899857,0.199692855592658
0.285588381409235,0.197142787042617
0.286802464912414,0.194611211390289
0.288044189739373,0.192098638117782
0.289313763220089,0.189605576707204
0.290611392684541,0.187132536640663
0.291937285462708,0.184680027400266
0.293291648884568,0.182248558468122
0.2946746902801,0.179838639326338
0.296086616979281,0.177450779457023
0.297527636312091,0.175085488342284
0.298997955608507,0.172743275464228
0.300497782198509,0.170424650304965
0.302027323412074,0.1681301223466
0.303586786579181,0.165860201071244
0.305176379029808,0.163615395961002
0.306796308093934,0.161396216497984
0.308446781101537,0.159203172164297
0.310128005382596,0.157036772442048
0.311840188267089,0.154897526813346
0.313583537084995,0.152785944760299
0.315358259166291,0.150702535765014
0.317164561840956,0.148647809309599
0.31900265243897,0.146622274876162
0.320872738290309,0.144626441946811
0.322775026724953,0.142660820003654
0.32470972507288,0.140725918528798
0.326677040664069,0.138822247004352
0.328677180828497,0.136950314912423
0.330710352896143,0.135110631735119
0.332776764196986,0.133303706954548
0.334876622061004,0.131530050052817
0.337010133818176,0.129790170512036
0.339177506798479,0.12808457781431
0.341378948331893,0.126413781441749
0.343614665748396,0.124778290876461
0.345884866377965,0.123178615600552
0.348189757550581,0.121615265096131
0.35052954659622,0.120088748845305
0.352904440844862,0.118599576330184
0.355314647626484,0.117148257032873
0.357760374271066,0.115735300435482
0.360241828108585,0.114361216020118
0.362759216469021,0.113026513268888
0.36531274668235,0.111731701663902
0.367902626078553,0.110477290687266
0.370529061987608,0.109263789821088
0.373192261739491,0.108091708547477
0.375892432664184,0.10696155634854
0.378629782091662,0.105873842706385
0.381404517351906,0.104829077103119
0.384216845774893,0.103827769020851
0.387066974690602,0.102870427941689
0.389955111429011,0.10195756334774
0.392881463320099,0.101089684721112
0.395846237693844,0.100267301543913
0.398849641880225,0.0994909232982514
0.401891883209219,0.0987610594662341
0.404973169010806,0.0980782195299694
0.408093706614964,0.0974429129715651
0.41125370335167,0.096855649273129
0.414453366550905,0.096316937916769
0.417692903542645,0.0958272883845929
0.42097252165687,0.0953872101587085
0.424292428223558,0.0949972127212238
0.427652830572687,0.0946578055542465
0.431053936034235,0.0943694981398845
0.434495951938182,0.0941327999602457
0.437979085614505,0.0939482204974378
0.441503544393184,0.0938162692335687
0.445069535604195,0.0937374556507463
0.448677266577519,0.0937122892310784
0.452326944643132,0.0937412794566729
0.456018777131015,0.0938249358096375
0.459752971371144,0.0939637677720803
0.463529734693499,0.0941582848261089
0.467349274428057,0.0944089964538312
0.471211797904798,0.0947164121373551
0.4751175124537,0.0950810413587884
0.47906662540474,0.0955033936002389
0.483059344087899,0.0959839783438146
0.487095875833153,0.0965233050716232
0.491176427970482,0.0971218832657725
0.495301207829863,0.0977802224083705
0.499470422741276,0.098498831981525
0.503684280034698,0.0992782214673438
0.507942987040109,0.100118900347935
0.512246751087485,0.101021378105406
0.516595779506807,0.101986164221865
0.520990279628052,0.103013768179419
0.525430458781199,0.104104699460177
0.529916524296226,0.105259467546247
0.534448683503111,0.106478581919735
0.539027143731833,0.107762552062751
0.543652112312372,0.109111887457402
0.548323796574703,0.110527097585795
0.553042403848807,0.112008691930039
0.557808141464662,0.113557179972241
0.562621216752245,0.11517307119451
0.567481837041536,0.116856875078953
0.572390209662514,0.118609101107678
0.577346541945155,0.120430258762792
0.582351041219439,0.122320857526405
0.587403914815344,0.124281406880622
0.592505370062849,0.126312416307554
0.597655614291932,0.128414395289306
0.602854854832572,0.130587853307987
0.608103299014745,0.132833299845705
0.613401154168433,0.135151244384568
0.618748627623612,0.137542196406684
0.624145926710261,0.14000666539416
0.629593258758359,0.142545160829104
0.635090831097883,0.145158192193624
0.640638851058813,0.147846268969828
0.646237525971127,0.150609900639824
0.651887063164803,0.15344959668572
0.657587669969819,0.156365866589623
0.663339553716155,0.159359219833641
0.669142921733788,0.162430165899883
0.674997981352697,0.165579214270455
0.68090493990286,0.168806874427467
0.686864004714255,0.172113655853024
0.692875383116862,0.175500068029237
0.698939282440659,0.178966620438212
0.705055910015623,0.182513822562057
0.711225473171734,0.18614218388288
0.717448179238969,0.189852213882789
0.723724235547308,0.193644422043892
0.730053849426728,0.197519317848297
0.736437228207208,0.201477410778111
0.742874579218727,0.205519210315442
0.749366109791263,0.209645225942398
0.755912027254794,0.213855967141087
0.762512538939298,0.218151943393617
0.769167852174755,0.222533664182096
0.775878174291142,0.227001638988631
0.782643712618439,0.231556377295331
0.789464674486622,0.236198388584302
0.796341267225672,0.240928182337654
0.803273698165566,0.245746268037494
0.810262174636282,0.250653155165929
0.817306903967799,0.255649353205068
0.824408093490096,0.260735371637018
0.831565950533151,0.265911719943887
0.838780682426942,0.271178907607784
0.846052496501448,0.276537444110815
0.853381600086647,0.28198783893509
0.860768200512517,0.287530601562714
0.868212505109037,0.293166241475798
0.875714721206186,0.298895268156448
0.883275056133942,0.304718191086771
0.890893717222283,0.310635519748877
0.898570911801187,0.316647763624873
0.906306847200634,0.322755432196866
0.914101730750601,0.328959034946965
0.921955769781067,0.335259081357277
0.92986917162201,0.34165608090991
0.937842143603409,0.348150543086973
0.945874893055243,0.354742977370572
