0.209290472834603,-0.650167772613268
0.291628907027473,-0.866031600402153
-0.0504172253007809,-0.749009991459794
-0.421323141005703,0.0150037964217919
-0.792229056710626,0.779017584303378
-0.914867806509324,-0.0445900363335445
-0.936651276286156,0.262265569247185
-0.958434746062988,0.569121174827915
0.338910636189698,-0.224951213964173
0.358077493247809,0.107717661977558
