-0.964995643104781,0.0343425947182456
0.251765963276101,-0.282598513969791
0.914181103283405,-0.980189424932153
0.786248187621482,-0.359388527058317
0.65831527195956,0.261412370815518
-0.352957281707336,-0.346778560755786
0.0788848862609006,-0.424145386585663
0.510727054229137,-0.50151221241554
0.0384601796645312,-0.652011150979609
0.825617324365194,-0.709303752873505
