-0.85004877494578,0.399563765686266
-0.850723688552152,0.39786796410135
-0.851336682465567,0.396178578156783
-0.85188814688229,0.394495574221885
-0.852378471998584,0.392818918665976
-0.852808048010712,0.391148577858375
-0.853177265114938,0.389484518168401
-0.853486513507526,0.387826705965375
-0.85373618338474,0.386175107618616
-0.853926664942842,0.384529689497444
-0.854058348378098,0.382890417971178
-0.85413162388677,0.381257259409137
-0.854146881665122,0.379630180180642
-0.854104511909418,0.378009146655012
-0.854004904815922,0.376394125201566
-0.853848450580896,0.374785082189625
-0.853635539400605,0.373181983988507
-0.853366561471313,0.371584796967533
-0.853041906989282,0.369993487496022
-0.852661966150777,0.368408021943293
-0.852227129152062,0.366828366678666
-0.8517377861894,0.365254488071462
-0.851194327459053,0.363686352490998
-0.850597143157288,0.362123926306596
-0.849946623480366,0.360567175887574
-0.849243158624552,0.359016067603252
-0.848487138786109,0.35747056782295
-0.847678954161301,0.355930642915988
-0.846818994946391,0.354396259251684
-0.845907651337644,0.352867383199359
-0.844945313531322,0.351343981128332
-0.84393237172369,0.349826019407923
-0.842869216111011,0.348313464407452
-0.841756236889549,0.346806282496237
-0.840593824255567,0.345304440043599
-0.839382368405329,0.343807903418857
-0.838122259535099,0.342316638991331
-0.836813887841141,0.34083061313034
-0.835457643519717,0.339349792205204
-0.834053916767092,0.337874142585243
-0.832603097779529,0.336403630639776
-0.831105576753293,0.334938222738123
-0.829561743884646,0.333477885249603
-0.827971989369852,0.332022584543536
-0.826336703405175,0.330572286989241
-0.824656276186879,0.329126958956039
-0.822931097911227,0.327686566813249
-0.821161558774483,0.32625107693019
-0.81934804897291,0.324820455676182
-0.817490958702773,0.323394669420545
-0.815590678160334,0.321973684532597
-0.813647597541858,0.32055746738166
-0.811662107043608,0.319145984337052
-0.809634596861848,0.317739201768093
-0.807565457192841,0.316337086044102
-0.805455078232852,0.3149396035344
-0.803303850178143,0.313546720608305
-0.801112163224978,0.312158403635138
-0.796608973408337,0.309395333024864
-0.794298250937388,0.308020512126397
-0.791948630353037,0.306650122658136
-0.789560501851549,0.305284130989399
-0.787134255629188,0.303922503489508
-0.784670281882216,0.302565206527782
-0.782168970806898,0.301212206473539
-0.779630712599497,0.299863469696101
-0.777055897456277,0.298518962564785
-0.774444915573502,0.297178651448913
-0.771798157147435,0.295842502717804
-0.76911601237434,0.294510482740776
-0.76639887145048,0.29318255788715
-0.763647124572119,0.291858694526246
-0.760861161935522,0.290538859027383
-0.75804137373695,0.28922301775988
-0.755188150172669,0.287911137093058
-0.749382957732031,0.285299123038732
-0.746431769248202,0.283998922389867
-0.743448706183718,0.282702547818962
-0.740434158734842,0.281409965695334
-0.737388517097838,0.280121142388305
-0.734312171468969,0.278836044267192
-0.728068929020694,0.276276889059998
-0.724902812593814,0.275002764712556
-0.721707552960125,0.273732231028309
-0.718483540315889,0.272465254376578
-0.715231164857372,0.271201801126681
-0.711950816780835,0.269941837647939
-0.708642886282543,0.268685330309672
-0.70530776355876,0.267432245481198
-0.701945838805749,0.266182549531838
-0.698557502219774,0.264936208830911
-0.695143143997098,0.263693189747736
-0.691703154333985,0.262453458651633
-0.688237923426699,0.261216981911923
-0.684747841471504,0.259983725897923
-0.681233298664662,0.258753656978955
-0.677694685202438,0.257526741524337
-0.674132391281096,0.25630294590339
-0.670546807096899,0.255082236485432
-0.66693832284611,0.253864579639784
-0.663307328724993,0.252649941735765
-0.659654214929813,0.251438289142694
-0.652283189102315,0.249023805366677
-0.648566057462524,0.24782090692237
-0.644828366933724,0.246620859266289
-0.641070507712178,0.245423628767756
-0.63729286999415,0.244229181796088
-0.633495843975904,0.243037484720607
-0.629679819853702,0.241848503910631
-0.62584518782381,0.240662205735479
-0.62199233808249,0.239478556564473
-0.618121660826006,0.23829752276693
-0.614233546250622,0.237119070712172
-0.610328384552601,0.235943166769517
-0.606406565928207,0.234769777308285
-0.602468480573704,0.233598868697795
-0.598514518685356,0.232430407307368
-0.594545070459426,0.231264359506322
-0.590560526092177,0.230100691663978
-0.586561275779873,0.228939370149655
-0.582547709718779,0.227780361332673
-0.578520218105157,0.22662363158235
-0.574479191135271,0.225469147268008
-0.570425019005386,0.224316874758965
-0.566358091911764,0.223166780424541
-0.562278800050669,0.222018830634056
-0.558187533618365,0.220872991756828
-0.549970637825184,0.218587512219427
-0.545845788856835,0.217447804297892
-0.541710526102331,0.216310072766894
-0.537565239757936,0.215174283995752
-0.533410320019914,0.214040404353786
-0.529246157084528,0.212908400210315
-0.525073141148043,0.211778237934659
-0.516702111056827,0.209523304464071
-0.508300351316375,0.207275334896578
-0.504088923318344,0.206153877499791
-0.499870983496796,0.205034060186737
-0.495646922047993,0.203915849326736
-0.4914171291682,0.202799211289105
-0.487181995053679,0.201684112443167
-0.482941909900696,0.200570519158239
-0.478697263905512,0.199458397803642
-0.474448447264392,0.198347714748696
-0.4701958501736,0.197238436362719
-0.465939862829399,0.196130529015031
-0.461680875428053,0.195023959074953
-0.457419278165825,0.193918692911803
-0.45315546123898,0.192814696894901
-0.44888981484378,0.191711937393568
-0.44462272917649,0.190610380777121
-0.436085800810692,0.188410741676169
-0.431816738504713,0.187312591930303
-0.427547797711697,0.186215510546602
-0.423279368627908,0.185119463894387
-0.419011841449611,0.184024418342977
-0.41474560637307,0.182930340261691
-0.410481053594547,0.18183719601985
-0.406218573310306,0.180744951986773
-0.40195855571661,0.179653574531779
-0.397701391009725,0.178563030024188
-0.393447469385913,0.177473284833319
-0.384950916172563,0.175296057879029
-0.380709064975553,0.174208508854246
-0.37647201764667,0.173121624623464
-0.372240164382179,0.172035371556003
-0.368013895378343,0.170949716021182
-0.359579670937691,0.168780063026739
-0.355372495893403,0.167695998305757
-0.351172465894824,0.166612396594693
-0.346979971138219,0.165529224262867
-0.342795401819851,0.164446447679599
-0.338619148135983,0.163364033214209
-0.330293148456804,0.161200156114338
-0.326144182854021,0.160118626218498
-0.313758105348057,0.15687526757919
-0.305555305058706,0.154713718053025
-0.301471450917209,0.153633049267913
-0.29739981437285,0.152552406293875
-0.293340785621891,0.15147175550023
-0.289294754860596,0.150391063256298
-0.281243248092056,0.148229419894849
-0.277238552477337,0.147148401515972
-0.273248415637338,0.146067207164087
-0.269273227768321,0.144985803208511
-0.26531337906655,0.143904156018566
-0.26136925972829,0.142822231963571
-0.257441259949803,0.141739997412846
-0.253529769927354,0.140657418735709
-0.249635179857206,0.139574462301481
-0.245757879935622,0.138491094479482
-0.241898260358867,0.13740728163903
-0.234233623024896,0.135238186380048
-0.230429385660207,0.134152836700157
-0.222879024516743,0.131980365086174
-0.219133681130495,0.130893175890721
-0.21540874946292,0.129805306262053
-0.211704619710283,0.12871672256949
-0.208021682068846,0.127627391182351
-0.204360326734875,0.126537278469955
-0.200720943904633,0.125446350801624
-0.197103923774382,0.124354574546675
-0.193509656540387,0.123261916074429
-0.189938532398912,0.122168341754205
-0.182867274178574,0.119978311047102
-0.175893270683478,0.117784213379924
-0.169019643483732,0.115585779707226
-0.165621446485275,0.114484852792107
-0.158904236672511,0.112279410650925
-0.155586004250731,0.111174828163502
-0.15229520708037,0.110068959890616
-0.149032235357693,0.108961772201588
-0.145797479278962,0.107853231465737
-0.142591329040442,0.106743304052383
-0.139414174838397,0.105631956330845
-0.136266406869089,0.104519154670443
-0.133148415328782,0.103404865440496
-0.130060590413741,0.102289055010325
-0.127003322320229,0.101171689749248
-0.123977001244509,0.100052736026585
-0.120982017382845,0.0989321602116561
-0.118018760931501,0.0978099286737807
-0.11508762208674,0.0966860077822784
-0.106490813154595,0.0933037726792058
-0.103692046698804,0.0921727580663917
-0.100927348830915,0.0910398859465488
-0.0981971097471916,0.0899051226889964
-0.095501719643897,0.0887684346630544
-0.090217047163649,0.0864891497832795
-0.0876285451792231,0.0853464856680858
-0.0850764529602807,0.0842017622617808
-0.0825611607030855,0.0830549459336841
-0.0800830586039012,0.0819060030531153
-0.0776425368589914,0.0807548999893939
-0.0752399856646199,0.0796016031118396
-0.07287579521705,0.0784460787897719
-0.0705503557125457,0.0772882933925106
-0.0638104448200619,0.0738010344427601
-0.0616439110504559,0.0726338684379199
-0.0595180792052336,0.0714642732044838
-0.0533886971785056,0.0679405758257975
-0.0495131057141057,0.065578681534554
-0.0458096866575683,0.063206263192598
-0.0440235172729072,0.0620160234259017
-0.0422815615790026,0.0608230517544862
-0.0405842097721183,0.059627314547671
-0.0389318520485178,0.0584287781747756
-0.0373248786044648,0.0572274090051197
-0.034248645340056,0.0548160377528048
-0.0327801659122276,0.053605968408785
-0.0313586315490012,0.052392931745283
-0.0299844324466407,0.0511768941316185
-0.0273796008095714,0.0487356815310804
-0.02614974866739,0.0475104392828459
-0.0249687925711291,0.0462820615617274
-0.0238371227170521,0.0450505147370442
-0.0227551293014229,0.0438157651781163
-0.0217232025205049,0.0425777792542629
-0.0173282250058129,0.0363381270873027
-0.0166048921546996,0.035080016729609
-0.0159343573121433,0.0338184345922273
-0.0147532424377557,0.031284720455678
-0.0142434427984518,0.0300125211951495
-0.0137880019527594,0.0287367156322113
-0.0133873100969422,0.027457270136183
-0.0130417574272638,0.0261741510763843
-0.0127517341399878,0.0248873248221346
-0.0123398364976977,0.0223024162075608
-0.0122187425352109,0.021004266585876
-0.0121547387401811,0.0197022752470186
-0.012148215308872,0.0183964085603084
-0.0121995624375473,0.0170866328950648
-0.0124774291599056,0.0144552201062562
-0.0133380133499167,0.0104779428170335
-0.0142121445039826,0.00780592686227374
-0.014740503178024,0.00646366866426931
-0.0159817577014422,0.00376648367360938
-0.0166954339433461,0.00241148961959308
-0.0183108353688622,-0.000311469759214263
-0.0192133409450016,-0.00167950234536612
-0.0201795700250801,-0.00305194837025722
-0.022304759482109,-0.005810215258979
-0.0234645002515867,-0.00719610338417047
-0.0246895253100581,-0.00858653947082277
-0.0259802248537869,-0.00998155714961644
-0.0302502723591538,-0.0141944360456491
-0.0318075718065484,-0.015608116399812
-0.0334324967205187,-0.0170265464995181
-0.0368867837332407,-0.0198777904582818
-0.0387169262245198,-0.0213106715787003
-0.040616254967429,-0.0227484369673836
-0.0425851601582321,-0.0241911202550122
-0.0446240319931927,-0.0256387550722665
-0.0467332606685744,-0.0270913750498269
-0.0489132363806409,-0.0285490138183738
-0.051164349325656,-0.0300117050085876
-0.0534869896998832,-0.0314794822511487
-0.0583484135210284,-0.0344304294160343
-0.0608879773604739,-0.0359136665997197
-0.0635006294141859,-0.0374021243584739
-0.0746899236969745,-0.0434088337577879
-0.077673869765975,-0.0449238988520926
-0.0838684402757854,-0.0479703297488363
-0.0870798451091226,-0.0495017628126361
-0.0903678499230995,-0.0510387191276284
-0.0937328449139795,-0.0525812323244935
-0.104293672910676,-0.0572424495131303
-0.107970530571805,-0.058807526544291
-0.111726329391156,-0.0603783286107266
-0.115561459564992,-0.0619548893431174
-0.123471274761174,-0.0651254213284866
-0.127546740176047,-0.0667194598428258
-0.13170309773046,-0.0683193915458418
-0.135940737620677,-0.0699252500682151
-0.14026005004296,-0.071537069040626
-0.144661425193575,-0.0731548820937551
-0.149145253268783,-0.0747787228582826
-0.153711924464849,-0.0764086249648891
-0.163095357004611,-0.0796867477270602
-0.167912898740833,-0.0813350356439856
-0.172814844382968,-0.0829895194257116
-0.177801584127279,-0.0846502327029184
-0.18287350817003,-0.0863172091062865
-0.188031006707485,-0.0879904822664963
-0.193274469935907,-0.0896700858142282
-0.198604288051559,-0.0913560533801625
-0.204020851250706,-0.0930484185949797
-0.209524549729611,-0.0947472150893602
-0.215115773684538,-0.0964524764939844
-0.220794913311751,-0.0981642364395326
-0.226562358807512,-0.0998825285566854
-0.232418500368087,-0.101607386476123
-0.244398432468728,-0.105076934244574
-0.250523003401322,-0.106821691354949
-0.256737831183784,-0.10857314879033
-0.27592775759301,-0.113868059353316
-0.289179479713331,-0.117432117916147
-0.295944042716533,-0.119224483545855
-0.302801593943449,-0.121023784915333
-0.302801593943449,-0.121023784915333
-0.309675530884303,-0.122826619614417
-0.316489106534312,-0.124629557169318
-0.329935867776786,-0.128235706987531
-0.336569400276746,-0.130038902321324
-0.343143265300851,-0.131842166651895
-0.34965763630285,-0.133645491514484
-0.362508590055519,-0.137252288976678
-0.368845519713684,-0.139055744646764
-0.375123649164733,-0.140859226989828
-0.387504201260474,-0.144466237835857
-0.393606970812662,-0.146269749409301
-0.399651633972724,-0.148073253796685
-0.405638364194409,-0.14987674253325
-0.411567334931465,-0.151680207154236
-0.417438719637639,-0.153483639194883
-0.423252691766678,-0.155287030190432
-0.429009424772331,-0.157090371676122
-0.434709092108345,-0.158893655187194
-0.451467434636031,-0.164303073225106
-0.456940573830967,-0.166106040190109
-0.462357514625002,-0.167908906856695
-0.473023494825363,-0.171514305435578
-0.478272881139184,-0.173316820418356
-0.483466762867095,-0.175119201243678
-0.488605313462844,-0.176921439446785
-0.493688706380179,-0.178723526562916
-0.498717115072849,-0.180525454127313
-0.508609673599178,-0.184128796741864
-0.513474170340334,-0.185930194862498
-0.518284376671814,-0.187731399572358
-0.523040466047367,-0.189532402406685
-0.532390987745679,-0.1931337685897
-0.536985766975934,-0.194934115008868
-0.541527123065253,-0.196734225693464
-0.550450259636068,-0.2003337059999
-0.554832387025062,-0.20213305869222
-0.559161785088109,-0.203932141790929
-0.563438627278957,-0.205730946831267
-0.571835337859049,-0.209327688877791
-0.575955553155788,-0.211125608954458
-0.580023906395319,-0.212923217113714
-0.584040571031391,-0.214720504890801
-0.58800572051775,-0.216517463820959
-0.59959381261603,-0.221906282882258
-0.610724512701817,-0.227291837589842
-0.614333912845126,-0.229086257578221
-0.634943706671803,-0.239844153376754
-0.641419093396097,-0.243426630105177
-0.647699520561396,-0.247007249701259
-0.650767057943791,-0.248796841912773
-0.65378637579768,-0.250585944446923
-0.659681046734931,-0.254162646624092
-0.662556746725788,-0.25595022933759
-0.66538492100313,-0.257737288514686
-0.668165743020705,-0.259523815690618
-0.67089938623226,-0.261309802400628
-0.673586024091543,-0.263095240179956
-0.676225830052303,-0.264880120563841
-0.678818977568285,-0.266664435087525
-0.681365640093238,-0.268448175286247
-0.68386599108091,-0.270231332695247
-0.686320203985049,-0.272013898849767
-0.688728452259402,-0.273795865285046
-0.691090909357717,-0.275577223536324
-0.70222239808989,-0.284474595766117
-0.70836289825659,-0.289805179151364
-0.710321040189209,-0.291580682832449
-0.712235125483267,-0.293355493681937
-0.714105327592512,-0.295129603235068
-0.71593181997069,-0.296903003027081
-0.717714776071551,-0.298675684593217
-0.719454369348842,-0.300447639468716
-0.721150773256311,-0.302218859188819
-0.725982583297257,-0.307528022769151
-0.727507964262913,-0.309296217220071
-0.728991023127484,-0.311063634191795
-0.730431933344719,-0.312830265219565
-0.73577755681525,-0.3198887605959
-0.737010325602019,-0.3216513349325
-0.738201986463938,-0.323413072536586
-0.739352712854755,-0.325173964943399
-0.740462678228217,-0.32693400368818
-0.741532056038072,-0.328693180306168
-0.742561019738068,-0.330451486332604
-0.743549742781952,-0.332208913302728
-0.744498398623473,-0.33396545275178
-0.74789581904087,-0.340982566042078
-0.748646740676787,-0.342734540914377
-0.749358635832827,-0.344485577477045
-0.750031677962736,-0.346235667265324
-0.750666040520263,-0.347984801814452
-0.752338785296028,-0.353226389379346
-0.752820164101503,-0.354971618324279
-0.753263730603335,-0.356715849706265
-0.753669658255271,-0.358459075060543
-0.754038120511058,-0.360201285922353
-0.754369290824445,-0.361942473826936
-0.754663342649179,-0.363682630309532
-0.754920449439007,-0.365421746905382
-0.755140784647679,-0.367159815149724
-0.75547183413654,-0.370632772724851
-0.755657878745743,-0.374101435316835
-0.755696957854843,-0.375834134832249
-0.755700306105271,-0.377565735207599
-0.755668096950776,-0.379296227978123
-0.755600503845105,-0.381025604679064
-0.755497700242006,-0.38275385684566
-0.755359859595226,-0.384480976013152
-0.754979760985616,-0.387931781491787
-0.754737849930282,-0.38965545087341
-0.754151171587291,-0.393099280597467
-0.753806751207131,-0.394819424010382
-0.753428507959524,-0.396538375170875
-0.751580775369586,-0.403402087993435
-0.751036019590962,-0.405114950920422
-0.750458481667378,-0.40682657080643
-0.749848335052582,-0.408536939186697
-0.747823977598393,-0.413660450645462
-0.747085130756224,-0.415365728355172
-0.74551238625821,-0.418772393821216
-0.741991550712419,-0.425569927926528
-0.740046234924607,-0.428960661129641
-0.735792745469054,-0.43572572124639
-0.734654789527042,-0.437413518920838
-0.732290591525505,-0.440784894190728
-0.731064696373475,-0.442468454856651
-0.729809835058934,-0.44415058625688
-0.727213907757311,-0.447510527401216
-0.725873188677724,-0.449188320215803
-0.723107106929738,-0.452539508006018
-0.721682091168835,-0.454212886052126
-0.720229323421654,-0.455884775579221
-0.718748977141944,-0.457555168122545
-0.717241225783453,-0.459224055217336
-0.715706242799928,-0.460891428398836
-0.714144201645117,-0.462557279202284
-0.712555275772768,-0.464221599162922
-0.707628924387967,-0.469205289340369
-0.705934194182941,-0.470863401282165
-0.704213446529116,-0.47251994005735
-0.700694592690057,-0.475828264248853
-0.698896833412318,-0.477480032735651
-0.697073750500771,-0.4791301941968
-0.693352307591239,-0.482425662183112
-0.689531651591444,-0.485714600489714
-0.683617678488093,-0.490635616666861
-0.679555060643809,-0.493907934507593
-0.675398086414197,-0.49717348565534
-0.671148143429239,-0.500432202392026
-0.668988742287874,-0.502058976694321
-0.666806619318916,-0.503684016999571
-0.662374901713211,-0.506928861759899
-0.660125653983959,-0.508548649285457
-0.657854378242104,-0.510166668954932
-0.650910117478401,-0.515010036179256
-0.646173650224961,-0.51822995319446
-0.643773848936192,-0.519837187967478
-0.641353233811055,-0.521442595631095
-0.638911978303296,-0.52304616772055
-0.610745510236813,-0.54056189188862
-0.605376303339134,-0.543721716169101
-0.60266429511819,-0.545298701420524
-0.599934248320842,-0.54687372412639
-0.597186336400835,-0.548446775821939
-0.59163761100784,-0.551586932323046
-0.588837144442347,-0.553154020199085
-0.583184870842107,-0.556282172878335
-0.577465299641182,-0.559402238362083
-0.571679818469552,-0.562514148932251
-0.568762795279092,-0.564067024962844
-0.565829814957199,-0.565617836870762
-0.553941791430252,-0.571800273980498
-0.544866723138633,-0.576415013751494
-0.541812330100194,-0.577949007946668
-0.538743541014051,-0.579480861836331
-0.535660529333952,-0.581010566955722
-0.529452532006877,-0.584063497024651
-0.526327893267397,-0.58558670504467
-0.523189725748952,-0.587107730435378
-0.520038202905288,-0.588626564732015
-0.516873498190156,-0.590143199469823
-0.507302027353416,-0.594679821682671
-0.494366042897882,-0.600697343947425
-0.491102127545909,-0.602196077483244
-0.487826591406196,-0.603692535277396
-0.474611708044892,-0.609655439742132
-0.464587026486278,-0.614103308029949
-0.461224768379559,-0.615581255159411
-0.454470246507835,-0.618530085180059
-0.447676873450049,-0.621469439784609
-0.440846036836182,-0.624399251254984
-0.41666311709137,-0.634577461539912
-0.406178467474991,-0.638902791461497
-0.402668784109772,-0.64033960466705
-0.399151989754253,-0.641773922047182
-0.392097761887305,-0.644635035472147
-0.388560675283372,-0.64606181458746
-0.381467424003326,-0.648907775299948
-0.377911606234708,-0.650326939967603
-0.367209465859449,-0.6545690696391
-0.363631101557053,-0.655977963203243
-0.360047534255581,-0.657384267829608
-0.356458937408782,-0.658787975053437
-0.349267348894192,-0.661587563434443
-0.342057723643264,-0.664376660628183
-0.338446580876043,-0.66576725386793
-0.33483144928598,-0.667155198916581
-0.331212502326823,-0.668540487309376
-0.320334503772268,-0.672680327905034
-0.313066607875804,-0.675426783168933
-0.309428411230787,-0.676795953866643
-0.30578761339291,-0.678162408655179
-0.294851347259598,-0.682245392918148
-0.291201879187759,-0.683600899422393
-0.287550677191799,-0.684953647693666
-0.283897914725466,-0.686303629267207
-0.280243765242506,-0.687650835678256
-0.272931999041701,-0.690336889153841
-0.265616766219364,-0.693011740402344
-0.261958283459491,-0.69434494402954
-0.258299454405478,-0.695675321705685
-0.254640452511074,-0.697002864966021
-0.24732262401608,-0.699649414380226
-0.243664144322985,-0.700968403604575
-0.24000618560449,-0.702284524554075
-0.236348921314342,-0.703597768763967
-0.225383029551453,-0.707520156308396
-0.2144296319786,-0.711416348464999
-0.207136620863356,-0.713999144046036
-0.196214454165427,-0.717851169337347
-0.192579052407759,-0.71912923242068
-0.188946599977157,-0.720404308722529
-0.18531727032737,-0.721676389778133
-0.17806867318523,-0.724211532291568
-0.174449752600372,-0.72547457681988
-0.152822448484308,-0.732988936512208
-0.14565035548531,-0.735469174216353
-0.142072028597618,-0.736704652065764
-0.134931681314584,-0.739166283435462
-0.131370007826738,-0.740392420026231
-0.127814232379671,-0.741615425934599
-0.120721069422859,-0.744052011845095
-0.11718402882061,-0.745265574917704
-0.11365358007413,-0.746475973448874
-0.106613151963467,-0.748887243027857
-0.103103519506779,-0.750088097146151
-0.0891395809250976,-0.754859444966949
-0.0856681113596836,-0.756044222435255
-0.0753033141154191,-0.759579076635475
-0.0718866038903899,-0.760748062675086
-0.068520709857411,-0.761908188721257
-0.0652054390468513,-0.763059401423135
-0.0587259952144646,-0.76533487339059
-0.0555614362533752,-0.766459025954456
-0.0524467286361801,-0.76757405177061
-0.0493816793932481,-0.768679897488196
-0.0404825522137187,-0.771941820541
-0.0347945548554425,-0.774069557317692
-0.0320234034958337,-0.775119202075921
-0.0214199442295331,-0.779221712054776
-0.0188884011078355,-0.780223055531701
-0.0139671501108747,-0.78219622820822
-0.00693696718705182,-0.785081401266854
-0.00468658595301752,-0.786023022628006
0.00178822010220231,-0.788786830824324
0.0116700162158312,-0.793186457143096
0.0153088957269028,-0.794872710581045
0.0170618561607393,-0.795699853091695
0.0204357832331693,-0.797321902942072
0.0220571358110254,-0.798116703580089
0.0251695838981756,-0.799673589527507
0.0295155079019645,-0.801926329864273
0.0308788549479025,-0.802655006283946
0.0334787654245785,-0.804078683479289
0.0359109175451959,-0.805457104143599
0.0370645666460605,-0.806129209899479
0.0381768550668042,-0.806789841470036
0.0402781217464532,-0.808076468651762
0.0412674859446209,-0.808702357561222
0.0431246409057991,-0.80991901926306
0.0448209844176422,-0.811088503803093
0.0456093343041411,-0.811655421260295
0.0483684240120475,-0.813803014150397
0.049514084537984,-0.814804017520258
0.0513453557190723,-0.816658304075408
0.0517084554474462,-0.817090789462424
0.052965294169488,-0.819064031344132
0.053086375699858,-0.821552430362427
0.0529420176397167,-0.821804483987803
0.0527628598669155,-0.822043249498794
0.0523009170618584,-0.8224807027742
0.0517020910417364,-0.822864363381811
0.0505505729518528,-0.823338059401146
0.0500999643844964,-0.823468599366285
0.0490997512614777,-0.823688321129474
0.0453210377994234,-0.824012779820787
0.0445798092649798,-0.824017484706452
0.0438072544712382,-0.824007941162347
0.0421689379843856,-0.823945895381404
0.041303562230537,-0.823893286442857
0.0394813405501514,-0.823744629715338
0.0344012155912947,-0.823117104895843
0.0332968079409342,-0.822947307467843
0.0321633896668502,-0.822762621399815
0.0206889871216854,-0.82042165509526
0.0148767865271183,-0.818982561633972
0.00864364115036589,-0.817293299340765
0.00702102945619548,-0.816831494756066
0.00200190104782579,-0.815350453760936
-0.00324011498707588,-0.813724851536309
-0.0124579631090276,-0.810690354922588
-0.0143719692163044,-0.810034201506249
-0.0202513870505459,-0.807966272754658
-0.0222563496006594,-0.807243629167087
-0.0326111532580698,-0.803378005412961
-0.034746761383502,-0.802554026042898
-0.041279407094337,-0.799979418378849
-0.0434982528773574,-0.799086814803364
-0.0502759802898081,-0.796305054102531
-0.0572314404350874,-0.793366248072186
-0.0841711974884489,-0.781223737163232
-0.0867264047436367,-0.780011761194098
-0.0918871868952527,-0.77753300667334
-0.102404818613773,-0.772354793477928
-0.105073948265406,-0.771013948933695
-0.107758580666578,-0.769654481189599
-0.110458522847657,-0.768276336894787
-0.129770582503601,-0.758101901939232
-0.132586056017217,-0.756572424607915
-0.138257529234498,-0.753455946469196
-0.155582264593284,-0.743642482982829
-0.158512948679216,-0.741938674645053
-0.179348348124675,-0.729459196381887
-0.182368319673299,-0.727596799291357
-0.18539858379142,-0.725714338527887
-0.188438947509405,-0.723811760740622
-0.194549201866445,-0.719946040691286
-0.197618706566238,-0.717982791727506
-0.20069753898737,-0.715999212336511
-0.213102286492676,-0.707860523483292
-0.216224862976041,-0.705774491693403
-0.222494332683796,-0.701540423165741
-0.225640839968926,-0.699392279726259
-0.257491577537316,-0.676757460270488
-0.263935835659357,-0.671976074485225
-0.26716597424382,-0.669553232075274
-0.276886112455404,-0.662155466565886
-0.302990483057967,-0.641470954740482
-0.309550032336332,-0.636079983747008
-0.322698472546984,-0.625031242467644
-0.325990569788032,-0.622213162748564
-0.332579398108772,-0.616509556575333
-0.335875743249201,-0.613623923419473
-0.358968193694399,-0.592788017289436
-0.365566044381224,-0.586628719785528
-0.372161068270118,-0.580377003594969
-0.38204492688879,-0.570825210631705
-0.39848202070538,-0.554437415829474
-0.431134357450027,-0.519882293852404
-0.469697456057907,-0.475220789688663
-0.491756349489128,-0.447524167361715
-0.504184561449508,-0.431144621940869
-0.519515780271186,-0.410098317969007
-0.528596424419869,-0.397162976240431
-0.55524791600931,-0.356956608638582
-0.563917565653447,-0.343082903722329
-0.586456473669887,-0.304917950760403
-0.59738632166713,-0.285191759530368
-0.60008131753596,-0.28019258013557
-0.615921718591289,-0.249625290417747
-0.633647135262575,-0.212712328659204
-0.636109357414594,-0.207328063623874
-0.670765750746366,-0.123185461784257
-0.677151720342367,-0.105587627500492
-0.693218735027316,-0.0573860281994273
-0.706068463068262,-0.0136726604831321
-0.711212719302319,0.00550557535159848
-0.716131787679237,0.0249522531005994
