0.0553539497974584,-0.785543768848289
0.0864634027766951,-0.660652855437494
0.116440269840339,-0.543823242094053
0.240020702637681,-0.331555115324589
0.172635631030357,-0.333713326260473
0.198673817561485,-0.240115729095956
0.223218802986527,-0.153944842650036
0.24618043350786,-0.0750420195855215
0.267468555327861,-0.00324861256522488
0.38835738690983,0.160132484665728
0.304663657673375,0.119644542691474
0.421286392496336,0.270110829551632
0.440599047909708,0.316136471487566
0.345651150991074,0.254629838674629
0.355004990852995,0.287098343510599
0.362054245430222,0.313567963662678
0.36670876092513,0.334197346468055
0.278492910712211,0.236173126176264
0.3684729594775,0.35856998938746
0.365402334939715,0.362630544175866
0.359576356129119,0.361485450966329
0.350904869248089,0.355293357096036
0.233998117835716,0.251832125338424
0.324664756084233,0.328402756721943
0.30691582220616,0.308021544892522
0.285960765067161,0.283227921751103
0.261709430869611,0.254180534634875
0.234071665815887,0.22103803088103
0.202957316108366,0.183959057826754
0.168276227949424,0.143102262809239
0.12993824754144,0.0986262931656735
0.0878532210867881,0.0506897962332468
0.14978611254653,0.100349007984553
-0.00791858515300822,-0.0549301901494324
-0.0617856725333996,-0.112296384925306
-0.119760421150951,-0.172488517641283
-0.181932984803285,-0.235347940960175
-0.248393517288025,-0.300716007544791
-0.204158305259767,-0.264538869646522
-0.394539103945218,-0.438343481162439
-0.466210230792778,-0.503004432177901
-0.424277300174293,-0.468894971988213
-0.613840365698905,-0.627161150347681
-0.676143068031235,-0.674052653056574
-0.731064517588887,-0.711505520727334
-0.898508880232637,-0.838959015474753
-0.819644630297586,-0.760153158592045
-0.853743779407347,-0.772376832604793
-0.881342647659859,-0.777219679217001
-0.90266147803448,-0.775196150338066
-0.917920513510567,-0.766820697877387
-0.927339997067477,-0.752607773744362
-0.931140171684569,-0.733071829848389
-0.929541280341199,-0.708727318098867
-0.922763566016725,-0.680088690405193
-0.911027271690504,-0.647670398676767
-0.894552640341894,-0.611986894822986
-0.873559914950253,-0.573552630753249
-0.848269338494937,-0.532882058376953
-0.818901153955304,-0.490489629603497
-0.785675604310711,-0.446889796342279
-0.748812932540517,-0.402597010502698
-0.708533381624079,-0.358125723994151
-0.665057194540753,-0.313990388726037
-0.618604614269897,-0.270705456607755
-0.454714735065047,-0.120851828114967
-0.517651246083027,-0.188744609458276
-0.463590944125728,-0.151097598245877
-0.407435220898329,-0.116358797820901
-0.349404319380187,-0.0850426600927481
-0.28971848255066,-0.0576636369708155
-0.228597953389106,-0.0347361803645017
-0.166262974874882,-0.016774742183205
-0.00420655486063719,0.0976506303655259
-0.0388306417058535,0.00219227126674418
0.0258262269902359,0.00216894271660024
0.0908165731215656,-0.00487821189615371
0.0653070664237239,-0.110850489857216
0.220916725772516,-0.0421018069470846
0.285586046333422,-0.073307151204058
0.343326603980876,-0.10914209596959
0.403251647117587,-0.149315866593289
0.455534139026306,-0.182087336043015
0.500486134582199,-0.207958468113706
0.538419688660429,-0.227431226600301
0.56964685613616,-0.241007575297738
0.594479691884557,-0.249189478000953
0.613230250780783,-0.252478898504887
0.626210587700003,-0.251377800604475
0.633732757517379,-0.246388148094657
0.636108815108077,-0.23801190477037
0.633650815347261,-0.226751034426553
0.626670813110094,-0.213107500858142
0.497681115168474,-0.305995287025356
0.716203233864361,-0.087889311456331
0.581719340292127,-0.162900558754735
0.559771876901197,-0.144746010237333
0.534862685409736,-0.126718617470029
0.507303820692909,-0.109320344247759
0.585740012366046,0.0188224141781009
0.445485291083809,-0.0784190116180779
0.411849735941865,-0.0659198798005417
0.376812727075211,-0.0560577227077926
0.340686319359009,-0.0493345041347684
0.303782567668425,-0.0462521878764073
0.266413526878622,-0.0473127377276471
0.228891251864764,-0.0530181174834257
0.191527797502016,-0.0638702909386814
0.154635218665541,-0.0803712218883518
0.118525570230503,-0.103022874127375
0.0835109070720657,-0.132327211450689
0.049903284065394,-0.168786197653232
0.0180147560856515,-0.212901796529942
-0.0118426219919977,-0.265175971875756
-0.0393567952923899,-0.326110687485613
-0.0642157089403608,-0.396207907154451
-0.0861073080607465,-0.475969594677208
-0.00366423006051103,-0.46760482037512
-0.119740343218107,-0.666494228464229
-0.225057497051913,-0.876488122224953
