0.538551819282363,-0.580078005960106
-0.905333049649497,-0.897274770013021
0.735882153576761,0.396580120107162
0.704679039144835,0.612558860424433
0.67347592471291,0.828537600741703
-0.0619730353358894,0.395370456151506
0.30746303848736,-0.217013366301427
0.676899112310609,-0.829397188754361
-0.655265070612411,0.607997535626049
-0.882183380989218,0.938896159570143
