0.845747131040768,-0.616237764195277
-0.866205258318067,0.631313191342237
0.178143046275232,-0.342541260209237
0.659801173533927,0.293066737803075
1.14145930079262,0.928674735815386
0.799125202255429,-0.557707844210576
-0.155597346998584,-0.0101602341626321
-1.1103198962526,0.537387375885312
-0.597176912713223,-0.337741754738603
0.525062051604934,-0.149366581293125
