0.247876116355219,0.00084421393630163
0.228494310935314,0.0185324536109561
0.209589562914975,0.0353758177174206
0.191157020566701,0.0513863457843965
0.173191832162996,0.0665760773405853
0.155689145976362,0.0809570519146885
0.1386441102793,0.0945413090354075
0.122051873344312,0.107340888231444
0.105907583443901,0.119367829031499
0.0902063888505684,0.130634170964274
0.0749434378368164,0.141151953558471
0.0601138786751469,0.150933216342791
0.0457128596380619,0.159989998845936
0.0317355289980636,0.168334340596606
0.0181770350276539,0.175978281123505
0.00503252599933478,0.182933859955332
-0.00770284981439162,0.18921311662079
-0.0200339441410234,0.194828090648579
-0.0319656087080585,0.199790821567402
-0.0435026952429948,0.20411334890596
-0.0546500554733304,0.207807712192954
-0.0654125411265632,0.210885950957086
-0.0757950039301913,0.213360104727057
-0.0858022956117126,0.215242213031569
-0.0954392678986251,0.216544315399323
-0.104710772518427,0.21727845135902
-0.113621661198615,0.217456660439363
-0.122176785666689,0.217090982169052
-0.130380997650146,0.216193456076789
-0.138239148876484,0.214776121691276
-0.145756091073202,0.212851018541213
-0.152936675967796,0.210430186155303
-0.159785755287765,0.207525664062247
-0.166308180760607,0.204149491790746
-0.17250880411382,0.200313708869502
-0.178392477074903,0.196030354827216
-0.183964051371352,0.19131146919259
-0.189228378730666,0.186169091494325
-0.194190310880343,0.180615261261122
-0.19885469954788,0.174662018021684
-0.203226396460777,0.168321401304711
-0.207310253346531,0.161605450638905
-0.211111121932639,0.154526205552968
-0.2146338539466,0.1470957055756
-0.217883301115912,0.139325990235504
-0.220864315168073,0.131229099061381
-0.22358174783058,0.122817071581932
-0.226040450830932,0.114101947325859
-0.228245275896627,0.105095765821863
-0.230201074755163,0.0958105665986464
-0.231912699134037,0.0862583891849095
-0.233385000760748,0.0764512731093542
-0.234622831362794,0.066401257900682
-0.235631042667672,0.0561203830875944
-0.23641448640288,0.0456206881987928
-0.236978014295918,0.0349142127629786
-0.237326478074281,0.0240129963088534
-0.23746472946547,0.0129290783651186
-0.23739762019698,0.00167449846047574
-0.237130001996312,-0.00973870387637384
-0.236666726590961,-0.0212984891167286
-0.236012645708428,-0.0329928177318871
-0.235172611076208,-0.0448096501931479
-0.234151474421801,-0.0567369469718095
-0.232954087472705,-0.0687626685391705
-0.231585301956417,-0.0808747753665294
-0.230049969600435,-0.0930612279251847
-0.228352942132257,-0.105309986686435
-0.226499071279382,-0.117609012121579
-0.224493208769307,-0.129946264701915
-0.22234020632953,-0.142309704898741
-0.22004491568755,-0.154687293183357
-0.217612188570864,-0.16706699002706
-0.215046876706969,-0.179436755901149
-0.212353831823366,-0.191784551276923
-0.20953790564755,-0.204098336625681
-0.20660394990702,-0.21636607241872
-0.203556816329275,-0.228575719127339
-0.200401356641812,-0.240715237222838
-0.197142422572128,-0.252772587176513
-0.193784865847723,-0.264735729459665
-0.190333538196094,-0.276592624543592
-0.186793291344739,-0.288331232899591
-0.183168977021156,-0.299939514998962
-0.179465446952843,-0.311405431313003
-0.175687552867298,-0.322716942313012
-0.171840146492018,-0.333862008470289
-0.167928079554503,-0.344828590256132
-0.16395620378225,-0.355604648141838
-0.159929370902756,-0.366178142598708
-0.15585243264352,-0.376537034098039
-0.151730240732041,-0.38666928311113
-0.147567646895815,-0.396562850109279
-0.143369502862341,-0.406205695563785
-0.139140660359116,-0.415585779945947
-0.134885971113639,-0.424691063727062
-0.130610286853409,-0.43350950737843
-0.126318459305921,-0.44202907137135
-0.122015340198676,-0.450237716177119
-0.11770578125917,-0.458123402267036
-0.114472304531943,-0.463818482648211
-0.110307910154603,-0.471108312968598
-0.106435256389276,-0.478047804513345
-0.102852172855955,-0.484638634422519
-0.0995564891746327,-0.490882479836186
-0.0965460349653019,-0.496781017894414
-0.093818639847955,-0.502335925737268
-0.0913721334425847,-0.507548880504815
-0.0892043453691836,-0.512421559337122
-0.0873131052477442,-0.516955639374254
-0.0856962426982592,-0.52115279775628
-0.0843515873407213,-0.525014711623264
-0.083276968795123,-0.528543058115274
-0.0824702166814569,-0.531739514372376
-0.0819291606197156,-0.534605757534637
-0.0816516302298919,-0.537143464742123
-0.0816354551319782,-0.539354313134901
-0.0818784649459673,-0.541239979853037
-0.0823784892918517,-0.542802142036598
-0.083133357789624,-0.54404247682565
-0.0841409000592768,-0.544962661360259
-0.0853989457208029,-0.545564372780493
-0.0869053243941947,-0.545849288226418
-0.0886578656994449,-0.5458190848381
-0.0906543992565461,-0.545475439755606
-0.092892754685491,-0.544820030119002
-0.0953707616062721,-0.543854533068356
-0.0980862496388821,-0.542580625743732
-0.101037048403314,-0.540999985285198
-0.104220987519559,-0.539114288832821
-0.107635896607611,-0.536925213526667
-0.111279605287463,-0.534434436506802
-0.0980729841550298,-0.503880465342549
-0.140427491127147,-0.541174945345121
-0.12270001292332,-0.53171045528791
-0.119125114900236,-0.511913836752851
-0.132854179263452,-0.517513725604147
-0.0934276263227279,-0.496372949081902
-0.168440151336406,-0.484236806791541
-0.148405614430165,-0.503848215462285
-0.143997948642,-0.49945033568233
-0.159823186033317,-0.493302042868706
-0.165840445142474,-0.487603238242415
-0.169146753482916,-0.451683401953911
-0.186824451853307,-0.505258117171827
-0.185100071140179,-0.468824076726334
-0.172875495413571,-0.468817824628036
-0.174348029400869,-0.462487388926185
-0.206125892163081,-0.447556013695838
-0.206184350974442,-0.465762508680654
-0.214676783238075,-0.397220302017264
-0.215373427570782,-0.412598684585304
-0.198098248107864,-0.387932083512046
-0.244934643834482,-0.406701339995633
-0.246764970140697,-0.393862506173531
-0.267381332139504,-0.38058657769662
-0.263189910896479,-0.372320668191816
-0.279214522780977,-0.369271243335817
-0.304314726366038,-0.343069875540879
-0.297384339763854,-0.349010972854155
-0.299446180961856,-0.386051035679287
-0.342031670930752,-0.329485930162408
-0.325877578575039,-0.316726775093467
-0.33569691354857,-0.305467073189984
-0.345673425573657,-0.293961015194987
-0.355804944270292,-0.28221027824854
-0.366089299258468,-0.270216539490711
-0.376524320158177,-0.257981476061566
-0.387107836589413,-0.245506765101171
-0.397837678172167,-0.232794083749593
-0.408711674526433,-0.219845109146899
-0.419727655272202,-0.206661518433155
-0.430883450029468,-0.193244988748428
-0.442176888418224,-0.179597197232784
-0.453605800058461,-0.165719821026289
-0.465168014570172,-0.151614537269011
-0.476861361573351,-0.137283023101015
-0.488683670687989,-0.122726955662368
-0.500632771534079,-0.107948012093138
-0.512706493731614,-0.0929478695333889
-0.524902666900587,-0.077728205123189
-0.53721912066099,-0.0622906960026043
-0.549653684632816,-0.0466370193117014
-0.562204188436057,-0.0307688521905468
-0.574868461690706,-0.014687871779207
-0.587644334016755,0.00160424478225148
-0.600529635034198,0.0181058203537622
-0.613522194363026,0.0348151777952584
-0.626619841623233,0.0517306399666739
-0.639820406434811,0.068850529727942
-0.653121718417753,0.0861731699389961
-0.666521607192051,0.10369688345977
-0.680017902377698,0.121419993150197
-0.693608433594686,0.13934082187021
-0.707291030463008,0.157457692479744
-0.721063522602657,0.17576892783873
-0.734923739633626,0.194272850807104
-0.748869511175906,0.212967784244799
-0.762898666849491,0.231852051011747
-0.777009036274373,0.250923973967883
-0.787643804248101,0.265350056654568
-0.801037238749968,0.284023361209775
-0.812823108960287,0.301449653046643
-0.82303653978499,0.317651113207754
-0.831712656130008,0.332649922735691
-0.838886582901274,0.346468262673036
-0.84459344500472,0.359128314062374
-0.848868367346277,0.370652257946286
-0.851746474831877,0.381062275367355
-0.853262892367453,0.390380547368164
-0.853452744858935,0.398629254991295
-0.852351157212257,0.405830579279333
-0.849993254333349,0.412006701274858
-0.846414161128145,0.417179802020455
-0.841649002502575,0.421372062558706
-0.835732903362571,0.424605663932193
-0.828700988614066,0.426902787183499
-0.820588383162992,0.428285613355208
-0.811430211915279,0.428776323489902
-0.801261599776861,0.428397098630164
-0.790117671653669,0.427170119818576
-0.778033552451636,0.425117568097722
-0.765044367076692,0.422261624510183
-0.751185240434769,0.418624470098544
-0.736491297431801,0.414228285905386
-0.720997662973718,0.409095252973293
-0.704739461966453,0.403247552344847
-0.687751819315937,0.396707365062631
-0.670069859928102,0.389496872169228
-0.651728708708881,0.38163825470722
-0.632763490564205,0.373153693719191
-0.613209330400006,0.364065370247723
-0.593101353122216,0.354395465335399
-0.572474683636766,0.344166160024801
-0.55136444684959,0.333399635358513
-0.529805767666618,0.322118072379117
-0.507833770993783,0.310343652129197
-0.485483581737016,0.298098555651334
-0.462790324802249,0.285404963988112
-0.439789125095415,0.272285058182113
-0.416515107522445,0.25876101927592
-0.393003396989271,0.244855028312117
-0.369289118401825,0.230589266333285
-0.345407396666039,0.215985914382007
-0.321393356687844,0.201067153500867
-0.297282123373174,0.185855164732447
-0.273108821627958,0.17037212911933
-0.248908576358131,0.154640227704098
-0.224716512469622,0.138681641529335
-0.200567754868365,0.122518551637623
-0.176497428460291,0.106173139071545
-0.152540658151333,0.0896675848736842
-0.128732568847421,0.0730240700866225
-0.105108285454488,0.0562647757529432
-0.0817029328784662,0.039411882915229
-0.0585516360252868,0.0224875726160626
-0.0356895198008821,0.00551402589802696
-0.0131517091111839,-0.0114865761962953
0.00902667113787589,-0.0284920526243213
0.0308104960403654,-0.0454802223434683
0.0521646406903526,-0.0624289043111535
0.0730539801819058,-0.0793159174847942
0.0934433896090929,-0.0961190808218075
0.113297744065982,-0.112816213279611
0.132581918646642,-0.129385133815621
0.151260788445139,-0.145803661387256
0.169299228555543,-0.162049614951932
0.186662114071922,-0.178100813467066
0.203314320088343,-0.193935075890077
0.219220721698875,-0.209530221178381
0.234346193997585,-0.224864068289396
0.248655612078542,-0.239914436180538
0.262113851035815,-0.254659143809225
0.27468578596347,-0.269076010132874
0.286336291955577,-0.283142854108902
0.297030244106202,-0.296837494694726
0.306732517509415,-0.310137750847765
0.315407987259284,-0.323021441525434
0.323021528449876,-0.335466385685152
0.32953801617526,-0.347450402284335
0.334922325529503,-0.3589513102804
0.339139331606674,-0.369946928630766
0.342153909500842,-0.380415076292848
0.343930934306073,-0.390333572224065
0.344435281116436,-0.399680235381833
0.343631825026,-0.40843288472357
0.341485441128832,-0.416569339206692
0.337961004519,-0.424067417788618
0.333023390290573,-0.430904939426764
0.326637473537618,-0.437059723078548
0.318768129354204,-0.442509587701387
0.309380232834399,-0.447232352252697
0.298438659072271,-0.451205835689897
0.285908283161888,-0.454407856970403
0.271753980197318,-0.456816235051633
0.255940625272629,-0.458408788891004
0.23843309348189,-0.459163337445933
0.219196259919167,-0.459057699673837
0.198194999678531,-0.458069694532134
0.175394187854048,-0.456177140978241
