0.396290862124954,0.202850395332009
0.390333993855632,0.205209354858465
0.423674111001489,0.183591803074014
0.400908635521396,0.179138918184819
0.410299872695897,0.186808904300577
0.411823647262148,0.193538696480903
0.390310560928895,0.166801401852724
0.420191848475582,0.175219917948816
0.405833424037779,0.16315439355251
0.403197727787341,0.173508900433353
0.429564972037778,0.164003161989832
0.465150676665512,0.176755244485903
0.405966448808889,0.154368477252304
0.45882111292119,0.179841501940177
0.449890968868283,0.117317054409309
0.457489391373528,0.13795300527626
0.451333591487981,0.10466334917067
0.431807700965247,0.124072227533875
0.423487595438663,0.146735576479507
0.454644164607743,0.132525618036249
0.433250072947671,0.116546672071243
0.459611889660031,0.125961667588083
0.489332388385344,0.104768570699014
0.423216868665148,0.0948456547946679
0.466660139400719,0.116401782866931
0.468903079745525,0.113290533570051
0.471093232189832,0.110216599310149
0.473230866863965,0.107179755426361
0.443125898795209,0.10331023654468
0.456355373805126,0.123791529057938
0.493956585781989,0.086362244949133
0.481261630465318,0.0953987904350735
0.483140728243496,0.0925440285188971
0.48913878349822,0.103989234699387
0.479007033908855,0.103362205442408
0.488473720170079,0.0841932985924929
0.49015085077738,0.0814801583548532
0.509267754510233,0.0675027569189247
0.514795915880772,0.0612889125051758
0.447845505268259,0.0531224661371891
0.499763017224625,0.0627005128947824
0.499176943177708,0.0659251729157305
0.500511031253569,0.0634512211722651
0.504267849817388,0.110214593172481
0.511963496992685,0.0487912826518942
0.502071333403539,0.058609941894056
0.529303844508384,0.0257088063337552
0.515190539417031,0.016661826668352
0.505047520342031,0.0597024819098844
0.503186026183634,0.0307146010879924
0.50948110684192,0.0448384968033001
0.510393589618054,0.0426558975415639
0.503724676518998,0.0157942466963497
0.506215089072517,0.0392304929578911
0.490111326616339,0.0299454352894349
0.513591278209184,0.0342357458224769
0.487610541553452,0.00985743429160266
0.524297726177374,0.0584824609497329
0.477352835548761,0.0345603236840236
0.516078345034571,0.0263012029064896
0.537276502452208,0.000693870579056538
0.517060797891653,0.0225115415323779
0.511315365282083,0.0317089409526892
0.472906950770952,0.0173280173199104
0.518214204415121,0.0170440072066224
0.508862055853874,0.0167606517548483
0.518772778443146,0.0135410017696465
0.518619735763847,0.0331029646189656
0.519300496610297,0.00849502656719394
0.531820849695011,-0.00353188460457842
0.506258683992183,0.00910833046333336
0.519462526455435,0.00369389904761851
0.533451598262521,0.0282486211130945
0.518407456356482,-0.00660523906047542
0.545791029467845,0.0168372944493409
0.529606294339991,-0.0126858953023493
0.551187575432949,0.0395435385158867
0.519183001561436,-0.0108805156652445
0.499107730386152,-0.00692622921530911
0.535885001543115,-0.003713690036428
0.484665056082869,-0.0335281632275222
0.535984191484625,-0.0269674995051282
0.51611684990544,-0.0144296124908405
0.515597756867848,-0.0156521631889251
0.515042624010038,-0.0168513278236006
0.487581385580426,-0.0268543115003483
0.523089351876538,-0.0133547971117371
0.557906243551118,-0.04089458770007
0.518946472109768,-0.0351392802381015
0.511735816979159,-0.0225042231760819
0.534876391122167,-0.0148092541747323
0.53050851948951,-0.0442718484002362
0.522553127152856,-0.0160230758876977
0.501860647315113,-0.0804079932079083
0.456279357414629,-0.0732635344339053
0.50108021604693,-0.0837158253982167
0.506165000112077,-0.0449795450541375
0.51102270608546,-0.0255557324980401
0.515099915364308,-0.0364242291231073
0.482920502401217,-0.0356316061005641
0.491707327549982,-0.0402008558079904
0.545575530147162,-0.0232876963767817
0.509399987992911,-0.0169730611289313
0.461786025079443,-0.0190520666301248
0.496787605311745,-0.0362695249317843
0.506830861144464,-0.0799775514067144
0.494258370405062,-0.0377709893327284
0.492948877652515,-0.0384942809074634
0.510953342869725,-0.0509778245554213
0.507845371351923,0.00648709822671221
0.487418041021925,-0.0412097517883171
0.506751233133553,-0.0498708945577833
0.484480685158968,-0.0424640152299884
0.482969968296718,-0.0430660652641592
0.481431585654391,-0.0436516937217055
0.484002482514705,-0.068935658299482
0.478272903550812,-0.0447745845503806
0.504533262128881,-0.0663404341521597
0.44006532333822,-0.046760205149188
0.469910956263406,-0.0473101602916207
0.468160972072234,-0.0477725039272755
0.455551322894086,-0.101752746252424
0.476812810715217,-0.0495224147757176
0.453646391888043,0.00523998697049264
0.460911390539483,-0.0494801287900517
0.432544322116464,-0.0379151011613818
0.462085308410891,-0.0392394720888326
0.447498096686245,-0.103806946790152
0.436267787271114,-0.041760740553937
0.464282629785398,-0.0253565102169911
0.450479045788385,-0.0520467531816251
0.435927630258225,-0.0361187605973918
0.420930586265206,-0.0344100134349809
0.407846017860599,-0.0696849195761257
0.485825235643409,-0.0378102662150076
0.436913007065765,-0.0533644219619114
0.434770772277811,-0.053612525784651
0.439961845631909,-0.0341687351221667
0.430424645657513,-0.0540772169085143
0.437852826973467,-0.0778983978321507
0.449079459870276,-0.0629895036392364
0.423755365070996,-0.0546988322032294
0.421493327888514,-0.0548868235739692
0.419212269096422,-0.0550655825157331
0.407334954596671,-0.058182777766563
0.422937904540648,-0.0479140148427643
0.412257664365758,-0.0555487113758098
0.408611355942919,-0.0304710019514657
0.373960766011427,-0.058324841417429
0.41408499669456,-0.0537950899525333
0.384675201701543,-0.0129536089274623
0.433646580617544,-0.0289751713534357
0.397871339039127,-0.0562960227302565
0.395414921318928,-0.0563948137297825
0.371154855523396,-0.0388552102340702
0.407250821992653,-0.0748898720131206
0.387950447623572,-0.0566515184149866
0.351209847954043,-0.0702722125812019
0.377571277581473,-0.06134791743456
0.425537429955288,-0.0974006878454986
0.386562866822178,-0.0408339472173069
0.375208464168403,-0.0569606114975879
0.359092490168293,-0.044726079805315
0.370012555940284,-0.0570479289966636
0.36739444345195,-0.0570847035895222
0.39231862848735,-0.0486673004080631
0.370422323276072,-0.0592519580122092
0.356793907377755,-0.0571911496699221
0.354113102480627,-0.0572087214215836
0.342127685030083,-0.0501042318763916
0.366724399045095,-0.0562848627695537
0.347094911244386,-0.0470341894526622
0.320721618437812,-0.0533188056909975
0.340538559239863,-0.0572535746124607
0.321324106039646,-0.080887256565488
0.340563276550896,-0.0715417735779452
0.332267142983085,-0.0572541698641475
0.321863882182769,-0.0609950533345513
0.32670458002055,-0.0572473457701559
0.32390962329286,-0.0572424414272173
0.303384115407313,-0.0676256041737475
0.331121189918933,-0.0312949881341622
0.315473293688021,-0.0572244551449988
0.312644931113576,-0.0572181175026718
0.309808892403261,-0.0572119831876576
0.306965447687401,-0.0572062768608204
0.274538300632955,-0.0425756011943113
0.307584388385497,-0.0758395938669579
0.298393378809833,-0.0571939724180106
0.260450927202961,-0.0781192740408517
0.298548088550522,-0.0456229150656471
0.289764380574146,-0.057193607659898
0.319260867026173,-0.0160952114514848
0.282554640290039,-0.0556001139851145
0.281085746499176,-0.057211248429811
0.249338480570797,-0.0555751333502963
0.258097713699472,-0.0486211618172628
0.269102732139328,-0.0787532240737541
0.236860138304024,-0.0626786696183035
0.253695151958046,-0.0452000258368822
0.263608744906709,-0.0573248099270284
0.250285501401512,-0.0698100361179411
0.23131260693829,-0.0728753978275775
0.259215319849957,-0.0290356687036365
0.260188111395229,-0.0874118053126326
0.226359057352576,-0.0413706253110321
0.24602072218309,-0.0575831836562907
0.24308268831803,-0.0576437322679431
0.279408334840186,-0.0390770069001344
0.246023874658247,-0.0535609441650479
0.258366362344542,-0.0793225708018708
0.254237374462805,-0.081419181173525
0.222498174336374,-0.0582368188232779
0.219558160056314,-0.058348419443518
0.216619113810851,-0.0584674125387196
0.215824790110897,-0.0905428662103349
0.210953745775993,-0.0935613234232404
0.237220263468963,-0.0787378447112926
0.209756476754738,-0.0737107123662992
0.209546908948582,-0.0510544467900821
0.203930685430512,-0.0553157003065597
0.188145482547601,-0.100989088507636
0.199812405759789,-0.0877753130615589
0.187660725216537,-0.0595136732065382
0.206179300363192,-0.082924809929391
0.175725382990242,-0.061035335826355
0.177345284185381,-0.0719471614205748
0.169946452935566,-0.0615600019217551
0.166141777219656,-0.0614730696506295
0.164189763881522,-0.0621295148557546
0.150514642586577,-0.0682629269355807
0.155601159457365,-0.0630718036442484
0.200483458065895,-0.0702574551850773
0.174495701668473,-0.0783987453316953
0.168466193111148,-0.0560177207204789
0.144247700125127,-0.0645019273085184
0.14735972047033,-0.11455711505015
0.138617838476312,-0.0652954924417536
0.135992842057227,-0.070342937613358
0.12324927305477,-0.0563274234829487
0.130237708957079,-0.0665890241374222
0.127462656426374,-0.0670486157449853
0.0993263267372071,-0.0757640472376935
0.116461269657474,-0.0690350450099796
0.113736979455364,-0.0695697913392338
0.108321557751573,-0.0706866234393969
0.0773973713128163,-0.0891770389837828
0.0909615327415261,-0.0607549146716927
0.106446349460303,-0.0457993799364054
0.0710841932171523,-0.0288540084069264
0.092360011627178,-0.0744320108553342
0.0816715296531437,-0.079108326082668
0.0841244989384277,-0.0557140348105857
0.0529285002885434,-0.0172457944828265
0.0819778571262338,-0.0772759845979538
0.0879748408022405,-0.0905148603748327
0.0636480348265969,-0.100461664501628
0.0942448415498058,-0.0229783105182186
0.100540757525052,-0.0856004628377239
0.069321789441588,-0.0812466560219248
0.0668361606001345,-0.0820984641481187
0.0643663569612697,-0.0829700210967952
0.0477756016452775,-0.0878746236547755
0.0700298541733121,-0.100247687295699
0.0473377583492927,-0.0643542762965109
0.0425515889655779,-0.0777604429247264
0.0674574701550578,-0.0456607946443628
0.0498949916807587,-0.0886266690693743
0.0513005460092026,-0.0881991227997996
0.0452100507827928,-0.0906803935992638
0.0510392774690709,-0.0750652722732326
0.0383202375781561,-0.093924822823199
0.0546194732877947,-0.0538509694233339
0.0126441323772091,-0.11273066711388
0.0272221526384028,-0.0997840953982949
0.00918443430787736,-0.0364233195620045
0.0229239496772586,-0.102291208202482
0.0311485100051857,-0.113744671639622
0.0187095774313296,-0.104894390522265
0.0166345031523885,-0.106232569402665
0.00509195517571585,-0.083995494441895
-0.0101345608520829,-0.102203004636187
-0.0043821947942853,-0.094550504332697
0.0312495163067347,-0.127206542524294
0.0144825394716657,-0.134058252998662
0.0188008913282091,-0.112342835972075
-0.0401087468603574,-0.12825918188861
-0.0219865891097198,-0.134449097459781
-0.0170344803347155,-0.0778436795986558
-0.0232865626453147,-0.107540457865961
-0.0248634062795491,-0.160373278826305
-0.0167327376483094,-0.134759708442066
-0.018348026315395,-0.136605440198544
-0.0309886570981298,-0.152615674133213
-0.0214976318812379,-0.140384008126084
-0.0172695856350439,-0.172826383443553
0.0256997914193697,-0.148942133539209
-0.0288867043986643,-0.150349021203676
-0.0142662826819937,-0.148982830003104
0.002118400582443,-0.126979318389063
-0.0138248097008727,-0.142866629622465
-0.0783050615924768,-0.16658512743041
-0.0591058268511354,-0.194283052347434
-0.0403504821102677,-0.170228466525118
-0.0414717237708581,-0.172597070763528
-0.00895617120745481,-0.183755784829045
-0.044645411661952,-0.179900457037788
-0.0315712511228264,-0.157094541631389
-0.088121863975591,-0.166073806080571
-0.0475283711801608,-0.187504921528738
-0.0318171864088437,-0.208604982328206
-0.0432607662685769,-0.154527219043186
-0.0516674311023306,-0.200864566847439
-0.0537394577563325,-0.209301561816947
-0.0645756196340096,-0.214904786578458
-0.030536220531905,-0.243563644903449
-0.0449260030967384,-0.24768992244982
-0.0569238037196941,-0.227151576525975
-0.056939214282029,-0.239565372665889
-0.0663774513233859,-0.190572567015095
-0.058565278927639,-0.24304951956384
-0.0587799164313182,-0.246343396550545
-0.0326959793790609,-0.236739527860254
-0.0319244548403658,-0.239133157417163
-0.060720955210061,-0.249056665092692
-0.0592494477405469,-0.266925548637284
-0.0385630635205726,-0.248765804501795
-0.0889660154460019,-0.288358090550079
-0.0746598247968584,-0.261789404187227
-0.0222815487720721,-0.269033964083648
-0.045955976210806,-0.294919519264545
-0.0648581846697957,-0.32235088881236
-0.0231579336377621,-0.318963751826115
-0.0881493249033563,-0.289992165890823
-0.0614854745264798,-0.293348417713354
-0.0609296599635508,-0.284577231175405
-0.0513420761440792,-0.293745214006187
-0.0755681281976881,-0.320841558117726
-0.0394436704104231,-0.280224798096884
-0.0525393778154868,-0.333216493310175
-0.0521310183405901,-0.359550188402911
0.000766810069699968,-0.338280286072448
-0.049131077353864,-0.350612550834895
-0.0475460517076546,-0.353708304740585
-0.0175982530082292,-0.36378718278028
-0.016290413385295,-0.338542741704441
-0.0570623983924904,-0.369994775668266
-0.0131881822036603,-0.3720723137284
-0.0400983239825426,-0.387563980742293
-0.0525977740997441,-0.379035946905487
-0.0488056151694872,-0.406076160829706
-0.0374044001592269,-0.397205294032115
-0.0347865684305837,-0.406636194654074
-0.0421892395854788,-0.404236982358
-0.0267814739716829,-0.418374416883403
-0.0657174328331232,-0.378705436584023
-0.0308931435405801,-0.456511351995923
-0.0442082635396791,-0.445226886923957
-0.0265016622597113,-0.437567410939413
-0.0681582479227899,-0.407274394717295
-0.0233556955621793,-0.449849219917256
-0.04189475315701,-0.44124262393188
-0.0204440044311301,-0.46155585678811
-0.018041162219657,-0.488117372709947
-0.0580357194248283,-0.482033345321436
-0.00859940492492238,-0.473820644465059
-0.000727053495133903,-0.502314140657869
-0.0152997751052708,-0.483269877141579
-0.0145278845435835,-0.486671443991662
-0.0126035889313494,-0.481274393986219
-0.0152326493102011,-0.492435626975307
-0.0123543676727936,-0.496508259689982
-0.0186229740697984,-0.515642773885269
-0.000355757458728753,-0.494285093725871
-0.0221114900288659,-0.495723258331412
0.000947090702264671,-0.527466617975109
-0.0119381198024846,-0.502499930162485
-0.00487418287983963,-0.535290643885257
-0.00380464201103159,-0.542116189786434
-0.00348732980310156,-0.544277822014164
-0.00318925296682251,-0.546383084664402
0.0161076134973289,-0.558793940643385
-0.00264992860317262,-0.550425473933612
-0.00218491530799236,-0.554245302996489
-0.00179245946919212,-0.557844517255457
0.00906570287356271,-0.558522294582164
0.00153804701606143,-0.583038782649212
0.0312258895635429,-0.587130377418411
0.0197838263883452,-0.576659089617891
-0.000877287993142413,-0.571363034324953
0.0283137860782521,-0.585962057536631
-0.0290042706749927,-0.563270642190456
-0.0339518250225128,-0.567513149739219
-0.00796934826111987,-0.572312850157643
-0.0016111865494516,-0.582806038486064
-0.00210415620062818,-0.584535260140737
0.00300795074249558,-0.575944928975364
0.0282349021663637,-0.584571868869364
-0.00293458787573264,-0.586158387828353
-0.0168246504767586,-0.632965548020802
-0.0179873979347905,-0.593182992324868
0.0170516141142806,-0.626134387664803
-0.00590320110867618,-0.647979276556906
-0.0141961348185009,-0.58330609573096
-0.0275771965938353,-0.56935720883133
0.00988336592971396,-0.561037888018557
-0.0351263280423863,-0.586320358928846
-0.00578941116506425,-0.58690016065787
-0.0126252341775471,-0.614693223709846
-0.0382434553983469,-0.557856668141965
-0.035814940207042,-0.613660672796306
-0.0236985978331437,-0.598469389391624
-0.00889005244621977,-0.578623240753937
-0.0278104051194145,-0.553174152149827
-0.0322179693617365,-0.583801170524249
-0.016315244361394,-0.592919297065783
-0.00177211323171331,-0.599573574830703
-0.0122151717579439,-0.578739406829472
-0.00498561960255298,-0.56508970007256
-0.0131423581894185,-0.576951239963371
-0.0136141995205797,-0.57599546064257
-0.0223120044920406,-0.593521224659154
-0.0244929122435778,-0.605209907022243
-0.0180700251089545,-0.574867643099424
-0.00765516969346734,-0.553691673542731
-0.00967418240995611,-0.542947382998186
0.0201954378610374,-0.567049717131754
0.0163062040883286,-0.57261395329935
-0.0190998571765619,-0.562842167046103
-0.0196197089071972,-0.561412760998153
-0.0497637756814447,-0.587632088509272
-0.0363095123475996,-0.566470116634946
-0.0242523229098142,-0.577696192800431
-0.0227852444309182,-0.55204918250242
-0.00681587082337496,-0.558245216884163
0.0114817994154555,-0.551165853876398
-0.0422364890387415,-0.532917132596039
-0.0254598733605257,-0.543242168243079
-0.0104503402715384,-0.551553241871711
-0.0697782057153909,-0.516951991668427
-0.0222365501077448,-0.506217520052909
-0.0281386232945555,-0.533554820830604
-0.00870075377198247,-0.556037527972472
-0.00636991666721087,-0.539044980473051
-0.00936752712623744,-0.551766464982916
-0.0201955175864994,-0.523765705249142
-0.0166848799011732,-0.485898217003293
-0.0328832967039861,-0.513996182888178
-0.0203721852498798,-0.519907669261245
-0.0291270966796724,-0.505785712577993
-0.059140360939002,-0.508047224121949
-0.0770979144360332,-0.497255992341657
-0.0221104791223253,-0.465886690677429
-0.0272965229231786,-0.468347307219867
-0.0410744950346523,-0.470165639622874
-0.0499734826403418,-0.478587917129425
-0.0305810907097998,-0.453385958978826
-0.0256162518952942,-0.435916448462023
-0.0439517636689414,-0.449724988876381
-0.0602029372967716,-0.430669135003134
-0.0447036450890261,-0.443647401337788
-0.0610154273270377,-0.431680562481039
-0.0623219663128547,-0.436718800805839
-0.0399887993895535,-0.411442836484945
-0.0461024156738545,-0.431188335894997
-0.0863945069026532,-0.425687875005723
-0.0391433732062604,-0.412072805154385
-0.0697659421694857,-0.414638016044859
-0.0223669688630432,-0.406104505669307
-0.0448637354927967,-0.44139681998262
-0.0428943995212228,-0.398074391381634
-0.0493325293151608,-0.391520085616349
-0.0555789339267707,-0.342354549182883
-0.0383894265593146,-0.343968554363118
-0.0179180976098975,-0.396729656324842
-0.060734963144633,-0.36834997161106
-0.0366041728255616,-0.317499357550598
-0.0506313920884129,-0.359705142226232
-0.0741739777332347,-0.355397434450606
-0.0335539929296294,-0.349140610452923
-0.0463585409962298,-0.367834483414092
-0.0665933259253927,-0.34868421036744
-0.0193251036160533,-0.372786040061275
-0.0965881792096929,-0.333219374331877
-0.0665685258764771,-0.3400958895479
-0.0716339148782675,-0.343092223308925
-0.0850471102457866,-0.339664240942387
-0.0503256216728865,-0.307155966366168
-0.0492501902014822,-0.308642612002746
-0.0500215358143485,-0.299377338388981
-0.0792012639544347,-0.344764097127833
-0.0531146292463951,-0.307639494018747
-0.0518957380919297,-0.290222429311273
-0.0394607653110599,-0.27142716647813
-0.0717212338323075,-0.239601321050624
-0.051008385163194,-0.266434843033081
-0.0549531663833794,-0.23194755529517
-0.0386125506054024,-0.212171413360025
-0.0277390833266592,-0.246308489573944
-0.0677333714173003,-0.223916401140845
-0.0504078756177119,-0.202976272878573
-0.0283149650177156,-0.17001960828019
-0.0714086287741812,-0.176902482289866
-0.0383145580007523,-0.189084656568512
-0.0380293262707246,-0.171569805664026
-0.0519057724614639,-0.178703226741234
-0.0360347936957063,-0.176339603332195
-0.0398616237963828,-0.143602711483116
-0.0500078043312712,-0.161407763681993
-0.0710712747002344,-0.158055675550141
-0.0114716709832676,-0.165608353358465
-0.0244541506858765,-0.163106516968429
-0.0317946878481041,-0.13818031116052
-0.0363260596956582,-0.141546156674971
-0.0257698259109956,-0.129024666664966
-0.0224027251891042,-0.0775819286840669
-0.0474451255144856,-0.119824526674052
-0.0200583578167321,-0.107276585680499
-0.0212734137462493,-0.102211940966096
-0.0175815887273896,-0.098545340621144
-0.0183972166339825,-0.115185076494216
0.00400740073043723,-0.0836255611671601
-0.00325270233727889,-0.0694704026168577
-0.00501925838981584,-0.0590925608561076
0.0149923453621526,-0.0279225342958416
0.00133670998341685,-0.0415044209833416
0.00300255850897953,-0.0371050719941694
0.00642801768938882,-0.0283052994177696
0.00354522171696075,-0.045496751240374
-0.0154385589271192,0.0197817023496327
0.0192816690394244,-0.00478778481747236
0.0037201997915959,0.0217151708049947
0.025487548570023,0.0156518298465384
0.0217302668728227,0.0391476217432017
0.0106114879690585,0.00628138589139106
0.0385321851164984,0.0419226860236857
0.0455257533115326,0.0550082353603176
0.0335180237933897,0.0455568043491328
0.0409816089678665,0.0729464245261994
0.10114663756273,0.0542294253423874
0.0657734273073309,0.098551048000615
0.0711968663553685,0.0982864690288649
0.0954470872120183,0.107676600237577
0.0787890280304746,0.109558082881885
0.0838740618787138,0.142229041861229
0.105193030872234,0.138253461732998
0.0822894957479772,0.124433623071307
0.114247010620873,0.114250882310502
0.110481128805079,0.165796876605333
0.0913263140059211,0.157215513563145
0.116892578162991,0.161796731635276
0.120260889390595,0.165953853237778
0.122261388738213,0.178418465376789
0.137729081263097,0.186569748022348
0.150702582009273,0.185686917841763
0.175886324284982,0.226855701330589
0.170355866849121,0.200912351061168
0.241332679619559,0.26021810316059
0.175796751131146,0.281036900284318
0.178216502478266,0.25268799104885
0.214049556413983,0.261868474063277
0.212779405932114,0.266147408503022
0.244858140238844,0.298476470222819
0.241585339843509,0.284464086947438
0.266314997045259,0.334367326300478
0.251146072108856,0.291852269854322
0.255999075483737,0.29551832550868
0.260900795955438,0.299165366396579
0.258219205334497,0.272699607272094
0.270851264995344,0.306401431171787
0.280859351904044,0.326976639031644
0.291209013140162,0.310698330576603
0.314941354645098,0.311853302995762
0.289454557613871,0.29289071785582
0.327037567760135,0.317454859712591
0.352427587534651,0.350806334711039
0.366977971477355,0.346888453098363
0.323875744467121,0.322841945247195
0.381574540296256,0.343933108523142
0.375478781102889,0.370930150528563
0.401365474622468,0.361554765054778
0.397713828586209,0.379371233574923
0.410738815049543,0.369757472591506
0.412463273611207,0.389559326090719
0.431693099623267,0.398528577126624
0.452914222817388,0.399669785166366
0.421252645310488,0.404527437294391
0.464855979203523,0.412943022498662
0.471657503367198,0.415743577042172
0.483167205760292,0.404191943022012
0.474476188752718,0.427643750334332
0.5009421163021,0.419716359512134
0.496398609022449,0.422920268366202
0.513667699009561,0.431950135861484
0.528133901501974,0.437119145568555
0.541898403558715,0.415535581715309
0.57176392777978,0.461610036133586
0.532297913835018,0.417705831211949
0.577277888881679,0.454184123342392
0.589359214924689,0.514331989793679
0.628063742084758,0.473859173864021
0.659254374972669,0.51534092523324
0.668197839583402,0.478880125683994
0.675684659040399,0.487297103103252
0.678231013044185,0.499274093574778
0.726173431891956,0.532231546459122
0.696624336726317,0.490721350931575
0.709349257054826,0.477076393736176
0.718146703293951,0.496819755683985
0.732488143924666,0.505605438506104
0.717448167155421,0.510712059157861
0.746493542539834,0.510005662070329
0.785811065600818,0.506523697406048
0.800355761949983,0.548923283705017
0.812228054441811,0.559491741157916
0.807263299139692,0.528426701631889
0.816784702447146,0.542521404135246
0.819293790130596,0.504323359507129
0.825791945604551,0.556812236344495
0.798293593356004,0.530428945309884
0.807648460615679,0.561073064078835
0.789540745890423,0.553774918750137
0.811630199488087,0.54219671019136
0.839471887915057,0.537599735877014
0.842338251290037,0.538388769078177
0.837116004232527,0.532807513778411
0.850557025439696,0.540620911012476
0.834030111396736,0.531595407163716
0.86271740802525,0.563940831870438
0.891588034631676,0.54125917661374
0.865303743821784,0.544493871566861
0.85338978478178,0.554061107856472
0.850747232335853,0.563451060808062
0.86527948106304,0.531734252161748
0.877837206257297,0.54761037342991
0.915415441985153,0.524915209305947
0.892595652861295,0.550950693713218
0.895183399601073,0.560022200374154
0.899244603905484,0.535329597950481
0.910604582346982,0.526375665408344
0.891984000683677,0.592944441485774
0.881336238445619,0.543550030997229
0.893868056981797,0.548060457923145
0.910401221831255,0.527430939266076
0.888301589418691,0.52361227162626
0.888752493942029,0.557849138792181
0.901220652672034,0.559736339127386
0.909417788554628,0.552943954212401
0.901984322071701,0.523885683466099
0.90568826285771,0.550479465720623
0.90435817946652,0.549913900222765
0.898401720565324,0.544900670427318
0.889452191704872,0.52673011220566
0.897091183919298,0.547209007258688
0.89596758519765,0.546824030456564
0.904656733738853,0.534065038348677
0.890870140259677,0.586446314883217
0.877161174289522,0.540990148603285
0.875399487014234,0.540483821974731
0.873312757360467,0.552894429818508
0.859500965507054,0.551332656377478
0.861852359695806,0.536744084015771
0.858627005531908,0.551073047780549
0.830712210514085,0.532399893533092
0.8389266551771,0.530898854577631
0.833854526744514,0.529672332149185
0.822880871315114,0.527023720387306
0.804642654603018,0.51005067236992
0.797114818003856,0.521377259305427
0.794026499006849,0.520722641532319
0.824762914748122,0.519096522983987
0.764625072496981,0.514786063982446
0.715411330286752,0.537401661783501
0.740925776849744,0.502897973801772
0.736156137503545,0.509513550337391
0.716966713396491,0.546518441670641
0.730255635088076,0.521274400223784
0.718334603857145,0.509518915999182
0.752905514048293,0.479537475803389
0.702437257106803,0.472449754134194
0.702900455167734,0.529900272201944
0.707619958805792,0.474052117156837
0.678284097829535,0.48438034036795
0.634351553952281,0.494089685342076
0.629299188961052,0.48620612385372
0.559966312705028,0.512012430949797
0.534190274904983,0.500924300054953
0.553702257254979,0.462374383486476
0.492247145225715,0.49796914161902
0.508700963974638,0.480931015117902
0.495273807233498,0.469947275771972
0.465068333228784,0.451882509224455
0.445872661873123,0.459157779054553
0.394735569288163,0.468598009646739
0.383308408467271,0.51419643649994
0.330500149272139,0.493483372839273
0.38215248015873,0.447182749793558
0.339606980257444,0.497034901859953
0.271926685982158,0.479665893862547
0.260428910921903,0.480290133722618
0.291503235287654,0.442106072713192
0.193601090615263,0.500988134401521
0.184777919154102,0.486241768424426
0.149418179453633,0.490166854631013
0.13108535960555,0.498745624549426
0.117441753101973,0.506148462713575
0.0879963041681821,0.492939168424086
0.0602006791815564,0.503552121242027
0.0394590094564085,0.495720890313713
0.00249342549375371,0.485686618012363
0.00635626483381173,0.514224864896301
-0.0590380299517266,0.514844365254009
-0.101260494252816,0.542118193754021
-0.148139930688485,0.533717205403189
-0.125058252374763,0.549583088577438
-0.148781710068821,0.557533114822255
-0.149129823519354,0.591002100528942
-0.172416224155234,0.565979640450882
-0.184195551351899,0.570392643022379
-0.193635040743444,0.602076520715591
-0.236017128673014,0.62501298965902
-0.25422518163972,0.599616537755897
-0.26579214298554,0.600732983829205
