-0.78027950706878,0.673472455088723
-0.765679696031264,0.637688082562266
-0.674948012187966,0.488290767723112
-0.581251055100281,0.355890516270047
-0.551660368408558,0.293780417516087
-0.493401479487274,0.240390698911208
-0.470669817349925,0.123305172591406
-0.428714959029462,0.0898988109127396
-0.378740689753431,-0.0153996243428376
-0.323323949233295,-0.0585780843880676
-0.322834712442926,-0.163851813243493
-0.252646467000513,-0.176499886406027
-0.259101062943744,-0.180538132008796
-0.163033105377167,-0.254780228204896
-0.139684413405688,-0.28954843374483
-0.104748923340194,-0.318166352834845
-0.117768774836853,-0.343320903533938
-0.053679777173573,-0.318722664729694
-0.0572662122875813,-0.394431837941265
0.0624738157916401,-0.397110274410217
0.0958530398291576,-0.394313433014896
0.0351718303493873,-0.39753032333798
0.106134222222176,-0.427073799847951
0.0887000230560144,-0.448994266810771
0.15684955660994,-0.439176617040871
0.144847565699905,-0.449841023641737
0.203953956664752,-0.447899094688264
0.226259055610227,-0.451856935899203
0.250643967249394,-0.499768718783085
0.228555725303897,-0.49083755171349
0.288699544724975,-0.466265171721702
0.352939559616904,-0.482242871160321
0.329295056009392,-0.461203399016968
0.348510500507465,-0.466434623170838
0.35465604746517,-0.498537298871309
0.387761448554759,-0.493572414881564
0.398105104063268,-0.499781825859031
0.413783604653154,-0.559034001877196
0.428888386125934,-0.540144080157706
0.399310262209932,-0.601376939932404
0.418886240997031,-0.61331208585695
0.480712087612482,-0.654156354018455
0.500298884472273,-0.747156615677048
0.504528896183825,-0.721328017077173
0.509667373974781,-0.721530950930716
0.528339439433767,-0.783047615933103
0.503095388114138,-0.711962614263036
0.55551061728974,-0.750079978845237
0.541703226935144,-0.714041019406858
0.599688707311715,-0.783261879758378
0.60847633095083,-0.723694402455761
0.590594864309803,-0.710010401097749
0.596115792850243,-0.69148671238783
0.60074140869401,-0.641345356920759
0.602542414044218,-0.646329048364842
0.565779630265632,-0.571876125020274
0.61389641281833,-0.630895846939895
0.626871445365382,-0.528785126134663
0.594074408766873,-0.531961640004299
0.58691958415942,-0.500106659952384
0.627501768133786,-0.442313798233406
0.565849470969358,-0.434578212818928
0.574150581067023,-0.362300220434162
0.528207921751494,-0.402622348437314
0.484658635621678,-0.342269678116548
0.483648250738108,-0.30927095356916
0.513291236412487,-0.290818177041632
0.441200351866776,-0.245016859433616
0.386537767123378,-0.234851012213456
0.426204426070629,-0.23927073729967
0.322486072899115,-0.127989884343344
0.280670959473404,-0.192386519323046
0.251572863379526,-0.176691139252278
0.2072312387596,-0.116325884659066
0.112673824411883,-0.142314062337226
0.102241872987636,-0.10191174275814
0.0423563084563442,-0.0950304307371479
-0.00408030060045956,-0.121484595179146
-0.13223629422977,-0.0987654250332811
-0.18887650297609,-0.069930799432505
-0.225622096722098,-0.127587231231768
-0.298709885860709,-0.144777459181999
-0.336518978090227,-0.157171694023537
-0.422744226275769,-0.172252325215751
-0.474357309242998,-0.182861165080537
-0.551134824208075,-0.184748648239968
-0.558441629923805,-0.1986321629591
-0.599366094834438,-0.156179910270587
-0.619225262569007,-0.208221590973869
-0.641712485491731,-0.211103468508915
-0.645327513262053,-0.260602103073913
-0.701570712815308,-0.205185771832393
-0.654372935490975,-0.199922185169084
-0.638744058188436,-0.17579498208525
-0.716354965198152,-0.181069516949576
-0.686967263689344,-0.211827379216347
-0.683420979294749,-0.193226899630997
-0.675891118867912,-0.209647731016751
-0.649187049744799,-0.255277884989428
-0.680241745391355,-0.196552594187187
-0.61729572105038,-0.173956362376044
-0.59072718430541,-0.178912969774108
-0.61624607419041,-0.211195429396667
-0.622387723460322,-0.203196716571169
-0.547572140498648,-0.215178486876917
-0.557595082953086,-0.183679537721575
-0.582756749216771,-0.26315756914433
-0.514579825207245,-0.189821862221721
-0.557046332615822,-0.206223505410296
-0.54005246163384,-0.233738589351461
-0.512512065568101,-0.276608525895101
-0.472584395028532,-0.323630770255332
-0.518659838508615,-0.274815589855772
-0.491784122704075,-0.348921543178273
-0.502137552935352,-0.360408539466097
-0.545602079651397,-0.36775403375117
-0.558805083606808,-0.412678837864393
-0.530006090453055,-0.454122237480873
-0.581505334117724,-0.502099558769545
-0.548353891311743,-0.574820537449952
