-0.338494161817646,0.689020389794558
-0.337336357544601,0.679029506167223
-0.336212563649438,0.669120609709729
-0.335122592419071,0.65929334521433
-0.334066256140418,0.649547357473279
-0.333043367100394,0.639882291278828
-0.332053737585914,0.63029779142323
-0.331097179883894,0.620793502698739
-0.33017350628125,0.611369069897606
-0.329282529064897,0.602024137812086
-0.328424060521752,0.592758351234431
-0.32759791293873,0.583571354956894
-0.326803898602746,0.574462793771727
-0.326041829800717,0.565432312471184
-0.325311518819558,0.556479555847518
-0.324612777946184,0.547604168692982
-0.323945419467512,0.538805795799827
-0.323309255670458,0.530084081960308
-0.322704098841936,0.521438671966678
-0.322129761268862,0.512869210611188
-0.321586055238153,0.504375342686093
-0.321072793036724,0.495956712983645
-0.320589786951491,0.487612966296096
-0.320136849269369,0.4793437474157
-0.319713792277274,0.47114870113471
-0.319320428262122,0.463027472245379
-0.318956569510829,0.454979705539959
-0.31862202831031,0.447005045810703
-0.31831661694748,0.439103137849865
-0.318040147709256,0.431273626449697
-0.317792432882554,0.423516156402453
-0.317573284754289,0.415830372500384
-0.317382515611376,0.408215919535744
-0.317219937740732,0.400672442300786
-0.317085363429272,0.393199585587763
-0.316978604963911,0.385796994188928
-0.316899474631567,0.378464312896533
-0.316847784719153,0.371201186502832
-0.316823347513587,0.364007259800077
-0.316825975301783,0.356882177580521
-0.316855480370657,0.349825584636418
-0.316911675007126,0.34283712576002
-0.316994371498104,0.33591644574358
-0.317103382130508,0.32906318937935
-0.317238519191253,0.322277001459585
-0.317399594967255,0.315557526776537
-0.31758642174543,0.308904410122458
-0.317798811812692,0.302317296289601
-0.318036577455959,0.29579583007022
-0.318299530962145,0.289339656256568
-0.318587484618167,0.282948419640897
-0.31890025071094,0.27662176501546
-0.31923764152738,0.27035933717251
-0.319599469354402,0.264160780904301
-0.319985546478922,0.258025741003084
-0.320395685187857,0.251953862261113
-0.320829697768121,0.245944789470641
-0.32128739650663,0.23999816742392
-0.3217685936903,0.234113640913205
-0.322273101606047,0.228290854730746
-0.322800732540787,0.222529453668798
-0.323351298781434,0.216829082519613
-0.323924612614906,0.211189386075445
-0.324520486328117,0.205610009128545
-0.325138732207983,0.200090596471168
-0.32577916254142,0.194630792895566
-0.326441589615344,0.189230243193991
-0.32712582571667,0.183888592158697
-0.327831683132314,0.178605484581937
-0.328558974149192,0.173380565255963
-0.32930751105422,0.168213478973029
-0.330077106134312,0.163103870525387
-0.330867571676386,0.158051384705291
-0.331678719967356,0.153055666304993
-0.332510363294138,0.148116360116746
-0.333362313943649,0.143233110932802
-0.334234384202803,0.138405563545416
-0.335126386358516,0.13363336274684
-0.336038132697704,0.128916153329326
-0.336969435507284,0.124253580085128
-0.33792010707417,0.119645287806499
-0.338889959685278,0.115090921285691
-0.339878805627523,0.110590125314957
-0.340886457187823,0.106142544686551
-0.341912726653092,0.101747824192724
-0.342957426310246,0.0974056086257315
-0.3440203684462,0.0931155427778244
-0.345101365347871,0.0888772714412562
-0.346200229302174,0.0846904394082799
-0.347316772596025,0.0805546914711483
-0.34845080751634,0.0764696724221143
-0.349602146350033,0.0724350270534309
-0.350770601384022,0.068450400157351
-0.351955984905221,0.0645154365261274
-0.353158109200547,0.060629780952013
-0.354376786556915,0.0567930782272608
-0.35561182926124,0.0530049731441238
-0.356863049600439,0.0492651104948547
-0.358130259861427,0.0455731350717065
-0.35941327233112,0.0419286916669321
-0.360711899296434,0.0383314250727845
-0.362025953044283,0.0347809800815165
-0.363355245861585,0.031277001485381
-0.364699590035255,0.0278191340766309
-0.366058797852208,0.0244070226475192
-0.367432681599359,0.0210403119902988
-0.368821053563626,0.0177186468972225
-0.370223726031923,0.0144416721605433
-0.371640511291167,0.0112090325725141
-0.373071221628272,0.00802037292538776
-0.374515669330155,0.00487533801141721
-0.375973666683731,0.00177357262285534
-0.377445025975916,-0.0012852784480448
-0.378929559493626,-0.00430157040903049
-0.380427079523777,-0.00727565846784872
-0.381937398353283,-0.0102078978322467
-0.383460328269062,-0.0130986437099713
-0.384995681558027,-0.0159482513087699
-0.386543270507097,-0.0187570758363892
-0.388102907403185,-0.0215254725005767
-0.389674404533207,-0.0242537965090794
-0.39125757418408,-0.0269424030696441
-0.392852228642719,-0.0295916473900183
-0.39445818019604,-0.0322018846779488
-0.396075241130958,-0.0347734701411828
-0.39770322373439,-0.0373067589874673
-0.39934194029325,-0.0398021064245496
-0.400991203094455,-0.0422598676601766
-0.40265082442492,-0.0446803979020955
-0.404320616571561,-0.0470640523580532
-0.406000391821294,-0.0494111862357971
-0.407689962461034,-0.0517221547430741
-0.409389140777697,-0.0539973130876312
-0.411097739058199,-0.0562370164772158
-0.412815569589456,-0.0584416201195747
-0.414542444658382,-0.0606114792224551
-0.416278176551895,-0.0627469489936041
-0.418022577556909,-0.0648483846407688
-0.419775459960341,-0.0669161413716962
-0.421536636049105,-0.0689505743941336
-0.423305918110118,-0.0709520389158279
-0.425083118430296,-0.0729208901445262
-0.426868049296554,-0.0748574832879757
-0.428660522995807,-0.0767621735539234
-0.430460351814972,-0.0786353161501164
-0.432267348040965,-0.0804772662843019
-0.4340813239607,-0.0822883791642268
-0.435902091861094,-0.0840690099976384
-0.437729464029062,-0.0858195139922836
-0.43956325275152,-0.0875402463559096
-0.441403270315384,-0.0892315622962636
-0.44324932900757,-0.0908938170210924
-0.445101241114992,-0.0925273657381434
-0.446958818924568,-0.0941325636551634
-0.448821874723212,-0.0957097659798998
-0.45069022079784,-0.0972593279200995
-0.452563669435369,-0.0987816046835096
-0.454442032922712,-0.100276951477877
-0.456325123546788,-0.101745723510949
-0.45821275359451,-0.103188275990473
-0.460104735352795,-0.104604964124196
-0.462000881108559,-0.105996143119865
-0.463901003148717,-0.107362168185226
-0.465804913760184,-0.108703394528028
-0.467712425229878,-0.110020177356017
-0.469623349844712,-0.11131287187694
-0.471537499891604,-0.112581833298544
-0.473454687657468,-0.113827416828577
-0.475374725429221,-0.115049977674785
-0.477297425493778,-0.116249871044916
-0.479222600138055,-0.117427452146717
-0.481150061648967,-0.118583076187935
-0.48307962231343,-0.119717098376316
-0.485011094418361,-0.120829873919609
-0.486944290250673,-0.121921758025559
-0.488879022097285,-0.122993105901915
-0.49081510224511,-0.124044272756423
-0.492752342981065,-0.12507561379683
-0.494690556592066,-0.126087484230884
-0.496629555365027,-0.127080239266331
-0.498569151586866,-0.128054234110919
-0.500509157544497,-0.129009823972395
-0.502449385524836,-0.129947364058505
-0.5043896478148,-0.130867209576997
-0.506329756701303,-0.131769715735619
-0.508269524471261,-0.132655237742116
-0.51020876341159,-0.133524130804237
-0.512147285809206,-0.134376750129728
-0.514084903951025,-0.135213450926336
-0.516021430123962,-0.136034588401809
-0.517956676614933,-0.136840517763893
-0.519890455710853,-0.137631594220336
-0.521822579698639,-0.138408172978885
-0.523752860865205,-0.139170609247286
-0.525681111497468,-0.139919258233287
-0.527607143882344,-0.140654475144636
-0.529530770306748,-0.141376615189078
-0.531451803057596,-0.142086033574362
-0.533370054421803,-0.142783085508234
-0.535285336686285,-0.143468126198442
-0.537197462137958,-0.144141510852731
-0.539106243063738,-0.144803594678851
-0.54101149175054,-0.145454732884547
-0.542913020485281,-0.146095280677567
-0.544810641554875,-0.146725593265657
-0.546704167246238,-0.147346025856566
-0.548593409846287,-0.14795693365804
-0.550478181641936,-0.148558671877825
-0.552358294920102,-0.14915159572367
-0.5542335619677,-0.149736060403321
-0.556103795071647,-0.150312421124526
-0.557968806518856,-0.150881033095031
-0.559828408596246,-0.151442251522584
-0.56168241359073,-0.151996431614931
-0.563530633789225,-0.15254392857982
-0.565372881478646,-0.153085097624998
-0.56720896894591,-0.153620293958212
-0.569038708477932,-0.154149872787209
-0.570861912361627,-0.154674189319736
-0.572678392883911,-0.15519359876354
-0.574487962331701,-0.155708456326369
-0.576290432991911,-0.156219117215969
-0.578085617151457,-0.156725936640087
-0.579873327097256,-0.157229269806471
-0.581653375116223,-0.157729471922868
-0.583425573495272,-0.158226898197024
-0.585189734521322,-0.158721903836687
-0.586945670481286,-0.159214844049605
-0.58869319366208,-0.159706074043523
-0.590432116350621,-0.160195949026189
-0.592162250833824,-0.160684824205351
-0.593883409398605,-0.161173054788755
-0.595595404331879,-0.161660995984148
-0.597298047920563,-0.162149002999278
-0.598991152451571,-0.162637431041892
-0.60067453021182,-0.163126635319736
-0.602347993488225,-0.163616971040558
-0.604011354567702,-0.164108793412105
-0.605664425737166,-0.164602457642124
-0.607307019283534,-0.165098318938361
-0.608938947493721,-0.165596732508565
-0.610560022654643,-0.166098053560483
-0.612170057053215,-0.16660263730186
-0.613768862976354,-0.167110838940445
-0.615356252710974,-0.167623013683985
-0.616932038543992,-0.168139516740226
-0.618496032762323,-0.168660703316915
-0.620048047652883,-0.169186928621801
-0.621587895502588,-0.169718547862629
-0.623115388598353,-0.170255916247148
-0.624630339227094,-0.170799388983103
-0.626132559675727,-0.171349321278243
-0.627621862231168,-0.171906068340314
-0.629098059180332,-0.172469985377063
-0.630560962810135,-0.173041427596238
-0.632010385407492,-0.173620750205585
-0.63344613925932,-0.174208308412852
-0.634868036652533,-0.174804457425785
-0.636275889874049,-0.175409552452133
-0.637669511210782,-0.176023948699641
-0.639048712949648,-0.176648001376057
-0.640413307377562,-0.177282065689128
-0.641763106781442,-0.177926496846602
-0.643097923448201,-0.178581650056224
-0.644417569664757,-0.179247880525743
-0.645721857718024,-0.179925543462906
-0.647010599894919,-0.180614994075459
-0.648283608482356,-0.181316587571149
-0.649540695767252,-0.182030679157725
-0.650781674036523,-0.182757624042932
-0.652006355577084,-0.183497777434518
-0.653214552675851,-0.18425149454023
-0.65440607761974,-0.185019130567815
-0.655580742695665,-0.18580104072502
-0.656738360190544,-0.186597580219593
-0.657878742391292,-0.18740910425928
-0.659001701584823,-0.188235968051828
-0.660107050058055,-0.189078526804985
-0.661194600097903,-0.189937135726498
-0.662264163991282,-0.190812150024113
-0.663315554025108,-0.191703924905578
-0.664348582486298,-0.19261281557864
-0.665363061661765,-0.193539177251046
-0.666358803838428,-0.194483365130543
-0.6673356213032,-0.195445734424878
-0.668293326342998,-0.196426640341799
-0.669231731244737,-0.197426438089052
-0.670150648295333,-0.198445482874384
-0.671049889781703,-0.199484129905543
-0.67192926799076,-0.200542734390276
-0.672788595209423,-0.201621651536329
-0.673627683724605,-0.202721236551451
-0.674446345823222,-0.203841844643387
-0.675244393792191,-0.204983831019885
-0.676021639918427,-0.206147550888692
-0.676777896488846,-0.207333359457555
-0.677512975790363,-0.208541611934222
-0.678226690109895,-0.209772663526439
-0.678918851734356,-0.211026869441954
-0.679589272950663,-0.212304584888513
-0.680237766045731,-0.213606165073864
-0.680864143306476,-0.214931965205753
-0.681468217019814,-0.216282340491929
-0.68204979947266,-0.217657646140137
-0.68260870295193,-0.219058237358125
-0.68314473974454,-0.220484469353641
-0.683657722137406,-0.22193669733443
-0.684147462417443,-0.223415276508241
-0.684613772871566,-0.224920562082821
-0.685056465786693,-0.226452909265916
-0.685475353449737,-0.228012673265273
-0.685870248147616,-0.22960020928864
-0.686240962167244,-0.231215872543764
-0.686587307795538,-0.232860018238392
-0.686909097319413,-0.23453300158027
-0.687206143025784,-0.236235177777147
-0.687478257201568,-0.237966902036769
-0.687725252133681,-0.239728529566883
-0.687946940109037,-0.241520415575236
-0.688143133414553,-0.243342915269576
-0.688313644337144,-0.245196383857649
-0.688458285163727,-0.247081176547203
-0.688576868181216,-0.248997648545984
-0.688669205676527,-0.250946155061741
-0.688735109936577,-0.252927051302219
-0.688774393248281,-0.254940692475166
-0.688786867898554,-0.256987433788329
-0.688772346174312,-0.259067630449455
-0.688730640362472,-0.261181637666292
-0.688661562749948,-0.263329810646586
-0.688564925623656,-0.265512504598084
-0.688440541270513,-0.267730074728534
-0.688288221977433,-0.269982876245682
-0.688107780031333,-0.272271264357276
-0.687899027719128,-0.274595594271063
-0.687661777327734,-0.276956221194789
-0.687395841144066,-0.279353500336203
-0.687101031455041,-0.281787786903051
-0.686777160547574,-0.28425943610308
-0.68642404070858,-0.286768803144037
-0.686041484224976,-0.289316243233669
-0.685629303383677,-0.291902111579724
-0.685187310471599,-0.294526763389948
-0.684715317775657,-0.297190553872089
-0.684213137582768,-0.299893838233894
-0.683680582179847,-0.302636971683109
-0.683117463853809,-0.305420309427483
-0.68252359489157,-0.308244206674761
-0.681898787580047,-0.311109018632691
-0.681242854206154,-0.314015100509021
-0.680555607056808,-0.316962807511497
-0.679836858418923,-0.319952494847866
-0.679086420579417,-0.322984517725875
-0.678304105825205,-0.326059231353273
-0.677489726443201,-0.329176990937804
-0.676643094720322,-0.332338151687218
-0.675764022943485,-0.33554306880926
-0.674852323399603,-0.338792097511678
-0.673907808375594,-0.342085593002219
-0.672930290158372,-0.34542391048863
-0.671919581034854,-0.348807405178659
-0.670875493291955,-0.352236432280051
-0.669797839216591,-0.355711347000555
-0.668686431095678,-0.359232504547918
-0.667541081216131,-0.362800260129886
-0.666361601864866,-0.366414968954206
-0.665147805328798,-0.370076986228627
-0.663899503894844,-0.373786667160894
-0.662616509849919,-0.377544366958755
-0.661298635480939,-0.381350440829957
-0.65994569307482,-0.385205243982247
-0.658557494918476,-0.389109131623372
-0.657133853298825,-0.39306245896108
-0.655674580502781,-0.397065581203117
-0.654179488817261,-0.40111885355723
-0.652648390529179,-0.405222631231167
-0.651081097925452,-0.409377269432674
-0.649477423292996,-0.4135831233695
-0.647837178918726,-0.41784054824939
-0.646160177089558,-0.422149899280092
-0.644446230092407,-0.426511531669353
-0.64269515021419,-0.43092580062492
-0.640906749741821,-0.43539306135454
-0.639080840962217,-0.439913669065961
-0.637217236162294,-0.444487978966929
-0.635315747628966,-0.449116346265192
-0.633376187649151,-0.453799126168495
-0.631398368509763,-0.458536673884588
-0.629382102497718,-0.463329344621216
-0.627327201899932,-0.468177493586128
-0.62523347900332,-0.473081475987069
-0.623100746094799,-0.478041647031787
-0.620928815461284,-0.483058361928029
-0.61871749938969,-0.488131975883543
-0.616466610166934,-0.493262844106075
-0.614175960079931,-0.498451321803372
-0.611845361415597,-0.503697764183182
-0.609474626460847,-0.509002526453251
-0.607063567502598,-0.514365963821326
-0.604611996827764,-0.519788431495156
-0.604611996827764,-0.519788431495156
-0.6021390402673,-0.525197848747845
-0.599664005556791,-0.530522124478669
-0.597186977840107,-0.535761598334634
-0.594708042261114,-0.540916609962748
-0.592227283963681,-0.545987499010015
-0.589744788091674,-0.550974605123441
-0.587260639788962,-0.555878267950033
-0.584774924199412,-0.560698827136795
-0.582287726466892,-0.565436622330734
-0.579799131735269,-0.570091993178856
-0.57730922514841,-0.574665279328167
-0.574818091850185,-0.579156820425672
-0.57232581698446,-0.583566956118377
-0.569832485695102,-0.587896026053288
-0.567338183125979,-0.592144369877411
-0.56484299442096,-0.596312327237752
-0.562347004723912,-0.600400237781316
-0.559850299178701,-0.60440844115511
-0.557352962929197,-0.608337277006139
-0.554855081119266,-0.612187084981409
-0.552356738892776,-0.615958204727927
-0.549858021393594,-0.619650975892697
-0.547359013765589,-0.623265738122726
-0.544859801152628,-0.626802831065019
-0.542360468698579,-0.630262594366583
-0.539861101547308,-0.633645367674423
-0.537361784842685,-0.636951490635545
-0.534862603728576,-0.640181302896955
-0.532363643348849,-0.643335144105659
-0.529864988847371,-0.646413353908662
-0.527366725368011,-0.649416271952971
-0.524868938054636,-0.652344237885591
-0.522371712051113,-0.655197591353528
-0.51987513250131,-0.657976672003789
-0.517379284549095,-0.660681819483378
-0.514884253338336,-0.663313373439302
-0.512390124012899,-0.665871673518566
-0.509896981716653,-0.668357059368176
-0.507404911593465,-0.670769870635139
-0.504913998787202,-0.67311044696646
-0.502424328441734,-0.675379128009146
-0.499935985700926,-0.6775762534102
-0.497449055708647,-0.679702162816631
-0.494963623608764,-0.681757195875442
-0.492479774545145,-0.683741692233642
-0.489997593661658,-0.685655991538234
-0.487517166102169,-0.687500433436225
-0.485038577010548,-0.689275357574621
-0.48256191153066,-0.690981103600428
-0.480087254806375,-0.692618011160651
-0.477614691981559,-0.694186419902297
-0.475144308200081,-0.695686669472371
-0.472676188605807,-0.697119099517879
-0.470210418342606,-0.698484049685827
-0.467747082554344,-0.699781859623221
-0.465286266384891,-0.701012868977066
-0.462828054978112,-0.702177417394369
-0.460372533477877,-0.703275844522135
-0.457919787028052,-0.704308490007371
-0.455469900772505,-0.705275693497081
-0.453022959855104,-0.706177794638272
-0.450579049419716,-0.70701513307795
-0.448138254610209,-0.70778804846312
-0.445700660570451,-0.708496880440789
-0.443266352444309,-0.709141968657963
-0.440835415375651,-0.709723652761646
-0.438407934508344,-0.710242272398845
-0.435983994986257,-0.710698167216566
-0.433563681953256,-0.711091676861814
-0.431147080553209,-0.711423140981596
-0.428734275929984,-0.711692899222917
-0.426325353227449,-0.711901291232784
-0.423920397589471,-0.712048656658201
-0.421519494159917,-0.712135335146175
-0.419122728082656,-0.712161666343712
-0.416730184501555,-0.712127989897818
-0.414341948560482,-0.712034645455498
-0.411958105403304,-0.711881972663758
-0.409578740173888,-0.711670311169604
-0.407203938016103,-0.711400000620042
-0.404833784073816,-0.711071380662078
-0.402468363490895,-0.710684790942718
-0.400107761411207,-0.710240571108967
-0.39775206297862,-0.709739060807831
-0.395401353337002,-0.709180599686317
-0.393055717630219,-0.708565527391429
-0.390715241002141,-0.707894183570175
-0.388380008596634,-0.707166907869559
-0.386050105557565,-0.706384039936588
-0.383725617028804,-0.705545919418267
-0.381406628154216,-0.704652885961602
-0.379093224077671,-0.703705279213599
-0.376785489943035,-0.702703438821265
-0.374483510894176,-0.701647704431604
-0.372187372074961,-0.700538415691622
-0.369897158629259,-0.699375912248327
-0.367612955700937,-0.698160533748722
-0.365334848433863,-0.696892619839815
-0.363062921971903,-0.695572510168611
-0.360797261458927,-0.694200544382115
-0.358537952038801,-0.692777062127335
-0.356285078855392,-0.691302403051275
-0.35403872705257,-0.689776906800941
-0.3517989817742,-0.688200913023339
-0.349565928164152,-0.686574761365476
-0.347339651366292,-0.684898791474356
-0.345120236524488,-0.683173342996987
-0.342907768782608,-0.681398755580373
-0.340702333284519,-0.67957536887152
-0.338504015174089,-0.677703522517435
-0.336312899595185,-0.675783556165122
-0.334129071691676,-0.67381580946159
-0.331952616607429,-0.671800622053842
-0.329783619486311,-0.669738333588884
-0.327622165472189,-0.667629283713723
-0.325468339708933,-0.665473812075364
-0.323322227340409,-0.663272258320814
-0.321183913510484,-0.661024962097078
-0.319053483363028,-0.658732263051162
-0.316931022041906,-0.656394500830071
-0.314816614690987,-0.654012015080813
-0.312710346454138,-0.651585145450391
-0.310612302475227,-0.649114231585813
-0.308522567898122,-0.646599613134084
-0.30644122786669,-0.64404162974221
-0.304368367524799,-0.641440621057197
-0.302304072016316,-0.638796926726051
-0.300248426485109,-0.636110886395778
-0.298201516075046,-0.633382839713382
-0.296163425929994,-0.630613126325871
-0.294134241193821,-0.62780208588025
-0.292114047010395,-0.624950058023525
-0.290102928523582,-0.622057382402702
-0.288100970877252,-0.619124398664787
-0.28610825921527,-0.616151446456784
-0.284124878681506,-0.613138865425702
-0.282150914419826,-0.610086995218544
-0.280186451574098,-0.606996175482318
-0.278231575288191,-0.603866745864028
-0.27628637070597,-0.600699046010681
-0.274350922971305,-0.597493415569283
-0.272425317228062,-0.594250194186839
-0.27050963862011,-0.590969721510355
-0.268603972291315,-0.587652337186838
-0.266708403385546,-0.584298380863292
-0.26482301704667,-0.580908192186724
-0.262947898418555,-0.57748211080414
-0.261083132645068,-0.574020476362545
-0.259228804870077,-0.570523628508946
-0.25738500023745,-0.566991906890348
-0.255551803891054,-0.563425651153756
-0.253729300974757,-0.559825200946178
-0.251917576632426,-0.556190895914619
-0.250116716007929,-0.552523075706083
-0.248326804245134,-0.548822079967579
-0.246547926487908,-0.54508824834611
-0.244780167880119,-0.541321920488684
-0.243023613565635,-0.537523436042306
-0.241278348688322,-0.533693134653981
-0.23954445839205,-0.529831355970717
-0.237822027820685,-0.525938439639517
-0.236111142118094,-0.522014725307389
-0.234411886428147,-0.518060552621338
-0.232724345894709,-0.51407626122837
-0.23104860566165,-0.510062190775492
-0.229384750872836,-0.506018680909707
-0.227732866672135,-0.501946071278023
-0.226093038203414,-0.497844701527446
-0.224465350610542,-0.493714911304982
-0.222849889037386,-0.489557040257635
-0.221246738627813,-0.485371428032412
-0.219655984525692,-0.481158414276319
-0.218077711874889,-0.476918338636361
-0.216512005819273,-0.472651540759545
-0.21495895150271,-0.468358360292876
-0.213418634069069,-0.464039136883361
-0.211891138662218,-0.459694210178005
-0.210376550426023,-0.455323919823813
-0.208874954504353,-0.450928605467792
-0.207386436041075,-0.446508606756948
-0.205911080180056,-0.442064263338287
-0.204448972065165,-0.437595914858813
-0.203000196840268,-0.433103900965533
-0.201564839649235,-0.428588561305454
-0.200142985635931,-0.42405023552558
-0.198734719944225,-0.419489263272918
-0.197340127717985,-0.414905984194474
-0.195959294101077,-0.410300737937253
-0.194592304237371,-0.405673864148261
-0.193239243270732,-0.401025702474504
-0.191900196345029,-0.396356592562987
-0.19057524860413,-0.391666874060718
-0.189264485191902,-0.386956886614702
-0.187967991252212,-0.382226969871943
-0.186685851928929,-0.377477463479449
-0.18541815236592,-0.372708707084225
-0.184164977707052,-0.367921040333277
-0.182926413096193,-0.363114802873611
-0.181702543677212,-0.358290334352232
-0.180493454593974,-0.353447974416147
-0.179299230990349,-0.348588062712362
-0.178119958010203,-0.343710938887881
-0.176955720797405,-0.338816942589712
-0.175806604495821,-0.333906413464859
-0.17467269424932,-0.328979691160329
-0.173554075201769,-0.324037115323128
-0.172450832497036,-0.319079025600261
-0.171363051278988,-0.314105761638735
-0.170290816691492,-0.309117663085554
-0.169234213878418,-0.304115069587726
-0.168193327983632,-0.299098320792255
-0.167168244151001,-0.294067756346148
-0.166159047524394,-0.289023715896411
-0.165165823247678,-0.283966539090049
-0.16418865646472,-0.278896565574068
-0.163227632319389,-0.273814134995474
-0.162282835955552,-0.268719587001273
-0.161354352517076,-0.26361326123847
-0.160442267147829,-0.258495497354073
-0.159546664991679,-0.253366634995085
-0.158667631192493,-0.248227013808514
-0.15780525089414,-0.243076973441366
-0.156959609240486,-0.237916853540645
-0.156130791375399,-0.232746993753358
-0.155318882442746,-0.22756773372651
-0.154523967586397,-0.222379413107108
-0.153746131950217,-0.217182371542158
-0.152985460678075,-0.211976948678664
-0.152242038913838,-0.206763484163634
-0.151515951801374,-0.201542317644073
-0.150807284484551,-0.196313788766986
-0.150116122107235,-0.19107823717938
-0.149442549813296,-0.18583600252826
-0.148786652746599,-0.180587424460633
-0.148148516051014,-0.175332842623503
-0.147528224870407,-0.170072596663878
-0.146925864348647,-0.164807026228762
-0.1463415196296,-0.159536470965163
-0.145775275857135,-0.154261270520084
-0.145227218175119,-0.148981764540533
-0.144697431727419,-0.143698292673516
-0.144186001657904,-0.138411194566037
-0.143693013110441,-0.133120809865103
-0.143218551228897,-0.12782747821772
-0.14276270115714,-0.122531539270893
-0.142325548039038,-0.11723333267163
-0.141907177018458,-0.111933198066934
-0.141507673239269,-0.106631475103812
-0.141127121845337,-0.10132850342927
-0.14076560798053,-0.0960246226903146
-0.140423216788716,-0.0907201725339503
-0.140100033413762,-0.0854154926071838
-0.139796142999537,-0.0801109225570203
-0.139511630689907,-0.0748068020304663
-0.13924658162874,-0.0695034706745272
-0.139001080959905,-0.0642012681362092
-0.138775213827268,-0.0589005340625176
-0.138569065374697,-0.053601608100459
-0.138382720746059,-0.0483048298970384
-0.138216265085223,-0.0430105390992625
-0.138069783536056,-0.0377190753541364
-0.137943361242426,-0.0324307783086665
-0.1378370833482,-0.0271459876098582
-0.137751034997246,-0.0218650429047179
-0.137685301333431,-0.0165882838402508
-0.137639967500623,-0.0113160500634633
-0.13761511864269,-0.00604868122136076
-0.1376108399035,-0.000786516960949557
-0.137627216426919,0.00447010307076504
-0.137664333356816,0.00972083922677663
-0.137722275837057,0.0149653518600799
-0.137801129011512,0.0202033013236684
-0.137900978024047,0.0254343479705369
-0.13802190801853,0.030658152153679
-0.138164004138829,0.0358743742260894
-0.138327351528811,0.0410826745407617
-0.138512035332343,0.0462827134506906
-0.138718140693294,0.0514741513088697
-0.138945752755532,0.0566566484682937
-0.139194956662923,0.0618298652819562
-0.139465837559335,0.066993462102852
-0.139758480588636,0.0721470992839746
-0.140072970894694,0.0772904371783186
-0.140409393621376,0.0824231361388778
-0.140767833912549,0.0875448565186468
-0.141148376912082,0.0926552586706194
-0.141551107763843,0.09775400294779
-0.141976111611697,0.102840749703152
-0.142423473599514,0.107915159289701
-0.142893278871161,0.11297689206043
-0.143385612570505,0.118025608368334
-0.143900559841415,0.123060968566406
-0.144438205827757,0.128082633007641
-0.144998635673399,0.133090262045032
-0.145581934522209,0.138083516031575
-0.146188187518055,0.143062055320263
-0.146817479804804,0.148025540264091
-0.147469896526324,0.152973631216052
-0.148145522826482,0.157905988529141
-0.148844443849147,0.162822272556352
-0.149566744738185,0.167722143650678
-0.150312510637464,0.172605262165115
-0.151081826690852,0.177471288452656
-0.151874778042216,0.182319882866296
-0.152691449835425,0.187150705759028
-0.153531927214345,0.191963417483847
-0.154396295322845,0.196757678393747
-0.155284639304791,0.201533148841722
-0.156197044304053,0.206289489180767
-0.157133595464496,0.211026359763874
-0.158094377929989,0.21574342094404
-0.1590794768444,0.220440333074257
-0.160088977351595,0.22511675650752
-0.161122964595443,0.229772351596822
-0.162181523719812,0.234406778695159
-0.163264739868568,0.239019698155525
-0.16437269818558,0.243610770330913
-0.165505483814715,0.248179655574317
-0.166663181899841,0.252726014238732
-0.167845877584825,0.257249506677152
-0.169053656013535,0.261749793242572
-0.170286602329839,0.266226534287984
-0.171544801677604,0.270679390166384
-0.172828339200697,0.275108021230765
-0.174137300042987,0.279512087834122
-0.175471769348341,0.283891250329449
-0.176831832260627,0.28824516906974
-0.178217573923712,0.292573504407989
-0.179629079481464,0.296875916697191
-0.18106643407775,0.301152066290339
-0.182529722856439,0.305401613540427
-0.184019030961397,0.30962421880045
-0.185534443536493,0.313819542423403
-0.187076045725594,0.317987244762278
-0.188643922672567,0.322126986170071
-0.19023815952128,0.326238426999774
-0.191858841415601,0.330321227604384
-0.193506053499398,0.334375048336893
-0.195179880916538,0.338399549550296
-0.196880408810888,0.342394391597587
-0.198607722326317,0.34635923483176
-0.200361906606691,0.35029373960581
-0.20214304679588,0.35419756627273
-0.203951228037749,0.358070375185514
-0.205786535476167,0.361911826697158
-0.207649054255001,0.365721581160654
-0.209538869518119,0.369499298928997
-0.211456066409389,0.373244640355182
-0.213400730072679,0.376957265792202
-0.215372945651854,0.380636835593051
-0.217372798290785,0.384283010110725
-0.219400373133337,0.387895449698216
-0.22145575532338,0.391473814708519
-0.223539030004779,0.395017765494628
-0.225650282321403,0.398526962409538
-0.22778959741712,0.402001065806242
-0.229957060435797,0.405439736037734
-0.232152756521302,0.40884263345701
-0.234376770817502,0.412209418417062
-0.236629188468266,0.415539751270885
-0.238910094617459,0.418833292371474
-0.241219574408951,0.422089702071822
-0.243557712986609,0.425308640724923
-0.245924595494301,0.428489768683773
-0.248320307075893,0.431632746301364
-0.250744932875254,0.434737233930691
-0.253198558036252,0.437802891924748
-0.255681267702753,0.440829380636529
-0.258193147018626,0.443816360419029
-0.260734281127738,0.446763491625242
-0.263304755173957,0.449670434608161
-0.26590465430115,0.452536849720781
-0.268534063653185,0.455362397316097
-0.27119306837393,0.458146737747101
-0.273881753607252,0.460889531366789
-0.276600204497019,0.463590438528155
-0.279348506187098,0.466249119584192
-0.282126743821358,0.468865234887895
-0.284935002543665,0.471438444792258
-0.287773367497887,0.473968409650275
-0.290641923827893,0.476454789814941
-0.293540756677549,0.478897245639249
-0.296469951190723,0.481295437476193
-0.299429592511283,0.483649025678768
-0.302419765783096,0.485957670599969
-0.305440556150031,0.488221032592788
-0.308492048755954,0.49043877201022
-0.311574328744733,0.49261054920526
-0.314687481260236,0.494736024530901
-0.31783159144633,0.496814858340139
-0.321006744446884,0.498846710985966
-0.324213025405764,0.500831242821376
-0.327450519466839,0.502768114199366
-0.330719311773976,0.504656985472927
-0.334019487471042,0.506497516995055
-0.337351131701906,0.508289369118743
-0.340714329610434,0.510032202196986
-0.344109166340494,0.511725676582778
-0.347535727035955,0.513369452629113
-0.347535727035955,0.513369452629113
-0.350967687002897,0.514971990701903
-0.354378641319814,0.516542028216004
-0.357768554789188,0.518079641097831
-0.361137392213506,0.519584905273797
-0.364485118395251,0.521057896670316
-0.367811698136908,0.5224986912138
-0.371117096240961,0.523907364830665
-0.374401277509895,0.525283993447323
-0.377664206746194,0.526628652990189
-0.380905848752342,0.527941419385675
-0.384126168330824,0.529222368560195
-0.387325130284124,0.530471576440163
-0.390502699414727,0.531689118951993
-0.393658840525117,0.532875072022097
-0.396793518417779,0.534029511576891
-0.399906697895196,0.535152513542787
-0.402998343759854,0.536244153846199
-0.406068420814236,0.53730450841354
-0.409116893860828,0.538333653171225
-0.412143727702113,0.539331664045666
-0.415148887140576,0.540298616963277
-0.418132336978701,0.541234587850473
-0.421094042018973,0.542139652633666
-0.424033967063877,0.54301388723927
-0.426952076915895,0.543857367593699
-0.429848336377514,0.544670169623366
-0.432722710251217,0.545452369254686
-0.43557516333949,0.546204042414071
-0.438405660444815,0.546925265027935
-0.441214166369678,0.547616113022691
-0.444000645916563,0.548276662324755
-0.446765063887954,0.548906988860538
-0.449507385086337,0.549507168556455
-0.452227574314194,0.550077277338919
-0.454925596374011,0.550617391134344
-0.457601416068273,0.551127585869143
-0.460254998199463,0.55160793746973
-0.462886307570066,0.552058521862519
-0.465495308982566,0.552479414973923
-0.468081967239448,0.552870692730356
-0.470646247143196,0.553232431058232
-0.473188113496295,0.553564705883963
-0.475707531101228,0.553867593133964
-0.478204464760481,0.554141168734648
-0.480678879276538,0.55438550861243
-0.483130739451883,0.554600688693721
-0.485560010089001,0.554786784904937
-0.487966655990375,0.55494387317249
-0.490350641958492,0.555072029422795
-0.492711932795833,0.555171329582264
-0.495050493304886,0.555241849577312
-0.497366288288133,0.555283665334352
-0.499659282548059,0.555296852779798
-0.501929440887148,0.555281487840063
-0.504176728107885,0.555237646441561
-0.506401109012755,0.555165404510705
-0.508602548404242,0.55506483797391
-0.510781011084829,0.554936022757588
-0.512936461857002,0.554779034788153
-0.515068865523245,0.55459394999202
-0.517178186886043,0.554380844295601
-0.519264390747879,0.55413979362531
-0.521327441911238,0.553870873907561
-0.523367305178605,0.553574161068767
-0.525383945352464,0.553249731035342
-0.5273773272353,0.5528976597337
-0.529347415629596,0.552518023090253
-0.531294175337838,0.552110897031417
-0.533217571162509,0.551676357483604
-0.535117567906094,0.551214480373228
-0.536994130371078,0.550725341626702
-0.538847223359944,0.550209017170441
-0.540676811675178,0.549665582930857
-0.542482860119264,0.549095114834365
-0.544265333494685,0.548497688807377
-0.546024196603928,0.547873380776309
-0.547759414249475,0.547222266667572
-0.549470951233812,0.546544422407582
-0.551158772359422,0.54583992392275
-0.55282284242879,0.545108847139492
-0.554463126244401,0.54435126798422
-0.556079588608739,0.543567262383349
-0.557672194324289,0.542756906263291
-0.559240908193534,0.541920275550461
-0.56078569501896,0.541057446171271
-0.56230651960305,0.540168494052137
-0.563803346748289,0.53925349511947
-0.565276141257161,0.538312525299686
-0.566724867932152,0.537345660519197
-0.568149491575745,0.536352976704417
-0.569549976990424,0.535334549781759
-0.570926288978675,0.534290455677638
-0.572278392342981,0.533220770318467
-0.573606251885827,0.532125569630659
-0.574909832409697,0.531004929540628
-0.576189098717076,0.529858925974788
-0.577444015610448,0.528687634859552
-0.578674547892298,0.527491132121334
-0.57988066036511,0.526269493686548
-0.581062317831368,0.525022795481607
-0.582219485093557,0.523751113432924
-0.583352126954161,0.522454523466914
-0.584460208215665,0.521133101509989
-0.585543693680552,0.519786923488564
-0.586602548151309,0.518416065329052
-0.587636736430418,0.517020602957867
-0.588646223320364,0.515600612301422
-0.589630973623632,0.514156169286132
-0.590590952142706,0.512687349838408
-0.591526123680071,0.511194229884666
-0.59243645303821,0.509676885351318
-0.593321905019609,0.508135392164779
-0.594182444426751,0.506569826251462
-0.595018036062122,0.50498026353778
-0.595828644728205,0.503366779950148
-0.596614235227485,0.501729451414978
-0.597374772362447,0.500068353858685
-0.598110220935574,0.498383563207682
-0.598820545749351,0.496675155388382
-0.599505711606263,0.494943206327199
-0.600165683308795,0.493187791950547
-0.600800425659429,0.49140898818484
-0.601409903460651,0.48960687095649
-0.601994081514946,0.487781516191912
-0.602552924624797,0.48593299981752
-0.603086397592689,0.484061397759726
-0.603594465221107,0.482166785944944
-0.604077092312534,0.480249240299589
-0.604534243669456,0.478308836750073
-0.604965884094357,0.476345651222811
-0.605371978389721,0.474359759644215
-0.605752491358032,0.472351237940699
-0.606107387801775,0.470320162038678
-0.606436632523435,0.468266607864564
-0.606740190325495,0.466190651344772
-0.60701802601044,0.464092368405714
-0.607270104380755,0.461971834973805
-0.607496390238924,0.459829126975458
-0.607696848387432,0.457664320337086
-0.607871443628762,0.455477490985104
-0.608020140765399,0.453268714845925
-0.608142904599828,0.451038067845962
-0.608239699934533,0.448785625911629
-0.608310491571999,0.44651146496934
-0.60835524431471,0.444215660945509
-0.608373922965149,0.441898289766548
-0.608366492325802,0.439559427358871
-0.608332917199154,0.437199149648893
-0.608273162387688,0.434817532563026
-0.608187192693889,0.432414652027685
-0.608074972920241,0.429990583969283
-0.607936467869229,0.427545404314233
-0.607771642343337,0.425079188988949
-0.60758046114505,0.422592013919845
-0.607362889076851,0.420083955033334
-0.607118890941226,0.417555088255831
-0.606848431540659,0.415005489513747
-0.606551475677634,0.412435234733498
-0.606227988154636,0.409844399841497
-0.605877933774148,0.407233060764157
-0.605501277338657,0.404601293427892
-0.605097983650644,0.401949173759116
-0.604668017512596,0.399276777684241
-0.604211343726997,0.396584181129683
-0.603727927096331,0.393871460021854
-0.603217732423083,0.391138690287167
-0.602680724509736,0.388385947852038
-0.602116868158775,0.385613308642878
-0.601526128172686,0.382820848586103
-0.600908469353951,0.380008643608125
-0.600263856505056,0.377176769635357
-0.599592254428485,0.374325302594215
-0.598893627926723,0.37145431841111
-0.598167941802252,0.368563893012458
-0.59741516085756,0.365654102324671
-0.596635249895129,0.362725022274162
-0.595828173717443,0.359776728787347
-0.594993897126989,0.356809297790638
-0.594132384926249,0.353822805210448
-0.593243601917708,0.350817326973192
-0.592327512903851,0.347792939005283
-0.591384082687162,0.344749717233135
-0.590413276070125,0.341687737583161
-0.589415057855226,0.338607075981774
-0.588389392844948,0.33550780835539
-0.587336245841775,0.33239001063042
-0.586255581648192,0.329253758733279
-0.585147365066684,0.32609912859038
-0.584011560899735,0.322926196128137
-0.582848133949829,0.319735037272964
-0.581657049019451,0.316525727951274
-0.580438270911086,0.31329834408948
-0.579191764427216,0.310052961613997
-0.577917494370328,0.306789656451237
-0.576615425542905,0.303508504527615
-0.575285522747432,0.300209581769545
-0.573927750786393,0.296892964103439
-0.572542074462273,0.293558727455711
-0.571128458577556,0.290206947752775
-0.569686867934726,0.286837700921044
-0.568217267336268,0.283451062886933
-0.566719621584666,0.280047109576855
-0.565193895482405,0.276625916917223
-0.56364005383197,0.273187560834451
-0.562058061435843,0.269732117254952
-0.560447883096511,0.26625966210514
-0.558809483616457,0.26277027131143
-0.557142827798165,0.259264020800233
-0.555447880444121,0.255740986497965
-0.553724606356808,0.252201244331038
-0.551972970338712,0.248644870225866
-0.550192937192315,0.245071940108863
-0.548384471720104,0.241482529906443
-0.546547538724562,0.237876715545019
-0.544682103008173,0.234254572951003
-0.542788129373422,0.230616178050812
-0.540865582622794,0.226961606770857
-0.538914427558772,0.223290935037552
-0.536934628983842,0.219604238777312
-0.534926151700487,0.215901593916549
-0.532888960511193,0.212183076381677
-0.530823020218443,0.20844876209911
-0.528728295624722,0.204698726995262
-0.526604751532514,0.200933046996546
-0.524452352744304,0.197151798029375
-0.522271064062576,0.193355056020163
-0.520060850289814,0.189542896895325
-0.517821676228504,0.185715396581272
-0.515553506681129,0.18187263100442
-0.513256306450174,0.178014676091182
-0.510930040338122,0.17414160776797
-0.50857467314746,0.1702535019612
-0.50619016968067,0.166350434597284
-0.503776494740238,0.162432481602636
-0.501333613128648,0.15849971890367
-0.498861489648383,0.154552222426799
-0.49636008910193,0.150590068098437
-0.493829376291771,0.146613331844998
-0.491269316020392,0.142622089592894
-0.488679873090277,0.138616417268541
-0.486061012303911,0.13459639079835
-0.483412698463776,0.130562086108737
-0.480734896372359,0.126513579126114
-0.478027570832144,0.122450945776895
-0.475290686645614,0.118374261987493
-0.472524208615255,0.114283603684324
-0.469728101543551,0.110179046793799
-0.466902330232985,0.106060667242332
-0.464046859486043,0.101928540956338
-0.46116165410521,0.0977827438622298
-0.458246678892968,0.0936233518864206
-0.455301898651804,0.0894504409553245
-0.4523272781842,0.0852640869953548
-0.449322782292643,0.0810643659329254
-0.446288375779615,0.0768513536944496
-0.443224023447602,0.0726251262063414
-0.440129690099087,0.0683857593950139
-0.437005340536556,0.0641333291868813
-0.433850939562492,0.0598679115083566
-0.430666451979381,0.0555895822858539
-0.427451842589706,0.0512984174457864
-0.424207076195952,0.0469944929145681
-0.420932117600603,0.0426778846186122
-0.417626931606145,0.0383486684843327
-0.41429148301506,0.0340069204381427
-0.410925736629834,0.0296527164064565
-0.40752965725295,0.025286132315687
-0.404103209686894,0.0209072440922484
-0.40064635873415,0.0165161276625538
-0.397159069197202,0.0121128589530172
-0.393641305878535,0.00769751389005183
-0.390093033580632,0.00327016840007172
-0.386514217105979,-0.00116910159050998
-0.382904821257061,-0.00562022015527916
-0.37926481083636,-0.0100831113678227
-0.375594150646361,-0.0145576993017266
-0.37189280548955,-0.0190439080305777
-0.368160740168411,-0.0235416616279618
-0.364397919485427,-0.028050884167466
-0.360604308243084,-0.032571499722676
-0.356779871243865,-0.0371034323671788
-0.352924573290255,-0.0416466061745602
-0.349038379184739,-0.0462009452184072
-0.345121253729801,-0.0507663735723057
-0.341173161727925,-0.0553428153098425
-0.337194067981596,-0.0599301945046036
-0.333183937293298,-0.0645284352301758
-0.329142734465516,-0.0691374615601451
-0.325070424300734,-0.0737571975680982
-0.320966971601436,-0.0783875673276213
-0.316832341170107,-0.083028494912301
-0.312666497809231,-0.0876799043957234
-0.308469406321293,-0.0923417198514752
-0.304241031508777,-0.0970138653531426
-0.299981338174167,-0.101696264974312
-0.295690291119948,-0.10638884278857
-0.291367855148605,-0.111091522869503
-0.287013995062621,-0.115804229290697
-0.282628675664481,-0.120526886125739
-0.27821186175667,-0.125259417448214
-0.273763518141672,-0.130001747331711
-0.269283609621971,-0.134753799849813
-0.264772101000051,-0.13951549907611
-0.260228957078398,-0.144286769084185
-0.255654142659496,-0.149067533947627
-0.251047622545828,-0.153857717740022
-0.24640936153988,-0.158657244534955
-0.241739324444136,-0.163466038406013
-0.23703747606108,-0.168284023426783
-0.232303781193196,-0.173111123670851
-0.22753820464297,-0.177947263211803
-0.222740711212885,-0.182792366123226
-0.217911265705426,-0.187646356478706
-0.213049832923077,-0.19250915835183
-0.208156377668322,-0.197380695816184
-0.203230864743647,-0.202260892945354
-0.198273258951535,-0.207149673812927
-0.193283525094472,-0.212046962492489
-0.18826162797494,-0.216952683057627
-0.183207532395426,-0.221866759581926
-0.178121203158412,-0.226789116138974
-0.173002605066384,-0.231719676802357
-0.167851702921826,-0.236658365645661
-0.162668461527222,-0.241605106742472
-0.157452845685057,-0.246559824166377
-0.152204820197815,-0.251522441990963
-0.146924349867981,-0.256492884289815
-0.141611399498039,-0.26147107513652
-0.136265933890473,-0.266456938604665
-0.130887917847768,-0.271450398767836
-0.125477316172409,-0.276451379699619
-0.120034093666879,-0.281459805473601
-0.114558215133663,-0.286475600163368
-0.109049645375245,-0.291498687842507
-0.103508349194111,-0.296528992584603
-0.0979342913927433,-0.301566438463243
-0.0923274367736276,-0.306610949552015
-0.0866877501392483,-0.311662449924503
-0.0810151962920892,-0.316720863654295
-0.0753097400346353,-0.321786114814977
-0.0695713461693705,-0.326858127480135
-0.0637999794987797,-0.331936825723355
-0.0579956048253469,-0.337022133618225
-0.0521581869515568,-0.34211397523833
-0.0462876906798935,-0.347212274657257
-0.0403840808128419,-0.352316955948592
-0.0344473221528858,-0.357427943185922
-0.0284773795025103,-0.362545160442833
-0.022474217664199,-0.367668531792911
-0.0164378014404371,-0.372797981309743
-0.0103680956337083,-0.377933433066915
-0.00426506504649775,-0.383074811138014
0.00187132551871085,-0.388222039596626
0.00804111125943248,-0.393375042516337
0.0142443273731833,-0.398533743970735
0.0204810090574783,-0.403698068033404
0.0267511915098337,-0.408867938777932
0.0330549099277645,-0.414043280277904
0.0393921995087868,-0.419224016606909
0.0457630954504157,-0.424410071838531
0.0521676329501673,-0.429601370046357
0.0586058472055566,-0.434797835303974
0.0650777734140999,-0.439999391684968
0.0715834467733121,-0.445205963262925
0.0781229024807093,-0.450417474111432
0.0846961757338067,-0.455633848304075
0.0913033017301203,-0.46085500991444
0.0979443156671652,-0.466080883016115
0.104619252742457,-0.471311391682685
0.111328148153512,-0.476546459987736
0.118071037097846,-0.481786012004856
0.124847954772973,-0.48702997180763
0.13165893637641,-0.492278263469645
0.138504017105671,-0.497530811064488
0.145383232158274,-0.502787538665744
0.152296616731733,-0.508048370347
0.159244206023563,-0.513313230181843
0.166226035231281,-0.518582042243858
0.173242139552403,-0.523854730606634
0.180292554184442,-0.529131219343754
0.187377314324916,-0.534411432528807
0.19449645517134,-0.539695294235378
0.201650011921229,-0.544982728537054
0.208838019772099,-0.550273659507421
0.216060513921466,-0.555568011220067
0.223317529566845,-0.560865707748576
0.230609101905752,-0.566166673166535
0.237935266135702,-0.571470831547532
0.245296057454211,-0.576778106965151
0.252691511058795,-0.582088423492981
0.260121662146968,-0.587401705204606
0.267586545916248,-0.592717876173614
0.275086197564149,-0.598036860473591
0.282620652288186,-0.603358582178122
0.290189945285876,-0.608682965360796
0.297794111754734,-0.614009934095197
0.305433186892276,-0.619339412454913
0.313107205896017,-0.62467132451353
0.320816203963473,-0.630005594344634
