-0.145861116560438,0.595458081872587
-0.148263730226853,0.59000622767966
-0.150612820728948,0.584591741971522
-0.152908737395914,0.579214502535155
-0.155151829556943,0.573874387157541
-0.157342446541227,0.56857127362566
-0.159480937677957,0.563305039726494
-0.161567652296325,0.558075563247025
-0.163602939725522,0.552882721974233
-0.16558714929474,0.547726393695101
-0.16752063033317,0.54260645619661
-0.169403732170005,0.53752278726574
-0.171236804134435,0.532475264689474
-0.173020195555653,0.527463766254792
-0.174754255762849,0.522488169748676
-0.176439334085216,0.517548352958108
-0.178075779851945,0.512644193670069
-0.179663942392228,0.50777556967154
-0.181204171035256,0.502942358749502
-0.182696815110221,0.498144438690938
-0.184142223946314,0.493381687282828
-0.185540746872727,0.488653982312153
-0.186892733218652,0.483961201565896
-0.18819853231328,0.479303222831037
-0.189458493485804,0.474679923894558
-0.190672966065413,0.47009118254344
-0.191842299381301,0.465536876564665
-0.192966842762658,0.461016883745213
-0.194046945538676,0.456531081872067
-0.195082957038547,0.452079348732208
-0.196075226591463,0.447661562112617
-0.197024103526614,0.443277599800275
-0.197929937173193,0.438927339582164
-0.198793076860392,0.434610659245266
-0.199613871917401,0.430327436576561
-0.200392671673412,0.426077549363031
-0.201129825457617,0.421860875391657
-0.201825682599208,0.417677292449421
-0.202480592427376,0.413526678323304
-0.203094904271313,0.409408910800287
-0.20366896746021,0.405323867667353
-0.204203131323259,0.401271426711482
-0.204697745189652,0.397251465719655
-0.20515315838858,0.393263862478854
-0.205569720249234,0.38930849477606
-0.205947780100807,0.385385240398256
-0.206287687272489,0.381493977132421
-0.206589791093473,0.377634582765538
-0.206854440892951,0.373806935084588
-0.207081986000112,0.370010911876552
-0.207272775744151,0.366246390928411
-0.207427159454256,0.362513250027148
-0.207545486459622,0.358811366959742
-0.207628106089438,0.355140619513177
-0.207675367672897,0.351500885474433
-0.207687620539191,0.347892042630491
-0.20766521401751,0.344313968768333
-0.207608497437047,0.34076654167494
-0.207517820126992,0.337249639137294
-0.207393531416539,0.333763138942376
-0.207235980634877,0.330306918877167
-0.207045517111199,0.326880856728649
-0.206822490174697,0.323484830283803
-0.206567249154562,0.320118717329611
-0.206280143379985,0.316782395653053
-0.205961522180158,0.313475743041112
-0.205611734884273,0.310198637280768
-0.205231130821522,0.306950956159003
-0.204820059321095,0.303732577462798
-0.204378869712185,0.300543378979136
-0.203907911323984,0.297383238494996
-0.203407533485681,0.294252033797361
-0.202878085526471,0.291149642673212
-0.202319916775543,0.28807594290953
-0.20173337656209,0.285030812293297
-0.201118814215302,0.282014128611493
-0.200476579064373,0.279025769651101
-0.199807020438493,0.276065613199102
-0.199110487666853,0.273133537042477
-0.198387330078647,0.270229418968207
-0.197637897003064,0.267353136763274
-0.196862537769297,0.26450456821466
-0.196061601706537,0.261683591109345
-0.195235438143976,0.258890083234311
-0.194384396410806,0.256123922376539
-0.193508825836217,0.253384986323011
-0.192609075749403,0.250673152860709
-0.191685495479553,0.247988299776612
-0.19073843435586,0.245330304857704
-0.189768241707516,0.242699045890965
-0.188775266863712,0.240094400663376
-0.187759859153639,0.23751624696192
-0.18672236790649,0.234964462573577
-0.185663142451455,0.232438925285329
-0.184582532117727,0.229939512884156
-0.183480886234497,0.227466103157041
-0.182358554130956,0.225018573890966
-0.181215885136297,0.22259680287291
-0.18005322857971,0.220200667889856
-0.178870933790388,0.217830046728785
-0.177669350097521,0.215484817176679
-0.176448826830303,0.213164857020518
-0.175209713317923,0.210870044047284
-0.173952358889574,0.208600256043959
-0.172677112874447,0.206355370797523
-0.171384324601735,0.204135266094959
-0.170074343400627,0.201939819723248
-0.168747518600317,0.19976890946937
-0.167404199529996,0.197622413120308
-0.166044735518855,0.195500208463043
-0.164669475896086,0.193402173284556
-0.16327876999088,0.191328185371828
-0.16187296713243,0.189278122511841
-0.160452416649926,0.187251862491577
-0.15901746787256,0.185249283098016
-0.157568470129524,0.18327026211814
-0.15610577275001,0.181314677338931
-0.154629725063209,0.179382406547369
-0.153140676398312,0.177473327530436
-0.151638976084512,0.175587318075114
-0.150124973450999,0.173724255968384
-0.148599017826966,0.171884018997227
-0.147061458541604,0.170066484948625
-0.145512644924104,0.168271531609559
-0.143952926303659,0.16649903676701
-0.14238265200946,0.16474887820796
-0.140802171370698,0.16302093371939
-0.139211833716564,0.161315081088281
-0.137611988376252,0.159631198101616
-0.136002984678952,0.157969162546374
-0.134385171953855,0.156328852209539
-0.132758899530154,0.15471014487809
-0.13112451673704,0.15311291833901
-0.129482372903704,0.151537050379279
-0.127832817359338,0.14998241878588
-0.126176199433134,0.148448901345793
-0.124512868454284,0.146936375846
-0.122843173751979,0.145444720073483
-0.121167464655409,0.143973811815222
-0.119486090493769,0.142523528858199
-0.117799400596247,0.141093748989395
-0.116107744292037,0.139684349995792
-0.11441147091033,0.138295209664372
-0.112710929780318,0.136926205782115
-0.111006470231191,0.135577216136002
-0.109298441592143,0.134248118513017
-0.107587193192363,0.132938790700138
-0.105873074361045,0.131649110484349
-0.104156434427378,0.13037895565263
-0.102437622720556,0.129128203991963
-0.10071698856977,0.127896733289329
-0.0989948813042105,0.12668442133171
-0.0972716502530701,0.125491145906086
-0.0955476447455402,0.12431678479944
-0.0938232141108122,0.123161215798752
-0.0920987076780778,0.122024316691005
-0.0903744747765287,0.120905965263179
-0.0886508647353564,0.119806039302255
-0.0869282268837524,0.118724416595216
-0.0852069105509085,0.117660974929043
-0.0834872650660161,0.116615592090716
-0.081769639758267,0.115588145867217
-0.0800543839568525,0.114578514045529
-0.0783418469909644,0.113586574412631
-0.0766323781897943,0.112612204755505
-0.0749263268825338,0.111655282861134
-0.0732240423983744,0.110715686516498
-0.0715258740665077,0.109793293508578
-0.0698321712161254,0.108887981624356
-0.068143283176419,0.107999628650813
-0.0664595592765801,0.107128112374931
-0.0647813488458003,0.106273310583691
-0.0631090012132713,0.105435101064075
-0.0614428657081846,0.104613361603063
-0.0597832916597317,0.103807969987637
-0.0581306283971043,0.103018804004779
-0.056485225249494,0.10224574144147
-0.0548474315460924,0.101488660084691
-0.053217596616091,0.100747437721424
-0.0515960697886815,0.10002195213865
-0.0499832003930555,0.0993120811233502
-0.0483793377584046,0.0986177024625063
-0.0467848312139202,0.0979386939430995
-0.0452000300887941,0.0972749333521113
-0.0436252837122179,0.0966262984765231
-0.0420609414133831,0.0959926671033161
-0.0405073525214813,0.0953739170194718
-0.038964866365704,0.0947699260119715
-0.0374338322752431,0.0941805718677967
-0.0359145995792899,0.0936057323739287
-0.0344075176070361,0.0930452853173488
-0.0329129356876733,0.0924991084850385
-0.0314312031503931,0.0919670796639791
-0.0299626693243871,0.091449076641152
-0.0285076835388468,0.0909449772035386
-0.0270665951229639,0.0904546591381202
-0.02563975340593,0.0899780002318783
-0.0242275077169366,0.0895148782717942
-0.0228302073851753,0.0890651710448493
-0.0214482017398378,0.0886287563380248
-0.0200818401101156,0.0882055119383024
-0.0187314718252004,0.0877953156326632
-0.0173974462142837,0.0873980452080888
-0.016080112606557,0.0870135784515603
-0.0147798203312121,0.0866417931500593
-0.0134969187174405,0.0862825670905672
-0.0122317570944338,0.0859357780600652
-0.0109846847913836,0.0856013038455347
-0.00975605113748151,0.0852790222339572
-0.008546205461919,0.084968811012314
-0.00735549709388785,0.0846705479675865
-0.00618427536257949,0.084384110886756
-0.00503288959718565,0.084109377556804
-0.00390168912689783,0.0838462257647118
-0.00279102328090767,0.0835945332974608
-0.00170124138840674,0.0833541779420323
-0.000632692778586651,0.0831250374854078
0.000414273219361022,0.0829069897145686
0.00143930727624465,0.0826999124164961
0.0024420600628727,0.0825036833781716
0.00342218225005352,0.0823181803865766
0.00437932450859553,0.0821432812286924
0.00531313750930713,0.0819788636915004
0.00622327192299681,0.0818248055619819
0.00710937842047283,0.0816809846271184
0.00797110767254374,0.0815472786738912
0.00880811035001781,0.0814235654892818
0.00962003712370356,0.0813097228602713
0.0104065386644093,0.0812056285738413
0.0111672656429436,0.0811111604169732
0.0119018687301146,0.0810261961766482
0.012609998596731,0.0809506136398478
0.013291305913601,0.0808842905935534
0.0139454413515331,0.0808271048247462
0.0145720555813356,0.0807789341204078
0.0151707992738171,0.0807396562675194
0.0157413230997858,0.0807091490530625
0.0162832777300503,0.0806872902640185
0.0167963138354188,0.0806739576873686
0.0172800820866999,0.0806690291100943
0.0177342331547018,0.0806723823191769
0.0181584177102331,0.0806838951015979
0.0185522864241021,0.0807034452443385
0.0189154899671173,0.0807309105343803
0.019247679010087,0.0807661687587045
0.0195485042238197,0.0808090977042925
0.0198176162791236,0.0808595751581257
0.0200546658468074,0.0809174789071855
0.0202593035976793,0.0809826867384533
0.0204311802025478,0.0810550764389104
0.0205699463322213,0.0811345257955381
0.0206752526575082,0.081220912595318
0.0207467498492168,0.0813141146252313
0.0207840885781556,0.0814140096722595
0.0207869195151331,0.0815204755233839
0.0207548933309575,0.0816333899655858
0.0206876606964374,0.0817526307858467
0.0205848722823812,0.081878075771148
0.0204461787595971,0.0820096027084709
0.0202712307988936,0.082147089384797
0.0200596790710793,0.0822904135871075
0.0198111742469623,0.0824394531023838
0.0195253669973512,0.0825940857176073
0.0192019079930544,0.0827541892197595
0.0188404479048802,0.0829196413958216
0.0184406374036372,0.083090320032775
0.0180021271601335,0.0832661029176012
0.0175245678451778,0.0834468678372814
0.0170076101295783,0.0836324925787971
0.0164509046841436,0.0838228549291296
0.015854102179682,0.0840178326752604
0.0152168532870019,0.0842173036041707
0.0145388086769117,0.084421145502842
0.0138196190202197,0.0846292361582557
0.0130589349877346,0.0848414533573931
0.0122564072502646,0.0850576748872355
0.0114116864786181,0.0852777785347645
0.0105244233436036,0.0855016420869613
0.00959426851602941,0.0857291433308073
0.00862087266670397,0.0859601600532839
0.00760388646643572,0.0861945700413724
0.00654296058603303,0.0864322510820543
0.00543774569630434,0.086673080962311
0.00428789246805805,0.0869169374691237
0.00309305157210251,0.0871636983894739
0.00185287367924613,0.087413241510343
0.000567009460297453,0.0876654446187122
-0.000764890413935286,0.0879201855015631
-0.00214317527264354,0.088177341945877
-0.00356819444501908,0.0884367917386352
-0.00504029726025326,0.0886984126668191
-0.00655983304753792,0.0889620825174101
-0.00812715113606444,0.0892276790773896
-0.00974260085502465,0.089495080133739
-0.0114065315336099,0.0897641634734396
-0.0131192925010119,0.0900348068834728
-0.0148812330864223,0.0903068881508199
-0.0166927026190325,0.0905802850624625
-0.0185540504280343,0.0908548754053817
-0.0204656258426192,0.0911305369665591
-0.0224277781919788,0.0914071475329759
-0.0244408568053048,0.0916845848916136
-0.0265052110117885,0.0919627268294536
-0.0286211901406219,0.0922414511334771
-0.0307891435209962,0.0925206355906656
-0.0330094204821033,0.0928001579880005
-0.0352823703531346,0.0930798961124631
-0.0376083424632819,0.0933597277510348
-0.0399876861417365,0.093639530690697
-0.0424207507176903,0.0939191827184311
-0.0449078855203346,0.0941985616212184
-0.0474494398788613,0.0944775451860403
-0.0500457631224616,0.0947560111998782
-0.0526972045803276,0.0950338374497135
-0.0554041135816504,0.0953109017225275
-0.058166839455622,0.0955870818053016
-0.0609857315314336,0.0958622554850172
-0.0638611391382772,0.0961363005486557
-0.0667934116053441,0.0964090947831985
-0.069782898261826,0.0966805159756268
-0.0728299484369144,0.0969504419129221
-0.0759349114598012,0.0972187503820658
-0.0790981366596775,0.0974853191700392
-0.0823199733657354,0.0977500260638238
-0.0856007709071661,0.0980127488504008
-0.0889408786131615,0.0982733653167517
-0.0923406458129129,0.0985317532498579
-0.0958004218356122,0.0987877904367007
-0.0993205560104506,0.0990413546642614
-0.10290139766662,0.0992923237195216
-0.106543296133312,0.0995405753894625
-0.110246600739718,0.0997859874610655
-0.11401166081503,0.100028437721312
-0.117838825688439,0.100267803957183
-0.121728444689137,0.100503963955661
-0.125680867146316,0.100736795503726
-0.129696442389166,0.100966176388361
-0.133775519746881,0.101191984396545
-0.13791844854865,0.101414097315262
-0.142125578123666,0.101632392931491
-0.146397257801121,0.101846749032215
-0.150733836910206,0.102057043404415
-0.155135664780113,0.102263153835072
-0.159603090740033,0.102464958111168
-0.164136464119157,0.102662334019684
-0.168736134246678,0.102855159347601
-0.173402450451787,0.103043311881901
-0.178135762063676,0.103226669409565
-0.182936418411536,0.103405109717574
-0.187804768824559,0.103578510592911
-0.192741162631936,0.103746749822555
-0.197745949162859,0.10390970519349
-0.202819477746519,0.104067254492695
-0.207962097712109,0.104219275507153
-0.21317415838882,0.104365646023844
-0.218456009105843,0.104506243829751
-0.22380799919237,0.104640946711854
-0.229230477977593,0.104769632457135
-0.234723794790702,0.104892178852575
-0.240288298960891,0.105008463685156
-0.245924339817349,0.105118364741859
-0.25163226668927,0.105221759809665
-0.257412428905844,0.105318526675556
-0.263265175796264,0.105408543126514
-0.269190856689719,0.105491686949518
-0.275189820915404,0.105567835931552
-0.281262417802508,0.105636867859596
-0.287408996680224,0.105698660520631
-0.293629906877742,0.10575309170164
-0.299925497724256,0.105800039189603
-0.306296118548955,0.105839380771501
-0.312742118681033,0.105870994234317
-0.31926384744968,0.105894757365032
-0.325861654184089,0.105910547950626
-0.332535888213449,0.105918243778081
-0.339286898866954,0.105917722634379
-0.346115035473795,0.105908862306502
-0.353020647363163,0.105891540581429
-0.360004083864251,0.105865635246143
-0.367065694306249,0.105831024087626
-0.374205828018349,0.105787584892858
-0.381424834329743,0.105735195448821
-0.388723062569622,0.105673733542496
-0.396100862067178,0.105603076960865
-0.403558582151603,0.105523103490909
-0.411096572152088,0.105433690919609
-0.418715181397825,0.105334717033947
-0.426414759218005,0.105226059620904
-0.43419565494182,0.105107596467462
-0.442058217898462,0.104979205360602
-0.450002797417122,0.104840764087304
-0.458029742826991,0.104692150434552
-0.466139403457262,0.104533242189326
-0.474332128637126,0.104363917138607
-0.482608267695774,0.104184053069376
-0.490968169962399,0.103993527768616
-0.499412184766191,0.103792219023308
-0.507940661436343,0.103580004620432
-0.516553949302045,0.103356762346971
-0.52525239769249,0.103122369989905
-0.52525239769249,0.103122369989905
-0.533932170337451,0.102889630589921
-0.542489551552425,0.102671386170505
-0.550925071545185,0.102467572992836
-0.55923926052351,0.102278127318094
-0.567432648695173,0.102102985407458
-0.575505766267951,0.10194208352211
-0.583459143449618,0.101795357923228
-0.591293310447952,0.101662744871993
-0.599008797470726,0.101544180629584
-0.606606134725718,0.101439601457181
-0.614085852420701,0.101348943615964
-0.621448480763452,0.101272143367113
-0.628694549961747,0.101209136971808
-0.635824590223361,0.101159860691228
-0.642839131756069,0.101124250786554
-0.649738704767647,0.101102243518965
-0.656523839465871,0.101093775149641
-0.663195066058516,0.101098781939763
-0.669752914753358,0.101117200150509
-0.676197915758173,0.10114896604306
-0.682530599280735,0.101194015878595
-0.68875149552882,0.101252285918295
-0.694861134710205,0.101323712423339
-0.700860047032664,0.101408231654908
-0.706748762703973,0.10150577987418
-0.712527811931908,0.101616293342336
-0.718197724924244,0.101739708320556
-0.723759031888758,0.10187596107002
-0.729212263033223,0.102024987851907
-0.734557948565416,0.102186724927397
-0.739796618693113,0.10236110855767
-0.744928803624089,0.102548075003906
-0.74995503356612,0.102747560527285
-0.75487583872698,0.102959501388987
-0.759691749314447,0.103183833850191
-0.764403295536295,0.103420494172078
-0.7690110076003,0.103669418615827
-0.773515415714236,0.103930543442618
-0.777917050085882,0.104203804913631
-0.78221644092301,0.104489139290046
-0.786414118433398,0.104786482833043
-0.79051061282482,0.105095771803801
-0.794506454305053,0.1054169424635
-0.798402173081871,0.105749931073321
-0.802198299363051,0.106094673894442
-0.805895363356368,0.106451107188045
-0.809493895269597,0.106819167215308
-0.812994425310514,0.107198790237413
-0.816397483686895,0.107589912515537
-0.819703600606515,0.107992470310862
-0.822913306277149,0.108406399884567
-0.826027130906574,0.108831637497833
-0.829045604702565,0.109268119411838
-0.831969257872897,0.109715781887763
-0.834798620625346,0.110174561186787
-0.837534223167688,0.110644393570092
-0.840176595707698,0.111125215298855
-0.842726268453151,0.111616962634258
-0.845183771611823,0.112119571837479
-0.847549635391491,0.1126329791697
-0.849824389999929,0.113157120892099
-0.852008565644912,0.113691933265857
-0.854102692534217,0.114237352552154
-0.856107300875619,0.114793315012168
-0.858022920876894,0.115359756907081
-0.859850082745816,0.115936614498072
-0.861589316690162,0.116523824046321
-0.863241152917708,0.117121321813008
-0.864806121636229,0.117729044059312
-0.8662847530535,0.118346927046414
-0.867677577377296,0.118974907035493
-0.868985124815395,0.119612920287729
-0.87020792557557,0.120260903064302
-0.871346509865598,0.120918791626392
-0.872401407893254,0.121586522235178
-0.873373149866314,0.122264031151842
-0.874262265992553,0.122951254637562
-0.875069286479747,0.123648128953518
-0.875794741535671,0.12435459036089
-0.876439161368102,0.125070575120858
-0.877003076184814,0.125796019494602
-0.877487016193583,0.126530859743302
-0.877891511602185,0.127275032128137
-0.878217092618395,0.128028472910288
-0.878464289449989,0.128791118350933
-0.878633632304742,0.129562904711255
-0.87872565139043,0.130343768252431
-0.878740876914828,0.131133645235641
-0.878679839085713,0.131932471922067
-0.878543068110859,0.132740184572887
-0.878331094198042,0.133556719449282
-0.878044447555038,0.134382012812431
-0.877683658389623,0.135216000923513
-0.877249256909571,0.13605862004371
-0.876741773322658,0.136909806434201
-0.876161737836661,0.137769496356165
-0.875509680659354,0.138637626070783
-0.874786131998513,0.139514131839234
-0.873991622061913,0.140398949922699
-0.873126681057331,0.141292016582356
-0.872191839192543,0.142193268079387
-0.871187626675321,0.14310264067497
-0.870114573713444,0.144020070630286
-0.868973210514687,0.144945494206514
-0.867764067286824,0.145878847664835
-0.866487674237632,0.146820067266428
-0.865144561574886,0.147769089272473
-0.863735259506362,0.14872584994415
-0.862260298239835,0.149690285542639
-0.860720207983081,0.150662332329119
-0.859115518943875,0.151641926564771
-0.857446761329993,0.152629004510775
-0.855714465349211,0.153623502428309
-0.853919161209303,0.154625356578555
-0.852061379118046,0.155634503222691
-0.850141649283216,0.156650878621898
-0.848160501912588,0.157674419037356
-0.846118467213936,0.158705060730244
-0.844016075395037,0.159742739961743
-0.841853856663667,0.160787392993031
-0.839632341227601,0.16183895608529
-0.837352059294614,0.162897365499699
-0.835013541072482,0.163962557497437
-0.832617316768982,0.165034468339685
-0.830163916591887,0.166113034287623
-0.827653870748974,0.16719819160243
-0.825087709448018,0.168289876545285
-0.822465962896796,0.16938802537737
-0.819789161303082,0.170492574359864
-0.817057834874652,0.171603459753947
-0.814272513819281,0.172720617820798
-0.811433728344746,0.173843984821597
-0.808542008658822,0.174973497017525
-0.805597884969283,0.176109090669761
-0.802601887483906,0.177250702039485
-0.799554546410467,0.178398267387877
-0.796456391956741,0.179551722976117
-0.793307954330503,0.180711005065384
-0.79010976373953,0.181876049916858
-0.786862350391596,0.18304679379172
-0.783566244494477,0.184223172951149
-0.780221976255949,0.185405123656325
-0.776830075883788,0.186592582168427
-0.773391073585768,0.187785484748637
-0.769905499569666,0.188983767658133
-0.766373884043256,0.190187367158095
-0.762796757214315,0.191396219509704
-0.759174649290619,0.192610260974138
-0.755508090479942,0.193829427812579
-0.75179761099006,0.195053656286205
-0.748043741028749,0.196282882656198
-0.744247010803785,0.197517043183735
-0.740407950522943,0.198756074129998
-0.736527090393997,0.199999911756167
-0.732604960624725,0.20124849232342
-0.728642091422902,0.202501752092938
-0.724639012996303,0.203759627325901
-0.720596255552703,0.205022054283489
-0.716514349299879,0.206288969226881
-0.712393824445606,0.207560308417258
-0.708235211197659,0.208836008115799
-0.704039039763814,0.210116004583684
-0.699805840351847,0.211400234082093
-0.695536143169532,0.212688632872205
-0.691230478424647,0.213981137215201
-0.686889376324966,0.215277683372261
-0.682513367078264,0.216578207604564
-0.678102980892318,0.21788264617329
-0.673658747974903,0.21919093533962
-0.669181198533794,0.220503011364732
-0.664670862776767,0.221818810509807
-0.660128270911598,0.223138269036025
-0.655553953146062,0.224461323204565
-0.650948439687934,0.225787909276607
-0.646312260744991,0.227117963513332
-0.641645946525008,0.228451422175918
-0.63695002723576,0.229788221525547
-0.632225033085023,0.231128297823397
-0.627471494280573,0.232471587330649
-0.622689941030185,0.233818026308482
-0.617880903541634,0.235167551018077
-0.613044912022697,0.236520097720612
-0.608182496681148,0.237875602677269
-0.603294187724764,0.239234002149227
-0.598380515361319,0.240595232397665
-0.59344200979859,0.241959229683764
-0.588479201244352,0.243325930268703
-0.583492619906381,0.244695270413663
-0.578482795992452,0.246067186379823
-0.57345025971034,0.247441614428363
-0.568395541267821,0.248818490820462
-0.563319170872672,0.250197751817302
-0.558221678732667,0.251579333680061
-0.553103595055581,0.252963172669919
-0.547965450049191,0.254349205048057
-0.542807773921273,0.255737367075653
-0.537631096879601,0.257127595013889
-0.532435949131951,0.258519825123944
-0.527222860886098,0.259913993666997
-0.52199236234982,0.261310036904229
-0.51674498373089,0.262707891096819
-0.511481255237084,0.264107492505947
-0.506201707076179,0.265508777392794
-0.500906869455949,0.266911682018538
-0.495597272584169,0.26831614264436
-0.490273446668617,0.26972209553144
-0.484935921917067,0.271129476940958
-0.479585228537295,0.272538223134093
-0.474221896737076,0.273948270372025
-0.468846456724186,0.275359554915934
-0.4634594387064,0.276772013027
-0.458061372891495,0.278185580966403
-0.452652789487245,0.279600194995323
-0.447234218701426,0.281015791374939
-0.441806190741814,0.282432306366431
-0.436369235816184,0.28384967623098
-0.430923884132312,0.285267837229765
-0.425470665897974,0.286686725623965
-0.420010111320944,0.288106277674762
-0.414542750608999,0.289526429643334
-0.409069113969914,0.290947117790862
-0.403589731611464,0.292368278378524
-0.398105133741426,0.293789847667502
-0.392615850567575,0.295211761918976
-0.387122412297686,0.296633957394124
-0.381625349139534,0.298056370354126
-0.376125191300897,0.299478937060164
-0.370622468989548,0.300901593773416
-0.365117712413264,0.302324276755062
-0.35961145177982,0.303746922266282
-0.354104217296991,0.305169466568257
-0.348596539172554,0.306591845922165
-0.343088947614284,0.308013996589187
-0.337581972829956,0.309435854830503
-0.332076145027346,0.310857356907292
-0.326571994414229,0.312278439080735
-0.321070051198382,0.31369903761201
-0.315570845587579,0.315119088762299
-0.310074907789596,0.31653852879278
-0.30458276801221,0.317957293964634
-0.299094956463194,0.319375320539041
-0.293612003350325,0.32079254477718
-0.288134438881379,0.322208902940232
-0.28266279326413,0.323624331289376
-0.277197596706355,0.325038766085791
-0.27173937941583,0.326452143590659
-0.266288671600329,0.327864400065158
-0.260846003467628,0.329275471770469
-0.255411905225503,0.330685294967771
-0.249986907081729,0.332093805918244
-0.244571539244082,0.333500940883069
-0.239166331920338,0.334906636123424
-0.233771815318271,0.336310827900491
-0.228388519645659,0.337713452475448
-0.223016975110275,0.339114446109475
-0.217657711919897,0.340513745063753
-0.212311260282298,0.341911285599462
-0.206978150405255,0.34330700397778
-0.201658912496544,0.344700836459888
-0.196354076763939,0.346092719306967
-0.191064173415217,0.347482588780194
-0.185789732658154,0.348870381140752
-0.180531284700523,0.350256032649818
-0.175289359750103,0.351639479568574
-0.170064488014666,0.353020658158199
-0.164857199701991,0.354399504679873
-0.15966802501985,0.355775955394776
-0.154497494176022,0.357149946564088
-0.14934613737828,0.358521414448988
-0.144214484834401,0.359890295310656
-0.13910306675216,0.361256525410272
-0.134012413339333,0.362620041009017
-0.128943054803695,0.363980778368069
-0.123895521353022,0.36533867374861
-0.11887034319509,0.366693663411818
-0.113868050537673,0.368045683618873
-0.108889173588547,0.369394670630956
-0.103934242555489,0.370740560709246
-0.0990037876462735,0.372083290114923
-0.0940983390686761,0.373422795109167
-0.0892184270304723,0.374759011953157
-0.0843645817394379,0.376091876908075
-0.0795373334033482,0.377421326235098
-0.0747372122299792,0.378747296195408
-0.0699647484271059,0.380069723050185
-0.0652204722025043,0.381388543060607
-0.0605049137639497,0.382703692487855
-0.0558186033192179,0.384015107593109
-0.0511620710760842,0.385322724637549
-0.0465358472423244,0.386626479882354
-0.0419404620257137,0.387926309588704
-0.0373764456340283,0.389222150017779
-0.032844328275043,0.39051393743076
-0.028344640156534,0.391801608088825
-0.0238779114862764,0.393085098253155
-0.0194446724720461,0.39436434418493
-0.0150454533216183,0.395639282145329
-0.010680784242769,0.396909848395532
-0.00635119544327331,0.39817597919672
-0.00205721713090727,0.399437610810071
0.00220062048655405,0.400694679496767
0.00642178720133464,0.401947121517986
0.0106057528056593,0.403194873134908
0.0147519870917523,0.404437870608714
0.0188599598518382,0.405676050200584
0.0229291408781411,0.406909348171696
0.0269589999628858,0.408137700783231
0.0309490068982966,0.40936104429637
0.034898631476598,0.41057931497229
0.0388073434900143,0.411792449072174
0.0426746127307703,0.4130003828572
0.0464999089910899,0.414203052588548
0.0502827020631979,0.415400394527398
0.0540224617393186,0.41659234493493
0.0577186578116766,0.417778840072324
0.0613707600724961,0.41895981620076
0.0649782383140019,0.420135209581417
0.0685405623284179,0.421304956475476
0.0720572019079691,0.422468993144116
0.0755276268448795,0.423627255848516
0.0789513069313739,0.424779680849858
0.0823277119596764,0.425926204409321
0.0856563117220117,0.427066762788084
0.0889365760106041,0.428201292247328
0.0921679746176782,0.429329729048232
0.0953499773354581,0.430452009451977
0.0984820539561687,0.431568069719741
0.101563674272034,0.432677846112705
0.104594308075279,0.433781274892049
0.107573425158127,0.434878292318953
0.110500495312804,0.435968834654597
0.113374988331533,0.437052838160159
0.11619637400654,0.438130239096821
0.118964122130048,0.439200973725762
0.121677702494282,0.440264978308162
0.124336584891466,0.4413221891052
0.126940239113825,0.442372542378057
0.129488134953584,0.443415974387913
0.131979742202966,0.444452421395947
0.134414530654197,0.445481819663339
0.1367919700995,0.446504105451269
0.1391115303311,0.447519215020917
0.141372681141221,0.448527084633463
0.143574892322089,0.449527650550086
0.145717633665927,0.450520849031967
0.147800374964959,0.451506616340285
0.149822586011411,0.452484888736221
0.151783736597507,0.453455602480953
0.15368329651547,0.454418693835662
0.155520735557527,0.455374099061528
0.1572955235159,0.45632175441973
0.159007130182815,0.457261596171449
0.160655025350495,0.458193560577865
0.162238678811166,0.459117583900156
0.163757560357052,0.460033602399503
0.165211139780376,0.460941552337086
0.166598886873365,0.461841369974085
0.167920271428241,0.46273299157168
0.16917476323723,0.46361635339105
0.170361832092556,0.464491391693375
0.171480947786444,0.465358042739835
0.172531580111117,0.46621624279161
0.1735131988588,0.467065928109881
0.174425273821719,0.467907034955825
0.175267274792096,0.468739499590625
0.176038671562157,0.469563258275458
0.176738933924126,0.470378247271506
0.177367531670227,0.471184402839949
0.177923934592685,0.471981661241965
0.178407612483725,0.472769958738734
0.17881803513557,0.473549231591438
0.179154672340446,0.474319416061255
0.179416993890576,0.475080448409365
0.179604469578185,0.475832264896949
0.179716569195498,0.476574801785186
0.179752762534739,0.477307995335256
0.179712519388133,0.478031781808338
0.179595309547903,0.478746097465613
0.179400602806274,0.479450878568261
0.179127868955471,0.480146061377461
0.178776577787719,0.480831582154393
0.17834619909524,0.481507377160237
0.177836202670261,0.482173382656174
0.177246058305006,0.482829534903382
0.176575235791698,0.483475770163041
0.175823204922563,0.484112024696332
0.174989435489825,0.484738234764435
0.174073397285707,0.485354336628529
0.173074560102436,0.485960266549793
0.171992393732234,0.486555960789409
0.170826367967327,0.487141355608555
0.16957595259994,0.487716387268412
0.168240617422295,0.48828099203016
0.166819832226619,0.488835106154978
0.165313066805134,0.489378665904046
0.163719790950067,0.489911607538544
0.162039474453641,0.490433867319652
0.16027158710808,0.490945381508549
0.15841559870561,0.491446086366417
0.15841559870561,0.491446086366417
0.156539739751276,0.491946967753085
0.154712345354058,0.492458967544939
0.152933042212082,0.492981956027989
0.151201457023473,0.493515803488242
0.149517216486354,0.494060380211709
0.147879947298851,0.494615556484399
0.146289276159089,0.49518120259232
0.144744829765193,0.495757188821482
0.143246234815286,0.496343385457895
0.141793118007495,0.496939662787566
0.140385106039943,0.497545891096507
0.139021825610756,0.498161940670724
0.137702903418058,0.498787681796229
0.136427966159975,0.49942298475903
0.13519664053463,0.500067719845136
0.13400855324015,0.500721757340556
0.132863330974657,0.5013849675313
0.131760600436278,0.502057220703377
0.130699988323138,0.502738387142795
0.12968112133336,0.503428337135565
0.12870362616507,0.504126940967695
0.127767129516392,0.504834068925194
0.126871258085452,0.505549591294073
0.126015638570374,0.506273378360339
0.125199897669282,0.507005300410002
0.124423662080303,0.507745227729071
0.123686558501559,0.508493030603556
0.122988213631178,0.509248579319465
0.122328254167282,0.510011744162808
0.121706306807997,0.510782395419594
0.121121998251447,0.511560403375833
0.120574955195758,0.512345638317532
0.120064804339055,0.513137970530702
0.119591172379461,0.513937270301352
0.119153686015102,0.514743407915491
0.118751971944103,0.515556253659127
0.118385656864588,0.516375677818271
0.118054367474682,0.517201550678931
0.117757730472511,0.518033742527117
0.117495372556198,0.518872123648838
0.117266920423868,0.519716564330103
0.117072000773647,0.520566934856921
0.116910240303659,0.521423105515301
0.116781265712029,0.522284946591253
0.116684703696882,0.523152328370785
0.116620180956342,0.524025121139907
0.116587324188535,0.524903195184628
0.116585760091584,0.525786420790958
0.116615115363616,0.526674668244905
0.116675016702754,0.527567807832479
0.116765090807124,0.528465709839688
0.11688496437485,0.529368244552543
0.117034264104057,0.530275282257051
0.11721261669287,0.531186693239223
0.117419648839414,0.532102347785068
0.117654987241813,0.533022116180594
0.117918258598192,0.533945868711811
0.118209089606676,0.534873475664728
0.11852710696539,0.535804807325354
0.118871937372459,0.536739733979699
0.119243207526007,0.537678125913772
0.11964054412416,0.538619853413581
0.120063573865041,0.539564786765136
0.120511923446776,0.540512796254447
0.12098521956749,0.541463752167522
0.121483088925307,0.54241752479037
0.122005158218352,0.543373984409001
0.12255105414475,0.544333001309424
0.123120403402626,0.545294445777648
0.123712832690104,0.546258188099682
0.12432796870531,0.547224098561536
0.124965438146368,0.548192047449219
0.125624867711402,0.549161905048739
0.126305884098539,0.550133541646106
0.127008114005902,0.551106827527329
0.127731184131616,0.552081632978418
0.128474721173806,0.553057828285382
0.129238351830597,0.554035283734229
0.130021702800114,0.555013869610969
0.130824400780481,0.555993456201611
0.131646072469824,0.556973913792164
0.132486344566266,0.557955112668638
0.133344843767933,0.558936923117042
0.13422119677295,0.559919215423384
0.135115030279442,0.560901859873674
0.136025970985532,0.561884726753922
0.136953645589347,0.562867686350136
0.13789768078901,0.563850608948325
0.138857703282647,0.5648333648345
0.139833339768382,0.565815824294668
0.140824216944341,0.566797857614839
0.141829961508647,0.567779335081023
0.142850200159426,0.568760126979228
0.143884559594803,0.569740103595463
0.144932666512902,0.570719135215739
0.145994147611848,0.571697092126063
0.147068629589766,0.572673844612446
0.148155739144781,0.573649262960896
0.149255102975017,0.574623217457423
0.1503663477786,0.575595578388036
0.151489100253654,0.576566216038743
0.152622987098303,0.577535000695555
0.153767635010673,0.578501802644479
0.154922670688889,0.579466492171527
0.156087720831075,0.580428939562706
0.157262412135356,0.581389015104026
0.158446371299857,0.582346589081496
0.159639225022702,0.583301531781125
0.160840600002017,0.584253713488923
0.162050122935926,0.585203004490898
0.163267420522554,0.586149275073059
0.164492119460026,0.587092395521417
0.165723846446466,0.58803223612198
0.16696222818,0.588968667160757
0.168206891358752,0.589901558923758
0.169457462680847,0.590830781696992
0.17071356884441,0.591756205766467
0.171974836547565,0.592677701418194
0.173240892488437,0.59359513893818
0.174511363365152,0.594508388612436
0.175785875875834,0.595417320726971
0.177064056718607,0.596321805567793
0.178345532591597,0.597221713420913
0.179629930192928,0.598116914572338
0.180916876220726,0.599007279308079
0.182205997373114,0.599892677914144
0.183496920348217,0.600772980676543
0.184789271844162,0.601648057881285
0.186082678559071,0.602517779814379
0.187376767191071,0.603382016761835
0.188671164438285,0.60424063900966
0.18996549699884,0.605093516843865
0.191259391570858,0.60594052055046
0.192552474852466,0.606781520415452
0.193844373541788,0.607616386724851
0.195134714336948,0.608444989764666
0.196423123936072,0.609267199820907
0.197709229037285,0.610082887179583
0.198992656338711,0.610891922126703
0.200273032538474,0.611694174948275
0.201549984334701,0.61248951593031
0.202823138425515,0.613277815358817
0.204092121509041,0.614058943519804
0.205356560283405,0.614832770699281
0.20661608144673,0.615599167183256
0.207870311697142,0.61635800325774
0.209118877732766,0.617109149208742
0.210361406251726,0.61785247532227
0.211597523952147,0.618587851884333
0.212826857532154,0.619315149180942
0.214049033689872,0.620034237498104
0.215263679123425,0.62074498712183
0.216470420530939,0.621447268338128
0.217668884610537,0.622140951433008
0.218858698060345,0.622825906692479
0.220039487578488,0.623502004402549
0.221210879863091,0.624169114849229
0.222372501612278,0.624827108318528
0.223523979524173,0.625475855096453
0.224664940296903,0.626115225469016
0.225795010628591,0.626745089722224
0.226913817217362,0.627365318142088
0.228020986761342,0.627975781014616
0.229116145958655,0.628576348625817
0.230198921507425,0.629166891261701
0.231268940105778,0.629747279208276
0.232325828451839,0.630317382751553
0.233369213243731,0.63087707217754
0.234398721179581,0.631426217772247
0.235413978957512,0.631964689821681
0.23641461327565,0.632492358611854
0.237400250832119,0.633009094428773
0.238370518325044,0.633514767558449
0.23932504245255,0.63400924828689
0.240263449912762,0.634492406900105
0.241185367403804,0.634964113684104
0.242090421623802,0.635424238924896
0.24297823927088,0.63587265290849
0.243848447043162,0.636309225920895
0.244700671638774,0.636733828248121
0.245534539755841,0.637146330176176
0.246349678092487,0.637546601991069
0.247145713346837,0.637934513978811
0.247922272217015,0.63830993642541
0.248678981401148,0.638672739616875
0.249415467597358,0.639022793839215
0.250131357503772,0.639359969378441
0.250826277818514,0.63968413652056
0.251499855239709,0.639995165551582
0.252151716465481,0.640292926757516
0.252781488193956,0.640577290424372
0.253388797123258,0.640848126838158
0.253973269951511,0.641105306284884
0.254534533376842,0.641348699050559
0.255072214097374,0.641578175421192
0.255585938811232,0.641793605682793
0.256075334216542,0.64199486012137
0.256540027011427,0.642181809022933
0.256979643894013,0.64235432267349
0.257393811562425,0.642512271359052
0.257782156714787,0.642655525365626
0.258144306049224,0.642783954979224
0.258479886263861,0.642897430485852
0.258788524056822,0.642995822171522
0.259069846126233,0.643079000322241
0.259323479170219,0.64314683522402
0.259549049886903,0.643199197162867
0.259746184974411,0.643235956424791
0.259914511130868,0.643256983295802
0.260053655054398,0.643262148061909
0.260163243443126,0.643251321009121
0.260242902995178,0.643224372423448
0.260292260408677,0.643181172590897
0.260310942381749,0.64312159179748
0.260298575612518,0.643045500329204
0.260254786799109,0.642952768472079
0.260179202639647,0.642843266512114
0.260071449832257,0.642716864735318
0.259931155075064,0.642573433427701
0.259757945066192,0.642412842875272
0.259551446503766,0.64223496336404
0.259311286085911,0.642039665180014
0.259037090510751,0.641826818609202
0.258728486476413,0.641596293937616
0.258385100681019,0.641347961451263
0.258006559822696,0.641081691436153
0.257592490599567,0.640797354178294
0.257142519709758,0.640494819963697
0.256656273851394,0.64017395907837
0.256133379722599,0.639834641808323
0.255573464021498,0.639476738439565
0.254976153446215,0.639100119258104
0.254341074694877,0.63870465454995
0.253667854465607,0.638290214601113
0.25295611945653,0.637856669697601
0.252205496365771,0.637403890125424
0.251415611891455,0.636931746170591
0.250586092731706,0.63644010811911
0.24971656558465,0.635928846256992
0.248806657148411,0.635397830870245
0.247855994121114,0.634846932244878
0.246864203200884,0.634276020666902
0.245830911085845,0.633684966422324
0.244755744474123,0.633073639797154
0.243638330063841,0.632441911077402
0.242478294553126,0.631789650549076
0.241275264640102,0.631116728498186
0.240028867022893,0.63042301521074
0.238738728399624,0.629708380972749
0.23740447546842,0.62897269607022
0.236025734927407,0.628215830789165
0.234602133474708,0.62743765541559
0.233133297808448,0.626638040235506
0.231618854626753,0.625816855534923
0.230058430627747,0.624973971599848
0.228451652509554,0.624109258716292
0.2267981469703,0.623222587170263
0.22509754070811,0.62231382724777
0.223349460421108,0.621382849234824
0.221553532807419,0.620429523417432
0.219709384565168,0.619453720081605
0.217816642392479,0.618455309513351
0.215874932987478,0.61743416199868
0.213883883048289,0.6163901478236
0.211843119273037,0.615323137274122
0.209752268359847,0.614233000636253
0.207610957006843,0.613119608196004
0.205418811912151,0.611982830239383
0.203175459773894,0.6108225370524
0.200880527290199,0.609638598921064
0.198533641159189,0.608430886131384
0.196134428078991,0.607199268969369
0.193682514747727,0.605943617721028
0.191177527863523,0.604663802672371
0.188619094124505,0.603359694109407
0.186006840228796,0.602031162318144
0.183340392874521,0.600678077584593
0.180619378759806,0.599300310194762
0.177843424582775,0.59789773043466
0.175012157041553,0.596470208590298
0.172125202834264,0.595017614947683
0.169182188659034,0.593539819792825
0.166182741213987,0.592036693411733
0.163126487197248,0.590508106090417
0.160013053306942,0.588953928114885
0.156842066241193,0.587374029771147
0.153613152698127,0.585768281345212
0.150325939375868,0.584136553123089
0.146980052972542,0.582478715390787
0.143575120186271,0.580794638434316
0.140110767715183,0.579084192539685
0.136586622257401,0.577347247992902
0.13300231051105,0.575583675079978
0.129357459174255,0.573793344086921
0.12565169494514,0.57197612529974
0.121884644521832,0.570131889004444
0.118055934602453,0.568260505487044
0.11416519188513,0.566361845033547
0.110212043067986,0.564435777929964
0.106196114849148,0.562482174462303
0.102117033926739,0.560500904916573
0.0979744269988839,0.558491839578785
0.0937679207637079,0.556454848734945
0.0894971419193361,0.554389802671066
0.0851617171638927,0.552296571673154
0.080761273195503,0.55017502602722
0.0762954367122913,0.548025036019272
0.0717638344123829,0.54584647193532
0.0671660929939021,0.543639204061373
0.0625018391549741,0.54140310268344
0.0577706995937233,0.539138038087531
0.052972301008275,0.536843880559654
0.0481062700967534,0.534520500385819
0.0431722335572838,0.532167767852034
0.0381698180879906,0.52978555324431
0.0330986503869991,0.527373726848655
0.0279583571524334,0.524932158951078
0.0227485650824189,0.52246071983759
0.01746890087508,0.519959279794197
0.0121189912285418,0.517427709106911
0.00669846284092875,0.51486587806174
0.00120694241036612,0.512273656944694
-0.00435594336502196,0.50965091604178
-0.00999056778710997,0.50699752563901
-0.0156973041577738,0.504313356022391
-0.021476525778888,0.501598277477934
-0.0273286059523284,0.498852160291647
-0.0332539179799696,0.496074874749539
-0.0392528351636875,0.49326629113762
-0.0453257308053566,0.490426279741899
-0.0514729782068528,0.487554710848384
-0.0576949506700506,0.484651454743086
-0.0639920214968258,0.481716381712013
-0.0703645639890531,0.478749362041175
-0.0768129514486083,0.47575026601658
-0.083337557177366,0.472718963924239
-0.089938754477202,0.469655326050159
-0.0966169166499908,0.466559222680351
-0.103372416997608,0.463430524100823
-0.110205628821929,0.460269100597585
-0.117116925424829,0.457074822456646
-0.124106680108183,0.453847559964014
-0.131175266173866,0.4505871834057
-0.138323056923754,0.447293563067713
-0.145550425659721,0.44396656923606
-0.152857745683643,0.440606072196753
-0.160245390297395,0.437211942235799
-0.167713732802853,0.433784049639209
-0.175263146501891,0.430322264692991
-0.182894004696384,0.426826457683154
-0.190606680688209,0.423296498895708
-0.198401547779239,0.419732258616662
-0.206278979271351,0.416133607132024
-0.21423934846642,0.412500414727805
-0.22228302866632,0.408832551690014
-0.230410393172927,0.405129888304659
-0.238621815288116,0.401392294857749
-0.246917668313763,0.397619641635295
-0.255298325551742,0.393811798923304
-0.263764160303929,0.389968637007787
-0.272315545872199,0.386090026174753
-0.280952855558427,0.38217583671021
-0.289676462664489,0.378225938900168
-0.298486740492259,0.374240203030636
-0.307384062343613,0.370218499387623
-0.316368801520426,0.366160698257139
-0.325441331324573,0.362066669925192
-0.334602025057929,0.357936284677792
-0.343851256022371,0.353769412800948
-0.353189397519772,0.349565924580669
-0.362616822852008,0.345325690302964
-0.372133905320955,0.341048580253843
-0.381741018228487,0.336734464719315
-0.391438534876479,0.332383213985388
-0.401226828566808,0.327994698338072
-0.411106272601347,0.323568788063377
-0.421077240281973,0.319105353447311
-0.431140104910561,0.314604264775883
-0.441295239788985,0.310065392335104
-0.451543018219121,0.305488606410981
-0.461883813502844,0.300873777289524
-0.47231799894203,0.296220775256743
-0.482845947838553,0.291529470598646
-0.493468033494288,0.286799733601243
-0.504184629211113,0.282031434550543
-0.514996108290899,0.277224443732555
-0.525902844035525,0.272378631433288
-0.536905209746864,0.267493867938752
-0.548003578726792,0.262570023534955
-0.559198324277184,0.257606968507907
-0.570489819699915,0.252604573143616
-0.58187843829686,0.247562707728093
-0.593364553369895,0.242481242547347
-0.604948538220895,0.237360047887385
-0.616630766151735,0.232198994034219
-0.62841161046429,0.226997951273856
-0.640291444460436,0.221756789892307
-0.652270641442047,0.216475380175579
-0.664349574711,0.211153592409683
