-0.962808821427062,-0.162087713111023
0.469093097965224,0.539424997404177
-0.498818084283943,-0.879069718551937
0.411854190829203,0.0563131460364406
1.32252646594235,0.991696010624818
-0.742001295902094,0.463233490387578
-0.243486162490829,0.354308460724231
0.255028970920437,0.245383431060885
-0.226977359754364,0.567076289275649
-0.713576795951512,0.162160757678353
