-0.363751014958132,-0.875448789219314
0.201329089907125,0.508500201847466
0.19538259320757,0.357175873923313
-0.65080359537059,0.196718555091179
-1.49698978394875,0.0362612362590449
0.43209219485338,-0.988545012762427
-0.506173876153363,-0.619985074243268
-1.44443994716011,-0.251425135724108
0.131822911352298,-0.524493214201147
0.755973906445168,0.818920088763555
