0.332049735547199,0.395491232372185
0.330656409322187,0.381712230362372
0.328549786234434,0.368171112932749
0.325752157262474,0.354862649775366
0.32228581338484,0.341781610582273
0.318173045580066,0.32892276504552
0.313436144826687,0.316280882857157
0.308097402103234,0.303850733709233
0.302179108388243,0.291627087293801
0.295703554660246,0.279604713302908
0.288693031897777,0.267778381428606
0.281169831079371,0.256142861362944
0.27315624318356,0.244692922797972
0.264674559188878,0.233423335425741
0.255747070073859,0.222328868938301
0.246396066817036,0.2114042930277
0.236643840396944,0.200644377385991
0.226512681792115,0.190043891705222
0.216024881981084,0.179597605677444
0.205202731942383,0.169300288994707
0.194068522654548,0.15914671134906
0.18264454509611,0.149131642432555
0.170953090245605,0.13924985193724
0.159016449081565,0.129496109555166
0.146856912582524,0.119865184978384
0.134496771727017,0.110351847898942
0.121958317493575,0.100950868008892
0.109263840860734,0.0916570150002828
0.0964356328070264,0.0824650585651648
0.0834959843109862,0.0733697683955882
0.0704671863511471,0.0643659141836029
0.0573715299060426,0.055448265621259
0.0442313059542065,0.0466115924006067
0.0310688054741722,0.0378506642136958
0.0179063194444735,0.0291602507525765
0.00476613884364398,0.0205351217092988
-0.00832944534978269,0.0119700467759128
-0.021358142157273,0.00345979564446863
-0.034297660600293,-0.00500086199298383
-0.0471257097003094,-0.0134171564443945
-0.0598199984787884,-0.0217943180177132
-0.0723582359571964,-0.0301375770208899
-0.0847181311569997,-0.0384521637618747
-0.0968773930996647,-0.0467433085486174
-0.108813730806658,-0.055016241689068
-0.120504853299445,-0.0632761934911764
-0.131928469599494,-0.0715283942628926
-0.143062288728269,-0.0797780743121666
-0.153884019707238,-0.0880304639469482
-0.164371371557867,-0.0962907934751874
-0.174502053301623,-0.104564293204834
-0.18425377395997,-0.112856193443839
-0.193604242554377,-0.12117172450015
-0.202531168106309,-0.129516116681719
-0.211012259637233,-0.137894600296496
-0.219025226168615,-0.14631240565243
-0.226547776721922,-0.154774763057471
-0.233557620318619,-0.163286902819569
-0.240032465980173,-0.171854055246675
-0.245950022728051,-0.180481450646737
-0.251287999583719,-0.189174319327707
-0.256024105568643,-0.197937891597533
-0.26013604970429,-0.206777397764167
-0.263601541012126,-0.215698068135557
-0.266398288513617,-0.224705133019654
-0.26850400123023,-0.233803822724408
-0.269896388183431,-0.242999367557768
-0.270553158394686,-0.252296997827686
-0.270452020885462,-0.26170194384211
-0.269570684677225,-0.27121943590899
-0.267886858791442,-0.280854704336277
-0.265378252249579,-0.29061297943192
-0.262022574073102,-0.30049949150387
-0.257797533283478,-0.310519470860076
-0.252680838902172,-0.320678147808488
-0.246650199950652,-0.330980752657057
-0.239683325450384,-0.341432515713732
-0.231757924422834,-0.352038667286462
-0.222851705889468,-0.362804437683199
-0.212942378871753,-0.373735057211892
-0.202007652391155,-0.384835756180491
-0.190025235469141,-0.396111764896946
-0.176972837127177,-0.407568313669207
-0.162828166386728,-0.419210632805223
-0.147568932269263,-0.431043952612945
-0.131172843796247,-0.443073503400323
-0.113617609989145,-0.455304515475307
-0.0948809398694261,-0.467742219145846
-0.0749405424585548,-0.48039184471989
-0.0537741267779979,-0.493258622505391
-0.0313594018492219,-0.506347782810296
-0.00767407669369301,-0.519664555942557
0.0173041396671223,-0.533214172210123
0.0435975382117577,-0.547001861920945
0.0712284099187468,-0.561032855382971
0.100219045766623,-0.575312382904153
0.130591736733921,-0.58984567479244
0.162368773799173,-0.604637961355782
0.195572447940913,-0.619694472902129
0.230225050137676,-0.635020439739431
0.25717877023813,-0.646694891259223
0.292924972781344,-0.661813251144576
0.327189243043462,-0.675841299825085
0.359992615463186,-0.688798260263579
0.39135612447922,-0.700703355422889
0.421300804530268,-0.711575808265844
0.449847690055033,-0.721434841755275
0.477017815492219,-0.730299678854011
0.502832215280528,-0.738189542524883
0.527311923858665,-0.745123655730721
0.550477975665333,-0.751121241434355
0.572351405139234,-0.756201522598615
0.592953246719074,-0.76038372218633
0.612304534843555,-0.763687063160331
0.63042630395138,-0.766130768483449
0.647339588481254,-0.767734061118512
0.663065422871879,-0.768516164028351
0.677624841561959,-0.768496300175797
0.691038878990197,-0.767693692523679
0.703328569595297,-0.766127564034826
0.714514947815963,-0.763817137672071
0.724619048090897,-0.760781636398241
0.733661904858804,-0.757040283176168
0.741664552558386,-0.752612300968681
0.748648025628347,-0.747516912738611
0.754633358507391,-0.741773341448787
0.759641585634221,-0.73540081006204
0.76369374144754,-0.728418541541199
0.766810860386052,-0.720845758849095
0.769013976888461,-0.712701684948558
0.770324125393469,-0.704005542802418
0.770762340339781,-0.694776555373504
0.770349656166099,-0.685033945624647
0.769107107311127,-0.674796936518677
0.767055728213569,-0.664084751018424
0.764216553312128,-0.652916612086718
0.760610617045507,-0.641311742686389
0.756258953852411,-0.629289365780267
0.751182598171541,-0.616868704331182
0.745402584441603,-0.604068981301965
0.738939947101299,-0.590909419655444
0.731815720589332,-0.577409242354451
0.724050939344407,-0.563587672361815
0.715666637805226,-0.549463932640367
0.706683850410494,-0.535057246152936
0.697123611598912,-0.520386835862352
0.687006955809186,-0.505471924731446
0.676354917480019,-0.490331735723048
0.665188531050113,-0.474985491799987
0.653528830958172,-0.459452415925094
0.6413968516429,-0.443751731061198
0.628813627543,-0.427902660171131
0.615800193097176,-0.411924426217721
0.602377582744131,-0.395836252163799
0.588566830922569,-0.379657360972195
0.574388972071192,-0.363406975605739
0.559865040628705,-0.34710431902726
0.545016071033811,-0.33076861419959
0.529863097725213,-0.314419084085558
0.514427155141615,-0.298074951647994
0.498729277721721,-0.281755439849728
0.482790499904232,-0.265479771653591
0.466631856127854,-0.249267170022412
0.45027438083129,-0.233136857919021
0.433739108453243,-0.217108058306249
0.417047073432416,-0.201199994146924
0.400219310207513,-0.185431888403879
0.383276853217237,-0.169822964039942
0.366240736900292,-0.154392444017943
0.349131995695381,-0.139159551300714
0.331971664041208,-0.124143508851082
0.314780776376477,-0.10936353963188
0.297580367139889,-0.0948388666059362
0.28039147077015,-0.0805887127360814
0.263235121705963,-0.0666323009851454
0.24613235438603,-0.0529888543159583
0.229104203249056,-0.0396775956913501
0.212171702733743,-0.026717748074151
0.195355887278796,-0.0141285344271909
0.178677791322917,-0.00192917771329995
0.162158449304811,0.00986109910469184
0.14581889566318,0.0212230730639545
0.129680164836729,0.0321375212016578
0.11376329126416,0.0425852205549719
0.0980893093841768,0.0525469481610666
0.0826792536354831,0.0620034810571119
0.0675541584567823,0.0709355962802778
0.0527350582867778,0.0793240708677343
0.0382429875641731,0.0871496818566511
0.0240989807276716,0.0943932062841984
0.0103240722159768,0.101035421187546
-0.00306070353220794,0.107057103603864
-0.0160343120781791,0.112439030570322
-0.0285757189832333,0.117161979124091
-0.040663889808667,0.121206726302339
-0.0522777901157768,0.124554049142238
-0.0633963854658593,0.127184724680957
-0.073998641420211,0.129079529955666
-0.0840635235401284,0.130219242003535
-0.0935699973869082,0.130584637861733
-0.100320743813214,0.130338975942334
-0.10890700472614,0.129422391191256
-0.117113323899247,0.127939294736909
-0.12495028676666,0.125903481136876
-0.132428478762504,0.123328744948738
-0.139558485320903,0.120228880730077
-0.146350891875981,0.116617683038475
-0.152816283861865,0.112508946431513
-0.158965246712678,0.107916465466773
-0.164808365862544,0.102854034701836
-0.17035622674559,0.0973354486942843
-0.175619414795938,0.0913745020016995
-0.180608515447715,0.0849849891816633
-0.185334114135045,0.0781807047917573
-0.189806796292051,0.070975443389563
-0.19403714735286,0.0633829995326622
-0.198035752751596,0.0554171677786365
-0.201813197922383,0.0470917426850676
-0.205380068299346,0.0384205188095371
-0.208746949316609,0.0294172907096267
-0.211924426408299,0.0200958529429181
-0.214923085008538,0.0104700000669928
-0.217753510551452,0.000553526639432596
-0.220426288471166,-0.00963977278218088
-0.222952004201803,-0.020096103640266
-0.22534124317749,-0.0308016713772411
-0.22760459083235,-0.0417426814355246
-0.229752632600508,-0.0529053392575347
-0.231795953916089,-0.0642758502856897
-0.233745140213218,-0.0758404199624082
-0.235610776926019,-0.0875852537301084
-0.237403449488616,-0.0994965570312086
-0.239133743335136,-0.111560535308127
-0.240812243899701,-0.123763394003282
-0.242449536616438,-0.136091338559093
-0.24405620691947,-0.148530574417977
-0.245642840242922,-0.161067307022352
-0.24722002202092,-0.173687741814638
-0.248798337687587,-0.186378084237252
-0.250388372677048,-0.199124539732613
-0.252000712423428,-0.211913313743139
-0.253645942360853,-0.224730611711248
-0.255334647923445,-0.23756263907936
-0.25707741454533,-0.250395601289891
-0.258884827660633,-0.263215703785261
-0.260767472703479,-0.276009152007888
-0.262735935107992,-0.28876215140019
-0.17436515895596,-0.40282669887477
-0.174061072716798,-0.417897042638685
-0.363992274318954,-0.222157856521233
-0.171918995674174,-0.449159423632543
-0.388182647233574,-0.462845701260495
-0.276941658441058,-0.363658227092609
-0.385545115930441,-0.466080185447285
-0.396240695283907,-0.47911610962521
-0.169929803096689,-0.316213881916917
-0.289469309552236,-0.411032656987383
-0.16880174429273,-0.550747648655073
-0.296904336193557,-0.433621916382758
-0.419437492729547,-0.336796176486872
-0.298056259289611,-0.474102705623791
-0.202080147998272,-0.575897271569709
-0.314540209012652,-0.47605274176622
-0.428427814176494,-0.401146722273669
-0.421012732238246,-0.628380337847568
-0.43387407464597,-0.390922954880846
-0.336428397700333,-0.514084266202274
-0.342644259982655,-0.522801297356392
-0.456394570246577,-0.640856662430137
-0.256443055362397,-0.630836806441727
-0.258961274905969,-0.424023602053832
-0.459876291684023,-0.661037649963621
-0.258353460357284,-0.453844915833512
-0.472195883207076,-0.689116071824256
-0.253643976628383,-0.644950699601049
-0.283834434601601,-0.465755724993845
-0.291087038905397,-0.676652274075397
-0.435709504477382,-0.587088002430522
-0.442636731582908,-0.562471709083496
-0.406563170312111,-0.585585526136495
-0.456304986703531,-0.599803935562181
-0.522023401460156,-0.578389342751753
-0.478871235737064,-0.646200331192903
-0.492638931792344,-0.606119139458279
-0.524513572634424,-0.59949367161567
-0.527519645736752,-0.606030586600235
-0.533365451606801,-0.607352565188526
-0.547966484621012,-0.606570048459706
-0.563097923230126,-0.605167711482131
-0.578770352868269,-0.60313175969822
-0.594994358969564,-0.600448398550391
-0.611780526968137,-0.597103833481063
-0.629139442298112,-0.593084269932654
-0.647081690393614,-0.588375913347583
-0.665617856688768,-0.582964969168267
-0.684758526617698,-0.576837642837125
-0.704514285614529,-0.569980139796576
-0.724895719113386,-0.562378665489037
-0.745913412548393,-0.554019425356927
-0.767577951353675,-0.544888624842665
