0.342058966885202,-0.357287028607164
0.283804531421096,-0.376911790129655
0.269563462422027,-0.392694451558672
0.243108292339037,-0.396451586725283
0.267254099794766,-0.367553632423111
0.202007915223152,-0.389513378780092
0.143784881878679,-0.434831714306668
0.104916818536563,-0.435943276362501
0.156602024983569,-0.368403095178193
0.126303296188918,-0.434728454598353
0.0864817865544263,-0.422618754390853
0.0680225160633042,-0.426242364987972
0.0268862850979877,-0.404756533175493
0.0339042582551684,-0.433324012477189
0.0649657569868988,-0.43246324837678
0.0195009963469577,-0.437606774308032
-0.0104774334591863,-0.443413064629706
-0.0235138154811909,-0.446601974307194
-0.035694219110408,-0.449690554040368
-0.0470323118759989,-0.452670838174644
-0.00883634103890153,-0.493759395129092
-0.0649074144330883,-0.46038049509025
-0.0727357637904251,-0.504262900929678
-0.0844908591762915,-0.471734202647082
-0.0854277571676662,-0.429547523219807
-0.0981377219664408,-0.467832258746754
-0.0558569780793762,-0.419861955240176
-0.0835405777560849,-0.509230640319952
-0.0737041139774054,-0.521806116321319
-0.125745973155161,-0.438268222258102
-0.143799602076129,-0.439367296867596
-0.166145911711263,-0.477957936337303
-0.123995955007194,-0.477935259584944
-0.0996997387644268,-0.482629292213604
-0.125320319554559,-0.478962983204132
-0.0963432203503158,-0.478187109721023
-0.124150162513757,-0.479047722534375
-0.0783393458919431,-0.470816252144384
-0.12059482411808,-0.478125752339004
-0.0730643081171896,-0.446269909518552
-0.114763644600819,-0.47613334738135
-0.111028783244499,-0.474715817730208
-0.140589367389341,-0.518878029156307
-0.0555820200691452,-0.469852669712268
-0.096711123134717,-0.468682332232518
-0.103148202891225,-0.468679684394838
-0.120777981729789,-0.415312007030091
-0.0780108670760944,-0.459810223172174
-0.0387761223854889,-0.483799548778717
-0.0912409798649713,-0.486636862430934
-0.0552970383559921,-0.44788441787542
-0.0604817693855108,-0.409881260896731
-0.0381069570083666,-0.438131174374019
-0.0289386602617712,-0.432689843668498
-0.0541442965550808,-0.386537721499986
-0.0586322297703664,-0.418424815002893
-0.0129190187320438,-0.36607072311615
-0.00124428160126392,-0.36369980486555
0.0316045139960636,-0.40767585244533
0.0191842818454448,-0.395661323585132
0.0184205837615077,-0.33654500974866
0.0453473270858104,-0.402074073229983
0.0655569347490238,-0.394686868201014
0.0476987401326149,-0.33683337939556
0.0929262721714689,-0.345534590283904
0.105559880109081,-0.334922404263961
0.145158427976363,-0.277439228667748
0.085597746383556,-0.315312428492116
0.0991286560600527,-0.330047339759211
0.157957006498265,-0.287567189995066
0.138770100336541,-0.292869113145707
0.151439370132584,-0.221164894812919
0.180006743219661,-0.209879064305575
0.188813052478342,-0.199955650850294
0.238087780783076,-0.214838238455051
0.258411909945256,-0.217429032080326
0.254718552547589,-0.184578943990495
0.235862079453197,-0.193997000628911
0.255926094619963,-0.198504260813153
0.345722703868598,-0.127103309414367
0.267296747439005,-0.152344196876166
0.302625616551802,-0.10971563899301
0.339768871187038,-0.0741650190423963
0.318427702140313,-0.0597391880756801
0.323874383424251,-0.0546306144628938
0.376596820796565,0.007275873868426
0.396003097281274,0.011700005373563
0.370198106359366,0.0823446909304255
0.472869073320417,0.0576576445135737
0.388217782814392,0.0616740999391734
0.460762738042532,0.129270446715941
0.464234048244827,0.13371513079105
0.47746865225869,0.160155658406722
0.502355954636188,0.186450598731208
0.503416933874277,0.21513794140691
0.529309322706726,0.212594511580437
0.528579530079268,0.272974965796114
0.517561378384478,0.258190585254689
0.601979361656076,0.291095601215959
0.590317991373275,0.336661930203175
0.568767278151184,0.427877629754771
0.58425835053804,0.420783623276655
0.632896877862185,0.411245572061311
0.603697102952272,0.477863033256722
0.60815633993309,0.4754434525289
0.619837652260282,0.527420563404292
0.626712180702829,0.549466174287885
0.585989860660181,0.548997058001225
0.683148374801644,0.542522207257595
0.640617369504937,0.609573070881464
0.636282688293164,0.625943500485773
0.652792641894859,0.638599095825036
0.694855810452165,0.678698824602956
0.626629715029851,0.622252873378502
0.651413419662096,0.629754825208494
0.65566830698501,0.672185700317989
0.62212879160725,0.711721611352047
0.654780210522493,0.682495361668555
0.660738044768186,0.674727472566471
0.651514101909356,0.687244279919282
0.664327249866953,0.733712004288024
0.646001436996399,0.686712617460551
0.600324617449219,0.705026717025693
0.674607052467567,0.680950678442472
0.660318407591469,0.685980666184726
0.646292954244704,0.671638167093645
0.60246637766868,0.665274801501855
0.661584622699697,0.65920733187027
0.614262799401173,0.659024054930476
0.592713026577903,0.681020960356116
0.556169229126666,0.628354611500083
0.58934072271233,0.614651278188296
0.566958649400956,0.553070250536586
0.542084338723955,0.564201746277528
0.556737471584441,0.58364699391761
0.529292845066579,0.521566022612316
0.546316293032623,0.542685530185005
0.531348174877276,0.478735695534949
0.52701542954726,0.50858048820745
0.511482586599085,0.45268861153727
0.471356629794801,0.429159190751736
0.496234478552809,0.452599779736513
0.485551981275683,0.432793452640163
0.474685780494654,0.412472447238789
0.499949664880439,0.429871477142332
0.473766732858857,0.403379122278057
0.427534141894081,0.390779917597075
0.429712581958495,0.326742048559011
0.401793263047144,0.274362415945071
0.438986949198608,0.309752950684241
0.385182237255032,0.292256657421626
0.42855746213258,0.253310515761373
0.329946469913548,0.181312516359911
0.327876472535557,0.232258346750404
0.300433919442573,0.181128689771092
0.335943739029192,0.141222863392764
0.324184703000262,0.117397887216656
0.312472011206329,0.0935485169186895
0.315242855612478,0.0246637442756526
0.331678478894044,-8.8074742657096e-06
0.29562268458449,-0.00896155075229743
0.266413326007561,-0.00139249951581749
0.235025311910622,0.0215976757808328
0.244089280333256,-0.0480988446954906
0.27041003810534,-0.105607811553645
0.222410707076738,-0.0939221979962706
0.170780529731106,-0.143495170067482
0.185140084999307,-0.184095614946312
0.23557643815952,-0.138609846989842
0.141635400841971,-0.228118588724181
0.171900894784137,-0.202778926091197
0.162562380321907,-0.223292682721455
0.147439195296743,-0.285238848142444
0.174293711705863,-0.235248844727768
0.0993260202756818,-0.275887095794513
0.128300881838958,-0.299988402653486
0.120590806966464,-0.317647404495256
0.149122741960403,-0.295149490282376
0.149710775955233,-0.310725112365106
0.106246123601742,-0.35946807314343
0.0936646659099574,-0.381173090333458
0.10553898520015,-0.418952278196
0.122989240026678,-0.397658584463699
0.0390100656752862,-0.408481698542411
0.0737899134518076,-0.431641287383179
0.114941746624272,-0.44156478718248
0.0668254475741172,-0.451278421636411
0.0641439541578432,-0.459575176649328
0.0620181963984168,-0.466810696521384
0.0937794290177668,-0.473968185616482
0.0536754511876655,-0.494437426347773
0.0191878436126071,-0.4562757508242
0.0833860425521477,-0.521674600652501
0.0785086285075361,-0.519776988902245
0.106227894934547,-0.510091752603585
0.0949378018245338,-0.447567492688584
0.110755928269602,-0.508480222757425
0.0706057580444745,-0.478396444729502
0.0465383641711294,-0.486011849370661
0.0644348419401234,-0.488550848891804
0.0719095562683677,-0.492757636599006
0.103404676389034,-0.454028361163572
0.0982555579121352,-0.4582538004181
0.0907032106326394,-0.427449350608281
0.105777953806381,-0.428356091082509
0.110360914508663,-0.421097015026007
0.0813847234701145,-0.386706430704582
0.150619627887225,-0.446480226986737
0.145853706896507,-0.351072429303584
0.125742897880724,-0.394687629182696
0.155935450072967,-0.365571124969061
0.172735148737225,-0.384095143865718
0.136130805386107,-0.424385115474296
0.0976146871287813,-0.41179599720015
0.172690955437746,-0.38297269460358
0.14064903462404,-0.361882111257199
0.142260245944118,-0.357083767698216
0.143638538592891,-0.352450643767627
0.152191600382519,-0.36960680557685
0.144164015021898,-0.346547757407614
0.146437971783788,-0.339445117536359
0.116242620388528,-0.306462199587151
0.133445029294883,-0.347535544169849
0.189115626757904,-0.28422646245927
0.192956052123417,-0.341348137880616
0.193041483348398,-0.369688156198095
0.116324304367496,-0.27345170594068
0.110088836145535,-0.344030307282386
0.145202249414006,-0.309603070802827
0.144269642731863,-0.30619229917596
0.143184804832538,-0.302820033304651
0.182591775271111,-0.298267198371577
0.0919845308850517,-0.251591009780266
0.133275489853004,-0.315294208599566
0.137447275608224,-0.289521082955248
0.121577903908829,-0.281750797589954
0.133826498601222,-0.282849214568224
0.109269688685355,-0.259311809613119
0.12977058508822,-0.276058447015783
0.131796888833895,-0.252084379790989
0.125329188887139,-0.269070802530028
0.134109004719695,-0.222708728197443
0.116544643892637,-0.237409194587138
0.118052932272072,-0.258049615184149
0.0834962769296345,-0.214145290596173
0.127473398362926,-0.21109906052745
0.133169866369044,-0.221772039077802
0.107465503010976,-0.241937836955979
0.104701853560457,-0.237591899895865
0.143207625924567,-0.273922059602506
0.0968187230712656,-0.196736028612377
0.132906776957078,-0.180101977666498
0.12516267961128,-0.219473995263308
0.0904931898584005,-0.2134668985275
0.113183041829812,-0.256830635751387
0.102740982420373,-0.174175757231995
0.0573811666401468,-0.185287366735864
0.0790301627918164,-0.190707684892203
0.0355477391681722,-0.146940952459151
0.0507673433514246,-0.158480252012983
0.0936073701627451,-0.140261766096533
0.0578577128332428,-0.140168791046617
0.056523773389602,-0.149321253049607
0.0626064711030737,-0.149341427056799
0.0845543513172757,-0.131375684014486
0.0100702270409881,-0.111353215427429
0.0676461004155184,-0.0920321370200025
0.0488002497578939,-0.0673258911999102
0.00448368798300306,-0.0818221198857012
0.0352810172427167,-0.0709986987544766
0.00490723076302899,-0.0764173532217265
0.0933792191418754,-0.0635246534086304
0.0423587195152019,-0.0668633692210277
-0.00323813147787116,-0.0201798899257933
0.0558795589940215,-0.0839347331753005
0.00950679670524632,-0.0126297084359413
0.0532540074325333,-0.0430809682253074
0.0348333532570043,-0.00817523015010736
0.0739892629790171,0.0247602860260345
0.0147783808305551,-0.0127483981051525
-0.00413848598073234,0.0710510092877552
0.0156630236940537,0.0322901817757095
0.0309502792575218,0.0612469302167961
0.0306790135283134,0.0765266642765567
0.0663339433777956,0.103477521885498
0.0019281948060192,0.122136971184689
-0.01053287746336,0.146193947290362
0.0179356001084178,0.189328084721997
0.0516998519084853,0.192059869593058
-0.00739772735268419,0.175949241661949
0.034249827655424,0.197690284047571
0.0705504380216885,0.214388057188674
0.0372143716548092,0.237166925332278
0.0264707042116201,0.237774240231336
0.062081075638142,0.31555613457015
0.0121055574549694,0.314680108723135
0.0460586246589231,0.323105015669404
0.0489132198616328,0.346101565327719
0.0621130811302212,0.344625843399447
0.0489268776587272,0.416300259574572
