0.48285633353836,0.895070219117788
0.474773716734449,0.88637644062687
0.466785654075542,0.877715836352636
0.458891741046716,0.869088340035564
0.451091573133045,0.860493885416135
0.443384745819607,0.851932406234827
0.435770854591478,0.843403836232122
0.428249494933735,0.834908109148498
0.420820262331452,0.826445158724435
0.413482752269708,0.818014918700414
0.406236560233577,0.809617322816913
0.399081281708138,0.801252304814412
0.392016512178464,0.792919798433391
0.385041847129634,0.78461973741433
0.378156882046723,0.776352055497709
0.371361212414808,0.768116686424007
0.364654433718964,0.759913563933704
0.358036141444269,0.751742621767279
0.351505931075799,0.743603793665213
0.345063398098629,0.735497013367984
0.338708137997836,0.727422214616074
0.332439746258497,0.719379331149961
0.326257818365688,0.711368296710125
0.320161949804484,0.703389045037046
0.314151736059963,0.695441509871204
0.308226772617201,0.687525624953078
0.302386654961273,0.679641324023148
0.296630978577257,0.671788540821893
0.290959338950228,0.663967209089794
0.285371331565263,0.656177262567331
0.279866551907438,0.648418634994981
0.27444459546183,0.640691260113227
0.269105057713514,0.632995071662547
0.263847534147568,0.625330003383421
0.258671620249067,0.617695989016328
0.253576911503087,0.610092962301749
0.248563003394706,0.602520856980163
0.243629491408999,0.59497960679205
0.238775971031042,0.587469145477889
0.234002037745912,0.579989406778161
0.229307287038686,0.572540324433344
0.224691314394439,0.56512183218392
0.220153715298247,0.557733863770366
0.215694085235188,0.550376352933164
0.211312019690337,0.543049233412792
0.207007114148771,0.535752438949731
0.202778964095566,0.52848590328446
0.198627165015798,0.521249560157459
0.194551312394544,0.514043343309208
0.190551001716879,0.506867186480186
0.186625828467881,0.499721023410872
0.182775388132625,0.492604787841748
0.178999276196189,0.485518413513293
0.175297088143647,0.478461834165985
0.171668419460076,0.471434983540305
0.168112865630554,0.464437795376733
0.164630022140155,0.457470203415748
0.161219484473957,0.45053214139783
0.157880848117035,0.443623543063459
0.154613708554466,0.436744342153114
0.151417661271327,0.429894472407276
0.148292301752693,0.423073867566423
0.145237225483641,0.416282461371035
0.142252027949246,0.409520187561593
0.139336304634587,0.402786979878577
0.136489651024738,0.396082772062464
0.133711662604776,0.389407497853736
0.131001934859778,0.382761090992872
0.128360063274819,0.376143485220352
0.125785643334976,0.369554614276656
0.123278270525325,0.362994411902263
0.120837540330943,0.356462811837652
0.118463048236906,0.349959747823305
0.116154389728289,0.343485153599699
0.113911160290171,0.337038962907316
0.111732955407626,0.330621109486635
0.109619370565731,0.324231527078135
0.107570001249563,0.317870149422296
0.105584442944197,0.311536910259598
0.10366229113471,0.305231743330521
0.101803141306178,0.298954582375544
0.100006588943678,0.292705361135147
0.0982722295322862,0.28648401334981
0.0965996585570782,0.280290472760012
0.0949884715031307,0.274124673106233
0.0934382638555201,0.267986548128954
0.0919486310993225,0.261876031568653
0.0905191687196142,0.25579305716581
0.0891494722014717,0.249737558660905
0.0878391370299712,0.243709469794418
0.0865877586901889,0.237708724306828
0.0853949326672013,0.231735255938616
0.0842602544460845,0.22578899843026
0.0831833195119151,0.219869885522241
0.082163723349769,0.213977850955038
0.0812010614447227,0.208112828469131
0.0802949292818526,0.202274751805
0.0794449223462349,0.196463554703124
0.0786506361229459,0.190679170903983
0.0779116660970619,0.184921534148057
0.0772276077536593,0.179190578175826
0.0765980565778143,0.173486236727769
0.0760226080546031,0.167808443544365
0.0755008576691022,0.162157132366096
0.0750324009063879,0.156532236933439
0.0746168332515364,0.150933690986876
0.074253750189624,0.145361428266886
0.073942747205727,0.139815382513948
0.0736834197849218,0.134295487468542
0.0734753634122846,0.128801676871148
0.0733181735728917,0.123333884462246
0.0732114457518195,0.117892043982315
0.0731547754341443,0.112476089171835
0.0731477581049423,0.107085953771286
0.0731899892492898,0.101721571521147
0.0732810643522632,0.0963828761618988
0.0734205788989388,0.0910698014340201
0.0736081283743928,0.0857822810779911
0.0738433082637016,0.0805202488342913
0.0741257140519414,0.0752836384434004
0.0744549412241886,0.0700723836457984
0.0748305852655196,0.0648864181819647
0.0752522416610104,0.0597256757923792
0.0757195058957375,0.0545900902175214
0.0762319734547772,0.0494795951978713
0.0767892398232057,0.0443941244739084
0.0773909004860995,0.0393336117861126
0.0780365509285347,0.0342979908749632
0.0787257866355878,0.0292871954809404
0.0794582030923349,0.0243011593445236
0.0802333957838524,0.0193398162061926
0.0810509601952166,0.014403099806427
0.0819104918115037,0.00949094388570682
0.0828115861177902,0.00460328218451156
0.0837538385991523,-0.0002599515566791
0.0847368447406663,-0.00509882359738545
0.0857602000274085,-0.00991340019712775
0.0868234999444552,-0.0147037476154262
0.0879263399768827,-0.0194699321118011
0.0890683156097673,-0.024212019945773
0.0902490223281853,-0.0289300773768619
0.091468055617213,-0.0336241706645882
0.0927250109619268,-0.0382943660684722
0.0940194838474029,-0.0429407298480342
0.0953510697587176,-0.0475633282627944
0.0967193641809472,-0.0521622275722731
0.0981239625991681,-0.0567374940359908
0.0995644604984564,-0.0612891939134675
0.101040453363889,-0.0658173934642237
0.102551536680541,-0.0703221589477795
0.10409730593349,-0.0748035566236554
0.105677356607811,-0.0792616527513716
0.107291284188582,-0.0836965135904484
0.108938684160878,-0.0881082054004061
0.110619152009775,-0.0924967944407649
0.112332283220351,-0.0968623469710451
0.114077673277681,-0.101204929250767
0.115854917666841,-0.105524607539451
0.117663611872908,-0.109821448096618
0.119503351380958,-0.114095517181787
0.121373731676068,-0.118346881054478
0.123274348243314,-0.122575605974214
0.125204796567771,-0.126781758200512
0.127164672134517,-0.130965403992895
0.129153570428628,-0.135126609610881
0.13117108693518,-0.139265441313992
0.133216817139248,-0.143381965361747
0.135290356525911,-0.147476248013668
0.137391300580243,-0.151548355529273
0.139519244787322,-0.155598354168084
0.141673784632223,-0.159626310189621
0.143854515600023,-0.163632289853404
0.146061033175797,-0.167616359418954
0.148292932844624,-0.17157858514579
0.150549810091578,-0.175519033293433
0.152831260401736,-0.179437770121404
0.155136879260174,-0.183334861889221
0.157466262151969,-0.187210374856407
0.159819004562197,-0.191064375282481
0.162194701975934,-0.194896929426964
0.164592949878256,-0.198708103549375
0.16701334375424,-0.202497963909235
0.169455479088963,-0.206266576766064
0.1719189513675,-0.210014008379383
0.174403356074927,-0.213740325008712
0.176908288696322,-0.217445592913571
0.17943334471676,-0.22112987835348
0.181978119621317,-0.224793247587961
0.184542208895071,-0.228435766876532
0.187125208023096,-0.232057502478714
0.18972671249047,-0.235658520654029
0.192346317782269,-0.239238887661995
0.19498361938357,-0.242798669762133
0.197638212779447,-0.246337933213964
0.200309693454979,-0.249856744277007
0.20299765689524,-0.253355169210784
0.205701698585308,-0.256833274274814
0.208421414010258,-0.260291125728618
0.211156398655167,-0.263728789831715
0.213906248005112,-0.267146332843627
0.216670557545168,-0.270543821023874
0.219448922760412,-0.273921320631975
0.22224093913592,-0.277278897927451
0.225046202156769,-0.280616619169823
0.227864307308034,-0.28393455061861
0.230694850074793,-0.287232758533334
0.233537425942121,-0.290511309173513
0.236391630395094,-0.29377026879867
0.239257058918789,-0.297009703668323
0.242133306998283,-0.300229680041993
0.245019970118652,-0.3034302641792
0.247916643764971,-0.306611522339466
0.250822923422317,-0.309773520782309
0.253738404575767,-0.312916325767251
0.256662682710397,-0.316040003553811
0.259595353311282,-0.31914462040151
0.262536011863501,-0.322230242569868
0.265484253852127,-0.325296936318406
0.268439674762239,-0.328344767906644
0.271401870078912,-0.331373803594101
0.274370435287223,-0.334384109640299
0.277344965872248,-0.337375752304758
0.280325057319063,-0.340348797846997
0.283310305112744,-0.343303312526538
0.286300304738368,-0.3462393626029
0.289294651681011,-0.349157014335604
0.29229294142575,-0.35205633398417
0.295294769457661,-0.354937387808118
0.298299731261819,-0.357800242066969
0.301307422323302,-0.360644963020243
0.304317438127185,-0.36347161692746
0.307329374158545,-0.366280270048141
0.310342825902459,-0.369070988641806
0.313357388844002,-0.371843838967974
0.316372658468251,-0.374598887286167
0.319388230260282,-0.377336199855905
0.322403699705172,-0.380055842936708
0.325418662287996,-0.382757882788096
0.328432713493831,-0.385442385669589
0.331445448807754,-0.388109417840709
0.33445646371484,-0.390759045560974
0.337465353700166,-0.393391335089906
0.340471714248809,-0.396006352687025
0.343475140845844,-0.398604164611851
0.346475228976348,-0.401184837123904
0.349471574125397,-0.403748436482704
0.352463771778067,-0.406295028947773
0.355451417419436,-0.40882468077863
0.358434106534578,-0.411337458234795
0.361411434608571,-0.413833427575789
0.36438299712649,-0.416312655061131
0.367348389573413,-0.418775206950344
0.370307207434414,-0.421221149502946
0.373259046194571,-0.423650548978458
0.37620350133896,-0.4260634716364
0.379140168352658,-0.428459983736292
0.38206864272074,-0.430840151537655
0.384988519928282,-0.43320404130001
0.387899395460362,-0.435551719282876
0.390800864802055,-0.437883251745773
0.393692523438438,-0.440198704948222
0.396573966854587,-0.442498145149744
0.399444790535578,-0.444781638609858
0.402304589966487,-0.447049251588085
0.405152960632392,-0.449301050343945
0.407989498018368,-0.451537101136959
0.410813797609491,-0.453757470226646
0.413625454890838,-0.455962223872527
0.416424065347485,-0.458151428334123
0.419209224464509,-0.460325149870953
0.421980527726985,-0.462483454742537
0.424737570619991,-0.464626409208398
0.427479948628601,-0.466754079528053
0.430207257237894,-0.468866531961024
0.432919091932944,-0.470963832766831
0.435615048198829,-0.473046048204995
0.438294721520624,-0.475113244535035
0.440957707383405,-0.477165488016472
0.443603601272251,-0.479202844908826
0.446231998672235,-0.481225381471618
0.448842495068435,-0.483233163964367
0.451434685945927,-0.485226258646594
0.454008166789788,-0.48720473177782
0.456562533085093,-0.489168649617565
0.45909738031692,-0.491118078425348
0.461612303970343,-0.493053084460691
0.46410689953044,-0.494973733983113
0.466580762482287,-0.496880093252134
0.46903348831096,-0.498772228527276
0.471464672501536,-0.500650206068059
0.47387391053909,-0.502514092134002
0.476260797908699,-0.504363952984626
0.47862493009544,-0.506199854879451
0.480965902584388,-0.508021864077997
0.48328331086062,-0.509830046839786
0.485576750409213,-0.511624469424336
0.487845816715243,-0.513405198091169
0.490090105263785,-0.515172299099805
0.492309211539916,-0.516925838709764
0.494502731028713,-0.518665883180566
0.496670259215251,-0.520392498771731
0.498811391584608,-0.522105751742781
0.500925723621859,-0.523805708353234
0.503012850812081,-0.525492434862612
0.50507236864035,-0.527165997530435
0.507103872591742,-0.528826462616223
0.509106958151333,-0.530473896379496
0.511081220804201,-0.532108365079775
0.513026256035421,-0.533729934976579
0.514941659330069,-0.53533867232943
0.516827026173222,-0.536934643397847
0.518681952049956,-0.538517914441351
0.520506032445348,-0.540088551719462
0.522298862844474,-0.5416466214917
0.524060038732409,-0.543192190017586
0.525789155594231,-0.54472532355664
0.527485808915015,-0.546246088368382
0.529149594179838,-0.547754550712333
0.530780106873777,-0.549250776848013
0.532376942481907,-0.550734833034941
0.533939696489305,-0.552206785532639
0.535467964381047,-0.553666700600627
0.53696134164221,-0.555114644498424
0.538419423757869,-0.556550683485552
0.539841806213101,-0.55797488382153
0.541228084492983,-0.559387311765879
0.54257785408259,-0.560788033578119
0.543890710466999,-0.562177115517771
0.545166249131287,-0.563554623844355
0.546404065560529,-0.56492062481739
0.547603755239802,-0.566275184696397
0.548764913654182,-0.567618369740898
0.549887136288745,-0.568950246210411
0.550970018628569,-0.570270880364457
0.552013156158728,-0.571580338462557
0.5530161443643,-0.57287868676423
0.55397857873036,-0.574165991528997
0.554900054741986,-0.575442319016379
0.555780167884253,-0.576707735485895
0.556618513642237,-0.577962307197067
0.557414687501015,-0.579206100409413
0.558168284945664,-0.580439181382455
0.558878901461258,-0.581661616375712
0.559546132532876,-0.582873471648706
0.560169573645593,-0.584074813460956
0.560748820284485,-0.585265708071983
0.561283467934629,-0.586446221741307
0.561773112081101,-0.587616420728447
0.562217348208977,-0.588776371292926
0.562615771803334,-0.589926139694262
0.562967978349247,-0.591065792191976
0.563273563331794,-0.592195395045589
0.563532122236051,-0.59331501451462
0.563743250547093,-0.59442471685859
0.563906543749997,-0.59552456833702
0.56402159732984,-0.596614635209429
0.564088006771698,-0.597694983735337
0.564105367560646,-0.598765680174266
0.564073275181762,-0.599826790785736
0.563991325120121,-0.600878381829266
0.563859112860801,-0.601920519564377
0.563676233888876,-0.602953270250589
0.563442283689425,-0.603976700147423
0.563156857747522,-0.604990875514399
0.562819551548244,-0.605995862611037
0.562429960576667,-0.606991727696857
0.561987680317869,-0.60797853703138
0.561492306256924,-0.608956356874127
0.56094343387891,-0.609925253484616
0.560340658668902,-0.610885293122369
0.559683576111978,-0.611836542046906
0.558971781693212,-0.612779066517747
0.558204870897683,-0.613712932794413
0.557382439210465,-0.614638207136423
0.556504082116635,-0.615554955803299
0.555569395101269,-0.61646324505456
0.554577973649445,-0.617363141149726
0.553529413246238,-0.618254710348318
0.552423309376723,-0.619138018909857
0.551259257525979,-0.620013133093862
0.550036853179081,-0.620880119159854
0.548755691821105,-0.621739043367353
0.547415368937127,-0.62258997197588
0.546015480012224,-0.623432971244954
0.544555620531473,-0.624268107434096
0.543035385979949,-0.625095446802826
0.541454371842729,-0.625915055610665
0.539812173604889,-0.626727000117132
0.538108386751505,-0.627531346581749
0.536342606767654,-0.628328161264035
0.534514429138412,-0.629117510423511
0.532623449348855,-0.629899460319697
0.53066926288406,-0.630674077212113
0.528651465229103,-0.63144142736028
0.52656965186906,-0.632201577023718
0.524423418289008,-0.632954592461946
0.522212359974022,-0.633700539934487
0.51993607240918,-0.634439485700859
0.517594151079557,-0.635171496020582
0.515186191470229,-0.635896637153179
0.515186191470229,-0.635896637153179
0.512746258929809,-0.636612696025214
0.510308703980008,-0.637317390958233
0.507873549865554,-0.63801068530423
0.505440819831177,-0.638692542415195
0.503010537121603,-0.639362925643121
0.500582724981561,-0.640021798339998
0.498157406655779,-0.640669123857818
0.495734605388985,-0.641304865548574
0.493314344425907,-0.641928986764256
0.490896647011274,-0.642541450856857
0.488481536389813,-0.643142221178367
0.486069035806253,-0.64373126108078
0.483659168505322,-0.644308533916085
0.481251957731747,-0.644874003036275
0.478847426730258,-0.645427631793342
0.476445598745582,-0.645969383539277
0.474046497022447,-0.646499221626072
0.471650144805581,-0.647017109405718
0.469256565339713,-0.647523010230207
0.46686578186957,-0.648016887451531
0.464477817639882,-0.648498704421681
0.462092695895375,-0.648968424492649
0.459710439880778,-0.649426011016427
0.457331072840819,-0.649871427345006
0.454954618020226,-0.650304636830378
0.452581098663728,-0.650725602824535
0.450210538016052,-0.651134288679467
0.447842959321927,-0.651530657747168
0.445478385826081,-0.651914673379628
0.443116840773241,-0.652286298928839
0.440758347408137,-0.652645497746792
0.438402928975495,-0.65299223318548
0.436050608720045,-0.653326468596895
0.433701409886514,-0.653648167333026
0.431355355719631,-0.653957292745867
0.429012469464123,-0.654253808187409
0.426672774364719,-0.654537677009643
0.424336293666147,-0.654808862564562
0.422003050613134,-0.655067328204156
0.41967306845041,-0.655313037280418
0.417346370422702,-0.655545953145338
0.415022979774738,-0.65576603915091
0.412702919751247,-0.655973258649124
0.410386213596956,-0.656167574991972
0.408072884556594,-0.656348951531445
0.405762955874889,-0.656517351619536
0.403456450796568,-0.656672738608236
0.401153392566361,-0.656815075849536
0.398853804428995,-0.656944326695429
0.396557709629199,-0.657060454497905
0.394265131411699,-0.657163422608956
0.391976093021226,-0.657253194380575
0.389690617702506,-0.657329733164753
0.387408728700267,-0.657393002313481
0.385130449259239,-0.657442965178751
0.382855802624149,-0.657479585112554
0.380584812039724,-0.657502825466883
0.378317500750695,-0.657512649593729
0.376053892001787,-0.657509020845083
0.37379400903773,-0.657491902572938
0.371537875103252,-0.657461258129284
0.36928551344308,-0.657417050866114
0.367036947301944,-0.657359244135419
0.36479219992457,-0.657287801289191
0.362551294555688,-0.657202685679421
0.360314254440025,-0.657103860658101
0.358081102822309,-0.656991289577223
0.355851862947269,-0.656864935788778
0.353626558059633,-0.656724762644758
0.351405211404128,-0.656570733497154
0.349187846225483,-0.656402811697959
0.346974485768426,-0.656220960599164
0.344765153277685,-0.65602514355276
0.342559871997988,-0.655815323910739
0.340358665174064,-0.655591465025093
0.338161556050641,-0.655353530247813
0.335968567872446,-0.655101482930892
0.333779723884207,-0.65483528642632
0.331595047330654,-0.654554904086089
0.329414561456513,-0.654260299262191
0.327238289506514,-0.653951435306618
0.325066254725384,-0.653628275571361
0.322898480357851,-0.653290783408412
0.320734989648644,-0.652938922169763
0.318575805842491,-0.652572655207404
0.316420952184119,-0.652191945873329
0.314270451918256,-0.651796757519527
0.312124328289632,-0.651387053497992
0.309982604542974,-0.650962797160715
0.307845303923011,-0.650523951859687
0.305712449674469,-0.650070480946899
0.303584065042078,-0.649602347774345
0.301460173270566,-0.649119515694014
0.29934079760466,-0.6486219480579
0.297225961289089,-0.648109608217992
0.295115687568581,-0.647582459526285
0.293009999687865,-0.647040465334768
0.290908920891667,-0.646483588995433
0.288812474424717,-0.645911793860272
0.286720683531742,-0.645325043281277
0.284633571457471,-0.64472330061044
0.282551161446631,-0.644106529199751
0.280473476743951,-0.643474692401203
0.278400540594159,-0.642827753566787
0.276332376241984,-0.642165676048495
0.274269006932152,-0.641488423198319
0.272210455909393,-0.640795958368249
0.270156746418434,-0.640088244910279
0.268107901704004,-0.639365246176399
0.26606394501083,-0.638626925518601
0.264024899583641,-0.637873246288877
0.261990788667165,-0.637104171839218
0.25996163550613,-0.636319665521616
0.257937463345264,-0.635519690688062
0.255918295429296,-0.634704210690549
0.253904155002953,-0.633873188881068
0.251895065310964,-0.633026588611611
0.249891049598056,-0.632164373234168
0.247892131108958,-0.631286506100732
0.245898333088397,-0.630392950563295
0.243909678781103,-0.629483669973848
0.241926191431803,-0.628558627684382
0.239947894285226,-0.62761778704689
0.237974810586098,-0.626661111413363
0.236006963579149,-0.625688564135793
0.234044376509107,-0.624700108566171
0.2320870726207,-0.623695708056488
0.230135075158655,-0.622675325958737
0.228188407367702,-0.62163892562491
0.226247092492567,-0.620586470406997
0.22431115377798,-0.619517923656991
0.222380614468668,-0.618433248726882
0.22045549780936,-0.617332408968664
0.218535827044784,-0.616215367734327
0.216621625419667,-0.615082088375863
0.214712916178738,-0.613932534245263
0.212809722566725,-0.61276666869452
0.210912067828356,-0.611584455075625
0.209019975208359,-0.610385856740569
0.207133467951462,-0.609170837041344
0.205252569302395,-0.607939359329943
0.203377302505883,-0.606691386958355
0.201507690806657,-0.605426883278574
0.199643757449443,-0.604145811642591
0.19778552567897,-0.602848135402397
0.195933018739967,-0.601533817909983
0.19408625987716,-0.600202822517343
0.192245272335279,-0.598855112576467
0.190410079359052,-0.597490651439347
0.188580704193205,-0.596109402457974
0.186757170082469,-0.594711328984341
0.184939500271571,-0.593296394370438
0.183127718005238,-0.591864561968258
0.1813218465282,-0.590415795129792
0.179521909085183,-0.588950057207032
0.177727928920917,-0.587467311551969
0.17593992928013,-0.585967521516595
0.174157933407549,-0.584450650452902
0.172381964547903,-0.582916661712881
0.170612045945919,-0.581365518648524
0.168848200846327,-0.579797184611823
0.167090452493853,-0.578211622954768
0.165338824133227,-0.576608797029353
0.163593339009176,-0.574988670187568
0.161854020366428,-0.573351205781406
0.160120891449712,-0.571696367162857
0.158393975503756,-0.570024117683913
0.156673295773287,-0.568334420696567
0.154958875503035,-0.566627239552809
0.153250737937726,-0.564902537604631
0.15154890632209,-0.563160278204026
0.149853403900854,-0.561400424702984
0.148164253918746,-0.559622940453497
0.146481479620495,-0.557827788807557
0.144805104250828,-0.556014933117156
0.143135151054474,-0.554184336734285
0.141471643276162,-0.552335963010935
0.139814604160618,-0.550469775299099
0.138164056952571,-0.548585736950768
0.13652002489675,-0.546683811317934
0.134882531237882,-0.544763961752588
0.133251599220695,-0.542826151606722
0.131627252089918,-0.540870344232327
0.130009513090279,-0.538896502981396
0.128398405466506,-0.53690459120592
0.126793952463327,-0.53489457225789
0.125196177325469,-0.532866409489298
0.123605103297662,-0.530820066252136
0.122020753624634,-0.528755505898396
0.120443151551112,-0.526672691780069
0.118872320321825,-0.524571587249146
0.1173082831815,-0.522452155657619
0.115751063374866,-0.520314360357481
0.114200684146651,-0.518158164700722
0.112657168741584,-0.515983532039335
0.111120540404391,-0.51379042572531
0.109590822379802,-0.51157880911064
0.108068037912544,-0.509348645547316
0.106552210247346,-0.50709989838733
0.105043362628936,-0.504832530982673
0.103541518302042,-0.502546506685337
0.102046700511391,-0.500241788847314
0.100558932501713,-0.497918340820596
0.0990782375177345,-0.495576125957173
0.0976046388041846,-0.493215107609038
0.0961381596057913,-0.490835249128182
0.0946788231672824,-0.488436513866597
0.0932266527333863,-0.486018865176275
0.091781671548831,-0.483582266409207
0.0903439028583447,-0.481126680917385
0.0889133699066554,-0.4786520720528
0.0874900959384914,-0.476158403167444
0.0860741041985806,-0.473645637613309
0.0846654179316514,-0.471113738742386
0.0832640603824316,-0.468562669906667
0.0818700547956496,-0.465992394458144
0.0804834244160333,-0.463402875748808
0.079104192488311,-0.460794077130651
0.0777323822572107,-0.458165961955665
0.0763680169674607,-0.455518493575841
0.0750111198637889,-0.452851635343171
0.0736617141909235,-0.450165350609646
0.0723198231935927,-0.447459602727258
0.0709854701165246,-0.444734355047999
0.0696586782044473,-0.44198957092386
0.0683394707020888,-0.439225213706833
0.0670278708541774,-0.43644124674891
0.0657239019054412,-0.433637633402083
0.0644275871006083,-0.430814337018342
0.0631389496844067,-0.427971320949679
0.0618580129015647,-0.425108548548087
0.0605847999968103,-0.422225983165557
0.0593193342148717,-0.41932358815408
0.0580616388004771,-0.416401326865648
0.0568117369983544,-0.413459162652253
0.0555696520532319,-0.410497058865887
0.0543354072098376,-0.40751497885854
0.0531090257128997,-0.404512885982205
0.0518905308071463,-0.401490743588874
0.0506799457373056,-0.398448515030537
0.0494772937481056,-0.395386163659187
0.0482825980842746,-0.392303652826815
0.0470958819905404,-0.389200945885413
0.0459171687116315,-0.386078006186972
0.0447464814922758,-0.382934797083485
0.0435838435772014,-0.379771281926942
0.0424292782111365,-0.376587424069336
0.0412828086388093,-0.373383186862658
0.0401444581049478,-0.370158533658899
0.0390142498542802,-0.366913427810052
0.0378922071315345,-0.363647832668107
0.036778353181439,-0.360361711585058
0.0356727112487216,-0.357055027912894
0.0345753045781107,-0.353727745003608
0.0334861564143341,-0.350379826209192
0.0324052900021203,-0.347011234881637
0.0313327285861971,-0.343621934372935
0.0302684954112927,-0.340211888035077
0.0292126137221354,-0.336781059220055
0.0281651067634531,-0.333329411279861
0.027125997779974,-0.329856907566486
0.0260953100164263,-0.326363511431922
0.025073066717538,-0.322849186228161
0.0240592911280373,-0.319313895307194
0.0230540064926523,-0.315757602021012
0.0220572360561112,-0.312180269721609
0.0210690030631419,-0.308581861760974
0.0200893307584728,-0.3049623414911
0.0191182423868318,-0.301321672263979
0.0181557611929472,-0.297659817431601
0.017201910421547,-0.29397674034596
0.0162567133173594,-0.290272404359046
0.0153201931251124,-0.28654677282285
0.0143923730895343,-0.282799809089365
0.0134732764553531,-0.279031476510583
0.0125629264672969,-0.275241738438494
0.0116613463700939,-0.271430558225091
0.0107685594084723,-0.267597899222365
0.00988458882715997,-0.263743724782308
0.00900945787088528,-0.259867998256911
0.0081431897843762,-0.255970682998167
0.00728580781236097,-0.252051742358066
0.00643733519956759,-0.2481111396886
0.00559779519072431,-0.244148838341761
0.00476721103055913,-0.240164801669541
0.00394560596380028,-0.236158993023932
0.00313300323517579,-0.232131375756924
0.00232942608941387,-0.228081913220509
0.00153489777124255,-0.22401056876668
0.000749441525390051,-0.219917305747428
-2.69194034155894e-05,-0.215802087514744
-0.000794161770446184,-0.21166487742062
-0.00155226233097366,-0.207505638817048
-0.00230119784026986,-0.203324335056019
-0.00304094505360668,-0.199120929489525
-0.00377148072625598,-0.194895385469558
-0.00449278161348967,-0.190647666348109
-0.00520482447057958,-0.18637773547717
-0.00590758605279764,-0.182085556208732
-0.00660104311541568,-0.177771091894788
-0.00728517241370561,-0.173434305887329
-0.00795995070293927,-0.169075161538346
-0.0086253547383886,-0.164693622199831
-0.0092813612753254,-0.160289651223776
-0.00992794706902163,-0.155863211962172
-0.0105650888747491,-0.151414267767011
-0.0111927634477797,-0.146942781990284
-0.0118109475433853,-0.142448717983985
-0.0124196179168379,-0.137932039100102
-0.0130187513234091,-0.13339270869063
-0.0136083245183711,-0.128830690107559
-0.0141883142569956,-0.12424594670288
-0.0147586972945544,-0.119638441828586
-0.0153194503863196,-0.115008138836668
-0.0158705502875629,-0.110355001079118
-0.0164119737535563,-0.105678991907927
-0.0169436975395715,-0.100980074675088
-0.0174656984008806,-0.0962582127325905
-0.0179779530927553,-0.0915133694324276
-0.0184804383704676,-0.0867455081265908
-0.0189731309892893,-0.0819545921670713
-0.0194560077044923,-0.0771405849058613
-0.0199290452713484,-0.0723034496949518
-0.0203922204451296,-0.0674431498863351
-0.0208455099811078,-0.0625596488320023
-0.0212888906345547,-0.0576529098839454
-0.0217223391607424,-0.0527228963941557
-0.0221458323149426,-0.0477695717146253
-0.0225593468524272,-0.0427928991973452
-0.0229628595284682,-0.0377928421943077
-0.0233563470983374,-0.0327693640575039
-0.0237397863173066,-0.027722428138926
-0.0241131539406478,-0.022651997790565
-0.0244764267236327,-0.0175580363644131
-0.0248295814215335,-0.0124405072124614
-0.0251725947896217,-0.00729937368670205
-0.0255054435831695,-0.00213459913912629
-0.0258281045574486,0.00305385307827387
-0.0261405544677309,0.00826601961350722
-0.0264427700692882,0.0135019371145816
-0.0267347281173926,0.018761642229506
-0.0270164053673158,0.0240451716062881
-0.0272877785743297,0.029352561892937
-0.0275488244937062,0.0346838497374603
-0.0277995198807172,0.0400390717878672
-0.0280398414906345,0.0454182646921651
-0.0282697660787301,0.0508214650983632
-0.0284892704002757,0.0562487096544693
-0.0286983312105434,0.0617000350084922
-0.0288969252648049,0.0671754778084399
-0.0290850293183322,0.0726750747023211
-0.029262620126397,0.0781988623381437
-0.0294296744442714,0.0837468773639166
-0.0295861690272271,0.0893191564276477
-0.0297320806305361,0.0949157361773458
-0.0298673860094702,0.100536653261019
-0.0299920619193014,0.106181944326675
-0.0301060851153013,0.111851646022324
-0.0302094323527421,0.117545794995973
-0.0303020803868955,0.12326442789563
-0.0303840059730334,0.129007581369304
-0.0304551858664276,0.134775292065003
-0.0305155968223502,0.140567596630737
-0.0305652155960729,0.146384531714512
-0.0306040189428676,0.152226133964337
-0.0306319836180062,0.158092440028221
-0.0306490863767606,0.163983486554173
-0.0306553039744026,0.1698993101902
-0.0306506131662042,0.175839947584311
-0.0306349907074371,0.181805435384513
-0.0306084133533734,0.187795810238817
-0.0305708578592848,0.193811108795229
-0.0305223009804432,0.199851367701759
-0.0304627194721206,0.205916623606414
-0.0303920900895888,0.212006913157204
-0.0303103895881196,0.218122273002136
-0.030217594722985,0.224262739789218
-0.0301136822494567,0.23042835016646
-0.0299986289228068,0.236619140781869
-0.0298724114983071,0.242835148283454
-0.0297350067312294,0.249076409319223
-0.0295863913768457,0.255342960537185
-0.0294265421904278,0.261634838585347
-0.0292554359272475,0.267952080111719
-0.0290730493425769,0.274294721764309
-0.0288793591916876,0.280662800191124
-0.0286743422298517,0.287056352040174
-0.028457975212341,0.293475413959467
-0.0282302348944274,0.29992002259701
-0.0279910980313827,0.306390214600813
-0.0277405413784788,0.312886026618885
-0.0274785416909876,0.319407495299232
-0.027205075724181,0.325954657289863
-0.0269201202333309,0.332527549238788
-0.0266236519737091,0.339126207794014
-0.0263156477005876,0.345750669603549
-0.0259960841692381,0.352400971315403
-0.0256649381349326,0.359077149577583
-0.0253221863529429,0.365779241038097
-0.0253221863529429,0.365779241038097
-0.0249841868840615,0.372450525811112
-0.0246672302378678,0.379034488269478
-0.0243711918428143,0.385531471449233
-0.0240959471273535,0.391941818386416
-0.023841371519938,0.398265872117063
-0.0236073404490202,0.404503975677212
-0.0233937293430528,0.410656472102901
-0.0232004136304881,0.416723704430169
-0.0230272687397787,0.422706015695052
-0.0228741700993771,0.428603748933588
-0.0227409931377358,0.434417247181816
-0.0226276132833074,0.440146853475772
-0.0225339059645443,0.445792910851496
-0.0224597466098991,0.451355762345023
-0.0224050106478242,0.456835750992392
-0.0223695735067723,0.462233219829641
-0.0223533106151957,0.467548511892808
-0.022356097401547,0.47278197021793
-0.0223778092942788,0.477933937841045
-0.0224183217218435,0.483004757798191
-0.0224775101126937,0.487994773125405
-0.0225552498952818,0.492904326858725
-0.0226514164980603,0.497733762034189
-0.0227658853494819,0.502483421687835
-0.022898531877999,0.507153648855701
-0.023049231512064,0.511744786573823
-0.0232178596801296,0.51625717787824
-0.0234042918106483,0.52069116580499
-0.0236084033320724,0.52504709339011
-0.0238300696728546,0.529325303669639
-0.0240691662614474,0.533526139679613
-0.0243255685263033,0.53764994445607
-0.0245991518958748,0.541697061035049
-0.0248897917986144,0.545667832452587
-0.0251973636629746,0.549562601744722
-0.025521742917408,0.553381711947491
-0.025862804990367,0.557125506096933
-0.0262204253103041,0.560794327229084
-0.0265944793056719,0.564388518379983
-0.0269848424049229,0.567908422585667
-0.0273913900365096,0.571354382882175
-0.0278139976288845,0.574726742305544
-0.0282525406105002,0.578025843891811
-0.028706894409809,0.581252030677014
-0.0291769344552637,0.584405645697192
-0.0296625361753165,0.587487031988381
-0.0301635749984202,0.59049653258662
-0.0306799263530271,0.593434490527947
-0.0312114656675898,0.596301248848398
-0.0317580683705608,0.599097150584012
-0.0323196098903927,0.601822538770826
-0.0328959656555378,0.604477756444879
-0.0334870110944489,0.607063146642208
-0.0340926216355782,0.609579052398851
-0.0347126727073785,0.612025816750845
-0.0353470397383021,0.614403782734228
-0.0359955981568016,0.616713293385038
-0.0366582233913296,0.618954691739313
-0.0373347908703384,0.62112832083309
-0.0380251760222807,0.623234523702407
-0.038729254275609,0.625273643383302
-0.0394469010587756,0.627246022911813
-0.0401779918002333,0.629152005323977
-0.0409224019284344,0.630991933655832
-0.0416800068718316,0.632766150943416
-0.0424506820588772,0.634475000222766
-0.0432343029180239,0.63611882452992
-0.0440307448777241,0.637697966900917
-0.0448398833664303,0.639212770371794
-0.0456615938125951,0.640663577978587
-0.046495751644671,0.642050732757336
-0.0473422322911104,0.643374577744078
-0.048200911180366,0.644635455974851
-0.0490716637408901,0.645833710485692
-0.0499543654011353,0.646969684312639
-0.0508488915895543,0.64804372049173
-0.0517551177345993,0.649056162059003
-0.052672919264723,0.650007352050495
-0.0536021716083778,0.650897633502244
-0.0545427501940164,0.651727349450288
-0.0554945304500911,0.652496842930664
-0.0564573878050546,0.653206456979411
-0.0574311976873592,0.653856534632566
-0.0584158355254576,0.654447418926166
-0.0594111767478023,0.65497945289625
-0.0604170967828457,0.655452979578856
-0.0614334710590403,0.65586834201002
-0.0624601750048388,0.656225883225781
-0.0634970840486935,0.656525946262176
-0.064544073619057,0.656768874155244
-0.0656010191443819,0.656955009941021
-0.0666677960531206,0.657084696655546
-0.0677442797737256,0.657158277334856
-0.0688303457346495,0.65717609501499
-0.0699258693643448,0.657138492731984
-0.0710307260912639,0.657045813521877
-0.0721447913438594,0.656898400420706
-0.0732679405505839,0.65669659646451
-0.0744000491398897,0.656440744689324
-0.0755409925402295,0.656131188131189
-0.0766906461800557,0.655768269826141
-0.0778488854878209,0.655352332810218
-0.0790155858919775,0.654883720119457
-0.0801906228209782,0.654362774789897
-0.0813738717032753,0.653789839857575
-0.0825652079673214,0.653165258358529
-0.083764507041569,0.652489373328797
-0.0849716443544707,0.651762527804416
-0.0861864953344789,0.650985064821425
-0.0874089354100462,0.65015732741586
-0.088638840009625,0.649279658623759
-0.0898760845616679,0.648352401481161
-0.0911205444946274,0.647375899024104
-0.092372095236956,0.646350494288623
-0.0936306122171062,0.645276530310759
-0.0948959708635306,0.644154350126548
-0.0961680466046816,0.642984296772027
-0.0974467148690117,0.641766713283236
-0.0987318510849735,0.640501942696211
-0.10002333068102,0.63919032804699
-0.101321029085602,0.637832212371611
-0.102624821727174,0.636427938706112
-0.103934584034188,0.63497785008653
-0.105250191435096,0.633482289548903
-0.10657151935835,0.63194160012927
-0.107898443232404,0.630356124863666
-0.10923083848571,0.628726206788131
-0.110568580546719,0.627052188938703
-0.111911544843886,0.625334414351418
-0.113259606805662,0.623573226062315
-0.1146126418605,0.62176896710743
-0.115970525436852,0.619921980522804
-0.117333132963171,0.618032609344471
-0.118700339867909,0.616101196608472
-0.120072021579519,0.614128085350842
-0.121448053526454,0.612113618607621
-0.122828311137165,0.610058139414845
-0.124212669840106,0.607961990808552
-0.125601005063729,0.605825515824781
-0.126993192236486,0.603649057499569
-0.12838910678683,0.601432958868953
-0.129788624143214,0.599177562968972
-0.131191619734089,0.596883212835663
-0.132597968987909,0.594550251505063
-0.134007547333126,0.592179022013212
-0.135420230198193,0.589769867396145
-0.136835893011561,0.587323130689902
-0.138254411201684,0.584839154930519
-0.139675660197014,0.582318283154035
-0.141099515426004,0.579760858396487
-0.142525852317106,0.577167223693913
-0.143954546298772,0.574537722082352
-0.145385472799455,0.571872696597839
-0.146818507247608,0.569172490276413
-0.148253525071684,0.566437446154113
-0.149690401700133,0.563667907266975
-0.15112901256141,0.560864216651038
-0.152569233083967,0.558026717342338
-0.154010938696255,0.555155752376915
-0.155454004826729,0.552251664790805
-0.156898306903839,0.549314797620047
-0.158343720356039,0.546345493900677
-0.159790120611782,0.543344096668734
-0.161237383099519,0.540310948960257
-0.162685383247703,0.537246393811281
-0.164133996484788,0.534150774257845
-0.165583098239224,0.531024433335987
-0.167032563939465,0.527867714081744
-0.168482269013964,0.524680959531155
-0.169932088891172,0.521464512720257
-0.171381898999543,0.518218716685087
-0.172831574767528,0.514943914461684
-0.174280991623581,0.511640449086085
-0.175730024996153,0.508308663594328
-0.177178550313698,0.50494890102245
-0.178626443004668,0.50156150440649
-0.180073578497516,0.498146816782485
-0.181519832220693,0.494705181186472
-0.182965079602652,0.491236940654491
-0.184409196071847,0.487742438222577
-0.185852057056729,0.48422201692677
-0.187293537985751,0.480676019803106
-0.188733514287365,0.477104789887624
-0.190171861390024,0.473508670216362
-0.191608454722181,0.469888003825356
-0.193043169712288,0.466243133750645
-0.194475881788797,0.462574403028266
-0.195906466380161,0.458882154694257
-0.197334798914833,0.455166731784657
-0.198760754821265,0.451428477335502
-0.20018420952791,0.44766773438283
-0.201605038463219,0.44388484596268
-0.203023117055646,0.440080155111088
-0.204438320733644,0.436254004864093
-0.205850524925663,0.432406738257733
-0.207259605060158,0.428538698328044
-0.208665436565581,0.424650228111065
-0.210067894870384,0.420741670642834
-0.211466855403019,0.416813368959388
-0.21286219359194,0.412865666096765
-0.214253784865598,0.408898905091002
-0.215641504652447,0.404913428978139
-0.217025228380938,0.400909580794211
-0.218404831479524,0.396887703575257
-0.219780189376658,0.392848140357315
-0.221151177500793,0.388791234176423
-0.22251767128038,0.384717328068617
-0.223879546143872,0.380626765069937
-0.225236677519723,0.376519888216419
-0.226588940836383,0.372397040544101
-0.227936211522307,0.368258565089022
-0.229278365005945,0.364104804887218
-0.230615276715752,0.359936102974728
-0.231946822080179,0.355752802387589
-0.233272876527678,0.351555246161839
-0.234593315486703,0.347343777333516
-0.235908014385706,0.343118738938658
-0.23721684865314,0.338880474013301
-0.238519693717456,0.334629325593485
-0.239816425007108,0.330365636715246
-0.241106917950547,0.326089750414623
-0.242391047976227,0.321802009727653
-0.2436686905126,0.317502757690374
-0.244939720988119,0.313192337338823
-0.246204014831235,0.308871091709039
-0.247461447470402,0.304539363837059
-0.248711894334072,0.300197496758921
-0.249955230850698,0.295845833510662
-0.251191332448732,0.291484717128321
-0.252420074556626,0.287114490647934
-0.253641332602833,0.282735497105541
-0.254854982015806,0.278348079537178
-0.256060898223996,0.273952580978883
-0.257258956655858,0.269549344466694
-0.258449032739842,0.265138713036649
-0.259631001904402,0.260721029724786
-0.260804739577991,0.256296637567141
-0.26197012118906,0.251865879599754
-0.263127022166062,0.247429098858661
-0.26427531793745,0.242986638379901
-0.265414883931676,0.23853884119951
-0.266545595577192,0.234086050353528
-0.267667328302452,0.229628608877991
-0.268779957535908,0.225166859808938
-0.269883358706011,0.220701146182405
-0.270977407241216,0.216231811034432
-0.272061978569974,0.211759197401055
-0.273136948120737,0.207283648318312
-0.274202191321959,0.202805506822241
-0.275257583602092,0.19832511594888
-0.276303000389588,0.193842818734266
-0.2773383171129,0.189358958214438
-0.27836340920048,0.184873877425433
-0.279378152080781,0.180387919403288
-0.280382421182255,0.175901427184042
-0.281376091933355,0.171414743803731
-0.282359039762534,0.166928212298395
-0.283331140098243,0.16244217570407
-0.284292268368936,0.157956977056795
-0.285242300003065,0.153472959392607
-0.286181110429082,0.148990465747543
-0.287108575075441,0.144509839157643
-0.288024569370592,0.140031422658942
-0.28892896874299,0.13555555928748
-0.289821648621086,0.131082592079293
-0.290702484433333,0.12661286407042
-0.291571351608184,0.122146718296898
-0.29242812557409,0.117684497794765
-0.293272681759505,0.113226545600059
-0.294104895592882,0.108773204748817
-0.294924642502671,0.104324818277077
-0.295731797917327,0.0998817292208774
-0.296526237265302,0.0954442806162551
-0.297307835975047,0.0910128154992485
-0.298076469475016,0.0865876769058947
-0.298832013193661,0.082169207872232
-0.299574342559435,0.0777577514342978
-0.30030333300079,0.07335365062813
-0.301018859946179,0.0689572484897661
-0.301720798824054,0.0645688880552442
-0.302409025062867,0.0601889123606015
-0.303083414091072,0.0558176644418764
-0.303743841337121,0.051455487335106
-0.304390182229465,0.0471027240763286
-0.305022312196559,0.0427597177015814
-0.305640106666853,0.0384268112469027
-0.306243441068802,0.0341043477483297
-0.306832190830856,0.0297926702419005
-0.30740623138147,0.0254921217636526
-0.307965438149094,0.0212030453496239
-0.308509686562183,0.016925784035852
-0.309038852049188,0.0126606808583749
-0.309552810038561,0.00840807885322986
-0.310051435958756,0.00416832105645512
-0.310534605238225,-5.82494959119467e-05
-0.311002193305421,-0.00427128976783329
-0.311454075588795,-0.00847045672327158
-0.3118901275168,-0.0126554073261887
-0.31231022451789,-0.0168257985405472
-0.312714242020515,-0.020981287330309
-0.31310205545313,-0.0251215306594368
-0.313473540244186,-0.0292461854918924
-0.313828571822137,-0.0333549087916386
-0.314167025615433,-0.0374473575226371
-0.314488777052529,-0.0415231886488506
-0.314793701561876,-0.0455820591342411
-0.315081674571927,-0.0496236259427712
-0.315352571511135,-0.0536475460384026
-0.315606267807951,-0.0576534763850982
-0.31584263889083,-0.0616410739468198
-0.316061560188222,-0.0656099956875299
-0.316262907128581,-0.0695598985711906
-0.316446555140358,-0.0734904395617644
-0.316612379652008,-0.0774012756232133
-0.316760256091982,-0.0812920637194997
-0.316890059888732,-0.0851624608145859
-0.317001666470711,-0.0890121238724341
-0.317094951266372,-0.0928407098570065
-0.317169789704167,-0.0966478757322657
-0.317226057212549,-0.100433278462173
-0.31726362921997,-0.104196575010693
-0.317282381154883,-0.107937422341785
-0.31728218844574,-0.111655477419413
-0.317262926520993,-0.115350397207538
-0.317224470809096,-0.119021838670124
-0.317166696738501,-0.122669458771133
-0.31708947973766,-0.126292914474526
-0.316992695235025,-0.129891862744266
-0.31687621865905,-0.133465960544315
-0.316739925438187,-0.137014864838635
-0.316583691000888,-0.14053823259119
-0.316407390775605,-0.14403572076594
-0.316210900190793,-0.147506986326849
-0.315994094674902,-0.150951686237878
-0.315756849656385,-0.15436947746299
-0.315499040563695,-0.157760016966147
-0.315220542825285,-0.161122961711311
-0.314921231869606,-0.164457968662445
-0.314600983125112,-0.167764694783511
-0.314259672020255,-0.17104279703847
-0.313897173983487,-0.174291932391287
-0.313513364443261,-0.177511757805921
-0.31310811882803,-0.180701930246337
-0.312681312566245,-0.183862106676496
-0.31223282108636,-0.186991944060361
-0.311762519816827,-0.190091099361893
-0.311270284186099,-0.193159229545055
-0.310755989622627,-0.196195991573809
-0.310219511554865,-0.199201042412118
-0.309660725411265,-0.202174039023944
-0.30907950662028,-0.205114638373248
-0.308475730610362,-0.208022497423994
-0.307849272809963,-0.210897273140144
-0.307200008647537,-0.213738622485659
-0.306527813551535,-0.216546202424503
-0.30583256295041,-0.219319669920637
-0.305114132272614,-0.222058681938023
-0.304372396946601,-0.224762895440624
-0.303607232400823,-0.227431967392403
-0.302818514063732,-0.230065554757321
-0.30200611736378,-0.23266331449934
-0.30116991772942,-0.235224903582424
-0.300309790589106,-0.237749978970534
-0.299425611371288,-0.240238197627632
-0.29851725550442,-0.242689216517681
-0.297584598416955,-0.245102692604643
-0.296627515537344,-0.24747828285248
-0.295645882294041,-0.249815644225155
-0.294639574115497,-0.25211443368663
-0.293608466430165,-0.254374308200866
-0.292552434666499,-0.256594924731827
-0.291471354252949,-0.258775940243475
-0.29036510061797,-0.260917011699771
-0.289233549190013,-0.263017796064679
-0.28807657539753,-0.26507795030216
-0.286894054668975,-0.267097131376177
-0.2856858624328,-0.269074996250691
-0.284451874117457,-0.271011201889666
-0.2831919651514,-0.272905405257064
-0.281906010963079,-0.274757263316845
-0.280593886980949,-0.276566433032974
-0.279255468633461,-0.278332571369413
-0.277890631349068,-0.280055335290122
-0.276499250556222,-0.281734381759066
-0.275081201683376,-0.283369367740206
-0.273636360158983,-0.284959950197504
-0.272164601411495,-0.286505786094922
-0.270665800869364,-0.288006532396423
-0.269139833961044,-0.28946184606597
-0.267586576114986,-0.290871384067524
-0.266005902759643,-0.292234803365047
-0.264397689323467,-0.293551760922502
-0.262761811234912,-0.294821913703852
-0.261098143922429,-0.296044918673058
-0.259406562814471,-0.297220432794083
-0.257686943339491,-0.298348113030888
-0.255939160925941,-0.299427616347437
-0.254163091002274,-0.300458599707692
-0.252358608996942,-0.301440720075614
