0.900326879767367,-0.691373918582572
0.92990317533413,-0.722916983380428
0.888611119798957,-0.668342172081982
0.882000168151164,-0.654630578469961
0.910440404724941,-0.674611768760646
0.894094478306936,-0.649584003880669
0.895408851701028,-0.60129862493139
0.891246560051153,-0.633231535005319
0.889747763851572,-0.625132416538109
0.888199484699703,-0.617084449969549
0.87374813546739,-0.586951270996056
0.877647525150664,-0.605141429826398
0.887388275619128,-0.641623231746006
0.884282342399486,-0.607111343176385
0.879726565913014,-0.577605103462904
0.877887821801605,-0.56985997300009
0.893499509861155,-0.571608232587994
0.874068623797743,-0.554518898423015
0.872088782548545,-0.546922566186264
0.895630833462079,-0.521420440102115
0.861452108615247,-0.564327106744469
0.915181066932088,-0.560592642510991
0.873915299404289,-0.511012563755374
0.880867963650667,-0.522937332039592
0.834272916307969,-0.497290277892259
0.889084831839949,-0.47376196410123
0.854604673075501,-0.487907213450751
0.85221808178086,-0.480746796584946
0.860213792646509,-0.488307711602838
0.885071275617286,-0.456068944824511
0.804102209917575,-0.472710647723616
0.842238151405054,-0.452577835859174
0.839636309119933,-0.445652802055867
0.829620573821512,-0.449089016341834
0.903313102789791,-0.432967806809194
0.800368185164283,-0.436865747562219
0.821664736848248,-0.429261057374503
0.837291697864706,-0.43360686621896
0.801637183306006,-0.421721105668154
0.82512384804678,-0.456532919693857
0.824361947830732,-0.404022184834831
0.811275692420237,-0.392390484462701
0.811341537267407,-0.384369149703459
0.847951275775466,-0.377274118212705
0.802089918263768,-0.359787717337137
0.806103521651954,-0.30886300743592
0.795724466969519,-0.347247952160615
0.792485283548398,-0.341043541868104
0.804854225104626,-0.322405114164954
0.762331835663835,-0.322783536624616
0.758607858127017,-0.325893976211424
0.758190335268924,-0.288279233004353
0.747845901257682,-0.330880515170896
0.759289348596353,-0.272330611080073
0.766979311527301,-0.284819853665677
0.789909016666719,-0.295362864871543
0.756998528114979,-0.248897159398058
0.760607681471256,-0.265781323693055
0.765343868230655,-0.244200170602655
0.747653045115037,-0.273512201617099
0.758954002473187,-0.262963469614926
0.735803355663849,-0.247541980583476
0.763509465868685,-0.231228306067158
0.728110462721551,-0.236595707007998
0.72421628864281,-0.231182511770521
0.720290704587844,-0.225809018818225
0.716334016878283,-0.220475034089865
0.712346531835753,-0.215180363524196
0.708328555781884,-0.209924813059972
0.690850547740693,-0.235880074295262
0.709587755312136,-0.178648197493311
0.699589346021427,-0.186462222073506
0.69385021325783,-0.201881682437559
0.690138437380705,-0.162156226385636
0.671498975857805,-0.20015188302073
0.675123829538092,-0.169265445648788
0.647466830354505,-0.14261411081749
0.672703320453554,-0.173373256482112
0.66220602042658,-0.154640183132771
0.657846045323636,-0.149838937108765
0.683941428121419,-0.12861672540608
0.649046874948859,-0.140346042915279
0.651633634151898,-0.136734482839753
0.615615557656872,-0.146628405349915
0.634220741683287,-0.131218684943355
0.6230888204483,-0.121990465481533
0.616634781280162,-0.118850026152768
0.630600565291691,-0.101988534462694
0.610763194919931,-0.131687778425995
0.612838851703348,-0.103807308552397
0.611378664547224,-0.105048788063578
0.603546263320498,-0.0950230731146337
0.598865566512308,-0.0906824552818467
0.594162343055112,-0.0863759119581293
0.570862005549154,-0.0863723722483765
0.600735231191887,-0.0825956081705339
0.570478396094083,-0.13086768815929
0.542123714998808,-0.0639658135956035
0.588195611774862,-0.0808456055473635
0.560634763699335,-0.057167893801455
0.537552244125918,-0.0641867564975686
0.545958533546017,-0.0451418832458294
0.538838514300394,-0.0527673822404843
0.536078084018946,-0.0372845654876815
0.522547101844076,-0.0413046658312715
0.526123456620517,-0.0295534545810598
0.569769377428359,-0.0287066972461794
0.499985553276078,-0.0211909569699411
0.489339220292781,-0.045886418549465
0.506001470501689,-0.0144636433625489
0.487841521036376,-0.0195376165175014
0.495839012927342,-0.00710183807073586
0.457936667879898,0.00607598788683366
0.48168364836982,0.000802985927290281
0.496079886746157,-0.0200478456417406
0.475323421613908,0.00726333432781445
0.434656094827549,0.012401596382909
0.445899262083664,0.0309509421811597
0.457317475666488,0.0366166126909547
0.44308856577878,-0.022104523697213
0.449346686197559,0.0245637382817161
0.47233512632252,0.0224425955516779
0.438860488778502,0.0312847727325708
0.433598150372806,0.034603396103542
0.423036525777214,0.0411578254427984
0.45064164269405,0.028011627748077
0.412427679613547,0.0476031253201082
0.407685522733666,0.0495478938224064
0.391054949467348,0.0735634120275465
0.37856189906946,0.0773353190495111
0.409525344515967,0.0567900600271618
0.417440335525426,0.109876402160131
0.380342317444353,0.066299773079976
0.362466265897799,0.0581498596412886
0.369569090738643,0.0723240800091174
0.393059665332395,0.0724839120014722
0.354981967060148,0.0618569247268606
0.353344450166123,0.0811709624081847
0.327916132644885,0.0816161656670485
0.34248839652747,0.0869447627256607
0.33789779374903,0.0671632715070039
0.318141775371372,0.0519749495590534
0.349397780659873,0.0880378532826067
0.356402393074459,0.122979279297574
0.285234916474212,0.107800578140836
0.315898121001575,0.0566005624302567
0.299629042780771,0.105611207473412
0.300881626417488,0.0998444599631785
0.289814512012351,0.107890596418195
0.281096741378385,0.119577801838435
0.294198967489656,0.146963371114956
0.276832157073416,0.119594700247285
0.271330527517735,0.122167625620616
0.265825669575625,0.124718702343327
0.273386220738713,0.136995118175948
0.227680643666437,0.109209697491415
0.227563299182394,0.131321069825765
0.223461471984884,0.128288808795952
0.238263675325629,0.13715314834116
0.174322593609569,0.172670450606098
0.206408688517675,0.16565905775312
0.22170734272269,0.144364052052111
0.21618721377599,0.146727223675274
0.184081233087612,0.125512255501991
0.218301091632162,0.187021448273156
0.200268258424741,0.11464633181899
0.194108109504003,0.155982770398698
0.188356718770596,0.154614727911969
0.152822280832215,0.187635227266949
0.192071716076965,0.160091793437111
0.146645663117563,0.180568247415217
0.140545419501224,0.13366650515181
0.141384471897852,0.193227971243562
0.127139116298055,0.187602149277105
0.11864367772837,0.178995787959339
0.126847553907465,0.136444214944629
0.133536999269668,0.179894507739878
0.142220512049748,0.191712454503605
0.119269384400648,0.187162720211292
0.101807219263328,0.157011526386246
0.111622588116954,0.188066187082996
0.12785948151502,0.204561492325358
0.117139672875279,0.176769715581105
0.118791840849949,0.234537554285898
0.0897986560168681,0.195978332433974
0.0613026775754923,0.220216873543862
0.0610764236730447,0.194238927361274
0.0572752911183647,0.207387092799507
0.0518834569755325,0.209237439919301
0.0480510326120891,0.21983793200679
0.0411271684475949,0.212896069617701
0.0448418987512337,0.218355023420334
0.0571600381096937,0.210339275660198
0.025065779874429,0.218281763731006
0.0197326874282171,0.22005050456461
0.0144104573904742,0.221806323564875
0.00336059449100794,0.226817477265624
0.025245067764082,0.27410368360001
0.000491755581213124,0.200051238096235
-0.0203156602245004,0.232174128106871
-0.0189222445946919,0.256799856447883
0.00747441467951962,0.229824894422779
-0.022515274419831,0.233751546377807
-0.0311737178884094,0.219767778513426
-0.0329502614994624,0.23705923217242
-0.0495901167323874,0.203812833935217
-0.0721177724281899,0.247217187863834
-0.0536506775886888,0.243544381600955
-0.0620739402944877,0.235628246773412
-0.069017977213038,0.248300412210977
-0.0613055935718148,0.226690833742311
-0.0660907833888961,0.244246613484459
-0.0867138174689987,0.277156611173776
-0.0993104191217689,0.257557897696021
-0.109267904741372,0.260573988806822
-0.108088530232113,0.238838162011175
-0.122496223079544,0.265952117425059
-0.134358652754531,0.215759311709205
-0.147634420859068,0.256761785622277
-0.133832150301342,0.267976382366953
-0.143519628375521,0.270886281390406
-0.17204420732272,0.304964071035784
-0.141934886288583,0.253221770708958
-0.171116843612956,0.26273889508316
-0.218364284138894,0.251652269126276
-0.176758781681665,0.280869692172845
-0.176818325323727,0.289199835289474
-0.167087579196548,0.296073264509028
-0.190668125251613,0.285064113897344
-0.215437147236366,0.275024252415473
-0.204362278087535,0.279984687143528
-0.19965346709401,0.276255056420454
-0.243876763509596,0.307839087973603
-0.214214268337996,0.325617534573816
-0.2109891019244,0.275352240871613
-0.213279039230401,0.307908452361887
-0.231081765715515,0.297410689589138
-0.222388614288347,0.293767065194321
-0.21286377825396,0.307294672514098
-0.276847854012684,0.306189944327666
-0.275164434992276,0.313798773719485
-0.255700071270615,0.306745912551941
-0.257488200491866,0.320022581943177
-0.297802702481651,0.297890259343924
-0.293448167653385,0.321747072914214
-0.314182032251656,0.299187143835255
-0.323113357753536,0.332316064779401
-0.305249928980026,0.321510307130966
-0.301242924042472,0.331967512710712
-0.342570269378434,0.319872134881577
-0.333597506128638,0.315388851860191
-0.335203134517365,0.338683230645119
-0.314858736988327,0.323411689173473
-0.391297550871026,0.324301584768317
-0.352089558023559,0.317434863056445
-0.334991894110575,0.332202686524038
-0.345585143510931,0.336240336674146
-0.347807069018394,0.336180517036888
-0.345327296784823,0.339686434334903
-0.337451460704331,0.339650697575972
-0.347416622343346,0.348066731476107
-0.340444823486018,0.36060490213679
-0.403158467501394,0.343559476130625
-0.378550587048005,0.349897802438109
-0.396565945734667,0.364939601198133
-0.388603541663525,0.347021054985729
-0.396504752714085,0.358297958555848
-0.429541766426699,0.380500674616735
-0.407672895084308,0.364009636075105
-0.41036196005271,0.365453281029763
-0.415614380989131,0.368360800057607
-0.43635256588878,0.374627740748146
-0.422410878680292,0.389471911590078
-0.439533167312551,0.369483617927199
-0.407103383352439,0.335794619187909
-0.427997835818638,0.375756657010078
-0.423177947364607,0.362077484114559
-0.437115425014333,0.381816840265183
-0.436963679695583,0.392572004547331
-0.467528608271312,0.376496051199823
-0.453030693018079,0.379108797300744
-0.450807024239743,0.417188894712554
-0.458317305555389,0.390067711894543
-0.440188034075448,0.371657467692424
-0.451320351137223,0.392768933825382
-0.43322774235662,0.406682430226273
-0.454957664142439,0.395986735588909
-0.444956750523247,0.404069520299536
-0.434291204397496,0.420917073609433
-0.485392494186076,0.3990275524134
-0.454324555544544,0.419222663572228
-0.437705193445742,0.416079607017695
-0.466162467022526,0.407591856662596
-0.467565317413759,0.409295850635928
-0.451123606285181,0.392202720723186
-0.470219578179074,0.412740368845719
-0.473817774459744,0.418001382736904
-0.490306140826442,0.444001278614603
-0.492990117452555,0.405915179977191
-0.476948785180573,0.423380137989771
-0.501771203045012,0.365641039079891
-0.476415045965682,0.426549368504228
-0.472152027647309,0.415174280284695
-0.474315942015044,0.443357377797578
-0.484138992950781,0.408461812826402
-0.482391185349514,0.43641788260853
-0.482951230769236,0.438338957007995
-0.50468385304481,0.469919878057463
-0.509852798343219,0.448247388942904
-0.51738127920185,0.464714976020943
-0.485139922094834,0.450191753539942
-0.472247576086346,0.465748958548073
-0.4818920380304,0.481815946571312
-0.462888177340384,0.428154251656022
-0.485272402344604,0.462634281000697
-0.485089927098055,0.46476831379112
-0.483503031787018,0.49323387340674
-0.466580063341244,0.478515391844708
-0.484185708717537,0.471277627467806
-0.461995558347141,0.466307459898481
-0.477714576082289,0.51701095259833
-0.490494541212729,0.471187561458847
-0.486038864178118,0.516499772040009
-0.500639726212974,0.533707964056981
-0.477213476279177,0.494195704109805
-0.474387331119543,0.506026744641436
-0.482614837898966,0.499291111286146
-0.454503318404023,0.477768049788247
-0.463536315183161,0.493931885749008
-0.471374877403282,0.506402462587738
-0.484153269688778,0.497311535607669
-0.447712902088465,0.513804446630963
-0.482838538638066,0.468436754525624
-0.450222700290153,0.522543518920957
-0.474783939469781,0.527364943401564
-0.454801263320431,0.532432708135738
-0.510087823733204,0.517822167674168
-0.441819753777611,0.538023588457933
-0.45222780136796,0.512558389962105
-0.457322654969445,0.56041774378224
-0.446860073571705,0.550012998957112
-0.418555819464193,0.551685105101384
-0.43667272283756,0.554916085829951
-0.434114925244802,0.557809070968143
-0.387061330523682,0.551188440324924
-0.420920020303597,0.571845837665994
-0.415458448427619,0.577260723999738
-0.412689564230446,0.579925345775037
-0.369532338455041,0.602551234081286
-0.414249526357803,0.592409075127381
-0.432374759238782,0.592985308672614
-0.400826999697768,0.597294815954284
-0.377603399516372,0.60967382696899
-0.388950880320566,0.615848921669303
-0.366001284701677,0.604483281853068
-0.346585296808398,0.642380975289706
-0.327656149307249,0.59668375043896
-0.325635622656898,0.637825144830078
-0.346005330463017,0.631323036012807
-0.341562256502887,0.656431632468514
-0.363348196877905,0.637381437898585
-0.347177648804196,0.621550346569617
-0.31894062486423,0.631725382246117
-0.304274216862229,0.626620012750785
-0.319406820245001,0.646585856030742
-0.311550287048002,0.647442242617032
-0.344762221498179,0.650829446718142
-0.275662394344449,0.644935126012785
-0.302811402897278,0.665230147902542
-0.302264553431864,0.655196644917571
-0.313869503868641,0.676876775592699
-0.28829552939422,0.661570974454873
-0.282728597721369,0.677099208327611
-0.26520403604078,0.677427952828602
-0.277682979075914,0.666051683523043
-0.276445860049107,0.677284521228681
-0.270547962494302,0.668895937325351
-0.248888176035845,0.691513153901425
-0.252822813891058,0.669125322562294
-0.222956621328058,0.685059588405515
-0.220569585029273,0.665527069655165
-0.209486474618056,0.687813121065332
-0.241148192377817,0.669428173152014
-0.234583808712724,0.690900970718073
-0.212054491660595,0.687534171116334
-0.204603542112129,0.68934939337783
-0.193385453607354,0.691857791992778
-0.18588258808068,0.693387093208328
-0.15494660125494,0.723198706955868
-0.174705568029889,0.727524802011832
-0.170830141844462,0.696102556057651
-0.163285548012031,0.697288706706899
-0.159509749296603,0.697838884434804
-0.15573203162146,0.69836046284952
-0.168984011375017,0.698675608054815
-0.13252414574265,0.685216817157657
-0.144390481635936,0.699753595349203
-0.134209826022536,0.716719928158845
-0.139703377879621,0.719630651094768
-0.130032025358747,0.700331201447478
-0.136099381306087,0.71942932266455
-0.122954386464987,0.721870122279968
-0.102817034098322,0.702659248312266
-0.0526948459310872,0.716903787067952
-0.0840053276078849,0.70283567013446
-0.0631309155696906,0.721875664218577
-0.0823939647092706,0.742478271888135
-0.0460973286065448,0.695814964108182
-0.0625324443482531,0.691386625539121
-0.0392661344700265,0.713966217504256
-0.0541471656809712,0.701630031070263
-0.0493135415286006,0.724040061338806
-0.0445518343872519,0.745764357561167
-0.0393715047688774,0.700340388640603
-0.0394801025203522,0.70758360979107
-0.0507590546670927,0.69375899974233
-0.0173431245994937,0.708892755715195
0.00832346344275071,0.688022702636194
-0.0294400736727561,0.67457867018796
0.0242103788970337,0.702721760945321
0.0306067289099247,0.690218202733568
0.0596135119429129,0.704649944559977
-0.00766050512576751,0.74157933408949
0.0217461889468285,0.689749978401519
0.046777671817877,0.689850245133697
0.0424746134147352,0.684036686467645
0.0449928951932691,0.682929368096252
0.0492656253792212,0.681903166566073
0.052637517016373,0.680793449290212
0.062654994389629,0.677292459923934
0.0692483645584377,0.674815262198841
0.0625358903670344,0.641567828202463
0.112683676280446,0.675127288601904
0.059705531502875,0.648512872291337
0.0854162903775503,0.668121010988515
0.0939737154777606,0.670568373367203
0.0524899411152004,0.647919792274825
0.0948882360913828,0.663760713785514
0.091081358699797,0.646660648967699
0.101102334496264,0.66071060984263
0.112535058041938,0.69892148235483
0.101301292966842,0.655135470208833
0.142463883141298,0.643105305756168
0.148336014171768,0.622479398356482
0.114476989022979,0.684759569175528
0.136549626538504,0.640003241828863
0.13935126604889,0.638091369344958
0.157687792370123,0.614217354415447
0.164727669242891,0.641142418053236
0.171421857159571,0.630870684516071
0.157821181854547,0.620409841894032
0.160842322855476,0.621764631024476
0.163408772349442,0.619594808630267
0.212129181144286,0.63171919767248
0.15922108443811,0.597444610428029
0.183926510262543,0.605751248289457
0.207132264048195,0.618323351253196
0.185223338175287,0.59877642067705
0.16578503746372,0.58001817898529
0.190422801761322,0.58777037601502
0.194139317610527,0.588778395030992
0.21024260071162,0.551916934106808
0.201653250940496,0.607129701266373
0.202547417672983,0.578321594045161
0.21474756320324,0.564718638732344
0.211870449232628,0.567989762758064
0.22729551125196,0.575394111647716
0.22810046658807,0.535701028296115
0.217760189645729,0.556031490301772
0.221214790048967,0.550172161125282
0.222888087123087,0.54719947227501
0.245181539838945,0.553358149684745
0.231468721527606,0.518607456536107
0.241772965822912,0.522691635552318
0.233564018145431,0.525587466688873
0.229917264787287,0.515709023080021
0.223740896517228,0.519736786919537
0.226662054236043,0.520053477858452
0.241706832357414,0.52246100463126
0.228334896193701,0.514075023004075
0.243442883564793,0.499166704255135
0.245507904962162,0.492274586830147
0.240675576413747,0.463400043281441
0.247549794528696,0.500626791148081
0.267926186825774,0.476191771793807
0.226496519084611,0.476756911923297
0.285696241306788,0.439394408123431
0.220955013371775,0.435536297427828
0.258496114084799,0.422049756186394
0.246931075198845,0.407252480856824
0.270364886719866,0.398406875098679
0.256639449421835,0.412976358005326
0.256634983575176,0.404763919306792
0.238403089110318,0.404776678337516
0.225622974614117,0.434332903373285
0.255762879671359,0.383730364230399
0.270916933106085,0.348804158005075
0.255063117118754,0.375115944450629
0.254636791767942,0.370765660868353
0.253629694518202,0.361978942886354
0.242751498555644,0.347378167804761
0.247496305170813,0.325683292700919
0.24242701269828,0.331019956023752
0.24313170214827,0.30684612376206
0.238186055624647,0.299358552254484
0.223002958205048,0.266891947284777
0.237875230215224,0.287549333674973
0.230091758257054,0.282699859723054
0.221237625830233,0.281561786076459
0.218938712932204,0.234877277932617
0.226470346401227,0.252673855477071
0.213358929978921,0.258875653238559
0.203445980234267,0.202409299419063
0.213247427991043,0.240559664819854
0.217761397630747,0.247664561206743
0.216555125868539,0.226900797143318
0.22750957862535,0.213589314137198
0.25103874966769,0.173315850349737
0.161079823057933,0.212077559882176
0.199502001116049,0.201634275923216
0.220852527582666,0.15451053006005
0.180787281229189,0.150878659794297
0.18511473296325,0.190359399871044
0.184564226939367,0.155993932883314
0.166623719473107,0.147061445309979
0.174432006479774,0.139598720114405
0.168009917560631,0.128168548919877
0.180905308217964,0.129808319947607
0.19999213266479,0.102398689151071
0.147173516524543,0.084138229147827
0.109238813948172,0.0804343700606564
0.133592682436527,0.0620617893245598
0.111213835168304,0.0387763035067208
0.102456744588919,0.0263684686743718
0.0951487318108057,0.00290136156832821
0.088783048437507,0.00754100469747368
0.084080420259135,0.00120765749814275
0.0945686234089584,0.010039584108984
0.0695339838228421,-0.0179649713324031
0.0543231742585721,-0.0373964954289692
0.0400100411819193,-0.0626942036205348
0.0381985884041262,-0.0670866315088514
0.0451714584001919,-0.0635063912721596
0.0329940804711122,-0.0637079522319543
0.0438673815360282,-0.0753400290786709
-0.0172546252715678,-0.0720479433675163
0.0234709990497505,-0.0868106167058431
0.0141956261462409,-0.111494758710059
-0.0099891750240922,-0.0995345914476656
-0.00726987164438483,-0.110860709505045
-0.0194728275510482,-0.12459189733995
-0.0319910079119321,-0.138438193675632
-0.0586312643684163,-0.177232831058035
-0.0646819289918842,-0.173557570248712
-0.0902869082043794,-0.175942464069588
-0.101142202462475,-0.215116814257333
-0.0866472661517017,-0.229805945403714
-0.101115444595663,-0.19902859580715
-0.12819214404284,-0.240164923367518
-0.128654003995047,-0.238585767397237
-0.159806730011926,-0.229407645537371
-0.151475082354627,-0.260779994373184
-0.150415666417032,-0.237926038673164
-0.209429126040856,-0.278776638803175
-0.191208929287396,-0.298346185206565
-0.220676665914476,-0.350717220960884
-0.258377886326001,-0.360072120074124
-0.268192079912396,-0.3677793833003
-0.295147223825101,-0.41089326453039
-0.285986250741011,-0.377351874121142
-0.304709687635622,-0.399387347003541
-0.322192011015071,-0.420780693718705
-0.330351727758496,-0.423647627289252
-0.37210552409918,-0.455810207201734
-0.374367959665391,-0.465001889623694
-0.402371020799989,-0.48042352925989
-0.434478610944761,-0.497047607248021
-0.421760169596324,-0.510557679445932
-0.503254241659674,-0.524815285746628
-0.508277891138503,-0.598838937454357
-0.520309860379418,-0.574955927060291
-0.579000063733536,-0.554500494817553
-0.587357157846065,-0.603716895944233
-0.60153530926231,-0.627634999268056
-0.702031759388354,-0.671367470393472
-0.661552279029569,-0.68414279927306
-0.699600222914482,-0.702796180410408
-0.692528992719771,-0.705739621752129
-0.710074846171877,-0.731886076127636
-0.75980199588572,-0.758723698253629
-0.762201933194536,-0.761219104077196
-0.811382597820154,-0.766625388493066
-0.792067400455399,-0.784439567635162
-0.804689932041449,-0.798085050676706
-0.803981285847153,-0.793998221779999
-0.817727037146303,-0.771563493221123
-0.820808662025216,-0.807567414395528
-0.875014913654819,-0.808392727234788
-0.861661964200002,-0.796758271816244
-0.855313425452491,-0.835702129167351
-0.869238246999846,-0.84707731355317
-0.868112784462109,-0.846276702470555
-0.83775871079896,-0.854257405266506
-0.881902115327441,-0.848827676678919
-0.91255053712718,-0.854497729912202
-0.92327955468182,-0.864390427160262
-0.8865732081063,-0.912120737137364
-0.92635533158459,-0.896515186601567
-0.900812523683481,-0.873184701635434
-0.931584398883071,-0.883076477338797
-0.958770819771366,-0.903159439662094
-0.91869827529915,-0.851161749872116
-0.93408979672202,-0.903573934707759
-0.941480394768269,-0.936688434555272
-0.931954166726831,-0.925308263951934
-0.936584165781845,-0.907113731386219
-0.962364045529555,-0.913527649522696
-0.930405391350638,-0.908795279043925
-0.935552493139379,-0.90828369115642
-0.928032838723507,-0.903932083478013
-0.926677221886294,-0.903043091088278
-0.935229900120403,-0.929270335943584
-0.938126157424712,-0.894915929465263
-0.91974583234165,-0.91371042763528
-0.898634237567883,-0.882896667426195
-0.896015236051928,-0.880925012286198
-0.911311289130133,-0.882916744631862
-0.87869246389447,-0.867667724537476
-0.851526055366163,-0.846306946736499
-0.877095946526536,-0.840891256857849
-0.847897410037798,-0.834233783603218
-0.828319870577391,-0.827644958737721
-0.82604974667795,-0.855733656118883
-0.821720622068046,-0.830066528322235
-0.802875923606064,-0.806823387572589
-0.816808458359727,-0.797849302598928
-0.793926748243441,-0.799419208607773
-0.775229509823348,-0.787371079356433
-0.765763905377519,-0.775864462365595
-0.766366605526181,-0.748220354657811
-0.750981627058292,-0.763353645065769
-0.752950277004191,-0.743141992153291
-0.730592916850617,-0.745938356261411
-0.760043481531478,-0.73688036451639
-0.730566651936829,-0.731904122964894
-0.674275537881633,-0.700303816911294
-0.665249884988289,-0.68892265943119
-0.643727929887363,-0.714738357491969
-0.593521418811048,-0.676119793911954
-0.620998320010701,-0.676498614281591
-0.61126829083355,-0.629349574137552
-0.609449646992281,-0.61144690571245
-0.637477509216525,-0.628163957576922
-0.557055993404406,-0.642095578543581
-0.553714567488926,-0.59412642236534
-0.600184011483445,-0.591374849946444
-0.551076286181522,-0.610721288354941
-0.556269129355859,-0.577490658030583
-0.479717264724299,-0.484995621430913
-0.471536153083646,-0.47491412435709
-0.44547350637719,-0.473806960588169
-0.423983187004076,-0.462146242820226
-0.403673357043086,-0.417642602463128
-0.415042657815337,-0.485516815998975
-0.397025977774102,-0.444375222530273
-0.391472916723623,-0.429378684649256
-0.348069222281868,-0.433820757152748
-0.348599985631997,-0.40036147679855
-0.279053849876655,-0.336181818850626
-0.30056179403178,-0.334282917989972
-0.236645559496132,-0.26384285505264
-0.217774788839461,-0.242378626940008
-0.199231240251581,-0.256335677847263
-0.216237507838097,-0.218299551775302
-0.147000405045839,-0.142596064765646
-0.143092011642072,-0.157116546435163
-0.116796018257048,-0.159774322698372
-0.155202455756229,-0.139948928574741
-0.126133092792491,-0.114436144008972
-0.0805892896581172,-0.0742876153713073
-0.0267753824010327,-0.0277096457785669
-0.0423777978300951,-0.0223919719550871
-0.0268216949754647,-0.0120529688175954
-0.0202175817822778,0.0247233631649487
-0.0261030756654737,-0.034210691494918
0.0473590096409476,0.105713344763738
0.0327595159722162,0.097655843976141
0.07076669665232,0.193035058768636
0.0511846273909695,0.156051133747452
0.0804210240173017,0.161534353119548
0.115404513982187,0.167868570485874
0.124308815084876,0.258346814276702
0.142573549363563,0.270252332188881
0.124268396368276,0.289748429648087
0.172466102184785,0.333291473060462
0.1200840315361,0.352545712743809
0.119215050300139,0.355345808524219
0.188835864003559,0.424212679161593
0.175143033769618,0.443674500284324
0.218963535627761,0.489868969683766
0.178359786911511,0.4828450164631
0.178645311567186,0.495672473294204
0.180833423465635,0.555288299983142
0.161039676991065,0.595897060629881
0.168982557525243,0.581895777781466
0.164129639277202,0.599489334675585
0.102973660835704,0.665584373597028
0.116791630422102,0.717489080762972
0.0876680049755998,0.714763928949325
0.0663188333728026,0.7352433294216
0.051850613914691,0.74409469494399
0.0258698417343451,0.776705906919852
