0.734366192272689,0.559352395743254
0.724619513235318,0.571400955030613
0.806756660198361,0.667707714411707
0.696752932676492,0.559730474176176
0.689382754221223,0.561438314399853
0.727189260941031,0.562304999847676
0.672447069520009,0.553773813498396
0.668471801865196,0.576272461368125
0.638554221782192,0.563360833425112
0.6252115978727,0.549858745174705
0.497453847507559,0.440092452697836
0.608776323189471,0.558759785817015
0.626326145185587,0.540534756258789
0.587164832475524,0.576193389918331
0.594171260076006,0.56572331142662
0.57435874734139,0.53484746295786
0.574496292637998,0.586965540678546
0.538630255605231,0.555136631199754
0.526928608797732,0.554787034023544
0.515228769289754,0.554505430894426
0.611339988790965,0.654148966362083
0.491841781211705,0.554139228450963
0.495856281695381,0.5653740151107
0.464986986324498,0.522794981332079
0.43885894860308,0.592320226344041
0.444991397251099,0.529769168784962
0.392670032460732,0.552375633577571
0.424880358206913,0.549312651796758
0.308698718673597,0.454115206660074
0.409384019648882,0.580361278897676
0.387169552783169,0.555396453237126
0.375633147136556,0.555794701306272
0.354922096383524,0.606832435402848
0.379378968942944,0.548061353615346
0.33997756531362,0.548175786293583
0.329760013922165,0.557823392626112
0.373175812591821,0.583855806270538
0.307012382575889,0.559074733569218
0.321871275025405,0.532276987262261
0.305626899418317,0.610477104064402
0.259984146728169,0.580278304608271
0.274660614887235,0.561409564354856
0.269378613124826,0.547502058090679
0.356054133697301,0.678732393008679
0.237844386511463,0.584304963500893
0.229262852483793,0.566875525635191
0.206656529229284,0.566229194947012
0.300058806329238,0.662097004451671
0.192110602087005,0.569592200993467
0.186714526034815,0.558338829082771
0.101421406853949,0.498426832493575
0.05813463903953,0.444144833359375
0.0227821374807218,0.459057661299344
0.140120506917674,0.536184124522538
0.114620586524292,0.578165316045758
0.110568612448733,0.574934463011089
0.118353931954481,0.518383710821113
0.0899286040980395,0.576951634416557
0.0467208703677127,0.581435877799078
0.068768579469783,0.572318899436633
0.0708783377104941,0.533381979897879
0.0654480263159831,0.578432954743021
0.073150389559775,0.619457179472383
-0.089037261862036,0.472201772194439
0.0245212607413408,0.644778018915623
0.020852140150325,0.574572680470322
0.000856141467743737,0.585825197065056
0.111553904498924,0.674535730828942
-0.110625392745406,0.503130864543185
-0.0291252698442535,0.610896876061903
-0.0406012461664006,0.592346014554578
-0.0672721047147987,0.585854949969085
-0.0546006672572294,0.591110847477158
-0.0721423814779346,0.583295073050376
-0.070948861652269,0.580578533500385
-0.0914583062951087,0.595171828057223
0.014809599006381,0.727941837014398
-0.207459883840145,0.470713008320873
-0.0299803817947674,0.733554284697922
-0.114725476120478,0.596058272223775
-0.122878632010473,0.596625302112167
-0.153788399699696,0.569066162469872
-0.138839694302837,0.597637107266131
-0.146643966185537,0.598078393368451
-0.154328308879469,0.598474275712161
-0.1618909051248,0.598823009715635
-0.165386033098843,0.624298893632189
-0.0798991961641422,0.675284214034682
-0.183830042570836,0.599568875868379
-0.190887480423413,0.599711570694648
-0.187473406306677,0.602780912402262
-0.309518575255178,0.484693863490255
-0.211267528455161,0.599797449356747
-0.229770246650061,0.605185659552426
-0.271799263169771,0.604728490162984
-0.233429693842108,0.608801624894629
-0.255247423200622,0.587107130766025
-0.238206410664077,0.58438342656493
-0.261992548009261,0.599144937910554
-0.264460363038307,0.603420054532333
-0.141527342488312,0.687987117882866
-0.264965953027576,0.583689367817843
-0.251017830113801,0.590459158123003
-0.27512731861846,0.595049032543974
-0.265809278189449,0.5830157750837
-0.402337927560536,0.489447033470437
-0.289363629482747,0.592165503134119
-0.293788037120698,0.591035594500978
-0.292982862727795,0.57710330095112
-0.284867113763417,0.59157659160559
-0.306072730446438,0.587115247969222
-0.309832060826198,0.585625776975771
-0.313420578741823,0.584042053938178
-0.421797846114596,0.467186757121845
-0.237377619927229,0.681138741250507
-0.323143085105547,0.578707926744279
-0.426976074553778,0.474057772543632
-0.328737377263725,0.574648597731151
-0.335813511334026,0.568952107688994
-0.333604805329337,0.570170390582424
-0.309405397830842,0.603122764722561
-0.239724377831937,0.634495862659991
-0.336420137592939,0.539568115812787
-0.33846548015701,0.560158926250185
-0.317769575165658,0.584830814029156
-0.454715298657271,0.452597359728553
-0.370506882624947,0.54493989966498
-0.337275999998691,0.559515231653715
-0.346123486244575,0.544460628726286
-0.233997380341298,0.646711347716163
-0.369231823265433,0.543601128128232
-0.327656469835082,0.522943228751622
-0.320474184672418,0.518078236066296
-0.374999917041202,0.540634454182611
-0.234947703694233,0.641388796892864
-0.337771558477695,0.507283893581357
-0.343576393906733,0.513221175564996
-0.358251679048178,0.499243489154099
-0.340813526418986,0.504067538059222
-0.338299355257917,0.531947553174444
-0.343290155622444,0.479481568174209
-0.416402416163596,0.373790287762807
-0.332634711608814,0.484050037418068
-0.343171552863022,0.499379068727967
-0.327189688129036,0.473158260976668
-0.314524804568754,0.494386845839054
-0.320821536494563,0.46165919158404
-0.299620547872534,0.463803165052945
-0.337818262508287,0.452703264060267
-0.17425448840011,0.552620438138733
-0.305257696446822,0.436783347333064
-0.288059709112036,0.427853098270309
-0.312594231806603,0.387391026828752
-0.291053478044785,0.416428517541101
-0.301798676099315,0.441237927639189
-0.243662647900976,0.44215595003452
-0.284700879950423,0.392529228235631
-0.245257534389175,0.37983000436833
-0.250851220906972,0.38918136728404
-0.255923266041187,0.371148593497319
-0.272362503396073,0.379560945016295
-0.262649444557577,0.352146130923246
-0.248201866605532,0.34040842038585
-0.199641776142862,0.34428740754967
-0.2294675172161,0.313084184787922
-0.178636908765108,0.32645285073512
-0.213946154948184,0.314252880515218
-0.201285846845366,0.281080394692383
-0.177633627853674,0.267917305186938
-0.186840308865668,0.30931365562648
-0.178359248348568,0.256033760128695
-0.15740189280099,0.260988783860933
-0.147416077371355,0.250557353798851
-0.122175022974715,0.237595636112089
-0.126597633310127,0.229090734523042
-0.115761370158865,0.218052056146061
-0.104637989914058,0.206807472500862
-0.0630835602290276,0.211294914523296
-0.0632250440701041,0.185260205481927
-0.0486514083587749,0.181375037040468
-0.0920767042775895,0.164090016465292
0.056035686634383,0.243468009707204
0.0159670830225996,0.182530156364785
-0.0257977044015026,0.126659902990439
-0.00509666140785565,0.109228863888259
0.00869254937140648,0.0960526266559139
0.0227870498425586,0.0826530383390887
0.0460223649344824,0.0932211347060651
0.0446409851740612,0.0598266957548569
0.0669204620057001,0.0410967210654687
0.0782205324937769,0.0253007060927248
0.0735636650644449,0.00069401581831907
0.114537410685687,-0.0226279954482896
0.124353814374168,-0.00828600466390826
0.147431486411688,-0.0143595493693764
0.132736664850192,-0.0431769802186445
0.180922784771626,-0.0640109624333478
0.192801427580435,-0.0839707819655646
0.194748304724644,-0.0915664495868192
0.109469924239768,-0.210042306749726
0.255721068045107,-0.169103341743647
0.29420190773392,-0.142725863745709
0.284781272322754,-0.195487206853191
0.403138693490708,-0.0602081967019498
0.268950956185998,-0.190773070346768
0.324562487539684,-0.194184103541203
0.364392644356225,-0.204599290244896
0.366687155921545,-0.245372270390628
0.478387704454307,-0.129507697483071
0.40775854094361,-0.275282904650098
0.409448401700017,-0.275489610124884
0.423880361299775,-0.289593634343463
0.475838433646062,-0.292822193978576
0.564273356967799,-0.210110818527317
0.453098469789723,-0.345355130746381
0.477925071414342,-0.343656809992362
0.474350984140708,-0.340116181216593
0.50278894730683,-0.369303331461389
0.532851885290767,-0.38071396506501
0.634574081499659,-0.282032364566913
0.537469265806165,-0.406084669545376
0.555736350371576,-0.439636586848861
0.55782048771167,-0.440703510997995
0.571916099390355,-0.443354939949798
0.603193861471673,-0.44046455326748
0.563596709436334,-0.455430978085357
0.61078270924941,-0.48507097350542
0.623787563074746,-0.453059005032701
0.626011071038175,-0.52773539338487
0.597003249874811,-0.480030307486384
0.631595864546738,-0.51467545270188
0.639285683791871,-0.524397683367539
0.627389185655415,-0.502509034566006
0.633223833737888,-0.536609660604917
0.714072661483996,-0.525269504752182
0.667096086857708,-0.561314918802306
0.673329825504739,-0.570060836703968
0.679283361847696,-0.578617210562795
0.704377729623793,-0.596922219178203
0.690364512708784,-0.595168950831892
0.695499469770613,-0.603168129582137
0.711606534510271,-0.593696562179652
0.760676279963729,-0.589605222959877
0.701228931270437,-0.615276907899714
0.696747958452805,-0.658649712716964
0.589208611984198,-0.746345835389874
0.720861845106055,-0.647409611412592
0.735288329467614,-0.675023849912629
0.727328893300134,-0.660772580799205
0.724533423839499,-0.664255954893643
0.715958753499226,-0.667619992155919
0.73399207813658,-0.652819483895396
0.737458595360437,-0.685513728896535
0.738173235172737,-0.700322127885762
0.741179989576243,-0.696922406327056
0.74271767193203,-0.702392942482738
0.751170121012147,-0.676246389346615
0.746582588317171,-0.693622226310913
0.815090837638981,-0.600576572311433
0.765762929628721,-0.749219467150043
0.747322787063768,-0.727483844464866
0.717832521548732,-0.723630265493284
0.752483674060758,-0.766572378332052
0.747751384611611,-0.740797584736677
0.752705483787728,-0.738373751177285
0.747125607702988,-0.748979847368737
0.726517733991445,-0.741497458553276
0.62439970721739,-0.873745569755925
0.744893104866253,-0.760251018392858
0.758776555513597,-0.746155763788884
0.646750332626094,-0.881294929582277
0.744349124497677,-0.774776564302389
0.856283071363176,-0.679152605815132
0.757342569528175,-0.786241144104533
0.710775757929004,-0.77647977464208
0.63278915918177,-0.894608988655827
0.618813640113774,-0.878084523684214
0.813733719631396,-0.632270189024488
0.706301075249931,-0.794132795398941
0.72493153203981,-0.792071957270202
0.722309392476633,-0.794281174095481
0.825064206669432,-0.677767674150517
0.716712785593957,-0.7983844962259
0.708141660023041,-0.792230211414063
0.684411312157242,-0.811578075282721
0.71061588772834,-0.795679480091773
0.818328388624419,-0.719884177711718
0.70720010517469,-0.802516833667816
0.697368674468482,-0.808310814695165
0.680266078040724,-0.818908244529336
0.694708848136299,-0.781660198117427
0.666744557193564,-0.798836845815233
0.68263772673487,-0.813094480672033
0.678759283920503,-0.814078635432474
0.667537227860209,-0.806896225141612
0.701548085419556,-0.828465503198983
0.66671300171267,-0.816553370272539
0.662572827294645,-0.817225392638768
0.676563082355549,-0.830544567659187
0.638957855708044,-0.824625778984309
0.64982946080021,-0.818809478375899
0.611297423904901,-0.790904038139523
0.625168825156278,-0.818771438474783
0.641672042944952,-0.817201073682373
0.653231795259364,-0.833366256913444
0.627734648819224,-0.820124053598542
0.623220347696128,-0.820205289022073
0.526280181938399,-0.938806524042709
0.617137391251042,-0.808479894815309
0.588818446890938,-0.814936234312943
0.610785554150353,-0.824341644497967
0.715448832383663,-0.725800970667245
0.506387313591069,-0.959760025540684
0.593101914847294,-0.800801618434681
0.582646539041311,-0.792005856273111
0.593023697867186,-0.773963187299882
0.562360298661983,-0.828050989224348
0.574648790752606,-0.84509247623516
0.550358368344197,-0.812822971019733
0.631585070068621,-0.72275063336805
0.548381146032175,-0.819139009037527
0.554776150126753,-0.815757818324869
0.550330989231082,-0.815169999847822
0.464957287030519,-0.916296004237676
0.569684077208809,-0.79840077799377
0.520692133886817,-0.821924618510771
0.532942329116182,-0.812581653400603
0.528711516313647,-0.811884829503981
0.5266857491551,-0.827562725471941
0.621147961468827,-0.674359866156201
0.397837504697546,-0.919738549352315
0.489011902655274,-0.82392351800823
0.508439129250561,-0.808197594811347
0.59914851620956,-0.710621936575825
0.500810154076313,-0.806663495676288
0.497113204358939,-0.805891383947709
0.493499508250529,-0.805118439005079
0.454485864258741,-0.820046359639435
0.486536561948,-0.803577674157622
0.483194654297578,-0.802813666592769
0.479950685343517,-0.802056450493818
0.476808326357666,-0.801307932030756
0.473771248611872,-0.80057001737357
0.455794492270876,-0.773170397155455
0.486766390299512,-0.789612631697303
0.459050314782054,-0.8182245325996
0.500098254199747,-0.757563316456616
0.435668398129373,-0.806720990558349
0.477557877878569,-0.792781246162372
0.455767965948251,-0.795861639616785
0.453705303909482,-0.795277177526171
0.40522086183822,-0.774898678956215
0.342634745593907,-0.890458624418839
0.454110884021733,-0.745364777340167
0.444733395117498,-0.76572910721572
0.466873558891174,-0.748902693442249
0.44436260261224,-0.79242006698315
0.480871027057286,-0.793650266528333
0.44198396566362,-0.804676117535394
0.405074389919133,-0.775825554678224
0.447201960263561,-0.811938970502466
0.526499021868885,-0.722325393302032
0.427190469959457,-0.775552912646609
0.43010355689115,-0.806573409730693
0.445515550575052,-0.79757149436036
0.44006144607655,-0.802562079518981
0.442011061537355,-0.790997249332224
0.4427991781439,-0.79114393506797
0.443788029058575,-0.791350785029273
0.578654128888068,-0.656704291438029
0.420109502278707,-0.768602278227881
0.444855298687012,-0.801065500558573
0.444589021924453,-0.799056838051324
0.480353582340325,-0.799381980891333
0.455672227177296,-0.819579571160792
0.456638932924211,-0.794643451352986
0.48541165099424,-0.747520746916293
0.462326491011511,-0.796234342879084
0.465524604959163,-0.797147674445291
0.449490715548343,-0.822681636528766
0.499009509396727,-0.802218349278205
0.485228101799881,-0.831088782524335
0.480764956452925,-0.801631383364229
0.50722315100391,-0.785529592119928
0.492646181253131,-0.80070596475015
0.494868306173327,-0.805919439599902
0.499595888862368,-0.817763215792204
0.496522033730292,-0.788604489164373
0.533852772971985,-0.810271857255952
0.551502055687485,-0.793621565068352
0.521619620006031,-0.793551316076342
0.520959947551924,-0.806467984416132
0.550780091936472,-0.826939486147659
0.537993489529645,-0.79292694167034
0.552063566813536,-0.839939493530084
0.559779399563314,-0.826642956380535
0.661880459008784,-0.72495232050526
0.576286496580916,-0.832089106119629
0.573445454905742,-0.838359816838033
0.590394358068961,-0.823860325221378
0.604684832811848,-0.831630026204809
0.535414630353681,-0.934812822428589
0.50196660815948,-0.949743642916772
0.625561419342972,-0.848278456681644
0.660548161367488,-0.824651475526758
0.676734381438502,-0.840828306171975
0.646720022278042,-0.875130320505568
0.658465307374235,-0.892961647681603
0.656372464752155,-0.894387401030682
0.65912336901838,-0.873899340897933
0.677441806583793,-0.879809421973399
0.72563905663639,-0.830199159959919
0.589585234878717,-0.97266293707853
0.69879753647619,-0.867548245488784
0.564363912382612,-0.965631008542677
0.706217585311499,-0.903272958621348
0.721619008979384,-0.884190057809851
0.749343993584965,-0.878070719688373
0.730483287565346,-0.875967260107614
0.731069272245003,-0.87214834916076
0.716954940971285,-0.923450518932875
0.733352465936526,-0.861445695611983
0.645548593310316,-0.984561850225502
0.695452557757065,-0.869238472303017
0.751552697233278,-0.87216569584942
0.722202570890182,-0.89836548248881
0.73594711340066,-0.874716576713811
0.761126149927863,-0.870561072952192
0.680167953700652,-0.967617676212114
0.7668185438305,-0.87665615534839
0.747352813113152,-0.899791107956087
0.775185461949618,-0.85330435762825
0.772678589030214,-0.865272618958701
0.760344294333108,-0.867509331330565
0.804874545191968,-0.850934010672185
0.769103167789565,-0.858097953785393
0.885114084111321,-0.76322543006619
0.768173776092283,-0.86799037382705
0.755552859490712,-0.863626193158645
0.809330326602452,-0.850360776681299
0.778138020763788,-0.875713386747867
0.827092300795076,-0.854692331022319
0.783887850700299,-0.875945063113265
0.79873476782268,-0.86243334016251
0.801581521000758,-0.830094595148827
0.774908559151187,-0.836285072034012
0.808384155178655,-0.798354269861986
0.763868264897766,-0.834905406575726
0.800998344587092,-0.79667348076979
0.750782848537937,-0.843907548115888
0.704838133938156,-0.933361427043578
0.783309734622937,-0.845228674013301
0.750358509254133,-0.792450407830021
0.77485982536126,-0.846286998630568
0.784056425040677,-0.786898698536036
0.699164371438827,-0.789235526066495
0.722721496039734,-0.794130399860458
0.654436624748081,-0.890186633416069
0.760375837084545,-0.778504218785437
0.747181875647041,-0.784765599170153
0.75515460987315,-0.789872739319949
0.739865478945672,-0.775609192783447
0.748584560914479,-0.732011522451216
0.720902927885299,-0.76903175297624
0.727601944449125,-0.761120490851558
0.711432937102133,-0.757512817338841
0.718583701932546,-0.750969078953468
0.713826119418509,-0.745748377210502
0.702436321086036,-0.737039659964067
0.70382120621213,-0.735021461118609
0.732990656909196,-0.728613063523375
0.683777613325915,-0.722976517253423
0.687610988956382,-0.718230742411506
0.681892563352038,-0.712450660809507
0.676019019265879,-0.706580484518318
0.652772040137714,-0.698726576660805
0.654188914933786,-0.687813288558716
0.64611684871995,-0.690240828867082
0.684951903263593,-0.713200860600011
0.644374741940192,-0.675909535597696
0.645951963895692,-0.644643144947914
0.619384548939968,-0.645653881290035
0.646340620994683,-0.627395540124592
0.646817071968317,-0.644531569125736
0.631725503734974,-0.662566141287732
0.587932012278811,-0.646073971801962
0.598484753639026,-0.630902593636675
0.5862000286211,-0.622477163367754
0.682012888063564,-0.512604370419815
0.539693557138296,-0.595401784553581
0.567853524394481,-0.633046624371997
0.562988508759561,-0.607852799434915
0.627632513729239,-0.471817013630074
0.534730703975317,-0.576925106856666
0.436012890902926,-0.735093463341457
0.397818560733286,-0.64297430664191
0.629592992682915,-0.461137071780005
0.47769201195951,-0.522161318437183
0.388680446873819,-0.646555833182316
0.48296389543951,-0.533165507652137
0.44751696225591,-0.554019368021667
0.444136100725597,-0.526136517964424
0.446484055550856,-0.502959755606687
0.42313421688242,-0.467117836739725
0.434799541163962,-0.493024315335039
0.305796554468979,-0.598612029666956
0.306681931402271,-0.586606052831587
0.29860890885548,-0.565269022544599
0.270046338666433,-0.536220301071343
0.391652030436184,-0.414125117681759
0.483243309044228,-0.352015872489088
0.321536501849567,-0.393785489151841
0.352058031355234,-0.425604088959658
0.339573316864077,-0.426506893407389
0.354633972070479,-0.382773196460982
0.31419881957357,-0.419951100295044
0.308261552328553,-0.390541503155413
0.297075297364392,-0.381644678600868
0.356404523120164,-0.290340424203525
0.280528222877297,-0.365766821095088
0.257899443757487,-0.347278979527879
0.251424782676947,-0.345559541860038
0.243601452237507,-0.338052892764346
0.211537653967471,-0.309082105485969
0.216276303354899,-0.317998041154163
0.202511253148083,-0.307095505116649
0.187877716083774,-0.338493654838119
0.254718920366063,-0.249578249723829
0.168271196337664,-0.280631826893299
0.165691968673278,-0.256905419455942
0.143805698462324,-0.261700181246338
0.0390630558326644,-0.373923576520649
0.111990695630452,-0.220998370499329
0.106561055690279,-0.233012195048696
0.0802757750335113,-0.232885163655293
-0.021563297976882,-0.341943657871167
0.0718464555520723,-0.20652967182056
0.0705860311403519,-0.213081691853231
0.0431252529553487,-0.184483890538501
0.0302467964908816,-0.174679042676728
0.017307922742744,-0.164843222686588
-0.011304057835524,-0.168195577878695
0.0296774747434864,-0.155620628407308
-0.0218568535373055,-0.135158887909727
-0.0277872689859095,-0.164304267276824
-0.0427781958069791,-0.11127280155701
-0.0615137301713999,-0.1052280526471
0.0488824907920664,0.01033728014244
-0.0874924921681527,-0.107418510621704
-0.109985067981266,-0.0688244105785519
-0.115088094680018,-0.0649786309277377
-0.156072680008692,-0.0936145412087843
-0.163947788001853,-0.0162542081103622
-0.256292869111121,-0.172078297276744
-0.173268828478434,-0.0202969278172802
-0.16199098745002,-0.0129682895139823
-0.215523874005129,-0.00432249277618885
-0.229299067231655,-0.00617136715451067
-0.224752364503422,-0.0307668582158617
-0.155023386418565,0.159619670395061
-0.262285638866474,0.0302779526236398
-0.150159926639075,0.15341824020731
-0.39170830451894,-0.0545276968171282
-0.292829201358609,0.039766406105749
-0.315800889453908,0.0788698362419447
-0.311675362514985,0.0544937970473746
-0.348540522019045,0.0941721610998121
-0.364327443753036,0.111053936936652
-0.363684400822694,0.119497487867438
-0.424034113410525,0.133087651627113
-0.420951986462375,0.147000268270852
-0.412669574530613,0.147711969265259
-0.431309888049555,0.13518894799116
-0.411114464546865,0.158509040736264
-0.448317120678428,0.181607087231292
-0.462466633372731,0.191962579997342
-0.492496123069236,0.215339061205894
-0.484253236262255,0.261512374798753
-0.615575288271427,0.107393853140678
-0.602685574576818,0.145553592559623
-0.674664139653731,0.121225308577544
-0.655787950666658,0.144839411152346
-0.57464503124408,0.279105948971462
-0.565930034338796,0.280113128611704
-0.554586279833591,0.276363439148321
-0.599217362826697,0.294958986149665
-0.616706511961485,0.298383707302499
-0.640087923412099,0.335033103508074
-0.646685356648272,0.326141750828412
-0.650208831892462,0.350635009308656
-0.679331890210875,0.353821574020533
-0.689705392900999,0.357258028975504
-0.703178096955123,0.367079676377935
-0.690803345873919,0.398102958104078
-0.835952983120785,0.286296054255735
-0.721918470269287,0.416856888177941
-0.740514726756339,0.393315519299445
-0.78735337658561,0.483928254237277
-0.787419590637416,0.427973496387722
-0.793861585042963,0.43342317804762
