-0.37921757399256,0.575217708363146
-0.638289998168508,0.461276148743381
-0.87147540531421,-0.180355952524202
0.111539986805803,0.0646732425403593
1.09455537892582,0.30970243760492
-0.808740490584376,-0.819372401882831
-0.861582028611184,-0.54401936844454
-0.914423566637992,-0.268666335006249
-0.0479200412915726,-0.682754857009812
0.615736308451672,0.59099718832417
