-0.0419623772869264,-0.579079768401824
-0.0200898312294958,-0.551777939414173
-0.0377461360101625,-0.579388275353347
-0.160870362682283,-0.689492560551928
-0.0404901706522882,-0.614467633841472
0.0650945700777063,-0.484852476953366
-0.0405970747761187,-0.564957308313566
-0.0394403688200394,-0.586828172536782
-0.0227162624083206,-0.572766943602801
-0.0121487861571485,-0.565792379451787
0.0243986922482804,-0.598891898462506
-0.00502631792173669,-0.549391343492958
-0.0258150052351693,-0.591980314430807
0.0249394980861174,-0.587399088877073
-0.00977661667280121,-0.567072626531298
0.022337839770904,-0.560303335789281
-0.0259755209187709,-0.568069122198283
-0.0158205711893777,-0.545490700488079
-0.0218248018714094,-0.56932002942234
5.92550340635638e-05,-0.56171805780582
0.00192528374030773,-0.560581988358447
0.00375802143662525,-0.55942445582021
-0.0822534525801952,-0.661079817455469
0.0192907334496051,-0.574112157967359
0.00905830647365935,-0.55582417455986
-0.10638237739261,-0.614294954039519
0.00687669026699576,-0.530248592594462
0.0140655172488624,-0.552034667120099
0.135007088190621,-0.459397729014873
0.0385245735352135,-0.599283071433804
0.0441697523369106,-0.567321348369151
-0.0688840407104424,-0.676162987706621
0.00331899867549041,-0.553731058723994
0.0450289381719542,-0.566767620741508
0.0246368489331083,-0.542473209483868
0.0260226015706865,-0.541026690118776
0.0273777902098001,-0.539560350012141
-0.0817369045641552,-0.621892747248302
0.145620146422798,-0.425051422193767
0.0138415834171769,-0.521144402112405
-0.0112213600629662,-0.517016015442415
0.027161787633279,-0.569782171110574
0.0442607666992612,-0.556443878089253
0.0360235899907699,-0.528750185658681
0.0456754700747177,-0.510288860711256
0.00895226715772433,-0.53886102612879
0.0284126300557357,-0.56801691639359
0.0418577405313111,-0.52075920649904
0.0281804387930864,-0.51960289067761
0.0422966380056666,-0.518744059074854
0.0387487940019425,-0.49575819617814
0.0334251389006703,-0.560643428429748
0.0292663372958201,-0.508786603071373
0.0773819075364507,-0.536711146729957
0.0467519948474863,-0.509901699837215
0.150921142450696,-0.353542464779108
0.0483430964912415,-0.506239806685654
0.0588018120728562,-0.538509570339736
-0.0685006421305831,-0.599164624169037
0.0397760405013384,-0.489691844295063
0.0538537363214274,-0.463580335070852
0.197164283730139,-0.38158326023715
0.0524803106689272,-0.494837116049678
-0.0795006371363947,-0.579312810689497
0.0574251985940707,-0.469824490065623
0.0663178618715439,-0.448774773374136
0.0109555319241921,-0.500140903566328
0.0552207997529137,-0.484870096094071
0.0498862105125793,-0.48445618629669
0.0651526859943941,-0.472364418803008
0.025498535382934,-0.504043603314885
0.0569666654832916,-0.476602116056012
0.0518629939323321,-0.482835392213043
0.150469201469312,-0.354003578998375
0.0580232271833619,-0.470234017229316
0.074992080892129,-0.423091019808981
0.0983090314620716,-0.490422118022592
-0.0599375705368932,-0.629913492661965
0.0495818409497693,-0.458584443753808
0.0593171119870605,-0.459310966384723
0.0595074674502146,-0.457080908705382
0.0433484726882722,-0.481053103962586
-0.0628247294970182,-0.55539319094877
0.0743024400843794,-0.409165983905268
0.0441726430244082,-0.446769318302053
0.0601271363200839,-0.445709404704076
0.0540101117356427,-0.412333021778175
0.0671437428109731,-0.458228989904907
0.078221899190424,-0.431452764666981
0.0648428035216352,-0.458542022284549
0.0542140670670977,-0.433342660200141
0.0601640980838097,-0.431591378246415
0.0314628038360209,-0.423977412676572
0.073023258844334,-0.408990397142223
0.0651595532186017,-0.422329316445323
0.0814688479018537,-0.401682280967427
0.0538291895186749,-0.377948026401618
0.0594672662432898,-0.416980536841966
-0.0384347368333512,-0.482589477778943
0.0530603991190526,-0.423678878246072
0.0548946352504497,-0.405583493045487
0.0839569685401942,-0.375346975543888
0.082323825022968,-0.436385254077002
0.0501089182757784,-0.410455599681897
0.083431158757516,-0.382863676443218
0.092633534828736,-0.377537267115151
0.0495357943434114,-0.390528083626025
0.0648351324665108,-0.410692152470073
0.0564142369946176,-0.388992530385127
0.0560292976097195,-0.386375008513603
0.0705606263011815,-0.368339654318674
0.0552082684149299,-0.381104918805833
0.0999023044574615,-0.370395574335617
0.0650462283311941,-0.36303228830043
0.053851575571724,-0.373113811681695
-0.0640339973272585,-0.502668711591675
-0.0719706236240398,-0.462125151071142
0.0482904492047486,-0.375589252327219
0.0518166758509693,-0.362303118644311
0.161544658232992,-0.298984237166925
0.159249192592644,-0.246659749277402
0.0501273821397875,-0.35408201836079
0.0495341835695421,-0.351320696402139
0.0489262376673113,-0.348549079328008
0.0319798223832246,-0.350598855126666
0.165388014034417,-0.245036684672948
0.0691366524245571,-0.334950023852448
0.0300388783728725,-0.351634350429029
0.0680636178155285,-0.341906844870347
0.0449790491250217,-0.331709310895604
-0.000881141976890321,-0.340191995865937
0.0435535825896816,-0.326018657372242
0.0655490659813131,-0.327864565569799
0.0415399359672575,-0.310056915302484
0.0581051342980127,-0.317435656869102
0.0564532114541148,-0.309416508387286
0.0372785527457446,-0.29327703319398
0.044288393014353,-0.319798691013432
-0.0782344793212185,-0.392092833586296
0.0671079097027682,-0.316074913551287
0.0365109804760449,-0.299962532165451
0.02248025729222,-0.32688837161833
0.0348150674639699,-0.294077904618082
0.0339503530824959,-0.291123378124842
0.0330747091850831,-0.288160855805172
0.0321883175724957,-0.285190447149026
0.0189092438068296,-0.266843517070592
0.0534643383676599,-0.298202941068459
0.128719253518265,-0.164369114708255
0.0253564570854854,-0.264478691191533
0.0276015068086829,-0.270223940969573
0.0325009454793877,-0.247841599471091
0.0244296829785913,-0.275181160157509
0.0398079898626821,-0.272730201821035
0.00794345957176181,-0.278329008274954
0.129613395155721,-0.169391682257431
-0.0092523464583516,-0.216696206251186
0.0207794719159646,-0.248970263373681
0.00346625799739551,-0.213583179041802
0.00862194106028988,-0.242737885437248
0.0317031996681694,-0.256283319379477
0.0166927119308698,-0.236680710693042
-0.0692263807437461,-0.342495480174153
0.0028330626402572,-0.242488769077083
0.0135466060664371,-0.227399900391647
8.40351503847772e-05,-0.238759570383991
0.105744939047248,-0.0995014410481803
0.0103364949029756,-0.218067821253824
0.113154972877653,-0.130396854712865
0.103373976769609,-0.119221948815844
0.00706728706111657,-0.20868742950835
0.00534141205120311,-0.219719171794353
0.00485740768873372,-0.202408454539848
0.021341768042937,-0.183052644801466
0.00262489914123454,-0.196110197100374
-0.0884629089013766,-0.281361057367523
0.000371215824732124,-0.189793533109566
-0.0238962312037967,-0.186056710581085
-0.0799670850140497,-0.283012974519895
-0.0150093098044633,-0.195928055708883
-0.00729025909299792,-0.156664329281015
-0.041190329586006,-0.145707003823085
-0.00650233867766439,-0.170741861025519
-0.0093977828024151,-0.160837401883282
-0.0384697681151566,-0.17719473382101
-0.0189104800903011,-0.14112980357353
0.128284283615157,-0.0312474149255818
-0.00760186537017185,-0.123423632181818
-0.0754102966669715,-0.211122720053324
-0.014693415804807,-0.148347050680551
-0.0158752908093816,-0.145135078986155
-0.017059550693981,-0.141920257493201
0.0955246037158709,-0.0507112822886795
-0.0205572867336159,-0.143871423672994
-0.0323971081938011,-0.142599612115453
-0.0433113449005134,-0.0835431355727483
-0.0464946639653365,-0.180072884001074
-0.0201491208007826,-0.123830588615874
-0.120955089876781,-0.209630630378108
-0.0391116384871585,-0.0985105411531617
-0.0277952121304085,-0.11287668896406
-0.128614487288983,-0.235854231522085
-0.0406016286491833,-0.100729815239937
-0.0313905144729621,-0.103159969633796
0.090486438415277,0.0234352112842108
-0.0289036789439663,-0.0732256920893425
0.0660262738252905,0.000751993380052857
-0.0330963895556176,-0.090059907367583
-0.0628909428423614,-0.0710108777881933
-0.0412260002848198,-0.0797199563792228
-0.0358161703853262,-0.0917494085499319
-0.00747905897887664,-0.0906692384963192
-0.035040145849387,-0.0724963907510554
0.0575556724577299,0.039145084256772
-0.0445376131691042,-0.0674446456493089
-0.029548074493188,-0.0363602753171067
-0.0469093665819357,-0.0609437937558009
-0.0307722282221569,-0.0841653641596243
-0.0492717522353968,-0.0544429296233567
0.051917514072589,0.0850837849755115
0.0637026096209652,0.0614922273851307
-0.0527945846533968,-0.0446935265508928
-0.0734830993293584,-0.0244995411639671
-0.0541974229487412,-0.0612343776722832
-0.0424288534550972,-0.0111801620046828
-0.0640609362429482,0.00251751191714824
-0.0663573250435849,-0.0369920699216882
-0.0952684828727912,-0.0431824486227042
-0.0724426667735255,-0.00904836699254631
-0.059926351918382,-0.0315409047947179
-0.0631678964670563,-0.0154865393107569
-0.0954451331561768,-0.00569624124652412
-0.06542398443376,-0.00901011525562237
-0.059879285039197,-0.0191030091473627
-0.0676590693921892,-0.00254068631865542
-0.0824960761136539,-0.00951642771397215
-0.0698716969362308,0.00392087158050598
-0.0654684047598294,-0.000358864033152727
-0.0623374390891197,0.00522509883220494
-0.0731453490869441,0.0135965341591546
-0.0557256484439376,0.021066960981851
-0.0752954700682722,0.0200345823153859
-0.0767230314778276,-0.00693887617231016
-0.189922108628249,-0.0918228256075872
-0.229653967814551,-0.0782882370531849
-0.0795116141174655,0.0328769924385951
-0.0644608088822873,0.02937924976698
-0.0625421555174364,0.0643716695982062
-0.0922824691467224,0.0635697866172747
-0.0590421112732713,0.0335756298784158
-0.0921531521493608,0.0453567043247632
-0.102927128421798,0.0589178071371175
-0.0536424778378846,0.0303222321168342
-0.0875667871908365,0.0584025421781363
0.0144509532025856,0.213584532817644
-0.109512554320867,0.0482863586890497
-0.102368948472753,0.0807374756750695
-0.0913825457172058,0.0710716670802607
-0.0923124504227787,0.0742280069596521
-0.0247189908754742,0.199847188873482
-0.0748864085971514,0.0406334692502902
-0.0852495719897658,0.0910727946729481
-0.0837777309557015,0.0719083331845515
-0.105946309769277,0.0557962556590781
-0.0963998858440401,0.0826411765555838
-0.0658642932874334,0.101792102874434
-0.104926194806125,0.0960384190577045
-0.0673129740788518,0.115102267686317
-0.0980239801148195,0.121820987981154
-0.101842886268198,0.108620353630803
0.00304526424667818,0.219860691746633
-0.0122475767201532,0.224408367478319
-0.126455030050706,0.102025801086872
-0.104961903946142,0.120960328572027
-0.132881106469985,0.137020090294549
-0.106445912487783,0.127093326796339
-0.107168405381597,0.130150195382079
-0.10787764828972,0.133200497630267
-0.116447671041738,0.136420379579182
-0.121672235039561,0.122685921199641
-0.114297246082468,0.124685651356599
-0.129083164167763,0.11700538798513
-0.118125574488849,0.136187557918935
-0.111844675196171,0.151358286593366
-0.126292871176016,0.143602646547055
-0.13586217317554,0.155410801477921
-0.113634587980682,0.160339666831646
-0.151949375195343,0.151057906706079
-0.230458991928988,0.0711887914009786
-0.0990970998135007,0.188359601175104
-0.115809338049823,0.172207072210188
-0.266931647609335,0.0391801823208173
-0.116802669109121,0.178092617677774
-0.101018395257773,0.173897833128719
-0.0118001358976376,0.287153688239649
-0.133532164066845,0.217355694855504
-0.0833175329640176,0.193626425119991
-0.136670888042878,0.178405490699943
-0.091361679530001,0.206731329496711
-0.119760781142183,0.198424256021661
-0.00255199719503364,0.312684269706642
-0.120451800390847,0.204153176439217
-0.134733162761402,0.187646276509266
-0.106951687187022,0.219858007211729
-0.231718527323025,0.102021716422959
-0.129631557748772,0.225497432451323
-0.121864754415246,0.218310748646559
-0.131207050545181,0.230094761404975
-0.153937569460756,0.224747396071057
-0.122489533132629,0.226687955456284
-0.144736101377023,0.21657378997701
-0.140335436356287,0.244175774788027
-0.122941067151853,0.234973546711492
-0.123052231266216,0.237714540497991
-0.106848413362866,0.229620650630224
-0.120607517976802,0.241009284837216
-0.136752526731696,0.245717309059194
-0.123295303576393,0.248571246085675
-0.100594534544907,0.26420501369493
-0.145970289647965,0.269319074239842
-0.124724667119098,0.234532575969489
-0.145947957110865,0.269992599405029
-0.123131944575442,0.261892559817473
-0.123035161515788,0.264522451897244
-0.165330098549277,0.234609073493941
-0.122776029730902,0.26974698947056
-0.226043966802208,0.175802044589678
-0.126250260176918,0.250947679942516
-0.103643109994394,0.218061617244402
-0.121990413077427,0.280052012553552
-0.15123608150432,0.305401547358372
-0.121461019396611,0.285130746223954
-0.121161539915008,0.287651285376539
-0.00386562619762953,0.39381373189833
-0.140327455032292,0.279600578387355
-0.214363491290247,0.22077270387159
-0.119727495696144,0.297605369337165
-0.119309044064493,0.30006132471512
-0.156499083702072,0.293059464091401
-0.102800995727043,0.288025822132428
-0.229687509977817,0.208000579471657
-0.0987211720811498,0.289852113195064
-0.144178815649434,0.306117893732923
-0.125295748866507,0.327316100841283
-0.105264326417115,0.310857607970558
-0.117976215054175,0.292393239679739
-0.0718352134999228,0.365509492479884
-0.0116079157027976,0.453963123608814
-0.113059651016282,0.326178561246412
-0.0856308892917262,0.351617738703137
-0.120062644282204,0.33417119536035
-0.214730242377056,0.226525311990924
-0.110009681285558,0.335249914034937
-0.115790151285343,0.341555475071873
-0.108323022560668,0.339696702944349
-0.118499366431356,0.371166895849903
-0.0486760695870699,0.415782562446903
-0.200102960211469,0.263058077229296
-0.104619085361266,0.348408126195282
-0.0804646866852313,0.343249208926805
-0.20543225040362,0.264222674186363
-0.128447722990595,0.363913500296173
-0.0925047819723527,0.340936340660728
-0.104913965605468,0.369392255379694
-0.0496976478772254,0.367403586102631
-0.0999663069317238,0.380055092485393
-0.121660051861133,0.357391684283467
-0.095809995834364,0.371507997830758
-0.0817132404113215,0.368118289893971
-0.0885608541126589,0.379478272968768
-0.108011120858535,0.377932324470386
-0.194649382680789,0.285197994349452
-0.0474228030887762,0.375109994021016
-0.0866218650745418,0.378803661662719
-0.051205879865287,0.412916608631277
-0.00173521803157264,0.492400145790887
-0.122485562288993,0.411294028465628
-0.0998222061442026,0.370135249530804
-0.0791088587824489,0.38809441198626
-0.0716082888025907,0.39877644020273
-0.0758823732255406,0.391687338354814
-0.0808482183518409,0.369434441990098
-0.0764382272479706,0.396201617749225
-0.0711030650694538,0.387505929305774
-0.0946582437325608,0.455416296359753
-0.0735422457443472,0.419857056392489
-0.0706182113658764,0.40437567993115
-0.0635671753837145,0.40369130369753
0.0562261010810176,0.50780557394934
-0.166581217930528,0.305205778264166
-0.054564180458412,0.403256978914507
-0.0557984619397213,0.41014128734819
-0.0450100558176746,0.439903546510517
-0.0491211634583596,0.4243643400986
-0.0199554935060032,0.418503288440361
-0.0474832353186865,0.416284748081303
-0.0453176724737841,0.417771897884054
-0.0538275658465983,0.390973367920105
-0.0420460945161595,0.418130348695306
-0.0559582103069391,0.455345939159779
-0.018368029248395,0.408803107234572
-0.0415678685520409,0.430517568917799
-0.0727600493737779,0.378087942754478
-0.0450032404487436,0.417771604767009
-0.0311187709320098,0.431693013879795
-0.0481730561880985,0.400126519519316
0.00480776239034147,0.459684801014492
-0.0276632210422737,0.468115727700524
-0.0312800597193687,0.464088579177072
0.100503234554988,0.532760655060205
0.00973099862977079,0.452250643307565
-0.105129761922596,0.338750364354965
0.00491968683473052,0.396886944982627
-0.0215678243613209,0.447701418943045
0.0888206526534168,0.537917555065012
-0.00480700621324147,0.460590109773862
0.0231980554393308,0.404365965582781
-0.000742112868755026,0.440162146777586
-0.0198866158189968,0.461616785388013
-0.0794464369526678,0.324954819466984
0.0212774549395946,0.462779997348619
-0.117454089332326,0.363303914471558
-0.0196168263691634,0.47025441420407
0.0121411291698631,0.443745574223309
0.0175365144425793,0.44997817222189
0.0163819375380452,0.444630156263699
0.0184924432458016,0.445015229940904
0.109862520486273,0.549848072425333
0.0226938272442504,0.445671928986888
0.0433063660890765,0.430212570766339
-0.0941592429058714,0.35898718857658
0.0289473433060797,0.446376315917447
0.126813150257512,0.56053727997951
0.0474153511199316,0.455760912200997
0.0114142362846829,0.454378479873028
0.12997440775383,0.537675590308662
0.0392426373882825,0.446815014799949
0.0412829164656858,0.446794238155776
0.0861736190179895,0.456518662677809
0.0453449661384237,0.446645746650839
0.0473668045480004,0.446518426341095
-0.0468652111237219,0.332543911024479
0.0664608095492992,0.436765811188254
0.0937063872039001,0.453776314044277
0.0837550480263792,0.477894705829408
0.0888651528189515,0.455053875131619
0.0593713611789966,0.445023889037913
0.07441514517282,0.383510489830848
0.0168462474256737,0.453626280424613
0.155556282888989,0.575150552776867
0.067256434191907,0.443346173473474
0.0852764186969925,0.411421437218106
0.0711643950469416,0.442307643094802
0.0609594305258894,0.406477637897555
0.0750585266130493,0.460395842726203
0.0769838796754419,0.44050469548021
0.0789125217390125,0.439839128164964
0.0808356272414869,0.43914159725371
0.082753230089986,0.438412300021959
0.0892786789951092,0.430315335475762
0.0846510104474554,0.451520425557368
0.0767809785522172,0.42852936244043
-0.00576337197350617,0.326632615206822
0.0676460371889843,0.458527851124266
0.0941451902462807,0.433380471329579
0.122167104051462,0.452679327550984
0.0979000261893989,0.431458007691269
0.105247589419466,0.416170493638282
0.138231603500373,0.43187876853262
0.088516397710698,0.424188671840322
0.105347599453976,0.42725476852786
0.123195162676365,0.427578849948096
0.187687965216213,0.581895616952771
0.216587475372578,0.516954820134923
0.23981840839849,0.556266138830711
0.114543428456576,0.421345160015459
0.113699935762124,0.425233101095226
0.118187276427197,0.418782428152728
0.241562113198902,0.554186012690324
0.126700447104689,0.429616971057045
0.117492727714779,0.422676108548128
0.0839959980987918,0.410155067951657
0.157884300031357,0.452161735872299
0.132277521628319,0.418317897709878
0.109288501106425,0.404932934248999
0.136998624303804,0.395031615928377
0.135285974055766,0.424260333479534
0.13612247072644,0.404331084303063
0.137890760766979,0.402740530568622
0.17194865350982,0.425353381802731
0.138820021122345,0.381623600023848
0.161361480669663,0.393247494217362
0.126070469300785,0.381594428810969
0.146666116113765,0.394406945711385
0.148408205561787,0.392665446431503
0.152596171616496,0.393560529012172
0.154119066160656,0.432435505054789
0.129342218796773,0.378797577906578
0.140702334405285,0.393845442555944
0.156843466963077,0.418069401549138
0.175621477142274,0.406137786153251
0.160485783962846,0.37980091935551
0.162194838086293,0.377869206776944
0.151075826472767,0.380064777189601
0.152954555826422,0.349218069214631
0.167298275083956,0.371937524608049
0.177194302218725,0.351089775550302
0.17143100275712,0.323632319815071
0.195622848066667,0.379244335829318
0.145593631354093,0.333314100334263
0.266609372471455,0.465919210160191
0.175188213968641,0.333402610522634
0.179072248151747,0.357325740710779
0.195873575537954,0.390689810989363
0.182402991989166,0.352959740671963
0.174126773296824,0.35379270963651
0.0729067708192329,0.249729632628563
0.159758025681616,0.375283366158894
0.18372149863754,0.319752383929116
0.184443297660212,0.303811599297583
0.168798868663452,0.347584125988417
0.193949922179648,0.337042666583235
0.181253695699013,0.313607039957586
0.197218543100357,0.332319705806041
0.195020401395069,0.331177374242124
0.237530297827267,0.344139268306673
0.198626731770905,0.326971460169778
0.21392664870538,0.326725913649099
0.19478335163805,0.32809286462566
0.112890679552555,0.200053715698194
0.101932293965705,0.218177985174378
0.238617558062734,0.311732199868411
0.32484248175233,0.432459389319144
0.103910054552531,0.189331094513287
0.214969799186818,0.30504538834533
0.216350514469948,0.290673724720973
0.218158384442238,0.299863238408608
0.115138650425073,0.230369502644576
0.230495416941246,0.260536569805267
0.190549010190618,0.262306823947615
0.21296542214187,0.289117182918153
0.226081021105716,0.286628138672336
0.229392102226368,0.249146331911913
0.326325252784853,0.385423165280797
0.270131489190236,0.272610955394872
0.2322650553078,0.266107186178256
0.266756038453309,0.264782905332214
0.250043948559823,0.286848992530638
0.255556216472959,0.256488916091819
0.254801672901813,0.254490999636245
0.240177384582402,0.261864234098378
0.236663851622484,0.218764238328997
0.141387096827644,0.114718895048158
0.24483266450072,0.253360942757095
0.288332310379669,0.260971918976586
0.260027373079915,0.261256650121635
0.237450392801764,0.231145585972996
0.240805650607832,0.216019142618982
0.252546965052479,0.238934863431335
0.221650453783102,0.229537430398727
0.26078438843679,0.238674976920097
0.257150337709598,0.230135539704154
0.274329703311936,0.249240215918619
0.266190952412061,0.202037365020132
0.279770670325024,0.211622748024499
0.285476366158562,0.216551805509974
0.263493138302036,0.21641156077556
0.266304638054735,0.21223847766769
0.267823951940083,0.20921925217081
0.250662323781716,0.193350420613116
0.162407017407791,0.107022174334588
0.301920291010082,0.159928152642145
0.28452885465418,0.194511910673314
0.275395115056195,0.193979039113587
0.162379770583709,0.0862385278683014
0.290929293505625,0.196949949113004
0.255186421740206,0.140572487411485
0.306810063731312,0.16333042571194
0.385799187373727,0.253584868317504
0.262644115549952,0.162491760830269
0.24123961516198,0.17574821094239
0.2829807246272,0.165018796658021
0.175114431728471,0.0511641800106679
0.290423972583707,0.162857095339073
0.291919531906998,0.159703643081515
0.27781835640557,0.13824994745271
0.294907095111901,0.153376798849791
0.303229925088345,0.19512554642687
0.316111761664604,0.130011744884708
0.299380059921878,0.143839642343338
0.29885006868604,0.112517982088269
0.420933479254225,0.24009334307877
0.293832619719572,0.13616585391224
0.311690145576104,0.133611855970665
0.307482874016315,0.136323676682539
0.308299178356259,0.124616055034017
0.309782618154346,0.121395074991658
0.194190363264802,0.0175999827141677
0.310791655493447,0.1100590940976
0.221746612656327,0.0168062274543334
0.343379754897726,0.111714677223972
0.317188651825001,0.105228944921306
0.318667862845024,0.101984853864096
0.316072732675068,0.0904751320839149
0.199221392320647,0.031995828375578
0.171427960047527,-0.0643861116481373
0.333328051710288,0.0947140618264174
0.326055804266254,0.0857209235154024
0.327532007164571,0.0824608233617067
0.329007827384195,0.0791987454895488
0.424446115990549,0.211618917942637
0.338262194560117,0.0974750855744367
0.335754822367576,0.0959624518826944
0.362781758929529,0.0412022858806489
0.32586056708749,0.0725559676640064
0.337856611248142,0.0595957935974702
0.310794119662166,0.0791984699534601
0.309285303592226,0.0296345559525206
0.342278583494555,0.0497835977685179
0.327896801088805,0.0328752460101803
0.346549949241049,0.0376760324021807
0.342912910944891,0.101938835008278
0.355537053802282,0.0300339738986618
0.349648117183861,0.0334324691265268
0.378281275787701,0.0442726009203282
0.330727162179857,0.0234750258108561
0.45281321815445,0.123549204818253
0.348093338309964,0.0241387497996108
0.374072537396004,0.0276652358595104
0.358496086217391,0.0138456714550371
0.359340999677977,-0.0103304791978547
0.345971878797084,0.00219083826830666
0.330220319470319,0.0099993808283924
0.364400867561769,0.000828477345606052
0.379604631903206,0.00309989273214171
0.347231885856967,-0.00570099308703779
0.334977771506194,-0.0168472266294083
0.399196019258387,0.011180297969802
0.351558187530916,0.0108960612542017
0.259038247686999,-0.100484014960683
0.383545721228013,-0.0635996436666764
0.466724697909326,0.0269845858570232
0.377717133991893,-0.0282681561347778
0.381118098293726,-0.0343012030893491
0.361058001427939,-0.0643063234145224
0.353291159434487,-0.0330879041018107
0.383654029567909,-0.0410855709716345
0.392745548616356,-0.0315084872946103
0.380732646260744,-0.0638813683928672
0.388116093390018,-0.0506413756788564
0.389803530392049,-0.0208223568168842
0.385906632827055,-0.0826120260416131
0.351758153215695,-0.0735636746219664
0.394079775238507,-0.0632959799184029
0.371035125771978,-0.0533764161230228
0.400716697195572,-0.0851143882532145
0.511552670733785,0.0412532557746293
0.383177993134799,-0.0665632656892874
0.401560352541996,-0.0789575128628594
0.49592865012662,0.0199524133696603
0.394902055136246,-0.0972123018916479
0.406064179795436,-0.0882613781490579
0.433085938001297,-0.122474967898035
0.429562602053809,-0.0900334071681361
0.397281455811179,-0.116059976165969
0.450768812893146,-0.107501226673363
0.413599298620572,-0.103595632281048
0.378636057915505,-0.143643317738972
0.409717275668049,-0.102812094416429
0.447421575656947,-0.111328648962297
0.444132143109604,-0.107081718736026
0.421174015803911,-0.118693279884845
0.406485097655335,-0.118844005737097
0.528837540220122,-0.0260367191948794
0.406792288824725,-0.0844010090320773
0.427265148566657,-0.130584470124728
0.428792569735586,-0.133529661521676
0.535633991299376,-0.0339702933390747
0.44170568463311,-0.131162740007322
0.456997910544536,-0.130997749391689
0.544099360298545,-0.0431877920060273
0.451257839617714,-0.166916001063392
0.424690989710838,-0.160075108116701
0.446420133451587,-0.146065519539493
0.441084015484579,-0.156662888970149
0.54947933089794,-0.0346568123811728
0.479560384783686,-0.180420700920169
0.445728580525993,-0.165128523204728
0.459501793625716,-0.171959946971985
0.535831953540053,-0.0530876516241474
0.451986901580764,-0.19013410100913
0.438546618329553,-0.179070033398348
0.472647337870933,-0.177835403211084
0.482060445022716,-0.176875828941251
0.45024157909239,-0.146409376927646
0.475360093344485,-0.16603040716829
0.44988203435655,-0.188087876749174
0.461364845528989,-0.192432925822933
0.347840652888203,-0.31495764737805
0.464522634162689,-0.197713161539584
0.42285316909523,-0.196048763488098
0.44949935225143,-0.185264174365359
0.451668023193585,-0.202712074259307
0.516536776237368,-0.185336585513403
0.472464999334717,-0.210630747332927
0.474061953955424,-0.213164171402094
0.496160163746686,-0.19748575835059
0.56893360056684,-0.116620001209347
0.525929749500192,-0.203477603135814
0.480479174629962,-0.223124314863416
0.47387337449636,-0.23868640741316
0.462854519655671,-0.195639349287216
0.401897254451575,-0.361873275226643
0.612720099193166,-0.107831738795256
0.488569398438559,-0.235169204692282
0.490196942000212,-0.237522171303248
0.47117177423957,-0.229915362637044
0.493461799180422,-0.242170514966293
0.490159907146061,-0.254038719927328
0.496739909150641,-0.246740757380753
0.376549074960615,-0.386733057190736
0.615607662495977,-0.127851132591601
0.380680914170262,-0.345144303512942
0.503336972488986,-0.255640625647591
0.499609636903358,-0.247677132490765
0.553913376274303,-0.249471142489873
0.508321576040226,-0.262098773177329
0.451392024032855,-0.25581802509305
0.511662680370478,-0.266298029697648
0.513338744845795,-0.268365213581426
0.534960327696502,-0.25038947337987
0.599477328856902,-0.141655821458024
0.518389394397963,-0.274434620421108
0.52276667362585,-0.292315611873674
0.426206016449419,-0.340706275447686
0.502800368484342,-0.269153885916933
0.501178976154264,-0.251633504315021
0.526884031832898,-0.284097979251134
0.504503615811969,-0.276094295964074
0.428543646378433,-0.398587133617307
0.535484189034635,-0.2979326365529
0.549358314271409,-0.284093843285852
0.459395729345197,-0.39364763252074
0.537209683950643,-0.294917302679015
0.538945109918004,-0.2966353833602
0.540684764575136,-0.298328612290465
0.542428681829161,-0.299996792194298
0.563647847775024,-0.299648524473306
0.545929439756373,-0.303257215820632
0.547686348243802,-0.304849064992111
0.556576632356729,-0.327283278681765
0.539412801925381,-0.299605531686791
0.567479424287986,-0.306270764291708
0.554380520560077,-0.306549741986351
0.559898213987814,-0.293319326490688
0.558321348650526,-0.313850654680229
0.571766152687793,-0.323584568404438
0.668420494195935,-0.211368844144435
0.549780668327793,-0.294077051567069
0.531573980201936,-0.330055258215933
0.567310084047025,-0.320610688787021
0.56796792224424,-0.296950025613092
0.574511773859799,-0.320003484630373
0.572760308472458,-0.324332189546175
0.579304121906623,-0.332527948697987
0.558983062655142,-0.335387522164664
0.560045780923451,-0.286694911452473
0.580095653557273,-0.328892870140738
0.47144699610605,-0.43422093992918
0.673285221228744,-0.228531598108511
0.582422775225645,-0.32672949979316
0.586923377386085,-0.348739440761322
0.60586726294417,-0.319320691890138
0.591249605933597,-0.334848272892738
0.593126642191766,-0.335734986199376
0.692332782061618,-0.230978141869944
0.594033066069867,-0.330423659181079
0.596899424459602,-0.340647897868021
0.481607416955053,-0.434310808582011
0.597556190914047,-0.360637957250029
0.649437308566936,-0.307543517719135
0.600467858012836,-0.356543575873505
0.631889859569866,-0.347461947638233
0.606463084865205,-0.393844381822682
0.602888359966179,-0.34785025283718
0.616089676615651,-0.3603283554044
0.616069955191903,-0.343919063817505
0.576940221975166,-0.328122354636548
0.596408727661474,-0.350832409080824
0.619076176249438,-0.344629180796318
0.616052871056381,-0.333508470972233
0.625866550012182,-0.345940323113366
0.62073596927687,-0.357955820896874
0.720648124254637,-0.228508844326213
0.631814103540921,-0.346745172496179
0.589157121423356,-0.357744626325127
0.605294784155626,-0.359024355573882
0.637814973482085,-0.34723758214113
0.503346392598065,-0.467486940551678
0.728828350207694,-0.243013939370249
0.641845625766932,-0.347389647265482
0.637209521217577,-0.376025756710089
0.636775569687456,-0.364375179966295
0.635242475989026,-0.342866147459978
0.630895089346553,-0.351560460528186
0.661635521895842,-0.368640318311042
0.65282787833469,-0.347718857840643
0.665243808253993,-0.333510429074098
0.610108918586821,-0.374999388094479
0.690876332703067,-0.33467342457809
0.637517929845207,-0.328508120071048
0.726354260923175,-0.283291951609631
0.650757523339731,-0.34221538939618
0.669649834451436,-0.331061077484792
0.65024471787254,-0.338614753855518
0.672442909246112,-0.322724120287443
0.666157030265254,-0.3485898201638
0.77183739060439,-0.24086023163289
0.649962247288533,-0.318700030884323
0.642641345211973,-0.397188604869711
0.668063736635632,-0.340669007997229
0.656677028048753,-0.347898659705525
0.672702323653446,-0.330707187273671
0.639095696310992,-0.341614587930396
0.638049353443935,-0.359885541508723
0.680709847809392,-0.331476681630352
0.64336279221489,-0.356145915412288
0.667476772455497,-0.320961272984832
0.681867120369173,-0.344139262241149
0.676001792879612,-0.366479917565115
0.699959255933335,-0.324083082058784
0.680395129857815,-0.294061283498883
0.671416566371014,-0.331169375083307
0.735927349544885,-0.222947317959981
0.675278133736716,-0.35075846037798
0.675249914150912,-0.350888273084207
0.667348757837363,-0.395379534554499
0.661995485375882,-0.371002435194803
0.708327212399494,-0.348406305676545
0.777802209097267,-0.245081927080574
0.67875620541751,-0.34221472924792
0.671507007561729,-0.333483375527577
0.681008593905765,-0.342280333614959
0.673087588363854,-0.351915143970232
0.687720720483081,-0.358034421877278
0.617555690496015,-0.339246884767892
0.671407577697699,-0.352285316370996
0.670744461073114,-0.352405740189887
0.67776300816298,-0.338804919067455
0.669265236008794,-0.35264126704519
0.668449686831941,-0.352756079978125
0.667583886067213,-0.352868732512264
0.662807987009581,-0.35195110566454
0.662046864247189,-0.345538263274007
0.679310823384255,-0.336108455485546
0.71090386576257,-0.3234739106016
0.66031363641323,-0.353541456857467
0.635866545450335,-0.337583293649901
0.660139725294694,-0.353584624738891
0.658881978558853,-0.353674772220066
0.661120068963495,-0.351461576425215
0.644797968497435,-0.362290111961801
0.690784623019185,-0.356838367194763
0.652308953638371,-0.367396284951773
0.53896774522574,-0.460888302285126
0.610692932566927,-0.340317186597265
0.640827275979233,-0.359553086294931
0.528697824136098,-0.442718711393196
0.695504053125443,-0.346379852291995
0.635711367547212,-0.372392107273525
0.609014777771778,-0.374887187276137
0.713947252838714,-0.246129729987948
0.633615615122081,-0.374625985068981
0.636388591547885,-0.35450692264869
0.66313256911925,-0.302977091299845
0.680715275913241,-0.364277355453759
0.604403533485379,-0.368212547027117
0.742143245837117,-0.251315722613177
0.61592296453075,-0.345644616907663
0.624074623628921,-0.35455697149764
0.621873166492737,-0.354543874960338
0.584141508378292,-0.401487859977312
0.617344943917889,-0.354498000981122
0.641672012411687,-0.369375759740365
0.620230122477315,-0.335879606594728
0.60804334041652,-0.373248557883052
0.618002634185977,-0.354182846186008
0.521420804652551,-0.43291429059277
0.603810752711018,-0.36037278145832
0.698574997176699,-0.219578074258765
0.46204215081647,-0.472931349923319
0.70995498613392,-0.207681597083907
0.600220682633295,-0.366080745372687
0.589546508904671,-0.353728233605308
0.586784421204669,-0.353610770046363
0.60919637510042,-0.346419031734027
0.557023808646903,-0.343475075398165
0.578271589803646,-0.353206543110771
0.575359388674436,-0.353054038540191
0.572410358266526,-0.352892411087356
0.696619972764948,-0.263177912520935
0.691675549799867,-0.226897385735728
0.565710359100418,-0.351123603925984
0.466030008636238,-0.46059062388224
0.532461865133419,-0.39773352152849
0.528141398882023,-0.338155883461591
0.568620788940123,-0.365633485471966
0.554151496620385,-0.362933892319427
0.535938889925557,-0.376727345587023
0.540955962776007,-0.35074246665241
0.431766689319376,-0.469073615790202
0.542996490583367,-0.352005243607842
0.434890835483763,-0.440846018560513
0.52673218059672,-0.339408541703748
0.505652057272991,-0.299707525744999
0.505010100643009,-0.378766291157893
0.510659126741425,-0.345595836330964
0.533190014053501,-0.345564042328042
0.505472835321775,-0.369609500817589
0.525506545504969,-0.36066387221677
0.474721083748333,-0.315158359022611
0.498779855818408,-0.346734933195051
0.496165168266442,-0.365569732872124
0.504856465252826,-0.358888486844191
0.487533004456783,-0.345462511697522
0.480748795261397,-0.327768055240693
0.460784278505227,-0.318324967959744
0.47602012334409,-0.344074042152826
0.48024957600247,-0.33256979025689
0.468200803382027,-0.343081990629196
0.536021399570722,-0.237502108127966
0.449361866493222,-0.370810329287722
0.482074943054048,-0.330735440385399
0.448141014152272,-0.32001710376577
0.430612413793301,-0.305856942937226
0.444075934805376,-0.339774326734905
0.450201747150479,-0.3275016412119
0.39755405381618,-0.397505475214374
0.436664924472012,-0.303267142368474
0.436289955433772,-0.322545689244956
0.423241034197082,-0.336620800391063
0.51278927503691,-0.245535570395882
0.390410817955556,-0.368478732711398
0.311846430310253,-0.414095555388529
0.406119910274711,-0.333824978631328
0.305551223763,-0.442788124789258
0.508118372620846,-0.248695665169458
0.393026443182614,-0.331562769739115
0.388615326633827,-0.330776432675787
0.371714065788337,-0.341689808844504
0.373098158244483,-0.33652331899815
0.498142590240027,-0.228673435600296
0.381650986486213,-0.301571098233702
0.366222620919077,-0.326596214286479
0.416658692344739,-0.319564792566031
0.460094754968799,-0.216642519690123
0.351008162289287,-0.364797153460556
0.347920686668768,-0.322945096783506
0.320778560970033,-0.319872730907542
0.338646614875816,-0.321014032629925
0.333979781522434,-0.320021616521525
0.315815032741254,-0.315852781295448
0.302752093906015,-0.322506548224797
0.333316984703475,-0.296381907398887
0.310179812540215,-0.28987469443198
0.321680685170269,-0.341267984114696
0.338682519303045,-0.327800532850895
0.308054537385577,-0.311736694255132
0.291717638896354,-0.312428097527765
0.286983736310352,-0.27004748659651
0.226050979645441,-0.325491489867117
0.262042445121566,-0.288881454564926
0.2546076642078,-0.326230097360629
0.300046951892512,-0.299574874998828
0.173627042960337,-0.415176593267191
0.228540322065931,-0.306741150308563
0.278811818917061,-0.295798557072679
0.251889497980559,-0.300260418681068
0.255457892372948,-0.294887536499857
0.117353342932121,-0.43784947205705
0.229705927104936,-0.301636809471037
0.231904231641215,-0.294772681764108
0.226873166305064,-0.293348204722787
0.227773645974291,-0.24883563216718
0.216771294551273,-0.290435183903475
0.217235991799562,-0.267837920085268
0.242576866243505,-0.292063865526325
0.190851476058781,-0.288276865191484
0.195110767570568,-0.276170026316035
0.175562869084053,-0.290909213531999
0.198247827943686,-0.300064433429199
0.180526263136463,-0.295194280224696
0.198940411682495,-0.266033357713842
0.140492989989466,-0.294534192048265
0.0848242209810801,-0.35692727422951
0.168139919160941,-0.283853520164382
0.155164758952087,-0.27110226863059
0.166263832193819,-0.280075032181545
0.144751997987088,-0.267560153829115
0.194352151423004,-0.273214845890814
0.198530184339047,-0.144366655280376
0.262291130372597,-0.194123749239914
0.153916248473672,-0.246572043233442
0.118569831769566,-0.258288837437722
0.092945427458483,-0.266406422972261
0.00759886309748924,-0.391189311838566
0.00195660694935981,-0.335798497139215
0.0974879974140671,-0.250434294968213
0.0922009661175518,-0.248408688175735
0.236442453618082,-0.165962421468901
0.0816089736954398,-0.24428209381849
0.175123733986294,-0.130203514470856
0.105280435258457,-0.244077311440866
0.0622930980339494,-0.250079774833526
0.0603610992152444,-0.235723320566148
0.0804279972388417,-0.20785064628328
0.0497096912602191,-0.231288820843233
0.0518279663515027,-0.236995096951707
0.0390429522306142,-0.226749365170608
0.0337045326414472,-0.224439916223807
0.0283631191779589,-0.222103793134363
0.0230189914715901,-0.219740850850536
0.0514930872834641,-0.225702712435483
0.0123237118559762,-0.214933928492781
0.0199835978499236,-0.215287615616948
0.00162093084613485,-0.210017988736631
0.0183619621715912,-0.219250702082478
-0.00908711450640512,-0.204991871168177
-0.127420902846822,-0.303973909691311
-0.00629607701928595,-0.20473027829237
-0.0460894827516493,-0.214522096155542
-0.0415976717993259,-0.196215178099959
-0.0350897332988097,-0.216562618376956
-0.0412204661049245,-0.189240847449888
-0.0465744325075935,-0.186516055930864
-0.0782929413351395,-0.188682282438227
-0.0572784838896037,-0.180979778084904
-0.0639408555464792,-0.219287253738644
-0.0420998905797028,-0.154822358928614
-0.0733206629326818,-0.1724564485201
-0.0979156456112214,-0.138995717064341
-0.0908702501063287,-0.168422515843556
-0.0820969994851336,-0.197490256452928
-0.094672547480375,-0.160677279708388
-0.102891458682032,-0.158236563849525
-0.0677619177605342,-0.141447271323766
-0.124398114119866,-0.146810329288202
-0.233756598827241,-0.249602356245291
-0.130132244549143,-0.120610992138062
-0.126583263265114,-0.142100963924841
-0.129265432918304,-0.142347431231683
-0.140379059379757,-0.121301512304947
-0.142469562751617,-0.13239591735166
-0.189281547663096,-0.129069078544697
-0.0339763953615101,-0.029245688635301
-0.172015622046053,-0.107761688768198
-0.16234133964789,-0.129256012912015
-0.173936295523806,-0.130409009934989
-0.174066294668336,-0.112132464857753
-0.180481018791241,-0.137049911295966
-0.190247463508864,-0.0959840759654695
-0.173582792727136,-0.0945641919542969
-0.189678336764747,-0.0999665731498838
-0.208261122406527,-0.0944110198205003
-0.210956770823554,-0.0658296781427521
-0.210564922783639,-0.087018502529472
-0.20852526068797,-0.0946958301321755
-0.276083973230218,-0.0386647715605846
-0.232279191697631,-0.0731017040230597
-0.231932023678809,-0.0723876389069837
-0.23634488890712,-0.0680824633652712
-0.247266543478435,-0.10408891666383
-0.325908666962446,-0.179180065497291
-0.216251833736377,-0.0654303340036565
-0.256767727669371,-0.0523212102805909
-0.291583371540208,-0.0357603696029683
-0.243502754926048,-0.0327872517483683
-0.27195578397422,-0.0401369322712837
-0.276992392752562,-0.0360055253835184
-0.282015497150198,-0.0318388863005233
-0.287472739502221,-0.0278966101124053
-0.190535947957278,0.0629332440337268
-0.297000987744459,-0.0191261253627739
-0.42558871166399,-0.149950558001124
-0.296283517839767,0.00922987826089199
-0.278510231268288,0.0258776004991042
-0.321915650847344,-0.014224625931808
-0.321680618852938,0.00277999160034771
-0.32656960040937,0.00727024776865147
-0.319559123659329,0.00539811247652058
-0.330220965500052,-0.0139350533120865
-0.341137622382198,0.0209616927562197
-0.356722744737251,0.0337852834531041
-0.355530808302342,0.0560244917931333
-0.37320893186079,0.030489041555073
-0.370093655565803,0.0369331203420775
-0.354481042695387,0.0333452756812537
-0.369803347364046,0.049350681559797
-0.374516738554454,0.0542142921825135
-0.380586705738557,0.0434522770077561
-0.364948958096362,0.0203865237000859
-0.39463972730494,0.0313343603387999
-0.380413127558016,0.0540128742146653
-0.397791646734743,0.0791072447809363
-0.400491284201932,0.124907123488334
-0.393209030169222,0.0826143859166692
-0.408439341386941,0.0953405622730105
-0.444634383051558,0.129846891772561
-0.407184943321445,0.106125472962319
-0.415393303260902,0.0907935527848773
-0.411122396248298,0.0973501970885182
-0.433951210318081,0.120964153041127
-0.438769108960472,0.136916245198561
-0.459864325974772,0.12737842810404
-0.544119549875692,0.0280419146349281
-0.458798858955573,0.155656766186967
-0.45582122848594,0.148420620856997
-0.368695342084514,0.269801067577522
-0.369425610373756,0.293249614376269
-0.468655911932556,0.16538227106823
-0.490188535669264,0.230218166797984
-0.473073934794472,0.222653325030426
-0.485761146147368,0.177889508216861
-0.48902338861833,0.199237702406694
-0.530030384732795,0.169464338482362
-0.480079232304784,0.188831404849995
-0.52373588687639,0.20862512549193
-0.501762580280304,0.212435865352482
-0.53971521883484,0.215711064364551
-0.479784435662105,0.236403122615237
-0.507652549285765,0.240993409177015
-0.532280177117023,0.280111826475436
-0.545387483899439,0.280803441376738
-0.549925387762915,0.260563456178566
-0.489167760157396,0.253363314452138
-0.624881259974532,0.147002060464124
-0.53823564690112,0.241299203537126
-0.538979607072792,0.281618166909868
-0.6638709030114,0.191397456882397
-0.528651336014797,0.287141382772234
-0.55178363733212,0.294710328538363
-0.536877373595921,0.280238622341552
-0.450308705416448,0.423623668023661
-0.562609131984166,0.314746548653379
-0.566154642194676,0.321514416405894
-0.569668192349365,0.328327089768397
-0.6711978370232,0.242051595934102
-0.576598293965515,0.342087433530315
-0.572248336442042,0.315580568774901
-0.574038629251057,0.363740995956687
-0.586746755185052,0.363067617541561
-0.570973771258268,0.35337436598539
-0.59334467282814,0.377282544731589
-0.594410740771818,0.418128692038763
-0.599805802041826,0.391681336017202
-0.583262174846712,0.399964385841857
-0.606127905774583,0.406265151812311
-0.609236124007009,0.413626806530274
-0.61230874697488,0.421035152530826
-0.619231953607921,0.414268304976953
-0.620251806446342,0.455752109842499
-0.660762107203773,0.424226160948265
-0.621734490158901,0.445542420957849
-0.611547610787252,0.474260996563175
-0.629981324865725,0.466473868365906
-0.629944463164829,0.445608472740659
-0.618889123401522,0.479942361112635
-0.655832263267853,0.483676171072703
-0.652867384558432,0.492448780502279
-0.660564763700701,0.471784735432713
-0.646302006109389,0.513630023412395
-0.637036168933607,0.545094922411869
-0.664596574948813,0.556708833190266
-0.682548643926011,0.544492933672468
-0.678922659668705,0.546116421833033
-0.672546650714519,0.595832004999152
-0.526615073278671,0.682752020989413
-0.663553573282075,0.57085798904599
-0.665448114822267,0.599917265981426
-0.642158622857726,0.598091379313091
-0.579085736859375,0.720672702401666
-0.68296681758335,0.618486100929333
-0.674763516318909,0.636284161484372
-0.794097786320827,0.518515939027878
-0.644515307401286,0.602573792076994
-0.607882490759205,0.757787767424348
-0.674358999008578,0.639777395583624
-0.673226048458395,0.653707441545549
-0.671130402504384,0.656568752488612
-0.688379138616257,0.674644156999272
-0.690165067717415,0.683623211360767
-0.69190617371646,0.69265374371223
-0.69360217698195,0.701735899105401
-0.800302076486715,0.604202122565999
-0.6968577567865,0.72005565922382
-0.704799453531747,0.717287033539736
-0.699929570079539,0.738583652129934
-0.701395865205638,0.747926098507724
-0.828105208488247,0.681841752177911
-0.70418783425979,0.766768616371461
