-0.882393183710166,-0.503357397835083
-0.0871013873645763,-0.547224387229069
0.588876814134896,-0.534100735339613
0.390297346027728,0.335387497780008
0.19171787792056,1.20487573089963
-0.739697412984385,0.563125181564927
-0.171394669336075,0.418853068983153
0.396908074312236,0.27458095640138
-0.742856166912743,-0.630742469098996
-0.518818105687132,-0.373767107601091
