0.134050758792135,0.877267524034037
0.227382696634032,0.106482902619608
0.0996633338302728,-0.580121458452883
-0.00203962591488338,-0.744919766140199
-0.10374258566004,-0.909718073827515
0.663039973406083,-0.0632505288055496
-0.0664204404180269,0.440162183875297
-0.795880854242137,0.943574896556144
-0.364768922860145,0.100156681452093
0.979974735977121,-0.234881403981929
