-0.239271516215353,0.51382097132083
-0.237708105138871,0.503907707076946
-0.236154606415236,0.494040198404157
-0.234610970811287,0.484218354163094
-0.233077149093861,0.474442083214389
-0.231553092029798,0.464711294418671
-0.230038750385935,0.455025896636572
-0.228534074929112,0.445385798728723
-0.227039016426166,0.435790909555754
-0.225553525643936,0.426241137978297
-0.22407755334926,0.416736392856981
-0.222611050308976,0.407276583052439
-0.221153967289923,0.3978616174253
-0.21970625505894,0.388491404836196
-0.218267864382864,0.379165854145757
-0.216838746028534,0.369884874214615
-0.215418850762788,0.3606483739034
-0.214008129352465,0.351456262072742
-0.212606532564403,0.342308447583274
-0.21121401116544,0.333204839295625
-0.209830515922415,0.324145346070427
-0.208455997602167,0.315129876768311
-0.207090406971532,0.306158340249906
-0.205733694797351,0.297230645375844
-0.204385811846461,0.288346701006757
-0.2030467088857,0.279506416003274
-0.201716336681907,0.270709699226026
-0.20039464600192,0.261956459535645
-0.199081587612579,0.253246605792761
-0.19777711228072,0.244580046858006
-0.196481170773182,0.235956691592009
-0.195193713856804,0.227376448855402
-0.193914692298424,0.218839227508816
-0.192644056864881,0.210344936412881
-0.191381758323013,0.201893484428228
-0.190127747439657,0.193484780415488
-0.188881974981654,0.185118733235293
-0.18764439171584,0.176795251748272
-0.186414948409054,0.168514244815057
-0.185193595828135,0.160275621296278
-0.183980284739921,0.152079290052567
-0.18277496591125,0.143925159944554
-0.181577590108961,0.13581313983287
-0.180388108099892,0.127743138578145
-0.179206470650882,0.119715065041012
-0.178032628528768,0.1117288280821
-0.176866532500389,0.10378433656204
-0.175708133332584,0.0958814993414636
-0.174557381792191,0.0880202252810012
-0.173414228646048,0.0802004232412837
-0.172278624660994,0.0724220020829419
-0.171150520603866,0.0646848706666066
-0.170029867241504,0.0569889378529088
-0.168916615340745,0.0493341125024793
-0.167810715668429,0.0417203034759488
-0.166712118991393,0.0341474196339482
-0.165620776076476,0.0266153698371085
-0.164536637690515,0.0191240629460604
-0.163459654600351,0.0116734078214347
-0.16238977757282,0.00426331332386229
-0.161326957374761,-0.00310631168602594
-0.160271144773013,-0.0104355583475992
-0.159222290534414,-0.0177245178002266
-0.158180345425802,-0.0249732811832775
-0.157145260214016,-0.0321819396361207
-0.156116985665894,-0.0393505842981257
-0.155095472548274,-0.0464793063086615
-0.154080671627995,-0.0535681968070972
-0.153072533671895,-0.0606173469328021
-0.152071009446812,-0.0676268478251452
-0.151076049719586,-0.0745967906234959
-0.150087605257053,-0.0815272664672232
-0.149105626826053,-0.0884183664956961
-0.148130065193424,-0.0952701818482841
-0.147160871126004,-0.102082803664356
-0.146197995390632,-0.108856323083281
-0.145241388754146,-0.115590831244429
-0.144291001983384,-0.122286419287168
-0.143346785845185,-0.128943178350868
-0.142408691106387,-0.135561199574898
-0.141476668533828,-0.142140574098627
-0.140550668894347,-0.148681393061425
-0.139630642954782,-0.155183747602659
-0.138716541481972,-0.1616477288617
-0.137808315242755,-0.168073427977917
-0.136905915003969,-0.174460936090679
-0.136009291532452,-0.180810344339354
-0.135118395595044,-0.187121743863313
-0.134233177958582,-0.193395225801924
-0.133353589389904,-0.199630881294557
-0.13247958065585,-0.20582880148058
-0.131611102523257,-0.211989077499363
-0.130748105758964,-0.218111800490275
-0.129890541129809,-0.224197061592685
-0.12903835940263,-0.230244951945962
-0.128191511344266,-0.236255562689476
-0.127349947721556,-0.242228984962596
-0.126513619301337,-0.24816530990469
-0.125682476850447,-0.254064628655128
-0.124856471135727,-0.259927032353279
-0.124035552924013,-0.265752612138513
-0.123219672982144,-0.271541459150198
-0.122408782076958,-0.277293664527703
-0.121602830975294,-0.283009319410398
-0.12080177044399,-0.288688514937652
-0.120005551249885,-0.294331342248834
-0.119214124159816,-0.299937892483313
-0.118427439940623,-0.305508256780459
-0.117645449359143,-0.31104252627964
-0.116868103182215,-0.316540792120226
-0.116095352176678,-0.322003145441585
-0.115327147109369,-0.327429677383088
-0.114563438747127,-0.332820479084103
-0.11380417785679,-0.338175641683999
-0.113049315205197,-0.343495256322145
-0.112298801559187,-0.348779414137912
-0.111552587685596,-0.354028206270667
-0.110810624351265,-0.359241723859779
-0.11007286232303,-0.364420058044619
-0.109339252367732,-0.369563299964556
-0.108609745252207,-0.374671540758957
-0.107884291743294,-0.379744871567194
-0.107162842607832,-0.384783383528634
-0.106445348612659,-0.389787167782647
-0.105731760524613,-0.394756315468602
-0.105022029110533,-0.399690917725868
-0.104316105137257,-0.404591065693815
-0.103613939371623,-0.409456850511811
-0.102915482580471,-0.414288363319226
-0.102220685530637,-0.419085695255429
-0.101529498988961,-0.423848937459788
-0.10084187372228,-0.428578181071674
-0.100157760497434,-0.433273517230455
-0.0994771100812609,-0.437935037075501
-0.0987998732405983,-0.442562831746181
-0.0981260007422851,-0.447156992381863
-0.0974554433531596,-0.451717610121917
-0.0967881518400601,-0.456244776105713
-0.096124076969825,-0.460738581472618
-0.0954631695092927,-0.465199117362003
-0.0948053802253015,-0.469626474913237
-0.0941506598846897,-0.474020745265689
-0.0934989592542958,-0.478382019558727
-0.0928502291009581,-0.482710388931722
-0.092204420191515,-0.487005944524042
-0.0915614832928048,-0.491268777475056
-0.0909213691716658,-0.495498978924134
-0.0902840285949365,-0.499696640010644
-0.0896494123294553,-0.503861851873956
-0.0890174711420604,-0.50799470565344
-0.0883881557995903,-0.512095292488464
-0.0877614170688832,-0.516163703518397
-0.0871372057167776,-0.520200029882608
-0.0865154725101118,-0.524204362720468
-0.0858961682157242,-0.528176793171344
-0.0852792436004532,-0.532117412374606
-0.084664649431137,-0.536026311469623
-0.0840523364746141,-0.539903581595765
-0.0834422554977228,-0.5437493138924
-0.0828343572673015,-0.547563599498898
-0.0822285925501886,-0.551346529554627
-0.0816249121132224,-0.555098195198958
-0.0810232667232412,-0.558818687571259
-0.0804236071470835,-0.562508097810898
-0.0798258841515876,-0.566166517057247
-0.0792300485035918,-0.569794036449673
-0.0786360509699346,-0.573390747127546
-0.0780438423174541,-0.576956740230234
-0.077453373312989,-0.580492106897108
-0.0768645947233775,-0.583996938267536
-0.0762774573154579,-0.587471325480888
-0.0756919118560687,-0.590915359676532
-0.0751079091120481,-0.594329131993837
-0.0745253998502346,-0.597712733572174
-0.0739443348374665,-0.60106625555091
-0.0733646648405821,-0.604389789069416
-0.0727863406264199,-0.60768342526706
-0.0722093129618182,-0.610947255283212
-0.0716335326136153,-0.61418137025724
-0.0710589503486497,-0.617385861328514
-0.0704855169337596,-0.620560819636404
-0.0699131831357835,-0.623706336320277
-0.0693418997215597,-0.626822502519504
-0.0687716174579265,-0.629909409373453
-0.0682022871117224,-0.632967148021494
-0.0676338594497856,-0.635995809602995
-0.0670662852389546,-0.638995485257327
-0.0664995152460676,-0.641966266123857
-0.0659335002379632,-0.644908243341956
-0.0653681909814796,-0.647821508050992
-0.0648035382434552,-0.650706151390335
-0.0642394927907283,-0.653562264499354
-0.0636760053901373,-0.656389938517418
-0.0631130268085207,-0.659189264583895
-0.0625505078127166,-0.661960333838156
-0.0619883991695636,-0.664703237419569
-0.0614266516458999,-0.667418066467504
-0.0608652160085639,-0.670104912121329
-0.0603040430243941,-0.672763865520415
-0.0597430834602286,-0.675395017804129
-0.059182288082906,-0.677998460111842
-0.0586216076592645,-0.680574283582922
-0.0580609929561426,-0.683122579356738
-0.0575003947403785,-0.68564343857266
-0.0569397637788107,-0.688136952370057
-0.0563790508382776,-0.690603211888298
-0.0558182066856174,-0.693042308266752
-0.0552571820876685,-0.695454332644788
-0.0546959278112693,-0.697839376161776
-0.0541343946232582,-0.700197529957084
-0.0535725332904735,-0.702528885170082
-0.0530102945797536,-0.70483353294014
-0.0524476292579368,-0.707111564406625
-0.0518844880918615,-0.709363070708907
-0.0513208218483661,-0.711588142986356
-0.050756581294289,-0.71378687237834
-0.0501917171964684,-0.71595935002423
-0.0496261803217427,-0.718105667063393
-0.0490599214369504,-0.720225914635199
-0.0484928913089298,-0.722320183879017
-0.0479250407045192,-0.724388565934217
-0.0473563203905569,-0.726431151940167
-0.0467866811338815,-0.728448033036237
-0.0462160737013311,-0.730439300361796
-0.0456444488597443,-0.732405045056212
-0.0450717573759592,-0.734345358258856
-0.0444979500168144,-0.736260331109097
-0.0439229775491482,-0.738150054746302
-0.0433467907397988,-0.740014620309843
-0.0427693403556048,-0.741854118939087
-0.0421905771634044,-0.743668641773404
-0.041610451930036,-0.745458279952164
-0.041028915422338,-0.747223124614734
-0.0404459184071487,-0.748963266900485
-0.0398614116513065,-0.750678797948786
-0.0392753459216498,-0.752369808899005
-0.0386876719850169,-0.754036390890513
-0.0380983406082462,-0.755678635062677
-0.037507302558176,-0.757296632554868
-0.0369145086016447,-0.758890474506454
-0.0363199095054907,-0.760460252056804
-0.0357234560365522,-0.762006056345289
-0.0351250989616678,-0.763527978511276
-0.0345247890476758,-0.765026109694135
-0.0339224770614144,-0.766500541033236
-0.0333181137697221,-0.767951363667946
-0.0327116499394373,-0.769378668737637
-0.0321030363373982,-0.770782547381676
-0.0314922237304433,-0.772163090739433
-0.0308791628854109,-0.773520389950277
-0.0302638045691394,-0.774854536153577
-0.0296460995484671,-0.776165620488702
-0.0290259985902324,-0.777453734095022
-0.0284034524612737,-0.778718968111905
-0.0277784119284293,-0.779961413678721
-0.0271508277585376,-0.78118116193484
-0.0265206507184369,-0.782378304019629
-0.0258878315749657,-0.783552931072458
-0.0252523210949622,-0.784705134232697
-0.0246140700452648,-0.785835004639715
-0.023973029192712,-0.78694263343288
-0.0233291493041419,-0.788028111751563
-0.0226823811463932,-0.789091530735131
-0.0220326754863039,-0.790132981522954
-0.0213799830907127,-0.791152555254402
-0.0207242547264577,-0.792150343068844
-0.0200654411603774,-0.793126436105648
-0.0194034931593101,-0.794080925504184
-0.0187383614900941,-0.795013902403821
-0.018069996919568,-0.795925457943928
-0.0173983502145699,-0.796815683263875
-0.0167233721419383,-0.79768466950303
-0.0160450134685115,-0.798532507800763
-0.0153632249611279,-0.799359289296442
-0.0146779573866259,-0.800165105129438
-0.0139891615118438,-0.800950046439119
-0.01329678810362,-0.801714204364854
-0.0126007879287927,-0.802457670046012
-0.0119011117542006,-0.803180534621963
-0.0111977103466817,-0.803882889232076
-0.0104905344730746,-0.80456482501572
-0.00977953490021753,-0.805226433112264
-0.00906466239494895,-0.805867804661077
-0.00834586772410713,-0.806489030801529
-0.00762310165453052,-0.807090202672988
-0.00689631495305741,-0.807671411414824
-0.00616545838652621,-0.808232748166405
-0.00543048272177523,-0.808774304067102
-0.0046913387256429,-0.809296170256283
-0.00394797716496751,-0.809798437873318
-0.00320034880658748,-0.810281198057575
-0.00244840441734112,-0.810744541948423
-0.00169209476406685,-0.811188560685233
-0.000931370613602968,-0.811613345407372
-0.000166182732787897,-0.812018987254211
0.000603518111540073,-0.812405577365118
0.00137778115254249,-0.812773206879462
0.00215665562338108,-0.813121966936614
0.00294019075721742,-0.813451948675941
0.0037284357872132,-0.813763243236813
0.00452143994652999,-0.814055941758599
0.00531925246832951,-0.814330135380668
0.00612192258577333,-0.81458591524239
0.00692949953202314,-0.814823372483133
0.00774203254024053,-0.815042598242267
0.00855957084358719,-0.815243683659161
0.00938216367522469,-0.815426719873185
0.0102098602683148,-0.815591798023706
0.011042709856019,-0.815739009250095
0.011880761671499,-0.81586844469172
0.0127240649479164,-0.815980195487951
0.0135726689184329,-0.816074352778157
0.0144266228162101,-0.816151007701707
0.0152859758744097,-0.816210251397971
0.0161507773261933,-0.816252175006316
0.0170210764047225,-0.816276869666113
0.017896922343159,-0.816284426516731
0.0187783643746644,-0.816274936697539
0.0196654517324003,-0.816248491347905
0.0205582336495284,-0.8162051816072
0.0214567593592103,-0.816145098614792
0.0223610780946077,-0.816068333510051
0.0232712390888822,-0.815974977432345
0.0241872915751954,-0.815865121521044
0.025109284786709,-0.815738856915517
0.0260372679565846,-0.815596274755133
0.0269712903179839,-0.815437466179261
0.0279114011040684,-0.815262522327271
0.0288576495479999,-0.815071534338532
0.02981008488294,-0.814864593352412
0.0307687563420502,-0.814641790508281
0.0317337131584924,-0.814403216945508
0.0327050045654279,-0.814148963803462
0.0336826797960187,-0.813879122221513
0.0346667880834261,-0.813593783339029
0.035657378660812,-0.81329303829538
0.0366545007613379,-0.812976978229935
0.0376582036181656,-0.812645694282063
0.0386685364644565,-0.812299277591133
0.0396855485333723,-0.811937819296514
0.0407092890580748,-0.811561410537576
0.0417398072717255,-0.811170142453688
0.042777152407486,-0.810764106184218
0.0438213736985182,-0.810343392868537
0.0448725203779833,-0.809908093646012
0.0459306416790434,-0.809458299656014
0.0469957868348598,-0.808994102037911
0.0480680050785943,-0.808515591931073
0.0491473456434085,-0.808022860474869
0.050233857762464,-0.807515998808667
0.0513275906689225,-0.806995098071838
0.0524285935959457,-0.80646024940375
0.0535369157766951,-0.805911543943773
0.0546526064443324,-0.805349072831274
0.0557757148320192,-0.804772927205625
0.0569062901729172,-0.804183198206194
0.058044381700188,-0.80357997697235
0.0591900386469932,-0.802963354643461
0.0603433102464945,-0.802333422358899
0.0615042457318536,-0.80169027125803
0.062672894336232,-0.801033992480226
0.0638493052927915,-0.800364677164854
0.0650335278346935,-0.799682416451285
0.0662256111950999,-0.798987301478886
0.0674256046071721,-0.798279423387028
0.068633557304072,-0.797558873315079
0.069849518518961,-0.79682574240241
0.0710735374850009,-0.796080121788387
0.0723056634353532,-0.795322102612382
0.0735459456031796,-0.794551776013763
0.0747944332216418,-0.793769233131899
0.0760511755239014,-0.79297456510616
0.07731622174312,-0.792167863075914
0.0785896211124593,-0.791349218180531
0.0798714228650808,-0.79051872155938
0.0811616762341464,-0.78967646435183
0.0824604304528175,-0.788822537697251
0.0837677347542558,-0.78795703273501
0.085083638371623,-0.787080040604478
0.0864081905380807,-0.786191652445024
0.0877414404867905,-0.785291959396017
0.0890834374509141,-0.784381052596826
0.0904342306636131,-0.78345902318682
0.0917938693580491,-0.782525962305369
0.0931624027673839,-0.781581961091841
0.094539880124779,-0.780627110685605
0.095926350663396,-0.779661502226032
0.0973218636163967,-0.778685226852489
0.0987264682169425,-0.777698375704347
0.100140213698195,-0.776701039920974
0.101563149293317,-0.775693310641739
0.102995324235468,-0.774675279006012
0.104436787757811,-0.773647036153162
0.105887589093508,-0.772608673222558
0.10734777747572,-0.771560281353569
0.108817402137608,-0.770501951685564
0.110296512312335,-0.769433775357913
0.111785157233062,-0.768355843509984
0.11328338613295,-0.767268247281148
0.114791248245162,-0.766171077810771
0.114791248245162,-0.766171077810771
0.116284653030336,-0.765071913370173
0.117739663838568,-0.763978219104842
0.119156560737199,-0.762889916465405
0.120535623793574,-0.761806926902492
0.121877133075037,-0.760729171866728
0.123181368648931,-0.759656572808741
0.124448610582599,-0.75858905117916
0.125679138943386,-0.757526528428611
0.108809455528249,-0.787209323712587
0.101855968799508,-0.791897418026181
0.129153243261891,-0.754368167957438
0.130239718004587,-0.753324855229296
0.0978661517814704,-0.749267336421075
0.162468617816934,-0.748054065589414
0.148443531750206,-0.759807658685521
0.134235285287167,-0.749196880144715
0.135147994522479,-0.748175812583704
0.102783718157754,-0.713865113459272
0.13687195436211,-0.746146239068235
0.127647540974431,-0.794464670382717
0.109662529559821,-0.759891321537082
0.139208448554224,-0.743132104570833
0.121352952812638,-0.758063242362129
0.140603081756422,-0.741141915680419
0.180130731018059,-0.789876616949924
0.141869905246456,-0.739166380948814
0.188114651364674,-0.757766310174002
0.143011159563076,-0.737204871981039
0.143535398449715,-0.736229180785156
0.169490428602924,-0.700195781622342
0.102398629811347,-0.770276893864364
0.185717809916021,-0.700097570141301
0.152325424523239,-0.712820684704458
0.169910101513683,-0.712441718587662
0.146049040208793,-0.730440971031469
0.116748153197518,-0.696562162163917
0.116175077317567,-0.722364266623003
0.179930452389588,-0.688390199690211
0.194480065706374,-0.698630869029892
0.147347202991024,-0.725695169095971
0.104424051948324,-0.699449425624478
0.16779704711833,-0.751734409991464
0.147794203915093,-0.722877197326577
0.143893248869727,-0.747900980822793
0.171948747865429,-0.67322369271384
0.166580745277569,-0.756447784517934
0.134738150524642,-0.763251813782554
0.127399730799032,-0.697324195635301
0.147976726571669,-0.717297752698656
0.147918185682683,-0.716374252784215
0.153837999498429,-0.689283897637768
0.193057482743474,-0.758868354777195
0.147595659222452,-0.713613166379521
0.11864152882841,-0.727521738526335
0.1580744196327,-0.685294598862576
0.111022916133018,-0.67893452047519
0.134296874426229,-0.74467094425649
0.189184128866312,-0.704163938179996
0.137043985212038,-0.745072296777538
0.146022100663596,-0.707215462074454
0.145707586030325,-0.706305475760751
0.145371481460725,-0.705396246659971
0.145014067022141,-0.704487696222742
0.144635622781917,-0.703579745899693
0.144236428807395,-0.70267231714145
0.143816765165919,-0.701765331398641
0.143376911924834,-0.700858710121893
0.142917149151482,-0.699952374761835
0.142437756913207,-0.699046246769094
0.141939015277353,-0.698140247594298
0.141421204311263,-0.697234298688073
0.140884604082281,-0.696328321501049
0.14032949465775,-0.695422237483851
0.139756156105015,-0.694515968087109
0.139164868491418,-0.693609434761449
0.138555911884304,-0.6927025589575
0.137929566351015,-0.691795262125888
0.137286111958896,-0.690887465717241
0.13662582877529,-0.689979091182188
0.135948996867541,-0.689070059971355
0.135255896302991,-0.68816029353537
0.134546807148986,-0.687249713324862
0.133822009472868,-0.686338240790456
0.133081783341981,-0.685425797382782
0.132326408823668,-0.684512304552467
0.131556165985274,-0.683597683750137
0.130771334894141,-0.682681856426422
0.129972195617613,-0.681764744031948
0.129159028223035,-0.680846268017343
0.128332112777749,-0.679926349833235
0.127491729349099,-0.679004910930251
0.126638158004429,-0.678081872759019
0.125771678811082,-0.677157156770167
0.124892571836402,-0.676230684414321
0.124001117147732,-0.67530237714211
0.123097594812416,-0.674372156404162
0.122182284897798,-0.673439943651104
0.121255467471222,-0.672505660333564
0.120317422600029,-0.671569227902168
0.119368430351566,-0.670630567807546
0.118408770793174,-0.669689601500323
0.117438723992198,-0.668746250431129
0.116458570015981,-0.66780043605059
0.115468588931867,-0.666852079809335
0.114469060807199,-0.665901103157991
0.113460265709321,-0.664947427547184
0.112442483705576,-0.663990974427544
0.111415994863309,-0.663031665249698
0.110381079249862,-0.662069421464273
0.10933801693258,-0.661104164521897
0.108287087978805,-0.660135815873197
0.107228572455882,-0.659164296968801
0.106162750431154,-0.658189529259338
0.105089901971965,-0.657211434195433
0.104010307145657,-0.656229933227715
0.102924246019576,-0.655244947806812
0.101831998661064,-0.654256399383351
0.100733845137465,-0.65326420940796
0.0996300655161223,-0.652268299331266
0.0985209398643799,-0.651268590603897
0.0974067482495813,-0.650265004676481
0.09628777073907,-0.649257462999645
0.0951642874001896,-0.648245887024016
0.0940365783002837,-0.647230198200223
0.092904923506696,-0.646210317978894
0.0917696030867698,-0.645186167810654
0.090630897107849,-0.644157669146133
0.0894890856372771,-0.643124743435958
0.0883444487423976,-0.642087312130756
0.0871972664905541,-0.641045296681156
0.0860478189490903,-0.639998618537784
0.0848963861853496,-0.638947199151268
0.0837432482666759,-0.637890959972236
0.0825886852604125,-0.636829822451316
0.081432977233903,-0.635763708039134
0.0802764042544911,-0.63469253818632
0.0791192463895204,-0.6336162343435
0.0779617837063345,-0.632534717961301
0.0768042962722768,-0.631447910490353
0.0756470641546912,-0.630355733381281
0.074490367420921,-0.629258108084714
0.0733344861383099,-0.62815495605128
0.0721797003742015,-0.627046198731605
0.0710262901959394,-0.625931757576319
0.0698745356708672,-0.624811554036047
0.0687247168663284,-0.623685509561418
0.0675771138496667,-0.622553545603059
0.0664320066882256,-0.621415583611599
0.0652896754493487,-0.620271545037664
0.0641504002003796,-0.619121351331883
0.0630144610086619,-0.617964923944882
0.0618821379415393,-0.61680218432729
0.0607537110663552,-0.615633053929734
0.0596294604504532,-0.614457454202841
0.058509666161177,-0.61327530659724
0.0573946082658702,-0.612086532563557
0.0562845668318763,-0.610891053552422
0.0551798219265389,-0.60968879101446
0.0540806536172016,-0.6084796664003
0.052987341971208,-0.607263601160569
0.0519001670559017,-0.606040516745896
0.0508194089386263,-0.604810334606906
0.0497453476867253,-0.603572976194229
0.0486782633675424,-0.602328362958492
0.0476184360484211,-0.601076416350322
0.0465661457967051,-0.599817057820347
0.0455216726797378,-0.598550208819195
0.044485296764863,-0.597275790797493
0.0434572981194241,-0.595993725205869
0.0424379568107649,-0.59470393349495
0.0414275529062288,-0.593406337115364
0.0404263664731595,-0.592100857517739
0.0394346775789005,-0.590787416152702
0.0384527662907954,-0.589465934470881
0.0374809126761879,-0.588136333922903
0.0365193968024215,-0.586798535959397
0.0355684987368398,-0.585452462030989
0.0346284985467863,-0.584098033588307
0.0336996762996048,-0.582735172081979
0.0327823120626387,-0.581363798962633
0.0318766859032318,-0.579983835680896
0.0309830778887274,-0.578595203687396
0.0301017680864692,-0.57719782443276
0.0292330365638009,-0.575791619367616
0.028377163388066,-0.574376509942591
0.0275344286266081,-0.572952417608314
0.0267051123467708,-0.571519263815411
0.0258894946158976,-0.570076970014511
0.0250878555013322,-0.568625457656241
0.0243004750704182,-0.567164648191228
0.0235276333904991,-0.565694463070101
0.0227696105289185,-0.564214823743486
0.0220266865530201,-0.562725651662012
0.0212991415301474,-0.561226868276306
0.0205872555276439,-0.559718395036996
0.0198913086128534,-0.558200153394709
0.0192115808531193,-0.556672064800072
0.0185483523157852,-0.555134050703714
0.0179019030681949,-0.553586032556262
0.0172725131776917,-0.552027931808344
0.0166604627116194,-0.550459669910587
0.0160660317373215,-0.54888116831362
0.0154895003221416,-0.547292348468068
0.0149311485334233,-0.545693131824561
0.0143912564385102,-0.544083439833725
0.0138701041047459,-0.542463193946189
0.0133679715994739,-0.54083231561258
0.0128851389900378,-0.539190726283525
0.0124218863437813,-0.537538347409653
0.0119784937280479,-0.53587510044159
0.0115552412101813,-0.534200906829964
0.0111524088575249,-0.532515688025404
0.0107702767374224,-0.530819365478536
0.0104091249172174,-0.529111860639989
0.0100692334642534,-0.527393094960389
0.00975088244587415,-0.525662989890365
0.0094543519294231,-0.523921466880543
0.00917992198224388,-0.522168447381553
0.00892787267168006,-0.520403852844021
0.00869848406507529,-0.518627604718574
0.0084920362297731,-0.516839624455841
0.00830880923311713,-0.515039833506449
0.00814908314245089,-0.513228153321026
0.00801313802511802,-0.511404505350199
0.00790125394846211,-0.509568811044596
0.00781371097982674,-0.507720991854845
0.00775078918655548,-0.505860969231572
0.00771276863599196,-0.503988664625407
0.00769992939547973,-0.502103999486975
0.0077125515323624,-0.500206895266906
0.00775091511398356,-0.498297273415826
0.0078153002076868,-0.496375055384364
0.0079059868808157,-0.494440162623146
0.00802325520071381,-0.4924925165828
0.00816738523472479,-0.490532038713955
0.00833865705019217,-0.488558650467237
0.00853735071445958,-0.486572273293275
0.0087637462948706,-0.484572828642695
0.00901812385876882,-0.482560237966126
0.00930076347349777,-0.480534422714194
0.00961194520640113,-0.478495304337529
0.00995194912482244,-0.476442804286756
0.0103210552961053,-0.474376844012505
0.0107195437875933,-0.472297344965402
0.01114769466663,-0.470204228596075
0.011605788000559,-0.468097416355152
0.0120941038567239,-0.46597682969326
0.0126129223024683,-0.463842390061027
0.0131625234051358,-0.46169401890908
0.01374318723207,-0.459531637688048
0.0143551938506144,-0.457355167848558
0.0149988233281126,-0.455164530841236
0.0156743557319083,-0.452959648116712
0.016382071129345,-0.450740441125612
0.0171222495877664,-0.448506831318565
0.0178951711745158,-0.446258740146197
0.0187011159569371,-0.443996089059137
0.0195403640023737,-0.441718799508012
0.0204131953781694,-0.439426792943449
0.0213198901516675,-0.437119990816076
0.0222607283902119,-0.434798314576522
0.0232359901611459,-0.432461685675413
0.0242459555318133,-0.430110025563376
0.0252909045695575,-0.427743255691041
0.0263711173417223,-0.425361297509034
0.0274868739156511,-0.422964072467982
0.0286384543586876,-0.420551502018515
0.0298261387381753,-0.418123507611258
0.031050207121458,-0.41568001069684
0.032310939575879,-0.413220932725888
0.0336086161687821,-0.41074619514903
0.0349435169675107,-0.408255719416894
0.0363159220394087,-0.405749426980107
0.0377261114518193,-0.403227239289296
0.0391743652720864,-0.40068907779509
0.0406609635675533,-0.398134863948116
0.042186186405564,-0.395564519199002
0.0437503138534617,-0.392977964998375
0.0453536259785901,-0.390375122796862
0.0469964028482929,-0.387755914045092
0.0486789245299136,-0.385120260193692
0.0504014710907957,-0.382468082693289
0.0521643225982831,-0.379799302994512
0.0539677591197189,-0.377113842547988
0.0558120607224472,-0.374411622804344
0.0576975074738112,-0.371692565214208
0.0596243794411548,-0.368956591228208
0.0615929566918213,-0.366203622296971
0.0636035192931545,-0.363433579871125
0.0656563473124978,-0.360646385401297
0.067751720817195,-0.357841960338116
0.0698899198745895,-0.355020226132208
0.072071224552025,-0.352181104234201
0.074295914916845,-0.349324516094724
0.0765642710363933,-0.346450383164403
0.0788765729780132,-0.343558626893866
0.0812331008090486,-0.340649168733741
0.0836341345968427,-0.337721930134655
0.0860799544087394,-0.334776832547237
0.0885708403120822,-0.331813797422113
0.0911070723742147,-0.328832746209911
0.0936889306624804,-0.325833600361258
0.0963166952442231,-0.322816281326784
0.098990646186786,-0.319780710557114
0.101711063557513,-0.316726809502877
0.104478227423748,-0.3136544996147
0.107292417852834,-0.310563702343211
0.110153914912115,-0.307454339139037
0.113062998668934,-0.304326331452807
0.116019949190635,-0.301179600735147
0.119025046544561,-0.298014068436686
0.122078570798057,-0.29482965600805
0.125180802018466,-0.291626284899868
0.128332020273131,-0.288403876562767
0.131532505629395,-0.285162352447374
0.134782538154604,-0.281901634004318
0.138082397916099,-0.278621642684226
0.141432364981225,-0.275322299937726
0.144832719417326,-0.272003527215444
0.148283741291744,-0.26866524596801
0.151785710671824,-0.265307377646049
0.155338907624908,-0.261929843700191
0.158943612218342,-0.258532565581063
0.162600104519467,-0.255115464739291
0.166308664595628,-0.251678462625504
0.170069572514169,-0.24822148069033
0.173883108342433,-0.244744440384396
0.177749552147763,-0.241247263158329
0.181669183997504,-0.237729870462758
0.185642283958998,-0.234192183748309
0.18966913209959,-0.230634124465611
0.193750008486622,-0.227055614065291
0.197885193187439,-0.223456573997977
0.202074966269384,-0.219836925714296
0.206319607799801,-0.216196590664876
0.210619397846033,-0.212535490300344
0.214974616475424,-0.208853546071329
0.219385543755317,-0.205150679428457
0.223852459753057,-0.201426811822357
0.228375644535986,-0.197681864703655
0.232955378171448,-0.19391575952298
0.237591940726787,-0.190128417730959
0.242285612269347,-0.18631976077822
0.24703667286647,-0.182489710115391
0.251845402585502,-0.178638187193098
0.256712081493784,-0.17476511346197
0.261636989658661,-0.170870410372634
0.266620407147476,-0.166953999375718
0.271662614027573,-0.163015801921849
0.276763890366296,-0.159055739461656
0.281924516230988,-0.155073733445765
0.287144771688993,-0.151069705324804
0.292424936807654,-0.147043576549401
0.297765291654314,-0.142995268570184
0.303166116296319,-0.138924702837779
0.30862769080101,-0.134831800802816
0.314150295235732,-0.13071648391592
0.319734209667828,-0.126578673627721
0.325379714164642,-0.122418291388845
0.331087088793517,-0.11823525864992
0.336856613621798,-0.114029496861574
0.342688568716826,-0.109800927474434
0.348583234145948,-0.105549471939128
0.354540889976504,-0.101275051706284
0.360561816275841,-0.096977588226529
0.3666462931113,-0.0926570029504908
0.372794600550225,-0.0883132173287968
0.379007018659961,-0.0839461528120749
0.385283827507851,-0.0795557308509525
0.391625307161237,-0.0751418728960574
0.398031737687465,-0.070704500398017
0.404503399153877,-0.0662435348074592
0.411040571627818,-0.0617588975750113
0.417643535176629,-0.0572505101513011
0.424312569867656,-0.0527182939869561
0.431047955768242,-0.0481621705326041
0.43784997294573,-0.0435820612388723
0.444718901467465,-0.0389778875563889
0.451655021400789,-0.0343495709357809
0.458658612813045,-0.0296970328276765
0.465729955771579,-0.0250201946827027
0.472869330343734,-0.0203189779514877
0.480077016596852,-0.0155933040846586
0.487353294598277,-0.0108430945328434
0.494698444415354,-0.00606827074666935
0.502112746115425,-0.00126875417676447
0.509596479765835,0.00355553372624406
0.517149925433927,0.00840467151172821
0.524773363187044,0.0132787377290608
0.53246707309253,0.0181778109276138
0.540231335217729,0.02310196965676
0.548066429629984,0.0280512924658714
0.555972636396639,0.0330258579043207
0.563950235585037,0.0380257445214801
0.571999507262523,0.0430510308667222
0.580120731496438,0.0481017954894191
0.588314188354129,0.0531781169389435
0.596580157902936,0.0582800737646674
0.604918920210206,0.0634077445159638
0.604918920210206,0.0634077445159638
0.613236967305157,0.068522644778629
0.621440900231309,0.0735863256290485
0.629531162577455,0.0785989188524778
0.637508197932384,0.0835605562341718
0.645372449884891,0.0884713695593859
0.653124362023765,0.0933314906133752
0.660764377937798,0.0981410511813949
0.668292941215783,0.1029001830487
0.675710495446511,0.107609018000547
0.683017484218772,0.112267687822189
0.69021435112136,0.116876324298883
0.697301539743066,0.121435059215883
0.704279493672681,0.125944024358445
0.711148656498997,0.130403351511823
0.717909471810806,0.134813172461274
0.724562383196899,0.139173618992052
0.731107834246068,0.143484822889413
0.737546268547104,0.147746915938611
0.7438781296888,0.151960029924903
0.750103861259946,0.156124296633542
0.756223906849336,0.160239847849785
0.762238710045759,0.164306815358887
0.768148714438008,0.168325330946102
0.773954363614874,0.172295526396686
0.77965610116515,0.176217533495895
0.785254370677626,0.180091484028983
0.790749615741094,0.183917509781205
0.796142279944347,0.187695742537817
0.801432806876176,0.191426314084075
0.806621640125371,0.195109356205232
0.811709223280725,0.198745000686545
0.816695999931031,0.202333379313269
0.821582413665078,0.205874623870659
0.826368908071659,0.209368866143969
0.831055926739566,0.212816237918456
0.83564391325759,0.216216870979375
0.840133311214523,0.21957089711198
0.844524564199156,0.222878448101527
0.848818115800281,0.226139655733271
0.853014409606689,0.229354651792468
0.857113889207174,0.232523568064372
0.861116998190525,0.235646536334238
0.865024180145535,0.238723688387323
0.868835878660995,0.241755156008881
0.872552537325698,0.244741070984167
0.876174599728433,0.247681565098437
0.879702509457994,0.250576770136946
0.883136710103173,0.253426817884948
0.886477645252759,0.2562318401277
0.889725758495545,0.258991968650457
0.892881493420324,0.261707335238472
0.895945293615886,0.264378071677003
0.898917602671023,0.267004309751304
0.901798864174526,0.26958618124663
0.904589521715188,0.272123817948236
0.9072900188818,0.274617351641378
0.909900799263154,0.277066914111311
0.912422306448041,0.27947263714329
0.914854984025253,0.281834652522571
0.917199275583582,0.284153092034408
0.919455624711819,0.286428087464056
0.921624474998755,0.288659770596772
0.923706270033183,0.290848273217809
0.925701453403895,0.292993727112424
0.927610468699681,0.295096264065872
0.929433759509333,0.297156015863407
0.931171769421644,0.299173114290285
0.932824942025405,0.301147691131761
0.934393720909407,0.303079878173091
0.935878549662442,0.304969807199529
0.937279871873301,0.306817609996331
0.938598131130777,0.308623418348752
0.939833771023661,0.310387364042048
0.940987235140744,0.312109578861472
0.942058967070819,0.313790194592282
0.943049410402677,0.315429343019731
0.943959008725109,0.317027155929075
0.944788205626907,0.31858376510557
0.945537444696863,0.320099302334469
0.946207169523769,0.32157389940103
0.946797823696416,0.323007688090506
0.947309850803595,0.324400800188154
0.947743694434098,0.325753367479228
0.948099798176719,0.327065521748983
0.948378605620246,0.328337394782675
0.948580560353473,0.329569118365559
0.94870610596519,0.33076082428289
0.948755686044191,0.331912644319924
0.948729744179266,0.333024710261915
0.948628723959206,0.334097153894118
0.948453068972804,0.33513010700179
0.948203222808852,0.336123701370185
0.94787962905614,0.337078068784558
0.94748273130346,0.337993341030165
0.947012973139605,0.33886964989226
0.946470798153365,0.3397071271561
0.945856649933533,0.340505904606939
0.9451709720689,0.341266114030032
0.944414208148257,0.341987887210635
0.943586801760397,0.342671355934003
0.942689196494111,0.343316651985391
0.94172183593819,0.343923907150053
0.940685163681427,0.344493253213247
0.939579623312613,0.345024821960226
0.938405658420539,0.345518745176246
0.937163712593997,0.345975154646562
0.935854229421779,0.34639418215643
0.934477652492677,0.346775959491104
0.933034425395482,0.347120618435839
0.931524991718985,0.347428290775892
0.929949795051979,0.347699108296516
0.928309278983255,0.347933202782968
0.926603887101605,0.348130706020503
0.92483406299582,0.348291749794375
0.923000250254691,0.348416465889841
0.921102892467012,0.348504986092154
0.919142433221573,0.348557442186571
0.917119316107166,0.348573965958346
0.915033984712582,0.348554689192735
0.912886882626613,0.348499743674994
0.910678453438052,0.348409261190376
0.908409140735688,0.348283373524138
0.906079388108315,0.348122212461535
0.903689639144724,0.347925909787821
0.901240337433706,0.347694597288252
0.898731926564053,0.347428406748084
0.896164850124557,0.347127469952571
0.893539551704009,0.346791918686969
0.890856474891201,0.346421884736533
0.888116063274925,0.346017499886517
0.885318760443972,0.345578895922178
0.882465009987134,0.345106204628771
0.879555255493203,0.34459955779155
0.876589940550969,0.344059087195772
0.873569508749226,0.34348492462669
0.870494403676764,0.342877201869561
0.867365068922375,0.342236050709639
0.864181948074851,0.34156160293218
0.860945484722983,0.340853990322439
0.857656122455564,0.340113344665671
0.854314304861384,0.339339797747132
0.850920475529235,0.338533481352076
0.847475078047909,0.337694527265758
0.843978556006199,0.336823067273435
0.840431352992894,0.335919233160362
0.836833912596787,0.334983156711792
0.83318667840667,0.334014969712982
0.829490094011334,0.333014803949188
0.825744602999571,0.331982791205663
0.821950648960172,0.330919063267663
0.818108675481929,0.329823751920444
0.814219126153635,0.32869698894926
0.81028244456408,0.327538906139368
0.806299074302055,0.326349635276021
0.802269458956353,0.325129308144476
0.798194042115766,0.323878056529988
0.794073267369085,0.322596012217811
0.789907578305102,0.321283306993201
0.785697418512607,0.319940072641413
0.781443231580394,0.318566440947702
0.777145461097253,0.317162543697324
0.772804550651977,0.315728512675534
0.768420943833355,0.314264479667587
0.763995084230182,0.312770576458738
0.759527415431248,0.311246934834242
0.755018381025345,0.309693686579355
0.750468424601264,0.308110963479332
0.745877989747797,0.306498897319427
0.741247520053736,0.304857619884897
0.736577459107872,0.303187262960997
0.731868250498997,0.301487958332981
0.727120337815903,0.299759837786105
0.722334164647382,0.298003033105624
0.717510174582224,0.296217676076793
0.712648811209221,0.294403898484867
0.707750518117166,0.292561832115103
0.70281573889485,0.290691608752754
0.697844917131064,0.288793360183077
0.6928384964146,0.286867218191325
0.687796920334251,0.284913314562755
0.682720632478806,0.282931781082622
0.677610076437059,0.280922749536181
0.6724656957978,0.278886351708687
0.667287934149822,0.276822719385395
0.662077235081916,0.274731984351561
0.656834042182873,0.27261427839244
0.651558799041486,0.270469733293286
0.646251949246546,0.268298480839356
0.640913936386844,0.266100652815905
0.635545204051172,0.263876381008186
0.630146195828322,0.261625797201457
0.624717355307086,0.259349033180972
0.619259126076255,0.257046220731986
0.613771951724621,0.254717491639754
0.608256275840975,0.252362977689532
0.60271254201411,0.249982810666575
0.597141193832816,0.247577122356137
0.591542674885885,0.245146044543475
0.585917428762109,0.242689709013844
0.58026589905028,0.240208247552498
0.574588529339189,0.237701791944693
0.568885763217629,0.235170473975685
0.56315804427439,0.232614425430727
0.557405816098264,0.230033778095077
0.551629522278043,0.227428663753987
0.545829606402518,0.224799214192715
0.540006512060482,0.222145561196515
0.534160682840725,0.219467836550642
0.52829256233204,0.216766172040352
0.522402594123218,0.2140406994509
0.516491221803051,0.21129155056754
0.51055888896033,0.208518857175529
0.504606039183847,0.205722751060121
0.498633116062394,0.202903364006572
0.492640563184762,0.200060827800137
0.486628824139743,0.19719527422607
0.480598342516128,0.194306835069628
0.47454956190271,0.191395642116065
0.46848292588828,0.188461827150637
0.462398878061629,0.185505521958599
0.456297862011549,0.182526858325206
0.450180321326833,0.179525968035713
0.44404669959627,0.176502982875376
0.437897440408654,0.173458034629449
0.431732987352775,0.170391255083188
0.425553784017426,0.167302776021848
0.419360273991398,0.164192729230685
0.413152900863483,0.161061246494953
0.406932108222471,0.157908459599908
0.400698339657156,0.154734500330805
0.394452038756329,0.151539500472899
0.38819364910878,0.148323591811445
0.381923614303303,0.145086906131699
0.375642377928688,0.141829575218916
0.369350383573727,0.13855173085835
0.363048074827212,0.135253504835258
0.356735895277934,0.131935028934894
0.350414288514686,0.128596434942514
0.344083698126258,0.125237854643373
0.337744567701443,0.121859419822725
0.331397340829032,0.118461262265827
0.325042461097816,0.115043513757934
0.318680372096588,0.1116063060843
0.312311517414139,0.108149771030181
0.30593634063926,0.104674040380831
0.299555285360743,0.101179245921508
0.293168795167381,0.0976655194374643
0.286777313647964,0.0941329927139567
0.280381284391284,0.0905817975362399
0.273981150986133,0.0870120656895694
0.267577357021302,0.0834239289592
0.261170346085584,0.0798175191303873
0.254760561767769,0.0761929679883862
0.24834844765665,0.0725504073184522
0.241934447341017,0.0688899689058403
0.235519004409664,0.0652117845358058
0.22910256245138,0.0615159859936037
0.222685565054959,0.0578027050644895
0.216268455809191,0.0540720735337182
0.209851678302869,0.0503242231865452
0.203435676124783,0.0465592858082255
0.197020892863726,0.0427773931840146
0.190607772108489,0.0389786770991673
0.184196757447864,0.0351632693389392
0.177788292470643,0.0313313016885852
0.171382820765616,0.0274829059333608
0.164980785921576,0.0236182138585209
0.158582631527315,0.019737357249321
0.152188801171624,0.015840467891016
0.145799738443294,0.0119276775688614
0.139415886931118,0.00799911806811225
0.133037690223887,0.00405492117402388
0.126665591910392,9.52186718512493e-05
0.120300035579426,-0.00387985765315009
0.113941464819779,-0.00787017601572523
0.107590323220244,-0.0118756046306187
0.101247054369612,-0.0158960117125757
0.0949121018566754,-0.0199312654763404
0.0885859092702248,-0.0239812341366582
0.0822689201990526,-0.0280457859082735
0.0759615782319499,-0.0321247890059314
0.0696643269577088,-0.0362181116443763
0.0633776099651205,-0.0403256220383534
0.0571018708429772,-0.0444471884026071
0.0508375531800699,-0.0485826789518826
0.0445851005651909,-0.0527319619009243
0.0383449565871312,-0.0568949054644774
0.0321175648346831,-0.0610713778572862
0.0259033688966376,-0.065261247294096
0.0197028123617869,-0.0694643819896512
0.0135163388189221,-0.0736806501586968
0.00734439185683547,-0.0779099200159775
0.00118741506431802,-0.0821520597762382
-0.00495414796983801,-0.0864069376542235
-0.0110798536568416,-0.0906744218646784
-0.0171892584079004,-0.0949543806223475
-0.0232819186342235,-0.0992466821419759
-0.0293573907470186,-0.103551194638308
-0.0354152311574946,-0.107867786326089
-0.0414549962768595,-0.112196325420063
-0.0474762425163219,-0.116536680134976
-0.0534785262870898,-0.120888718685571
-0.059461404000372,-0.125252309286595
-0.0654244320673764,-0.129627320152791
-0.071367166899312,-0.134013619498904
-0.0772891649073864,-0.13841107553968
-0.0831899825028086,-0.142819556489863
-0.0890691760967863,-0.147238930564197
-0.0949263021005286,-0.151669065977428
-0.100760916925243,-0.156109830944301
-0.106572576982139,-0.160561093679559
-0.112360838682424,-0.165022722397949
-0.118125258437307,-0.169494585314214
-0.123865392657995,-0.1739765506431
-0.129580797755698,-0.178468486599351
-0.135271030141624,-0.182970261397713
-0.140935646226981,-0.187481743252929
-0.146574202422977,-0.192002800379745
-0.152186255140821,-0.196533300992906
-0.157771360791721,-0.201073113307155
-0.163329075786886,-0.205622105537239
-0.168858956537523,-0.210180145897902
-0.174360559454842,-0.214747102603889
-0.17983344095005,-0.219322843869943
-0.185277157434357,-0.223907237910812
-0.190691265318969,-0.228500152941238
-0.196075321015097,-0.233101457175967
-0.201428880933947,-0.237711018829743
-0.206751501486728,-0.242328706117313
-0.21204273908465,-0.246954387253419
-0.217302150138919,-0.251587930452807
-0.222529291060745,-0.256229203930222
-0.227723718261336,-0.260878075900409
-0.232884988151899,-0.265534414578112
-0.238012657143645,-0.270198088178076
-0.24310628164778,-0.274868964915046
-0.248165418075513,-0.279546913003767
-0.253189622838053,-0.284231800658984
-0.258178452346608,-0.288923496095441
-0.263131463012386,-0.293621867527883
-0.268048211246596,-0.298326783171055
-0.272928253460445,-0.303038111239701
-0.277771146065143,-0.307755719948567
-0.282576445471898,-0.312479477512397
-0.287343708091918,-0.317209252145937
-0.292072490336411,-0.32194491206393
-0.296762348616587,-0.326686325481122
-0.301412839343652,-0.331433360612258
-0.306023518928816,-0.336185885672081
-0.310593943783286,-0.340943768875338
-0.315123670318272,-0.345706878436773
-0.319612254944981,-0.35047508257113
-0.324059254074623,-0.355248249493155
-0.328464224118404,-0.360026247417591
-0.332826721487534,-0.364808944559185
-0.337146302593222,-0.369596209132681
-0.341422523846674,-0.374387909352823
-0.3456549416591,-0.379183913434356
-0.349843112441709,-0.383984089592026
-0.353986592605707,-0.388788306040577
-0.358084938562305,-0.393596430994753
-0.36213770672271,-0.3984083326693
-0.36614445349813,-0.403223879278963
-0.370104735299774,-0.408042939038485
-0.37401810853885,-0.412865380162612
-0.377884129626567,-0.417691070866089
-0.381702354974132,-0.422519879363661
-0.385472340992755,-0.427351673870072
-0.389193644093644,-0.432186322600067
-0.392865820688006,-0.43702369376839
-0.396488427187051,-0.441863655589788
-0.400061020001987,-0.446706076279004
-0.403583155544022,-0.451550824050783
-0.407054390224364,-0.45639776711987
-0.410474280454221,-0.46124677370101
-0.413842382644803,-0.466097712008948
-0.417158253207318,-0.470950450258428
-0.420421448552973,-0.475804856664195
-0.423631525092978,-0.480660799440994
-0.42678803923854,-0.48551814680357
-0.429890547400868,-0.490376766966668
-0.43293860599117,-0.495236528145032
-0.435931771420655,-0.500097298553407
-0.43886960010053,-0.504958946406538
-0.441751648442006,-0.50982133991917
-0.444577472856289,-0.514684347306047
-0.447346629754587,-0.519547836781915
-0.450058675548111,-0.524411676561518
-0.452713166648067,-0.529275734859601
-0.455309659465664,-0.534139879890908
-0.457847710412111,-0.539003979870185
-0.460326875898615,-0.543867903012176
-0.462746712336386,-0.548731517531627
-0.465106776136631,-0.553594691643281
-0.467406623710559,-0.558457293561884
-0.469645811469379,-0.56331919150218
-0.471823895824298,-0.568180253678914
-0.473940433186525,-0.573040348306832
-0.475994979967268,-0.577899343600677
