-0.436476131520743,0.204380970482964
-0.44183668273867,0.280486634488186
-0.478705318234218,0.243794434962334
-0.477503639519007,0.24931787768071
-0.497457741541307,0.24929318609376
-0.50690728643867,0.264108615087454
-0.435053827480786,0.274437465265583
-0.493165399684432,0.309534739289234
-0.459005696650098,0.25451307132649
-0.462766047164771,0.302774276300388
-0.453081334154225,0.333437673903895
-0.511953242415511,0.322127711589722
-0.494062578193952,0.279939172598925
-0.419930204408603,0.340186576950291
-0.452573584827424,0.34411042379738
-0.446277711644328,0.294412551213847
-0.479481472945995,0.338214814363024
-0.459135161381223,0.321412688772436
-0.457716332193079,0.326196347866746
-0.41731275557465,0.282059582684947
-0.453605081724137,0.285719302723313
-0.444170235394691,0.331612974255325
-0.425613949866555,0.321364771419295
-0.429650106187773,0.32092706087561
-0.408030037937597,0.400515311379406
-0.426299116146278,0.380261597204737
-0.44587764929188,0.362763080616735
-0.491592987337251,0.365193214357405
-0.416501632362069,0.395935103360504
-0.436508537393987,0.423786910632151
-0.439642198622561,0.37993181234384
-0.389544107146273,0.347262086686607
-0.436447938264651,0.388243009705127
-0.474662379867129,0.352023758089953
-0.41956438447471,0.391216219944329
-0.423708726719487,0.376891519116152
-0.429909907904375,0.404326910508469
-0.404898907332314,0.381172669313493
-0.426567562062825,0.412102751184643
-0.424878368011875,0.415924830361319
-0.453993435953041,0.376371718115506
-0.451820818737786,0.404041562735296
-0.419739769458943,0.427130056171294
-0.426387024080851,0.395637840662657
-0.376652417735145,0.403725256218564
-0.414496515516957,0.437947882020968
-0.424891452352027,0.406349875924133
-0.409151009457296,0.448383601992917
-0.390132042852102,0.433235617292149
-0.402250560857729,0.417232978613981
-0.434048900486475,0.429144306421476
-0.407445788036042,0.494950200716025
-0.40002113316677,0.464941723429822
-0.352683790502307,0.480841319380002
-0.389170076199562,0.461478771786974
-0.377291186056909,0.474889560128076
-0.376922591481665,0.52597391710063
-0.399863443859601,0.49872220667652
-0.388714834950706,0.483464335480534
-0.38679452946947,0.486411304754976
-0.356396791502704,0.51422334117495
-0.382923928930123,0.492186894226043
-0.360898753235533,0.484735806298778
-0.337939059654287,0.544440276026937
-0.334603712177615,0.528097798377699
-0.414273577101184,0.516733818413788
-0.363647414481096,0.539596362175246
-0.329676984450625,0.489864860166442
-0.321324846593185,0.556758663947369
-0.353729735373943,0.479196361811615
-0.36502902247471,0.516263110334094
-0.395886843647946,0.506120630865005
-0.368777917869386,0.519403412312834
-0.320678434450167,0.492417411386923
-0.332575257692263,0.540596576423083
-0.315435806109909,0.556332559268197
-0.352687960556837,0.530623978458151
-0.3401924059826,0.50869537516857
-0.303463645692746,0.57831359488625
-0.338668603860717,0.507131688257304
-0.316692494589718,0.528475757614403
-0.34216881818518,0.541594573326861
-0.340040429747087,0.543682303927865
-0.312065365700155,0.591366281641178
-0.314533795066617,0.543095224930391
-0.331447976450546,0.551685134327164
-0.343853824027572,0.539237757568756
-0.327105656216489,0.55548043940384
-0.282359666839258,0.55692854744656
-0.366662083630167,0.56332269799961
-0.320536561609319,0.560920171100614
-0.329277327234591,0.585391824152875
-0.316121127484412,0.564380129186182
-0.307801330916588,0.553471735042458
-0.293959389212588,0.530417252428918
-0.280219274327764,0.525745904166775
-0.308741346910159,0.609189644049362
-0.283974347872866,0.524791361864852
-0.320630477215893,0.620262993366375
-0.300451285676869,0.575465551016989
-0.271578422350561,0.550922430413821
-0.295915461814865,0.578346590237251
-0.319594744440955,0.615985703837519
-0.26307638500517,0.626538425032877
-0.248757164947864,0.604719230496386
-0.287141473588959,0.60682690690317
-0.261253182026214,0.553344358245918
-0.235023381645414,0.564922006791101
-0.320472104062131,0.630253033373745
-0.271633939251988,0.632075072495381
-0.253469535437066,0.582357840764464
-0.300231868923185,0.569258622204441
-0.289349047637518,0.568528503707903
-0.23161821631291,0.565765914688385
-0.260364218671625,0.581219392668939
-0.261155618563588,0.596099540798083
-0.293022314834124,0.566817376946447
-0.212679109120905,0.605151684877907
-0.223943231728626,0.611393187910773
-0.251689107680929,0.599736922904367
-0.225149912628067,0.558019278288072
-0.20333714397808,0.628955321725052
-0.246169066136183,0.589896528658622
-0.237355894383665,0.604376169523267
-0.234952598982895,0.605056597186555
-0.232545419080005,0.60571103912033
-0.225301462459131,0.607520411315908
-0.249281775629984,0.564532507953029
-0.231149954041267,0.579434247823331
-0.18954166894289,0.639472677951942
-0.190018185584152,0.574240538535663
-0.228682142531446,0.569192855457326
-0.244199156442761,0.601220657539521
-0.241827672704867,0.567045631019263
-0.251916840530607,0.585716110230967
-0.226495947450104,0.629218236102127
-0.198486873345633,0.612254527788565
-0.188810001770727,0.56657586432131
-0.147469091749422,0.574981182441784
-0.220364672757522,0.615685225189449
-0.218149905813437,0.624990038298006
-0.147757822445956,0.565884753948893
-0.203262482845869,0.637637256168329
-0.21082027616367,0.617951741257103
-0.173839176907674,0.61413172722159
-0.188630635207235,0.655286497137061
-0.122594729347298,0.646096279217647
-0.164791121724052,0.637950082435417
-0.137327844841012,0.609075721126299
-0.133888264387382,0.640382530769722
-0.12918637703119,0.62421908976903
-0.149932479890686,0.616550345210822
-0.153997281214191,0.614106041379143
-0.151511847380016,0.614012953510307
-0.143771946682826,0.654779686295266
-0.152316307084361,0.610965280347243
-0.125229831557201,0.628217621190141
-0.153914958471879,0.584031997391599
-0.139073586004419,0.61326164910363
-0.111639879768331,0.624495183071201
-0.134094766612929,0.612831383751599
-0.13160495977712,0.612589233186394
-0.129115006861337,0.612329332131238
-0.12662499687563,0.612051876663264
-0.161461716782181,0.602587313715422
-0.12164516173465,0.611445086797393
-0.127831912451935,0.60700372780771
-0.11666616643459,0.610770432205839
-0.114177206250032,0.610408145830762
-0.134858938452329,0.621764427904953
-0.0619256525687853,0.624989745249203
-0.0720125671269744,0.636954102056073
-0.10422702551614,0.608797181601547
-0.0648942261294806,0.609523991950624
-0.0959972238839963,0.567456109839477
-0.0650151886505329,0.622606249218042
-0.0583711304714437,0.575668146275917
-0.0590863629654599,0.625106112188242
-0.130749436756313,0.635942147250227
-0.0581512602372066,0.630351276539404
-0.0384430117978991,0.610179461549297
-0.0997888259480614,0.637511070290601
-0.118481724626144,0.614434116315527
-0.0337305974519599,0.605839643283697
-0.113081851922031,0.568647427913595
-0.0586929858652867,0.613969411472914
-0.069826580469171,0.557493799031038
-0.111057384067455,0.598358379962799
-0.0399525035561743,0.552956389121943
-0.0922539611497841,0.614434248700122
-0.0572429276942404,0.597952105113604
-0.0270397063337933,0.646975134095934
-0.0523396496433006,0.596537953240587
-0.0937889169410803,0.626117048558337
-0.047447180558999,0.59507789728072
-0.0450052219044651,0.594331145461049
-0.0643858919538569,0.618597532957802
-0.0478083786722063,0.63797652992918
-0.0702588723721792,0.576348157473102
-0.0328417479100071,0.59043799105061
-0.0226842793256187,0.551491568223706
-0.0279996354963426,0.588810004913936
-0.00708651515751024,0.589010705536344
-0.0231718924513585,0.587143957775708
-0.0207636319672495,0.586297151523842
0.0107809830861445,0.58026949293287
0.0183160657637497,0.587244498174314
0.0137457294721589,0.583221980842435
-0.0111700738545567,0.582822617097794
-0.036454293002517,0.59400720287334
-0.0275697439269528,0.556100346754459
-0.0205371502227867,0.582169420834618
0.000726359429056023,0.578297708658346
-0.0128007717270189,0.614027703007726
0.03777013258067,0.609321767017705
0.00780900592623746,0.575495247080027
-0.0163777330514196,0.527834579837746
0.0465761429430435,0.570591179408609
-0.00658227838922794,0.576308200473278
0.0171831343078028,0.571667509361259
-0.00995396539080297,0.520970295637898
0.0179769080029472,0.527312238504837
0.0241585650311822,0.568735227061062
0.026472726159123,0.567747135084536
0.0287812477137193,0.566754037631668
-0.0028400868357758,0.566063649777346
0.0332573632190801,0.597347180810897
0.00648952505998124,0.527951129798558
0.0450379911240711,0.593867061450862
0.0425089614382015,0.560701318230682
0.044775513697956,0.559678672603124
0.0542191962439294,0.602584579006302
0.00205986116587199,0.587722352811938
0.0537773160989329,0.555555682271385
0.0560112199894114,0.554517813118736
0.0652377082686703,0.569153514712945
0.0863437472022388,0.553284467450982
0.0829829294164288,0.562974343242623
0.0468776442034796,0.51380931075592
0.114525038622251,0.581765325909954
0.0692687971963195,0.548245874956436
0.071453254947667,0.547194928108221
0.0850912037057886,0.565577284462616
0.0271154863457902,0.500865888020689
0.0620536935385264,0.559360409507372
0.0895471809706832,0.562435701204024
0.0865317209619975,0.5398189303467
0.132570510710279,0.503060719549733
0.0605574392885592,0.574379170601009
0.0949730028931123,0.535606110123187
0.131619394392521,0.580455716347701
0.105593643994086,0.55335449208398
0.0850833036061698,0.494773018611752
0.13257090201243,0.514430064170917
0.105334962820754,0.530365696004449
0.0943410130971977,0.537281060504111
0.156297089196697,0.555379511239029
0.120801221305799,0.525673573120418
0.115475824368825,0.525176614396333
0.119467769160344,0.523120845015769
0.0847362143664322,0.556355467114694
0.125384461280942,0.520063374940392
0.129280400866293,0.518044805120332
0.106196224218933,0.56550064775934
0.132743168112966,0.546351348384822
0.135049747300724,0.515050487278178
0.136952623287038,0.514062108809439
0.144132892145339,0.497453203520859
0.0952247028297507,0.501776735470553
0.149067759388605,0.494237042213031
0.148999278738417,0.461486762913209
0.146311201577591,0.50920199602655
0.134281833585907,0.487138635325596
0.150677778592868,0.540760539031829
0.149053127810388,0.516012272855229
0.153605761637747,0.505423805901149
0.192131361823518,0.53852293209938
0.118743343184596,0.546466420382924
0.193628598579985,0.545932484115535
0.171054857328832,0.496492647397672
0.172735459485448,0.495645334274968
0.188124288659657,0.537484149643631
0.160987317895538,0.516743288273486
0.148372686852607,0.502205337932971
0.186143962199108,0.531772183124032
0.171260062434543,0.471950091929469
0.18415733770231,0.489980260896839
0.187308024322916,0.488453088900174
0.239633451503623,0.511954611864952
0.244620398524946,0.503421070382608
0.239100654350614,0.462214566213863
0.197925998761715,0.483460899259899
0.199389674502028,0.482795157939473
0.22638775450603,0.496772386180477
0.206502850984236,0.479657053706644
0.238760576883595,0.49435872191096
0.171030568560863,0.485592887032027
0.250771249266776,0.490435529003624
0.234584094643856,0.500397675278596
0.190009728451433,0.477243287096428
0.218416681164821,0.474870760335329
0.230088026309544,0.45670882754222
0.200378136145557,0.469470695392783
0.222124625298649,0.473541698864144
0.24506178607673,0.472699956673669
0.19237567162587,0.430373546930608
0.234246931191572,0.480689362087374
0.220149400657819,0.512325785008438
0.180315314947706,0.473403731744299
0.244393306419901,0.504042247241457
0.231342664813128,0.470706176717265
0.232424814121729,0.470427740564409
0.246323651234404,0.431500989143942
0.249019436666811,0.479120791484339
0.254841846229325,0.49416467723967
0.230230307207417,0.507007089769567
0.213418623140839,0.459841157022596
0.228108249156935,0.428658474757404
0.24050300549444,0.468848284000596
0.203142592946823,0.452786210477628
0.242358455442386,0.468640618426455
0.245867453301142,0.468460905877761
0.278144107316741,0.506464168812965
0.253558793243735,0.46209180115206
0.219630031617359,0.514870893353811
0.211155711208792,0.429910830647675
0.215207506148978,0.453634787124442
0.286452105787073,0.430147947166039
0.252752390612363,0.469262545877436
0.284344845149627,0.491168461994636
0.255954205973955,0.470470612044265
0.256539821054538,0.470780541629885
0.238566110594443,0.460589036219073
0.248446452272591,0.509365646129828
0.223466276518663,0.436513489677398
0.27967769153813,0.438514639713217
0.282240115672622,0.522380363831621
0.260117345476228,0.473611458708994
0.292138965769951,0.434195846964991
0.245510825920507,0.44733843873972
0.27235980830684,0.448386696189664
0.237457927729784,0.440781141793095
0.276373953007906,0.462436688418471
0.263598721056054,0.479763477026707
0.264058202194866,0.481306361525751
0.264699031431149,0.483666081434661
0.229306975945415,0.457923455369321
0.237520363237194,0.533029677262673
0.252830189923136,0.517718969200536
0.231156017705811,0.522338792477149
0.271188160015389,0.484831611402548
0.220863505447535,0.53563057167935
0.257938273526035,0.460315289308804
0.277869397220969,0.53550839410979
0.26802134164997,0.493788084846002
0.248877490643229,0.512203895154914
0.272981058783373,0.534837178583447
0.269349490301297,0.497067272076647
0.269624590775602,0.497703016805432
0.269902909647871,0.498332194230269
0.266832471020587,0.474349827989354
0.266102455754493,0.488870007695265
0.271048896116147,0.500784347477282
0.271641884837505,0.501972471840385
0.271943470294912,0.502557241359586
0.272556955153079,0.503708474220071
0.24219877800242,0.500001936251401
0.255262914381339,0.521793679528245
0.274919027351526,0.464061353339222
0.272856879725876,0.487812185997697
0.274815215309585,0.507551436446149
0.304897693048997,0.497721871499285
0.275493034375853,0.508598024369349
0.259237391931649,0.492295051353657
0.275922481226112,0.474722083701255
0.257731210282701,0.512835630711532
0.322219213029448,0.521031894449624
0.277983934479607,0.512090556937668
0.323145245621526,0.559014538114759
0.233595363862542,0.51006477054059
0.285836084961996,0.478246588462426
0.279492603210806,0.513972515293406
0.326498929925847,0.476933741815787
0.280666105956107,0.515332418213496
0.327877070046575,0.55907294934308
0.256664625886542,0.493926940143653
0.243941157672147,0.526552515406691
0.282704054143032,0.517505168768474
0.313272300939498,0.469893284011088
0.269658177738648,0.533929621278204
0.269904973175533,0.555589975135629
0.294970536298265,0.501890251459516
0.301763032655989,0.488046687165042
0.257064156512247,0.550794884720726
0.287099721550024,0.521524214419735
0.287563511099188,0.521903816579033
0.316270000981251,0.520473710206329
0.288504645188217,0.522651581730635
0.306482308822725,0.538990882253124
0.298201174103884,0.534061617565575
0.28091700812193,0.5396877986772
0.246056074565489,0.553787829293581
0.261072337550651,0.478668333038492
0.262844865913109,0.487759121729833
0.294310519947037,0.500581997463805
0.292453779417183,0.525498308416201
0.292968623231144,0.525838832870194
0.293583040058063,0.543975938276115
0.297172238374551,0.564025082752682
0.341567964127067,0.47888264263976
0.248185117283517,0.502066453461248
0.254056855602709,0.516657175376066
0.311340379991789,0.564249956007308
0.289707094542895,0.506975533351892
0.300107929301806,0.529993176288646
0.25465529038846,0.578128931765607
0.301281964028948,0.530591859017505
0.306077602928048,0.559885521844717
0.329950451293011,0.519278139468932
0.308690763483346,0.509054222058682
0.259911593610954,0.558408112101826
0.305556100307753,0.532615206391575
0.306187996789684,0.532895852194925
0.307468032442048,0.533451399229059
0.3470371496369,0.569504465838081
0.306844721773463,0.576108661671074
0.274620434486455,0.559557311951744
0.342797653807225,0.499425507499923
0.312121472202342,0.535341357919079
0.339326310665448,0.488384928280194
0.275305031841786,0.521000728659286
0.315614108625269,0.536647281731992
0.316329853547561,0.536904787608221
0.356188388369591,0.488177768753859
0.363185788832667,0.570137701436489
0.323265148313796,0.558957723263349
0.325378782985331,0.539925335216913
0.313669594852872,0.531325346616163
0.309198281940572,0.510308569798455
0.348572153671137,0.519746576431866
0.343418682946152,0.552366756181418
0.330230714268574,0.541406571418734
0.346354200753721,0.575511687992828
0.311746993453829,0.534436829134588
0.336177212700638,0.543131382083301
0.364714764240158,0.570294990707585
0.338822076708792,0.543873965671336
0.371847382893666,0.526165690067783
0.342440223953043,0.54487087838972
0.344289055546227,0.54537325450634
0.371432185938157,0.594902674589455
0.374777721535071,0.566698774086887
0.349997111807952,0.546901421504204
0.314430841382508,0.578998016978688
0.35195435372201,0.547419312169015
0.303717059125935,0.57594675404823
0.393084878967858,0.506990421627542
0.354113943949967,0.509624355813265
0.349593085701686,0.58679042774909
0.367130056415475,0.591966570401358
0.361384235716005,0.551444155130175
0.363218715058399,0.550368975854966
0.335418738810675,0.504363497972418
0.343455602496123,0.563424594687246
0.326261337907166,0.595820077870437
0.334704509304922,0.533387926916651
0.369727731883007,0.552068147202432
0.373081181722438,0.552946650898941
0.374213831991309,0.55324414181168
0.417302426731552,0.565258681410134
0.362715217848781,0.570787176893031
0.379989521502649,0.55476903130072
0.362123621723447,0.572960827257555
0.418170238897314,0.594104947106401
0.358759090865879,0.558862211606514
0.381560230941077,0.603234918053599
0.403313465840486,0.512910886446328
0.395902857268642,0.559067105943517
0.3676751974084,0.583805048974155
0.425534606391839,0.540434026999995
0.402377286012173,0.560867688846369
0.412020032002789,0.533425338571863
0.369270243907931,0.522626643134754
0.410413094556133,0.563151277278809
0.378426923893987,0.607336051852668
0.403498866722065,0.546064689686222
0.414541679170642,0.564346861496397
0.42536530915191,0.521086018499041
0.417335544716042,0.565164863402398
0.447193248065959,0.565200951780806
0.415620165721329,0.527578402136409
0.424466910969996,0.567286435043198
0.467742330169829,0.544860035354531
0.477770419106103,0.580510699844875
0.485006451624397,0.579479209494358
0.439369566749265,0.571881449554987
0.43735369387584,0.530896165542449
0.399198468266808,0.618953347193822
0.453529492865223,0.576456283098275
0.417901666694309,0.571573897288637
0.433211412391111,0.532300319433453
0.487518606334987,0.545632234169243
0.42643233314069,0.592384180708864
0.449163922702481,0.60271191325663
0.468417531484001,0.581489521987548
0.434133549627887,0.594839519610402
0.471476435805589,0.59584548775814
0.477010351141105,0.584498823076481
0.51860425047039,0.552660817880644
0.529293816976695,0.545604657653279
0.475213212636396,0.605138207691564
0.531119721964224,0.630253309613922
0.485837119371785,0.587669147571879
0.487630836696513,0.588323149402663
0.44732913103477,0.613478152127742
0.525834568487562,0.597167453859819
0.500454782767191,0.593094014209382
0.464954254407958,0.581800429244264
0.506095740044999,0.595245054736493
0.54303856054979,0.636133196399821
0.498048319734221,0.566388518561183
0.511824713206193,0.597462103117354
0.508288188812487,0.585950782915823
0.477634418751638,0.598284861565156
0.540951600036847,0.581412599055318
0.492112194566181,0.649650679341897
0.578955278001548,0.617995435921863
0.535634993673182,0.607020523031154
0.567660370610136,0.584102087026743
0.534741232202815,0.646966416351617
0.530887099357279,0.630871744709318
0.579147684322421,0.59540338199604
0.552913438528987,0.579426854936909
0.563539672590941,0.61130338003141
0.565268663542798,0.619666026524463
0.567463575563273,0.620634611749843
0.607592309533753,0.630718814745942
0.571885136080055,0.622598865290017
0.587703403854389,0.666065899153996
0.610376410418199,0.638607256051943
0.586469446724257,0.611433384295139
0.585405606635526,0.628712310339565
0.558637155179531,0.636174628241751
0.60303097434578,0.594143357657708
0.596968897039222,0.634066368454168
0.618535581427387,0.648643333459148
0.601670416892554,0.636275744972806
0.564418761131745,0.606695076182013
0.592759973887718,0.658473877842798
0.638621399198898,0.652092546797643
0.636823532028058,0.620887536890107
0.647040720025466,0.691678604399798
0.602564252866968,0.601790486449721
0.601892814422768,0.650458958972535
0.643425507851527,0.656690741704427
0.64598314404504,0.657986104690988
0.639852880031861,0.678107920063124
0.631829065422366,0.672385434584371
0.644697898294641,0.676199857687796
0.643876500099189,0.643443335770262
0.706043742347932,0.667942293004851
0.683003197074715,0.677285991684704
0.711479432877626,0.641075262542717
0.691234718377042,0.681713104904876
0.731449285738723,0.658545355493676
0.69957322754724,0.686246423115919
0.71371042598015,0.694042058711335
0.711500917979534,0.735737557903081
0.727399691120746,0.74377835488397
0.734011371895119,0.705471893721633
0.766212833198271,0.660219820475813
0.718843650809729,0.73753124816021
0.748880004265645,0.714014084845923
0.797794562320466,0.685341696099455
0.732009093041471,0.681327184757192
0.785310125312322,0.733177183942287
0.785837276375042,0.735846179382911
0.780287470464932,0.7182857175438
0.79217382242354,0.739672475751306
0.798561502232606,0.743553567130431
0.768061698169822,0.774026120073824
0.826159385797299,0.792914132212873
0.83314732021082,0.73711863597947
0.846051595055875,0.756587488677702
0.817686693753318,0.745714477036427
0.841116097158384,0.770001036795343
0.850120300239575,0.775718842907001
0.841166381034167,0.783854446230669
0.855632351231101,0.779244402127192
0.858242531435099,0.780922282139625
0.860756094789926,0.782544004135221
0.823548178239977,0.810589786136782
0.892173985202878,0.815254522962368
0.905700580626087,0.789032092628627
0.842787549857211,0.798881341232273
0.927049461119483,0.786093286587943
0.865874775242025,0.749060191555078
0.874922541466018,0.773990588698003
0.839435630622173,0.826229908818489
0.880876780488493,0.799293262577738
0.843706883937841,0.827195404542079
0.912501440422593,0.78360542545465
0.915219399791,0.804860004295939
0.889058077739501,0.794463282817581
0.881909879198534,0.83745299580264
0.892512392051867,0.80672445074745
0.907620264519219,0.783551912872731
0.889223306006759,0.805829457184071
0.932127190980073,0.795392483798638
0.89659184167278,0.785459184059863
0.87989351090797,0.802166325910819
0.878384972509345,0.801522311952838
0.862073134196796,0.783776240961652
0.867784577677153,0.796824441361825
0.826375527869618,0.828431240787282
0.820881694182223,0.823727978414532
0.849648415247768,0.788429942462503
0.809474305755203,0.827653947979459
0.844424211551673,0.785968509291517
0.862797031582204,0.800720819927223
0.814917072689397,0.81472530347512
0.830196167694059,0.779208999126106
0.798278913210608,0.816009217374571
0.752954721156366,0.787052928126584
0.798833322076986,0.773528521031042
0.736331626293553,0.75628680788857
0.777962861638378,0.772313233508051
0.749098730210186,0.740134826250781
0.765201575758014,0.740888829335136
0.726270721563513,0.753060366354119
0.726795508967769,0.729371874812249
0.722175656729174,0.72714489575588
0.714266898684215,0.688231714025098
0.693380728123229,0.71329012807814
0.664213615025974,0.699491287104486
0.652247452038359,0.693595482406117
0.685315469673546,0.646671314758537
0.662453168912406,0.656185167293546
0.63853144753648,0.729216341497312
0.576959286244462,0.682270862576878
0.537173834017096,0.639302039270593
0.489849161001193,0.640947283070583
0.558624342015257,0.616657065518143
0.505989447352424,0.624827681288477
0.448026365456331,0.588293375665476
0.467449407845357,0.607095693784729
0.411471633283696,0.572729820494468
0.445662694938269,0.571171311106765
0.396726973513867,0.593814697443682
0.405326588137202,0.545209124796838
0.362114478606682,0.573585147659127
0.430571351042152,0.553074183975451
0.416995407576329,0.538063309784403
0.388363843499674,0.576102286476509
0.386689980457209,0.560482642656774
0.3370090224618,0.501440529180967
0.343608972539315,0.527820642154695
0.261910329920823,0.530201332421283
0.288699370972511,0.527383851960394
0.234823958265266,0.504966047524756
0.25983684115703,0.514944609673103
0.245298764411332,0.508728602645831
0.248971884732268,0.524792218030238
0.194024142148479,0.528886622257746
0.160571453915385,0.471025339735737
0.185221320035449,0.446088381329164
0.115840151180927,0.47752276437963
0.0662666219148442,0.401563595128744
0.0818136615266225,0.441327835672197
0.059168920609628,0.43238716948635
0.0516099101775767,0.429426041584859
0.0101171747746528,0.396891692246545
-0.0216462938932984,0.460954403863778
-0.0165736597986278,0.403270109891447
-0.0517762860963679,0.352169269520796
-0.137669217871077,0.359541435945168
-0.190205359958954,0.341809836484484
-0.167230007720716,0.366553360086976
-0.249631150623795,0.322793800055816
-0.325000124702932,0.289190343919844
-0.255681597737036,0.339083476945133
-0.365906877905108,0.255413300394944
-0.352396673679106,0.329288396579859
-0.351522062839917,0.294931468729181
-0.393820529837046,0.282162937706068
-0.435451918494202,0.272191249720601
-0.46871861038191,0.241944759869121
-0.455926258071456,0.267632448894279
-0.462697400129571,0.266178322847813
-0.452852655620996,0.272870982125103
-0.476156467490318,0.263370269815564
-0.458178197254,0.221706148343968
-0.505541055306464,0.22792619471504
-0.536549952877555,0.245972740871443
-0.612483519598817,0.285046018265742
-0.589549741075755,0.277963820460785
-0.584393826133541,0.220079736022468
-0.66791688257031,0.238849853785103
-0.673492049783232,0.23871341407635
-0.6953558596616,0.238616497994229
-0.731864778514698,0.240225957524524
-0.809699605471094,0.220541950211586
-0.820550549216855,0.285159162474873
-0.793270275683879,0.24956671606044
-0.772564404673949,0.23765534496221
-0.778544722298023,0.247858905666075
-0.866388859323094,0.231109002135938
-0.83810612829421,0.264371790888273
-0.840811027779918,0.303208930621611
-0.890341850711549,0.298153677559039
-0.901595896164094,0.274762288241278
-0.948716793981405,0.334779237522798
-0.950790049612201,0.356284205366062
-0.920299710354533,0.337122071391477
-0.918326748568076,0.38315777275335
-0.909897055775324,0.319738928002217
-0.936097175973608,0.378745874933404
-0.967535684445148,0.388242585437981
-0.901505433351892,0.42698511762817
-0.902873173922037,0.397962879560392
-0.934958940758942,0.466035227474407
