-0.481063020318777,0.232594690872458
-0.479891808170825,0.238220104718627
-0.478705318234218,0.243794434962334
-0.477503639519007,0.24931787768071
-0.476286861035244,0.254790628950888
-0.475055071792978,0.26021288485
-0.473808360802261,0.265584841455179
-0.472546817073144,0.270906694843558
-0.471270529615679,0.276178641092268
-0.469979587439916,0.281400876278442
-0.468674079555906,0.286573596479213
-0.467354094973701,0.291696997771713
-0.466019722703352,0.296771276233074
-0.464671051754909,0.301796627940429
-0.463308171138423,0.30677324897091
-0.461931169863946,0.31170133540165
-0.460540136941529,0.316581083309781
-0.459135161381223,0.321412688772436
-0.457716332193079,0.326196347866746
-0.456283738387147,0.330932256669845
-0.45483746897348,0.335620611258864
-0.453377612962128,0.340261607710937
-0.451904259363142,0.344855442103196
-0.450417497186573,0.349402310512773
-0.448917415442472,0.3539024090168
-0.447404103140891,0.35835593369241
-0.44587764929188,0.362763080616735
-0.44433814290549,0.367124045866908
-0.442785672991773,0.371439025520062
-0.44122032856078,0.375708215653328
-0.439642198622561,0.37993181234384
-0.438051372187168,0.384110011668728
-0.436447938264651,0.388243009705127
-0.434831985865063,0.392331002530168
-0.433203603998453,0.396374186220984
-0.431562881674873,0.400372756854707
-0.429909907904375,0.404326910508469
-0.428244771697008,0.408236843259404
-0.426567562062825,0.412102751184643
-0.424878368011875,0.415924830361319
-0.423177278554211,0.419703276866565
-0.421464382699884,0.423438286777512
-0.419739769458943,0.427130056171294
-0.418003527841441,0.430778781125042
-0.416255746857429,0.434384657715889
-0.414496515516957,0.437947882020968
-0.412725922830077,0.44146865011741
-0.410944057806839,0.444947158082349
-0.409151009457296,0.448383601992917
-0.407346866791497,0.451778177926246
-0.405531718819494,0.455131081959468
-0.403705654551337,0.458442510169716
-0.401868762997079,0.461712658634124
-0.40002113316677,0.464941723429822
-0.398162854070461,0.468129900633943
-0.396294014718204,0.47127738632362
-0.394414704120048,0.474384376575985
-0.392525011286046,0.477451067468171
-0.390625025226248,0.480477655077309
-0.388714834950706,0.483464335480534
-0.38679452946947,0.486411304754976
-0.384864197792592,0.489318758977768
-0.382923928930123,0.492186894226043
-0.380973811892113,0.495015906576934
-0.379013935688613,0.497805992107572
-0.377044389329676,0.50055734689509
-0.375065261825352,0.50327016701662
-0.373076642185691,0.505944648549295
-0.371078619420746,0.508580987570248
-0.369071282540566,0.51117938015661
-0.367054720555204,0.513740022385515
-0.36502902247471,0.516263110334094
-0.362994277309135,0.51874884007948
-0.360950574068531,0.521197407698806
-0.358898001762948,0.523609009269203
-0.356836649402437,0.525983840867805
-0.35476660599705,0.528322098571744
-0.352687960556837,0.530623978458151
-0.35060080209185,0.53288967660416
-0.34850521961214,0.535119389086903
-0.346401302127757,0.537313311983513
-0.344289138648754,0.539471641371122
-0.34216881818518,0.541594573326861
-0.340040429747087,0.543682303927865
-0.337904062344526,0.545735029251264
-0.335759804987548,0.547752945374193
-0.333607746686205,0.549736248373782
-0.331447976450546,0.551685134327164
-0.329280583290624,0.553599799311473
-0.327105656216489,0.55548043940384
-0.324923284238193,0.557327250681397
-0.322733556365786,0.559140429221277
-0.320536561609319,0.560920171100614
-0.318332388978844,0.562666672396538
-0.316121127484412,0.564380129186182
-0.313902866136073,0.566060737546679
-0.311677693943879,0.567708693555162
-0.309445699917881,0.569324193288762
-0.30720697306813,0.570907432824613
-0.304961602404677,0.572458608239846
-0.302709676937573,0.573977915611594
-0.300451285676869,0.575465551016989
-0.298186517632615,0.576921710533164
-0.295915461814865,0.578346590237251
-0.293638207233667,0.579740386206383
-0.291354842899074,0.581103294517693
-0.289065457821136,0.582435511248311
-0.286770141009904,0.583737232475372
-0.284468981475431,0.585008654276007
-0.282162068227765,0.586249972727349
-0.279849490276959,0.58746138390653
-0.277531336633064,0.588643083890683
-0.275207696306131,0.58979526875694
-0.272878658306211,0.590918134582433
-0.270544311643354,0.592011877444295
-0.268204745327613,0.593076693419659
-0.265860048369037,0.594112778585657
-0.263510309777679,0.59512032901942
-0.261155618563588,0.596099540798083
-0.258796063736817,0.597050609998776
-0.256431734307416,0.597973732698633
-0.254062719285436,0.598869104974786
-0.251689107680929,0.599736922904367
-0.249310988503945,0.600577382564509
-0.246928450764536,0.601390680032345
-0.244541583472752,0.602177011385006
-0.242150475638645,0.602936572699625
-0.239755216272266,0.603669560053334
-0.237355894383665,0.604376169523267
-0.234952598982895,0.605056597186555
-0.232545419080005,0.60571103912033
-0.230134443685046,0.606339691401726
-0.227719761808072,0.606942750107875
-0.225301462459131,0.607520411315908
-0.222879634648275,0.608072871102959
-0.220454367385555,0.60860032554616
-0.218025749681023,0.609102970722643
-0.215593870544729,0.609581002709542
-0.213158818986724,0.610034617583987
-0.21072068401706,0.610464011423111
-0.208279554645788,0.610869380304048
-0.205835519882958,0.61125092030393
-0.203388668738621,0.611608827499888
-0.200939090222829,0.611943297969056
-0.198486873345633,0.612254527788565
-0.196032107117084,0.612542713035549
-0.193574880547233,0.612808049787139
-0.19111528264613,0.613050734120468
-0.188653402423828,0.613270962112669
-0.186189328890377,0.613468929840874
-0.183723151055828,0.613644833382215
-0.181254957930232,0.613798868813824
-0.17878483852364,0.613931232212835
-0.176312881846104,0.61404211965638
-0.173839176907674,0.61413172722159
-0.171363812718401,0.614200250985599
-0.168886878288337,0.614247887025539
-0.166408462627533,0.614274831418542
-0.163928654746039,0.614281280241741
-0.161447543653907,0.614267429572268
-0.158965218361187,0.614233475487256
-0.156481767877932,0.614179614063837
-0.153997281214191,0.614106041379143
-0.151511847380016,0.614012953510307
-0.149025555385459,0.613900546534461
-0.146538494240569,0.613769016528738
-0.144050752955399,0.61361855957027
-0.141562420539998,0.61344937173619
-0.139073586004419,0.61326164910363
-0.136584338358713,0.613055587749722
-0.134094766612929,0.612831383751599
-0.13160495977712,0.612589233186394
-0.129115006861337,0.612329332131238
-0.12662499687563,0.612051876663264
-0.124135018830051,0.611757062859605
-0.12164516173465,0.611445086797393
-0.11915551459948,0.61111614455376
-0.11666616643459,0.610770432205839
-0.114177206250032,0.610408145830762
-0.111688723055857,0.610029481505662
-0.109200805862115,0.609634635307672
-0.106713543678859,0.609223803313923
-0.10422702551614,0.608797181601547
-0.101741340384007,0.608354966247678
-0.0992565772925125,0.607897353329448
-0.0967728252517074,0.60742453892399
-0.0942901732716427,0.606936719108435
-0.0918087103623694,0.606434089959916
-0.0893285255339386,0.605916847555566
-0.0868497077964015,0.605385187972516
-0.0843723461598089,0.6048393072879
-0.081896529634212,0.60427940157885
-0.0794223472296619,0.603705666922498
-0.0769498879562097,0.603118299395977
-0.0744792408239062,0.602517495076419
-0.0720104948428027,0.601903450040957
-0.0695437390229503,0.601276360366722
-0.0670790623744,0.600636422130848
-0.0646165539072027,0.599983831410467
-0.0621563026314096,0.59931878428271
-0.0596983975570719,0.598641476824712
-0.0572429276942404,0.597952105113604
-0.0547899820529663,0.597250865226518
-0.0523396496433006,0.596537953240587
-0.0498920194752946,0.595813565232944
-0.047447180558999,0.59507789728072
-0.0450052219044651,0.594331145461049
-0.0425662325217438,0.593573505851062
-0.0401303014208864,0.592805174527892
-0.0376975176119437,0.592026347568672
-0.035267970104967,0.591237221050534
-0.0328417479100071,0.59043799105061
-0.0304189400371153,0.589628853646033
-0.0279996354963426,0.588810004913936
-0.02558392329774,0.58798164093145
-0.0231718924513585,0.587143957775708
-0.0207636319672495,0.586297151523842
-0.0183592308554636,0.585441418252985
-0.0159587781260521,0.58457695404027
-0.0135623627890661,0.583703954962829
-0.0111700738545567,0.582822617097794
-0.00878200033257472,0.581933136522297
-0.00639823123317147,0.581035709313472
-0.00401885556639782,0.58013053154845
-0.00164396234230504,0.579217799304363
0.000726359429056023,0.578297708658346
0.00309202073763408,0.577370455687529
0.00545293257337834,0.576436236469045
0.00780900592623746,0.575495247080027
0.0101601517861606,0.574547683597607
0.0125062811430965,0.573593742098917
0.0148473049869943,0.572633618661091
0.0171831343078028,0.571667509361259
0.0195136800954711,0.570695610276556
0.0218388533399478,0.569718117484113
0.0241585650311822,0.568735227061062
0.026472726159123,0.567747135084536
0.0287812477137193,0.566754037631668
0.03108404068492,0.56575613077959
0.033381016062674,0.564753610605434
0.0356720848369301,0.563746673186333
0.0379571579976375,0.562735514599418
0.040236146534745,0.561720330921824
0.0425089614382015,0.560701318230682
0.044775513697956,0.559678672603124
0.0470357143039576,0.558652590116283
0.0492894742461549,0.557623266847291
0.051536704514497,0.556590898873281
0.0537773160989329,0.555555682271385
0.0560112199894114,0.554517813118736
0.0582383271758816,0.553477487492466
0.0604585486482923,0.552434901469707
0.0626717953965925,0.551390251127593
0.0648779784107312,0.550343732543254
0.0670770086806571,0.549295541793824
0.0692687971963195,0.548245874956436
0.071453254947667,0.547194928108221
0.0736302929246488,0.546142897326312
0.0757998221172136,0.545089978687841
0.0779617535153106,0.544036368269942
0.0801159981088884,0.542982262149745
0.0822624668878963,0.541927856404384
0.0844010708422829,0.540873347110992
0.0865317209619975,0.5398189303467
0.0886543282369887,0.538764802188641
0.0907688036572056,0.537711158713948
0.0928750582125971,0.536658195999752
0.0949730028931123,0.535606110123187
0.0970625486886998,0.534555097161384
0.0991436065893088,0.533505353191477
0.101216087584888,0.532457074290597
0.103279902665387,0.531410456535877
0.105334962820754,0.530365696004449
0.107381179040938,0.529322988773447
0.109418462315888,0.528282530920001
0.111446723635553,0.527244518521246
0.113465873989883,0.526209147654312
0.115475824368825,0.525176614396333
0.117476485762329,0.524147114824441
0.119467769160344,0.523120845015769
0.121449585552818,0.522098001047448
0.123421845929702,0.521078778996611
0.125384461280942,0.520063374940392
0.12733734259649,0.519051984955921
0.129280400866293,0.518044805120332
0.1312135470803,0.517042031510757
0.133136692228461,0.516043860204328
0.135049747300724,0.515050487278178
0.136952623287038,0.514062108809439
0.138845231177353,0.513078920875244
0.140727481961616,0.512101119552726
0.142599286629778,0.511128900919015
0.144460556171786,0.510162461051246
0.146311201577591,0.50920199602655
0.14815113383714,0.50824770192206
0.149980263940384,0.507299774814908
0.151798502877269,0.506358410782227
0.153605761637747,0.505423805901149
0.155401951211765,0.504496156248806
0.157186982589273,0.503575657902331
0.158960766760219,0.502662506938857
0.160723214714553,0.501756899435516
0.162474237442223,0.500859031469439
0.164213745933179,0.499969099117761
0.165941651177368,0.499087298457612
0.167657864164741,0.498213825566126
0.169362295885246,0.497348876520435
0.171054857328832,0.496492647397672
0.172735459485448,0.495645334274968
0.174404013345043,0.494807133229456
0.176060429897566,0.493978240338269
0.177704620132965,0.493158851678539
0.17933649504119,0.492349163327399
0.18095596561219,0.49154937136198
0.182562942835914,0.490759671859416
0.18415733770231,0.489980260896839
0.185739061201328,0.489211334551381
0.187308024322916,0.488453088900174
0.188864138057023,0.487705720020352
0.190407313393599,0.486969423989046
0.191937461322592,0.486244396883389
0.193454492833951,0.485530834780513
0.194958318917626,0.484828933757551
0.196448850563564,0.484138889891636
0.197925998761715,0.483460899259899
0.199389674502028,0.482795157939473
0.200839788774453,0.48214186200749
0.202276252568936,0.481501207541084
0.203698976875429,0.480873390617385
0.20510787268388,0.480258607313528
0.206502850984236,0.479657053706644
0.207883822766449,0.479068925873865
0.209250699020466,0.478494419892324
0.210603390736236,0.477933731839154
0.211941808903709,0.477387057791487
0.213265864512833,0.476854593826455
0.214575468553558,0.476336536021191
0.215870532015831,0.475833080452827
0.217150965889603,0.475344423198495
0.218416681164821,0.474870760335329
0.219667588831436,0.47441228794046
0.220903599879396,0.473969202091021
0.222124625298649,0.473541698864144
0.223330576079145,0.473129974336962
0.224521363210833,0.472734224586607
0.225696897683662,0.472354645690212
0.22685709048758,0.471991433724909
0.228001852612537,0.47164478476783
0.229131095048482,0.471314894896108
0.230244728785362,0.471001960186876
0.231342664813128,0.470706176717265
0.232424814121729,0.470427740564409
0.233491087701113,0.470166847805438
0.234541396541229,0.469923694517487
0.235575651632025,0.469698476777688
0.236593763963453,0.469491390663172
0.237595644525459,0.469302632251073
0.238581204307993,0.469132397618522
0.239550354301003,0.468980882842652
0.24050300549444,0.468848284000596
0.241439068878251,0.468734797169486
0.242358455442386,0.468640618426455
0.243261076176794,0.468565943848634
0.244146842071423,0.468510969513157
0.245015664116223,0.468475891497155
0.245867453301142,0.468460905877761
0.24670212061613,0.468466208732108
0.247519577051134,0.468491996137328
0.248319733596105,0.468538464170554
0.249102501240992,0.468605808908917
0.249867790975742,0.46869422642955
0.250615513790305,0.468803912809587
0.251345580674631,0.468935064126158
0.252057902618667,0.469087876456397
0.252752390612363,0.469262545877436
0.253428955645668,0.469459268466407
0.254087508708531,0.469678240300443
0.2547279607909,0.469919657456677
0.255350222882725,0.47018371601224
0.255954205973955,0.470470612044265
0.256539821054538,0.470780541629885
0.257106979114423,0.471113700846231
0.25765559114356,0.471470285770437
0.258185568131897,0.471850492479635
0.258696821069384,0.472254517050958
0.259189260945968,0.472682555561536
0.2596627987516,0.473134804088504
0.260117345476228,0.473611458708994
0.2605528121098,0.474112715500137
0.260969109642267,0.474638770539067
0.261366149063577,0.475189819902916
0.261743841363678,0.475766059668816
0.26210209753252,0.476367685913899
0.262440828560052,0.476994894715299
0.262759945436222,0.477647882150147
0.26305935915098,0.478326844295576
0.263338980694274,0.479031977228719
0.263598721056054,0.479763477026707
0.263838491226268,0.480521539766673
0.264058202194866,0.481306361525751
0.264058202194866,0.481306361525751
0.26426916445853,0.48210071176874
0.264482765420632,0.482887266461924
0.264699031431149,0.483666081434661
0.264917988840061,0.484437212516308
0.265139663997345,0.485200715536222
0.26536408325298,0.48595664632376
0.265591272956945,0.486705060708279
0.265821259459217,0.487446014519137
0.266054069109776,0.48817956358569
0.2662897282586,0.488905763737296
0.266528263255666,0.489624670803311
0.266769700450955,0.490336340613093
0.267014066194444,0.491040828995999
0.267261386836111,0.491738191781385
0.267511688725936,0.49242848479861
0.267764998213896,0.49311176387703
0.26802134164997,0.493788084846002
0.268280745384137,0.494457503534884
0.268543235766374,0.495120075773032
0.268808839146661,0.495775857389804
0.269077581874976,0.496424904214556
0.269349490301297,0.497067272076647
0.269624590775602,0.497703016805432
0.269902909647871,0.498332194230269
0.270184473268082,0.498954860180516
0.270469307986212,0.499571070485529
0.270757440152241,0.500180880974665
0.271048896116147,0.500784347477282
0.271343702227909,0.501381525822736
0.271641884837505,0.501972471840385
0.271943470294912,0.502557241359586
0.272248484950111,0.503135890209696
0.272556955153079,0.503708474220071
0.272868907253795,0.50427504922007
0.273184367602237,0.50483567103905
0.273503362548383,0.505390395506366
0.273825918442213,0.505939278451377
0.274152061633704,0.50648237570344
0.274481818472835,0.507019743091911
0.274815215309585,0.507551436446149
0.275152278493931,0.508077511595509
0.275493034375853,0.508598024369349
0.275837509305329,0.509113030597026
0.276185729632337,0.509622586107898
0.276537721706856,0.510126746731321
0.276893511878863,0.510625568296652
0.277253126498339,0.511119106633249
0.27761659191526,0.511607417570469
0.277983934479607,0.512090556937668
0.278355180541356,0.512568580564205
0.278730356450486,0.513041544279435
0.279109488556977,0.513509503912716
0.279492603210806,0.513972515293406
0.279879726761951,0.514430634250861
0.280270885560392,0.514883916614439
0.280666105956107,0.515332418213496
0.281065414299074,0.51577619487739
0.281468836939271,0.516215302435477
0.281876400226678,0.516649796717116
0.282288130511272,0.517079733551662
0.282704054143032,0.517505168768474
0.283124197471937,0.517926158196908
0.283548586847964,0.518342757666321
0.283977248621093,0.51875502300607
0.284410209141302,0.519163010045514
0.284847494758569,0.519566774614007
0.285289131822873,0.519966372540909
0.285735146684191,0.520361859655575
0.286185565692504,0.520753291787364
0.286640415197788,0.521140724765632
0.287099721550024,0.521524214419735
0.287563511099188,0.521903816579033
0.288031810195259,0.52227958707288
0.288504645188217,0.522651581730635
0.288982042428038,0.523019856381655
0.289464028264703,0.523384466855296
0.289950629048189,0.523745468980917
0.290441871128475,0.524102918587873
0.290937780855538,0.524456871505523
0.291438384579359,0.524807383563222
0.291943708649914,0.525154510590329
0.292453779417183,0.525498308416201
0.292968623231144,0.525838832870194
0.293488266441776,0.526176139781665
0.294012735399056,0.526510284979972
0.294542056452964,0.526841324294473
0.295076255953477,0.527169313554523
0.295615360250575,0.52749430858948
0.296159395694236,0.527816365228701
0.296708388634438,0.528135539301544
0.297262365421159,0.528451886637365
0.297821352404378,0.528765463065522
0.298385375934074,0.529076324415371
0.298954462360225,0.52938452651627
0.29952863803281,0.529690125197576
0.300107929301806,0.529993176288646
0.300692362517193,0.530293735618836
0.301281964028948,0.530591859017505
0.301876760187051,0.53088760231401
0.302476777341479,0.531181021337706
0.303082041842212,0.531472171917953
0.303692580039227,0.531761109884106
0.304308418282504,0.532047891065522
0.30492958292202,0.532332571291559
0.305556100307753,0.532615206391575
0.306187996789684,0.532895852194925
0.306825298717789,0.533174564530967
0.307468032442048,0.533451399229059
0.308116224312438,0.533726412118558
0.308769900678939,0.533999659028819
0.309429087891528,0.534271195789201
0.310093812300184,0.534541078229061
0.310764100254887,0.534809362177756
0.311439978105613,0.535076103464643
0.312121472202342,0.535341357919079
0.312808608895051,0.535605181370421
0.313501414533721,0.535867629648026
0.314199915468328,0.536128758581251
0.314904138048851,0.536388623999454
0.315614108625269,0.536647281731992
0.316329853547561,0.536904787608221
0.317051399165704,0.537161197457499
0.317778771829678,0.537416567109183
0.31851199788946,0.53767095239263
0.319251103695029,0.537924409137198
0.319996115596363,0.538176993172242
0.320747059943442,0.538428760327121
0.321503963086243,0.538679766431191
0.322266851374745,0.53893006731381
0.323035751158926,0.539179718804334
0.323810688788765,0.539428776732122
0.324591690614241,0.539677296926529
0.325378782985331,0.539925335216913
0.326171992252014,0.540172947432632
0.326971344764269,0.540420189403041
0.327776866872074,0.540667116957499
0.328588584925408,0.540913785925363
0.329406525274248,0.541160252135988
0.330230714268574,0.541406571418734
0.331061178258364,0.541652799602956
0.331897943593596,0.541898992518013
0.332741036624249,0.54214520599326
0.333590483700301,0.542391495858055
0.334446311171731,0.542637917941756
0.335308545388517,0.542884528073719
0.336177212700638,0.543131382083301
0.337052339458072,0.54337853579986
0.337933952010797,0.543626045052753
0.338822076708792,0.543873965671336
0.339716739902036,0.544122353484967
0.340617967940507,0.544371264323004
0.341525787174183,0.544620754014802
0.342440223953043,0.54487087838972
0.343361304627065,0.545121693277113
0.344289055546227,0.54537325450634
0.345223503060509,0.545625617906758
0.346164673519889,0.545878839307724
0.347112593274345,0.546132974538594
0.348067288673855,0.546388079428726
0.349028786068398,0.546644209807477
0.349997111807952,0.546901421504204
0.350972292242497,0.547159770348265
0.35195435372201,0.547419312169015
0.352943322596469,0.547680102795813
0.353939225215854,0.547942198058016
0.354942087930143,0.54820565378498
0.355951937089313,0.548470525806063
0.356968799043345,0.548736869950622
0.357992700142215,0.549004742048014
0.359023666735903,0.549274197927595
0.360061725174387,0.549545293418724
0.361106901807645,0.549818084350758
0.362159222985657,0.550092626553053
0.363218715058399,0.550368975854966
0.364285404375852,0.550647188085855
0.365359317287992,0.550927319075076
0.3664404801448,0.551209424651988
0.367528919296252,0.551493560645946
0.368624661092328,0.551779782886308
0.369727731883007,0.552068147202432
0.370838158018265,0.552358709423674
0.371955965848083,0.552651525379391
0.373081181722438,0.552946650898941
0.374213831991309,0.55324414181168
0.375353943004675,0.553544053946966
0.376501541112513,0.553846443134156
0.377656652664802,0.554151365202607
0.378819304011521,0.554458875981676
0.379989521502649,0.55476903130072
0.381167331488162,0.555081886989096
0.382352760318041,0.555397498876162
0.383545834342264,0.555715922791274
0.384746579910808,0.55603721456379
0.385955023373653,0.556361430023066
0.387171191080777,0.556688624998461
0.388395109382158,0.55701885531933
0.389626804627775,0.557352176815031
0.390866303167606,0.557688645314921
0.39211363135163,0.558028316648358
0.393368815529825,0.558371246644698
0.39463188205217,0.558717491133298
0.395902857268642,0.559067105943517
0.397181767529222,0.559420146904709
0.398468639183886,0.559776669846234
0.399763498582614,0.560136730597447
0.401066372075383,0.560500384987707
0.402377286012173,0.560867688846369
0.403696266742962,0.561238698002792
0.405023340617728,0.561613468286333
0.406358533986449,0.561992055526347
0.407701873199105,0.562374515552193
0.409053384605673,0.562760904193228
0.410413094556133,0.563151277278809
0.411781029400462,0.563545690638293
0.413157215488639,0.563944200101036
0.414541679170642,0.564346861496397
0.41593444679645,0.564753730653732
0.417335544716042,0.565164863402398
0.418744999279395,0.565580315571753
0.420162836836489,0.566000142991153
0.421589083737301,0.566424401489956
0.423023766331811,0.566853146897519
0.424466910969996,0.567286435043198
0.425918544001835,0.567724321756352
0.427378691777307,0.568166862866337
0.428847380646389,0.56861411420251
0.430324636959061,0.569066131594228
0.431810487065301,0.569522970870848
0.433304957315088,0.569984687861729
0.434808074058399,0.570451338396226
0.436319863645213,0.570922978303696
0.437840352425509,0.571399663413498
0.439369566749265,0.571881449554987
0.44090753296646,0.572368392557522
0.442454277427072,0.572860548250459
0.444009826481079,0.573357972463155
0.445574206478461,0.573860721024967
0.447147443769194,0.574368849765253
0.448729564703259,0.57488241451337
0.450320595630633,0.575401471098674
0.451920562901295,0.575926075350524
0.453529492865223,0.576456283098275
0.455147411872395,0.576992150171285
0.456774346272791,0.577533732398912
0.458410322416389,0.578081085610512
0.460055366653166,0.578634265635442
0.461709505333102,0.57919332830306
0.463372764806175,0.579758329442722
0.465045171422364,0.580329324883786
0.466726751531646,0.580906370455609
0.468417531484001,0.581489521987548
0.470117537629406,0.58207883530896
0.471826796317841,0.582674366249202
0.473545333899283,0.583276170637632
0.475273176723712,0.583884304303605
0.477010351141105,0.584498823076481
0.478756883501441,0.585119782785615
0.480512800154698,0.585747239260365
0.482278127450856,0.586381248330087
0.484052891739892,0.58702186582414
0.485837119371785,0.587669147571879
0.487630836696513,0.588323149402663
0.489434070064056,0.588983927145848
0.49124684582439,0.589651536630791
0.493069190327495,0.59032603368685
0.494901129923349,0.591007474143381
0.496742690961931,0.591695913829742
0.498593899793219,0.59239140857529
0.500454782767191,0.593094014209382
0.502325366233826,0.593803786561375
0.504205676543103,0.594520781460626
0.506095740044999,0.595245054736493
0.507995583089495,0.595976662218331
0.509905232026566,0.596715659735499
0.511824713206193,0.597462103117354
0.513754052978354,0.598216048193253
0.515693277693026,0.598977550792552
0.51764241370019,0.599746666744609
0.519601487349822,0.600523451878782
0.521570524991902,0.601307962024426
0.523549552976408,0.6021002530109
0.525538597653318,0.602900380667559
0.527537685372611,0.603708400823763
0.529546842484266,0.604524369308867
0.53156609533826,0.605348341952229
0.533595470284573,0.606180374583205
0.535634993673182,0.607020523031154
0.537684691854067,0.607868843125431
0.539744591177205,0.608725390695395
0.541814717992575,0.609590221570401
0.543895098650155,0.610463391579809
0.545985759499925,0.611344956552973
0.548086726891862,0.612234972319252
0.550198027175944,0.613133494708003
0.552319686702151,0.614040579548583
0.554451731820461,0.614956282670348
0.556594188880853,0.615880659902657
0.558747084233303,0.616813767074865
0.560910444227792,0.617755660016331
0.563084295214298,0.618706394556411
0.565268663542798,0.619666026524463
0.567463575563273,0.620634611749843
0.569669057625699,0.621612206061909
0.571885136080055,0.622598865290017
0.574111837276321,0.623594645263526
0.576349187564473,0.624599601811791
0.578597213294492,0.625613790764171
0.580855940816354,0.626637267950022
0.58312539648004,0.627670089198701
0.585405606635526,0.628712310339565
0.587696597632792,0.629763987201972
0.589998395821816,0.630825175615279
0.592311027552577,0.631895931408842
0.594634519175053,0.63297631041202
0.596968897039222,0.634066368454168
0.599314187495063,0.635166161364644
0.601670416892554,0.636275744972806
0.604037611581674,0.63739517510801
0.606415797912401,0.638524507599613
0.608805002234714,0.639663798276973
0.611205250898591,0.640813102969446
0.613616570254011,0.641972477506391
0.616038986650952,0.643141977717163
0.618472526439392,0.64432165943112
0.62091721596931,0.645511578477619
0.623373081590685,0.646711790686017
0.625840149653494,0.647922351885671
0.628318446507717,0.649143317905939
0.630807998503332,0.650374744576178
0.633308831990316,0.651616687725744
0.63582097331865,0.652869203183995
0.63834444883831,0.654132346780288
0.640879284899277,0.655406174343979
0.643425507851527,0.656690741704427
0.64598314404504,0.657986104690988
0.648552219829793,0.659292319133019
0.651132761555766,0.660609440859877
0.653724795572937,0.66193752570092
0.656328348231285,0.663276629485505
0.658943445880787,0.664626808042988
0.661570114871422,0.665988117202727
0.664208381553169,0.66736061279408
0.666858272276006,0.668744350646402
0.669519813389912,0.670139386589051
0.672193031244865,0.671545776451384
0.674877952190843,0.672963576062759
0.677574602577825,0.674392841252533
0.68028300875579,0.675833627850062
0.683003197074715,0.677285991684704
0.68573519388458,0.678749988585815
0.688479025535363,0.680225674382754
0.691234718377042,0.681713104904876
0.694002298759595,0.68321233598154
0.696781793033001,0.684723423442102
0.69957322754724,0.686246423115919
0.702376628652288,0.687781390832349
0.705192022698125,0.689328382420748
0.708019436034728,0.690887453710474
0.710858895012078,0.692458660530884
0.71371042598015,0.694042058711335
0.716574055288926,0.695637704081184
0.719449809288382,0.697245652469787
0.722337714328497,0.698865959706504
0.72523779675925,0.700498681620689
0.728150082930619,0.702143874041701
0.731074599192583,0.703801592798897
0.734011371895119,0.705471893721633
0.736960427388208,0.707154832639267
0.739921792021826,0.708850465381156
0.742895492145953,0.710558847776656
0.745881554110566,0.712280035655127
0.748880004265645,0.714014084845923
0.751890868961167,0.715761051178403
0.754914174547112,0.717520990481922
0.757949947373457,0.71929395858584
0.760998213790182,0.721080011319512
0.764059000147264,0.722879204512296
0.767132332794682,0.724691593993549
0.770218238082415,0.726517235592628
0.77331674236044,0.72835618513889
0.776427871978738,0.730208498461693
0.779551653287284,0.732074231390392
0.78268811263606,0.733953439754346
0.785837276375042,0.735846179382911
0.788999170854209,0.737752506105446
0.79217382242354,0.739672475751306
0.795361257433013,0.741606144149849
0.798561502232606,0.743553567130431
0.801774583172299,0.745514800522411
0.805000526602069,0.747489900155145
0.808239358871895,0.749478921857991
0.811491106331755,0.751481921460305
0.814755795331629,0.753498954791444
0.818033452221493,0.755530077680766
0.821324103351328,0.757575345957628
0.82462777507111,0.759634815451387
0.827944493730819,0.761708541991399
0.831274285680434,0.763796581407023
0.834617177269932,0.765898989527615
0.834617177269932,0.765898989527615
0.837916555670261,0.76797925167161
0.841116097158384,0.770001036795343
0.844216261743308,0.771964676185017
0.847217509434036,0.773870501126835
0.850120300239575,0.775718842907001
0.852925094168928,0.777510032811719
0.855632351231101,0.779244402127192
0.858242531435099,0.780922282139625
0.860756094789926,0.782544004135221
0.863173501304588,0.784109899400183
0.865495210988089,0.785620299220715
0.867721683849435,0.787075534883022
0.86985337989763,0.788475937673306
0.871890759141679,0.789821838877772
0.873834281590587,0.791113569782623
0.875684407253359,0.792351461674062
0.877441596139001,0.793535845838295
0.879106308256516,0.794667053561522
0.88067900361491,0.79574541612995
0.882160142223188,0.796771264829782
0.883550184090355,0.797744930947221
0.884849589225415,0.798666745768471
0.886058817637373,0.799537040579735
0.887178329335236,0.800356146667218
0.888208584328007,0.801124395317123
0.88915004262469,0.801842117815653
0.890003164234292,0.802509645449013
0.890768409165818,0.803127309503406
0.891446237428272,0.803695441265036
0.892037109030658,0.804214372020106
0.892541483981982,0.80468443305482
0.89295982229125,0.805105955655382
0.893292583967465,0.805479271107996
0.893540229019633,0.805804710698865
0.893703217456759,0.806082605714193
0.893782009287847,0.806313287440184
0.893777064521903,0.806497087163041
0.893688843167931,0.806634336168968
0.893517805234937,0.806725365744168
0.893264410731925,0.806770507174847
0.8929291196679,0.806770091747206
0.892512392051867,0.80672445074745
0.892014687892832,0.806633915461782
0.891436467199798,0.806498817176407
0.890778189981772,0.806319487177528
0.890040316247757,0.806096256751348
0.889223306006759,0.805829457184071
0.888327619267782,0.805519419761902
0.887353716039833,0.805166475771043
0.886302056331915,0.804770956497698
0.885173100153033,0.804333193228071
0.883967307512193,0.803853517248366
0.882685138418399,0.803332259844787
0.881327052880656,0.802769752303536
0.87989351090797,0.802166325910819
0.878384972509345,0.801522311952838
0.876801897693786,0.800838041715797
0.875144746470297,0.8001138464859
0.873413978847885,0.79935005754935
0.871610054835554,0.798547006192352
0.869733434442308,0.797705023701109
0.867784577677153,0.796824441361825
0.865763944549093,0.795905590460702
0.863671995067134,0.794948802283946
0.861509189240281,0.79395440811776
0.859275987077538,0.792922739248347
0.85697284858791,0.79185412696191
0.854600233780403,0.790748902544656
0.85215860266402,0.789607397282785
0.849648415247768,0.788429942462503
0.847070131540651,0.787216869370012
0.844424211551673,0.785968509291517
0.841711115289841,0.784685193513222
0.838931302764158,0.783367253321329
0.83608523398363,0.782015020002043
0.833173368957262,0.780628824841568
0.830196167694059,0.779208999126106
0.827154090203024,0.777755874141862
0.824047596493165,0.77626978117504
0.820877146573484,0.774751051511842
0.817643200452988,0.773200016438474
0.814346218140681,0.771617007241138
0.810986659645568,0.770002355206038
0.807564984976655,0.768356391619379
0.804081654142945,0.766679447767363
0.800537127153444,0.764971854936193
0.796931864017157,0.763233944412075
0.793266324743089,0.761466047481212
0.789540969340245,0.759668495429808
0.785756257817628,0.757841619544064
0.781912650184246,0.755985751110187
0.778010606449102,0.75410122141438
0.774050586621202,0.752188361742845
0.77003305070955,0.750247503381787
0.76595845872315,0.74827897761741
0.76182727067101,0.746283115735917
0.757639946562133,0.744260249023513
0.753396946405523,0.742210708766399
0.749098730210186,0.740134826250781
0.744745757985127,0.738032932762861
0.740338489739351,0.735905359588845
0.735877385481863,0.733752438014935
0.731362905221667,0.731574499327335
0.726795508967769,0.729371874812249
0.722175656729174,0.72714489575588
0.717503808514886,0.724893893444432
0.71278042433391,0.722619199164109
0.708005964195252,0.720321144201115
0.703180888107916,0.718000059841653
0.698305656080907,0.715656277371927
0.693380728123229,0.71329012807814
0.68840656424389,0.710901943246497
0.683383624451892,0.708492054163201
0.67831236875624,0.706060792114455
0.673193257165941,0.703608488386464
0.668026749689998,0.701135474265431
0.662813306337417,0.69864208103756
0.657553387117203,0.696128639989054
0.652247452038359,0.693595482406117
0.646895961109893,0.691042939574953
0.641499374340808,0.688471342781766
0.636058151740108,0.685881023312759
0.630572753316801,0.683272312454136
0.625043639079889,0.6806455414921
0.619471269038378,0.678001041712856
0.613856103201273,0.675339144402607
0.60819860157758,0.672660180847556
0.602499224176301,0.669964482333908
0.596758431006444,0.667252380147866
0.590976682077012,0.664524205575634
0.585154437397011,0.661780289903415
0.579292156975446,0.659020964417413
0.573390300821321,0.656246560403833
0.567449328943641,0.653457409148876
0.561469701351412,0.650653841938748
0.555451878053638,0.647836190059652
0.549396319059324,0.645004784797792
0.543303484377475,0.642159957439371
0.537173834017096,0.639302039270593
0.531007827987192,0.636431361577661
0.524805926296768,0.633548255646781
0.518568588954828,0.630653052764154
0.512296275970379,0.627746084215984
0.505989447352424,0.624827681288477
0.499648563109968,0.621898175267835
0.493274083252017,0.618957897440261
0.486866467787576,0.61600717909196
0.480426176725648,0.613046351509135
0.473953670075241,0.61007574597799
0.467449407845357,0.607095693784729
0.460913850045002,0.604106526215555
0.454347456683182,0.601108574556672
0.4477506877689,0.598102170094284
0.441124003311162,0.595087644114594
0.434467863318973,0.592065327903807
0.427782727801338,0.589035552748125
0.421069056767262,0.585998649933753
0.414327310225749,0.582954950746894
0.407557948185805,0.579904786473751
0.400761430656434,0.57684848840053
0.393938217646642,0.573786387813432
0.387088769165433,0.570718815998663
0.380213545221811,0.567646104242425
0.373313005824784,0.564568583830923
0.366387610983354,0.561486586050359
0.359437820706527,0.558400442186938
0.352464095003309,0.555310483526864
0.345466893882703,0.55221704135634
0.338446677353715,0.54912044696157
0.33140390542535,0.546021031628757
0.324339038106612,0.542919126644105
0.317252535406507,0.539815063293818
0.31014485733404,0.5367091728641
0.303016463898214,0.533601786641154
0.295867815108036,0.530493235911184
0.288699370972511,0.527383851960394
0.281511591500643,0.524273966074987
0.274304936701437,0.521163909541166
0.267079866583897,0.518054013645137
0.25983684115703,0.514944609673103
0.25257632042984,0.511836028911266
0.245298764411332,0.508728602645831
0.23800463311051,0.505622662163001
0.23069438653638,0.502518538748981
0.223368484697947,0.499416563689974
0.216027387604215,0.496317068272183
0.20867155526419,0.493220383781813
0.201301447686876,0.490126841505067
0.193917524881278,0.487036772728148
0.186520246856402,0.48395050873726
0.179110073621251,0.480868380818608
0.171687465184832,0.477790720258394
0.16425288155615,0.474717858342823
0.156806782744207,0.471650126358098
0.149349628758011,0.468587855590423
0.141881879606566,0.465531377326001
0.134403995298876,0.462481022851037
0.126916435843947,0.459437123451733
0.119419661250783,0.456400010414294
0.111914131528391,0.453370015024923
0.104400306685773,0.450347468569824
0.096878646731936,0.447332702335201
0.089349611675884,0.444326047607258
0.0818136615266225,0.441327835672197
0.0742712562931559,0.438338397816223
0.0667228559844896,0.43535806532554
0.059168920609628,0.43238716948635
0.0516099101775767,0.429426041584859
0.0440462846973398,0.426475012907269
0.0364785041779231,0.423534414739784
0.0289070286283309,0.420604578368608
0.0213323180575684,0.417685835079945
0.0137548324746403,0.414778516159998
0.00617503188855187,0.411882952894971
-0.00140662369169239,0.408999476571068
-0.00898967425708705,0.406128418474492
-0.0165736597986278,0.403270109891447
-0.024158120307309,0.400424882108137
-0.0317425957741263,0.397593066410765
-0.0393266261900743,0.394774994085536
-0.0469097515461489,0.391970996418652
-0.054491511833344,0.389181404696318
-0.0620714470426557,0.386406550204737
-0.0696490971650783,0.383646764230113
-0.0772240021916076,0.38090237805865
-0.0847957021132381,0.378173722976551
-0.0923637369209651,0.37546113027002
-0.0999276466057835,0.372764931225261
-0.107486971158689,0.370085457128477
-0.115041250570676,0.367423039265872
-0.12259002483274,0.364778008923649
-0.130132833935875,0.362150697388014
-0.137669217871077,0.359541435945168
-0.145198716629342,0.356950555881317
-0.152720870201663,0.354378388482663
-0.160235218579037,0.35182526503541
-0.167741301752458,0.349291516825762
-0.175238659712921,0.346777475139922
-0.182726832451422,0.344283471264095
-0.190205359958954,0.341809836484484
-0.197673782226515,0.339356902087293
-0.205131639245098,0.336924999358725
-0.212578471005699,0.334514459584984
-0.220013817499312,0.332125614052274
-0.227437218716933,0.329758794046799
-0.234848214649557,0.327414330854761
-0.24224634528818,0.325092555762366
-0.249631150623795,0.322793800055816
-0.257002170647398,0.320518395021315
-0.264358945349984,0.318266671945067
-0.271701014722549,0.316038962113276
-0.279027918756087,0.313835596812145
-0.286339197441593,0.311656907327878
-0.293634390770063,0.309503224946679
-0.300913038732492,0.307374880954751
-0.308174681319873,0.305272206638298
-0.315418858523204,0.303195533283525
-0.322645110333478,0.301145192176633
-0.329852976741692,0.299121514603828
-0.337041997738839,0.297124831851313
-0.344211713315915,0.295155475205291
-0.351361663463915,0.293213775951966
-0.358491388173835,0.291300065377543
-0.365600427436668,0.289414674768224
-0.372688321243411,0.287557935410213
-0.379754609585058,0.285730178589714
-0.386798832452605,0.283931735592932
-0.393820529837046,0.282162937706068
-0.400819241729377,0.280424116215328
-0.407794508120592,0.278715602406914
-0.414745869001688,0.277037727567031
-0.421672864363657,0.275390822981882
-0.428575034197497,0.273775219937671
-0.435451918494202,0.272191249720601
-0.442303057244766,0.270639243616877
-0.449127990440186,0.269119532912702
-0.455926258071456,0.267632448894279
-0.462697400129571,0.266178322847813
-0.469440956605527,0.264757486059507
-0.476156467490318,0.263370269815564
-0.482843472774939,0.262017005402189
-0.489501512450386,0.260698024105585
-0.496130126507654,0.259413657211956
-0.502728854937737,0.258164236007505
-0.509297237731631,0.256950091778437
-0.515834814880331,0.255771555810954
-0.522341126374831,0.254628959391261
-0.528815712206128,0.253522633805561
-0.535258112365216,0.252452910340059
-0.541667866843089,0.251420120280956
-0.548044515630745,0.250424594914459
-0.554387598719176,0.249466665526769
-0.560696656099379,0.248546663404091
-0.566971227762347,0.247664919832628
-0.573210853699078,0.246821766098585
-0.579415073900565,0.246017533488164
-0.585583428357804,0.24525255328757
-0.591715457061789,0.244527156783006
-0.597810700003517,0.243841675260676
-0.603868697173981,0.243196440006784
-0.609888988564177,0.242591782307532
-0.6158711141651,0.242028033449126
-0.621814613967745,0.241505524717768
-0.627719027963107,0.241024587399663
-0.633583896142182,0.240585552781014
-0.639408758495964,0.240188752148025
-0.645193155015448,0.239834516786899
-0.650936625691629,0.23952317798384
-0.656638710515504,0.239255067025052
-0.662298949478065,0.239030515196738
-0.66791688257031,0.238849853785103
-0.673492049783232,0.23871341407635
-0.679023991107827,0.238621527356682
-0.68451224653509,0.238574524912303
-0.689956356056016,0.238572738029418
-0.6953558596616,0.238616497994229
-0.700710297342837,0.23870613609294
-0.706019209090722,0.238841983611756
-0.71128213489625,0.239024371836879
-0.716498614750417,0.239253632054514
-0.721668188644217,0.239530095550864
-0.726790396568646,0.239854093612133
-0.731864778514698,0.240225957524524
-0.736890874473369,0.240646018574241
-0.741868224435654,0.241114608047489
-0.746796368392547,0.24163205723047
-0.751674846335044,0.242198697409388
-0.75650319825414,0.242814859870447
-0.76128096414083,0.243480875899851
-0.766007683986109,0.244197076783803
-0.770682897780973,0.244963793808508
-0.775306145516415,0.245781358260168
-0.779876967183432,0.246650101424988
-0.784394902773018,0.24757035458917
-0.788859492276169,0.24854244903892
-0.793270275683879,0.24956671606044
-0.797626792987144,0.250643486939934
-0.801928584176958,0.251773092963607
-0.806175189244317,0.25295586541766
-0.810366148180216,0.2541921355883
-0.81450100097565,0.255482234761728
-0.818579287621614,0.256826494224149
-0.822600548109103,0.258225245261766
-0.826564322429112,0.259678819160783
-0.830470150572636,0.261187547207404
-0.83431757253067,0.262751760687833
-0.83810612829421,0.264371790888273
-0.84183535785425,0.266047969094927
-0.845504801201785,0.267780626594
-0.849113998327811,0.269570094671696
-0.852662489223323,0.271416704614217
-0.856149813879316,0.273320787707768
-0.859575512286784,0.275282675238552
-0.862939124436723,0.277302698492773
-0.866240190320128,0.279381188756635
-0.869478249927994,0.281518477316341
-0.872652843251316,0.283714895458096
-0.875763510281089,0.285970774468102
-0.878809791008308,0.288286445632564
-0.881791225423968,0.290662240237684
-0.884707353519065,0.293098489569668
-0.887557715284594,0.295595524914718
-0.890341850711549,0.298153677559039
-0.893059299790925,0.300773278788833
-0.895709602513718,0.303454659890305
-0.898292298870923,0.306198152149658
-0.900806928853535,0.309004086853097
-0.903253032452548,0.311872795286824
-0.905630149658959,0.314804608737043
-0.907937820463761,0.317799858489959
-0.910175584857951,0.320858875831774
-0.912342982832522,0.323981992048693
-0.914439554378471,0.327169538426919
-0.916464839486793,0.330421846252656
-0.918418378148481,0.333739246812107
-0.920299710354533,0.337122071391477
-0.922108376095941,0.340570651276968
-0.923843915363702,0.344085317754786
-0.925505868148811,0.347666402111132
-0.927093774442263,0.351314235632212
-0.928607174235053,0.355029149604228
-0.930045607518175,0.358811475313385
-0.931408614282625,0.362661544045886
-0.932695734519399,0.366579687087934
-0.933906508219491,0.370566235725735
-0.935040475373895,0.37462152124549
-0.936097175973608,0.378745874933404
-0.937076150009625,0.382939628075681
-0.93797693747294,0.387203111958524
-0.938799078354548,0.391536657868137
-0.939542112645445,0.395940597090723
-0.940205580336625,0.400415260912487
-0.940789021419085,0.404960980619632
-0.941291975883818,0.409578087498362
-0.94171398372182,0.41426691283488
-0.942054584924085,0.41902778791539
-0.94231331948161,0.423861044026096
-0.942489727385389,0.428767012453202
-0.942583348626417,0.433746024482911
