-0.606037852963523,0.981614218246797
0.269568599164816,0.365447441682886
-0.82909506445998,-0.407344186865604
-0.755943509799513,-0.615886302384884
-0.682791955139046,-0.824428417904165
0.795803138903618,0.49970421639837
0.671426986804324,-0.546719062621113
0.54705083470503,-1.5931423416406
-0.382825340888872,0.562665248405626
-0.521241134587775,-0.156446673927431
