0.956173692405571,-0.982068928491914
0.921303865866877,-0.981125079875949
0.914618500651683,-0.961941920373396
0.939371763555447,-0.9224708082291
0.880017949162898,-0.955099571003462
0.891888022648747,-0.925934837618214
0.883704456903979,-0.918256713298548
0.897023305157754,-0.898540059549496
0.869119997957432,-0.891436924474715
0.859302698548019,-0.895533146595634
0.851218521169809,-0.888061803098109
0.833965920395878,-0.880413055622172
0.852570880782054,-0.874285541828732
0.843334130942722,-0.834693520973109
0.781283942475381,-0.844147510511952
0.836116695218869,-0.824162302204196
0.775291406498445,-0.835627635974384
0.795328618609848,-0.837193861794067
0.786942180397432,-0.815837030468562
0.765258522394174,-0.846228706445358
0.771752029553155,-0.816153185543581
0.761068040730141,-0.810235849895171
0.752220235353834,-0.832753642332484
0.730409216405056,-0.80189088429549
0.740669599356133,-0.788799864931906
0.733764352835825,-0.768729901635234
0.707236752260974,-0.774487241104345
0.706204090125371,-0.796440434197732
0.708059227415906,-0.760451357237239
0.69854182421276,-0.760423281778133
0.671830172274451,-0.744124321441651
0.72577403861702,-0.741201851960012
0.678943081579189,-0.727002052248571
0.624028889857315,-0.704374871215683
0.694490263595544,-0.729798501567949
0.657287447290726,-0.717645754349087
0.649860500671522,-0.711468954411491
0.638093488182641,-0.700136769316159
0.607000461089619,-0.716552692427851
0.633200271590003,-0.711616252870433
0.579017007174231,-0.678915064463025
0.613111332548628,-0.681303548259522
0.620302736589283,-0.642044105890804
0.596925325021757,-0.701754445137671
0.583813014315099,-0.645367492057717
0.596756384485126,-0.657245452992481
0.569524234522038,-0.661356505501011
0.569864366669422,-0.646669202052573
0.56274730874364,-0.64106092671507
0.557976725999178,-0.630481481861464
0.542247185525773,-0.628670295709978
0.566449236599828,-0.617848936970175
0.530375460364777,-0.636552879530978
0.530006235636574,-0.602717368782951
0.524356493591147,-0.638602894504919
0.503879415998459,-0.602701680561784
0.505701752487031,-0.568736905952653
0.500249850551333,-0.5940715299005
0.481722165074728,-0.599927985440491
0.494126333761008,-0.598189633754095
0.479379676440114,-0.577356317938168
0.450715286953461,-0.566221652814661
0.455102671824696,-0.58667870516547
0.431655205708976,-0.552685337024027
0.459473883886923,-0.552067954293531
0.453911282264221,-0.591872739850923
0.43911596166862,-0.54794921317439
0.432498023091632,-0.543203698939888
0.442658436715616,-0.537724324516001
0.419341845019138,-0.533844958766393
0.414699854068045,-0.545987027380219
0.409841333254733,-0.542137901755127
0.405168414915839,-0.48753011749095
0.417585250110935,-0.51250321878237
0.388815650048224,-0.525231300838693
0.380512972322987,-0.506817900280648
0.382565837228565,-0.515477361792413
0.356181394368798,-0.50423268083383
0.361459767928433,-0.493888237955884
0.378908405419679,-0.515105207778711
0.352419095406391,-0.501305826493624
0.333465693102896,-0.511463575672793
0.330039745192235,-0.458896845837626
0.330242267588353,-0.4731919350145
0.312515843846332,-0.458329434122789
0.320067009824815,-0.461514024105829
0.312079934467385,-0.456185025470318
0.310837822812426,-0.464257029352951
0.299700180527486,-0.453548291077423
0.300616437265185,-0.458199145763887
0.333268061142538,-0.426730395641842
0.286424137422315,-0.442152290589622
0.255588004866034,-0.437441589574558
0.284864248324633,-0.460550711219612
0.263946278819527,-0.431343075433531
0.248565184665396,-0.426982121128188
0.230904274772139,-0.404989538858777
0.254976614424024,-0.419746112654198
0.263051603045873,-0.380689131401282
0.246292597530355,-0.406655797675309
0.242607446444012,-0.430170394091414
0.196868617097272,-0.420718356613717
0.231439714697773,-0.387208467779422
0.214239288854148,-0.402154511436187
0.213281761455096,-0.41226493089117
0.240491143895874,-0.415529562048089
0.191370640823115,-0.399249695013673
0.189863349196292,-0.38822277615395
0.197854095275237,-0.35127404624604
0.182670806668517,-0.37983215315247
0.173429937474057,-0.379219496233921
0.184850873498811,-0.367580227645944
0.187155944385296,-0.374639361510071
0.157246656966849,-0.370564311443876
0.138141292266203,-0.348736480087481
0.146597148205482,-0.364985881039512
0.130195147769779,-0.298130672577593
0.136059383558984,-0.359559619490321
0.130832477114557,-0.356903234524979
0.135631054221754,-0.33246820109587
0.14318612249283,-0.344890182251065
0.115320006108144,-0.349159538811078
0.068995993941073,-0.343168342216872
0.105118853052575,-0.344183687607836
0.100060511012299,-0.3417513647743
0.0950303636094249,-0.339355941113388
0.123552373703891,-0.319088118715614
0.0469243473282496,-0.360002154402374
0.0699622527356551,-0.332298113007844
0.0751922950579254,-0.330140698104493
0.105632265829576,-0.31743982824797
0.0594723490589322,-0.333960104069568
0.0525379920495534,-0.329242924917237
0.0413456967246584,-0.307720768484775
0.0630184897917812,-0.32881740952323
0.0462859161834877,-0.317403217992233
0.0390717395243232,-0.303056922185428
0.0368782357769735,-0.313442762982056
0.0362770129223773,-0.325626076711786
0.038857914090619,-0.309208857372207
0.0229810483775629,-0.307766123804035
0.0468959600482652,-0.299175919848027
-0.0105356150788067,-0.320770468664571
-0.00739943950891322,-0.285960293848616
-0.0105261375891706,-0.313167988973401
0.00596817330914773,-0.298463528237666
-0.0157508294710651,-0.302570565550738
0.00860717919838162,-0.306169827450319
-0.012815217847189,-0.294153258035645
0.000226876051891482,-0.294477136323729
-0.0214760164837019,-0.291091092313432
-0.0322015271455558,-0.28595423145589
-0.0435071504124801,-0.260665381596799
-0.0390809268463137,-0.282731518177207
-0.0498479526573947,-0.306222276425374
-0.0579418100712069,-0.228264237371204
-0.0467628913958252,-0.282706860288996
-0.0581190607197387,-0.273310528038821
-0.0549592431194375,-0.28017615120627
-0.0590136759430703,-0.278959731692839
-0.0630389084288566,-0.277775766191929
-0.0624794770431035,-0.298622566169382
-0.04143216717869,-0.261078484041372
-0.0819638420246212,-0.274763002823972
-0.0788472603075669,-0.273361904222022
-0.0827260600896439,-0.272338303715107
-0.110705607024423,-0.27871187409641
-0.0780096219322829,-0.28293358303679
-0.105989925777906,-0.272198679653958
-0.078579189334484,-0.291576569718271
-0.115481875892861,-0.280933408723285
-0.105381025465284,-0.266857787200103
-0.109053612621635,-0.266053363492657
-0.112696625894261,-0.265279742738266
-0.10142562352236,-0.247382220696039
-0.0957221515240869,-0.270794578180529
-0.123447935066799,-0.263142428147682
-0.126972365461537,-0.262490749159769
-0.108365015913056,-0.284799054307622
-0.123358075309617,-0.283202945783558
-0.137367236377252,-0.260716211758834
-0.14141257249128,-0.221070459538378
-0.160456683826097,-0.269296728315091
-0.153770143332867,-0.289883842956832
-0.150809677557897,-0.258766586033356
-0.154095562950538,-0.25835269435883
-0.14062487509921,-0.252258137129189
-0.160577462712706,-0.257612239685971
-0.163773419613637,-0.257285422678488
-0.200313397090191,-0.241142558209882
-0.189142534968577,-0.240577824902883
-0.160540490510205,-0.212933548279805
-0.191486479032672,-0.248374840710091
-0.173194856921612,-0.272719286518976
-0.162003000486586,-0.283179023045342
-0.185302567089438,-0.255796176006191
-0.188257450370013,-0.255695969909554
-0.1911820701437,-0.255623518656187
-0.204274379679923,-0.255174903009348
-0.210234436267083,-0.266420195621749
-0.157135379790123,-0.252233084558768
-0.184216889154136,-0.240655817518284
-0.205350210708382,-0.255673139878317
-0.208092646020479,-0.255764550588515
-0.215097175893914,-0.229971686120749
-0.206763674093055,-0.238894683750649
-0.218002804841352,-0.231910643267514
-0.236787618414459,-0.273533122185899
-0.215004407512813,-0.249605443922932
-0.219398464999143,-0.232206823126492
-0.211240364303471,-0.243972660327947
-0.238244870331579,-0.26023522437036
-0.209954251185102,-0.228394358807261
-0.263511199274964,-0.286737168263999
-0.236242446207477,-0.258515270936878
-0.219675704446788,-0.27024144072168
-0.240961562918299,-0.259351448979833
-0.243274878351577,-0.259807423631273
-0.245557326857701,-0.260288486029924
-0.260056876816184,-0.257805123557426
-0.246521449087606,-0.307006690968999
-0.237642776597798,-0.264275463611144
-0.280786496237171,-0.233666270715137
-0.256505559780572,-0.26306566907122
-0.242931410294617,-0.273324622584813
-0.224818138129816,-0.26810517062258
-0.252806396839567,-0.245727125250314
-0.236682942843095,-0.255308040327027
-0.293601290641826,-0.2570330140627
-0.268618825223583,-0.267199640422657
-0.261007953497624,-0.269293630368545
-0.261117140039371,-0.242866753395096
-0.274254487385203,-0.269586450506416
-0.282917800433974,-0.259257997247855
-0.277855153675299,-0.271293782296186
-0.308778322918269,-0.255511440724531
-0.281330398324489,-0.273092828763738
-0.269257947645621,-0.286492609579155
-0.284679991458387,-0.274982573872479
-0.29146285046397,-0.25554536798963
-0.287903703202605,-0.276962001585814
-0.289468281717838,-0.277985028907768
-0.30995856624018,-0.294342589518153
-0.29250274036306,-0.280097075459378
-0.293972563024453,-0.281185840679885
-0.295410742932635,-0.282296264524095
-0.296817251353308,-0.283428219987432
-0.298192059552174,-0.284581580065324
-0.299535138794935,-0.285756217753194
-0.327818804383099,-0.26518864999791
-0.330971024583482,-0.284481735681216
-0.292496450695899,-0.270520449666577
-0.304589591518955,-0.290665004512982
-0.305773594966712,-0.291944125182134
-0.315083833793095,-0.2925956718664
-0.30804586904224,-0.294563786263462
-0.310019093587781,-0.301571521984634
-0.34731819987959,-0.32467318503267
-0.311214517091092,-0.298644922174404
-0.315498820922496,-0.339124410888738
-0.339103192107972,-0.314614822620786
-0.316075646358169,-0.304586286939308
-0.314107816775981,-0.26767855237918
-0.293197548812922,-0.291579882829393
-0.297966821270234,-0.32888445115342
-0.317485112102577,-0.308857465341282
-0.359221936182099,-0.32520738925778
-0.330907970761514,-0.318796227265664
-0.319689392048461,-0.31352168256176
-0.294561221039898,-0.331413220757223
-0.335838213030081,-0.311641125546777
-0.321602680606998,-0.318353394407501
-0.322702414917986,-0.318285801109188
-0.346512388010168,-0.330764281753286
-0.303912975417769,-0.350824201985805
-0.323699737815249,-0.325050297183205
-0.366907234022962,-0.305955618133695
-0.324553180257805,-0.328505585480739
-0.324931029368646,-0.330259494340917
-0.325276258760131,-0.332030743669269
-0.373841619033013,-0.318335088907804
-0.325868743447841,-0.3356247557122
-0.32772519252847,-0.31833994754285
-0.336654544053309,-0.377194935620968
-0.328187513074355,-0.369821775749305
-0.360820387326423,-0.323387643985618
-0.342459548043428,-0.339406905808053
-0.31109066589134,-0.361382733631419
-0.326910694753252,-0.348731352937525
-0.349304793915895,-0.355535310992366
-0.35467782355491,-0.374471358376285
-0.338518374152986,-0.377205956130444
-0.345323389586724,-0.396430126326768
-0.309195558805434,-0.393631456389828
-0.326520793986805,-0.360593976664939
-0.326340200004015,-0.362625400861972
-0.326126497818797,-0.364672006449416
-0.325879658696852,-0.366733666422697
-0.325599653903882,-0.368810253777239
-0.351982577279943,-0.393969987119463
-0.324940032367672,-0.373007702611811
-0.344298285917949,-0.386556320559673
-0.32414740333578,-0.377263336916539
-0.332507833739302,-0.392101660549711
-0.320717738079547,-0.405233446453041
-0.315825765262609,-0.37839562746683
-0.322162203287402,-0.385945097790083
-0.321582414411776,-0.388150316370137
-0.320969172522141,-0.390369192285709
-0.320322448884198,-0.392601598532225
-0.319642214763649,-0.394847408105111
-0.32026728054602,-0.359206439528089
-0.293198612341996,-0.4118070364617
-0.325571910503366,-0.413496714076341
-0.316585598769424,-0.403962139568866
-0.315737381221369,-0.406273060704986
-0.338256670844333,-0.43426937389039
-0.313710818748731,-0.417459905305957
-0.299256095207996,-0.421518359141644
-0.305926352455757,-0.410487811606554
-0.288126830374122,-0.416031995395647
-0.309939729576268,-0.420399609638998
-0.307039990329408,-0.385470302844872
-0.30773664317359,-0.425204848170949
-0.306584245195224,-0.427624968832705
-0.305397905719776,-0.430056587752216
-0.324843006779795,-0.413807956302857
-0.303865270196411,-0.436301617346081
-0.297893113534967,-0.454597407792604
-0.344474166318703,-0.460197068001272
-0.322285376514252,-0.431870670573981
-0.297565488307658,-0.444880652425961
-0.29832133545736,-0.422324810083134
-0.290120476124146,-0.435313422642534
-0.281428104549002,-0.474717672666007
-0.285251823768885,-0.444844278602183
-0.304350936703353,-0.41787457611536
-0.274693531958871,-0.468128579938969
-0.269576943581341,-0.465090910871219
-0.281306267836686,-0.451246825753188
-0.283510294615311,-0.467824299364863
-0.27680757865131,-0.489188325473924
-0.307012190093794,-0.463647274631732
-0.279151611400615,-0.455130975336878
-0.331914606030368,-0.481528747058156
-0.262415325699355,-0.489902259088594
-0.256554552304935,-0.512341266651676
-0.270653080278226,-0.486204205934868
-0.268678155703535,-0.488865231520213
-0.263398407156466,-0.491621644441925
-0.286259141854694,-0.492579602453157
-0.256489771813744,-0.472708005743918
-0.232088418390408,-0.498879200881927
-0.258283491340458,-0.502294571575004
-0.256100349029829,-0.505004392979555
-0.253882403193167,-0.50772190250463
-0.256677621956435,-0.513451538887147
-0.249341986004547,-0.513179477898055
-0.251624958251618,-0.505975381629829
-0.244662009900211,-0.518666281718685
-0.230324304837208,-0.530077788529934
-0.21258908116594,-0.496950311021853
-0.237379869926517,-0.526949068170586
-0.228420704601705,-0.55249826965851
-0.232349990832447,-0.532504497899124
-0.163761079127068,-0.491593348468564
-0.210042888949439,-0.547078334508994
-0.20443140365584,-0.539229577130408
-0.218846376525322,-0.543498989706293
-0.219160700039235,-0.546503165949079
-0.250364144197082,-0.561718597061188
-0.186953744127238,-0.584209527593097
-0.210824540951577,-0.554972779438553
-0.220635294521826,-0.545167970013992
-0.205090545733278,-0.560646410296756
-0.210648620948586,-0.553448323093405
-0.191150313883989,-0.53575174649489
-0.196224144480069,-0.569195149290404
-0.190634784205082,-0.574014962154511
-0.191229300415813,-0.571148106705675
-0.187038563492787,-0.577786791421878
-0.192846928813521,-0.59755712528891
-0.208537910653173,-0.626481524390231
-0.177533026945375,-0.586417907567672
-0.180107189992571,-0.555254436042316
-0.175117305879781,-0.601859802834388
-0.176538730045528,-0.586379308841755
-0.190710187157039,-0.6120299680115
-0.130214929225403,-0.598783352298037
-0.157918877259507,-0.606701847785938
-0.154808236701413,-0.56654638740153
-0.158252176054938,-0.619186501738632
-0.147088925681794,-0.612513808855898
-0.136452234666089,-0.677369337268208
-0.133388397863336,-0.641969726432459
-0.0996676210232644,-0.637916807073944
-0.131322400573713,-0.614746891216792
-0.128920536996787,-0.6271176268084
-0.125178856894385,-0.630045579188679
-0.121401108956819,-0.632975631488211
-0.0804762756668743,-0.64885799664268
-0.0870118943977107,-0.652760500709108
-0.11489873947086,-0.614253250289729
-0.0974404466507619,-0.647050788670756
-0.106618758632633,-0.643989905831831
-0.0917821661151692,-0.637224789939352
-0.0995252231803109,-0.648970676291718
-0.096051998592933,-0.651331251140467
-0.0617302742329465,-0.657735884069237
-0.0656747741853369,-0.648464492253201
-0.0591768955614419,-0.643440951256251
-0.0826436092442498,-0.659920023306062
-0.0891995035365617,-0.685880845527961
-0.0637798529040221,-0.683402300285063
-0.0616799882727094,-0.699075716133762
-0.084732102890696,-0.733868482891881
-0.0669546937675636,-0.668773722892307
-0.101010327389117,-0.64955325200179
-0.0761435036240097,-0.654287288428615
-0.107849218654377,-0.655307367995037
-0.0744121995205076,-0.680770240844207
-0.0524275200124251,-0.675595392792787
-0.0751599070719198,-0.656237471518517
-0.0469350038831298,-0.677769342815247
-0.0430956860062894,-0.691106719149213
-0.0439793848996083,-0.655388087996604
-0.0471939893176962,-0.678665314886218
-0.0364848234918417,-0.681188691269358
-0.0339822612186092,-0.681853048962776
-0.0315231967674071,-0.682442232772027
-0.0291073824843329,-0.68295675163905
-0.026734570715484,-0.683397114505784
-0.0244045138069578,-0.683763830314167
-0.165030222972346,-0.777580410582726
-0.00764591214872154,-0.716285235378495
-0.128113993527326,-0.589214798149891
-0.118286312214938,-0.579956868630571
-0.00875723206842614,-0.689373490442613
-0.100457711028152,-0.793016882388833
-0.121576399398534,-0.804096585819413
0.0962049226400869,-0.79441470874718
0.0680860013809677,-0.77312821270068
0.102484253748275,-0.775509409959736
-0.0286127898959036,-0.693007665852412
-0.0710879440799033,-0.780285054553472
0.118100202506126,-0.762625646332025
-0.0942592324799379,-0.574792940379876
0.121360516655774,-0.545664205529604
0.107263704569094,-0.783170894042291
-0.103788718644773,-0.769675953115562
0.00405461519261753,-0.668803523431076
0.126391672495321,-0.776692703756819
0.10619444186207,-0.604466839549176
-0.0621859176947314,-0.56102354534708
0.0165410100178727,-0.674228970819745
-0.0767281531738812,-0.772780649004659
0.023903511763068,-0.667333373055303
-0.0847820918994511,-0.559007105927324
0.127497755426306,-0.554088492749315
0.0928911069295566,-0.766762093988253
0.0244840811853838,-0.666197471529519
-0.0711591109011396,-0.764929327533563
-0.122410352768763,-0.74722768897375
0.0279720393299717,-0.661379866649488
0.0284659966697374,-0.673125120010483
0.0244077324345045,-0.651585641672418
0.0278719918181596,-0.644923179681807
0.0387645734396572,-0.681566928277549
0.017016341432045,-0.65145659396626
0.048739407086313,-0.658765657475087
0.0433316381963564,-0.630257833238227
0.0357589051757486,-0.646046362393786
0.0365818438715119,-0.643884528257849
0.00608516403327188,-0.585393285558406
0.0381301657659948,-0.639403027611318
0.0388560442725196,-0.637084378984601
0.0291370506379104,-0.628292110253421
0.0481166389312249,-0.615323436815444
0.0677644861484918,-0.593352632167048
0.0420496092462916,-0.621411319444261
0.0420125185540817,-0.624732510494048
0.0542191490332566,-0.633561745669031
0.0430590359557264,-0.619447238180764
0.0477480923745287,-0.641879106465447
0.0632222939063711,-0.596154217585067
0.0313604283155828,-0.653569709244612
0.0447925578547651,-0.608308472855961
0.00918373652572048,-0.618717173470906
0.0454835248146009,-0.60246312291546
0.041273495769638,-0.58762058482947
0.0460599374229423,-0.596439223503572
0.0435766986528671,-0.618886220870341
0.0597073186897808,-0.587387535278504
0.0279132523228725,-0.535819192447227
0.0577281647876626,-0.601196262181497
0.0454381444778024,-0.583826401301296
0.0447340488562726,-0.551436148866535
0.0387656804237937,-0.574992481695066
0.0466662088530169,-0.547347509235611
0.0219832294122166,-0.527544797116775
0.0829091390189675,-0.589644961358171
0.0719187763186083,-0.517304794853023
0.0534418478506919,-0.563092972001319
0.00333919788301591,-0.595471519224818
0.0242110293349753,-0.524573877130475
0.0729631230264439,-0.545198487377214
0.0418888202993174,-0.53753048489796
0.0466142853891615,-0.538602502456941
0.060645933432049,-0.536594829395852
0.0699775025297611,-0.53911789492671
0.0528297894050272,-0.499636052782256
0.0616318620989175,-0.499199028519991
0.0237424266983324,-0.508262090850213
0.0450958928782204,-0.515648024277225
0.0447628174708861,-0.511707610718133
0.0444075424771462,-0.507735792281599
0.0440303155509033,-0.503733077909563
0.000198174808065263,-0.483643205181446
0.0666046486990968,-0.507393823195549
0.0427693997161828,-0.491544648599825
0.0144209017137019,-0.51344242692397
0.0418235698187353,-0.483273879984694
0.0144215301607884,-0.487472226473813
0.0893207351905298,-0.471604950294228
0.0401681634377449,-0.469688870212087
0.0411113178686866,-0.479038501306901
0.0628672261720346,-0.467883417089121
0.0187275895799207,-0.453662406350763
0.0254874013485156,-0.50383233743392
0.0421234961011733,-0.460843315755518
0.0179416973548038,-0.460573413367648
0.03068228758223,-0.42547914932199
0.0352113074951425,-0.435903097350558
0.0132971460224068,-0.428121583334326
0.0337687758694989,-0.426981208052016
0.0426610618951437,-0.43770616483586
0.00821863874695913,-0.434035482639025
0.0336194969356219,-0.434261076358678
-0.0209385803703464,-0.402030676481067
0.0298649668525027,-0.404313935612894
0.0290351897169723,-0.399722401370391
0.0281896519965042,-0.395112694740852
0.0273286013450012,-0.390485324666215
0.0199002252053401,-0.392729085157082
0.0185997751522859,-0.391007135573966
0.0319335938253259,-0.404774714265184
0.0237342225066911,-0.371809388755465
0.0227993220085523,-0.367101335584421
0.00127501212895151,-0.361944570307672
0.0263399330398178,-0.36720187450192
0.007007793271046,-0.342977439072955
0.0189219264788298,-0.348128114384975
0.00880147468608094,-0.337770730784475
0.0169040197463049,-0.338564023863232
-0.00244068959304143,-0.329178374040813
0.0226043716738695,-0.341316004981702
0.021999715403195,-0.305304029735845
0.0101336242093291,-0.333929262181623
-0.0025594583975692,-0.32835948368791
0.010557238452727,-0.309610691036037
0.0531736489778972,-0.296668606243767
0.00835056176026974,-0.299886131458014
0.015213828191166,-0.311814783339662
0.00610164565588159,-0.290131633454694
0.00496196695897001,-0.285244429898395
0.000291243962623995,-0.284447716542953
-0.0021729584429634,-0.254550593792944
0.00148502013619653,-0.270549108314202
0.041501306506431,-0.29916419907686
-0.0274552084093301,-0.258704907274647
-0.00207359205268001,-0.255813908137779
0.0067191654796125,-0.284782693060444
-0.00448806777439792,-0.245975072472552
-0.00570718295228906,-0.241052570801471
-0.0189191747396919,-0.212710419728299
-0.0190202087812719,-0.261225638848262
-0.00940906590726003,-0.22627883773762
0.00454516362367344,-0.22027804367063
-0.0119116258559624,-0.216429581738935
0.00791197816236737,-0.243457558944165
-0.0187464584863325,-0.187725884344604
-0.0157124696690462,-0.201665725645501
-0.0169909613618051,-0.19674915015667
-0.0469866826770844,-0.169857302404973
0.0067928354531171,-0.215448074165857
-0.00673427862520775,-0.168289393428392
-0.0274168586921407,-0.164969526362689
-0.00934476778686119,-0.169036490135612
-0.0156441066088396,-0.182409012417402
-0.0166033153897726,-0.177398597550889
-0.00833428371833679,-0.132313213436244
0.00472593263888765,-0.168574580500757
-0.00296736692369381,-0.159677873228905
-0.0313535881114114,-0.142990196515626
-0.0477123368274665,-0.153840800164086
-0.0437831601419684,-0.131485048356879
-0.0564184501235019,-0.140616666277857
-0.0228722198054419,-0.121921476558808
-0.0384922295783153,-0.0986899820500075
-0.0393431800714233,-0.11407274914982
-0.0331129202589486,-0.100264676927228
-0.0494972437591345,-0.126070914940041
-0.0494352661188718,-0.0740891837054177
-0.0446958568571327,-0.0950247687603348
-0.0349212481587574,-0.0847128689015685
-0.047374136200035,-0.0855820885284362
-0.0598692853659968,-0.0739518474660096
-0.0456144473622074,-0.0675996277563244
-0.0472481740050591,-0.0563433203669592
-0.0527246706298303,-0.0668797056678731
-0.0468336483937202,-0.0591307786871632
-0.0553929632542814,-0.0576281461102273
-0.0484466619792264,-0.0445080842141865
-0.0580539645101403,-0.0484484365150177
-0.0580134061150516,-0.0476503087320026
-0.060705693166186,-0.0393446484177536
-0.0620274611345224,-0.0348224972856981
-0.0471907607787665,0.00822300694389873
-0.0447014046008873,-0.0358464230765771
-0.0648099467556274,-0.0191657945123172
-0.0655794903285998,0.0105290517085213
-0.0639199397632958,-0.0500369158740748
-0.0940005540030841,0.0326316319040321
-0.0731688047066129,-0.00492949939527147
-0.0889857911054572,0.00556377222647
-0.0737559043564852,0.00489296585655666
-0.0623941021412507,0.0299660849097761
-0.0795842296625884,0.0275313118277774
-0.107827654539211,0.0452994659578374
-0.0624898607791371,0.0623568066408789
-0.0780583494509118,0.0047669921120811
-0.0827475391033142,0.0158692946471031
-0.0745349106614483,0.0391028033648842
-0.0648731781281653,0.0320343321251575
-0.0675522523272598,0.0556892881482242
-0.050667076904631,0.0441995210536568
-0.0815577041995813,0.0576748174321647
-0.0780106898346898,0.0545016575386842
-0.114411129141663,0.0590480559486839
-0.108275608265226,0.0604717660537391
-0.0918792139256837,0.0735771007553448
-0.0934328989062643,0.0702431918768917
-0.0945945904530612,0.0740667496710192
-0.0879882150221682,0.038544861198937
-0.0753858971388034,0.0767426930590925
-0.115018373566402,0.12567956380431
-0.0999318914472294,0.0852827970984862
-0.113634696549182,0.110528481000254
-0.10135656947154,0.0962817499630705
-0.102446559494478,0.0998584421415325
-0.118372439046526,0.104334042723734
-0.111525049971442,0.132905003454912
-0.105648136804997,0.110362669203494
-0.105151216923992,0.104721811528605
-0.107723051174405,0.117172189930894
-0.108741924246119,0.120517434274606
-0.100053487688081,0.134563596707463
-0.108070559643411,0.154958927751485
-0.111721235162473,0.130308995922525
-0.0981989997225428,0.130835094550769
-0.113640542318691,0.136628138115738
-0.117731574692954,0.168171936557057
-0.112822383967949,0.175087184078642
-0.141750086193579,0.164285770459243
-0.113908317648486,0.180816590245413
-0.118190213306858,0.151666325816778
-0.110701135834038,0.153921297567011
-0.119905442209218,0.157367046003686
-0.120739643296308,0.160147965709348
-0.158665360824191,0.160103260142514
-0.122359980472793,0.165568379635395
-0.123145621254384,0.168206855971902
-0.10121636222688,0.1751972274231
-0.103122187841383,0.166793664203124
-0.125401460525715,0.175829255172094
-0.114287406591224,0.192622833429331
-0.130558534523333,0.210537607225143
-0.15499484739148,0.21911126851623
-0.150354563615407,0.187178987595105
-0.158565177799879,0.153286510303469
-0.128162183034987,0.213801099303218
-0.138257456315414,0.180385500101327
-0.130632168957175,0.193917193989662
-0.12123880856866,0.2003642649126
-0.122725623289814,0.180516170930567
-0.11279237465784,0.192374290219382
-0.132789697636179,0.20167911270238
-0.0872698303413334,0.225585739485193
-0.127739767782894,0.232299515540957
-0.123267418075212,0.224440837252284
-0.134620876157675,0.208542901238956
-0.161112041686038,0.18013332151877
-0.142458114854854,0.217845390121686
-0.136196619546606,0.209235429327274
-0.136109854671897,0.214475987315313
-0.136426773145047,0.215810019510454
-0.136974361024846,0.218128386150226
-0.136992485127539,0.218295434118426
-0.152435911511157,0.235548165196839
-0.13746571279894,0.22053392273706
-0.137667025883225,0.221559297445529
-0.159263637327284,0.183369715657208
-0.128424286179434,0.204528015459161
-0.126232206601541,0.230791793679133
-0.138231161286528,0.225023123628517
-0.177474149492768,0.185858695169582
-0.164249412958129,0.209878270187031
-0.136862846054748,0.230550686439546
-0.121389942309518,0.22651442262585
-0.138375243396834,0.227879972247352
-0.139224370884153,0.240903879376088
-0.138251959346044,0.228551402684269
-0.172455040140545,0.227768696794948
-0.14461399093579,0.23996136107203
-0.137867002392031,0.229040850851231
-0.146527473163286,0.238453096184007
-0.129120722331009,0.232011835447641
-0.137236064690961,0.228896847425569
-0.132492032358376,0.247269268172346
-0.192959218582567,0.226409409644443
-0.136352459587464,0.228105650974939
-0.145162477861569,0.228123693823858
-0.161207183143324,0.25059460433433
-0.151367893776187,0.212827007154305
-0.0979900996284213,0.263950285559366
-0.102624919679432,0.215508442160076
-0.157738456744633,0.230058498585365
-0.133270558050189,0.223665474632341
-0.132710064853822,0.222727236239788
-0.142627311584363,0.246192103009607
-0.131496435760923,0.220617724420445
-0.130842804556587,0.219445433109778
-0.145880169299738,0.215173590408549
-0.129440670562624,0.216863234976757
-0.154030792356249,0.220777092709082
-0.115954417880615,0.233811516184169
-0.158649891123827,0.230515317939599
-0.126249981924274,0.210734126289693
-0.138213637867634,0.17915423388619
-0.0936196775202886,0.208822238664119
-0.123511046278456,0.205277139734932
-0.128638659914591,0.227779833051526
-0.121516650959821,0.201221916931504
-0.123333484544314,0.186838369154734
-0.138184555893754,0.199090904249522
-0.0911340337263432,0.219806220943276
-0.106386732104624,0.143052818134588
-0.115926682410601,0.189593860458961
-0.114703167997657,0.187008749149404
-0.13145080591417,0.193572889749327
-0.121709673852257,0.176939699060918
-0.110239919732361,0.202441800658996
-0.109449119538789,0.17578633912973
-0.0830647588295536,0.165393216093554
-0.101745484389447,0.132177446336662
-0.0973459023891747,0.157212994626365
-0.101643980965319,0.187987508337791
-0.137500733265075,0.167268017480948
-0.0930120082829778,0.174822807614236
-0.0996989609451534,0.166991615444519
-0.0971615547352784,0.149002228216187
-0.0932820518665489,0.140839076545227
-0.0794106171218366,0.146277881733959
-0.0432235593676987,0.160973711891528
-0.0569537101607016,0.131290391228492
-0.0614624689761119,0.130997518293033
-0.093197588940109,0.125804768943156
-0.0488660234291168,0.096630379355849
-0.0771131783965525,0.114706915216041
-0.0949011499250551,0.0736879757736408
-0.0718416741409139,0.103509172819728
-0.0595171417426993,0.118375278722996
-0.0950996414099697,0.0784987413552921
-0.0881862569758252,0.119045010507442
-0.106221460964264,0.078110338262081
-0.0881313095818449,0.0726997798754163
-0.0379629640593248,0.0572398704797228
-0.0606779412982875,0.0793629659462235
-0.0364205397741752,0.0478293462073682
-0.0663114476132056,0.0686185243674315
-0.0540953205237685,0.0304277126038701
-0.0886063590164259,0.0405194953562248
-0.0481251669988711,0.0678105993853111
-0.0606671522602802,0.0374189919496056
-0.0719297086751152,0.0126250338597963
-0.0331874177272479,0.0467610718953978
-0.0314298253166508,0.0436769967470537
-0.0431786892399506,0.0311163751042394
-0.0300240467858162,0.00540375949009901
0.0197337784391706,0.0234989362499916
-0.0160475212028356,-0.0194297578755068
-0.022806293861871,0.00157681518569044
-0.0219604124117015,-0.0207686954248394
-0.00474424239549582,-0.0219654012411681
0.00750950974128995,-0.0425512331424074
-0.00998900216261359,-0.0096254358899556
-0.0107076740157644,-0.0757693019672349
-0.00610144743433876,-0.0570541988692479
0.0102321649973086,-0.086457077823947
0.018887622835773,-0.0669508204663117
0.00793293791668726,-0.0691308786309703
-0.0241145789936362,-0.104559480212434
0.007313046608019,-0.0877799798492455
0.044236699804923,-0.0714296341842114
-0.0105305368661321,-0.137447733181575
0.0274694730954158,-0.0960725671038349
-0.0068202689466718,-0.104735268839277
0.0238386951885705,-0.125483037423032
0.0261117317254475,-0.107378568084303
0.0172499696782506,-0.169628543746875
0.0405312626811228,-0.151302986869251
0.0367282053539115,-0.154758923936234
0.0399041066450316,-0.161955011051155
0.0641045492200003,-0.172098395605632
0.0461997153583943,-0.176199932820717
0.0493193021038886,-0.183248827177008
0.0998590882928038,-0.195128921734272
0.0555017386806325,-0.197199632086734
0.0104793044116272,-0.183767160218401
0.0859317524092517,-0.222586917858591
0.0646326461845241,-0.21775882770656
0.0676379747026649,-0.224514142517864
0.103807256367151,-0.222246600851173
0.0738571122915616,-0.23453732092946
0.0862721150948246,-0.234340975769954
0.069262026943484,-0.263163949010392
0.121577029415508,-0.276022220376222
0.0776525410701918,-0.315838603603323
0.0881327771590466,-0.270435905347436
0.0966113754303139,-0.279798762609091
0.0930416092120707,-0.263079492069909
0.0966223218312368,-0.289386816471791
0.099412535294579,-0.295606693169421
0.109093969997715,-0.337213795748884
0.100351663926224,-0.319883719415431
0.122193699389078,-0.316826797083139
0.106490079972187,-0.307144201198542
0.113063626679044,-0.325979217366036
0.115733427400868,-0.331908559302826
0.118789386274806,-0.332361858989117
0.108288570144879,-0.324227582373765
0.144091310085772,-0.382345969787569
0.108925980019155,-0.356295537729986
0.140547137111578,-0.342804177769464
0.131362257694697,-0.363454319802236
0.151047453690538,-0.388416599158142
0.136356685667787,-0.377606354905352
0.132976921367056,-0.367356536781302
0.150579682112443,-0.384227569578388
0.154850118109767,-0.41372775094325
0.146171941271882,-0.399300397264548
0.133080624275161,-0.432724415819524
0.150953786217112,-0.409859540406728
0.185616492441861,-0.418703279488805
0.155651132315139,-0.420227083266095
0.158864265142063,-0.404965272531948
0.121074262138577,-0.444202283588775
0.168628838277682,-0.42973280593211
0.168813635369072,-0.444260616047852
0.146191572936038,-0.430024315783881
0.195208499562497,-0.450523099819038
0.171419446154298,-0.455008078817019
0.183640481748804,-0.489390019908318
0.171424275794544,-0.475829288288512
0.182819020179672,-0.4496593429158
0.158629388120116,-0.477180067638487
0.164610194146289,-0.46156020273243
0.160878432542343,-0.548399908757082
0.181981968295856,-0.505634925685119
0.208013827474353,-0.514054396749043
0.210048631097643,-0.453644384451957
0.192098720660577,-0.5006490825098
0.194045152419376,-0.504952359362808
0.202278615218743,-0.483714991485951
0.192312431000079,-0.508924772345541
0.19610421778437,-0.499767990121655
0.197858883964763,-0.504956358867263
0.172598539745947,-0.544890042686239
0.205252670064111,-0.529779701121453
0.191834915959161,-0.523643891900849
0.208807604812117,-0.537678171704837
0.216551565713971,-0.542664397797965
0.202119432049616,-0.525779434985379
0.213968749691114,-0.549172970349946
0.205147233602513,-0.525436829065232
0.22077847345351,-0.531013810942881
0.218922937757514,-0.560244996738892
0.220528061797769,-0.563841862115466
0.17941832813487,-0.550792012409859
0.223668539875216,-0.570895056843951
0.238632606083574,-0.564048897816391
0.248763365705939,-0.581546717859159
0.228336741608665,-0.540387188367072
0.227904493988304,-0.607720007999333
0.222734749034548,-0.590866359409551
0.232527469720118,-0.590932502091502
0.230506824908042,-0.616265249524398
0.257461169792808,-0.600924886003864
0.251749992112169,-0.628569711827433
0.235715206989623,-0.613534281631087
0.223024427278039,-0.600978686418114
0.240532506137001,-0.609291753870791
0.27659846815408,-0.611522311000857
0.244321061822014,-0.601525681116533
0.244210741469679,-0.617844072140522
0.245388375750558,-0.62060210944039
0.266843974727156,-0.630338066871286
0.239579741221441,-0.623014613889117
0.238327611786233,-0.602906146246124
0.239011682814131,-0.650754485709977
0.257228216003921,-0.650542144975715
0.231486346560275,-0.611224398312381
0.272951197885495,-0.634675997026561
0.250732753703562,-0.663962703671312
0.254885324620168,-0.643343718274102
0.2558170172179,-0.645639919091294
0.269978333775192,-0.6339249467214
0.277444078855772,-0.650169261077383
0.240939301100959,-0.612264784273786
0.256923420590658,-0.624567441674032
0.224670656329623,-0.616412359757431
0.260881614344369,-0.658451759929992
0.24636319331876,-0.698925974800867
0.262083379346183,-0.673738123953071
0.243510324745275,-0.662288293729505
0.261519603520591,-0.66718637087233
0.269090774905989,-0.673417454511927
0.265035841324609,-0.669613347672596
0.233658713475376,-0.675520739135447
0.292055386770072,-0.692392855102169
0.252446128175053,-0.657857937376424
0.271712249651415,-0.681169645449563
0.267792872772023,-0.67765871254103
0.300818746738887,-0.669347431081751
0.262984035117867,-0.672237646835892
0.269136152966665,-0.681939548599022
0.269531727889,-0.683275609246125
0.292754296009112,-0.667333588121044
0.270244237989607,-0.685811582586937
0.292342766469327,-0.712004519830259
0.270851492842301,-0.688166224328725
0.316673445700153,-0.68820698289441
0.271353009740089,-0.69033977327809
0.288987992180135,-0.680790759919577
0.293031515375326,-0.662153765671001
0.282446582774289,-0.680366121973145
0.287717189896013,-0.696464314461623
0.255071397027881,-0.677362530851331
0.272218305634085,-0.695776251437636
0.260306022235288,-0.658295215617963
0.311767591955418,-0.673094333168648
0.272288386006919,-0.697886123245938
0.272257630160678,-0.698499484369543
0.27219971576522,-0.699067930504941
0.272114582482172,-0.699591491502958
0.284444842954248,-0.732476021945353
0.271862417899808,-0.700504077490147
0.271695265923744,-0.70089316218097
0.259378118035306,-0.683921055950839
0.27127852090998,-0.701537064211194
0.292307684599528,-0.726267562898824
0.270751452224874,-0.702002142111693
0.270446395659633,-0.702167696640357
0.253920517705821,-0.701345240813808
0.276670695847497,-0.708454747258478
0.269364413012664,-0.702396780749909
0.239895103652602,-0.677118915451603
0.268503477071573,-0.702326819100826
0.268030943832972,-0.702225122512125
0.277296628628875,-0.705230617165071
0.27335687120057,-0.678631476762791
0.272774361721115,-0.717249781426505
0.274349530622071,-0.729519844754067
0.255862233834246,-0.722456014856406
0.23565650661387,-0.715151575479817
0.283356470474802,-0.715261037107418
0.295064028799895,-0.725866289763307
0.28704915666023,-0.664323810801509
0.261748837639067,-0.698769026385846
0.257038810579335,-0.682376193675781
0.266820477418041,-0.683719577885338
0.29858691236101,-0.713801933640386
0.207725680474827,-0.714523258773915
0.257534280180083,-0.695383905142749
0.256604522925337,-0.694574792652933
0.255645676293402,-0.693721720401309
0.254657679945904,-0.692824718238702
0.242366125920874,-0.705251431574161
0.25259399675072,-0.690899043583842
0.251518189226286,-0.689870430793238
0.215295803453156,-0.679063910617462
0.228472335305881,-0.682177193355047
0.27893949434532,-0.668229396259629
0.246920445054207,-0.685318173062244
0.22248853177684,-0.683681057434556
0.273487863445225,-0.657820716769065
0.2701546476384,-0.70425746865586
0.24184858212122,-0.680066857661127
0.251098257182668,-0.693307407718688
0.237745009625592,-0.674405440842261
0.241754094532555,-0.656587467092225
0.23822872940303,-0.661686844971312
0.213091941106147,-0.681119048338805
0.244987212238141,-0.666804508087304
0.219232787524866,-0.692882898913673
0.246012202848217,-0.671086917991921
0.258609319948859,-0.63774517649973
0.195016041589323,-0.71793174402319
0.204178194144785,-0.668385126302602
0.225325855984584,-0.650135520634793
0.222043973164079,-0.658195305186312
0.220307623955891,-0.656209756767257
0.214371100317243,-0.650327045265405
0.233361172474349,-0.650805287912174
0.193784045467071,-0.634490304962412
0.20881119173392,-0.663215300565452
0.212770580788355,-0.594558060421991
0.196444027199603,-0.655448157290437
0.223713170798244,-0.645687916514981
0.193643737002204,-0.679751781867596
0.200521165863418,-0.60778617770071
0.178679264134492,-0.628919009101335
0.186232778133786,-0.639487038461619
0.197058132645892,-0.62902571749094
0.218034085134796,-0.586623170055813
0.23175240170143,-0.650345743589945
0.190542374748565,-0.621264792199416
0.166978954659716,-0.642518415362535
0.184449136882268,-0.612817505207288
0.192301853425079,-0.617124562856665
0.176251146537141,-0.590774754349462
0.162459372490699,-0.622661557463999
0.176655392917402,-0.604590684855352
0.17422929825237,-0.601662648607131
0.154101592542632,-0.604384191328218
0.153323684871364,-0.604865882166293
0.172878960119266,-0.615567462698129
0.164203856633269,-0.589525831408655
0.16161692879688,-0.586385608311763
0.158997653311097,-0.583203037397612
0.156345969837546,-0.579978148517026
0.153661818037853,-0.576710971520831
0.157633348935488,-0.580536311272564
0.148195868106544,-0.570049872584913
0.153138799184672,-0.555211042036034
0.138718819077152,-0.602168111634259
0.122185888288209,-0.578801133777644
0.15559642309063,-0.557284803397001
0.116263247154562,-0.579418168101062
0.113750528212888,-0.565297000095511
0.128033421332485,-0.545408338738777
0.137970310793391,-0.54493018202041
0.112459767712946,-0.497429781636963
0.118897503834258,-0.534217240249253
0.116379741408173,-0.514618618821324
0.120736572122238,-0.575322643948514
0.113680081627544,-0.516264934822129
0.0970156021398015,-0.512414161578343
0.0760638773797967,-0.494614475110495
0.0997262161265372,-0.51070454776059
0.104199957797122,-0.51912515325262
0.0789785577137371,-0.465264742759552
0.101952862286067,-0.516018506679503
0.0862738670613563,-0.494194602425117
0.060466630818984,-0.480596766491289
0.0872830042206138,-0.468604734848397
0.0574275151360002,-0.454390140298699
0.0722798202562117,-0.477019032343482
0.0686962157452501,-0.472621359837672
0.0650784534336698,-0.468182235039353
0.0470617756590406,-0.472514752343739
0.0412037003167361,-0.469259701491757
0.0731393455702268,-0.458973023173968
0.0511158783111515,-0.447247258769587
0.0464751630233958,-0.445365871438975
0.0426511868022471,-0.440678659752918
0.0809243854513825,-0.412823647471953
0.034899433513863,-0.431180536221423
0.0309715357698792,-0.426369684077635
0.0270088768415351,-0.421517678149586
0.0394691837956198,-0.416047990802404
0.00988363942779415,-0.402225842790755
0.0149117295666012,-0.406715036168126
-0.0189401335974893,-0.377666748238968
-0.00173417072029253,-0.388179957457064
0.0287834279901129,-0.388339817824081
0.00724196423515919,-0.399173249903491
0.0440494791082164,-0.386986407380094
-0.0102292626415,-0.376002629891539
-0.00610032377822326,-0.34047269642008
-0.010823501786182,-0.383472648601211
-0.0187373557184983,-0.362147813852685
-0.0276964109639452,-0.354710188842596
-0.0358406694695879,-0.336797191865528
-0.000121740083526965,-0.343417679880808
-0.0319273426847397,-0.340544243429841
-0.0457332540319627,-0.332765973830277
-0.0298804134754915,-0.32198829446439
-0.0444436995157497,-0.327051963419297
-0.059637071537163,-0.315881235164332
-0.0632417080503531,-0.308704497774003
-0.0592134447943327,-0.278013351913209
-0.0738651436543193,-0.298631754245962
-0.0824188372460929,-0.289029654565231
-0.0880528636632504,-0.292600021284329
-0.101364504355268,-0.28616101426932
-0.100876028168129,-0.273916410983968
-0.0756555067683494,-0.262639163425918
-0.10330056826891,-0.263041789541036
-0.10833412007204,-0.256969050718779
-0.102399487112479,-0.232584610350694
-0.108946844707985,-0.258901364102186
-0.084969494974555,-0.227665741467775
-0.119148174018178,-0.236113286530447
-0.153132572097993,-0.233526464221084
-0.125284785421381,-0.243393913440662
-0.132419762537161,-0.202181927070666
-0.136180794536733,-0.203372575955664
-0.159592141744621,-0.187484042962967
-0.160694336002811,-0.194034025404563
-0.156991883967042,-0.193583271428422
-0.171215519767963,-0.171287314833691
-0.177125739011178,-0.174373526539242
-0.182677625041781,-0.167740306420444
-0.18826698748358,-0.161067275804509
-0.208648663540305,-0.141489120397787
-0.177977726639123,-0.149617621118911
-0.195737858907708,-0.139963722191112
-0.205800696398591,-0.134945595427201
-0.212441249366829,-0.111873822652825
-0.222593545718472,-0.120194743315219
-0.216971658108657,-0.117127517381244
-0.230508855745533,-0.0987341149829415
-0.240267643795386,-0.0992234532760447
-0.246235088959736,-0.0921539594841123
-0.263247099788098,-0.0910785338409163
-0.223043635687501,-0.076789148627292
-0.244697272880199,-0.0755934827054799
-0.255178032384272,-0.045979463266566
-0.269805233536437,-0.0384811864363402
-0.282842814588501,-0.0489089166120786
-0.274883095435053,-0.081342091215039
-0.287239831431523,-0.0219123580674944
-0.287670877486715,-0.0277204669173657
-0.308017203767178,-0.0192924293574701
-0.314407509008548,-0.0117902738422235
-0.320836618105346,-0.0042489645479893
-0.327304591395948,0.00333146867440802
-0.333811489218726,0.010950995974143
-0.341106037257308,0.0294049290341954
-0.346942299814309,0.0263072134023268
-0.350641371615684,0.0275384654425767
-0.326275994840499,0.0130714159695492
-0.334502292711997,0.0442704830448575
-0.390401610109997,0.0377944854914651
-0.366324167805635,0.0432260307810496
-0.378116086211622,0.108084022760096
-0.375343406860821,0.0850855957565463
-0.414865178885172,0.100790479176864
-0.419751011104524,0.0926214729800011
-0.416979369246156,0.0845661959959986
-0.384453681930695,0.0979333859554936
-0.448975802071763,0.143533398396641
-0.392983769869953,0.144098880985594
-0.443264826872545,0.138155869014684
-0.45766516906665,0.122019847789525
-0.435802511129294,0.161964502943139
-0.442370038293404,0.168684123289533
-0.472216518527638,0.171505327939352
-0.482978407132247,0.184231007352363
-0.492741474882597,0.190928152178507
-0.475125158202823,0.196265221702584
-0.480382909854382,0.227295376145522
-0.521635761765854,0.194983379668852
-0.528055632137739,0.220688796196617
-0.52371291683391,0.234735756206933
-0.583603721379155,0.193342894846801
-0.539714918568075,0.248789031850216
-0.547417609700143,0.257567500836478
-0.581242006707522,0.248283049975707
-0.571479234833147,0.239160119374524
-0.570770694580498,0.284131800602548
-0.578121626607116,0.297811392297166
-0.62497808143361,0.311037784238491
-0.594492563792937,0.311038812712219
-0.587174396813114,0.29188280479439
-0.615608190302552,0.332471956016259
-0.618584846473562,0.338287731193218
-0.626698203050224,0.347446543909996
-0.626607919367673,0.315162814878409
-0.638942706917452,0.389405344059435
-0.656529663872205,0.383559949841508
-0.629172648712717,0.373677847508009
-0.687325772408518,0.405525803233889
-0.645928005024461,0.397071579998169
-0.682775023057726,0.42705408613597
-0.678191812428546,0.406250529808031
-0.69679450067287,0.429609987997703
-0.745368525071584,0.424444215135357
-0.706912100070888,0.485907682037169
