-0.422786635490691,0.687802746029025
-0.666497950093695,0.287717388671153
-0.309528588940714,0.135520959009847
0.375697259862925,0.60764827197811
1.06092310866656,1.07977558494637
-0.793513810832944,-0.36284499296578
-0.580784352625151,-0.00539027238534162
-0.368054894417357,0.352064448195097
-0.955046701114288,-0.678788811419301
0.770558545495472,0.544340388378971
