0.876496853675746,-0.892789089656795
0.870980854649164,-0.881512434770842
0.873040768860756,-0.826526051627979
0.813093652634752,-0.849721432704994
0.805641265982655,-0.837291241266507
0.799168494583766,-0.820176018108919
0.789663672859885,-0.783827515991751
0.773302729056102,-0.8023078801639
0.759842475770503,-0.762747148175668
0.776747808369189,-0.769596075705183
0.735321423033276,-0.775865860388677
0.722877051718207,-0.767147743211774
0.710539923285894,-0.75847750387155
0.698309564258227,-0.749855102245561
0.718137666871844,-0.704030563747446
0.662696950075052,-0.758798659787196
0.662254368822001,-0.724274522428557
0.650446352631821,-0.715843070435064
0.628832936841233,-0.720221984716449
0.612471380625151,-0.688425063106733
0.625322621572006,-0.689526338953269
0.620815146175013,-0.641938917709441
0.580663949596693,-0.692760582345051
0.555843987588977,-0.679118584609321
0.548815480181503,-0.642098857390944
0.512080461644761,-0.601690831243717
0.527344542286271,-0.62623232030183
0.517354543895309,-0.615032203713395
0.506117780144983,-0.616922510440866
0.480754408334272,-0.641489220016426
0.483590556643296,-0.585343636351909
0.475394802391945,-0.587391201151009
0.465297227418562,-0.579764123239342
0.441015984617912,-0.590454709939022
0.445390662652405,-0.564650792354953
0.463399228801363,-0.55995803638927
0.410517428946491,-0.546518463308341
0.41099439255063,-0.552009148543914
0.371494431850363,-0.523211135902697
0.362668436761819,-0.52738025611095
0.387945559374915,-0.520434510397363
0.419933976254676,-0.508565727190246
0.369542762539829,-0.506069250044847
0.393973862534024,-0.497904678266558
0.351506438125324,-0.491890204876416
0.349226554002806,-0.50728740625335
0.333832798306525,-0.477897053912516
0.325130801425241,-0.470970088451155
0.328718593071029,-0.457910576645817
0.302588533228084,-0.478884152162395
0.282115833846763,-0.456345377154621
0.291210586264994,-0.443725357219272
0.301378010004018,-0.437494487494604
0.264524981971821,-0.436977265538478
0.266689328490879,-0.423776972511163
0.240242088821479,-0.41669681061267
0.269652157551585,-0.410521343773386
0.241491471749523,-0.403375699104961
0.25430446480579,-0.366359173269204
0.232788416130294,-0.405127819116089
0.219954310965173,-0.385123072609614
0.21245873758031,-0.378841400579039
0.225243308039632,-0.35805367490539
0.196841603961804,-0.34529041016986
0.166862497955653,-0.365024847389775
0.183297929470433,-0.354172225928115
0.190693039564645,-0.316304542246782
0.169203787979708,-0.342111584971261
0.154764508476928,-0.372628631127639
0.162985540940244,-0.341481376654931
0.12042502491503,-0.314539642955508
0.1498483062751,-0.348354734688794
0.128820959865885,-0.307021595820495
0.129631830422096,-0.292217915571204
0.115980589864479,-0.295687840744994
0.0707920446631695,-0.303439549483152
0.103444193173214,-0.284535004690946
0.097288801123611,-0.279026330990858
0.0823625285116697,-0.282724645451317
0.0683240364329937,-0.262735066819164
0.0792681684216093,-0.262770805729002
0.0875883024955136,-0.234024633136221
0.059977744138548,-0.265403422359642
0.0619059078495204,-0.246920181653434
0.0562625830120719,-0.241726431098236
0.050690516721065,-0.23657750907396
0.0451892354983905,-0.231473375458161
-0.00600402699940129,-0.230821133896471
0.0306894689519871,-0.202884376124166
0.0411876527909757,-0.225999049765707
0.0234191144328973,-0.229903917620646
0.0187280336761733,-0.20662312922079
0.0136415198231953,-0.201786883484531
-0.00749569915641264,-0.198673768166062
0.00367043080382967,-0.192247874543674
0.0165635208146248,-0.21460133971136
-0.0283359445477352,-0.197964296766293
0.00181758266653472,-0.140846510683933
-0.00617834972749468,-0.207608628626591
-0.02466141718542,-0.164695819158417
-0.0464301974766882,-0.179188095794047
-0.0293837261305951,-0.148176925308652
-0.042269344869631,-0.147212048637139
-0.0465156706347754,-0.142951271518027
-0.050700680893775,-0.138734480358509
-0.00424090476476619,-0.126649224281562
-0.0468686656853045,-0.106531235336441
-0.0668370364305155,-0.122306372867498
-0.0502549355677817,-0.0859088671875382
-0.0745496315928621,-0.11435519169601
-0.0819875651409739,-0.10990526007785
-0.0889085994938597,-0.151752099610494
-0.0856846993363135,-0.102756107901308
-0.0752684957544317,-0.090067514504647
-0.0299041039113777,-0.0655208802908266
-0.0963105405543079,-0.0915492867229805
-0.0997415357413817,-0.0879006618957706
-0.103117844115842,-0.0842954613139367
-0.111400425312165,-0.0781797630196832
-0.109708294339361,-0.0772151723966208
-0.0959379277997477,-0.0737859883843283
-0.165262602374744,-0.046480317194976
-0.130127079694621,-0.0440460605769516
-0.122253786071852,-0.0635739201189583
-0.114912597670476,-0.0821191652049833
-0.128216403230575,-0.0570123147995049
-0.161738226988447,-0.0462478918210693
-0.133977318350783,-0.0506229620535659
-0.121021064937384,-0.0636127872697515
-0.129351996970355,-0.0578656726924101
-0.143166332041113,-0.0360005579559685
-0.152646978374291,-0.0226174772343958
-0.141363253390374,-0.0243741562777589
-0.152606804439836,-0.0296120823169021
-0.155079714943963,-0.0267816572138849
-0.115723850713951,-0.0337105765195562
-0.16222619599757,-0.0185461929286774
-0.167629623573857,-0.00850835009344415
-0.166768376098759,-0.013268658033968
-0.187492174894425,-0.016367681983975
-0.201149222492922,-0.00245531952018211
-0.144563732740233,0.00646873473058782
-0.195411644496731,0.00165667627999522
-0.171801154958979,-0.0279556086003547
-0.179370307590112,0.0015461592071891
-0.207438237386216,0.0109005722151338
-0.183242041232742,0.00614623907176219
-0.20076934482198,0.01165982752884
-0.206968836059972,-0.0105566785400747
-0.190514870185522,0.0148410358545094
-0.192237789726754,0.0169096851506208
-0.196717434754148,0.0240864047740815
-0.20875129520758,0.0274469700987849
-0.197185433527494,0.0228641552390805
-0.211307220893482,-0.00609170898394146
-0.201811348134092,0.0284422511990561
-0.21477030845441,0.016005918697455
-0.204722865805426,0.0319524200669154
-0.181521074993931,0.0233305875803308
-0.215754434002138,0.0290571899325126
-0.222015139583027,0.0774188182462926
-0.188127855254247,0.066307451866909
-0.200900705804302,0.0799365485795521
-0.213886555878572,0.0429291273680041
-0.210898767180551,0.0542129340147533
-0.249838028302277,0.0492693517345152
-0.217353392798138,0.0470125598739689
-0.21845108276732,0.048291215524138
-0.201565672927128,0.0223987881035526
-0.221577014356377,0.0518802786334061
-0.217328180165978,0.0635295457040687
-0.196685111881673,0.0745946204786441
-0.216764664663292,0.100759840536908
-0.227354023232557,0.0809927380737883
-0.228070270919117,0.061298413357181
-0.186467714665328,0.0326781508845979
-0.227956644230358,0.0588196358614711
-0.228770483072191,0.0596475469725403
-0.220932614112112,0.0945131420855833
-0.245667706925192,0.0766143955250357
-0.206835837923058,0.0786103923602632
-0.198220222629752,0.0546675729260208
-0.23250469015427,0.0631768643525178
-0.250175983946253,0.0361478168815341
-0.251382903155324,0.06736408317834
-0.23648266390965,0.0379318548660443
-0.250532812514108,0.0561663346727865
-0.230903812960624,0.0485604360958318
-0.250537831011409,0.0919963276646118
-0.258856425963012,0.0776484869699501
-0.204840734734433,0.0713735594469895
-0.238770133279709,0.0334818940023571
-0.267068419483655,0.0716526469147522
-0.266477281983731,0.0788917332901083
-0.239478643290053,0.0675221614077882
-0.240410068047628,0.0676837497620157
-0.245028690957962,0.073012201695007
-0.229184701191469,0.0320762618982156
-0.242884268934901,0.067210429578649
-0.243254929900884,0.0669922434020361
-0.227015559365737,0.0557016762434813
-0.255027178445518,0.0699651172596945
-0.244957904066374,0.0653067220968289
-0.271557284279728,0.0402280234304992
-0.278383469366389,0.0796127504501063
-0.21228497834852,0.0852633284081895
-0.270158328203617,0.0659049970046497
-0.267695414324133,0.0430893695226206
-0.247276413782374,0.0605583775915198
-0.247541014378141,0.0597881425443683
-0.255839965406849,0.063459742915394
-0.240100855880892,0.056349728419141
-0.217831037747572,0.0507321225987378
-0.287317567445588,0.0541321606330669
-0.248813117095527,0.0553508025997432
-0.273761302593277,0.0787250548336695
-0.254607761315731,0.029286392057202
-0.239594179709371,0.0622156508669106
-0.250043788203855,0.0499401993643875
-0.260728077450379,0.0572670424275095
-0.248670880134799,0.0630766657040724
-0.243661502465489,0.0720234114175477
-0.260721611081883,0.0232181375262885
-0.251549235957141,0.0421698294883697
-0.252074409400464,0.039271364745679
-0.22765149965608,-0.0153590366406364
-0.243419510520366,0.0238320978008303
-0.252897087893668,0.0346357008888405
-0.253182519524699,0.0330138489615903
-0.208503548545527,0.0309725855869776
-0.254392899464889,0.0261443579762478
-0.276645612604339,-0.0210714362227668
-0.252392707697663,0.0269024163169015
-0.274028325763038,0.00987675527986814
-0.241965866176951,0.0544289550588729
-0.256095855434477,0.0167008160561128
-0.307281799826969,0.00570942318988333
-0.243766693065477,0.0435731271661926
-0.291373738553676,-0.00337503839198845
-0.241550816917439,-0.0118944766725982
-0.275542645734097,0.01072017656432
-0.228132570417539,-0.00417814869452088
-0.29015398905013,0.00982628870567416
-0.297104442131925,-0.0445889823415318
-0.219030439040151,0.00594253927065888
-0.261382260532646,-0.00981864491474642
-0.213172122649099,-0.0349695231750528
-0.290435081744754,-0.0156338167992103
-0.263039437370174,-0.0172928506943364
-0.250607402530959,-0.0148654586033121
-0.256942626760064,-0.0304419326267827
-0.261977802038251,-0.0302797289290364
-0.252745460840141,-0.0482387990104673
-0.246776286620833,-0.0314325126939547
-0.264828459819652,-0.0195421021062977
-0.284566101557943,-0.0383744545335687
-0.259520846572163,-0.0346348015035257
-0.249105577690936,-0.0603706386035454
-0.270580134314992,-0.0475610177901752
-0.229857850026692,-0.0590176405498928
-0.272231231242107,-0.0535448598127543
-0.269121762094602,-0.0861522442667774
-0.236797777573222,-0.062239818245597
-0.248672042579007,-0.0842042283382699
-0.304312328491233,-0.0522631742302024
-0.277773526608017,-0.0723774360337378
-0.282379135191837,-0.0874306544218083
-0.26215986865983,-0.0784726623806024
-0.277616807790167,-0.048926888335746
-0.317128358722914,-0.0693061865054975
-0.298532575284935,-0.0836477131858237
-0.287511234950272,-0.0591769199785874
-0.286679009921881,-0.0995313381159651
-0.287924650427806,-0.103088907086323
-0.293137377770175,-0.100631751980775
-0.290313000973584,-0.128415173515898
-0.271184371448208,-0.0756416224707443
-0.293222074484452,-0.117680402573131
-0.294627513397396,-0.121418380733955
-0.296066332426072,-0.125192320365541
-0.320466341598344,-0.131775989596047
-0.285229197326156,-0.123104996749771
-0.313598365357077,-0.150618396425471
-0.314588821057409,-0.159833171509824
-0.271750166662147,-0.129271232907227
-0.30711248102849,-0.152613448682631
-0.316316664927199,-0.16726946572388
-0.298288065203948,-0.179367124189812
-0.323551974728916,-0.160063819521626
-0.337224973895925,-0.182681474535805
-0.312128979692198,-0.192530559713295
-0.349595096536884,-0.184421777328575
-0.318666265039245,-0.214786096907996
-0.330375841845479,-0.203676489959469
-0.332581693591766,-0.208161233292994
-0.344270269225821,-0.231110931003238
-0.34509878083927,-0.195976349583519
-0.349262218958709,-0.240535518954932
-0.405665637690437,-0.247882956007157
-0.375156468620482,-0.293051377932582
-0.373311334627049,-0.273461267724386
-0.395411123808649,-0.246409952869036
-0.376566087946287,-0.29615873070476
-0.379485122211986,-0.296657065734047
-0.377095974288334,-0.289742321661777
-0.386426317169071,-0.305177705993747
-0.389641385594937,-0.310391520502095
-0.390949204243129,-0.330100326144974
-0.448852362149724,-0.282052284082747
-0.405482080553399,-0.304017720442393
-0.46048922445479,-0.322884129614352
-0.395850975910672,-0.308782906382675
-0.413664832847258,-0.347845712390622
-0.408463003908893,-0.324653774913264
-0.421030797635535,-0.35885347114869
-0.421341139245809,-0.320064069689365
-0.410821631456578,-0.397390180577367
-0.485147243183322,-0.394671598185625
-0.451022459585322,-0.389479071163565
-0.419304374179885,-0.371005845374184
-0.443464677814571,-0.419912925638952
-0.460451629148893,-0.422691788833775
-0.465758381226221,-0.421812476720524
-0.470191470177906,-0.427737668405817
-0.483871886365135,-0.445713685512589
-0.528847260644148,-0.472711465235401
-0.507648301421506,-0.438606313259588
-0.503019466239269,-0.470147908535786
-0.511309108270613,-0.491074748111007
-0.517194545062022,-0.476352553106954
-0.523231423447624,-0.495112577953686
-0.524005114336998,-0.464591218853368
-0.565601680085875,-0.502414175081251
-0.58105028808254,-0.518714535677142
-0.555611353697134,-0.533548551928423
-0.593342657584287,-0.528322905401861
-0.540379627643258,-0.52892285804669
-0.572756914787927,-0.553209228184357
-0.581463006080659,-0.531037503378519
-0.555439599995841,-0.627572448747441
-0.596637375656846,-0.579880114264724
-0.59326176020412,-0.567478029027836
-0.609023148446358,-0.593410542703392
-0.61532907760326,-0.600224362843793
-0.623060186825847,-0.629951998076799
-0.621710999905739,-0.60707053343498
-0.628072137591526,-0.613881157545892
-0.621079831491947,-0.640299060815319
-0.623365531403467,-0.613576210528305
-0.616045698917453,-0.612872289048108
-0.658127681195406,-0.646396288603992
-0.66310086196852,-0.679869624148552
-0.6989722598435,-0.641126040325169
-0.654197729542943,-0.681636687783038
-0.680107993569263,-0.670589326953043
-0.671614138791872,-0.703281599915274
-0.714511251191719,-0.674971195889038
-0.678942473250636,-0.686032979805525
-0.703707697709925,-0.675392200019169
-0.680706700125469,-0.682073922573705
-0.742769646447226,-0.709835000644084
-0.72302202448664,-0.685806705191672
-0.717779083630481,-0.752537159132887
-0.735444051653384,-0.733763788075049
-0.73935948262296,-0.738407833943834
-0.763463505170212,-0.734939244961278
-0.712784544460828,-0.759561412437411
-0.757384774690299,-0.760235938732047
-0.747109975158566,-0.768661071580768
-0.766980090474764,-0.772235014499393
-0.780597315905637,-0.816120296436342
-0.797475780709017,-0.800335498685969
-0.783422979098143,-0.796252253216638
-0.776015931601724,-0.785112080240996
-0.780024460608904,-0.80292488866059
-0.788235781793219,-0.800311056671934
-0.805562146523667,-0.805367037940094
-0.796572920501298,-0.812263123260083
-0.769496966987877,-0.803850780238348
-0.79790477958377,-0.830866702056312
-0.795009022860511,-0.839167913747839
-0.806323398716945,-0.827663342714607
-0.813693345845274,-0.810750052082036
-0.809993934392656,-0.834251764125261
-0.822099042596387,-0.842699773518135
-0.813675111733134,-0.841910279623135
-0.798165789566443,-0.857187682893961
-0.814842277893825,-0.882142268746866
-0.795950607564368,-0.827147162530062
-0.841060067961304,-0.862362880511844
-0.840244485062463,-0.837648076577238
-0.816889732511915,-0.852295469547795
-0.842151717472963,-0.820779607583815
-0.808674052812738,-0.874244918361743
-0.851611391995303,-0.863834902990269
-0.818406931970633,-0.855409425184372
-0.803376657011244,-0.901522665449636
-0.796401797712751,-0.855013036642928
-0.814714040517719,-0.860733076485806
-0.801396566951164,-0.900413492690651
-0.813369083678005,-0.861550890493349
-0.804138613726756,-0.870891875313453
-0.801277092373547,-0.85269935965147
-0.78266562677887,-0.880266711307569
-0.816582228198936,-0.865725435407961
-0.823146568783087,-0.818493440185851
-0.808459667383319,-0.852177583540948
-0.799377395436753,-0.869907215838589
-0.811348958538102,-0.881832235859441
-0.785294825023228,-0.845329275622441
-0.780747333636041,-0.810108187473817
-0.794304567191565,-0.858951066817101
-0.831315576393354,-0.865480529618949
-0.783907816983033,-0.840292904194049
-0.788340651944609,-0.867315318272964
-0.778119713282365,-0.851601604151242
-0.781383503993289,-0.840681107318548
-0.763391977961039,-0.856016679856856
-0.753975870491255,-0.855340314975748
-0.732954723312685,-0.84358005421944
-0.7608397368993,-0.842000146015594
-0.736591291222485,-0.824306660790111
-0.757951537522726,-0.798877456434942
-0.740865320366362,-0.829598218843713
-0.707331146926626,-0.843683563977306
-0.75335653334164,-0.842581938837845
-0.717336757100668,-0.836037055048206
-0.744503637816815,-0.807149432330471
-0.725062385140343,-0.819109109400568
-0.721756059721449,-0.816853974703108
-0.724943074202341,-0.829239881472039
-0.678604282922863,-0.817024353101403
-0.725689720106114,-0.819315128192901
-0.69421410605876,-0.829900574738197
-0.68994824764913,-0.794297523662202
-0.660211155313451,-0.801680036891273
-0.677260212114622,-0.770766347455655
-0.657399742272038,-0.792215920344157
-0.65065713300598,-0.76474312793102
-0.594902658888145,-0.776198641207566
-0.617598956445513,-0.752861602837289
-0.620989809031704,-0.741469777990941
-0.627234614058255,-0.755574466820863
-0.612220420755554,-0.734454394603408
-0.611700857037545,-0.749671764101557
-0.603329618349034,-0.72728289195403
-0.588399387593186,-0.70256098947721
-0.593455338132649,-0.704682115111779
-0.585202998494654,-0.71248567334884
-0.578672815963821,-0.703964612352653
-0.571325072365128,-0.701004246223435
-0.549941881396535,-0.667262783320525
-0.545159251154023,-0.713553992301818
-0.542997123576199,-0.702546060957314
-0.542911905489772,-0.677106930997596
-0.565010454681483,-0.671466059166228
-0.528409110896681,-0.664714911705646
-0.533742591365453,-0.676566100743459
-0.476471562274856,-0.620866001824444
-0.53685440576184,-0.65444797421051
-0.49282077342008,-0.621976138138814
-0.498892214781522,-0.6391038217849
-0.485887533130365,-0.62653625887446
-0.502037805662059,-0.621236330176515
-0.480370144684732,-0.627389968842626
-0.469558264724202,-0.588971340212226
-0.430921809466625,-0.624757207167569
-0.439620843629723,-0.612643329096427
-0.438267440973645,-0.584907599914808
-0.423943682503068,-0.569696668896909
-0.401001991978409,-0.556281160835208
-0.407419132502841,-0.556513418433341
-0.40225633104601,-0.551706848279188
-0.413967886698915,-0.551261342812721
-0.391917778643016,-0.54203408047085
-0.39172490150245,-0.52582354452384
-0.40657540724693,-0.510254295839671
-0.366575498898939,-0.51291920450825
-0.386481162020426,-0.506752703479566
-0.350479034526407,-0.502612804766303
-0.333511106568462,-0.504498330069041
-0.334947596109162,-0.487560221103223
-0.365686440317222,-0.450514800646646
-0.320496046729284,-0.479207619409669
-0.333159979241296,-0.465372355408379
-0.298850914553433,-0.451958459058589
-0.249394328774909,-0.445955733368256
-0.2578554425931,-0.424671291477099
-0.268195602859059,-0.421000784808771
-0.275391696195789,-0.449260920413043
-0.264888842033224,-0.388013388747416
-0.221143942752989,-0.355001158924
-0.227966190501006,-0.379262663887055
-0.234427202913289,-0.374101663983498
-0.212708792266699,-0.3704386383036
-0.208214151639284,-0.358259587044175
-0.215421589750605,-0.318304926380939
-0.174238223923738,-0.352101304654773
-0.160182476171325,-0.301962066487819
-0.146397132100321,-0.3004384657083
-0.150870160717852,-0.295053758485897
-0.157565128477318,-0.3008951244623
-0.114205291062188,-0.267334558614953
-0.128002099400377,-0.26876246045473
-0.1190503804732,-0.258272860699983
-0.114618818485436,-0.253035597337724
-0.112998577226438,-0.247662935640483
-0.124364289912931,-0.243107365979984
-0.109845724563621,-0.250613344649446
-0.116230832752896,-0.231237694433284
-0.125471281677312,-0.212296416027125
-0.117479139075696,-0.186994417164843
-0.0599875076493861,-0.185622913478285
-0.0805074882518514,-0.183594287976853
-0.0675162025281464,-0.185075158785801
-0.0368673451769764,-0.155098092896745
-0.0294882074686508,-0.145030533725905
-0.0121386537692284,-0.144614475532004
-0.0122009726187045,-0.0789678357073671
0.00886718804661463,-0.100552070374364
0.00152245195189481,-0.100514922736617
0.00955039653876332,-0.0753477261612881
0.0191405312740082,-0.0785296984295634
0.0167146303233346,-0.0817005368651967
0.043180164464273,-0.0713625199904493
0.0460607648969581,-0.0462509848419686
0.0427959539021776,-0.0720735885842407
0.0324654567945931,-0.0593604155508736
0.0277237663180587,-0.0123017921818377
0.0490568251288233,-0.0208615601494221
0.0750679972079106,0.0126751707571183
0.0578906747510133,-0.00314745857317594
0.055023759134266,-0.00159595682757574
0.0732212252586812,0.0177728959220987
0.0807691568317833,-0.00522726069634091
0.0693001407260439,0.0225701596835337
0.0709791881000214,0.0267511778882852
0.0777718670231811,0.0239521562272597
0.0756228326337281,0.0391049610521858
0.0751938949330709,0.0301811427959128
0.0907023284200029,0.0499008261319059
0.0850144853195471,0.0705825975515999
0.12755182455603,0.0893817743582873
0.132183864572081,0.0799425711945302
0.123224816900262,0.059637063236976
0.0894736288154754,0.0962373464377243
0.0899979109673859,0.123195809076644
0.0756200833285927,0.137944507693131
0.0780725764628494,0.121319264083981
0.0792653949055283,0.12381265450821
0.0883399693945524,0.13566335397085
0.0870141540148885,0.141631828392426
0.0952072604794921,0.178958987187666
0.0706682580230669,0.198957737649797
0.0707421904366118,0.144002721818627
0.0923624189438284,0.179167707753186
0.0499266387147815,0.174161894055813
0.0869961885836304,0.185306894981892
0.0547855922577753,0.187954615353641
0.0291108998236398,0.179717314156107
0.054392735541975,0.190746203125665
0.0475855484330046,0.182588952691838
0.0420742033656511,0.188683440651271
-0.00108658076117479,0.175924914058686
0.0301309623520613,0.175047306008394
0.0174343070624391,0.181240513129949
-0.00371961205067321,0.216277093122845
-0.0034727315237676,0.215575419789533
0.00398854661177188,0.187994120151379
-0.0214577160376154,0.218904552019269
-0.0311020733953183,0.220189780245848
-0.0592387651101947,0.224182821120935
-0.0234179906449152,0.251964188380909
-0.0463969600381548,0.221633504888487
-0.0609597246536023,0.224043053144225
-0.0741374297049907,0.222719264435476
-0.0860347846893382,0.222681097704834
-0.0921575442682934,0.222559002590459
-0.0983971597113431,0.22236764362342
-0.134171129945338,0.210805066262192
-0.152491981872456,0.218315917243864
-0.157828543204101,0.204808409822762
-0.197188055467047,0.216233186848891
-0.193398758375245,0.213455251075352
-0.223666585891508,0.21252017045663
-0.223776614584648,0.221977350337189
-0.260053419016224,0.193299774721944
-0.287735228137831,0.193450867793403
-0.299734819829424,0.194523281108477
-0.292278081722277,0.200176868340372
-0.299784247690401,0.159460124101652
-0.31919154927232,0.183186637362602
-0.321388531181567,0.213624811622784
-0.349809155349266,0.161034005674018
-0.34502331038642,0.13745555625155
-0.375090490727849,0.172705652342757
-0.379241412344656,0.171199495965292
-0.354912335560554,0.189574830727949
-0.406547679513227,0.160216983729275
-0.371323694674704,0.194185168448805
-0.433524386298001,0.149389637737141
-0.43234463016938,0.149425074160551
-0.423224112666329,0.140546049748128
-0.408110358366079,0.141811135446355
-0.437320275246845,0.145021639616564
-0.461904359953775,0.157382477632286
-0.443522960628163,0.141489555306062
-0.44915914694854,0.125928075962356
-0.456813213175013,0.114660936582342
-0.491223877552188,0.16515856667325
-0.480846967035695,0.115309034383345
-0.493755856582317,0.103368118513041
-0.499557560413487,0.0972494467260813
-0.51343437232583,0.0648767147421368
-0.504938663452299,0.0910368150914272
-0.502265944731968,0.0781093211435994
-0.513002159014167,0.0804835077527357
-0.517315046004384,0.074038097609325
-0.518667566582595,0.0718715315026295
-0.519978207018011,0.0696961418751382
-0.542818758551197,0.0515499275900218
-0.551273251280552,0.0324560216263434
-0.536869291902538,0.029183870440949
-0.545431728670126,-0.0188009728907667
-0.536684454934272,0.0344137453312035
-0.552815262248018,0.032526716385913
-0.542680942432257,-0.0133579765807219
-0.571429943746487,0.0056534385413639
-0.543288778433847,-0.0340173487804339
-0.513358147937466,-0.0370705016701435
-0.538911802003502,-0.0639437036384701
-0.515595124894007,-0.0411181911431795
-0.530682186160583,-0.109970749703229
-0.529489597131445,-0.0733157589241814
-0.544164718862519,-0.0793215171703462
-0.497766630459384,-0.102276055306829
-0.55346990891136,-0.111581577128548
-0.508063191698059,-0.0673825451489386
-0.528502610043075,-0.108751429797736
-0.560408702858574,-0.105698464100134
-0.532139713796355,-0.102801669566261
-0.54539727118809,-0.120613310994543
-0.516081235774475,-0.138804434377413
-0.52207624329072,-0.127262310003808
-0.517989066611988,-0.146632553729385
-0.514790209557833,-0.15253748399008
-0.511490001528036,-0.162126471969446
-0.525639169323421,-0.199822579178108
-0.557713289788366,-0.192815501190098
-0.547475492060619,-0.159311639296324
-0.504815761234351,-0.182446081081
-0.523204306453407,-0.196189068285526
-0.513659537522063,-0.146263444929834
-0.499769929899457,-0.203133045363075
-0.493716020987268,-0.181162916791308
-0.498590565679023,-0.199033650640017
-0.493390796361122,-0.213382761628764
-0.472777314000735,-0.2439729441601
-0.515551462745496,-0.246186766726012
-0.464176061388262,-0.259477871512975
-0.505964082996026,-0.231663245270314
-0.457076897992109,-0.229098643039116
-0.518264083999345,-0.282640250279503
-0.482634662808016,-0.246380297651615
-0.504339402892637,-0.249359053119136
-0.479617840370657,-0.256933843197429
-0.481944102261224,-0.258965019734365
-0.493180549837225,-0.301954329614628
-0.474492183700311,-0.276247633908664
-0.413585068485733,-0.250340949034146
-0.46877662651273,-0.282057304730147
-0.45299803149109,-0.312909935395695
-0.487976165296043,-0.295421039591829
-0.474674910226465,-0.309597682914309
-0.470966706348101,-0.310920307381587
-0.459153776062478,-0.360920930388581
-0.417757744525089,-0.315101281856861
-0.446800875395015,-0.34647482592889
-0.489252655086986,-0.336371026273076
-0.500841228118255,-0.374684439208426
-0.473618767274077,-0.334808700929566
-0.480646056897562,-0.37685103759233
-0.488787625359259,-0.3616388145591
-0.489930707841168,-0.362834694874405
-0.494006793213177,-0.367397693133649
-0.52870769278298,-0.366661370119664
-0.49984510408611,-0.394216164050722
-0.55363478670621,-0.423326295088064
-0.562413170648763,-0.372404345387407
-0.572985485860695,-0.365136654369927
-0.581241527353435,-0.351501832979526
-0.56259902391084,-0.38811538983223
-0.55277411939592,-0.38460270377251
-0.59451509384703,-0.3861269257134
-0.59149412266271,-0.42999817229826
-0.603139683748993,-0.396103608420966
-0.621996054593094,-0.39637361653369
-0.636910449993029,-0.411322559823897
-0.646676158367753,-0.395844885980761
-0.670662748043718,-0.398327267842119
-0.749233049883279,-0.390340134496479
-0.776854652704924,-0.379986366805188
-0.757898422077985,-0.393658548238013
-0.733846271344205,-0.406707312819787
-0.839718372287711,-0.372738001707471
-0.828254292369491,-0.394573397766332
-0.828823225536462,-0.381996997406168
-0.858129794115665,-0.387604833603111
