-0.921647914638557,0.366293801422415
-0.915986484441535,0.339155276385367
-0.90973927290435,0.312851764018834
-0.902917698429475,0.287375821368095
-0.895533179419382,0.262720005478429
-0.887597134276541,0.238876873395116
-0.879120981403423,0.215838982163434
-0.870116139202502,0.193598888828663
-0.860594026076249,0.172149150436081
-0.850566060427133,0.151482324030968
-0.840043660657629,0.131590966658603
-0.829038245170207,0.112467635364264
-0.817561232367338,0.094104887193232
-0.805624040651494,0.0764952791907849
-0.793238088425147,0.0596313684022019
-0.780414794090769,0.0435057118727623
-0.76716557605083,0.028110866647745
-0.753501852707803,0.0134393897724293
-0.739435042464158,-0.000516161707905777
-0.724976563722369,-0.0137632307479812
-0.710137834884905,-0.0263092603025177
-0.694930274354239,-0.0381616933262364
-0.679365300532843,-0.049327972773858
-0.663454331823187,-0.0598155416001035
-0.647208786627744,-0.0696318427596938
-0.630640083348985,-0.0787843192073497
-0.613759640389381,-0.0872804138977922
-0.596578876151404,-0.0951275697857423
-0.579109209037526,-0.102333229825921
-0.561362057450219,-0.108904836973048
-0.543348839791953,-0.114849834181846
-0.525080974465201,-0.120175664407035
-0.506569879872433,-0.124889770603336
-0.487826974416122,-0.12899959572547
-0.468863676498739,-0.132512582728158
-0.449691404522756,-0.13543617456612
-0.430321576890644,-0.137777814194078
-0.410765612004875,-0.139544944566752
-0.39103492826792,-0.140745008638864
-0.371140944082251,-0.141385449365134
-0.35109507785034,-0.141473709700283
-0.330908747974657,-0.141017232599032
-0.310593372857676,-0.140023461016102
-0.290160370901866,-0.138499837906215
-0.2696211605097,-0.136453806224089
-0.24898716008365,-0.133892808924448
-0.228269788026186,-0.130824288962011
-0.207480462739781,-0.1272556892915
-0.186630602626906,-0.123194452867635
-0.165731626090032,-0.118648022645137
-0.144794951531632,-0.113623841578728
-0.123831997354176,-0.108129352623127
-0.102854181960137,-0.102171998733057
-0.0818729237519856,-0.0957592228632372
-0.0608996411321936,-0.0888984679683894
-0.0399457525032326,-0.0815971770032343
-0.0190226762675741,-0.0738627929224927
0.00185816917231024,-0.0657027586808856
0.0226853654139488,-0.057124517233134
0.0434474940548702,-0.0481355115339586
0.0641331366926027,-0.0387431845380804
0.0847308749246748,-0.0289549792002202
0.105229290348615,-0.018778338475099
0.125616964561952,-0.00822070531743775
0.145882479162213,0.00271047731804275
0.166014415746928,0.0140077664766216
0.186001355913625,0.0256637192035778
0.205831881259831,0.0376708925441906
0.225494573383077,0.050021843543739
0.244978013880889,0.0627091292475021
0.264270784350797,0.075725306700759
0.283361466390329,0.0890629329487889
0.302238641597014,0.102714565036871
0.320890891568379,0.116672760010284
0.339306797901953,0.130930074914307
0.357474942195265,0.14547906679422
0.375383906045843,0.1603122926953
0.393022271051216,0.175422309662829
0.410378618808911,0.190801674742084
0.427441530916458,0.206442944978345
0.444199588971385,0.222338677416891
0.46064137457122,0.238481429103
0.476755469313492,0.254863757081953
0.492530454795729,0.271478218399027
0.507954912615459,0.288317370099503
0.523017424370212,0.30537376922866
0.537706571657514,0.322639972831775
0.552010936074896,0.34010853795413
0.565919099219885,0.357772021641001
0.57941964269001,0.37562298093767
0.592501148082799,0.393653972889414
0.60515219699578,0.411857554541514
0.617361371026482,0.430226282939247
0.629117251772434,0.448752715127893
0.640408420831164,0.467429408152732
0.6512234598002,0.486248919059042
0.661550950277071,0.505203804892102
0.671379473859305,0.524286622697193
0.680697612144431,0.543489929519591
0.689493946729977,0.562806282404577
0.69574189510855,0.577363256144441
0.703502795324798,0.596482474832507
0.710535790575967,0.614947889793575
0.716851818563787,0.632763651166721
0.722461816989987,0.649933909091022
0.727376723556297,0.666462813705557
0.731607475964446,0.682354515149403
0.735165011916166,0.697613163561636
0.738060269113184,0.712242909081335
0.740304185257232,0.726247901847577
0.741907698050038,0.739632291999439
0.742881745193334,0.752400229675998
0.743237264388847,0.764555865016331
0.742985193338309,0.776103348159517
0.742136469743449,0.787046829244632
0.740702031305997,0.797390458410754
0.738692815727682,0.80713838579696
0.736119760710235,0.816294761542327
0.732993803955385,0.824863735785933
0.729325883164862,0.832849458666856
0.725126936040395,0.840256080324172
0.720407900283715,0.847087750896959
0.715179713596551,0.853348620524294
0.709453313680633,0.859042839345255
0.703239638237691,0.864174557498918
0.696549624969455,0.868747925124362
0.689394211577654,0.872767092360664
0.681784335764018,0.876236209346901
0.673730935230277,0.879159426222149
0.66524494767816,0.881540893125488
0.656337310809399,0.883384760195994
0.647018962325721,0.884695177572744
0.637300839928858,0.885476295394816
0.627193881320538,0.885732263801287
0.616709024202492,0.885467232931235
0.605857206276449,0.884685352923736
0.59464936524414,0.883390773917868
0.583096438807293,0.881587646052709
0.571209364667639,0.879280119467336
0.558999080526908,0.876472344300826
0.546476524086829,0.873168470692257
0.533652633049132,0.869372648780706
0.520538345115547,0.86508902870525
0.507144597987803,0.860321760604966
0.493482329367631,0.855074994618933
0.47956247695676,0.849352880886227
0.46539597845692,0.843159569545925
0.45099377156984,0.836499210737106
0.436366793997251,0.829375954598846
0.421525983440883,0.821793951270223
0.406482277602464,0.813757350890314
0.391246614183726,0.805270303598196
0.375829930886397,0.796336959532947
0.360243165412207,0.786961468833645
0.344497255462887,0.777147981639366
0.328603138740165,0.766900648089188
0.312571752945772,0.756223618322188
0.296414035781438,0.745121042477443
0.280140924948892,0.733597070694032
0.263763358149864,0.721655853111031
0.247292273086084,0.709301539867517
0.230738607459282,0.696538281102568
0.214113298971187,0.683370226955262
0.19742728532353,0.669801527564676
0.180691504218039,0.655836333069886
0.163916893356445,0.641478793609971
0.147114390440477,0.626733059324008
0.130294933171866,0.611603280351074
0.113469459252341,0.596093606830246
0.0966489063836319,0.580208188900602
0.0798442122674684,0.563951176701219
0.0630663146055803,0.547326720371175
0.0463261510996975,0.530338970049547
0.0296346594515495,0.512992075875412
0.0130027773628664,0.495290187987847
-0.00355855746462218,0.47723745652593
-0.0200384073291864,0.458838031628739
-0.0364258345290966,0.44009606343535
-0.0527099013626228,0.421015702084842
-0.0688796701280355,0.40160109771629
-0.0849242031236046,0.381856400468774
-0.100832562647601,0.361785760481369
-0.116593810998293,0.341393327893154
-0.132197010473954,0.320683252843205
-0.147631223372851,0.299659685470601
-0.162885511993257,0.278326775914418
-0.17794893863344,0.256688674313734
-0.192810565591671,0.234749530807626
-0.20745945516622,0.212513495535171
-0.221884669655359,0.189984718635447
-0.236075271357356,0.167167350247532
-0.250020322570481,0.144065540510502
-0.263708885593006,0.120683439563435
-0.277130022723201,0.0970251975454086
-0.290272796259335,0.0730949645954996
-0.303126268499679,0.0488968908527856
-0.315679501742503,0.0244351264563439
-0.327921558286078,-0.000286178454748091
-0.339841500428673,-0.0252628737414131
-0.351428390468558,-0.0504908092645736
-0.359893412844873,-0.0695741407441057
-0.37069543555948,-0.0947564119315954
-0.380795834460933,-0.119231321698645
-0.390203054203719,-0.142999982176619
-0.398925539442326,-0.16606350549688
-0.406971734831242,-0.188423003790792
-0.414350085024956,-0.210079589189719
-0.421069034677955,-0.231034373825025
-0.427137028444726,-0.251288469828072
-0.432562510979759,-0.270842989330225
-0.437353926937541,-0.289699044462847
-0.441519720972559,-0.307857747357302
-0.445068337739303,-0.325320210144954
-0.448008221892259,-0.342087544957166
-0.450347818085915,-0.358160863925301
-0.45209557097476,-0.373541279180724
-0.453259925213282,-0.388229902854798
-0.453849325455968,-0.402227847078887
-0.453872216357307,-0.415536223984354
-0.453337042571786,-0.428156145702563
-0.452252248753893,-0.440088724364877
-0.450626279558117,-0.451335072102661
-0.448467579638944,-0.461896301047278
-0.445784593650864,-0.471773523330091
-0.442585766248363,-0.480967851082464
-0.438879542085931,-0.489480396435761
-0.434674365818054,-0.497312271521345
-0.429978682099222,-0.50446458847058
-0.424800935583921,-0.51093845941483
-0.41914957092664,-0.516734996485458
-0.413033032781866,-0.521855311813828
-0.406459765804088,-0.526300517531303
-0.399438214647793,-0.530071725769248
-0.39197682396747,-0.533170048659025
-0.352905521476077,-0.563728273251699
-0.394252602399627,-0.507720107146308
-0.367038061327208,-0.53843882655299
-0.35790175909565,-0.538856729363735
-0.317210151815503,-0.550657906221327
-0.309584304688633,-0.496123329651259
-0.286247724473143,-0.495619284089393
-0.302993148404053,-0.532315434102353
-0.291287777639422,-0.551620374366136
-0.307549935647518,-0.57635947636598
-0.318719211689646,-0.476744228833628
-0.271686468644975,-0.549686023966435
-0.258795666228679,-0.512721699313365
-0.215259199315906,-0.457217000059045
-0.23301758593099,-0.499654899552888
-0.185561265063407,-0.44877167765157
-0.206020605424414,-0.483967734807013
-0.16782898400543,-0.438498790453065
-0.146319003806419,-0.4171268067144
-0.163387478226427,-0.455543265639447
-0.189085124654791,-0.418618506315254
-0.133638810104712,-0.433344113027809
-0.0921599773443858,-0.447083164893944
-0.145402360243684,-0.378314178128864
-0.120739786535668,-0.43917877452293
-0.101386991864961,-0.348748356881074
-0.0551167030148598,-0.366537833078512
-0.045456839680621,-0.368526494967375
0.00521584164898503,-0.333734492059376
-0.0457735103139897,-0.324956004965717
0.0496946133501445,-0.334096057676085
0.0284901340341522,-0.283687911379576
0.0574486144084315,-0.230359175391971
0.0869888957000245,-0.229959658912545
0.117686317255121,-0.220727725310016
0.102377661445489,-0.164355780226382
0.120452100448626,-0.208971854441795
0.134043922849181,-0.16328613335133
0.18114479746641,-0.160385352492675
0.170202579427387,-0.118104246807484
0.188426543078769,-0.0945718155264919
0.250513471490801,-0.110366846741501
0.178837820270646,-0.0149713442466768
0.202406142073638,-0.0477423262481568
0.262089591494772,0.00580854659278751
0.288593606089242,0.0438252439522186
0.299263206826226,0.0597335400105228
0.272111944921637,0.0462526881816573
0.323830971283567,0.0739649831199816
0.355261239001744,0.145264522629064
0.373956833556522,0.175008666307639
0.392653145601956,0.205367864503473
0.411341730483558,0.236341005085202
0.43001414354684,0.267926975921462
0.448661940137314,0.30012466488089
0.467276675600492,0.332932959832121
0.485849905281886,0.366350748643793
0.504373184527009,0.400376919184541
0.522838068681372,0.435010359323002
0.541236113090488,0.470249956927813
0.559558873099868,0.506094599867609
0.577797904055025,0.542543176011028
0.59594476130147,0.579594573226704
0.613991000184716,0.617247679383276
0.631928176050275,0.655501382349379
0.649747844243658,0.694354569993649
