0.363699716487499,-0.258640071303059
-0.564009666491605,0.902332295831088
0.375329593416015,-0.921551719821777
0.116432985103793,-0.867427569588546
-0.14246362320843,-0.813303419355316
0.671277813952048,-0.878369816088029
0.640321324167291,-0.318504942456464
0.609364834382534,0.241359931175101
-0.0277379566737121,-0.18648934500164
-0.475525089378951,0.808390506578877
