0.513502577193817,0.385060377491341
0.513934530716932,0.386718374739735
0.514335096536113,0.388323032072
0.514704437723853,0.389874683633205
0.515042717352644,0.39137366356842
0.515350098494979,0.392820306022713
0.515626744223352,0.394214945141154
0.515872817610254,0.395557915068812
0.516088481728178,0.396849549950756
0.516273899649617,0.398090183932057
0.516429234447064,0.399280151157782
0.516554649193012,0.400419785773002
0.516650306959952,0.401509421922785
0.516716370820379,0.402549393752202
0.516753003846784,0.40354003540632
0.51676036911166,0.404481681030209
0.516738629687501,0.40537466476894
0.516687948646798,0.40621932076758
0.516608489062044,0.4070159831712
0.516500414005733,0.407764986124868
0.516363886550356,0.408466663773654
0.516199069768407,0.409121350262627
0.516006126732378,0.409729379736857
0.515785220514763,0.410291086341411
0.515536514188053,0.410806804221362
0.515260170824741,0.411276867521776
0.514956353497321,0.411701610387723
0.514625225278284,0.412081366964274
0.514266949240124,0.412416471396496
0.513881688455333,0.41270725782946
0.513469605996404,0.412954060408234
0.51303086493583,0.413157213277888
0.512565628346103,0.413317050583492
0.512074059299716,0.413433906470113
0.511556320869162,0.413508115082823
0.511012576126933,0.413540010566689
0.510442988145523,0.413529927066782
0.509847719997424,0.41347819872817
0.509226934755128,0.413385159695923
0.508580795491129,0.41325114411511
0.507909465277919,0.4130764861308
0.50721310718799,0.412861519888063
0.506491884293836,0.412606579531968
0.505745959667949,0.412311999207584
0.504975496382823,0.411978113059981
0.504180657510948,0.411605255234227
0.503361606124819,0.411193759875393
0.502518505296928,0.410743961128546
0.501651518099768,0.410256193138758
0.500760807605832,0.409730790051096
0.499846536887611,0.40916808601063
0.4989088690176,0.408568415162429
0.49794796706829,0.407932111651564
0.496963994112175,0.407259509623102
0.495957113221746,0.406550943222114
0.494927487469497,0.405806746593668
0.493875279927921,0.405027253882834
0.49280065366951,0.404212799234681
0.491703771766756,0.403363716794278
0.490584797292153,0.402480340706695
0.489443893318194,0.401563005117001
0.488281222917371,0.400612044170265
0.487096949162176,0.399627792011556
0.485891235125102,0.398610582785944
0.484664243878643,0.397560750638498
0.483416138495291,0.396478629714288
0.482147082047538,0.395364554158382
0.480857237607878,0.39421885811585
0.479546768248802,0.393041875731761
0.478215837042805,0.391833941151185
0.476864607062377,0.39059538851919
0.475493241380013,0.389326551980846
0.474101903068204,0.388027765681222
0.472690755199445,0.386699363765388
0.471259960846226,0.385341680378413
0.469809683081041,0.383955049665366
0.468340084976383,0.382539805771316
0.466851329604745,0.381096282841333
0.465343580038618,0.379624815020485
0.463816999350496,0.378125736453843
0.462271750612872,0.376599381286476
0.460707996898238,0.375046083663452
0.459125901279087,0.373466177729841
0.457525626827912,0.371859997630712
0.455907336617205,0.370227877511135
0.454271193719459,0.368570151516179
0.452617361207167,0.366887153790912
0.450946002152821,0.365179218480406
0.449257279628915,0.363446679729728
0.44755135670794,0.361689871683948
0.445828396462391,0.359909128488135
0.444088561964758,0.358104784287359
0.442332016287536,0.356277173226688
0.440558922503216,0.354426629451193
0.438769443684292,0.352553487105942
0.436963742903256,0.350658080336004
0.435141983232601,0.34874074328645
0.433304327744819,0.346801810102347
0.431450939512404,0.344841614928766
0.429581981607848,0.342860491910776
0.427697617103643,0.340858775193446
0.425798009072283,0.338836798921845
0.423883320586261,0.336794897241043
0.421953714718068,0.334733404296108
0.420009354540197,0.332652654232111
0.418050403125143,0.33055298119412
0.416077023545395,0.328434719327205
0.414089378873449,0.326298202776434
0.412087632181796,0.324143765686878
0.41007194654293,0.321971742203606
0.408042485029342,0.319782466471686
0.405999410713526,0.317576272636188
0.403942886667974,0.315353494842182
0.401873075965179,0.313114467234736
0.399790141677633,0.31085952395892
0.39769424687783,0.308588999159803
0.395585554638263,0.306303226982455
0.393464228031423,0.304002541571945
0.391330430129804,0.301687277073341
0.389184324005897,0.299357767631714
0.387026072732197,0.297014347392132
0.384855839381196,0.294657350499666
0.382673787025386,0.292287111099383
0.38048007873726,0.289903963336354
0.378274877589311,0.287508241355647
0.376058346654031,0.285100279302332
0.373830649003914,0.282680411321479
0.371591947711451,0.280248971558156
0.369342405849137,0.277806294157433
0.367082186489462,0.275352713264379
0.364811452704921,0.272888563024063
0.362530367568005,0.270414177581555
0.360239094151209,0.267929891081924
0.357937795527023,0.265436037670239
0.355626634767941,0.262932951491569
0.353305774946456,0.260420966690984
0.35097537913506,0.257900417413553
0.348635610406246,0.255371637804346
0.346286631832507,0.252834962008431
0.343928606486335,0.250290724170878
0.341561697440224,0.247739258436756
0.339186067766666,0.245180898951134
0.336801880538153,0.242615979859082
0.334409298827178,0.240044835305669
0.332008485706235,0.237467799435964
0.329599604247815,0.234885206395037
0.327182817524412,0.232297390327956
0.324758288608518,0.229704685379792
0.322326180572626,0.227107425695613
0.319886656489228,0.224505945420488
0.317439879430818,0.221900578699488
0.314986012469888,0.21929165967768
0.31252521867893,0.216679522500135
0.310057661130438,0.214064501311922
0.307583502896904,0.211446930258109
0.305102907050821,0.208827143483767
0.302616036664682,0.206205475133965
0.300123054810979,0.203582259353772
0.297624124562204,0.200957830288256
0.295119408990852,0.198332522082488
0.292609071169414,0.195706668881536
0.290093274170383,0.193080604830471
0.287572181066252,0.190454664074361
0.285045954929513,0.187829180758275
0.28251475883266,0.185204489027283
0.279978755848185,0.182580923026454
0.27743810904858,0.179958816900857
0.274892981506339,0.177338504795562
0.272343536293954,0.174720320855638
0.269789936483918,0.172104599226154
0.267232345148723,0.16949167405218
0.264670925360862,0.166881879478784
0.262105840192829,0.164275549651036
0.259537252717115,0.161673018714006
0.256965326006213,0.159074620812762
0.254390223132617,0.156480690092374
0.251812107168818,0.153891560697911
0.24923114118731,0.151307566774442
0.246647488260585,0.148729042467037
0.244061311461136,0.146156321920765
0.241472773861456,0.143589739280695
0.238882038534037,0.141029628691897
0.236289268551372,0.138476324299439
0.233694626985954,0.135930160248392
0.231098276910276,0.133391470683824
0.228500381396829,0.130860589750804
0.225901103518108,0.128337851594403
0.223300606346604,0.125823590359688
0.22069905295481,0.12331814019173
0.21809660641522,0.120821835235598
0.215493429800325,0.11833500963636
0.212889686182619,0.115857997539087
0.210285538634594,0.113391133088848
0.207681150228743,0.110934750430711
0.205076684037558,0.108489183709747
0.202472303133533,0.106054767071023
0.19986817058916,0.103631834659611
0.197264449476931,0.101220720620578
0.19466130286934,0.0988217590989949
0.192058893838879,0.09643528423993
0.189457385458041,0.0940616301884529
0.186856940799319,0.0917011310896328
0.184257722935205,0.0893541210885391
0.181659894938191,0.0870209343302409
0.179063619880772,0.0847019049598077
0.176469060835439,0.0823973671223085
0.173876380874685,0.0801076549628129
0.171285743071003,0.07783310262639
0.168697310496886,0.075574044258109
0.166111246224825,0.0733308140030393
0.163527713327315,0.0711037460062502
0.160946874876848,0.0688931744128109
0.158368893945916,0.0666994333677907
0.155793933607012,0.0645228570162588
0.153222156932629,0.0623637795032847
0.150653726995259,0.0602225349739374
0.148088806867396,0.0580994575732865
0.145527559621531,0.0559948814464009
0.142970148330158,0.0539091407383502
0.14041673606577,0.0518425695942034
0.137867485900859,0.04979550215903
0.135322560907917,0.0477682725778992
0.132782124159438,0.0457612149958803
0.130246338727915,0.0437746635580425
0.127715367685839,0.0418089524094552
0.125189374105704,0.0398644156951876
0.122668521060002,0.037941387560309
0.120152971621226,0.0360402021498885
0.11764288886187,0.0341611936089958
0.115138435854424,0.0323046960826997
0.112639775671383,0.0304710437160699
0.110147071385239,0.0286605706541753
0.107660486068484,0.0268736110420855
0.105180182793612,0.0251104990248695
0.102706324633115,0.0233715687475968
0.100239074659485,0.0216571543553365
0.0977785959452161,0.019967589993158
0.0953250515628002,0.0183032098061306
0.0928786045847303,0.0166643479393235
0.090439418083499,0.0150513385378059
0.088007655131599,0.0134645157466473
0.085583478801523,0.0119042137109168
0.0831670521657639,0.0103707665756838
0.0807585382968141,0.00886450848601737
0.0783581002671665,0.00738577358698705
0.0759659011493138,0.00593489602366189
0.0735821040157486,0.00451220994111133
0.0712068719389638,0.00311804948440455
0.068840367991452,0.00175274879861094
0.0664827552457058,0.000416642028799624
0.0641341967742182,-0.00088993667996002
0.0617948556494817,-0.00216665318259872
0.059464894943989,-0.00341317333404721
0.0571444777302329,-0.00462916298923623
0.0548337670807061,-0.00581428800309648
0.0525329260679012,-0.00696821423055873
0.0502421177643111,-0.00809060752655361
0.0479615052424283,-0.00918113374601194
0.0456912515747458,-0.0102394587438643
0.043431519833756,-0.0112652483750417
0.0411824730919518,-0.0122581684944745
0.0389442744218258,-0.0132178849570937
0.0367170868958708,-0.0141440636178299
0.0345010735865794,-0.0150363703316138
0.0322963975664446,-0.0158944709533762
0.0301032219079587,-0.0167180313380477
0.0279217096836147,-0.0175067173405592
0.0257520239659052,-0.0182601948158413
0.0235943278273229,-0.0189781296188248
0.0214487843403606,-0.0196601876044403
0.019315556577511,-0.0203060346276187
0.0171948076112666,-0.0209153365432906
0.0150867005141205,-0.0214877592063866
0.012991398358565,-0.0220229684718377
0.0109090642170931,-0.0225206301945745
0.00883986116219736,-0.0229804102295276
0.00678395226637064,-0.0234019744316279
0.00474150060210546,-0.0237849886558061
0.00271266924189473,-0.0241291187569928
0.000697621258230925,-0.0244340305901188
-0.00130348027639299,-0.0246993900101149
-0.0032904722894845,-0.0249248628719117
-0.00526319170855075,-0.0251101150304399
-0.00722147546109919,-0.0252548123406303
-0.00916516047463691,-0.0253586206574137
-0.0110940836766714,-0.0254212058357207
-0.0130080819947098,-0.025442233730482
-0.0149069923562595,-0.0254213701966285
-0.0167906516888276,-0.0253582810890907
-0.0186588969199217,-0.0252526322627995
-0.0205115649770488,-0.0251040895726855
-0.0223484927877164,-0.0249123188736795
-0.0241695172794316,-0.0246769860207121
-0.0259744753797019,-0.0243977568687142
-0.0277632040160344,-0.0240742972726164
-0.0295355401159365,-0.0237062730873495
-0.0312913206069153,-0.0232933501678441
-0.0330303824164784,-0.0228351943690311
-0.0347525624721329,-0.0223314715458411
-0.0364576977013861,-0.0217818475532048
-0.0381456250317453,-0.021185988246053
-0.0398161813907178,-0.0205435594793163
-0.0414692037058109,-0.0198542271079257
-0.0431045289045319,-0.0191176569868116
-0.044721993914388,-0.0183335149709049
-0.0463214356628866,-0.0175014669151363
-0.0479026910775348,-0.0166211786744365
-0.0494655970858402,-0.0156923161037362
-0.0510099906153098,-0.0147145450579662
-0.0525357085934511,-0.0136875313920571
-0.0540425879477712,-0.0126109409609398
-0.0555304656057775,-0.0114844396195448
-0.0569991784949773,-0.010307693222803
-0.0584485635428779,-0.00908036762564502
-0.0598784576769865,-0.00780212868300168
-0.0612886978248104,-0.00647264224980362
-0.062679120913857,-0.00509157418098164
-0.0640495638716335,-0.00365859033146631
-0.0653998636256471,-0.00217335655618853
-0.0667298571034053,-0.00063553871007891
-0.0680393812324152,0.000955197351931725
-0.0693282729401843,0.00259918577491283
-0.0705963691542196,0.00429676070393348
-0.0718435068020287,0.00604825628406311
-0.0730695228111186,0.00785400666037088
-0.0742742541089968,0.00971434597792617
-0.0754575376231705,0.0116296083817981
-0.076619210281147,0.0136001280170562
-0.0777591090104336,0.0156262390287695
-0.0788770707385376,0.0177082755620074
-0.0799729323929662,0.0198465717618391
-0.0810465309012268,0.0220414617733341
-0.0820977031908266,0.0242932797415614
-0.083126286189273,0.0266023598115904
-0.0841321168240732,0.0289690361284904
-0.0851150320227345,0.0313936428373306
-0.0860748687127642,0.0338765140831803
-0.0870114638216696,0.0364179840111089
-0.087924654276958,0.0390183867661855
-0.0888142770061366,0.0416780564934795
-0.0896801689367128,0.0443973273380601
-0.0905221669961939,0.0471765334449966
-0.091340108112087,0.0500160089593583
-0.0921338292118997,0.0529160880262145
-0.0929031672231389,0.0558771047906343
-0.0936479590733122,0.0588993933976873
-0.0943680416899268,0.0619832879924425
-0.09506325200049,0.0651291227199694
-0.095733426932509,0.068337231725337
-0.0963784034134912,0.0716079491536148
-0.0969980183709439,0.074941609149872
-0.0975921087323742,0.0783385458591779
-0.0981605114252896,0.0817990934266017
-0.0987030633771973,0.0853235859972129
-0.0992196015156046,0.0889123577160804
-0.0997099627680188,0.0925657427282739
-0.100173984061947,0.0962840751788623
-0.100611502324897,0.100067689212915
-0.101022354484376,0.103916918975502
-0.10140637746789,0.107832098611691
-0.101763408202948,0.111813562266553
-0.102093283617057,0.115861644085156
-0.102395840637723,0.119976678212569
-0.102670916192455,0.124158998793863
-0.102918347208759,0.128408939974106
-0.103137970614143,0.132726835898368
-0.103329623336114,0.137113020711717
-0.103493142302179,0.141567828559224
-0.103628364439846,0.146091593585957
-0.103735126676622,0.150684649936986
-0.103813265940014,0.155347331757379
-0.10386261915753,0.160079973192207
-0.103883023256676,0.164882908386539
-0.103874315164961,0.169756471485443
-0.103836331809891,0.174700996633989
-0.103768910118973,0.179716817977247
-0.103671887019716,0.184804269660285
-0.103545099439626,0.189963685828173
-0.10338838430621,0.195195400625981
-0.103201578546976,0.200499748198777
-0.102984519089431,0.20587706269163
-0.102737042861083,0.211327678249611
-0.102458986789438,0.216851929017787
-0.102150187802004,0.22245014914123
-0.101810482826289,0.228122672765007
-0.101439708789799,0.233869834034189
-0.101037702620042,0.239691967093843
-0.100604301244525,0.245589406089041
-0.100139341590755,0.25156248516485
-0.0996426605862402,0.257611538466341
-0.0991140951584874,0.263736900138582
-0.0985534822350038,0.269938904326643
-0.0979606587432968,0.276217885175593
-0.0973354616108736,0.282574176830502
-0.0966777277652416,0.289008113436437
-0.095987294133908,0.29552002913847
-0.0952639976443802,0.302110258081669
-0.0945076752241654,0.308779134411104
-0.0937181638007708,0.315526992271843
-0.0928953003017039,0.322354165808957
-0.0928953003017039,0.322354165808957
-0.0920741272066204,0.329190630529086
-0.0912896335025549,0.335966235170238
-0.0905415758780824,0.342681123724535
-0.0898297110217784,0.349335440184094
-0.0891537956222179,0.355929328541036
-0.0885135863679762,0.362462932787479
-0.0879088399476285,0.368936396915544
-0.0873393130497501,0.375349864917349
-0.0868047623629161,0.381703480785014
-0.0863049445757017,0.387997388510659
-0.0858396163766822,0.394231732086402
-0.0854085344544329,0.400406655504364
-0.0850114554975288,0.406522302756663
-0.0846481361945453,0.412578817835419
-0.0843183332340574,0.418576344732752
-0.0840218033046406,0.42451502744078
-0.08375830309487,0.430395009951624
-0.0835275892933207,0.436216436257403
-0.083329418588568,0.441979450350236
-0.0831635476691872,0.447684196222242
-0.0830297332237534,0.453330817865541
-0.0829277319408419,0.458919459272253
-0.0828573005090279,0.464450264434497
-0.0828181956168865,0.469923377344392
-0.0828101739529931,0.475338941994057
-0.0828329922059228,0.480697102375612
-0.0828864070642508,0.485998002481177
-0.0829701752165525,0.491241786302871
-0.0830840533514029,0.496428597832814
-0.0832277981573772,0.501558581063124
-0.0834011663230508,0.506631879985921
-0.0836039145369988,0.511648638593324
-0.0838357994877965,0.516609000877454
-0.0840965778640191,0.521513110830429
-0.0843860063542416,0.526361112444369
-0.0847038416470396,0.531153149711393
-0.0850498404309881,0.535889366623621
-0.0854237593946622,0.540569907173172
-0.0858253552266373,0.545194915352165
-0.0862543846154886,0.54976453515272
-0.0867106042497912,0.554278910566957
-0.0871937708181205,0.558738185586994
-0.0877036410090515,0.563142504204951
-0.0882399715111596,0.567492010412948
-0.08880251901302,0.571786848203104
-0.0893910402032078,0.576027161567539
-0.0900052917702983,0.580213094498371
-0.0906450304028667,0.58434479098772
-0.0913100127894882,0.588422395027707
-0.0919999956187381,0.592446050610449
-0.0927147355791914,0.596415901728066
-0.0934539893594236,0.600332092372679
-0.0942175136480098,0.604194766536406
-0.0950050651335251,0.608004068211366
-0.0958164005045448,0.61176014138968
-0.0966512764496443,0.615463130063466
-0.0975094496573985,0.619113178224845
-0.0983906768163828,0.622710429865935
-0.0992947146151724,0.626255028978855
-0.100221319742343,0.629747119555726
-0.101170248886468,0.633186845588666
-0.102141258736125,0.636574351069796
-0.103134105979888,0.639909779991234
-0.104148547306332,0.6431932763451
-0.105184339404033,0.646424984123513
-0.106241238961566,0.649605047318593
-0.107319002667505,0.652733609922459
-0.108417387210427,0.655810815927231
-0.109536149278907,0.658836809325028
-0.110675045561519,0.661811734107969
-0.111833832746839,0.664735734268174
-0.113012267523442,0.667608953797762
-0.114210106579903,0.670431536688853
-0.115427106604798,0.673203626933566
-0.116663024286702,0.67592536852402
-0.117917616314189,0.678596905452336
-0.119190639375836,0.681218381710632
-0.120481850160217,0.683789941291027
-0.121791005355908,0.686311728185641
-0.123117861651484,0.688783886386595
-0.124462175735519,0.691206559886006
-0.12582370429659,0.693579892675994
-0.127202204023272,0.69590402874868
-0.128597431604139,0.698179112096182
-0.130009143727767,0.700405286710619
-0.131437097082731,0.702582696584111
-0.132881048357607,0.704711485708778
-0.134340754240969,0.706791798076739
-0.135815971421393,0.708823777680113
-0.137306456587454,0.71080756851102
-0.138811966427727,0.712743314561579
-0.140332257630788,0.71463115982391
-0.141867086885211,0.716471248290131
-0.143416210879572,0.718263723952363
-0.144979386302447,0.720008730802725
-0.146556369842409,0.721706412833336
-0.148146918188035,0.723356914036316
-0.1497507880279,0.724960378403784
-0.151367736050579,0.726516949927859
-0.152997518944647,0.728026772600662
-0.154639893398679,0.72948999041431
-0.156294616101251,0.730906747360925
-0.157961443740938,0.732277187432624
-0.159640133006315,0.733601454621528
-0.161330440585957,0.734879692919757
-0.163032123168439,0.736112046319428
-0.164744937442337,0.737298658812662
-0.166468640096227,0.738439674391579
-0.168202987818682,0.739535237048297
-0.169947737298278,0.740585490774937
-0.171702645223592,0.741590579563616
-0.173467468283197,0.742550647406456
-0.175241963165668,0.743465838295576
-0.177025886559583,0.744336296223093
-0.178818995153514,0.745162165181129
-0.180621045636038,0.745943589161803
-0.18243179469573,0.746680712157234
-0.184250999021166,0.747373678159541
-0.186078415300919,0.748022631160844
-0.187913800223566,0.748627715153262
-0.189756910477682,0.749189074128915
-0.191607502751841,0.749706852079922
-0.19346533373462,0.750181192998402
-0.195330160114593,0.750612240876476
-0.197201738580336,0.751000139706262
-0.199079825820424,0.751345033479879
-0.200964178523431,0.751647066189447
-0.202854553377934,0.751906381827087
-0.204750707072507,0.752123124384916
-0.206652396295726,0.752297437855055
-0.208559377736166,0.752429466229622
-0.210471408082402,0.752519353500738
-0.21238824402301,0.752567243660521
-0.214309642246564,0.752573280701092
-0.216235359441639,0.752537608614569
-0.218165152296812,0.752460371393072
-0.220098777500657,0.75234171302872
-0.222035991741749,0.752181777513633
-0.223976551708664,0.75198070883993
-0.225920214089976,0.751738650999731
-0.227866735574262,0.751455747985155
-0.229815872850096,0.751132143788321
-0.231767382606054,0.750767982401349
-0.23372102153071,0.750363407816358
-0.23567654631264,0.749918564025469
-0.23763371364042,0.749433595020799
-0.239592280202623,0.748908644794468
-0.241552002687827,0.748343857338597
-0.243512637784605,0.747739376645304
-0.245473942181533,0.747095346706708
-0.247435672567186,0.74641191151493
-0.24939758563014,0.745689215062089
-0.251359438058969,0.744927401340303
-0.25332098654225,0.744126614341693
-0.255281987768556,0.743286998058377
-0.257242198426464,0.742408696482477
-0.259201375204548,0.741491853606109
-0.261159274791384,0.740536613421395
-0.263115653875547,0.739543119920453
-0.265070269145612,0.738511517095404
-0.267022877290155,0.737441948938365
-0.26897323499775,0.736334559441457
-0.270921098956973,0.7351894925968
-0.272866225856399,0.734006892396512
-0.274808372384604,0.732786902832713
-0.276747295230161,0.731529667897523
-0.278682751081648,0.73023533158306
-0.280614496627638,0.728904037881445
-0.282542288556708,0.727535930784796
-0.284465883557432,0.726131154285234
-0.286385038318385,0.724689852374876
-0.288299509528144,0.723212169045844
-0.290209053875282,0.721698248290257
-0.292113428048376,0.720148234100233
-0.294012388735999,0.718562270467892
-0.295905692626729,0.716940501385354
-0.29779309640914,0.715283070844738
-0.299674356771806,0.713590122838163
-0.301549230403304,0.711861801357749
-0.303417473992208,0.710098250395615
-0.305278844227095,0.708299613943881
-0.307133097796538,0.706466035994666
-0.308979991389113,0.70459766054009
-0.310819281693396,0.702694631572272
-0.312650725397961,0.700757093083331
-0.314474079191384,0.698785189065386
-0.31628909976224,0.696779063510558
-0.318095543799104,0.694738860410966
-0.319893167990552,0.692664723758728
-0.321681729025159,0.690556797545965
-0.323460983591499,0.688415225764796
-0.325230688378149,0.68624015240734
-0.326990600073682,0.684031721465717
-0.328740475366676,0.681790076932046
-0.330480070945704,0.679515362798446
-0.332209143499342,0.677207723057038
-0.333927449716166,0.67486730169994
-0.335634746284749,0.672494242719271
-0.337330789893669,0.670088690107151
-0.339015337231499,0.667650787855701
-0.340688144986816,0.665180679957038
-0.342348969848193,0.662678510403283
-0.343997568504208,0.660144423186555
-0.345633697643433,0.657578562298972
-0.347257113954446,0.654981071732656
-0.348867574125821,0.652352095479725
-0.350464834846134,0.649691777532298
-0.352048652803959,0.647000261882495
-0.353618784687872,0.644277692522435
-0.355174987186447,0.641524213444239
-0.356717016988261,0.638739968640024
-0.358244630781889,0.635925102101911
-0.359757585255905,0.633079757822019
-0.361255637098885,0.630204079792468
-0.362738542999404,0.627298212005376
-0.364206059646038,0.624362298452864
-0.365657943727361,0.62139648312705
-0.367093951931949,0.618400910020055
-0.368513840948377,0.615375723123997
-0.369917367465219,0.612321066430996
-0.371304288171053,0.609237083933171
-0.372674359754452,0.606123919622642
-0.374027338903992,0.602981717491529
-0.375362982308248,0.59981062153195
-0.376681046655795,0.596610775736024
-0.377981288635209,0.593382324095873
-0.379263464935064,0.590125410603614
-0.380527332243936,0.586840179251368
-0.381772647250401,0.583526774031253
-0.382999166643033,0.580185338935389
-0.384206647110407,0.576816017955896
-0.385394845341099,0.573418955084893
-0.386563518023684,0.569994294314499
-0.387712421846738,0.566542179636834
-0.388841313498835,0.563062755044017
-0.38994994966855,0.559556164528168
-0.39103808704446,0.556022552081406
-0.392105482315138,0.55246206169585
-0.393151892169161,0.54887483736362
-0.394177073295104,0.545261023076836
-0.395180782381541,0.541620762827616
-0.396162776117048,0.53795420060808
-0.3971228111902,0.534261480410347
-0.398060644289573,0.530542746226538
-0.398976032103741,0.526798142048771
-0.39986873132128,0.523027811869166
-0.400738498630765,0.519231899679842
-0.401585090720772,0.515410549472919
-0.402408264279875,0.511563905240516
-0.403207775996649,0.507692110974752
-0.403983382559671,0.503795310667747
-0.404734840657514,0.49987364831162
-0.405461906978755,0.495927267898491
-0.406164338211969,0.491956313420479
-0.40684189104573,0.487960928869704
-0.407494322168615,0.483941258238284
-0.408121388269197,0.47989744551834
-0.408722846036053,0.475829634701991
-0.409298452157758,0.471737969781356
-0.409847963322886,0.467622594748555
-0.410371136220014,0.463483653595706
-0.410867727537716,0.459321290314931
-0.411337493964567,0.455135648898346
-0.411780192189143,0.450926873338074
-0.412195578900019,0.446695107626232
-0.412583410785771,0.44244049575494
-0.412943444534972,0.438163181716317
-0.4132754368362,0.433863309502484
-0.413579144378028,0.429541023105559
-0.413854323849032,0.425196466517662
-0.414100731937787,0.420829783730912
-0.414318125332869,0.416441118737428
-0.414506260722852,0.412030615529331
-0.414664894796313,0.407598418098739
-0.414793784241825,0.403144670437772
-0.414892685747965,0.398669516538549
-0.414961356003308,0.39417310039319
-0.414999551696428,0.389655565993814
-0.415007029515901,0.38511705733254
-0.414983546150302,0.380557718401489
-0.414928858288207,0.375977693192779
-0.41484272261819,0.37137712569853
-0.414724895828828,0.366756159910861
-0.414575134608694,0.362114939821891
-0.414393195646365,0.357453609423741
-0.414178835630415,0.352772312708529
-0.41393181124942,0.348071193668375
-0.413651879191954,0.343350396295398
-0.413338796146594,0.338610064581718
-0.412992318801915,0.333850342519454
-0.41261220384649,0.329071374100725
-0.412198207968897,0.324273303317652
-0.41175008785771,0.319456274162353
-0.411267600201504,0.314620430626948
-0.410750501688854,0.309765916703556
-0.410198549008336,0.304892876384296
-0.409611498848525,0.300001453661289
-0.408989107897996,0.295091792526653
-0.408331132845325,0.290164036972508
-0.407637330379086,0.285218330990973
-0.406907457187854,0.280254818574168
-0.406141269960206,0.275273643714212
-0.405338525384716,0.270274950403225
-0.404498980149959,0.265258882633326
-0.403622390944511,0.260225584396634
-0.402708514456947,0.255175199685269
-0.401757107375842,0.250107872491349
-0.400767926389771,0.245023746806996
-0.399740728187309,0.239922966624328
-0.398675269457032,0.234805675935464
-0.397571306887516,0.229672018732524
-0.396428597167334,0.224522139007627
-0.395246896985063,0.219356180752893
-0.394025963029277,0.214174287960442
-0.392765551988552,0.208976604622391
-0.391465420551463,0.203763274730862
-0.390125325406585,0.198534442277973
-0.388745023242494,0.193290251255844
-0.387324270747764,0.188030845656594
-0.385862824610972,0.182756369472343
-0.384360441520691,0.17746696669521
-0.382816878165498,0.172162781317314
-0.381231891233967,0.166843957330775
-0.379605237414674,0.161510638727713
-0.377936673396194,0.156162969500246
-0.376225955867102,0.150801093640494
-0.374472841515973,0.145425155140577
-0.372677087031383,0.140035297992614
-0.370838449101907,0.134631666188724
-0.36895668441612,0.129214403721027
-0.367031549662597,0.123783654581642
-0.365062801529914,0.118339562762689
-0.363050196706645,0.112882272256287
-0.360993491881366,0.107411927054555
-0.358892443742653,0.101928671149614
-0.35674680897908,0.0964326485335813
-0.354556344279222,0.0909240031985774
-0.352320806331655,0.085402879136722
-0.350039951824954,0.0798694203401339
-0.347713537447694,0.074323770800933
-0.345341319888451,0.0687660745112383
-0.3429230558358,0.0631964754631695
-0.340458501978315,0.0576151176488458
-0.337947415004572,0.052022145060387
-0.335389551603147,0.046417701689912
-0.332784668462614,0.0408019315295406
-0.330132522271549,0.035174978571392
-0.327432869718526,0.0295369868075859
-0.324685467492122,0.0238881002302412
-0.321890072280912,0.018228462831478
-0.31904644077347,0.0125582186034151
-0.316154329658371,0.00687751153817232
-0.313213495624192,0.00118648562786874
-0.310223695359507,-0.00451471513537578
-0.307184685552892,-0.0102259467594423
-0.304096222892921,-0.0159470652522109
-0.30095806406817,-0.0216779266215628
-0.297769965767214,-0.0274183868753779
-0.294531684678629,-0.0331683020215374
-0.291242977490989,-0.0389275280679212
-0.287903600892869,-0.0446959210224107
-0.284513311572846,-0.0504733368928857
-0.281071866219494,-0.0562596316872274
-0.277579021521389,-0.0620546614133159
-0.274034534167105,-0.0678582820790323
-0.270438160845218,-0.0736703496922566
-0.266789658244303,-0.0794907202608698
-0.263088783052935,-0.0853192497927523
-0.25933529195969,-0.0911557942957849
-0.255528941653142,-0.0970002097778477
-0.251669488821868,-0.102852352246822
-0.247756690154441,-0.108712077710588
-0.243790302339438,-0.114579242177026
-0.239770082065434,-0.120453701654017
-0.235695786021003,-0.126335312149441
-0.231567170894721,-0.132223929671179
-0.227383993375164,-0.138119410227112
-0.223146010150906,-0.14402160982512
-0.218852977910522,-0.149930384473084
-0.214504653342589,-0.155845590178885
-0.210100793135681,-0.161767082950402
-0.205641153978373,-0.167694718795517
-0.20112549255924,-0.17362835372211
-0.196553565566859,-0.179567843738061
-0.191925129689803,-0.185513044851252
-0.187239941616648,-0.191463813069562
-0.18249775803597,-0.197420004400873
-0.177698335636343,-0.203381474853065
-0.172841431106344,-0.209348080434019
-0.167926801134546,-0.215319677151615
-0.162954202409526,-0.221296121013734
-0.157923391619858,-0.227277268028256
-0.152834125454118,-0.233262974203062
-0.14768616060088,-0.239253095546032
-0.142479253748721,-0.245247488065048
-0.137213161586215,-0.251246007767989
-0.131887640801938,-0.257248510662736
-0.126502448084465,-0.26325485275717
-0.12105734012237,-0.269264890059172
-0.12105734012237,-0.269264890059172
-0.115621623870176,-0.275253353333946
-0.110264460109578,-0.281195118598776
-0.104985386269915,-0.287090259739662
-0.099783939780527,-0.292938850642604
-0.0946596580707513,-0.298740965193602
-0.089612078569927,-0.304496677278656
-0.0846407387073931,-0.310206060783765
-0.079745175912488,-0.31586918959493
-0.0749249276145507,-0.32148613759815
-0.0701795312429197,-0.327056978679426
-0.0655085242269338,-0.332581786724757
-0.0609114439959318,-0.338060635620143
-0.0563878279792524,-0.343493599251584
-0.0519372136062342,-0.34888075150508
-0.047559138306216,-0.354222166266631
-0.0432531395085366,-0.359517917422237
-0.0390187546425346,-0.364768078857897
-0.0348555211375488,-0.369972724459612
-0.0307629764229179,-0.375131928113381
-0.0267406579279806,-0.380245763705205
-0.0227881030820757,-0.385314305121083
-0.0189048493145418,-0.390337626247014
-0.0150904340547178,-0.395315800969
-0.0113443947319422,-0.40024890317304
-0.00766626877555391,-0.405137006745134
-0.00405559361489157,-0.409980185571281
-0.000511906679293916,-0.414778513537482
0.00296525460190031,-0.419532064529736
0.00637635279935244,-0.424240912434044
0.0097218504837237,-0.428905131136405
0.0130022102256754,-0.433524794522819
0.0162178945958688,-0.438099976479286
0.0193693661649651,-0.442630750891807
0.0224570875036257,-0.44711719164638
0.0254815211825118,-0.451559372629006
0.0284431297722848,-0.455957367725684
0.0313423758436057,-0.460311250822415
0.0341797219671361,-0.464621095805199
0.0369556307135371,-0.468886976560035
0.03967056465347,-0.473108966972923
0.0423249863575961,-0.477287140929863
0.0449193583965767,-0.481421572316855
0.047454143341073,-0.4855123350199
0.0499298037617463,-0.489559502924996
0.0523468022292579,-0.493563149918144
0.0547056013142691,-0.497523349885343
0.0570066635874411,-0.501440176712594
0.0592504516194352,-0.505313704285896
0.0614374279809128,-0.50914400649125
0.0635680552425351,-0.512931157214655
0.0656427959749632,-0.516675230342111
0.0676621127488587,-0.520376299759618
0.0696264681348826,-0.524034439353176
0.0715363247036963,-0.527649723008784
0.0733921450259611,-0.531222224612444
0.0751943916723382,-0.534752018050154
0.0769435272134889,-0.538239177207914
0.0786400142200745,-0.541683775971725
0.0802843152627563,-0.545085888227586
0.0818768929121955,-0.548445587861497
0.0834182097390535,-0.551762948759459
0.0849087283139914,-0.55503804480747
0.0863489112076706,-0.558270949891531
0.0877392209907524,-0.561461737897642
0.089080120233898,-0.564610482711802
0.0903720715077687,-0.567717258220012
0.0916155373830258,-0.570782138308272
0.0928109804303305,-0.573805196862581
0.0939588632203442,-0.576786507768939
0.0950596483237281,-0.579726144913346
0.0961137983111435,-0.582624182181803
0.0971217757532516,-0.585480693460308
0.0980840432207138,-0.588295752634862
0.0990010632841913,-0.591069433591465
0.0998732985143454,-0.593801810216116
0.100701211481837,-0.596492956394816
0.101485264757329,-0.599142946013564
0.10222592091148,-0.601751852958361
0.102923642514953,-0.604319751115205
0.10357889213841,-0.606846714370098
0.10419213235251,-0.609332816609039
0.104763825727916,-0.611778131718028
0.105294434835289,-0.614182733583065
0.10578442224529,-0.616546696090149
0.10623425052858,-0.618870093125281
0.106644382255821,-0.62115299857446
0.107015279997674,-0.623395486323687
0.1073474063248,-0.625597630258961
0.10764122380786,-0.627759504266282
0.107897195017517,-0.62988118223165
0.10811578252443,-0.631962738041065
0.108297448899261,-0.634004245580527
0.108442656712673,-0.636005778736036
0.108551868535325,-0.637967411393591
0.108625546937879,-0.639889217439193
0.108664154490996,-0.641771270758841
0.108668153765339,-0.643613645238536
0.108638007331567,-0.645416414764277
0.108574177760342,-0.647179653222064
0.108477127622326,-0.648903434497897
0.10834731948818,-0.650587832477776
0.108185215928565,-0.652232921047701
0.107991279514142,-0.653838774093671
0.107765972815572,-0.655405465501688
0.107509758403518,-0.656933069157749
0.10722309884864,-0.658421658947856
0.106906456721599,-0.659871308758009
0.106560294593057,-0.661282092474206
0.106185075033675,-0.662654083982449
0.105781260614114,-0.663987357168736
0.105349313905036,-0.665281985919069
0.104889697477102,-0.666538044119446
0.104402873900973,-0.667755605655868
0.10388930574731,-0.668934744414335
0.103349455586775,-0.670075534280846
0.102783785990028,-0.671178049141401
0.102192759527733,-0.672242362882001
0.101576838770548,-0.673268549388644
0.100936486289136,-0.674256682547332
0.100272164654159,-0.675206836244064
0.0995843364362762,-0.67611908436484
0.0988734642061505,-0.676993500795659
0.0981400105344425,-0.677830159422522
0.0973844379918138,-0.678629134131429
0.0966072091489256,-0.679390498808379
0.0958087865764389,-0.680114327339372
0.0949896328450153,-0.680800693610408
0.094150210525316,-0.681449671507488
0.0932909821880022,-0.682061334916611
0.0924124104037352,-0.682635757723776
0.0915149577431763,-0.683173013814985
0.0905990867769868,-0.683673177076236
0.0896652600758279,-0.68413632139353
0.0887139402103609,-0.684562520652866
0.0877455897512471,-0.684951848740244
0.0867606712691479,-0.685304379541665
0.0857596473347244,-0.685620186943129
0.0847429805186378,-0.685899344830634
0.0837111333915496,-0.686141927090181
0.082664568524121,-0.68634800760777
0.0816037484870133,-0.686517660269401
0.0805291358508877,-0.686650958961073
0.0794411931864054,-0.686747977568787
0.0783403830642279,-0.686808789978543
0.0772271680550164,-0.686833470076339
0.0761020107294321,-0.686822091748178
0.0749653736581363,-0.686774728880057
0.0738177194117902,-0.686691455357977
0.0726595105610554,-0.686572345067939
0.0714912096765928,-0.68641747189594
0.0703132793290638,-0.686226909727983
0.0691261820891298,-0.686000732450067
0.0679303805274519,-0.685739013948191
0.0667263372146915,-0.685441828108355
0.0655145147215098,-0.68510924881656
0.0642953756185682,-0.684741349958805
0.0630693824765278,-0.68433820542109
0.06183699786605,-0.683899889089415
0.060598684357796,-0.68342647484978
0.0593549045224271,-0.682918036588185
0.0581061209306047,-0.68237464819063
0.0568527961529899,-0.681796383543114
0.055595392760244,-0.681183316531637
0.0543343733230284,-0.6805355210422
0.0530702004120043,-0.679853070960802
0.051803336597833,-0.679136040173444
0.0505342444511757,-0.678384502566124
0.0492633865426937,-0.677598532024844
0.0479912254430484,-0.676778202435602
0.0467182237229009,-0.675923587684399
0.0454448439529125,-0.675034761657235
0.0441715487037447,-0.674111798240109
0.0428988005460585,-0.673154771319022
0.0416270620505154,-0.672163754779973
0.0403567957877764,-0.671138822508963
0.0390884643285031,-0.67008004839199
0.0378225302433566,-0.668987506315056
0.0365594561029981,-0.66786127016416
0.0352997044780891,-0.666701413825301
0.0340437379392907,-0.66550801118448
0.0327920190572642,-0.664281136127697
0.031545010402671,-0.663020862540951
0.0303031745461721,-0.661727264310243
0.0290669740584291,-0.660400415321572
0.0278368715101031,-0.659040389460938
0.0266133294718554,-0.657647260614341
0.0253968105143473,-0.656221102667781
0.0241877772082401,-0.654761989507259
0.022986692124195,-0.653269995018773
0.0217940178328733,-0.651745193088324
0.0206102169049363,-0.650187657601911
0.0194357519110453,-0.648597462445535
0.0182710854218616,-0.646974681505195
0.0171166800080463,-0.645319388666891
0.0159729982402608,-0.643631657816624
0.0148405026891665,-0.641911562840393
0.0137196559254245,-0.640159177624197
0.0126109205196961,-0.638374576054038
0.0115147590426427,-0.636557832015914
0.0104316340649254,-0.634709019395826
0.0093620081572056,-0.632828212079773
0.00830634389014456,-0.630915483953756
0.00726510383440346,-0.628970908903775
0.00623875056064374,-0.626994560815828
0.0052277466395265,-0.624986513575917
0.00423255464171319,-0.622946841070041
0.00325363713786495,-0.620875617184199
0.00229145669864315,-0.618772915804393
0.001346475894709,-0.616638810816621
0.000419157296723805,-0.614473376106884
-0.000490036524651179,-0.612276685561181
-0.00138064299875462,-0.610048813065513
-0.00225219955492533,-0.607789832505879
-0.00310424362250192,-0.605499817768279
-0.00393631263082321,-0.603178842738713
-0.00474794400922786,-0.600826981303182
-0.00553867518705468,-0.598444307347684
-0.00630804359364224,-0.59603089475822
-0.00705558665832942,-0.59358681742079
-0.00778084181045488,-0.591112149221393
-0.00848334647935731,-0.58860696404603
-0.00916263809437549,-0.5860713357807
-0.00981825408484812,-0.583505338311403
-0.0104497318801139,-0.58090904552414
-0.0110566089095116,-0.57828253130491
-0.0116384226023799,-0.575625869539712
-0.0121947103880576,-0.572939134114548
-0.0127250096958833,-0.570222398915416
-0.0132288579551958,-0.567475737828317
-0.0137057925953339,-0.56469922473925
-0.0141553510456361,-0.561892933534216
-0.0145770707354413,-0.559056938099215
-0.0149704890940882,-0.556191312320245
-0.0153351435509155,-0.553296130083307
-0.015670571535262,-0.550371465274402
-0.0159763104764663,-0.547417391779529
-0.0162518978038671,-0.544433983484687
-0.0164968709468033,-0.541421314275877
-0.0167107673346135,-0.538379458039099
-0.0168931243966364,-0.535308488660352
-0.0170434795622108,-0.532208480025637
-0.0171613702606754,-0.529079506020953
-0.0172463339213689,-0.5259216405323
-0.0172979079736301,-0.522734957445678
-0.0173156298467976,-0.519519530647087
-0.0172990369702102,-0.516275434022527
-0.0172476667732066,-0.513002741457998
-0.0171610566851255,-0.5097015268395
-0.0170387441353057,-0.506371864053032
-0.0168802665530859,-0.503013826984594
-0.0166851613678047,-0.499627489520187
-0.016452966008801,-0.496212925545811
-0.0161832179054135,-0.492770208947464
-0.0158754544869808,-0.489299413611147
-0.0155292131828417,-0.485800613422861
-0.0151440314223349,-0.482273882268604
-0.0147194466347991,-0.478719294034377
-0.0142549962495732,-0.47513692260618
-0.0137502176959957,-0.471526841870012
-0.0132046484034055,-0.467889125711874
-0.0126178258011411,-0.464223848017765
-0.0119892873185415,-0.460531082673685
-0.0113185703849451,-0.456810903565634
-0.010605212429691,-0.453063384579612
-0.00984875088211758,-0.44928859960162
-0.00904872317156377,-0.445486622517656
-0.00820466672736825,-0.441657527213721
-0.00731611897886967,-0.437801387575814
-0.00638261735540684,-0.433918277489936
-0.00540369928631851,-0.430008270842086
-0.00437890220094325,-0.426071441518265
-0.00330776352861996,-0.422107863404472
-0.00218982069868719,-0.418117610386706
-0.00102461114048394,-0.414100756350969
0.0001883277166514,-0.41005737518326
0.00144945844337989,-0.405987540769579
0.00275924361036297,-0.401891326995925
0.00411814578826174,-0.397768807748298
0.0055266275477376,-0.3936200569127
0.00698515145945175,-0.389445148375128
0.0084941800940655,-0.385244156021584
0.0100541760222402,-0.381017153738067
0.011665601814637,-0.376764215410577
0.0133289200419172,-0.372485414925114
0.0150445932747421,-0.368180826167678
0.016813084083773,-0.363850523024269
0.0186348550396712,-0.359494579380886
0.0205103687130979,-0.35511306912353
0.0224400876747145,-0.3507060661382
0.024424474495182,-0.346273644310896
0.026463991745162,-0.341815877527619
0.0285591019953156,-0.337332839674368
0.0307102678163042,-0.332824604637143
0.0329179517787889,-0.328291246301944
0.0351826164534312,-0.32373283855477
0.0375047244108921,-0.319149455281623
0.0398847382218331,-0.3145411703685
0.0423231204569154,-0.309908057701404
0.0448203336868003,-0.305250191166333
0.047376840482149,-0.300567644649287
0.0499931034136229,-0.295860492036266
0.0526695850518832,-0.291128807213271
0.0554067479675912,-0.2863726640663
0.0582050547314081,-0.281592136481354
0.0610649679139953,-0.276787298344433
0.063986950086014,-0.271958223541537
0.0669714638181255,-0.267104985958665
0.070018971680991,-0.262227659481818
0.0731299362452719,-0.257326317996995
0.0763048200816294,-0.252401035390196
0.079544085760725,-0.247451885547421
0.0828481958532195,-0.242478942354671
0.0862176129297747,-0.237482279697944
0.0896527995610513,-0.232461971463241
0.0931542183177113,-0.227418091536562
0.0967223317704153,-0.222350713803907
0.100357602489825,-0.217259912151275
0.104060493046601,-0.212145760464667
0.107831466011406,-0.207008332630082
0.1116709839549,-0.20184770253352
0.115579509447745,-0.196663944060981
0.119557505060601,-0.191457131098465
0.123605433364131,-0.186227337531972
0.127723756928996,-0.180974637247502
0.131912938325856,-0.175699104131055
0.136173440125373,-0.17040081206863
0.140505724898208,-0.165079834946228
0.144910255215023,-0.159736246649848
0.14938749364648,-0.15437012106549
0.153937902763238,-0.148981532079155
0.158561945135959,-0.143570553576842
0.163260083335305,-0.13813725944455
0.168032779931938,-0.132681723568281
0.172880497496517,-0.127204019834033
0.177803698599705,-0.121704222127807
0.182802845812163,-0.116182404335602
0.187878401704552,-0.110638640343419
0.193030828847534,-0.105073004037258
0.198260589811769,-0.099485569303117
0.203568147167919,-0.0938764100269978
0.208953963486645,-0.0882456000948993
0.214418501338608,-0.0825932133928221
0.219962223294471,-0.0769193238067655
0.225585591924893,-0.0712240052227298
0.231289069800537,-0.0655073315267145
0.237073119492063,-0.05976937660472
0.242938203570134,-0.0540102143427456
0.248884784605409,-0.0482299186267918
0.254913325168551,-0.0424285633428579
0.26102428783022,-0.0366062223769445
0.267218135161079,-0.0307629696150507
0.273495329731787,-0.0248988789431772
0.279856334113008,-0.0190140242473231
0.2863016108754,-0.013108479413489
0.292831622589628,-0.00718231832767427
0.29944683182635,-0.00123561487587921
0.306147701156229,0.00473155705589666
0.312934693149926,0.010719123581653
0.319808270378102,0.0167270108153905
0.326768895411419,0.0227551448711086
0.333817030820537,0.028803451862808
0.340953139176118,0.0348718579044883
0.348177683048824,0.0409602891101501
0.355491125009315,0.047068671593793
0.362893927628253,0.0531969314694175
0.370386553476299,0.0593449948510235
0.377969465124115,0.0655127878526112
0.385643125142361,0.0717002365881805
0.3934079961017,0.0779072671717319
0.401264540572791,0.0841338057172651
0.409213221126297,0.0903797783387806
0.417254500332879,0.0966451111502779
0.425388840763198,0.102929730265758
0.433616704987915,0.10923356179922
0.441938555577692,0.115556531864665
0.450354855103189,0.121898566576092
0.458866066135069,0.128259592047502
0.467472651243992,0.134639534392894
0.47617507300062,0.14103831972627
0.484973793975614,0.147455874161629
0.493869276739635,0.153892123812971
0.502861983863345,0.160346994794295
0.511952377917405,0.166820413219604
0.521140921472475,0.173312305202895
0.530428077099218,0.179822596858171
0.539814307368295,0.186351214299429
0.549300074850367,0.192898083640672
0.558885842116094,0.199463130995898
0.56857207173614,0.206046282479109
0.578359226281164,0.212647464204303
0.588247768321828,0.219266602285482
0.598238160428793,0.225903622836644
0.608330865172722,0.232558451971792
0.618526345124273,0.239231015804923
0.628825062854111,0.245921240450039
0.639227480932894,0.25262905202114
0.649734061931285,0.259354376632226
0.660345268419945,0.266097140397296
0.671061562969536,0.272857269430351
