0.673518989497837,0.432054965899811
0.675858931647431,0.428871212232176
0.67812453297721,0.425685155938848
0.680316130268909,0.422496855170423
0.68243406030426,0.419306368077498
0.684478659864995,0.416113752810667
0.686450265732847,0.412919067520526
0.68834921468955,0.409722370357672
0.690175843516835,0.406523719472698
0.691930488996437,0.403323173016202
0.693613487910086,0.400120789138779
0.695225177039517,0.396916625991024
0.696765893166461,0.393710741723533
0.698235973072653,0.390503194486902
0.699635753539823,0.387294042431726
0.700965571349706,0.384083343708601
0.702225763284034,0.380871156468122
0.703416666124539,0.377657538860886
0.704538616652955,0.374442549037487
0.705591951651014,0.371226245148521
0.706577007900449,0.368008685344585
0.707494122182993,0.364789927776273
0.708343631280378,0.361570030594182
0.709125871974338,0.358349051948906
0.709841181046604,0.355127049991042
0.710489895278911,0.351904082871186
0.71107235145299,0.348680208739931
0.711588886350574,0.345455485747876
0.712039836753396,0.342229972045614
0.712425539443189,0.339003725783742
0.712746331201686,0.335776805112855
0.713002548810618,0.332549268183549
0.713194529051721,0.32932117314642
0.713322608706724,0.326092578152063
0.713387124557363,0.322863541351073
0.713388413385369,0.319634120894047
0.713326811972475,0.316404374931581
0.713202657100414,0.313174361614268
0.713016285550918,0.309944139092706
0.712768034105721,0.30671376551749
0.712458239546555,0.303483299039216
0.712087238655154,0.300252797808478
0.711655368213248,0.297022319975874
0.711162965002572,0.293791923691997
0.710610365804859,0.290561667107445
0.70999790740184,0.287331608372813
0.709325926575249,0.284101805638696
0.708594760106818,0.280872317055689
0.707804744778281,0.27764320077439
0.70695621737137,0.274414514945392
0.706049514667818,0.271186317719293
0.705084973449357,0.267958667246686
0.70406293049772,0.264731621678169
0.702983722594641,0.261505239164336
0.701847686521851,0.258279577855784
0.700655159061084,0.255054695903108
0.699406476994072,0.251830651456903
0.698101977102548,0.248607502667765
0.696741996168245,0.245385307686291
0.695326870972896,0.242164124663074
0.693856938298233,0.238944011748712
0.692332534925989,0.2357250270938
0.690753997637897,0.232507228848932
0.68912166321569,0.229290675164706
0.6874358684411,0.226075424191716
0.68569695009586,0.222861534080559
0.683905244961703,0.219649062981829
0.682061089820362,0.216438069046122
0.680164821453569,0.213228610424035
0.678216776643058,0.210020745266163
0.67621729217056,0.2068145317231
0.674166704817809,0.203610027945444
0.672065351366538,0.20040729208379
0.669913568598479,0.197206382288732
0.667711693295365,0.194007356710867
0.665460062238928,0.190810273500791
0.663159012210903,0.187615190809099
0.66080887999302,0.184422166786387
0.658410002367014,0.18123125958325
0.655962716114616,0.178042527350283
0.65346735801756,0.174856028238084
0.650924264857578,0.171671820397247
0.648333773416403,0.168489961978367
0.645696220475768,0.165310511132041
0.643011942817405,0.162133526008864
0.640281277223049,0.158959064759432
0.63750456047443,0.15578718553434
0.634682129353281,0.152617946484184
0.631814320641337,0.14945140575956
0.628901471120329,0.146287621511063
0.62594391757199,0.143126651889288
0.622941996778053,0.139968555044833
0.619896045520251,0.136813389128291
0.616806400580316,0.133661212290259
0.613673398739982,0.130512082681333
0.61049737678098,0.127366058452107
0.607278671485044,0.124223197753178
0.604017619633906,0.121083558735141
0.6007145580093,0.117947199548592
0.597369823392958,0.114814178344127
0.593983752566612,0.111684553272341
0.590556682311996,0.108558382483829
0.587088949410842,0.105435724129188
0.583580890644883,0.102316636359012
0.580032842795853,0.0992011773238989
0.576445142645482,0.0960894051744425
0.572818126975505,0.092981378061239
0.569152132567654,0.0898771541348839
0.565447496203662,0.086776791545973
0.561704554665261,0.0836803484451019
0.557923644734185,0.0805878829828661
0.554105103192166,0.0774994533098613
0.550249266820937,0.0744151175766831
0.54635647240223,0.0713349339339273
0.542427056717778,0.0682589605321892
0.538461356549315,0.0651872555220646
0.534459708678573,0.0621198770541492
0.530422449887285,0.0590568832790386
0.526349916957182,0.0559983323473283
0.522242446669999,0.052944282409614
0.518100375807468,0.0498947916164914
0.513924041151322,0.0468499181185561
0.509713779483293,0.0438097200664036
0.505469927585114,0.0407742556106296
0.501192822238519,0.0377435829018298
0.496882800225239,0.0347177600905997
0.492540198327007,0.031696845327535
0.488165353325557,0.0286808967632313
0.483758602002621,0.0256699725482843
0.479320281139932,0.0226641308332896
0.474850727519222,0.0196634297688427
0.470350277922224,0.0166679275055393
0.465819269130672,0.0136776821939752
0.461258037926297,0.0106927519847458
0.456666921090833,0.00771319502844672
0.452046255406012,0.00473906947567371
0.447396377653568,0.00177043347702237
0.442717624615232,-0.00119265481691165
0.438010333072738,-0.00415013725553283
0.433274839807818,-0.00710195568824545
0.428511481602205,-0.0100480519644539
0.423720595237633,-0.0129883679335626
0.418902517495832,-0.0159228454449759
0.414057585158537,-0.0188514263480981
0.409186135007481,-0.0217740524923337
0.404288503824395,-0.024690665727087
0.399365028391013,-0.0276012079017624
0.394416045489068,-0.0305056208657643
0.389441891900292,-0.0334038464684969
0.384442904406418,-0.0362958265593647
0.379419419789178,-0.0391815029877722
0.374371774830306,-0.0420608176031236
0.369300306311534,-0.0449337122548234
0.364205351014595,-0.0478001287922758
0.359087245721222,-0.0506600090648854
0.353946327213148,-0.0535132949220564
0.348782932272105,-0.0563599282131931
0.343597397679826,-0.0591998507877001
0.338390060218043,-0.0620330044949817
0.33316125666849,-0.0648593311844423
0.3279113238129,-0.067678772705486
0.322640598433005,-0.0704912709075175
0.317349417310537,-0.0732967676399412
0.31203811722723,-0.0760952047521612
0.306707034964817,-0.078886524093582
0.301356507305029,-0.0816706675136081
0.295986871029601,-0.0844475768616437
0.290598462920264,-0.0872171939870932
0.285191619758751,-0.0899794607393611
0.279766678326796,-0.0927343189678516
0.274323975406131,-0.0954817105219692
0.268863847778488,-0.0982215772511182
0.263386632225601,-0.100953861004703
0.257892665529202,-0.103678503632128
0.252382284471024,-0.106395446982798
0.246855825832799,-0.109104632906116
0.241313626396261,-0.111806003251488
0.235756022943143,-0.114499499868317
0.230183352255176,-0.117185064606009
0.224595951114094,-0.119862639313967
0.21899415630163,-0.122532165841596
0.213378304599516,-0.125193586038299
0.207748732789485,-0.127846841753483
0.20210577765327,-0.13049187483655
0.196449775972603,-0.133128627136906
0.190781064529218,-0.135757040503954
0.185099980104846,-0.138377056787099
0.179406859481222,-0.140988617835746
0.173702039440077,-0.143591665499299
0.167985856763145,-0.146186141627162
0.162258648232157,-0.148771988068739
0.156520750628848,-0.151349146673435
0.150772500734949,-0.153917559290654
0.145014235332194,-0.156477167769801
0.139246291202314,-0.159027913960281
0.133469005127044,-0.161569739711496
0.127682713888115,-0.164102586872852
0.121887754267261,-0.166626397293754
0.116084463046214,-0.169141112823605
0.110273177006707,-0.17164667531181
0.104454232930473,-0.174143026607773
0.0986279675992436,-0.176630108560899
0.0927947177947532,-0.179107863020591
0.0869548202987333,-0.181576231836256
0.0811086118929175,-0.184035156857296
0.075256429359038,-0.186484579933116
0.069398609478828,-0.18892444291312
0.0635354890340198,-0.191354687646714
0.0576674048063466,-0.193775255983301
0.0517946935775407,-0.196186089772285
0.0459176921293354,-0.198587130863071
0.0400367372434629,-0.200978321105064
0.0341521657016566,-0.203359602347668
0.0282643142856484,-0.205730916440287
0.0223735197771719,-0.208092205232325
0.0164801189579594,-0.210443410573187
0.0105844486097438,-0.212784474312277
0.00468684551425777,-0.215115338299
-0.00121235354676574,-0.21743594438276
-0.00711281179159431,-0.219746234412962
-0.0130141924384947,-0.222046150239009
-0.0189161587057347,-0.224335633710306
-0.0248183738115811,-0.226614626676258
-0.0307205009743014,-0.228883070986268
-0.0366222034121626,-0.231140908489742
-0.0425231443434324,-0.233388081036083
-0.0484229869863773,-0.235624530474697
-0.0543213945592654,-0.237850198654987
-0.0602180302803632,-0.240065027426357
-0.0661125573679385,-0.242268958638213
-0.0720046390402581,-0.244461934139958
-0.0778939385155896,-0.246643895780997
-0.0837801190121999,-0.248814785410734
-0.0896628437483566,-0.250974544878574
-0.0955417759423265,-0.253123116033921
-0.101416578812377,-0.255260440726179
-0.107286915576776,-0.257386460804753
-0.11315244945379,-0.259501118119047
-0.119012843661686,-0.261604354518465
-0.124867761418732,-0.263696111852413
-0.130716865943195,-0.265776331970293
-0.136559820453342,-0.267844956721511
-0.14239628816744,-0.269901927955472
-0.148225932303757,-0.271947187521578
-0.15404841608056,-0.273980677269235
-0.159863402716116,-0.276002339047848
-0.165670555428692,-0.278012114706819
-0.171469537436556,-0.280009946095555
-0.177260011957975,-0.281995775063459
-0.183041642211216,-0.283969543459935
-0.188814091414546,-0.285931193134389
-0.194577022786232,-0.287880665936223
-0.200330099544543,-0.289817903714844
-0.206072984907744,-0.291742848319654
-0.211805342094104,-0.293655441600059
-0.217526834321889,-0.295555625405463
-0.223237124809367,-0.29744334158527
-0.228935876774805,-0.299318531988885
-0.23462275343647,-0.301181138465711
-0.24029741801263,-0.303031102865154
-0.245959533721551,-0.304868367036617
-0.251608763781501,-0.306692872829506
-0.257244771410747,-0.308504562093224
-0.262867219827557,-0.310303376677176
-0.268475772250198,-0.312089258430766
-0.274070091896936,-0.313862149203399
-0.27964984198604,-0.315621990844478
-0.285214685735776,-0.317368725203409
-0.290764286364411,-0.319102294129596
-0.296298307090214,-0.320822639472443
-0.30181641113145,-0.322529703081354
-0.307318261706388,-0.324223426805734
-0.312803522033295,-0.325903752494987
-0.318271855330437,-0.327570621998518
-0.323722924816082,-0.32922397716573
-0.329156393708498,-0.330863759846029
-0.334571925225951,-0.332489911888819
-0.339969182586709,-0.334102375143504
-0.345347829009039,-0.335701091459488
-0.350707527711209,-0.337286002686176
-0.356047941911485,-0.338857050672972
-0.361368734828134,-0.34041417726928
-0.366669569679425,-0.341957324324506
-0.371950109683624,-0.343486433688053
-0.377210018058998,-0.345001447209325
-0.382448958023815,-0.346502306737728
-0.387666592796342,-0.347988954122665
-0.392862585594846,-0.349461331213541
-0.398036599637595,-0.35091937985976
-0.403188298142855,-0.352363041910726
-0.408317344328894,-0.353792259215845
-0.41342340141398,-0.355206973624519
-0.418506132616378,-0.356607126986155
-0.423565201154358,-0.357992661150155
-0.428600270246185,-0.359363517965925
-0.433611003110128,-0.360719639282869
-0.438597062964452,-0.36206096695039
-0.443558113027427,-0.363387442817895
-0.448493816517318,-0.364699008734786
-0.453403836652393,-0.365995606550468
-0.458287836650919,-0.367277178114346
-0.463145479731165,-0.368543665275825
-0.467976429111396,-0.369795009884307
-0.47278034800988,-0.371031153789199
-0.477556899644884,-0.372252038839903
-0.482305747234676,-0.373457606885825
-0.487026553997522,-0.374647799776369
-0.491718983151691,-0.375822559360939
-0.496382697915448,-0.37698182748894
-0.501017361507063,-0.378125546009776
-0.505622637144801,-0.379253656772851
-0.51019818804693,-0.38036610162757
-0.514743677431717,-0.381462822423337
-0.519258768517429,-0.382543761009557
-0.523743124522335,-0.383608859235633
-0.5281964086647,-0.384658058950971
-0.532618284162792,-0.385691302004975
-0.537008414234879,-0.386708530247048
-0.541366462099227,-0.387709685526596
-0.545692090974105,-0.388694709693023
-0.549984964077778,-0.389663544595732
-0.554244744628515,-0.39061613208413
-0.558471095844582,-0.391552414007619
-0.562663680944248,-0.392472332215604
-0.566822163145778,-0.39337582855749
-0.570946205667441,-0.394262844882681
-0.575035471727503,-0.395133323040581
-0.579089624544232,-0.395987204880595
-0.583108327335895,-0.396824432252128
-0.587091243320759,-0.397644947004582
-0.591038035717092,-0.398448690987364
-0.594948367743161,-0.399235606049877
-0.598821902617232,-0.400005634041525
-0.602658303557574,-0.400758716811714
-0.606457233782454,-0.401494796209847
-0.610218356510138,-0.402213814085328
-0.613941334958894,-0.402915712287563
-0.617625832346989,-0.403600432665955
-0.621271511892691,-0.404267917069909
-0.624878036814267,-0.404918107348829
-0.628445070329983,-0.40555094535212
-0.631972275658107,-0.406166372929186
-0.635459316016907,-0.406764331929431
-0.63890585462465,-0.40734476420226
-0.642311554699603,-0.407907611597077
-0.645676079460032,-0.408452815963286
-0.648999092124206,-0.408980319150293
-0.652280255910392,-0.4094900630075
-0.655519234036856,-0.409981989384313
-0.658715689721867,-0.410456040130136
-0.661869286183691,-0.410912157094374
-0.664979686640596,-0.41135028212643
-0.668046554310848,-0.411770357075709
-0.671069552412715,-0.412172323791616
-0.674048344164465,-0.412556124123555
-0.676982592784364,-0.412921699920929
-0.67987196149068,-0.413268993033145
-0.68271611350168,-0.413597945309605
-0.685514712035632,-0.413908498599715
-0.688267420310801,-0.414200594752878
-0.690973901545457,-0.4144741756185
-0.693633818957865,-0.414729183045984
-0.696246835766294,-0.414965558884734
-0.69881261518901,-0.415183244984156
-0.701330820444281,-0.415382183193654
-0.703801114750374,-0.415562315362631
-0.706223161325556,-0.415723583340493
-0.708596623388094,-0.415865928976644
-0.710921164156256,-0.415989294120487
-0.71319644684831,-0.416093620621428
-0.71542213468252,-0.416178850328871
-0.717597890877157,-0.41624492509222
-0.719723378650486,-0.41629178676088
-0.721798261220775,-0.416319377184254
-0.723822201806291,-0.416327638211748
-0.725794863625302,-0.416316511692766
-0.727715909896074,-0.416285939476711
-0.729585003836875,-0.416235863412989
-0.731401808665972,-0.416166225351004
-0.733165987601632,-0.41607696714016
-0.734877203862122,-0.415968030629862
-0.736535120665711,-0.415839357669514
-0.738139401230665,-0.41569089010852
-0.73968970877525,-0.415522569796284
-0.741185706517736,-0.415334338582212
-0.742627057676388,-0.415126138315707
-0.744013425469474,-0.414897910846174
-0.745344473115261,-0.414649598023017
-0.746619863832017,-0.41438114169564
-0.747839260838009,-0.414092483713449
-0.749002327351503,-0.413783565925846
-0.750108726590768,-0.413454330182238
-0.75115812177407,-0.413104718332027
-0.752150176119677,-0.412734672224619
-0.753084552845855,-0.412344133709418
-0.753960915170873,-0.411933044635828
-0.754778926312997,-0.411501346853253
-0.755538249490495,-0.411048982211099
-0.756238547921634,-0.410575892558768
-0.75687948482468,-0.410082019745666
-0.75687948482468,-0.410082019745666
-0.757482814905203,-0.409572826869387
-0.758070502488816,-0.40905383594401
-0.758642525223859,-0.408525077193671
-0.759198860758671,-0.407986580842507
-0.75973948674159,-0.407438377114654
-0.760264380820956,-0.406880496234246
-0.760773520645106,-0.406312968425421
-0.761266883862382,-0.405735823912313
-0.76174444812112,-0.405149092919059
-0.76220619106966,-0.404552805669794
-0.76265209035634,-0.403946992388654
-0.763082123629501,-0.403331683299776
-0.76349626853748,-0.402706908627295
-0.763894502728617,-0.402072698595346
-0.76427680385125,-0.401429083428065
-0.764643149553718,-0.40077609334959
-0.76499351748436,-0.400113758584054
-0.765327885291516,-0.399442109355595
-0.765646230623523,-0.398761175888347
-0.765948531128721,-0.398070988406448
-0.766234764455449,-0.397371577134031
-0.766504908252045,-0.396662972295235
-0.766758940166848,-0.395945204114193
-0.766996837848198,-0.395218302815042
-0.767218578944434,-0.394482298621919
-0.767424141103893,-0.393737221758958
-0.767613501974915,-0.392983102450295
-0.767786639205839,-0.392219970920067
-0.767943530445004,-0.391447857392409
-0.768084153340749,-0.390666792091457
-0.768208485541411,-0.389876805241347
-0.768316504695332,-0.389077927066215
-0.768408188450849,-0.388270187790196
-0.7684835144563,-0.387453617637426
-0.768542460360026,-0.386628246832042
-0.768585003810365,-0.385794105598179
-0.768611122455655,-0.384951224159972
-0.768620793944236,-0.384099632741558
-0.768613995924447,-0.383239361567073
-0.768590706044626,-0.382370440860652
-0.768550901953113,-0.381492900846431
-0.768494561298246,-0.380606771748546
-0.768421661728364,-0.379712083791133
-0.768332180891806,-0.378808867198327
-0.768226096436911,-0.377897152194265
-0.768103386012017,-0.376976969003083
-0.767964027265464,-0.376048347848915
-0.767807997845592,-0.375111318955898
-0.767635275400737,-0.374165912548168
-0.767445837579239,-0.373212158849861
-0.767239662029438,-0.372250088085112
-0.767016726399672,-0.371279730478058
-0.766777008338279,-0.370301116252833
-0.7665204854936,-0.369314275633575
-0.766247135513972,-0.368319238844418
-0.765956936047735,-0.367316036109499
-0.765649864743228,-0.366304697652953
-0.765325899248788,-0.365285253698917
-0.764985017212756,-0.364257734471525
-0.76462719628347,-0.363222170194914
-0.76425241410927,-0.362178591093221
-0.763860648338493,-0.361127027390579
-0.763451876619478,-0.360067509311127
-0.763026076600566,-0.359000067078998
-0.762583225930094,-0.357924730918329
-0.762123302256402,-0.356841531053257
-0.761646283227828,-0.355750497707916
-0.761152146492711,-0.354651661106442
-0.76064086969939,-0.353545051472972
-0.760112430496204,-0.352430699031641
-0.759566806531492,-0.351308634006585
-0.759003975453593,-0.350178886621941
-0.758423914910846,-0.349041487101842
-0.757826602551589,-0.347896465670426
-0.757212016024161,-0.346743852551829
-0.756580132976902,-0.345583677970186
-0.75593093105815,-0.344415972149632
-0.755264387916244,-0.343240765314305
-0.754580481199522,-0.342058087688339
-0.753879188556325,-0.340867969495871
-0.753160487634991,-0.339670440961036
-0.752424356083857,-0.33846553230797
-0.751670771551265,-0.337253273760809
-0.750899711685552,-0.336033695543689
-0.750111154135057,-0.334806827880746
-0.749305076548119,-0.333572700996115
-0.748481456573077,-0.332331345113932
-0.74764027185827,-0.331082790458334
-0.746781500052037,-0.329827067253456
-0.745905118802717,-0.328564205723433
-0.745011105758648,-0.327294236092402
-0.74409943856817,-0.326017188584498
-0.74317009487962,-0.324733093423858
-0.74222305234134,-0.323441980834616
-0.741258288601666,-0.32214388104091
-0.740275781308938,-0.320838824266874
-0.739275508111495,-0.319526840736646
-0.738257446657675,-0.318207960674359
-0.737221574595819,-0.316882214304151
-0.736167869574264,-0.315549631850156
-0.735096309241349,-0.314210243536512
-0.734006871245413,-0.312864079587353
-0.732899533234796,-0.311511170226816
-0.731774272857836,-0.310151545679037
-0.730631067762872,-0.308785236168151
-0.729469895598242,-0.307412271918293
-0.728290734012286,-0.306032683153601
-0.727093560653343,-0.304646500098209
-0.725878353169751,-0.303253752976254
-0.72464508920985,-0.301854472011871
-0.723393746421978,-0.300448687429197
-0.722124302454473,-0.299036429452366
-0.720836734955677,-0.297617728305515
-0.719531021573925,-0.29619261421278
-0.718207139957559,-0.294761117398297
-0.716865067754916,-0.293323268086201
-0.715504782614336,-0.291879096500628
-0.714126262184157,-0.290428632865714
-0.712729484112718,-0.288971907405595
-0.711314426048359,-0.287508950344406
-0.709881065639418,-0.286039791906284
-0.708429380534234,-0.284564462315365
-0.706959348381145,-0.283082991795783
-0.705470946828491,-0.281595410571676
-0.703964153524611,-0.280101748867178
-0.702438946117844,-0.278602036906426
-0.700895302256527,-0.277096304913556
-0.699333199589001,-0.275584583112703
-0.697752615763605,-0.274066901728003
-0.696153528428676,-0.272543290983591
-0.694535915232554,-0.271013781103605
-0.692899753823578,-0.269478402312179
-0.691245021850087,-0.26793718483345
-0.689571696960419,-0.266390158891553
-0.687879756802913,-0.264837354710624
-0.686169179025909,-0.263278802514799
-0.684439941277745,-0.261714532528214
-0.682692021206761,-0.260144574975005
-0.680925396461294,-0.258568960079307
-0.679140044689684,-0.256987718065256
-0.67733594354027,-0.255400879156988
-0.67551307066139,-0.253808473578639
-0.673671403701384,-0.252210531554345
-0.671810920308591,-0.250607083308242
-0.669931598131349,-0.248998159064465
-0.668033414817997,-0.24738378904715
-0.666116348016873,-0.245764003480433
-0.664180375376318,-0.24413883258845
-0.662225474544671,-0.242508306595337
-0.660251623170268,-0.240872455725229
-0.65825879890145,-0.239231310202263
-0.656246979386555,-0.237584900250574
-0.654216142273924,-0.235933256094298
-0.652166265211893,-0.234276407957571
-0.650097325848802,-0.232614386064528
-0.64800930183299,-0.230947220639306
-0.645902170812797,-0.229274941906041
-0.643775910436559,-0.227597580088867
-0.641630498352618,-0.225915165411922
-0.639465912209311,-0.224227728099341
-0.637282129654978,-0.222535298375259
-0.635079128337957,-0.220837906463812
-0.632856885906587,-0.219135582589137
-0.630615380009208,-0.21742835697537
-0.628354588294157,-0.215716259846645
-0.626074488409774,-0.213999321427099
-0.623775058004398,-0.212277571940867
-0.621456274726367,-0.210551041612087
-0.619118116224022,-0.208819760664892
-0.616760560145699,-0.20708375932342
-0.614383584139738,-0.205343067811805
-0.611987165854479,-0.203597716354184
-0.60957128293826,-0.201847735174694
-0.60713591303942,-0.200093154497468
-0.604681033806298,-0.198334004546644
-0.602206622887232,-0.196570315546357
-0.599712657930562,-0.194802117720742
-0.597199116584626,-0.193029441293937
-0.594665976497764,-0.191252316490076
-0.592113215318314,-0.189470773533296
-0.589540810694615,-0.187684842647732
-0.586948740275006,-0.18589455405752
-0.584336981707826,-0.184099937986795
-0.581705512641414,-0.182301024659695
-0.579054310724109,-0.180497844300354
-0.576383353604249,-0.178690427132909
-0.573692618930173,-0.176878803381495
-0.570982084350221,-0.175063003270248
-0.568251727512731,-0.173243057023304
-0.565501526066042,-0.171418994864798
-0.562731457658492,-0.169590847018867
-0.559941499938422,-0.167758643709647
-0.55713163055417,-0.165922415161273
-0.554301827154074,-0.16408219159788
-0.551452067386473,-0.162238003243606
-0.548582328899708,-0.160389880322585
-0.545692589342115,-0.158537853058954
-0.542782826362034,-0.156681951676849
-0.539853017607805,-0.154822206400404
-0.536903140727765,-0.152958647453757
-0.533933173370254,-0.151091305061042
-0.530943093183611,-0.149220209446396
-0.527932877816175,-0.147345390833954
-0.524902504916284,-0.145466879447853
-0.521851952132277,-0.143584705512228
-0.518781197112493,-0.141698899251215
-0.515690217505272,-0.13980949088895
-0.512578990958951,-0.137916510649569
-0.509447495121871,-0.136019988757207
-0.506295707642369,-0.134119955436
-0.503123606168785,-0.132216440910085
-0.499931168349457,-0.130309475403596
-0.496718371832725,-0.12839908914067
-0.493485194266927,-0.126485312345443
-0.490231613300402,-0.124568175242051
-0.48695760658149,-0.122647708054628
-0.483663151758528,-0.120723941007312
-0.480348226479856,-0.118796904324238
-0.477012808393813,-0.116866628229541
-0.473656875148737,-0.114933142947358
-0.470280404392968,-0.112996478701825
-0.466883373774844,-0.111056665717077
-0.463465760942705,-0.10911373421725
-0.460027543544889,-0.10716771442648
-0.456568699229734,-0.105218636568902
-0.453089205645581,-0.103266530868654
-0.449589040440767,-0.101311427549869
-0.446068181263632,-0.099353356836685
-0.442526605762515,-0.097392348953237
-0.438964291585754,-0.0954284341236609
-0.435381216381688,-0.0934616425720924
-0.431777357798657,-0.0914920045226676
-0.428152693484999,-0.0895195501995221
-0.424507201089052,-0.0875443098267919
-0.420840858259157,-0.0855663136286128
-0.417153642643651,-0.0835855918291205
-0.413445531890874,-0.0816021746524509
-0.409716503649164,-0.0796160923227399
-0.405966535566861,-0.0776273750641232
-0.402195605292303,-0.0756360531007368
-0.398403690473829,-0.0736421566567163
-0.394590768759779,-0.0716457159561978
-0.39075681779849,-0.0696467612233169
-0.386901815238302,-0.0676453226822095
-0.383025738727554,-0.0656414305570115
-0.379128565914584,-0.0636351150718587
-0.375210274447732,-0.0616264064508868
-0.371270841975336,-0.0596153349182318
-0.367310246145736,-0.0576019306980294
-0.363328464607269,-0.0555862240144157
-0.359325475008276,-0.0535682450915261
-0.355301254997094,-0.0515480241534968
-0.351255782222063,-0.0495255914244633
-0.347189034331522,-0.0475009771285618
-0.34310098897381,-0.0454742114899278
-0.338991623797265,-0.0434453247326974
-0.334860916450226,-0.0414143470810062
-0.330708844581032,-0.0393813087589902
-0.326535385838023,-0.0373462399907851
-0.322340517869536,-0.0353091710005269
-0.318124218323911,-0.0332701320123512
-0.313886464849487,-0.031229153250394
-0.309627235094603,-0.029186264938791
-0.305346506707597,-0.0271414973016782
-0.301044257336809,-0.0250948805631913
-0.296720464630576,-0.0230464449474662
-0.292375106237239,-0.0209962206786386
-0.288008159805136,-0.0189442379808445
-0.283619602982606,-0.0168905270782196
-0.279209413417988,-0.0148351181948999
-0.27477756875962,-0.012778041555021
-0.270324046655842,-0.0107193273827189
-0.265848824754993,-0.00865900590212925
-0.26135188070541,-0.00659710733738814
-0.256833192155434,-0.00453366191263118
-0.252292736753404,-0.00246869985199435
-0.247730492147656,-0.000402251379613319
-0.243146435986533,0.00166565328037589
-0.23854054591837,0.00373498390383766
-0.233912799591509,0.00580571026663597
-0.229263174654286,0.00787780214463514
-0.224591648755043,0.0099512293136992
-0.219898199542116,0.0120259615496925
-0.215182804663846,0.014101968628479
-0.210445441768571,0.016179220325923
-0.20568608850463,0.0182576864178886
-0.200904722520362,0.0203373366802402
-0.196101321464105,0.0224181408888416
-0.191275862984199,0.0245000688195573
-0.186428324728983,0.0265830902482512
-0.181558684346794,0.0286671749507877
-0.176666919485974,0.0307522927030307
-0.171753007794859,0.0328384132808448
-0.166816926921789,0.0349255064600937
-0.161858654515103,0.0370135420166419
-0.15687816822314,0.0391024897263534
-0.151875445694239,0.0411923193650925
-0.146850464576738,0.0432830007087231
-0.141803202518977,0.0453745035331098
-0.136733637169294,0.0474667976141164
-0.131641746176028,0.0495598527276072
-0.126527507187518,0.0516536386494464
-0.121390897852103,0.0537481251554982
-0.116231895818123,0.0558432820216266
-0.111050478733915,0.0579390790236961
-0.105846624247818,0.0600354859375704
-0.100620310008172,0.0621324725391142
-0.0953715136633157,0.0642300086041911
-0.0901002128615873,0.0663280639086658
-0.0848063852513264,0.0684266082284021
-0.0794900084808712,0.0705256113392645
-0.0741510601985612,0.0726250430171168
-0.0687895180527349,0.0747248730378234
-0.0634053596917314,0.0768250711772484
-0.0579985627638893,0.0789256072112561
-0.0525691049175479,0.0810264509157104
-0.0471169638010457,0.0831275720664758
-0.0416421170627219,0.0852289404394162
-0.036144542350915,0.0873305258103959
-0.0306242173139644,0.089432297955279
-0.0250811196002085,0.0915342266499299
-0.0195152268579865,0.0936362816702124
-0.0139265167356369,0.0957384327919909
-0.00831496688149919,0.0978406497911295
-0.00268055494391164,0.0999429024434925
0.00297674142878633,0.102045160524944
0.00865694458825637,0.104147393811348
0.0143600768861591,0.106249572078569
0.0200861606741561,0.108351665102471
0.025835218303908,0.110453642658918
0.0316072721270764,0.112555474523774
0.037402344495322,0.114657130472904
0.0432204577603062,0.116758580282171
0.0490616342736898,0.118859793727441
0.0549258963871344,0.120960740584576
0.0608132664523006,0.123061390629441
0.0667237668208501,0.125161713637901
0.0726574198444433,0.12726167938582
0.0786142478747419,0.129361257649061
0.0845942732634067,0.131460418203489
0.0905975183620991,0.133559130824968
0.0966240055224798,0.135657365289362
0.10267375709621,0.137755091372535
0.108746795434951,0.139852278850352
0.114843142890365,0.141948897498677
0.120962821814111,0.144044917093374
0.127105854557851,0.146140307410306
0.133272263473246,0.148235038225339
0.139462070911958,0.150329079314337
0.145675299225648,0.152422400453162
0.151911970765976,0.154514971417681
0.158172107884603,0.156606761983757
0.164455732933192,0.158697741927253
0.170762868263402,0.160787881024035
0.177093536226895,0.162877149049966
0.183447759175333,0.164965515780911
0.189825559460376,0.167052950992734
0.196226959433685,0.169139424461298
0.202651981446921,0.171224905962469
0.209100647851747,0.17330936527211
0.215572980999822,0.175392772166085
0.222069003242808,0.177475096420259
0.228588736932366,0.179556307810496
0.235132204420156,0.181636376112659
0.241699428057842,0.183715271102614
0.248290430197082,0.185792962556224
0.254905233189539,0.187869420249354
0.261543859386873,0.189944613957867
0.268206331140747,0.192018513457628
0.27489267080282,0.194091088524501
0.281602900724754,0.19616230893435
0.288337043258209,0.19823214446304
0.295095120754848,0.200300564886434
0.301877155566331,0.202367539980396
0.30868317004432,0.204433039520792
0.315513186540475,0.206497033283484
0.322367227406458,0.208559491044338
0.329245314993929,0.210620382579217
0.336147471654551,0.212679677663985
0.343073719739982,0.214737346074507
0.350024081601887,0.216793357586647
0.356998579591924,0.218847681976269
0.363997236061756,0.220900289019237
0.371020073363043,0.222951148491416
0.378067113847446,0.225000230168669
0.385138379866627,0.227047503826861
0.392233893772248,0.229092939241856
0.399353677915967,0.231136506189517
0.406497754649448,0.23317817444571
0.413666146324351,0.235217913786298
0.420858875292337,0.237255693987146
0.428075963905068,0.239291484824118
0.435317434514204,0.241325256073078
0.442583309471406,0.243356977509889
0.449873611128336,0.245386618910417
0.457188361836655,0.247414150050525
0.464527583948024,0.249439540706078
0.471891299814104,0.251462760652939
0.479279531786556,0.253483779666974
0.479279531786556,0.253483779666974
0.486626593378956,0.255502576079984
0.493867079618802,0.257519058967075
0.501001435128642,0.259533094219066
0.508030104531023,0.261544547726777
0.514953532448491,0.263553285381026
0.521772163503593,0.265559173072633
0.528486442318875,0.267562076692417
0.535096813516884,0.269561862131198
0.541603721720168,0.271558395279794
0.548007611551273,0.273551542029024
0.554308927632745,0.275541168269708
0.560508114587131,0.277527139892666
0.566605617036979,0.279509322788715
0.572601879604834,0.281487582848676
0.578497346913244,0.283461785963367
0.584292463584756,0.285431798023608
0.589987674241915,0.287397484920218
0.595583423507269,0.289358712544017
0.601080156003365,0.291315346785822
0.606478316352749,0.293267253536454
0.611778349177969,0.295214298686732
0.616980699101569,0.297156348127474
0.622085810746099,0.2990932677495
0.627094128734104,0.30102492344363
0.632006097688131,0.302951181100683
0.636822162230726,0.304871906611476
0.641542766984437,0.306786965866831
0.646168356571811,0.308696224757566
0.650699375615393,0.3105995491745
0.655136268737731,0.312496805008452
0.659479480561372,0.314387858150241
0.663729455708862,0.316272574490688
0.667886638802748,0.318150819920611
0.671951474465576,0.320022460330828
0.675924407319894,0.32188736161216
0.679805881988249,0.323745389655426
0.683596343093186,0.325596410351444
0.687296235257253,0.327440289591034
0.690906003102997,0.329276893265015
0.694426091252964,0.331106087264206
0.6978569443297,0.332927737479427
0.701199006955754,0.334741709801497
0.70445272375367,0.336547870121234
0.707618539345997,0.338346084329458
0.710696898355282,0.340136218316989
0.713688245404069,0.341918137974645
0.716593025114907,0.343691709193245
0.719411682110342,0.34545679786361
0.722144661012922,0.347213269876557
0.724792406445191,0.348960991122906
0.727355363029698,0.350699827493477
0.72983397538899,0.352429644879089
0.732228688145613,0.35415030917056
0.734539945922112,0.355861686258709
0.736768193341036,0.357563642034357
0.738913875024932,0.359256042388323
0.740977435596346,0.360938753211425
0.742959319677823,0.362611640394482
0.744859971891913,0.364274569828314
0.74667983686116,0.365927407403741
0.748419359208113,0.36757001901158
0.750078983555317,0.369202270542652
0.751659154525319,0.370824027887776
0.753160316740666,0.37243515693777
0.754582914823905,0.374035523583455
0.755927393397583,0.375624993715648
0.757194197084246,0.37720343322517
0.758383770506441,0.378770708002839
0.759496558286716,0.380326683939476
0.760533005047615,0.381871226925898
0.761493555411687,0.383404202852925
0.762378654001478,0.384925477611376
0.763188745439535,0.386434917092072
0.763924274348404,0.387932387185829
0.764585685350633,0.389417753783469
0.765173423068767,0.390890882775809
0.765687932125355,0.39235164005367
0.766129657142941,0.393799891507871
0.766499042744075,0.395235503029229
0.766796533551301,0.396658340508566
0.767022574187167,0.3980682698367
0.76717760927422,0.39946515690445
0.767262083435005,0.400848867602635
0.767276441292071,0.402219267822075
0.767221127467964,0.403576223453589
0.76709658658523,0.404919600387995
0.766903263266416,0.406249264516114
0.766641602134069,0.407565081728764
0.766312047810736,0.408866917916765
0.765915044918963,0.410154638970935
0.765451038081298,0.411428110782094
0.764920471920287,0.412687199241061
0.764323791058476,0.413931770238656
0.763661440118413,0.415161689665697
0.762933863722643,0.416376823413003
0.762141506493716,0.417577037371395
0.761284813054175,0.41876219743169
0.760364228026569,0.419932169484709
0.759380196033444,0.42108681942127
0.758333161697347,0.422226013132192
0.757223569640825,0.423349616508296
0.756051864486424,0.424457495440399
0.754818490856692,0.425549515819322
0.753523893374174,0.426625543535883
0.752168516661418,0.427685444480901
0.75075280534097,0.428729084545196
0.749277204035377,0.429756329619587
0.747742157367187,0.430767045594893
0.746148109958945,0.431761098361934
0.744495506433198,0.432738353811527
0.742784791412493,0.433698677834494
0.741016409519378,0.434641936321652
0.739190805376398,0.435567995163822
0.7373084236061,0.436476720251821
0.735369708831031,0.43736797747647
0.733375105673738,0.438241632728588
0.731325058756769,0.439097551898994
0.729220012702667,0.439935600878506
0.727060412133983,0.440755645557945
0.724846701673261,0.441557551828129
0.722579325943049,0.442341185579877
0.720258729565892,0.443106412704009
0.717885357164339,0.443853099091345
0.715459653360936,0.444581110632702
0.71298206277823,0.445290313218901
0.710453030038766,0.44598057274076
0.707872999765093,0.446651755089098
0.705242416579756,0.447303726154736
0.702561725105303,0.447936351828492
0.699831369964281,0.448549498001185
0.697051795779235,0.449143030563634
0.694223447172713,0.449716815406659
0.691346768767262,0.450270718421079
0.688422205185427,0.450804605497713
0.685450201049757,0.45131834252738
0.682431200982798,0.451811795400899
0.679365649607096,0.45228483000909
0.676253991545198,0.452737312242772
0.673096671419651,0.453169107992763
0.669894133853003,0.453580083149884
0.666646823467798,0.453970103604953
0.663355184886585,0.45433903524879
0.660019662731909,0.454686743972213
0.656640701626319,0.455013095666042
0.65321874619236,0.455317956221097
0.649754241052579,0.455601191528195
0.646247630829523,0.455862667478157
0.642699360145739,0.456102249961802
0.639109873623773,0.456319804869948
0.635479615886172,0.456515198093416
0.631809031555483,0.456688295523023
0.628098565254253,0.456838963049591
0.624348661605029,0.456967066563936
0.620559765230356,0.45707247195688
0.616732320752782,0.45715504511924
0.612866772794855,0.457214651941837
0.608963565979119,0.457251158315489
0.605023144928123,0.457264430131015
0.601045954264412,0.457254333279235
0.597032438610534,0.457220733650968
0.592983042589036,0.457163497137034
0.588898210822464,0.45708248962825
0.584778387933364,0.456977577015437
0.580624018544284,0.456848625189413
0.576435547277771,0.456695500040999
0.57221341875637,0.456518067461012
0.56795807760263,0.456316193340273
0.563669968439096,0.4560897435696
0.559349535888315,0.455838584039813
0.554997224572835,0.45556258064173
0.550613479115201,0.455261599266172
0.546198744137961,0.454935505803957
0.541753464263661,0.454584166145904
0.537278084114848,0.454207446182832
0.532773048314069,0.453805211805561
0.528238801483871,0.453377328904911
0.5236757882468,0.452923663371699
0.519084453225403,0.452444081096746
0.514465241042226,0.45193844797087
0.509818596319818,0.451406629884891
0.505144963680723,0.450848492729627
0.50044478774749,0.450263902395899
0.495718513142664,0.449652724774525
0.490966584488793,0.449014825756325
0.486189446408424,0.448350071232117
0.481387543524101,0.44765832709272
0.476561320458374,0.446939459228955
0.471711221833789,0.44619333353164
0.466837692272892,0.445419815891595
0.461941176398229,0.444618772199638
0.457022118832348,0.443790068346588
0.452080964197797,0.442933570223266
0.44711815711712,0.44204914372049
0.442134142212865,0.441136654729079
0.437129364107578,0.440195969139853
0.432104267423808,0.43922695284363
0.427059296784099,0.438229471731231
0.421994896810999,0.437203391693473
0.416911512127055,0.436148578621176
0.411809587354814,0.43506489840516
0.406689567116822,0.433952216936244
0.401551896035625,0.432810400105247
0.396397018733772,0.431639313802987
0.391225379833807,0.430438823920285
0.386037423958279,0.429208796347959
0.380833595729734,0.427949096976829
0.375614339770719,0.426659591697713
0.37038010070378,0.425340146401432
0.365131323151463,0.423990626978803
0.359868451736317,0.422610899320647
0.354591931080888,0.421200829317783
0.349302205807722,0.419760282861029
0.343999720539366,0.418289125841205
0.338684919898367,0.41678722414913
0.333358248507271,0.415254443675624
0.328020150988627,0.413690650311505
0.322671071964978,0.412095709947592
0.317311456058874,0.410469488474706
0.311941747892861,0.408811851783664
0.306562392089485,0.407122665765287
0.301173833271293,0.405401796310393
0.295776516060831,0.403649109309802
0.290370885080648,0.401864470654332
0.284957384953289,0.400047746234804
0.2795364603013,0.398198801942035
0.27410855574723,0.396317503666847
0.268674115913624,0.394403717300056
0.263233585423029,0.392457308732483
0.257787408897993,0.390478143854948
0.252336030961061,0.388466088558268
0.246879896234781,0.386421008733264
0.241419449341699,0.384342770270754
0.235955134904362,0.382231239061558
0.230487397545317,0.380086280996494
0.22501668188711,0.377907761966383
0.219543432552289,0.375695547862043
0.2140680941634,0.373449504574294
0.208591111342989,0.371169497993954
0.203112928713604,0.368855394011843
0.197633990897791,0.36650705851878
0.192154742518098,0.364124357405584
0.18667562819707,0.361707156563074
0.181197092557254,0.35925532188207
0.175719580221198,0.356768719253391
0.170243535811447,0.354247214567855
0.16476940395055,0.351690673716283
0.159297629261052,0.349098962589493
0.1538286563655,0.346471947078305
0.148362929886441,0.343809493073537
0.142900894446421,0.34111146646601
0.137442994667988,0.338377733146541
0.131989675173689,0.335608159005951
0.126541380586069,0.332802609935058
0.121098555527676,0.329960951824681
0.115661644621056,0.327083050565641
0.110231092488757,0.324168772048755
0.104807343753324,0.321217982164844
0.0993908430373055,0.318230546804726
0.0939820349632469,0.315206331859221
0.0885813641536957,0.312145203219148
0.0831892752311981,0.309047026775325
0.0778062128183015,0.305911668418573
0.072432621537552,0.30273899403971
0.0670689460114968,0.299528869529555
0.0617156308626823,0.296281160778928
0.0563731207136557,0.292995733678648
0.0510418601869631,0.289672454119534
0.0457222939051521,0.286311187992406
0.0404148664907684,0.282911801188082
0.0351200225663598,0.279474159597382
0.0298382067544722,0.275998129111124
0.0245698636776528,0.272483575620129
0.0193154379584483,0.268930365015214
0.0140753742194054,0.2653383631872
0.00885011708307071,0.261707436026906
0.00364011117199123,0.258037449425151
-0.00155419889128655,0.254328269272753
-0.00673236848421563,0.250579761460533
-0.0118939529842496,0.246791791879309
-0.0170385077688412,0.242964226419901
-0.0221655882154444,0.239096930973127
-0.0272747497015117,0.235189771429807
-0.0323655476044969,0.23124261368076
-0.037437537301853,0.227255323616806
-0.0424902741710334,0.223227767128763
-0.0475233135894911,0.219159810107451
-0.0525362109346798,0.215051318443689
-0.0575285215840521,0.210902158028296
-0.062499800915062,0.206712194752091
-0.0674496043051622,0.202481294505893
-0.0723774871318063,0.198209323180522
-0.0772830047724471,0.193896146666797
-0.0821657126045385,0.189541630855537
-0.0870251660055332,0.185145641637561
-0.0918609203528848,0.180708044903688
-0.0966725310240462,0.176228706544738
-0.101459553396471,0.17170749245153
-0.106221542847612,0.167144268514883
-0.110958054754924,0.162538900625615
-0.115668644495858,0.157891254674548
-0.120352867447868,0.153201196552498
-0.125010278988408,0.148468592150287
-0.129640434494931,0.143693307358732
-0.13424288934489,0.138875208068653
-0.138817198915738,0.13401416017087
-0.143362918584929,0.129110029556201
-0.147879603729916,0.124162682115465
-0.152366809728151,0.119171983739483
-0.156824091957089,0.114137800319073
-0.161251005794183,0.109059997745053
-0.165647106616885,0.103938441908244
-0.17001194980265,0.0987729986994652
-0.17434509072893,0.0935635340095345
-0.178646084773178,0.088309913729272
-0.182914487312849,0.0830120037494966
-0.187149853725394,0.0776696699610276
-0.191351739388268,0.0722827782546839
-0.195519699678923,0.0668511945212852
-0.199653289974814,0.0613747846516502
-0.203752065653392,0.0558534145365985
-0.207815582092112,0.0502869500669488
-0.211843394668427,0.0446752571335209
-0.215835058759789,0.0390182016271333
-0.219790129743653,0.0333156494386059
-0.223708162997471,0.0275674664587572
-0.227588713898697,0.0217735185784071
-0.231431337824783,0.0159336716883741
-0.235235590153184,0.0100477916794779
-0.239001026261352,0.00411574444253729
-0.242727201526741,-0.00186260413162816
-0.246413671326804,-0.0078873881521996
-0.250059991038994,-0.0139587417283575
-0.253665716040764,-0.020076798969283
-0.257230401709568,-0.0262416939841565
-0.26075360342286,-0.0324535608821595
-0.264234876558091,-0.0387125337724721
-0.267673776492716,-0.0450187467642755
-0.271069858604187,-0.0513723339667502
-0.274422678269959,-0.0577734294890776
-0.277731790867484,-0.0642221674404378
-0.280996751774215,-0.0707186819300122
-0.284217116367606,-0.0772631070669811
-0.28739244002511,-0.0838555769605258
-0.29052227812418,-0.0904962257198267
-0.29360618604227,-0.097185187454065
-0.296643719156832,-0.103922596272421
-0.299634432845321,-0.110708586284076
-0.302577882485188,-0.117543291598211
-0.305473623453889,-0.124426846324006
-0.308321211128875,-0.131359384570642
-0.3111202008876,-0.1383410404473
-0.313870148107517,-0.145371948063161
-0.31657060816608,-0.152452241527406
-0.319221136440742,-0.159582054949216
-0.321821288308956,-0.166761522437771
-0.324370619148175,-0.173990778102251
-0.326868684335853,-0.181269956051839
-0.329315039249442,-0.188599190395714
-0.331709239266397,-0.195978615243059
-0.33405083976417,-0.203408364703052
-0.336339396120214,-0.210888572884876
-0.338574463711984,-0.21841937389771
-0.340755597916931,-0.226000901850736
-0.34288235411251,-0.233633290853135
-0.344954287676173,-0.241316675014088
-0.346970953985374,-0.249051188442774
-0.348931908417567,-0.256836965248376
-0.350836706350204,-0.264674139540073
-0.352684903160738,-0.272562845427047
-0.354476054226623,-0.280503217018479
-0.356209714925313,-0.288495388423549
-0.357885440634259,-0.296539493751438
-0.359502786730917,-0.304635667111327
-0.361061308592738,-0.312784042612396
-0.362560561597176,-0.320984754363827
-0.364000101121685,-0.329237936474801
-0.365379482543718,-0.337543723054497
-0.366698261240727,-0.345902248212098
-0.367955992590167,-0.354313646056783
-0.36915223196949,-0.362778050697734
-0.370286534756149,-0.371295596244132
-0.371358456327599,-0.379866416805156
-0.372367552061292,-0.388490646489989
-0.373313377334681,-0.39716841940781
-0.37419548752522,-0.405899869667801
-0.375013438010362,-0.414685131379142
-0.37576678416756,-0.423524338651015
-0.376455081374268,-0.4324176255926
-0.377077885007938,-0.441365126313078
-0.377634750446024,-0.450366974921629
-0.37812523306598,-0.459423305527435
-0.378548888245258,-0.468534252239676
-0.378905271361312,-0.477699949167534
-0.379193937791594,-0.486920530420188
-0.379414442913559,-0.49619613010682
-0.37956634210466,-0.505526882336611
-0.379649190742349,-0.514912921218741
-0.37966254420408,-0.524354380862391
-0.379605957867307,-0.533851395376743
