0.914462368428532,-0.404453232687133
-0.207793628964497,-0.490299997264264
0.964589721852642,0.36696972756688
-0.126359351080477,-0.288878102442682
-1.2173084240136,-0.944725932452245
0.139751087301579,0.822813387412854
0.193241207446727,0.492459746750463
0.246731327591875,0.162106106088072
-0.296146268258881,0.99091176044209
0.99704072247175,0.70648280985532
