0.581325543054843,0.0885952677691701
0.581728479601824,0.0943243070614425
0.582069374985138,0.0999862784578554
0.582348608807071,0.105581391306649
0.582566560669909,0.111109854956065
0.582723610175937,0.116571878754342
0.582820136927439,0.121967672049722
0.582856520526701,0.127297444190444
0.582833140576008,0.132561404524749
0.582750376677645,0.137759762400878
0.582608608433897,0.142892727167071
0.58240821544705,0.147960508171568
0.582149577319389,0.15296331476261
0.581833073653199,0.157901356288437
0.581459084050765,0.162774842097289
0.581027988114371,0.167583981537407
0.580540165446305,0.172328983957032
0.57999599564885,0.177010058704404
0.579395858324292,0.181627415127762
0.578740133074915,0.186181262575348
0.578029199503006,0.190671810395403
0.577263437210849,0.195099267936165
0.57644322580073,0.199463844545877
0.575568944874933,0.203765749572777
0.574640974035744,0.208005192365107
0.573659692885448,0.212182382271108
0.57262548102633,0.216297528639018
0.571538718060675,0.22035084081708
0.570399783590769,0.224342528153532
0.569209057218897,0.228272799996617
0.567966918547343,0.232141865694573
0.566673747178394,0.235949934595642
0.565329922714334,0.239697216048064
0.563935824757448,0.243383919400079
0.562491832910021,0.247010253999927
0.560998326774339,0.25057642919585
0.559455685952687,0.254082654336088
0.557864290047351,0.25752913876888
0.556224518660614,0.260916091842467
0.554536751394763,0.264243722905091
0.552801367852082,0.26751224130499
0.551018747634857,0.270721856390406
0.549189270345374,0.273872777509579
0.547313315585915,0.276965214010749
0.545391262958769,0.279999375242157
0.543423492066219,0.282975470552043
0.54141038251055,0.285893709288648
0.539352313894048,0.288754300800211
0.537249665818999,0.291557454434975
0.535102817887686,0.294303379541178
0.532912149702396,0.296992285467061
0.530678040865413,0.299624381560864
0.528400870979023,0.302199877170829
0.52608101964551,0.304718981645195
0.523718866467161,0.307181904332203
0.521314791046259,0.309588854580094
0.518869172985092,0.311940041737107
0.516382391885942,0.314235675151483
0.513854827351097,0.316475964171462
0.51128685898284,0.318661118145285
0.508678866383457,0.320791346421193
0.506031229155233,0.322866858347425
0.503344326900454,0.324887863272223
0.500618539221404,0.326854570543826
0.49785424572037,0.328767189510475
0.495051825999635,0.33062592952041
0.492211659661485,0.332430999921872
0.489334126308205,0.334182610063101
0.486419605542081,0.335880969292337
0.483468476965397,0.337526286957822
0.480481120180439,0.339118772407795
0.477457914789492,0.340658634990496
0.474399240394841,0.342146084054167
0.471305476598772,0.343581328947048
0.468177003003569,0.344964579017378
0.465014199211517,0.346296043613399
0.461817444824903,0.34757593208335
0.45858711944601,0.348804453775473
0.455323602677124,0.349981818038008
0.452027274120531,0.351108234219194
0.448698513378515,0.352183911667273
0.445337700053362,0.353209059730485
0.441945213747357,0.35418388775707
0.438521434062785,0.355108605095269
0.435066740601931,0.355983421093321
0.43158151296708,0.356808545099469
0.428066130760518,0.357584186461951
0.42452097358453,0.358310554529008
0.4209464210414,0.358987858648881
0.417342852733415,0.359616308169811
0.413710648262859,0.360196112440036
0.410050187232017,0.360727480807799
0.406361849243175,0.361210622621339
0.402646013898617,0.361645747228897
0.39890306080063,0.362033063978713
0.395133369551497,0.362372782219027
0.391337319753505,0.36266511129808
0.387515291008939,0.362910260564113
0.383667662920082,0.363108439365366
0.379794815089222,0.363259857050078
0.375897127118643,0.363364722966492
0.37197497861063,0.363423246462846
0.368028749167468,0.363435636887382
0.364058818391442,0.363402103588339
0.360065565884838,0.363322855913959
0.356049371249941,0.363198103212481
0.352010614089036,0.363028054832147
0.347949674004409,0.362812920121196
0.343866930598343,0.362552908427868
0.339762763473125,0.362248229100405
0.33563755223104,0.361899091487047
0.331491676474373,0.361505704936034
0.327325515805408,0.361068278795606
0.323139449826432,0.360587022414004
0.31893385813973,0.360062145139468
0.314709120347585,0.359493856320239
0.310465616052285,0.358882365304558
0.306203724856114,0.358227881440663
0.301923826361356,0.357530614076797
0.297626300170298,0.356790772561199
0.293311525885224,0.35600856624211
0.28897988310842,0.35518420446777
0.284631751442171,0.354317896586419
0.280267510488761,0.353409851946298
0.275887539850477,0.352460279895648
0.271492219129603,0.351469389782709
0.267081927928424,0.350437390955721
0.262657045849226,0.349364492762924
0.258217952494294,0.348250904552559
0.253765027465913,0.347096835672867
0.249298650366368,0.345902495472088
0.244819200797944,0.344668093298461
0.240327058362927,0.343393838500229
0.235822602663602,0.342079940425631
0.231306213302253,0.340726608422906
0.226778269881166,0.339334051840297
0.222239152002627,0.337902480026043
0.21768923926892,0.336432102328385
0.213128911282331,0.334923128095563
0.208558547645144,0.333375766675817
0.203978527959645,0.331790227417389
0.199389231828119,0.330166719668517
0.194791038852851,0.328505452777443
0.190184328636127,0.326806636092408
0.185569480780232,0.325070478961651
0.18094687488745,0.323297190733412
0.176316890560067,0.321486980755934
0.171679907400368,0.319640058377454
0.167036305010639,0.317756632946216
0.162386462993163,0.315836913810457
0.157730760950228,0.31388111031842
0.153069578484117,0.311889431818344
0.148403295197116,0.30986208765847
0.143732290691511,0.307799287187038
0.139056944569586,0.305701239752288
0.134377636433626,0.303568154702462
0.129694745885917,0.301400241385799
0.125008652528743,0.29919770915054
0.120319735964391,0.296960767344925
0.115628375795145,0.294689625317194
0.11093495162329,0.292384492415589
0.106239843051112,0.29004557798835
0.101543429680895,0.287673091383716
0.0968460911149257,0.285267241949928
0.0921482069554881,0.282828239035227
0.0874501568048678,0.280356291987853
0.0827523202653497,0.277851610156047
0.0780550769392192,0.275314402888048
0.0733588064287615,0.272744879532098
0.0686638883362617,0.270143249436437
0.063970702264005,0.267509721949305
0.0592796278142764,0.264844506418942
0.0545910445893614,0.262147812193589
0.049905332191545,0.259419848621487
0.0452228702231123,0.256660825050875
0.0405440382863486,0.253870950829994
0.035869215983539,0.251050435307085
0.0311987829169687,0.248199487830388
0.0265331186889229,0.245318317748144
0.0218726029016865,0.242407134408592
0.0172176151575453,0.239466147159973
0.0125685350587839,0.236495565350528
0.0079257422076876,0.233495598328497
0.00328961620654172,0.230466455442121
-0.00133946334236867,0.227408346039639
-0.00596111683675837,0.224321479469293
-0.0105749646743422,0.221206065079322
-0.0151806272528352,0.218062312217967
-0.0197777249699518,0.214890430233469
-0.0243658782234069,0.211690628474067
-0.0289447074109157,0.208463116288003
-0.0335138329301927,0.205208103023517
-0.0380728751789529,0.201925798028848
-0.0426214545549108,0.198616410652239
-0.0471591914557817,0.195280150241927
-0.0516857062792802,0.191917226146156
-0.0562006194231209,0.188527847713164
-0.0607035512850189,0.185112224291192
-0.065194122262689,0.181670565228481
-0.0696719527538461,0.178203079873271
-0.0741366631562048,0.174709977573802
-0.0785878738674802,0.171191467678315
-0.0830252052853868,0.16764775953505
-0.0874482778076398,0.164079062492247
-0.0918567118319536,0.160485585898148
-0.0962501277560434,0.156867539100992
-0.100628145977624,0.15322513144902
-0.10499038689441,0.149558572290471
-0.109336470904116,0.145868070973588
-0.113666018404458,0.14215383684661
-0.117978649793149,0.138416079257777
-0.122273985467905,0.13465500755533
-0.126551645826441,0.130870831087509
-0.130811251266472,0.127063759202555
-0.135052422185711,0.123234001248707
-0.139274778981875,0.119381766574208
-0.143477942052678,0.115507264527296
-0.147661531795834,0.111610704456212
-0.151825168609059,0.107692295709198
-0.155968472890068,0.103752247634492
-0.160091065036575,0.0997907695803359
-0.164192565446295,0.0958080708949695
-0.168272594516943,0.0918043609266336
-0.172330772646233,0.0877798490235683
-0.176366720231881,0.0837347445340144
-0.180380057671602,0.0796692568062117
-0.18437040536311,0.0755835951884012
-0.18833738370412,0.0714779690288229
-0.192280613092346,0.0673525876757176
-0.196199713925505,0.0632076604773252
-0.200094306601309,0.0590433967818866
-0.203964011517476,0.0548600059376419
-0.207808449071718,0.0506576972928317
-0.211627239661752,0.0464366801956961
-0.215420003685291,0.0421971639944759
-0.219186361540051,0.0379393580374113
-0.222925933623746,0.0336634716727427
-0.226638340334092,0.0293697142487104
-0.230323202068803,0.0250582951135553
-0.233980139225594,0.020729423615517
-0.237608772202179,0.0163833091028368
-0.241208721396275,0.0120201609237544
-0.244779607205595,0.00764018842651068
-0.248321050027854,0.00324360095934556
-0.251832670260767,-0.00116939212949996
-0.255314088302049,-0.00559858149178605
-0.258764924549415,-0.0100437577792718
-0.262184799400579,-0.0145047116437172
-0.265573333253257,-0.0189812337368816
-0.268930146505163,-0.0234731147105247
-0.272254859554012,-0.027980145216406
-0.275547092797519,-0.0325021159062853
-0.278806466633399,-0.0370388174319219
-0.282032601459366,-0.0415900404450757
-0.285225117673136,-0.0461555755975058
-0.288383635672423,-0.0507352135409725
-0.291507775854941,-0.0553287449272348
-0.294597158618407,-0.0599359604080526
-0.297651404360534,-0.0645566506351852
-0.300670133479038,-0.0691906062603927
-0.303652966371634,-0.0738376179354342
-0.306599523436035,-0.0784974763120696
-0.309509425069958,-0.0831699720420581
-0.312382291671116,-0.0878548957771599
-0.315217743637224,-0.092552038169134
-0.318015401365999,-0.0972611898697404
-0.320774885255154,-0.101982141530738
-0.323495815702403,-0.106714683803888
-0.326177813105463,-0.111458607340948
-0.328820497862047,-0.116213702793679
-0.331423490369871,-0.12097976081384
-0.33398641102665,-0.125756572053191
-0.336508880230098,-0.130543927163491
-0.33899051837793,-0.1353416167965
-0.34143094586786,-0.140149431603977
-0.343829783097605,-0.144967162237682
-0.346186650464878,-0.149794599349375
-0.348501168367394,-0.154631533590815
-0.350772957202869,-0.159477755613763
-0.353001637369017,-0.164333056069976
-0.355186829263552,-0.169197225611216
-0.35732815328419,-0.174070054889241
-0.359425229828646,-0.178951334555811
-0.361477679294634,-0.183840855262687
-0.36348512207987,-0.188738407661626
-0.365447178582067,-0.19364378240439
-0.367363469198941,-0.198556770142737
-0.369233614328207,-0.203477161528428
-0.371057234367579,-0.208404747213221
-0.372833949714773,-0.213339317848877
-0.374563380767503,-0.218280664087154
-0.376245147923483,-0.223228576579813
-0.37787887158043,-0.228182845978613
-0.379464172136057,-0.233143262935314
-0.38100066998808,-0.238109618101675
-0.382487985534213,-0.243081702129457
-0.38392573917217,-0.248059305670417
-0.385313551299668,-0.253042219376317
-0.386651042314421,-0.258030233898915
-0.387937832614143,-0.263023139889972
-0.38917354259655,-0.268020728001247
-0.390357792659356,-0.273022788884499
-0.391490203200275,-0.278029113191488
-0.392570394617024,-0.283039491573974
-0.393597987307317,-0.288053714683716
-0.394572601668868,-0.293071573172474
-0.395493858099392,-0.298092857692007
-0.396361376996605,-0.303117358894076
-0.397174778758221,-0.308144867430439
-0.397933683781954,-0.313175173952856
-0.39863771246552,-0.318208069113087
-0.399286485206634,-0.323243343562891
-0.39987962240301,-0.328280787954029
-0.400416744452363,-0.333320192938259
-0.400897471752408,-0.338361349167341
-0.40132142470086,-0.343404047293035
-0.401688223695434,-0.3484480779671
-0.401997489133844,-0.353493231841296
-0.402248841413805,-0.358539299567383
-0.402441900933033,-0.36358607179712
-0.402576288089241,-0.368633339182266
-0.402651623280146,-0.373680892374582
-0.40266752690346,-0.378728522025827
-0.4026236193569,-0.38377601878776
-0.402519521038181,-0.388823173312142
-0.402354852345017,-0.393869776250731
-0.402129233675122,-0.398915618255287
-0.401842285426212,-0.40396048997757
-0.401493627996002,-0.40900418206934
-0.401082881782206,-0.414046485182356
-0.400609667182539,-0.419087189968377
-0.400073604594717,-0.424126087079164
-0.399474314416453,-0.429162967166476
-0.398811417045463,-0.434197620882071
-0.398084532879462,-0.439229838877711
-0.397293282316163,-0.444259411805155
-0.396437285753283,-0.449286130316162
-0.395516163588536,-0.454309785062491
-0.394529536219637,-0.459330166695903
-0.393477024044301,-0.464347065868157
-0.392358247460242,-0.469360273231013
-0.391172826865175,-0.474369579436229
-0.389920382656815,-0.479374775135567
-0.388600535232878,-0.484375650980785
-0.387212904991077,-0.489371997623642
-0.385757112329128,-0.494363605715899
-0.384232777644745,-0.499350265909316
-0.382639521335643,-0.504331768855651
-0.380976963799538,-0.509307905206664
-0.379244725434143,-0.514278465614115
-0.377442426637175,-0.519243240729764
-0.375569687806346,-0.52420202120537
-0.373626129339374,-0.529154597692693
-0.371611371633971,-0.534100760843492
-0.369525035087854,-0.539040301309526
-0.367366740098736,-0.543973009742557
-0.365136107064333,-0.548898676794342
-0.36283275638236,-0.553817093116642
-0.360456308450531,-0.558728049361215
-0.358006383666561,-0.563631336179823
-0.355482602428165,-0.568526744224225
-0.352884585133058,-0.573414064146179
-0.350211952178955,-0.578293086597446
-0.34746432396357,-0.583163602229785
-0.344641320884619,-0.588025401694956
-0.341742563339816,-0.592878275644718
-0.338767671726875,-0.597722014730832
-0.335716266443513,-0.602556409605056
-0.332587967887443,-0.607381250919149
-0.329382396456381,-0.612196329324873
-0.326099172548041,-0.617001435473986
-0.322737916560138,-0.621796360018248
-0.319298248890387,-0.626580893609419
-0.315779789936502,-0.631354826899258
-0.3121821600962,-0.636117950539524
-0.308504979767193,-0.640870055181978
-0.304747869347198,-0.645610931478378
-0.30091044923393,-0.650340370080486
-0.296992339825102,-0.655058161640058
-0.292993161518429,-0.659764096808857
-0.288912534711627,-0.664457966238641
-0.284750079802411,-0.66913956058117
-0.280505417188495,-0.673808670488204
-0.276178167267594,-0.678465086611501
-0.271767950437423,-0.683108599602822
-0.267274387095696,-0.687739000113927
-0.262697097640129,-0.692356078796574
-0.258035702468436,-0.696959626302523
-0.253289821978333,-0.701549433283535
-0.248459076567533,-0.706125290391368
-0.243543086633753,-0.710686988277782
-0.238541472574705,-0.715234317594537
-0.233453854788107,-0.719767068993393
-0.228279853671672,-0.724285033126108
-0.223019089623115,-0.728788000644443
-0.21767118304015,-0.733275762200158
-0.212235754320494,-0.73774810844501
-0.20671242386186,-0.742204830030762
-0.201100812061964,-0.746645717609171
-0.19540053931852,-0.751070561831998
-0.19540053931852,-0.751070561831998
-0.189683087278381,-0.755446840713074
-0.184020067983835,-0.759742406901313
-0.178411297425752,-0.7639576130011
-0.172856591594998,-0.768092811616819
-0.167355766482444,-0.772148355352853
-0.161908638078956,-0.776124596813588
-0.156515022375403,-0.780021888603406
-0.151174735362653,-0.783840583326692
-0.145887593031575,-0.787581033587831
-0.140653411373037,-0.791243591991205
-0.135472006377907,-0.794828611141199
-0.130343194037054,-0.798336443642198
-0.125266790341346,-0.801767442098585
-0.120242611281651,-0.805121959114744
-0.115270472848838,-0.808400347295059
-0.110350191033774,-0.811602959243915
-0.105481581827328,-0.814730147565695
-0.100664461220369,-0.817782264864784
-0.0958986452037641,-0.820759663745565
-0.0911839497683825,-0.823662696812423
-0.0865201909050921,-0.826491716669742
-0.0819071846047613,-0.829247075921905
-0.0773447468582584,-0.831929127173297
-0.0728326936564516,-0.834538223028302
-0.0683708409902094,-0.837074716091304
-0.0639590048503998,-0.839538958966687
-0.0595970012278914,-0.841931304258835
-0.0552846461135523,-0.844252104572132
-0.051021755498251,-0.846501712510962
-0.0468081453728555,-0.848680480679709
-0.0426436317282344,-0.850788761682757
-0.0385280305552558,-0.852826908124491
-0.0344611578447881,-0.854795272609294
-0.0304428295876996,-0.85669420774155
-0.0264728617748585,-0.858524066125644
-0.0225510703971333,-0.860285200365959
-0.0186772714453921,-0.86197796306688
-0.0148512809105032,-0.863602706832791
-0.011072914783335,-0.865159784268074
-0.00734198905475584,-0.866649547977116
-0.00365831971563391,-0.8680723505643
-2.17227568375528e-05,-0.86942854463401
0.00356798583076495,-0.870718482790629
0.00711099005630529,-0.871942517638542
0.0106074739289152,-0.873101001782134
0.0140576214577262,-0.874194287825787
0.0174616166518703,-0.875222728373886
0.020819643520479,-0.876186676030816
0.024131886072684,-0.87708648340096
0.027398528317617,-0.877922503088702
0.0306197542644098,-0.878695087698426
0.033795747922194,-0.879404589834517
0.0369266933001013,-0.880051362101359
0.0400127744072635,-0.880635757103335
0.0430541752528122,-0.881158127444829
0.0460510798458792,-0.881618825730226
0.049003672195596,-0.882018204563909
0.0519121363110946,-0.882356616550264
0.0547766562015064,-0.882634414293673
0.0575974158759633,-0.882851950398521
0.060374599343597,-0.883009577469192
0.063108390613539,-0.88310764811007
0.0657989736949212,-0.883146514925538
0.0684465325968753,-0.883126530519982
0.0710512513285329,-0.883048047497785
0.0736133138990258,-0.882911418463331
0.0761329043174855,-0.882716996021004
0.0786102065930439,-0.882465132775189
0.0810454047348327,-0.882156181330269
0.0834386827519835,-0.881790494290629
0.0857902246536281,-0.881368424260651
0.088100214448898,-0.880890323844721
0.0903688361469252,-0.880356545647223
0.0925962737568412,-0.879767442272541
0.0947827112877777,-0.879123366325058
0.0969283327488664,-0.878424670409159
0.0990333221492392,-0.877671707129228
0.101097863498028,-0.876864829089648
0.103122140804363,-0.876004388894804
0.105106338077378,-0.87509073914908
0.107050639326203,-0.874124232456861
0.108955228559971,-0.873105221422529
0.110820289787813,-0.872034058650469
0.112646007018861,-0.870911096745066
0.114432564262247,-0.869736688310703
0.116180145527102,-0.868511185951764
0.117888934822557,-0.867234942272633
0.119559116157746,-0.865908309877695
0.121190873541798,-0.864531641371333
0.122784390983847,-0.863105289357932
0.124339852493024,-0.861629606441875
0.125857442078459,-0.860104945227547
0.127337343749287,-0.858531658319332
0.128779741514636,-0.856910098321613
0.130184819383641,-0.855240617838775
0.131552761365432,-0.853523569475202
0.13288375146914,-0.851759305835278
0.134177973703899,-0.849948179523386
0.135435612078838,-0.848090543143912
0.136656850603091,-0.846186749301238
0.137841873285789,-0.844237150599751
0.138990864136063,-0.842242099643831
0.140104007163045,-0.840201949037865
0.141181486375867,-0.838117051386237
0.14222348578366,-0.83598775929333
0.143230189395557,-0.833814425363528
0.144201781220689,-0.831597402201216
0.145138445268187,-0.829337042410777
0.146040365547184,-0.827033698596596
0.146907726066811,-0.824687723363056
0.147740710836199,-0.822299469314542
0.148539503864481,-0.819869289055438
0.149304289160788,-0.817397535190127
0.150035250734252,-0.814884560322994
0.150732572594005,-0.812330717058423
0.151396438749178,-0.809736358000799
0.152027033208903,-0.807101835754504
0.152624539982311,-0.804427502923923
0.153189143078535,-0.80171371211344
0.153721026506706,-0.79896081592744
0.154220374275955,-0.796169166970305
0.154687370395415,-0.793339117846421
0.155122198874218,-0.790471021160171
0.155525043721494,-0.78756522951594
0.155896088946376,-0.784622095518111
0.156235518557995,-0.781641971771069
0.156543516565482,-0.778625210879196
0.156820266977971,-0.775572165446879
0.157065953804592,-0.772483188078501
0.157280761054477,-0.769358631378445
0.157464872736758,-0.766198847951095
0.157618472860566,-0.763004190400837
0.157741745435033,-0.759775011332054
0.157834874469292,-0.756511663349129
0.157898043972473,-0.753214499056448
0.157931437953708,-0.749883871058393
0.157935240422129,-0.74652013195935
0.157909635386868,-0.743123634363702
0.157854806857056,-0.739694730875833
0.157770938841825,-0.736233774100127
0.157658215350307,-0.732741116640969
0.157516820391633,-0.729217111102742
0.157346937974936,-0.72566211008983
0.157148752109346,-0.722076466206618
0.156922446803996,-0.718460532057489
0.156668206068018,-0.714814660246828
0.156386213910542,-0.711139203379019
0.156076654340701,-0.707434514058446
0.155739711367626,-0.703700944889492
0.155375569000449,-0.699938848476542
0.154984411248303,-0.69614857742398
0.154566422120317,-0.692330484336189
0.154121785625625,-0.688484921817555
0.153650685773358,-0.684612242472461
0.153153306572647,-0.680712798905291
0.152629832032624,-0.676786943720429
0.152080446162422,-0.67283502952226
0.151505332971171,-0.668857408915166
0.150904676468004,-0.664854434503533
0.150278660662051,-0.660826458891745
0.149627469562446,-0.656773834684184
0.148951287178319,-0.652696914485237
0.148250297518802,-0.648596050899285
0.147524684593027,-0.644471596530715
0.146774632410125,-0.640323903983909
0.146000324979229,-0.636153325863252
0.14520194630947,-0.631960214773127
0.144379680409979,-0.62774492331792
0.143533711289889,-0.623507804102013
0.142664222958331,-0.619249209729791
0.141771399424436,-0.614969492805638
0.140855424697338,-0.610669005933938
0.139916482786166,-0.606348101719076
0.138954757700053,-0.602007132765434
0.137970433448131,-0.597646451677398
0.136963694039531,-0.593266411059351
0.135934723483385,-0.588867363515677
0.134883705788825,-0.584449661650761
0.133810824964982,-0.580013658068986
0.132716265020988,-0.575559705374736
0.131600209965975,-0.571088156172396
0.130462843809075,-0.56659936306635
0.129304350559418,-0.562093678660981
0.128124914226138,-0.557571455560675
0.126924718818365,-0.553033046369813
0.125703948345232,-0.548478803692782
0.124462786815869,-0.543909080133964
0.123201418239409,-0.539324228297745
0.121920026624984,-0.534724600788508
0.120618795981724,-0.530110550210636
0.119297910318762,-0.525482429168515
0.11795755364523,-0.520840590266527
0.116597909970259,-0.516185386109058
0.115219163302981,-0.511517169300491
0.113821497652528,-0.506836292445211
0.112405097028031,-0.502143108147601
0.110970145438621,-0.497437969012046
0.109516826893432,-0.492721227642928
0.108045325401594,-0.487993236644633
0.106555824972239,-0.483254348621546
0.105048509614498,-0.478504916178048
0.103523563337505,-0.473745291918526
0.101981170150389,-0.468975828447362
0.100421514062283,-0.464196878368941
0.0988447790823193,-0.459408794287646
0.0972511492196286,-0.454611928807863
0.0956408084833427,-0.449806634533975
0.0940139408825936,-0.444993264070366
0.0923707304265129,-0.44017217002142
0.0907113611242323,-0.435343704991521
0.0890360169848835,-0.430508221585053
0.0873448820175982,-0.4256660724064
0.085638140231508,-0.420817610059947
0.0839159756357448,-0.415963187150078
0.0821785722394402,-0.411103156281175
0.0804261140517258,-0.406237870057624
0.0786587850817335,-0.401367681083809
0.0768767693385949,-0.396492941964113
0.0750802508314416,-0.391614005302921
0.0732694135694055,-0.386731223704617
0.0714444415616181,-0.381844949773584
0.0696055188172113,-0.376955536114207
0.0677528293453166,-0.37206333533087
0.0658865571550659,-0.367168700027957
0.0640068862555907,-0.362271982809852
0.0621140006560228,-0.357373536280939
0.0602080843654939,-0.352473713045602
0.0582893213931358,-0.347572865708226
0.0563578957480801,-0.342671346873193
0.0544139914394585,-0.337769509144889
0.0524577924764025,-0.332867705127697
0.0504894828680443,-0.327966287426002
0.0485092466235151,-0.323065608644186
0.0465172677519469,-0.318166021386636
0.0445137302624712,-0.313267878257733
0.0424988181642199,-0.308371531861864
0.0404727154663246,-0.303477334803411
0.038435606177917,-0.298585639686759
0.0363876743081287,-0.293696799116292
0.0343291038660917,-0.288811165696393
0.0322600788609373,-0.283929092031447
0.0301807833017976,-0.279050930725839
0.0280914011978039,-0.274177034383951
0.0259921165580883,-0.269307755610168
0.0238831133917822,-0.264443447008874
0.0217645757080175,-0.259584461184454
0.0196366875159256,-0.25473115074129
0.0174996328246387,-0.249883868283768
0.015353595643288,-0.245042966416272
0.0131987599810055,-0.240208797743184
0.0110353098469227,-0.23538171486889
0.00886342925017154,-0.230562070397774
0.00668330219988347,-0.225750216934219
0.00449511270519044,-0.22094650708261
0.00229904477522394,-0.21615129344733
9.52824191157997e-05,-0.211364928632764
-0.00211599035400239,-0.206587765243296
-0.00433458953499881,-0.20182015588331
-0.00656033111474187,-0.197062453157189
-0.00879303108409975,-0.192315009669319
-0.0110325054339409,-0.187578178024082
-0.0132785701551334,-0.182852310825863
-0.0155310412385459,-0.178137760679047
-0.0177897346750463,-0.173434880188017
-0.0200544664555032,-0.168744021957156
-0.0223250525707847,-0.164065538590851
-0.0246013090117592,-0.159399782693483
-0.026883051769295,-0.154747106869438
-0.0291700968342604,-0.150107863723099
-0.0314622601975236,-0.145482405858851
-0.0337593578499531,-0.140871085881077
-0.036061205782417,-0.136274256394162
-0.0383676199857838,-0.13169227000249
-0.0406784164509215,-0.127125479310444
-0.0429934111686987,-0.122574236922409
-0.0453124201299835,-0.118038895442769
-0.0476352593256444,-0.113519807475907
-0.0499617447465495,-0.109017325626209
-0.0522916923835672,-0.104531802498057
-0.0546249182275658,-0.100063590695837
-0.0569612382694136,-0.0956130428239317
-0.0593004684999787,-0.0911805114867257
-0.0616424249101298,-0.0867663492886026
-0.0639869234907349,-0.082370908833947
-0.0663337802326624,-0.0779945427271426
-0.0686828111267805,-0.0736376035725736
-0.0710338321639576,-0.069300443974624
-0.073386659335062,-0.064983416537678
-0.0757411086309621,-0.0606868738661193
-0.0780969960425258,-0.0564111685643324
-0.0804541375606219,-0.052156653236701
-0.0828123491761183,-0.0479236804876095
-0.0851714468798837,-0.0437126029214415
-0.0875312466627859,-0.0395237731425815
-0.0898915645156937,-0.0353575437554133
-0.0922522164294751,-0.0312142673643211
-0.0946130183949986,-0.0270942965736887
-0.0969737864031321,-0.0229979839879006
-0.0993343364447444,-0.0189256822113403
-0.101694484510703,-0.0148777438483924
-0.104054046591878,-0.0108545215034405
-0.106412838679135,-0.00685636778086898
-0.108770676763345,-0.00288363528506166
-0.111127376835374,0.00106332337959714
-0.113482754886093,0.00498415560872363
-0.115836626906367,0.00887850879793355
-0.118188808887067,0.0127460303428431
-0.120539116819059,0.0165863676390678
-0.122887366693214,0.0203991680822241
-0.125233374500398,0.0241840790679275
-0.127576956231481,0.0279407479917944
-0.12991792787733,0.0316688222494402
-0.132256105428813,0.0353679492364814
-0.1345913048768,0.0390377763485334
-0.136923342212158,0.0426779509812127
-0.139252033425756,0.0462881205301348
-0.141577194508462,0.0498679323909159
-0.143898641451144,0.0534170339591717
-0.14621619024467,0.0569350726305185
-0.14852965687991,0.0604216958005718
-0.15083885734773,0.063876550864948
-0.153143607639,0.0672992852192627
-0.155443723744588,0.0706895462591322
-0.157739021655362,0.074046981380172
-0.16002931736219,0.0773712379779984
-0.162314426855941,0.0806619634482271
-0.164594166127483,0.0839188051864742
-0.166868351167684,0.0871414105883556
-0.169136797967413,0.0903294270494873
-0.171399322517538,0.0934825019654851
-0.173655740808926,0.0966002827319651
-0.175905868832448,0.0996824167445431
-0.17814952257897,0.102728551398835
-0.180386518039361,0.105738334090457
-0.182616671204489,0.108711412215025
-0.184839798065223,0.111647433168155
-0.187055714612431,0.114546044345463
-0.189264236836981,0.117406893142564
-0.191465180729742,0.120229626955075
-0.193658362281582,0.123013893178612
-0.195843597483369,0.12575933920879
-0.198020702325971,0.128465612441226
-0.200189492800257,0.131132360271535
-0.202349784897095,0.133759230095334
-0.204501394607353,0.136345869308238
-0.2066441379219,0.138891925305863
-0.208777830831605,0.141397045483826
-0.210902289327334,0.143860877237741
-0.213017329399957,0.146283067963226
-0.215122767040341,0.148663265055896
-0.217218418239356,0.151001115911367
-0.21930409898787,0.153296267925255
-0.22137962527675,0.155548368493176
-0.223444813096865,0.157757065010746
-0.225499478439083,0.159922004873581
-0.227543437294273,0.162042835477296
-0.229576505653303,0.164119204217508
-0.231598499507042,0.166150758489833
-0.233609234846357,0.168137145689886
-0.235608527662116,0.170078013213284
-0.237596193945189,0.171973008455642
-0.239572049686443,0.173821778812576
-0.241535910876748,0.175623971679703
-0.24348759350697,0.177379234452639
-0.245426913567978,0.179087214526998
-0.247353687050641,0.180747559298398
-0.249267729945827,0.182359916162454
-0.251168858244405,0.183923932514782
-0.253056887937242,0.185439255750998
-0.254931635015206,0.186905533266718
-0.256792915469167,0.188322412457558
-0.258640545289992,0.189689540719133
-0.26047434046855,0.191006565447061
-0.262294116995709,0.192273134036956
-0.264099690862338,0.193488893884435
-0.265890878059304,0.194653492385114
-0.267667494577476,0.195766576934608
-0.269429356407722,0.196827794928534
-0.271176279540911,0.197836793762507
-0.272908079967911,0.198793220832143
-0.274624573679589,0.199696723533059
-0.276325576666816,0.200546949260871
-0.278010904920458,0.201343545411193
-0.279680374431384,0.202086159379643
-0.281333801190462,0.202774438561836
-0.282971001188561,0.203408030353388
-0.284591790416549,0.203986582149915
-0.286195984865294,0.204509741347033
-0.287783400525665,0.204977155340358
-0.289353853388529,0.205388471525505
-0.290907159444756,0.205743337298092
-0.292443134685213,0.206041400053733
-0.293961595100769,0.206282307188045
-0.295462356682292,0.206465706096644
-0.29694523542065,0.206591244175145
-0.298410047306712,0.206658568819165
-0.299856608331346,0.206667327424319
-0.30128473448542,0.206617167386223
-0.302694241759802,0.206507736100494
-0.302694241759802,0.206507736100494
-0.304079594019031,0.206376562245484
-0.30543552598844,0.206261297182525
-0.306762259950098,0.206161772331704
-0.308060018186071,0.206077819113105
-0.309329022978426,0.206009268946816
-0.310569496609227,0.205955953252921
-0.311781661360544,0.205917703451508
-0.31296573951444,0.205894350962661
-0.314121953352985,0.205885727206467
-0.315250525158243,0.205891663603012
-0.316351677212281,0.205911991572381
-0.317425631797166,0.205946542534661
-0.318472611194964,0.205995147909937
-0.319492837687743,0.206057639118295
-0.320486533557567,0.206133847579822
-0.321453921086505,0.206223604714602
-0.322395222556622,0.206326741942723
-0.323310660249985,0.206443090684269
-0.32420045644866,0.206572482359328
-0.325064833434714,0.206714748387984
-0.325904013490213,0.206869720190324
-0.326718218897225,0.207037229186434
-0.327507671937815,0.207217106796399
-0.32827259489405,0.207409184440305
-0.329013210047996,0.207613293538239
-0.329729739681721,0.207829265510286
-0.330422406077289,0.208056931776532
-0.331091431516769,0.208296123757064
-0.331737038282227,0.208546672871966
-0.332359448655728,0.208808410541325
-0.33295888491934,0.209081168185227
-0.33353556935513,0.209364777223758
-0.334089724245162,0.209659069077004
-0.334621571871505,0.20996387516505
-0.335131334516225,0.210279026907982
-0.335619234461387,0.210604355725887
-0.336085493989059,0.210939693038851
-0.336530335381308,0.211284870266958
-0.336953980920199,0.211639718830296
-0.337356652887799,0.212004070148949
-0.337738573566175,0.212377755643005
-0.338099965237393,0.212760606732549
-0.33844105018352,0.213152454837666
-0.338762050686622,0.213553131378443
-0.339063189028766,0.213962467774966
-0.339344687492018,0.21438029544732
-0.339606768358444,0.214806445815591
-0.339849653910113,0.215240750299866
-0.340073566429088,0.215683040320231
-0.340278728197439,0.21613314729677
-0.34046536149723,0.216590902649571
-0.340633688610528,0.217056137798718
-0.3407839318194,0.217528684164299
-0.340916313405912,0.218008373166398
-0.341031055652132,0.218495036225103
-0.341128380840125,0.218988504760497
-0.341208511251957,0.219488610192669
-0.341271669169696,0.219995183941703
-0.341318076875408,0.220508057427685
-0.34134795665116,0.221027062070702
-0.341361530779017,0.221552029290839
-0.341359021541047,0.222082790508182
-0.341340651219316,0.222619177142817
-0.34130664209589,0.22316102061483
-0.341257216452836,0.223708152344308
-0.341192596572221,0.224260403751334
-0.34111300473611,0.224817606255997
-0.341018663226572,0.225379591278381
-0.340909794325671,0.225946190238573
-0.340786620315475,0.226517234556658
-0.34064936347805,0.227092555652723
-0.340498246095462,0.227671984946853
-0.340333490449779,0.228255353859134
-0.340155318823066,0.228842493809653
-0.339963953497391,0.229433236218494
-0.339759616754819,0.230027412505745
-0.339542530877417,0.23062485409149
-0.339312918147252,0.231225392395816
-0.33907100084639,0.231828858838808
-0.338817001256897,0.232435084840554
-0.338551141660841,0.233043901821138
-0.338273644340288,0.233655141200646
-0.337984731577303,0.234268634399165
-0.337684625653955,0.23488421283678
-0.337373548852309,0.235501707933577
-0.337051723454431,0.236120951109642
-0.336719371742389,0.236741773785061
-0.336376715998249,0.23736400737992
-0.336023978504077,0.237987483314305
-0.335661381541939,0.238612033008302
-0.335289147393903,0.239237487881996
-0.334907498342035,0.239863679355474
-0.334516656668401,0.240490438848822
-0.334116844655068,0.241117597782125
-0.333708284584103,0.241744987575469
-0.333291198737571,0.242372439648941
-0.33286580939754,0.242999785422625
-0.332432338846075,0.243626856316609
-0.331991009365245,0.244253483750977
-0.331542043237114,0.244879499145817
-0.331085662743749,0.245504733921213
-0.330622090167217,0.246129019497252
-0.330151547789585,0.24675218729402
-0.329674257892919,0.247374068731602
-0.329190442759286,0.247994495230085
-0.328700324670751,0.248613298209554
-0.328204125909382,0.249230309090096
-0.327702068757245,0.249845359291795
-0.327194375496406,0.250458280234739
-0.326681268408933,0.251068903339013
-0.326162969776891,0.251677060024703
-0.325639701882347,0.252282581711894
-0.325111687007368,0.252885299820674
-0.32457914743402,0.253485045771127
-0.32404230544437,0.254081650983339
-0.323501383320484,0.254674946877397
-0.322956603344428,0.255264764873387
-0.322408187798269,0.255850936391394
-0.321856358964075,0.256433292851504
-0.32130133912391,0.257011665673804
-0.320743350559842,0.257585886278378
-0.320182615553938,0.258155786085313
-0.319619356388263,0.258721196514696
-0.319053795344884,0.259281948986611
-0.318486154705868,0.259837874921145
-0.317916656753281,0.260388805738384
-0.317345523769191,0.260934572858413
-0.316772978035662,0.261475007701318
-0.316199241834762,0.262009941687187
-0.315624537448558,0.262539206236103
-0.315049087159115,0.263062632768154
-0.314473113248501,0.263580052703424
-0.313896837998782,0.264091297462001
-0.313320483692023,0.26459619846397
-0.312744272610293,0.265094587129417
-0.312168427035658,0.265586294878427
-0.311593169250183,0.266071153131087
-0.311018721535935,0.266548993307483
-0.310445306174982,0.2670196468277
-0.309873145449389,0.267482945111825
-0.309302461641223,0.267938719579944
-0.30873347703255,0.268386801652141
-0.308166413905437,0.268827022748504
-0.307601494541951,0.269259214289117
-0.307038941224158,0.269683207694068
-0.306478976234124,0.270098834383442
-0.305921821853917,0.270505925777324
-0.305367700365602,0.270904313295802
-0.304816834051246,0.27129382835896
-0.304269445192915,0.271674302386884
-0.303725756072677,0.272045566799661
-0.303185988972598,0.272407453017377
-0.302650366174743,0.272759792460117
-0.30211910996118,0.273102416547967
-0.301592442613975,0.273435156701013
-0.301070586415195,0.273757844339342
-0.300553763646906,0.274070310883038
-0.300042196591175,0.274372387752188
-0.299536107530067,0.274663906366878
-0.299035718745651,0.274944698147194
-0.298541252519992,0.275214594513222
-0.298052931135156,0.275473426885047
-0.297570976873211,0.275721026682755
-0.297095612016222,0.275957225326433
-0.296627058846257,0.276181854236166
-0.296165539645382,0.276394744832041
-0.295711276695662,0.276595728534142
-0.295264492279166,0.276784636762557
-0.294825408677959,0.276961300937371
-0.294394248174108,0.277125552478669
-0.293971233049679,0.277277222806538
-0.293556585586739,0.277416143341064
-0.293150528067354,0.277542145502333
-0.292753282773591,0.27765506071043
-0.292365071987517,0.277754720385441
-0.291986117991197,0.277840955947453
-0.291616643066699,0.277913598816551
-0.291256869496089,0.277972480412822
-0.290907019561433,0.27801743215635
-0.290567315544798,0.278048285467223
-0.290237979728251,0.278064871765525
-0.289919234393858,0.278067022471343
-0.289611301823685,0.278054569004763
-0.289314404299799,0.278027342785871
-0.289028764104267,0.277985175234752
-0.288754603519154,0.277927897771493
-0.288492144826529,0.277855341816179
-0.288241610308456,0.277767338788896
-0.288003222247003,0.277663720109731
-0.287777202924236,0.277544317198769
-0.287563774622221,0.277408961476096
-0.287363159623026,0.277257484361798
-0.287175580208717,0.277089717275961
-0.287001258661359,0.27690549163867
-0.28684041726302,0.276704638870013
-0.286693278295766,0.276486990390074
-0.286560064041664,0.276252377618939
-0.28644099678278,0.276000631976695
-0.286336298801181,0.275731584883427
-0.286246192378933,0.275445067759222
-0.286170899798103,0.275140912024165
-0.286110643340757,0.274818949098342
-0.286065645288961,0.274479010401839
-0.286036127924783,0.274120927354742
-0.286022313530289,0.273744531377137
-0.286024424387545,0.273349653889109
-0.286042682778618,0.272936126310746
-0.286077310985574,0.272503780062132
-0.28612853129048,0.272052446563353
-0.286196565975402,0.271581957234496
-0.286281637322407,0.271092143495646
-0.286383967613562,0.27058283676689
-0.286503779130932,0.270053868468312
-0.286641294156585,0.26950507002
-0.286796734972586,0.268936272842039
-0.286970323861003,0.268347308354515
-0.287162283103902,0.267738007977513
-0.28737283498335,0.26710820313112
-0.287602201781412,0.266457725235422
-0.287850605780156,0.265786405710505
-0.288118269261648,0.265094075976454
-0.288405414507954,0.264380567453355
-0.288712263801141,0.263645711561295
-0.289039039423276,0.262889339720359
-0.289385963656425,0.262111283350633
-0.289753258782654,0.261311373872203
-0.290141147084031,0.260489442705155
-0.290549850842621,0.259645321269575
-0.290979592340491,0.258778840985549
-0.291430593859708,0.257889833273162
-0.291903077682337,0.256978129552501
-0.292397266090447,0.256043561243652
-0.292913381366102,0.2550859597667
-0.29345164579137,0.254105156541732
-0.294012281648318,0.253100982988833
-0.294595511219011,0.252073270528089
-0.295201556785516,0.251021850579586
-0.2958306406299,0.24994655456341
-0.296482985034229,0.248847213899647
-0.297158812280569,0.247723660008383
-0.297858344650988,0.246575724309703
-0.298581804427552,0.245403238223695
-0.299329413892327,0.244206033170443
-0.30010139532738,0.242983940570033
-0.300897971014777,0.241736791842552
-0.301719363236585,0.240464418408085
-0.30256579427487,0.239166651686719
-0.303437486411699,0.237843323098538
-0.304334661929138,0.23649426406363
-0.305257543109254,0.23511930600208
-0.306206352234114,0.233718280333973
-0.307181311585783,0.232291018479397
-0.308182643446329,0.230837351858436
-0.309210570097817,0.229357111891177
-0.310265313822316,0.227850129997705
-0.311347096901889,0.226316237598107
-0.312456141618606,0.224755266112468
-0.313592670254531,0.223167046960875
-0.314756905091732,0.221551411563413
-0.315949068412275,0.219908191340168
-0.317169382498226,0.218237217711226
-0.318418069631652,0.216538322096673
-0.31969535209462,0.214811335916594
-0.321001452169196,0.213056090591077
-0.322336592137446,0.211272417540206
-0.323700994281438,0.209460148184068
-0.325094880883237,0.207619113942749
-0.32651847422491,0.205749146236334
-0.327971996588523,0.203850076484909
-0.329455670256144,0.201921736108561
-0.330969717509838,0.199963956527374
-0.332514360631672,0.197976569161436
-0.334089821903714,0.195959405430832
-0.335696323608028,0.193912296755648
-0.337334088026682,0.191835074555969
-0.339003337441742,0.189727570251883
-0.340704294135274,0.187589615263474
-0.342437180389346,0.185421041010828
-0.344202218486024,0.183221678914032
-0.345999630707374,0.180991360393172
-0.347829639335462,0.178729916868333
-0.349692466652356,0.176437179759601
-0.351588334940122,0.174112980487062
-0.353517466480826,0.171757150470803
-0.355480083556534,0.169369521130908
-0.357476408449314,0.166949923887464
-0.359506663441232,0.164498190160557
-0.361571070814354,0.162014151370273
-0.363669852850747,0.159497638936697
-0.365803231832478,0.156948484279916
-0.367971430041612,0.154366518820016
-0.370174669760216,0.151751573977082
-0.372413173270358,0.1491034811712
-0.374687162854103,0.146422071822456
-0.376996860793517,0.143707177350936
-0.379342489370669,0.140958629176727
-0.381724270867623,0.138176258719913
-0.384142427566446,0.135359897400582
-0.386597181749206,0.132509376638818
-0.389088755697968,0.129624527854707
-0.391617371694799,0.126705182468337
-0.394183252021766,0.123751171899792
-0.396786618960934,0.120762327569158
-0.399427694794371,0.117738480896522
-0.402106701804143,0.114679463301969
-0.404823862272317,0.111585106205585
-0.407579398480959,0.108455241027456
-0.410373532712135,0.105289699187668
-0.413206487247913,0.102088312106307
-0.416078484370358,0.0988509112034593
-0.418989746361537,0.09557732789921
-0.421940495503517,0.0922673936136454
-0.424930954078364,0.0889209397668513
-0.427961344368144,0.0855377977789138
-0.431031888654925,0.0821177990699186
-0.434142809220772,0.0786607750599519
-0.437294328347753,0.0751665571690992
-0.440486668317933,0.0716349768174468
-0.44372005141338,0.0680658654250803
-0.446994699916159,0.064459054412086
-0.450310836108338,0.0608143751985494
-0.453668682271982,0.0571316592045567
-0.457068460689159,0.0534107378501936
-0.460510393641934,0.0496514425555463
-0.463994703412375,0.0458536047407004
-0.467521612282547,0.0420170558257421
-0.471091342534518,0.038141627230757
-0.474704116450354,0.0342271503758314
-0.478360156312121,0.0302734566810507
-0.482059684401886,0.0262803775665014
-0.485802923001715,0.0222477444522689
-0.489590094393675,0.0181753887584396
-0.493421420859832,0.0140631419050989
-0.497297124682254,0.00991083531233319
-0.501217428143006,0.00571830040022796
-0.505182553524154,0.00148536858886952
-0.509192723107767,-0.00278812870165659
-0.513248159175909,-0.00710236005126409
-0.517349084010647,-0.0114574940398674
-0.521495719894049,-0.0158536992473804
-0.52568828910818,-0.0202911442537173
-0.529927013935107,-0.024769997638792
-0.534212116656897,-0.0292904279825188
-0.538543819555616,-0.0338526038648116
-0.54292234491333,-0.0384566938655847
-0.547347915012106,-0.0431028665647519
-0.551820752134011,-0.0477912905422276
-0.556341078561111,-0.0525221343779256
-0.560909116575473,-0.0572955666517603
-0.565525088459162,-0.0621117559436454
-0.570189216494247,-0.0669708708334954
-0.574901722962792,-0.0718730799012239
-0.579662830146866,-0.0768185517267456
-0.584472760328533,-0.081807454889974
-0.589331735789861,-0.0868399579708236
-0.594239978812916,-0.0919162295492081
-0.599197711679765,-0.0970364382050421
-0.604205156672474,-0.102200752518239
-0.60926253607311,-0.107409341068714
-0.614370072163739,-0.11266237243638
-0.619527987226428,-0.117960015201151
-0.624736503543243,-0.123302437942942
-0.629995843396251,-0.128689809241667
-0.635306229067518,-0.13412229767724
-0.640667882839111,-0.139600071829575
-0.646081026993096,-0.145123300278585
-0.65154588381154,-0.150692151604186
-0.65706267557651,-0.156306794386291
-0.662631624570071,-0.161967397204814
-0.668252953074291,-0.167674128639669
-0.673926883371236,-0.173427157270771
-0.679653637742971,-0.179226651678033
-0.685433438471565,-0.18507278044137
-0.691266507839084,-0.190965712140696
-0.697153068127593,-0.196905615355924
-0.703093341619159,-0.202892658666969
-0.70908755059585,-0.208927010653745
-0.715135917339731,-0.215008839896166
-0.721238664132869,-0.221138314974147
-0.727396013257331,-0.2273156044676
-0.733608186995183,-0.233540876956441
-0.739875407628491,-0.239814301020582
-0.746197897439322,-0.24613604523994
-0.752575878709742,-0.252506278194427
-0.759009573721819,-0.258925168463958
-0.765499204757619,-0.265392884628446
-0.772044994099207,-0.271909595267806
-0.778647164028651,-0.278475468961952
-0.785305936828017,-0.285090674290798
-0.792021534779372,-0.291755379834258
-0.798794180164782,-0.298469754172246
-0.805624095266313,-0.305233965884676
-0.812511502366033,-0.312048183551463
-0.819456623746007,-0.31891257575252
-0.826459681688303,-0.325827311067761
-0.833520898474986,-0.332792558077101
-0.840640496388124,-0.339808485360454
-0.847818697709782,-0.346875261497734
-0.855055724722027,-0.353993055068854
