0.422917626601916,0.511790344530984
0.427988787095603,-0.238519345098951
-0.580838740410287,0.498777544718366
-0.713119957650131,-0.509112639487689
-0.845401174889975,-1.51700282369374
0.654104415882968,-0.626799586598932
0.284233653734235,-0.253008848168708
-0.0856371084144978,0.120781890261516
-0.146188858644785,0.402691665763849
-0.49837506337455,0.642851351962818
