-0.482202664234169,-0.068317450213005
-0.446034839473123,-0.0406135818788964
-0.475646672522117,-0.0532210378736761
-0.574462882864674,-0.12961253868616
-0.479946382487191,-0.0747817275713896
-0.479222372025962,-0.0759984676541314
-0.422332144603256,-0.0539988753689664
-0.424912925092879,-0.0258260109537658
-0.448705572621943,0.00507152591144563
-0.451390686451092,-0.034884469125916
-0.437642243849678,-0.0630605545601522
-0.328320361767227,0.0863792210455731
-0.454093962630247,-0.0311775884221774
-0.365909160510444,0.0845463887711366
-0.434326180053714,-0.0230165949470244
-0.430939406197424,-0.0207629975095397
-0.426267190810662,-0.0185511975963809
-0.415178368679463,-0.0265276340457018
-0.507153089407485,-0.109659042662583
-0.427965877853479,-0.0107274997920284
-0.443082724512739,-0.0145731714840411
-0.440109533274656,-0.0440687871142311
-0.367542897751018,-0.0155327305825558
-0.391097728128616,0.0153107435752718
-0.362209478175182,0.0249033593567506
-0.397550842540775,-0.000359139973998753
-0.392432265375061,-0.00657335231174275
-0.270201641509126,0.126823599332131
-0.387704216133676,0.00502701561332853
-0.377334443691454,0.0237474089335864
-0.488158275084567,-0.0903210410207757
-0.390448585177272,-0.00730717201792398
-0.34858107563398,0.0618318173395285
-0.382575244571115,0.024147672671512
-0.368246368936776,0.0148209634047143
-0.365033916793732,0.0163291465716214
-0.369373663057022,0.00951781567094491
-0.369117856258237,0.0230985673185654
-0.34789630536012,0.0471094129991113
-0.365904410920822,0.0216018268133949
-0.349102501532446,0.0233518279917581
-0.337087433176784,0.0176675538324622
-0.336528295067148,-0.0076081983053659
-0.318759763868395,0.0150200674017112
-0.359118646761296,0.0223141508974576
-0.320307890744569,0.0410356178392741
-0.33775990803851,0.027507941918022
-0.327164994247579,0.0317743869408353
-0.324065977101249,0.0328473873889975
-0.299070454366854,0.0306225760581657
-0.434497425460821,-0.0706853291650845
-0.322021071332813,0.0450474654732547
-0.311757213155122,0.0368230338248983
-0.312295749997662,0.0557779965212531
-0.325517923099845,0.0446043680939499
-0.285189208210239,0.0573937521275219
-0.447834319153454,-0.0834997421336575
-0.298556700218862,0.0438601160633853
-0.42051465839741,-0.0618838493814205
-0.173027114391892,0.15876257106715
-0.375190197834624,-0.0925589490342712
-0.272754295462877,0.0411465114924975
-0.281028009735914,0.0238951282950948
-0.278628633798355,0.0452473330245687
-0.275669365108964,0.0458380856569066
-0.272718835686507,0.0464006528624598
-0.270456645357245,0.0585161317198193
-0.262631625413384,0.0733019560856098
-0.263919688889412,0.0479215419910059
-0.361648969667592,-0.0646276825787981
-0.25809729811859,0.0487987577425353
-0.229505848107023,0.0465746111933201
-0.248831902373803,0.0466904375649964
-0.22341243811885,0.0039386228897906
-0.246557434729558,0.0502333647049276
-0.143102291774584,0.144837069425785
-0.24083997150123,0.05079443603194
-0.237994359057649,0.0510367186823081
-0.329539124692384,-0.0631791541840742
-0.259722087771698,0.0458734141037481
-0.228724629577725,0.073992703813035
-0.226699384114131,0.0517561960322438
-0.22389751202029,0.0518748020931404
-0.251560324918326,-0.0141748783640231
-0.218320017911128,0.0520401083338442
-0.215544397069542,0.0520872685281701
-0.232771842152036,0.0881439550794095
-0.217499369086326,0.0159956938818007
-0.180436409671347,0.0177064577858294
-0.175559328754486,0.00262936285407638
-0.185711673724465,0.0562519305453624
-0.19359897076826,0.0675061972997766
-0.209387615750555,0.023669065531566
-0.322438531743707,-0.0321713731908716
-0.188269623000295,0.0513122815806215
-0.135326902535345,0.0324399273966932
-0.182919738924641,0.0508972615378764
-0.161334817950812,0.0779849889107314
-0.189041779794868,0.053008565195507
-0.174960604030067,0.0501208425877121
-0.157765818412977,0.0714121861083471
-0.181254028831712,0.0565242518999288
-0.188254189601637,0.0454697332390504
-0.0729759863712935,0.165571040289421
-0.162433075301822,4.64281335862265e-06
-0.159278880728883,0.0480367754162917
-0.0584784561872306,0.177530040338636
-0.154121744691558,0.0471914319732505
-0.163474431439185,-0.00275513493174762
-0.148999669010669,0.0462738281007167
-0.0484286001826251,0.126549244440024
-0.121695818100589,0.0459207209066482
-0.147133460750261,0.0450944637648906
-0.138860717497963,0.0442291992994708
-0.152810965494319,0.0455799616365612
-0.133843851056029,0.0431058544869083
-0.131348572217703,0.0425197295030499
-0.152499638573152,0.0273827989453312
-0.126384326240672,0.0412997244164754
-0.105555546082388,0.0395703675801553
-0.121455166442253,0.0400175792198198
-0.0960906309225894,0.0106839559112671
-0.111702124161015,0.0372742287285644
-0.00082123642000774,0.127093368849725
-0.106878251068077,0.0358167035501143
-0.119575478489811,0.0508830905717782
-0.122168306676155,0.018360970609089
-0.0997082646927952,0.0335282785297463
-0.100667873549686,-0.00744264318065949
-0.0842170346198415,0.0602041849317165
-0.0866715209203922,0.0112372299441407
0.0285503735620311,0.162126801105383
-0.0856053137929716,0.0286065050979924
-0.0473398277228601,-0.00131462376963085
-0.105625339841173,-0.0210931725918329
0.0179923521849232,0.164009819090446
-0.0763789691295731,0.0250897579644719
-0.0740943411687372,0.0241832339752586
-0.0500360983172207,0.0166022939885236
-0.0494062653642304,-0.0127258579460542
-0.189959926225186,-0.0688647428117534
-0.145051290313202,-0.0895171313190159
-0.0583479430682139,0.017557150158481
-0.125273753656768,-0.0839887520581211
-0.0430209166916247,-0.00529114573351729
-0.158432759629774,-0.0931625546596239
-0.0586840765197073,0.0226217506788492
-0.127206967087508,-0.0752802140874344
-0.0551454260381917,0.0336080915761816
-0.149278944960515,-0.108848651814495
-0.013762787942492,0.000837612364805567
-0.0302073124332475,0.0350885875688606
-0.0381846338243568,-0.00643335295905303
-0.0302472981915193,0.00415894160486779
-0.0281472670434406,0.00308074691601198
-0.0725026992944132,-0.00415722741312444
-0.0235876876757206,-0.027343030485033
-0.0218999566264406,-0.000186785413727339
-0.0198351161194114,-0.00128617892049993
-0.0177790747398135,-0.00239029711360331
-0.0384995420456388,-0.00243858311339629
-0.0136933917103825,-0.00461178752976513
0.0246860096584222,-0.0271992215468477
-0.00266584390162776,-0.0293747029884521
0.00193058700186509,0.0256714095411378
0.00164451340714657,-0.0227402195347549
-0.00363320994758853,-0.0102320950728045
-0.0362964053054036,-0.0346712089716757
0.019815042569735,-0.0309142913681122
0.00732350675102772,-0.0230398550377049
0.121508536014017,0.0857088117786337
-0.088461732291172,-0.139755804148077
0.00682245529256962,-0.0228246018517725
0.1108795583256,0.0827243177872073
-0.00241258405714483,-0.0442684506459089
-0.0185783592552616,-0.0345614495806425
0.0437108906883276,0.00217203896809263
0.05209333726041,-0.0212026581078905
-0.0126366894763464,-0.0289714551372374
-0.0953578871154828,-0.120492600751329
0.0138335870354887,-0.0110442731916377
0.0252264685511166,-0.0274107083106495
0.00958965702234824,-0.0344786942941876
0.0479803494260888,-0.0298091273729077
0.0307605267471171,-0.0308560037651039
-0.0153369439427657,-0.026559425420881
0.141894071203908,0.0432592949806814
0.0531697111812482,-0.0251326580820432
-0.0917711547516866,-0.162537470358167
0.0398076615290889,-0.0365699860441573
0.0116960276232073,-0.0499861362564346
0.0433647983076562,-0.0388403502356309
0.0543923455385672,-0.0227738586848558
-0.0684089610574871,-0.185220448426596
0.0486343633028649,-0.0422238298554847
0.0683097618796459,-0.0085802147604195
0.0538245460060799,-0.0455753093002864
0.0322848447776706,-0.0427511849122068
0.05017445899386,-0.0673986346270071
0.0561643923694205,-0.0377219435511793
0.0606212786578871,-0.0499834368378379
0.0595863361292858,-0.0834785671643195
0.149293184222399,0.0738063062758385
0.0562164743106443,-0.0809244184157783
-0.0482390363439787,-0.155331209166795
0.0778566078983868,-0.036873096311667
0.0706822739908082,-0.0526591084939922
0.0390054189125485,-0.0490207063642407
0.0766403519857616,-0.0679339999469072
0.176882444971768,0.0311696231923781
0.0915007765564382,-0.0499542804679556
0.0817353731469438,-0.0636628022751579
0.0832977267496507,-0.064664411316864
0.0796854113064367,-0.0648061112615086
0.0991587542222681,-0.0478371637008495
0.149194954395185,0.0624055409410065
0.0692746696332732,-0.0612725275096211
0.0677446682301176,-0.0450882934286129
0.0760575572504272,-0.0950383756890242
0.0954785334345247,-0.0723560768524497
0.0969613727000219,-0.0732739340857498
0.191264963609905,0.0308769628339167
0.0206728595813759,-0.139698477281703
0.0844669347884934,-0.0759454332877341
0.0972695082323382,-0.0681187392470253
0.104242989379734,-0.0777017832152687
0.0244138564610275,-0.192974368968979
0.107093754594462,-0.0793932921143104
0.107039206266691,-0.0777258285793815
0.141415185676145,-0.0925502157479895
0.111303586183623,-0.0818394866177113
0.210147838331382,0.0881416199646725
0.134001955431547,-0.111472667961344
0.127364970061075,-0.0777054780237146
0.0828770332286873,-0.0973504163988228
0.224557176107042,0.00628595028643056
0.11942204263185,-0.0688902503686565
0.271265970210486,0.0285514533731081
0.124761426730122,-0.0891294526116923
0.126058547678828,-0.0897794366720165
0.148927222593699,-0.0792527061609394
0.147212283787487,-0.0977064095528163
0.0946918013141702,-0.072129699833749
0.0141631345096568,-0.210105398803592
0.104387254851514,-0.108999973915247
0.134890556277562,-0.0938884382212477
0.247031878111907,0.0050070765702807
0.149071574122305,-0.110259863969761
0.13535499827939,-0.102093340285804
0.0414258656488792,-0.207338006444114
0.135412894417392,-0.0801549274978583
0.143288704519869,-0.0971695359641215
0.137811556525845,-0.0842766028216448
0.120556513736703,-0.108079039609988
0.154611449490655,-0.04824364569772
0.160438939378882,-0.071885944637822
0.149021641541304,-0.0989625959483115
0.249057809875441,-0.00492049926151175
0.184297679717934,-0.124354468077879
0.0766076315570048,-0.212646599223303
0.160531736531716,-0.107516988180693
0.130681530091193,-0.105830354183513
0.145631504384034,-0.0816145607169289
0.0616422123934849,-0.203754103665147
0.180891566459776,-0.128274859400322
0.158007908614851,-0.113549677950198
0.161876694507471,-0.10120627770029
0.206551630986993,-0.108472969201872
0.177120059730754,-0.0797708779396052
0.156507282659601,-0.133861988500636
0.0493605222470197,-0.220487184368084
0.178276910306351,-0.089946837080071
0.0580487066061163,-0.187279339674751
0.264794403203744,-0.0176824359287312
0.192086779795025,-0.125188754655103
0.158542089495137,-0.121617901597351
0.167510479458361,-0.0986507435786243
0.187187813432879,-0.1016863106479
0.227557023165387,-0.100298724856325
0.166538537793669,-0.12935456706328
0.192754573581489,-0.0978084342291146
0.174170548263774,-0.117454132369075
0.180473769723834,-0.0956236131584085
0.18212678668236,-0.096649304180339
0.182945157838086,-0.0961447068099693
0.185346977703194,-0.0944637566463975
0.200362567965681,-0.113601587882847
0.211161112201612,-0.100816319648459
0.159794183348681,-0.0667918479403339
0.0770439701608067,-0.183773552613032
0.188429179149755,-0.0746480640177276
0.205790265192432,-0.105648017066301
0.178060572372147,-0.111406582684536
0.222558826030456,-0.102309878130295
0.152191044491088,-0.0958950566131036
0.226144752275604,-0.0616188917167955
0.196805984372105,-0.0810309444221473
0.264670009293094,0.0521792437965053
0.217776091723052,-0.0597823417409704
0.172134748335204,-0.0842215233507417
0.190389256743463,-0.124271521444956
0.224595232527317,-0.0736565004694429
0.202251364222808,-0.0699267609954977
0.202811922713041,-0.0685252968979421
0.202634794469673,-0.052267733132722
0.220144995761644,-0.041545705115555
0.204338092223542,-0.113622845660521
0.203281470985351,-0.086955226121514
0.229842010135813,-0.0788391031017774
0.206486630222109,-0.0577396244712852
0.206975981120626,-0.056056707788398
0.183340719928973,-0.0431964264267343
0.214271190582832,-0.083690128776277
0.208844342947327,-0.0489605749259203
0.252841418462402,-0.03207731526317
0.203399713008603,-0.00908631090043298
0.210152104029326,-0.0432493456383249
0.210570209776598,-0.0412702559055076
0.21097940723906,-0.0392531095087819
0.211379695829844,-0.0371976764408886
0.20898539375174,-0.0458494767556323
0.212527102503455,-0.030799357137609
0.321021101945685,0.0878072466755328
0.208356481477925,-0.0307387278219784
0.318911034522027,0.0785159846497451
0.13094540300401,-0.0916332345975619
0.21426121475161,-0.0193482908645832
0.209024208459638,-0.0356161344908019
0.214892464684542,-0.0144869772506755
0.215194716953609,-0.0119952103208204
0.242634406278038,0.0422794446049269
0.215772473162609,-0.00688830617901132
0.216595979190805,0.0165784376488766
0.216820975831776,0.00382542343626471
0.194360613309581,-0.0163127415858635
0.18975499014957,0.0249738889574859
0.226678463785175,0.0376379415158584
0.22976279599662,0.0212197090782492
0.203482435963147,0.00383669200260188
0.218312434649563,0.0242167374131684
0.172338980410022,0.0164460126018057
0.241691705550187,-0.00658094838832539
0.211301453867262,0.0438919308560154
0.241005898493363,0.0501695282373117
0.309119127921215,0.169118539687038
0.239560690551713,0.0799295349051047
0.215107775195015,0.0140222071783028
0.257749218250929,0.0599906529753837
0.229539317694221,0.0785779601368831
0.219901779712737,0.0591265556380326
0.221559653148953,0.082500681614748
0.220139333043081,0.0867495926178888
0.220155984974955,0.0906689394133381
0.226676591294516,0.0684000702457666
0.220162484170275,0.0986530839832334
0.320170894428296,0.21045941009887
0.219942240427317,0.110452279225165
0.111679100938414,0.00765219382218991
0.197136555480464,0.130875063460876
0.240829056319573,0.0929643221496295
0.214608966445628,0.162795281154993
0.217886430358831,0.135505293129621
0.101459881611765,0.0594736208213211
0.216365961286429,0.145199635064025
0.210782846138718,0.119779912180445
0.215145767089894,0.15132098278384
0.222889311334958,0.151343216675736
0.321441810062006,0.273170647913166
0.300292735106054,0.247078757262669
0.18205417942834,0.197590562196918
0.214926900815373,0.161140104084719
0.209615336724263,0.170631803275645
0.207215953613691,0.183672002903803
0.206665034176404,0.177919275121922
0.29407521651615,0.275270995576285
0.204511380832575,0.182454066098275
0.185985508032918,0.153528120582449
0.177221171267557,0.205202492641409
0.20533253782888,0.187125313333595
0.210296421926787,0.183438095938317
0.262236407709021,0.268889685496048
0.19445958122984,0.198057108656319
0.193046857700575,0.1997271317362
0.191600510218753,0.201335854502513
0.188608260942085,0.204370600648791
0.200353745251435,0.22365160472768
0.185485468489127,0.207163750203859
0.0988525641975935,0.114595291435322
0.186226396387724,0.209451265715928
0.189066190064184,0.180402393525797
0.101238431082853,0.117404115707041
0.164132987105599,0.255083786932025
0.224779333153181,0.213621383520588
0.0622129935165867,0.0887389927963716
0.16415487206955,0.218983693206322
0.066510513988558,0.109710515407555
0.160192059882692,0.220152953666657
0.059989233173703,0.110499649891394
0.150165084829944,0.193445082505014
0.164028655841774,0.247317907192707
0.148527786764621,0.256395403621837
0.142628075203266,0.210550369793028
0.133339417504681,0.237428103345632
0.148234095600492,0.210156701027353
0.131883388710338,0.222440224865847
0.161431363493864,0.195567812042838
0.11870063137926,0.213241083084262
0.122354588717737,0.221355973106074
0.125116681847886,0.240542202602383
0.11497829233885,0.220011626520051
0.22280921922632,0.282929485694779
0.0955809251966935,0.21158244443463
0.121853811917976,0.195792410149241
0.104853877144033,0.217526373997954
-0.0242860392142312,0.160491787152846
0.195836471448353,0.315137129175409
0.079475928095542,0.200503844325571
0.0915583415265045,0.230111541384686
0.0699083508612795,0.204202493845524
0.0646382666159105,0.212804949473435
0.177713733649627,0.328358232866366
0.0710654371387807,0.172329979509082
0.0586062207115603,0.198559927988568
0.0563767316820505,0.175668919259374
-0.0951169144546016,0.066104805390982
0.0192032087513945,0.181037612024705
0.0513799298153045,0.19149681553669
-0.0754601641799079,0.0913733344179461
0.0353577235482798,0.185216725226942
0.0294267545983532,0.181466177869042
0.0847931793042438,0.198212851833971
0.00268527841242133,0.136653957434381
0.0144201753592141,0.171390286807641
0.0210105470495775,0.168689719943607
-0.0221358882563453,0.186048603973841
0.038248030145633,0.202240598237483
0.125609661344997,0.265365661396378
0.0766834436833315,0.236588500976812
0.00934278574585974,0.147095174385136
-0.0362399766487132,0.143145485730962
-0.0131259582326009,0.150836331862797
-0.00432768847402758,0.138071709731538
-0.128200613932394,0.0414598796548228
-0.0159208595226366,0.150772056306902
-0.0317728678463956,0.135497132499115
-0.0411544885400032,0.127360895472778
-0.0474244065104548,0.121769415933226
-0.0505630285896107,0.118924380872617
-0.0538477971615642,0.131589277189015
-0.0568459520049761,0.113137222112672
-0.00615040827964091,0.126075181187843
-0.057801096837392,0.107505789373761
-0.170273142566145,0.00848606349175555
-0.0438088325878404,0.095425571143195
0.0568220528240403,0.222610487555882
-0.0989197965702518,0.0376106987502779
-0.189544807706893,-0.0347984175559282
-0.108397028556718,0.0584537429357461
-0.116138581974594,0.0865674115348292
-0.103957265631603,0.0658370615371454
-0.10708154348737,0.0624536517666354
-0.108934073791815,0.0702687511495673
-0.0874988413136062,0.0674111808245095
-0.122637453995502,0.0451367704680762
-0.0949761969089256,0.0449003837683226
-0.136015405495095,0.0417549147277822
-0.162772653936077,0.00941702979077571
-0.141441722076996,-0.000254230805374279
-0.139181692404008,-0.00456283362322159
-0.163855372147447,-0.0246338205173594
-0.0634302052432033,0.0931568620793187
-0.158069308777088,-0.00715744413775974
-0.0481057196239741,0.0958911240569509
-0.197048266150405,-0.0466040942862536
-0.159542315321487,-0.0277133159921953
-0.183056113166844,-0.0301437868853305
-0.129900877900201,-0.0069518668803652
-0.195566820303535,-0.0380107489491101
-0.19750366589357,-0.0502794413958811
-0.20635319897533,-0.0360251504951381
-0.19352750225163,-0.0558564443638396
-0.18261584403017,-0.0588141110547643
-0.133943592449962,0.0788922729362801
-0.217141095402301,-0.0792188098188791
-0.213517229107791,-0.0719703787292391
-0.233349038904259,-0.104649611638032
-0.230645876408929,-0.105547689055843
-0.248905754114582,-0.130589428445385
-0.251430230431169,-0.13495766292132
-0.226447098898905,-0.148530752224039
-0.224972230391037,-0.182486152660921
-0.247884277954937,-0.140918380287851
-0.261320888056938,-0.152547962790288
-0.159668410347201,-0.055501516444216
-0.296119678937,-0.16831601153147
-0.28442167993513,-0.169526929738934
-0.264178857338379,-0.218874498480025
-0.325945229432072,-0.218374467380613
-0.301666574097586,-0.239943357761767
-0.280990420097222,-0.22232572044321
-0.198975213918834,-0.118491992369023
-0.290803702998484,-0.183070606153454
-0.304748898111112,-0.246101002765345
-0.309238994201485,-0.212931292759756
-0.302543709474303,-0.250489139910058
-0.277784878493526,-0.236353479022536
-0.314430746412248,-0.265652799578722
-0.31437744349382,-0.253208812968078
-0.413111754824346,-0.396288046823431
-0.341616132787593,-0.288397735463414
-0.21645518094334,-0.216984514954043
-0.264423952383863,-0.191759346170102
-0.363676191394797,-0.366357097907044
-0.324141216245363,-0.322926390900884
-0.355542150944045,-0.366359835452109
-0.309254084636367,-0.28377184201706
-0.329280180603606,-0.360986582560118
-0.346191918884215,-0.393453690445453
-0.344790472633138,-0.362460440386036
-0.36678011024209,-0.366743857641988
-0.352330975181621,-0.390207858694649
-0.349736961491279,-0.385420128504761
-0.479534061573197,-0.50183774562778
-0.373296957703463,-0.39006270765797
-0.352245350494235,-0.399144527037851
-0.379063718146719,-0.405974190568387
-0.346669360462969,-0.392744904209918
-0.355071504047583,-0.409346411071047
-0.36937189012578,-0.463269596452872
-0.358892872344908,-0.457952646858478
-0.349308936542062,-0.502731541919292
-0.401700075023873,-0.478733064360132
-0.33399662348869,-0.479966802665858
-0.36099261854787,-0.49166967626467
-0.35950920537747,-0.484605220423753
-0.365832083468924,-0.503805992623936
-0.348700145000315,-0.488963679306718
-0.338948689254504,-0.504340611396527
-0.360051925881615,-0.494431601356018
-0.369264806315271,-0.488390061887242
-0.355098548631413,-0.54089587415253
-0.353687500307762,-0.549347520281195
-0.390895986715361,-0.578083504820628
-0.373470525515504,-0.542694598745493
-0.224847855193669,-0.485217022073151
-0.347134522902323,-0.578421137633175
-0.329468806273147,-0.587217341259349
-0.325340978080059,-0.591758566774844
-0.313348319581996,-0.593457773538821
-0.341175073015804,-0.649551080193398
-0.334690558105549,-0.649819933395608
-0.320183226609171,-0.645213045255791
-0.398066426054897,-0.73536625088405
-0.338869249594625,-0.633313166772155
-0.342101919581308,-0.703730582861674
-0.313303158980184,-0.669359344105883
-0.332040820417585,-0.673512175124487
-0.322079543304894,-0.695486612972569
-0.279374785100016,-0.702081009677397
-0.273151660027532,-0.708717673118052
-0.269943462499104,-0.711993831804121
-0.278380123679378,-0.670711395908154
-0.209637726988176,-0.742402754220841
-0.248627418596446,-0.708669308175402
-0.240951397596077,-0.719164818304291
-0.218068262882139,-0.754729209801095
-0.199208001171213,-0.760157587962834
-0.191720301304853,-0.771129155102488
-0.156779563631314,-0.791493016854638
-0.152576175742816,-0.791051210151452
-0.167838464333344,-0.800330649801676
-0.144261115733546,-0.810830209824219
-0.0972183953133083,-0.800187474306753
-0.074815815545151,-0.832147142687951
-0.0315802962389501,-0.806878348947896
-0.00314919831910423,-0.832770846060269
0.112949187386832,-0.746005501278213
0.0178193992149505,-0.83484415794916
0.0350789869633132,-0.880026562156527
0.0369811443542226,-0.839699209618898
0.0378197629165545,-0.843455042074745
0.0454184282376263,-0.844534799303413
0.17516014773109,-0.739640522420308
0.0910502845061598,-0.894850588695489
0.0846827869640454,-0.849233995660136
0.100585816154844,-0.850850364435739
0.108365871374439,-0.851638151139518
0.12788194361951,-0.85345904193936
0.00426903914540942,-0.926547606426333
0.127218360522198,-0.871842611117809
0.159675757816441,-0.856767812067126
0.199365110013596,-0.8606206547931
0.211736241842855,-0.861791591482604
0.217763224789641,-0.862355610626941
0.259299548694732,-0.861178677288827
0.269085704258726,-0.903968203867876
0.246266738143762,-0.840098848992485
0.264469844750616,-0.860181919622545
0.268785197449911,-0.837723883069532
0.240160283723601,-0.879756893583968
0.247895061817078,-0.885726447989082
0.272346215321189,-0.867198889246498
0.279640365561531,-0.864395099372677
0.269191770911721,-0.871066549204365
0.41015544598528,-0.775254898824392
0.292836436674156,-0.850500924702996
0.297388496841637,-0.827831392827166
0.354554265439512,-0.879887263886489
0.415375813887806,-0.7946021936331
0.372968433637089,-0.869809096046196
0.34904610844425,-0.872288604523412
0.358110419115826,-0.872584215492575
0.368576576248772,-0.848366581433983
0.379630170684435,-0.884399201710033
0.355490732168708,-0.863441840727224
0.373881898295278,-0.872748737002811
0.399499941500235,-0.882988407957975
0.398652178010337,-0.859263101719376
0.386041585950078,-0.896882513138106
0.461729852121846,-0.751278281555381
0.38815579438559,-0.876905155629886
0.300930721026624,-0.946788534344216
0.384083426730378,-0.895941794673974
0.405103535595184,-0.869078057818369
0.415550219338437,-0.863053090814498
0.382645666409852,-0.86121577083006
0.394711066030215,-0.862982272904534
0.409375203033344,-0.863653465223749
0.409117804088939,-0.862507463770573
0.395524054040186,-0.844023472643855
0.407322091298456,-0.859335225817264
0.447312184876098,-0.859236752328088
0.41736879154936,-0.877701635711997
0.406209203031215,-0.86828342540738
0.396433322554029,-0.843536513584911
0.431588957271423,-0.870532553396519
0.391205576139876,-0.846178183511431
0.396296452872325,-0.838859417962166
0.414658282922163,-0.837872671625002
0.415163088857378,-0.836518769904725
0.269141997193287,-0.924560126704338
0.3926590355469,-0.862295796464993
0.3493087407514,-0.799677701530044
0.412015069436206,-0.811217193061764
0.346590798945055,-0.801562334323622
0.443377834766906,-0.712329937493028
0.299681210868855,-0.794928937502793
0.330375558798758,-0.811690977301927
0.324688421167652,-0.808649218467547
0.312979919647264,-0.83021491459348
0.297227025468568,-0.793978771441842
0.297623926980935,-0.797921051803969
0.284109865795192,-0.786936799493478
0.280827776642862,-0.850774161121835
0.302999748069617,-0.792229822186433
0.270480061149219,-0.779569763906613
0.267357026365183,-0.797949272865059
0.235431315356118,-0.72484697683772
0.305845291054194,-0.632753236171847
0.34563857116627,-0.643595811159278
0.210483217063835,-0.744679317102861
0.183881582724672,-0.730760468449856
0.179858565770988,-0.728384187529067
0.110753911134947,-0.738277115393899
0.136740002765318,-0.714955665869955
0.141478465385017,-0.719486501834151
0.109301346699554,-0.684655543599255
0.0863107553670828,-0.694257959262051
0.0708005773646823,-0.690716026926964
0.0745531917935758,-0.66000795718158
0.0614843616807751,-0.631275033092257
-0.00213819382359548,-0.623653558353211
0.0159283886838122,-0.625511143854654
0.0191703582015702,-0.593788260709906
-0.0148968704246676,-0.595076584911811
-0.0318170548345863,-0.581190092628288
0.066899931660741,-0.444325221942808
-0.0730552111759549,-0.556441155327505
-0.0703953025059494,-0.520689117723959
-0.0939597592519241,-0.530529087301571
-0.0855460131149793,-0.533421872059133
-0.0895765532292876,-0.529578495983532
-0.101562111985846,-0.517902108762549
-0.0824608265896472,-0.512582966214662
-0.12366439257174,-0.462328076065851
-0.10723088741314,-0.483630017236009
-0.145787337881806,-0.448226007394693
-0.142405619842892,-0.489788587502585
-0.155008091583376,-0.460480215734122
-0.165943238989044,-0.441447132569924
-0.171571315030239,-0.455217252245872
-0.1833163546461,-0.42546731048942
-0.178934373663708,-0.396464114892257
-0.207078717073603,-0.40813842196161
-0.314727384259212,-0.490458379944351
-0.214170549610546,-0.362075279997846
-0.201604617096332,-0.368284446249595
-0.277953582626468,-0.339648636508178
-0.283457972495591,-0.297682856152873
-0.242076190898535,-0.280526504756893
-0.278041220497413,-0.266794497269801
-0.278681650749434,-0.179081793640603
-0.294912041706623,-0.208814632028057
-0.187131431929325,-0.0436146085402405
-0.303547284126662,-0.17464645078934
-0.305975249027132,-0.163036808657466
-0.300007130714608,-0.129728665103891
-0.319271668987256,-0.115735945828712
-0.331472676794929,-0.0223077073250478
-0.316618445130663,-0.0343845362557175
-0.324031031601361,-0.00814752282660775
-0.313614126885922,0.0112820398769115
-0.352760513675365,0.0747133684015494
-0.309802276237857,0.0825726638028496
-0.305644839569147,0.0537407938916794
-0.325566147063958,0.0711270124470562
-0.30852445044677,0.114295345677674
-0.301313388407512,0.134801736178343
-0.291037221613632,0.12811276257708
-0.254940402033577,0.242557610219701
-0.237556552989684,0.268838115989544
-0.186042750194629,0.368602178524221
