-0.644136596445766,-0.17225725723953
-0.608552657974952,-0.846579640942931
-0.352219329837233,0.465252604078722
0.0569279584737383,0.601635568547362
0.46607524678471,0.738018533016002
0.911721867751755,-0.820115693750717
0.718974642650362,0.000849613394008353
0.526227417548968,0.821814920538733
-0.360814545876874,0.864656506179533
0.987921813649649,0.856120152493473
