-0.825480560327066,-0.834815359692785
-0.820478844994513,-0.833350847461491
-0.815529816914799,-0.831851352618409
-0.810633271595356,-0.830317111237738
-0.805789004543613,-0.828748359393675
-0.800996811267,-0.827145333160417
-0.796256487272948,-0.82550826861216
-0.791567828068887,-0.823837401823104
-0.786930629162246,-0.822132968867444
-0.782344686060457,-0.820395205819378
-0.777809794270948,-0.818624348753103
-0.77332574930115,-0.816820633742817
-0.768892346658494,-0.814984296862717
-0.764509381850408,-0.813115574187
-0.760176650384324,-0.811214701789864
-0.755893947767672,-0.809281915745504
-0.751661069507881,-0.807317452128121
-0.747477811112381,-0.805321547011909
-0.743343968088603,-0.803294436471066
-0.739259335943978,-0.801236356579791
-0.735223710185934,-0.799147543412279
-0.731236886321902,-0.797028233042729
-0.727298659859312,-0.794878661545337
-0.723408826305594,-0.792699064994301
-0.719567181168179,-0.790489679463818
-0.715773519954497,-0.788250741028085
-0.712027638171976,-0.7859824857613
-0.708329331328048,-0.783685149737659
-0.704678394930144,-0.781358969031362
-0.701074624485691,-0.779004179716603
-0.697517815502122,-0.776621017867581
-0.694007763486866,-0.774209719558493
-0.690544263947353,-0.771770520863536
-0.687127112391013,-0.769303657856908
-0.683756104325276,-0.766809366612806
-0.680431035257573,-0.764287883205426
-0.677151700695333,-0.761739443708967
-0.673917896145988,-0.759164284197625
-0.670729417116965,-0.756562640745598
-0.667586059115696,-0.753934749427084
-0.664487617649612,-0.751280846316278
-0.661433888226141,-0.74860116748738
-0.658424666352715,-0.745895949014585
-0.652538927285714,-0.740409837434096
-0.649662001107,-0.737629416474797
-0.646828764508051,-0.73482440016839
-0.644039012996296,-0.731995024589074
-0.641292542079166,-0.729141525811046
-0.638589147264091,-0.726264139908502
-0.635928624058501,-0.72336310295564
-0.633310767969825,-0.720438651026657
-0.630735374505495,-0.717491020195752
-0.62820223917294,-0.71452044653712
-0.62571115747959,-0.711527166124959
-0.623261924932876,-0.708511415033466
-0.620854337040227,-0.70547342933684
-0.618488189309073,-0.702413445109276
-0.616163277246846,-0.699331698424972
-0.613879396360974,-0.696228425358126
-0.611636342158888,-0.693103861982934
-0.609433910148018,-0.689958244373595
-0.607271895835793,-0.686791808604305
-0.605150094729645,-0.683604790749261
-0.603068302337004,-0.680397426882662
-0.601026314165299,-0.677169953078703
-0.59902392572196,-0.673922605411583
-0.595137130050102,-0.667369232784646
-0.593252313836443,-0.664063679973225
-0.591406279380871,-0.660739197595431
-0.589598822190815,-0.657396021725461
-0.587829737773708,-0.654034388437514
-0.586098821636977,-0.650654533805786
-0.584405869288053,-0.647256693904474
-0.582750676234366,-0.643841104807776
-0.581133037983348,-0.640408002589889
-0.579552750042426,-0.636957623325011
-0.578009607919033,-0.633490203087337
-0.576503407120596,-0.630005977951067
-0.575033943154548,-0.626505183990397
-0.573601011528318,-0.622988057279525
-0.572204407749336,-0.619454833892647
-0.570843927325032,-0.615905749903961
-0.569519365762836,-0.612341041387664
-0.568230518570179,-0.608760944417954
-0.565759149323199,-0.601555529415081
-0.564576218283737,-0.597930683530314
-0.563428183643534,-0.594291393488922
-0.562314840910019,-0.590637895365103
-0.561235985590623,-0.586970425233054
-0.560191413192777,-0.583289219166973
-0.55918091922391,-0.579594513241056
-0.558204299191452,-0.575886543529501
-0.557261348602833,-0.572165546106505
-0.556351862965483,-0.568431757046266
-0.555475637786833,-0.56468541242298
-0.554632468574313,-0.560926748310845
-0.553822150835352,-0.557156000784059
-0.553044480077381,-0.553373405916817
-0.55229925180783,-0.549579199783319
-0.551586261534129,-0.545773618457761
-0.550905304763709,-0.54195689801434
-0.550256177003998,-0.538129274527254
-0.549638673762428,-0.534290984070699
-0.549052590546427,-0.530442262718874
-0.548497722863428,-0.526583346545975
-0.547973866220859,-0.522714471626199
-0.547480816126151,-0.518835874033745
-0.547018368086733,-0.514947789842809
-0.546586317610037,-0.511050455127588
-0.546184460203491,-0.50714410596228
-0.545812591374527,-0.503228978421082
-0.545470506630573,-0.499305308578191
-0.545158001479061,-0.495373332507804
-0.544874871427421,-0.49143328628412
-0.544620911983082,-0.487485405981335
-0.544395918653474,-0.483529927673646
-0.544199686946028,-0.47956708743525
-0.544032012368174,-0.475597121340345
-0.543892690427342,-0.471620265463129
-0.543781516630961,-0.467636755877798
-0.543698286486463,-0.46364682865855
-0.543642795501277,-0.459650719879581
-0.543614839182833,-0.45564866561509
-0.543614213038561,-0.451640901939273
-0.543640712575892,-0.447627664926328
-0.543694133302256,-0.443609190650453
-0.543774270725082,-0.439585715185843
-0.544013877689842,-0.431524704987212
-0.544357897529615,-0.423446522924013
-0.544568551046206,-0.419401582628694
-0.54480469430384,-0.415353057589825
-0.545066122809947,-0.411301183881603
-0.545352632071958,-0.407246197578225
-0.546000074893411,-0.399127831482792
-0.546360599467713,-0.395064923839132
-0.547154232480618,-0.386932839730908
-0.547586931934082,-0.38286413541474
-0.548043280695459,-0.378793971022797
-0.548523074272181,-0.374722582629277
-0.549026108171678,-0.370650206308377
-0.549552177901378,-0.366577078134293
-0.550672606881114,-0.358429510523367
-0.551266557146008,-0.354355543234919
-0.551882725270828,-0.350281768390077
-0.552520906763002,-0.346208422063038
-0.553180897129961,-0.342135740328
-0.553862491879136,-0.33806395925916
-0.554565486517955,-0.333993314930716
-0.55528967655385,-0.329924043416864
-0.556034857494251,-0.325856380791802
-0.557587374118288,-0.317726826504836
-0.558394300816786,-0.313665406991327
-0.560068468523887,-0.305550463595243
-0.560935300547352,-0.301497411861062
-0.561821692027333,-0.297447621535052
-0.562727438471261,-0.29340132869141
-0.563652335386564,-0.289358769404334
-0.564596178280674,-0.285320179748019
-0.56555876266102,-0.281285795796665
-0.566539884035034,-0.277255853624468
-0.567539337910143,-0.273230589305625
-0.56855691979378,-0.269210238914333
-0.569592425193373,-0.265195038524791
-0.570645649616353,-0.261185224211194
-0.571716388570151,-0.257181032047741
-0.572804437562195,-0.253182698108629
-0.573909592099917,-0.249190458468054
-0.575031647690746,-0.245204549200215
-0.576170399842113,-0.241225206379308
-0.577325644061447,-0.237252666079531
-0.578497175856179,-0.233287164375081
-0.579684790733739,-0.229328937340155
-0.582107451767062,-0.221435251575666
-0.583342088937686,-0.217500264994496
-0.584591991220858,-0.21357349737964
-0.585856954124008,-0.209655184805295
-0.587136773154566,-0.205745563345657
-0.588431243819963,-0.201844869074925
-0.589740161627629,-0.197953338067295
-0.591063322084993,-0.194071206396965
-0.592400520699485,-0.190198710138131
-0.593751552978537,-0.186336085364993
-0.596494300560038,-0.178641394572586
-0.597885606877346,-0.174809800701713
-0.599289928888935,-0.170989022613324
-0.600707062102232,-0.167179296381615
-0.602136802024669,-0.163380858080784
-0.603578944163675,-0.159593943785028
-0.607977738954413,-0.148304705670184
-0.609467445033998,-0.144566248136701
-0.614004023824796,-0.133428046089411
-0.615538021963842,-0.129741822505357
-0.617082581886329,-0.126069247594155
-0.618637499099686,-0.12241055743
-0.621777587428733,-0.115135775639622
-0.623362349559282,-0.111520156161794
-0.624956651010422,-0.107919365727803
-0.626560287289584,-0.104333640411846
-0.628173053904196,-0.100763216288121
-0.62979474636169,-0.097208329430824
-0.633064090835041,-0.0901461118123054
-0.634711333865759,-0.0866392531994781
-0.63802993905243,-0.0796752167376743
-0.639700892223243,-0.0762185110370923
-0.641379339788948,-0.0727789951223196
-0.643065077256975,-0.069356905067554
-0.644757900134754,-0.0659524769469923
-0.646457603929715,-0.0625659468348322
-0.648163984149289,-0.0591975508052705
-0.649876836300905,-0.0558475249325049
-0.651595955891993,-0.0525161052907323
-0.653321138429984,-0.0492035279541503
-0.655052179422308,-0.0459100289969559
-0.656788874376395,-0.0426358444933465
-0.658531018799674,-0.0393812105175194
-0.660278408199576,-0.0361463631436718
-0.662030838083532,-0.0329315384460009
-0.66378810395897,-0.0297369724987042
-0.665550001333322,-0.0265629013759788
-0.667316325714018,-0.023409561152022
-0.670861437524159,-0.0171660176972032
-0.672639815968465,-0.0140762866147357
-0.674421803448835,-0.0110082307278261
-0.676207195472698,-0.00796208611067113
-0.677995787547486,-0.0049380888374686
-0.679787375180628,-0.00193647498241539
-0.681581753879554,0.00104251938029092
-0.683378719151694,0.00399865817645334
-0.685178066504478,0.00693170533187436
-0.686979591445337,0.00984142477235692
-0.688783089481701,0.0127275804237036
-0.690588356120999,0.0155899362117173
-0.692395186870662,0.0184282560622005
-0.69420337723812,0.0212423039009562
-0.696012722730803,0.0240318436537869
-0.697823018856141,0.0267966392464954
-0.699634061121563,0.0295364546048845
-0.701445645034502,0.032251053654757
-0.706881601732709,0.0402411922113014
-0.708693307310009,0.0428525652851344
-0.710504532071975,0.0454375416794641
-0.712315071526037,0.0479958853200938
-0.714124721179624,0.0505273601328257
-0.715933276540168,0.0530317300434629
-0.717740533115098,0.0555087589778079
-0.719546286411844,0.0579582108616635
-0.721350331937836,0.0603798496208324
-0.723152465200506,0.0627734391811175
-0.724952481707281,0.0651387434683212
-0.726750176965593,0.0674755264082467
-0.728545346482872,0.0697835519266962
-0.730337785766547,0.0720625839494729
-0.73212729032405,0.0743123864023792
-0.733913655662809,0.0765327232112181
-0.735696677290256,0.078723358301792
-0.73747615071382,0.0808840555999039
-0.739251871440931,0.0830145790313565
-0.742791236835516,0.0871841599974945
-0.744554472517849,0.0892227453837854
-0.746313137533451,0.0912302126066279
-0.74806702738975,0.0932063255918247
-0.749815937594177,0.0951508482651785
-0.751559663654162,0.0970635445524922
-0.753298001077135,0.0989441783795682
-0.755030745370527,0.10079251367221
-0.756757692041767,0.102608314356219
-0.758478636598285,0.104391344357399
-0.760193374547511,0.106141367601552
-0.761901701396877,0.107858148014482
-0.763603412653811,0.10954144952199
-0.765298303825743,0.11119103604988
-0.768666807944326,0.114388119870016
-0.773663301170442,0.118924981398151
-0.7753129774884,0.120367320490188
-0.78021167927405,0.124481188475515
-0.781827122504625,0.125780641126371
-0.783433496231931,0.127043781981439
-0.785030595963397,0.128270374966522
-0.786618217206453,0.129460184007422
-0.788196155468529,0.130612973029941
-0.791322165079463,0.132806546723051
-0.79286982744318,0.133846859245246
-0.794406988855638,0.134849207452272
-0.795933444824266,0.135813355269932
-0.797448990856495,0.136739066624028
-0.800446535141476,0.13847423564474
-0.803397985770022,0.140052825920829
-0.806301706801572,0.141472948858718
-0.807735157487049,0.142122994890345
-0.809156062295568,0.142732715864829
-0.810564216734558,0.143301875707974
-0.811959416311451,0.143830238345583
-0.813341456533675,0.144317567703458
-0.816065240943839,0.145168182283217
-0.817406576146639,0.145530995356708
-0.818733934024491,0.145851830853675
-0.820047110084826,0.146130452699922
-0.821345899835073,0.146366624821252
-0.822630098782663,0.146560111143468
-0.823899502435025,0.146710675592371
-0.82515390629959,0.146818082093766
-0.826393105883788,0.146882094573454
-0.828825074240803,0.146878993170922
-0.83001743402848,0.146811407140307
-0.83119377156551,0.146699482791197
-0.832353882359324,0.146542984049394
-0.83349756191735,0.146341674840701
-0.834624605747021,0.14609531909092
-0.835734809355765,0.145803680725856
-0.837903877940194,0.145083611853083
-0.83896233393074,0.144654709196981
-0.840003131730079,0.144179579628805
-0.841026066845643,0.143657987074359
-0.843017531055163,0.142474468709864
-0.843985651163979,0.141812070751421
-0.84493509061874,0.141102265509918
-0.845865644926876,0.140344816911158
-0.846777109595816,0.139539488880943
-0.847669280132991,0.138686045345077
-0.848541952045831,0.137784250229361
-0.849394920841766,0.136833867459599
-0.850227982028226,0.135834660961594
-0.851040931112641,0.134786394661148
-0.852605675005057,0.132541738356144
-0.853357060827919,0.131344876203191
-0.855484819892277,0.127453320852165
-0.856151258470421,0.126055025857109
-0.856795949005961,0.124605782466035
-0.858597487431259,0.119950001174724
-0.859153140870684,0.1182946034576
-0.860195931740604,0.11482718564814
-0.860682660185959,0.113014693407409
-0.861585760634609,0.109230961882958
-0.862001723652764,0.107259250450843
-0.862393689210047,0.10523399380654
-0.862761452813886,0.10315495587585
-0.863104809971713,0.101021900584577
-0.863717486979049,0.0965927936234906
-0.863986397843418,0.0942962698052833
-0.864640965968492,0.0870759841096367
-0.864807752212273,0.0845581972167555
-0.864948496069481,0.0819845043697125
-0.865062993047548,0.0793546694943107
-0.865151038653903,0.0766684565163527
-0.865254422316998,0.0682691882251689
-0.865234617510806,0.0653551020950134
-0.865187338870054,0.0623834574913155
-0.865009542114585,0.0562665485665029
-0.86487861501473,0.0531208120969937
-0.864719396110033,0.049916572857153
-0.864531680907926,0.0466535947727833
-0.864531680907926,0.0466535947727833
-0.864055115477018,0.0401246511678418
-0.863762837353899,0.0369019063188673
-0.863434901308349,0.0337067975368037
-0.862673072497984,0.0273989424671492
-0.862239688257186,0.0242859233264284
-0.8612692514144,0.0181410197003749
-0.860732707336428,0.0151088623619123
-0.859558239177368,0.00912445450129047
-0.858920823620297,0.00617193112600137
-0.858250292760874,0.00324567955197349
-0.85754690086111,0.000345563352641895
-0.856810902183011,-0.00252855389855836
-0.855242101539845,-0.00819933726282479
-0.854409808098794,-0.0109962762290209
-0.852650706287796,-0.0165139308623636
-0.850767279651657,-0.0219308639407401
-0.849779580179182,-0.0246019009632284
-0.848761562286446,-0.0272481668766701
-0.847713480235457,-0.0298697981076301
-0.846635588288224,-0.0324669310826734
-0.845528140706755,-0.0350397022283648
-0.844391391753059,-0.0375882479712695
-0.843225595689143,-0.0401127047379523
-0.839556467456161,-0.0475429054463193
-0.838277025571449,-0.0499723705737643
-0.836969807886558,-0.0523784288578123
-0.830025981629712,-0.0640623925568705
-0.828557448645921,-0.0663308747384005
-0.822425899669626,-0.0751816491557471
-0.82082992947531,-0.0773392363157152
-0.819209234624914,-0.0794750537510658
-0.815894688003912,-0.0836819251541745
-0.810743789702011,-0.0898323699883302
-0.805384099643826,-0.0957942543354366
-0.803552324679074,-0.0977402834446531
-0.801698367678322,-0.0996659070949018
-0.79982248290358,-0.101571261712748
-0.796005947080157,-0.10532170955749
-0.794065804555493,-0.107167075637517
-0.79210475130487,-0.108992718391401
-0.788120929673784,-0.112585379626999
-0.786098669817337,-0.114352670961843
-0.784056516282965,-0.116100784676804
-0.781994723332676,-0.117829857198447
-0.779913545228479,-0.119540024953337
-0.775694050606389,-0.122904191869116
-0.771400066512764,-0.126194376836662
-0.769225776569145,-0.12781206715626
-0.767033627043666,-0.129411671268494
-0.764823872198336,-0.130993325599929
-0.758091518363318,-0.135631954175094
-0.755813884858664,-0.137143173648985
-0.753519917344199,-0.138637125474903
-0.746542553362021,-0.143016739330462
-0.744185792428395,-0.144442984830134
-0.741813968795,-0.145852644814657
-0.739427336723843,-0.147245855710596
-0.737026150476932,-0.148622753944516
-0.732181132503884,-0.151328158132559
-0.729737809301762,-0.152656936939812
-0.724810805776365,-0.155267330113606
-0.71983168783615,-0.157815746876882
-0.712269745983189,-0.161524553716964
-0.709725245095531,-0.162731016821963
-0.704601988487257,-0.165100052828807
-0.702023741290658,-0.166262898583782
-0.699434753848427,-0.167411478075213
-0.696835280422575,-0.168545927729664
-0.694225575275108,-0.1696663839737
-0.691605892668035,-0.170772983233887
-0.683689522709259,-0.174011003376998
-0.678366716908861,-0.176102899706849
-0.675692509046323,-0.177129222021802
-0.673010103558235,-0.17814264233886
-0.66491624396076,-0.181106855568313
-0.662203590590559,-0.182070032159441
-0.659484010904849,-0.183020988885499
-0.656757759165639,-0.183959862173051
-0.654025089634938,-0.184886788448664
-0.651286256574753,-0.185801904138901
-0.645791116913966,-0.187597249469509
-0.643035318837379,-0.18847775196301
-0.640274374279342,-0.189346989577396
-0.637508537501862,-0.190205098739231
-0.629184216472848,-0.192714019775084
-0.620825018901145,-0.195127696094321
-0.618032055923796,-0.195911726032122
-0.61523623482307,-0.196685718929893
-0.612437809860974,-0.197449811214198
-0.609637035299517,-0.198204139311601
-0.606834165400708,-0.19894883964867
-0.604029454426554,-0.199684048651967
-0.601223156639064,-0.200409902748058
-0.595606817672108,-0.201834091924882
-0.592797285016658,-0.202532699858746
-0.589987182595904,-0.203222498591663
-0.587176764671855,-0.203903624550199
-0.584366285506519,-0.204576214160919
-0.581555999361904,-0.205240403850388
-0.570321870230814,-0.20781589192705
-0.553519691697198,-0.211450318920551
-0.550728310073052,-0.212031113629545
-0.547940172613726,-0.212605145536066
-0.545155533581226,-0.213172551066681
-0.539597767844742,-0.214288028706451
-0.536825149664773,-0.214836373668736
-0.528535405022059,-0.216445470243968
-0.525782374313579,-0.216970311087056
-0.523034876127992,-0.217489616966756
-0.517557494373528,-0.218512169542255
-0.514828119328668,-0.219015689091184
-0.509389272213731,-0.220007896844225
-0.503978657478562,-0.220981238981278
-0.50128457290841,-0.221461176510221
-0.493250261531785,-0.222875692057496
-0.487936548512308,-0.2237989858217
-0.485293203158076,-0.224255127003304
-0.48265920425686,-0.224707779619995
-0.480034806070667,-0.225157080098338
-0.474815828891384,-0.226046170346242
-0.469638305716293,-0.226923489159535
-0.46706572503534,-0.227358075344615
-0.46450427064146,-0.227790127950737
-0.45941575776295,-0.228647178132368
-0.454374801176828,-0.229495731116947
-0.451872792148433,-0.229917162226755
-0.449383434979159,-0.230336878316994
-0.446906983931016,-0.230755015814231
-0.437135326189903,-0.232414508404445
-0.434727219677531,-0.23282679933514
-0.432333544858338,-0.233238330232223
-0.429954555994332,-0.233649237522257
-0.427590507347521,-0.234059657631807
-0.422908247753518,-0.234879582015718
-0.420590545330342,-0.235289359143208
-0.416003266541681,-0.236109225402083
-0.413734198700214,-0.236519587386597
-0.411481850909998,-0.236930417176583
-0.409246477433043,-0.237341851198605
-0.407028332531358,-0.237754025879229
-0.404827670466949,-0.238167077645018
-0.400479811897994,-0.238996358138357
-0.398333123917465,-0.239412859719035
-0.396204935822246,-0.239830784091139
-0.394095501874345,-0.240250267681235
-0.392005076335769,-0.240671446915886
-0.389933913468528,-0.241094458221658
-0.38788226753463,-0.241519438025117
-0.379875938372622,-0.243241770747109
-0.377925691035558,-0.243678639437472
-0.375996486203886,-0.24411829518491
-0.374088578139613,-0.244560874415989
-0.372202221104748,-0.245006513557274
-0.368495177171274,-0.24590751727672
-0.36135088918558,-0.247752246406938
-0.359622508692799,-0.248223124863481
-0.357917713325491,-0.248698154642749
-0.356236757345664,-0.249177472171308
-0.351339468351155,-0.250642515518376
-0.349756412541335,-0.251140348309745
-0.348198467429039,-0.25164315098323
-0.346665887276272,-0.252151059965395
-0.345158926345045,-0.252664211682805
-0.342222879195238,-0.25370678902962
-0.340794301500675,-0.254236487512154
-0.339392360075684,-0.254771974436194
-0.338017309182273,-0.255313386228304
-0.332791096164585,-0.25754101060874
-0.328015472612825,-0.25987434700349
-0.326893878293997,-0.260475221803652
-0.322704375155382,-0.262952976607142
-0.319881084981179,-0.264893081036566
-0.319002075211871,-0.265556088850302
-0.317338711678443,-0.266907382543057
-0.315084120321396,-0.268999564643871
-0.313124175984257,-0.27117331085626
-0.311984629375112,-0.272669607414039
-0.310531019124978,-0.274987479406286
-0.309735385124041,-0.276583270481427
-0.309080875834501,-0.278220769335423
-0.308569525352425,-0.279901067380793
-0.308368170319205,-0.280757607166656
-0.308203367773877,-0.281625256030057
-0.308075371978446,-0.282504150397561
-0.307984437194922,-0.283394426695734
-0.307930817685313,-0.28429622135114
-0.307936541535873,-0.286134911439912
-0.308231348416278,-0.288982744916445
-0.30840696005233,-0.289956514673115
-0.308621666796354,-0.290942757772973
-0.308875722910358,-0.291941610642584
-0.309876530092334,-0.295015192135586
-0.310745143200369,-0.29712979646671
-0.311777256076522,-0.299298114114405
-0.312974902816857,-0.30152123649119
-0.313636437041113,-0.302653690519405
-0.31434011751744,-0.303800255009587
-0.315086198507845,-0.304961066388301
-0.315874934274337,-0.306136261082113
-0.317581387183613,-0.308530346121289
-0.318499612850413,-0.309749509319784
-0.319461510341333,-0.310983601539635
-0.321517337843563,-0.313497118749671
-0.328759387377967,-0.32141015525511
-0.332997442067662,-0.32558294936517
-0.334503233884651,-0.327006831113377
-0.336056002931866,-0.328447415428286
-0.339303489765004,-0.331379237464469
-0.344533405791609,-0.335905650433133
-0.346373377722348,-0.337449315106117
-0.348262106717371,-0.339010637331758
-0.350199847038685,-0.340589753536621
-0.360632617709905,-0.348757019179032
-0.367496688796652,-0.353879637615295
-0.377368165716124,-0.360976737643903
-0.379966191121965,-0.362799590396058
-0.382616787522212,-0.364642147099344
-0.385320209178872,-0.366504544180325
-0.396667233609812,-0.374155264812512
-0.399638595478664,-0.376118910180448
-0.402664308175977,-0.37810321448547
-0.412070093858777,-0.384181445288701
-0.415315752490024,-0.386249749607716
-0.421974190430036,-0.390450517882042
-0.428857151020128,-0.394737741848531
-0.435966668356366,-0.399112512919701
-0.443304776534814,-0.403575922508073
-0.466710987084078,-0.417508896501594
-0.470817675303738,-0.419911641658589
-0.474983799592023,-0.422337774283969
-0.479209614210944,-0.424787430804299
-0.483495373422507,-0.427260747646144
-0.501242941435349,-0.437393346759972
-0.510483003809839,-0.442605155336665
-0.519969963891128,-0.447915425143236
-0.524806666226843,-0.450607824074139
-0.529705855775282,-0.453325247592206
-0.534667786798454,-0.456067832124003
-0.539692713558366,-0.458835714096094
-0.549932571336446,-0.46444791606742
-0.565771182579327,-0.473059360490742
-0.571179423261856,-0.475981892062465
-0.576652439515184,-0.478930676060437
-0.582136355636319,-0.481881303305201
-0.587577158788146,-0.484809231148045
-0.603641376035955,-0.493456180491883
-0.608910212918726,-0.496292672953873
-0.614136179636279,-0.499106147127355
-0.63461231607065,-0.510128585389862
-0.639624660374373,-0.512826011461046
-0.654406414726938,-0.520777628850855
-0.659248735194317,-0.523381068448485
-0.664048671104656,-0.525960851984433
-0.66880627101877,-0.528516915681382
-0.673521583497479,-0.531049195762014
-0.687414281929351,-0.538502696532832
-0.696465533988563,-0.543351609714305
-0.709727562950684,-0.550443572941557
-0.714064473747544,-0.552758930496049
-0.718359582717176,-0.555049866661049
-0.726824589418027,-0.559558219713304
-0.730994584270883,-0.561775509045924
-0.739209799785543,-0.566135994437561
-0.747258973450919,-0.570397263615611
-0.751221415992171,-0.572490532681247
-0.75902225529589,-0.576602020879155
-0.762860749179993,-0.578620112456792
-0.766658023966682,-0.580613017317127
-0.774129110491089,-0.584523011776623
-0.777803019350443,-0.586439973821148
-0.78502781106754,-0.590197508653168
-0.788578791046919,-0.592037953886026
-0.809027907946341,-0.602540096748066
-0.812293753501069,-0.60419977054759
-0.828015863801593,-0.612105670002669
-0.8310392022928,-0.613607909543954
-0.836965184192857,-0.616532938058252
-0.848335727366447,-0.622063407048877
-0.851078350467422,-0.623379071420937
-0.859066966281621,-0.627164357198606
-0.86165024892617,-0.628372004087267
-0.88311850298246,-0.638010801170669
-0.887455936400037,-0.639849277119232
-0.891636651645349,-0.641576291609253
-0.89366836135545,-0.642397841364017
-0.895661037204939,-0.643191334422192
-0.897614727754632,-0.643956707006462
-0.901405347197906,-0.645402835644015
-0.908520899162898,-0.647954841030285
-0.911846608657701,-0.649059697341922
-0.913451616746041,-0.649569115681756
-0.915018125142765,-0.650049775774509
-0.916546182408689,-0.650501613842864
-0.922274871380752,-0.652019470325957
-0.928576409450989,-0.653260642102774
-0.929722626253902,-0.65342075217469
-0.939107373918791,-0.653387533017508
-0.941190677305356,-0.652792322851034
-0.94435188209893,-0.650780658170047
-0.9454324057901,-0.64936075968039
-0.945718818358443,-0.648825691868512
-0.945968430863793,-0.648259633603442
-0.946496953610056,-0.646374878315904
-0.946666192074257,-0.644962253274098
-0.946646355936951,-0.642607857889868
-0.94645123583255,-0.64088054501733
-0.945329632240895,-0.636006536668454
-0.941664390981514,-0.626540240595613
-0.94039076341665,-0.623849731035637
-0.93897498592486,-0.621028626821874
-0.935718535106684,-0.614992593558832
-0.929777446591056,-0.604946328297378
-0.92751692775512,-0.601330941571562
-0.925116978398058,-0.597581388662183
-0.923864838676148,-0.595656140445362
-0.922577987006411,-0.593697159350698
-0.919900342066724,-0.589677743418569
-0.915624749068927,-0.583394028503611
-0.914130645489396,-0.581231310818218
-0.90944229686145,-0.574537826738373
-0.902712223219572,-0.56513169455684
-0.900944503166111,-0.562693756554029
-0.885583414566921,-0.541936071883068
-0.883511590882851,-0.539183632058376
-0.868072242830539,-0.518925602818785
-0.865733406943762,-0.515889268961499
-0.856046968988248,-0.503385558239149
-0.851005773216896,-0.496917784819606
-0.843197601186277,-0.48694479212769
-0.832328838402428,-0.473138302440944
-0.815050864112204,-0.451329206650569
-0.80597604422343,-0.439926215215195
-0.796612417361657,-0.428188632102933
-0.786961294668965,-0.416114735326212
-0.759829403469659,-0.382260381508411
-0.734439133714543,-0.350640276910702
-0.723090570020032,-0.336512336408216
-0.711463688489166,-0.322036028328267
-0.695530507096293,-0.302189402826355
-0.683259316166471,-0.286893540447324
-0.679107977250384,-0.281716314127174
-0.674926248299254,-0.276499678747925
-0.644807303768819,-0.238874420143731
-0.603925165942584,-0.187621838351375
-0.589763877457196,-0.169811061481085
-0.560648303523944,-0.133089301405815
-0.545696640360239,-0.114174874225692
-0.535583875126438,-0.101359069394608
-0.530484141254591,-0.0948891196338131
-0.52535557129387,-0.0883777199397599
-0.520198213805094,-0.0818248065351306
-0.483294739706788,-0.0347866715119302
-0.477908830183005,-0.0278993524392635
-0.461581192970754,-0.00698461387339452
-0.439416369462843,0.0214939083793131
-0.433805015796393,0.0287197148683355
-0.416803377075396,0.0506529769945111
-0.41108046679724,0.058049557847331
-0.376161581988406,0.103331188889465
-0.303366851822064,0.198577682274285
-0.278237200912995,0.231729103902112
-0.239742713379038,0.282785195947029
-0.193631648245244,0.34438266931594
-0.186939692250553,0.353362139111521
-0.132471419189842,0.426828619407039
-0.0549041710099204,0.532623084727217
0.0108215763176033,0.623350836880797
0.0406762801984904,0.664891822945234
0.0709224339237179,0.707187847278976
0.132576659337836,0.794061337747651
