-0.717322962129008,0.0502051388471829
-0.709299007798953,0.056633897421657
-0.701308111821863,0.0629736716637085
-0.591214630970858,0.189065532684997
-0.685425575036208,0.0753876812939176
-0.776094542307978,-0.0232939854065859
-0.669675511991293,0.0874499960245574
-0.661850208190129,0.0933501516421472
-0.546266394687284,0.213958118528147
-0.64629915616742,0.104890227061084
-0.638573448000687,0.110530853934118
-0.630880978433577,0.116085678297319
-0.623221767493497,0.121555053686532
-0.615595835207853,0.126939333637601
-0.49170752998603,0.243080763106147
-0.600443886709496,0.137454021368675
-0.592917910551597,0.142585136220368
-0.585425293157758,0.147632569777289
-0.577966054555387,0.152596675575283
-0.57054021477189,0.157477807150191
-0.563147793834672,0.162276318037858
-0.555788811771141,0.166992561774128
-0.648984393632614,0.0802404174260427
-0.541171244374763,0.176179661935846
-0.533912699096729,0.180651225432982
-0.526687672802006,0.185041935922094
-0.519496185518001,0.189352146939024
-0.50521390809177,0.197732484699716
-0.498123158004358,0.201803318515164
-0.587361362191627,0.0919316135626799
-0.484042535217967,0.209708083695482
-0.359502135902085,0.312841102685912
-0.470096549132201,0.217299335847318
-0.463174094920567,0.220978278377163
-0.456285359966308,0.224579903257418
-0.44943036429683,0.228104564023926
-0.44260912793954,0.231552614212531
-0.435821670921843,0.234924407359076
-0.429068013271147,0.238220296999403
-0.422348175014857,0.241440636669358
-0.415662176180379,0.244585779904782
-0.29151196412959,0.343901299219069
-0.402391776886488,0.250651891215415
-0.395807416481888,0.25357356636231
-0.389256975608725,0.256421459218049
-0.382740474294406,0.259195923318474
-0.376257932566338,0.26189731219943
-0.483688636781967,0.163168939538468
-0.36339480797858,0.267082278446308
-0.357014265173703,0.269566562883916
-0.350667762064701,0.271979186245428
-0.344355318678981,0.274320502066687
-0.338076955043951,0.276590863883537
-0.444495306460487,0.185912945699802
-0.32562254713558,0.280920139647384
-0.319446542917054,0.282979760666067
-0.313304698558841,0.284969841823715
-0.307197034088348,0.286890736656171
-0.301123569532982,0.288742798699277
-0.295084324920149,0.290526381488879
-0.289079320277255,0.292241838560818
-0.283108575631707,0.293889523450939
-0.27717211101091,0.295469789695085
-0.15685908252889,0.406379580989578
-0.14221804002216,0.419400490019702
-0.25376945332337,0.301123738928785
-0.248004689237428,0.302372214980706
-0.242274325340676,0.303555393601712
-0.236578381660519,0.304673628327647
-0.230916878224365,0.305727272694354
-0.225289835059621,0.306716680237677
-0.219697272193691,0.307642204493458
-0.214139209653982,0.308504198997541
-0.203126665662855,0.310039012893989
-0.0779628779898681,0.414366314608194
-0.0880476137727966,0.410755594360988
-0.186867102807984,0.311873598997012
-0.181516462801137,0.31236183924362
-0.176200463312356,0.312789024489435
-0.170919124369046,0.313155508270298
-0.165672465998616,0.313461644122055
-0.16046050822847,0.313707785580548
-0.155283271086015,0.313894286181621
-0.150140774598657,0.314021499461117
-0.145033038793802,0.314089778954878
-0.139960083698858,0.314099478198751
-0.0366788669868775,0.419916609189119
-0.0106388082565775,0.422853923636777
-0.124950102947549,0.313780629789459
-0.120016470966308,0.313559543392205
-0.115117719832008,0.313281644424277
-0.110253869572057,0.312947286421519
-0.105424940213859,0.312556822919775
-0.100630951784823,0.312110607454889
-0.0958719243123529,0.311608993562702
-0.0911478778238562,0.31105233477906
-0.0818048079084078,0.309775296680779
-0.0771858245362687,0.309055624437829
-0.072601902257728,0.308282321446795
-0.168343335796833,0.195171953174452
-0.0635393210910676,0.306576237363855
-0.0590607022577605,0.305644163343634
-0.0546172246276771,0.304659872718705
-0.0502089082282238,0.30362371902491
-0.045835773086807,0.302536055798093
-0.041497839230833,0.301397236574097
-0.037195126687708,0.300207614888765
-0.0329276554848384,0.298967544277942
-0.0286954456496306,0.29767737827747
-0.0244985172094909,0.296337470423193
-0.0203368901918255,0.294948174250954
-0.11004808786455,0.175311013841951
-0.0121196205335432,0.292022831095965
-0.00806401794773891,0.290487491184901
-0.00404379689403427,0.28890417709925
0.113494848983118,0.391181452403513
0.117063507234818,0.402571271160318
-0.103216218865236,0.188346131050284
0.011682871451661,0.282098249727629
0.0155258844337724,0.280280367806687
0.0193333957193462,0.278416632926218
0.023105385280976,0.276507398622064
0.0268418330912556,0.274553018430069
0.0305427191227786,0.272553845886077
0.0342080233481387,0.27051023452593
0.0378377257399295,0.268422537885473
0.0414318062707448,0.266291109500548
0.0449902449131782,0.264116302907
0.0485130216398234,0.261898471640671
-0.066502219751805,0.15389863891913
0.147286626640238,0.350524128637184
0.0588671800509666,0.254990365163434
0.0622471088403958,0.252603970564416
0.0655912755770051,0.250176318971835
0.0688996602333884,0.247707763921534
0.0721722427821391,0.245198658949356
-0.0352159110506651,0.137672658096031
0.0786099214471178,0.240060213382744
0.0817749775085333,0.237431579859996
0.0849041513526909,0.234763810558745
0.0879974229521844,0.232057259014834
-0.0195288617988064,0.110390458808904
0.094076179307554,0.226529223342407
0.0970616240086173,0.223708446285577
0.10292454632047,0.217955141409903
0.105801983876446,0.215023320662745
0.108643378995914,0.212055192423831
0.111448711651467,0.209051110229004
0.221444499795439,0.318697907936795
0.116951109461204,0.202936498114987
0.119648134560575,0.199826675267483
0.122309017086407,0.19668231260744
0.0179544258311248,0.087699407879886
0.127522274307824,0.190291381993111
0.132590720906206,0.183766534558747
0.0312281857416345,0.0711585171896628
0.14229254135686,0.170326402376903
0.144627239487547,0.166887090516962
0.14692559477063,0.163416774202917
0.149187587178705,0.15991580697061
0.151413196684363,0.156384542355884
0.0627351357045614,0.0435449776181948
0.155755186878807,0.149232535122553
0.15787152751278,0.145612499575633
0.159951405134712,0.141963580789669
0.161994799717197,0.138286132300504
0.164001691232827,0.134580507643981
0.165972059654198,0.130847060355944
0.167905884953902,0.127086143972235
0.169803147104533,0.1232981120287
0.171663826078685,0.11948331806118
0.173487901848952,0.115642115605519
0.175275354387927,0.11177485819756
0.177026163668204,0.107881899373148
0.178740309662377,0.103963592668125
0.0869507865453584,-0.0135941462172272
0.182058531682784,0.0960523497596217
0.183662567654206,0.0920601206278277
0.185229860229898,0.0880439577587965
0.186760389382453,0.0840042146883717
0.188254135084467,0.0799412449523969
0.189711077308532,0.0758554020867154
0.191131196027242,0.0717470396271703
0.192514471213191,0.0676165111096052
0.193860882838972,0.0634641700698637
0.195170410877179,0.059290370043789
0.0831958566764533,-0.0389092253711311
0.197678736081247,0.0508798071760134
0.198877493192294,0.0466437514059996
0.200039286606142,0.0423876507930261
0.202251902232616,0.0338167291815739
0.203302684390428,0.0295026152547821
0.204316422741416,0.0251698706284042
0.205293097258174,0.0208188488382839
0.208000537528997,0.00765965584390105
0.208828756434768,0.00323906075724445
0.209619811369276,-0.00119804381393795
0.210373682305115,-0.0056513043338024
0.21109034921488,-0.0101203672665058
0.211769792071162,-0.0146048790762043
0.212411990846558,-0.0191044862270551
0.213016925513659,-0.0236188351832142
0.214114922413353,-0.0326903443680849
0.214607944591134,-0.0372467975251096
0.215481936265531,-0.0463993332891204
0.215862865707335,-0.0509947088244197
0.216206390849,-0.0556023514141239
0.216512491663121,-0.0602219075223894
0.320792211259,0.0277032775044782
0.217012340199103,-0.069495346151231
0.217206047866152,-0.0741485216001204
0.217362251096031,-0.0788121964241973
0.101936347731316,-0.174511552823104
0.217562064134654,-0.0881696300545413
0.11696333730782,-0.185253875756009
0.21761161909572,-0.0975648187555157
0.217579999728655,-0.102275687417881
0.217510755759981,-0.106994934240373
0.217403867162293,-0.11172220568715
0.217259313908184,-0.116457148222367
0.217077075970249,-0.121199408310181
0.216857133321081,-0.125948632414749
0.216599465933273,-0.130704467000227
0.216304053779419,-0.135466558530772
0.215970876832113,-0.140234553470542
0.102138804024696,-0.26474705074169
0.214744556955418,-0.154570423386756
0.21426012056024,-0.159358496604985
0.213737819234579,-0.164150705553221
0.212579541682178,-0.173746116496339
0.211943525400627,-0.178548611419535
0.211269564078967,-0.183353827929363
0.210557637689792,-0.188161412489981
0.117013291535298,-0.309897650764476
0.20819386784311,-0.202594839118138
0.20732988090981,-0.20740836052348
0.206427828771962,-0.212222482300395
0.204509448773001,-0.221851112825569
0.203493080857075,-0.226664914502141
0.201345889055299,-0.236289723004039
0.200215025114637,-0.241100022757678
0.199045955777583,-0.245908448131986
0.0867059569566034,-0.358598545671265
0.195309315114012,-0.260318942620488
0.19398722391733,-0.265116335119038
0.192626827187225,-0.269910085559038
0.191228104896291,-0.274699840404648
0.189791037017122,-0.279485246120022
0.18831560352231,-0.284265949169318
0.18202981283852,-0.303334663988849
0.180362250854404,-0.308086550670102
0.178656203090209,-0.312831613470216
0.176911649518527,-0.317569498853347
0.173306944843081,-0.327022323225291
0.167610593588606,-0.341138890759755
0.165634584596475,-0.345826287388282
0.161566608586816,-0.355171770605835
0.159474601514474,-0.359829150123174
0.0514465914987855,-0.468819889826128
0.155174449097738,-0.36911141729576
0.152966263698529,-0.37373559787932
0.150719312135553,-0.378348005079934
0.143745660189949,-0.392111051025663
0.261082115957557,-0.280150449703167
0.138902360904923,-0.401221066584288
0.136422391783803,-0.405755409234512
0.13134571444732,-0.414780996597566
0.128748966177144,-0.41927153423871
0.126113251469136,-0.423746763138473
0.234424230902323,-0.33805322283791
0.11797210844406,-0.437077062031045
0.209058436263583,-0.354660326189547
0.109479546491872,-0.450256854960831
0.0158870572820501,-0.559257536661883
0.100635024872602,-0.46327659646006
0.0976085442789309,-0.467579293474632
0.0945428769459585,-0.471862792853546
0.0914380028462786,-0.476126741060959
0.088293901952485,-0.480370784561027
0.0851105542371711,-0.484594569817908
0.0818879396729311,-0.488797743295757
0.0786260382323581,-0.492979951458731
0.0753248298880462,-0.497140840770987
0.0719842946125887,-0.501280057696681
0.0686044123785797,-0.505397248699971
0.0651851631586125,-0.509492060245012
0.0617265269252811,-0.513564138795961
0.0582284836511788,-0.517613130816975
0.0546910133088997,-0.52163868277221
0.0511140958710371,-0.525640441125824
0.0474977113101849,-0.529618052341972
0.0438418395989367,-0.533571162884811
-0.0638150927640797,-0.629759575989556
0.0288230807018578,-0.549131527606213
0.024969472827535,-0.552956831744857
0.021076257638378,-0.556755513995132
0.115349101826395,-0.463492687987883
0.0131709252059373,-0.564271598687201
0.00915876790784083,-0.567988294057309
-0.111276799390195,-0.663104677908272
0.00101537101086378,-0.575337223166451
-0.00311590864282944,-0.5789687498338
-0.00728693580320068,-0.582571179861876
-0.0157483127536032,-0.589687335856835
-0.0200387025984471,-0.593200354752031
-0.0243689200595943,-0.596682862864581
-0.148458054410812,-0.70921413275582
-0.0331489179404247,-0.603554932598367
-0.0375987384149205,-0.606943787147916
-0.0420884666153448,-0.610300716771446
-0.0466181225691045,-0.613625367933112
-0.154427374773642,-0.73086582586165
-0.0604468572244569,-0.623402115288494
0.0266160386302403,-0.524059294965762
-0.174686781591342,-0.727311299057024
-0.0746356626464529,-0.632875629196741
-0.0842951726080032,-0.639018128298141
0.0120917569191613,-0.531004006325308
0.019776825284489,-0.553729765524151
-0.0990852976187843,-0.647965040977227
-0.104095648750258,-0.650874774800745
-0.114236935369464,-0.656583265628453
-0.12453913464639,-0.662141430458103
-0.129750626600014,-0.664863256784048
-0.135002406800287,-0.667546441002948
-0.0364915377372348,-0.571827053456396
-0.145626912050404,-0.67279546897624
-0.150999677155061,-0.675360605658945
-0.156412810615993,-0.677885686091232
-0.278064874604859,-0.786880547506167
-0.167360262716303,-0.682814264061177
-0.172894621410495,-0.685217054527148
-0.178469428570587,-0.687578374599328
-0.184084704223984,-0.689897870741872
-0.284816409005393,-0.803568837407791
-0.201173542418075,-0.696601880233258
-0.206950892318759,-0.698750545298826
-0.21276881084978,-0.700855618755542
-0.218627318038545,-0.702916747067562
-0.224526433912461,-0.704933576699044
-0.24246763391917,-0.710714738151818
-0.254631844518509,-0.714340870893843
-0.367159667739437,-0.819313710501015
-0.266958970516201,-0.717781324053469
-0.375889129293966,-0.830103573531366
-0.285755476364259,-0.722587667698652
-0.173322636411341,-0.634084606218578
-0.304919443091894,-0.726960323170486
-0.311389183435575,-0.728319850010862
-0.3178998328755,-0.729629775133048
-0.324451411439077,-0.7308897450012
-0.331043939153711,-0.732099406079475
-0.33767743604681,-0.733258404832029
-0.344351922145778,-0.73436638772302
-0.255613662670862,-0.640221954628084
-0.351067417478023,-0.735423001216604
-0.466117900117566,-0.838397664606315
-0.36437522736463,-0.737356090261387
-0.275049254308854,-0.633282263595436
-0.37735613606681,-0.739033878807057
-0.288626364616703,-0.630857618459499
-0.390012401896216,-0.740459014668185
-0.289788564555895,-0.647779402314587
-0.426055925264299,-0.743244984290065
-0.431785374050503,-0.743495578114286
-0.448503128859429,-0.743887577215796
-0.474814352379401,-0.743361493090438
-0.479846382509767,-0.74308234266258
-0.484802333123157,-0.742745986646377
-0.376489412305202,-0.646330149063481
-0.494487124954831,-0.741902981756224
-0.499216530751027,-0.741396994835917
-0.503870986186072,-0.740835126234552
-0.403213386035114,-0.642304994546141
-0.512956175128533,-0.739545067895935
-0.410523416810807,-0.648487033728488
-0.521744950093866,-0.738035454554945
-0.530239569393723,-0.736308934026157
-0.435579831708305,-0.630004407047797
-0.538442291339754,-0.734368154124143
-0.542434896527477,-0.733318244350232
-0.437498721871008,-0.620814721917481
-0.553981076416949,-0.729854407458735
-0.451023312560994,-0.632371587058224
-0.564885730863965,-0.725926359725853
-0.568379371818666,-0.724515397075307
-0.571802861324475,-0.723054179349673
-0.575156481670349,-0.72154303752577
-0.578440515145244,-0.719982302580421
-0.584800950637925,-0.716713377232673
-0.602241530263952,-0.705750787864175
-0.60491198490308,-0.703758608782787
-0.610052884526052,-0.699635731537146
-0.612523894087808,-0.697505695326535
-0.614928986535019,-0.69533036869316
-0.617268444156643,-0.693110082613843
-0.735914919595278,-0.786670644109058
-0.621751584078951,-0.688535956024667
-0.623895830957549,-0.686182777468452
-0.625975572166385,-0.683785963373582
-0.627991089994415,-0.681345844716877
-0.631830584663882,-0.676337017625252
-0.633655126083234,-0.673768971143975
-0.547892440592812,-0.57340190575302
-0.640325172400405,-0.66308028844161
-0.641837065584421,-0.660305648455813
-0.644676085900817,-0.654635722149723
-0.649622966417846,-0.64282255155057
-0.651735343241782,-0.636684602886654
-0.652702253806453,-0.633558946132486
-0.653610022191534,-0.630395942399275
-0.654458930685983,-0.627195922663842
-0.655249261578755,-0.623959217903008
-0.655981297158807,-0.620686159093595
-0.656655319715096,-0.617377077212426
-0.657830454912208,-0.610652168142102
-0.658776925481744,-0.603787138506609
-0.659165117253562,-0.60030290591898
-0.659992905984693,-0.589647308798414
-0.660157514330151,-0.586028913228406
-0.660321442907427,-0.578694313154591
-0.660321327717157,-0.574978770604427
-0.546240140592767,-0.46979944609864
-0.65978025717235,-0.559802706441237
-0.659511248534998,-0.555931871793915
-0.659189308075099,-0.552030971657625
-0.658814718081609,-0.54810033700919
-0.658387760843484,-0.544140298825431
-0.657908718649683,-0.540151188083171
-0.656795508550872,-0.532087072830432
-0.656161905223775,-0.528012730273597
-0.653120756806436,-0.511441183302322
-0.561180209695208,-0.394780335777077
-0.651300093577785,-0.502995537445828
-0.64928238208468,-0.494446840428195
-0.647069880638776,-0.485797740063995
-0.645891289405915,-0.481436366068986
-0.642069541135172,-0.46820892055419
-0.639286219700776,-0.459274497037731
-0.636317141560187,-0.450250261433001
-0.63476364944746,-0.445705291539588
-0.626317950017773,-0.42266516023491
-0.62449513838132,-0.417996394444204
-0.622628428168926,-0.413308154422824
-0.620718101669548,-0.408600771147594
-0.618764441172144,-0.403874575595333
-0.513915510646605,-0.294850366896618
-0.61264627858133,-0.389586425044592
-0.601609007938699,-0.365427486422789
-0.596906569877018,-0.355650759736874
-0.584451410438194,-0.330949233306624
-0.581842797270432,-0.325967054169639
-0.579195649016902,-0.320971689361593
-0.573786876408367,-0.310942726639605
-0.571025816631274,-0.305909790679306
-0.56822735092424,-0.300864992955233
-0.562519330876173,-0.290741136123051
-0.559610341113053,-0.285662738968586
-0.558988245447948,-0.302054077909026
-0.529852564997326,-0.28276062566219
-0.550666840334825,-0.27036564427355
-0.573650919876302,-0.312463416225118
-0.54140447039138,-0.254982645244313
-0.561259754405701,-0.232643226320846
-0.535056171412272,-0.244684000952331
-0.515281965407046,-0.286667220718906
-0.525279290197522,-0.229177686642057
-0.521953610216141,-0.223994679679972
-0.511780363587995,-0.20840758589324
-0.523278691166053,-0.185686706242715
-0.504837516488794,-0.197987772386571
-0.501099599017479,-0.214620475679957
-0.545343476394413,-0.177911401274456
-0.401652589843367,-0.121093459199752
-0.48326253975326,-0.166621053112404
-0.48064313298887,-0.194895410357854
-0.439337741224551,-0.175827800063721
-0.431271690610928,-0.0971114498089812
-0.494974965829968,-0.133595455209028
-0.443564499729404,-0.157630641058248
-0.452064966635073,-0.136191162128898
-0.444951625766705,-0.114144460682666
-0.43695687486016,-0.103643163481961
-0.43291976327145,-0.098393918891604
-0.424767479267938,-0.0878998926149917
-0.411755586636857,-0.111716139823658
-0.422816520276464,-0.0860955075007381
-0.408158572047327,-0.0669389590291779
-0.399706465453531,-0.0564773473491232
-0.398213136243272,-0.0261904423008039
-0.379938214264112,-0.0163860531836832
-0.398584042673974,-0.00640949007390895
-0.372534917604459,-0.0695093439365289
-0.353777241523322,0.0198277886402363
-0.349870768071963,-0.0236751794916651
-0.356059735115717,-0.00446375266030957
-0.31931347528476,0.00621514056333354
-0.331497904962465,0.0497303043668316
-0.354843082614986,-0.0205999014880638
-0.299283949448903,0.0161202525441895
-0.29707859571075,0.0659208395115512
-0.281495059164061,0.0617121036094286
-0.355462227181165,0.0207813406413782
-0.202368212250102,0.133451756360024
-0.340552755550334,0.0152025449852492
-0.276419609070621,0.0264405716215237
-0.291483972730657,0.067048879259571
-0.311896785479809,0.103607186189297
-0.293737462197717,0.0884172537705769
-0.257892216289009,0.101982268041492
-0.243263526927749,0.116746058835955
-0.238358404284364,0.121637207065331
-0.233439305694425,0.126512745982281
-0.223560309830707,0.136215671971619
-0.193617257573711,0.164915404851967
-0.183541746304937,0.174336808067616
-0.178487543374021,0.179018800077656
-0.060018498825356,0.289543977952075
-0.163262532862636,0.192945965994774
-0.15816766974915,0.197547648006741
-0.14794984784138,0.206687966229137
-0.142827453625009,0.211225940485922
-0.137696446952256,0.21574201687067
-0.0257942221913777,0.311294306511772
-0.10674535351328,0.242360085164357
-0.101561963736634,0.246713609093836
-0.0807676860723139,0.263878938177426
-0.0703380681509015,0.272307709063122
-0.06511612742923,0.27648246267307
-0.0598898085855232,0.280630353758655
-0.0546593939087381,0.284751051343055
-0.0494251656878308,0.28884422444945
-0.0441874062117581,0.292909542101017
-0.038946397769476,0.296946673320935
-0.0284557631421106,0.304935052558535
-0.0127025011784057,0.316697948757024
-0.104817834224039,0.220331776065047
0.00306475787753233,0.328189294322297
0.00832230401265546,0.331957853700395
0.0135802762244231,0.335694916878626
0.0240963697220659,0.343073230728204
0.029353926430028,0.346713819445907
-0.0730969091422827,0.263189451084053
0.0503742995804984,0.360944663476972
0.0556255180029891,0.364417841890694
0.0713653569708526,0.374629203277003
0.0766064235637497,0.377962495864749
0.0870785434212183,0.384521353367776
0.0975354302478768,0.390934367462036
0.107974825732074,0.397198890332957
0.123596182634515,0.406311461501199
0.13398196964908,0.412193172125013
0.255895241515773,0.533412181258532
0.144342361230404,0.417917124174482
0.15983039210832,0.426201462827405
0.170117414993059,0.431519434252249
0.180371138353775,0.436670379751739
0.185484806990233,0.439182390337422
0.190589303878815,0.441651651511302
0.195684346730566,0.444077832296557
0.125526116285642,0.360889764819778
0.231061221389185,0.459827044858817
0.337487655197549,0.567356066786816
0.144674843383134,0.364361700736737
0.275688935560968,0.47676771492113
0.290318449603676,0.481549794204795
0.295165131037932,0.483044862084995
0.299996430367271,0.484489899063314
0.304812065302735,0.485884574162931
0.314395212836215,0.488521514818773
0.323912315326721,0.490953036237946
0.333361114462602,0.493176490605876
0.342739351932205,0.495189230107991
0.361275108625972,0.498571973256482
0.365861418146035,0.499281825042198
0.379501518914809,0.501080083166828
0.293416674551468,0.409003049675265
0.392957449928378,0.502374444929421
0.397400516305502,0.502692377322443
0.414954034304837,0.503387673206739
0.419286315482598,0.503415733871756
0.4321440064196,0.503144788303128
0.436382578236653,0.502934994002952
0.440597016991138,0.502664908519423
0.444787040394098,0.502334200875721
0.448952366156577,0.501942540095022
0.465361047022555,0.499759746065835
0.493060170630554,0.493516705094603
0.504515592765161,0.489873862760524
0.512008351462353,0.487116263885901
0.636189313065106,0.582498748450859
0.523025559640194,0.482479690059679
0.526612110778874,0.480847296558437
0.533541784482443,0.477665784662298
0.543333377472961,0.473098270543373
0.560783375760187,0.464677691048691
0.563419581931542,0.463364203938423
0.475610573094423,0.365316601541567
0.57763835784303,0.456002104930356
0.585622839003863,0.451571368047403
0.587435576589108,0.450521251386612
0.590843630986138,0.448488496584693
0.593964303849505,0.446544186902067
0.718047172969162,0.549150910870124
0.484996790485576,0.335506435061404
0.605362484061292,0.438085213187447
0.606125810243486,0.437349595521089
0.606822191062617,0.436633112966049
0.608513430588054,0.434596186608446
0.704205725780751,0.541265532952159
0.61009422314309,0.429444528270212
0.60975333720856,0.428483339702096
0.511951378924231,0.311042155176919
0.60833908281552,0.426747543926372
0.701933318470634,0.536991986479118
0.60727174515129,0.425969273742141
0.717802749376833,0.5216505494659
0.601696408584705,0.423684623772095
0.59959027815266,0.423149824798445
0.69028584356123,0.524051560786205
0.593357889837472,0.422023494011296
0.591948645474133,0.421832510647894
0.59048602503486,0.42165242069841
0.582385474061957,0.420907359398411
0.564615928711667,0.420146765685323
0.55782017792775,0.420035744865066
0.553056092035549,0.419995975371053
0.545567123635715,0.419983108988496
0.542980884651264,0.419990381212411
0.529392279954129,0.420103147845995
0.526545715532223,0.420139379723241
0.424610716875422,0.319250682184292
0.508596086293397,0.420433290213159
0.505462958932358,0.420492891762856
0.495828505362831,0.420685317350673
0.492539920092993,0.420753236406058
0.489213412657562,0.420822662497768
0.390801220738318,0.320760536746277
0.479010126604132,0.421037693630459
0.442689399640271,0.421758176097874
0.435021450011752,0.421889221725969
0.427225934897978,0.422011643592876
0.419305869696087,0.422123610210284
0.403104150616516,0.422308851743357
0.495985210647842,0.514031070758491
0.390648344341759,0.422406716168914
0.386440415950157,0.422430294418702
0.373653928820293,0.42247069438733
0.360631304175336,0.422460784528037
0.347382718980633,0.422394383567773
0.338429820873983,0.422315679835428
0.324827250241585,0.422141390877881
0.301719498237291,0.421685691255296
0.396150679534634,0.527868716198906
0.287609351148805,0.421303067480031
0.27810657854806,0.420998667695159
0.161532228993624,0.326193776522765
0.258884183733488,0.420263264984748
0.254035606754201,0.420051703192613
0.229553698436022,0.418816180742797
0.209703959153936,0.417600770433645
0.194678361494622,0.416547185184391
0.143875769125577,0.412071691614429
0.13874449247846,0.411536735692972
0.22351371131061,0.502842815473496
0.107806892880129,0.407966022620387
-0.0231141671897723,0.301484045063533
0.076671054013515,0.403740776879152
0.0610542372679681,0.401367251075168
0.166997218643323,0.510866543751065
0.0506318262737379,0.399684072662404
0.0297736939791287,0.396067487235218
0.0245585866521099,0.395109874459516
-0.117991058196499,0.285906455343384
-0.00670785784081285,0.388897451811504
-0.0275014659154655,0.384294528075884
-0.104668744372998,0.363474878482915
-0.114816378127998,0.360247136868317
-0.134980216881437,0.353453513598536
-0.144990391085598,0.349883968966731
-0.273656042487221,0.237237368589818
-0.159907490121685,0.344308584712006
-0.174697748242167,0.338462425223928
-0.179597888430528,0.336452464752309
-0.184482427485253,0.334411502399494
-0.189350988481698,0.332339309229447
-0.194203194495221,0.330235656306126
-0.203857033874931,0.325933055455512
-0.208657913391834,0.323733649656141
-0.2417428071484,0.307418474714382
-0.287232304402666,0.281203488152627
-0.291653986182417,0.278386296185605
-0.346755742169204,0.238358300398544
-0.385787109924807,0.203054522870171
-0.396863996781975,0.191659449638505
-0.462295756587507,0.105630717668254
-0.4707356972039,0.091148719433222
-0.483934906585243,0.0660547189870045
-0.578943071733299,-0.0602361817054344
-0.409166919106206,0.132628552961726
-0.508946717981162,0.00650804274653434
-0.630579757087523,-0.14569367688384
-0.528011690732254,-0.0592552733211036
-0.534575997493338,-0.0912851942356494
-0.537855458293973,-0.11116179727938
-0.538836496470327,-0.117898480326025
-0.542190020732659,-0.145407060967307
-0.542883860064258,-0.152425812921498
-0.544612447103215,-0.173825588065984
-0.546447508662023,-0.218191579367057
-0.450747863060975,-0.148419273639794
-0.545763386781496,-0.272647200884135
-0.545410265132785,-0.280667798163256
-0.538243051680651,-0.364266133026653
