-0.503325703176971,-0.74147579678174
-0.497799254555762,-0.733220601391932
-0.492311192965615,-0.725013198510368
-0.486861454498328,-0.71685344158209
-0.481449975245695,-0.70874118405214
-0.476076691299513,-0.700676279365559
-0.470741538751577,-0.69265858096739
-0.465444453693683,-0.684687942302673
-0.460185372217627,-0.676764216816451
-0.454964230415204,-0.668887257953765
-0.449780964378211,-0.661056919159658
-0.444635510198442,-0.65327305387917
-0.439527803967695,-0.645535515557344
-0.434457781777764,-0.637844157639221
-0.429425379720446,-0.630198833569844
-0.424430533887536,-0.622599396794252
-0.41947318037083,-0.61504570075749
-0.414553255262123,-0.607537598904598
-0.409670694653212,-0.600074944680618
-0.404825434635892,-0.592657591530591
-0.400017411301959,-0.58528539289956
-0.395246560743209,-0.577958202232567
-0.390512819051438,-0.570675872974652
-0.385816122318441,-0.563438258570857
-0.381156406636014,-0.556245212466226
-0.376533608095953,-0.549096588105798
-0.371947662790053,-0.541992238934617
-0.367398506810111,-0.534932018397723
-0.362886076247922,-0.527915779940158
-0.358410307195282,-0.520943377006964
-0.353971135743987,-0.514014663043184
-0.349568497985832,-0.507129491493857
-0.345202330012614,-0.500287715804028
-0.340872567916128,-0.493489189418736
-0.336579147788169,-0.486733765783024
-0.332322005720534,-0.480021298341933
-0.328101077805019,-0.473351640540506
-0.323916300133419,-0.466724645823784
-0.319767608797529,-0.460140167636808
-0.315654939889146,-0.453598059424621
-0.311578229500066,-0.447098174632265
-0.307537413722084,-0.44064036670478
-0.303532428646996,-0.434224489087208
-0.299563210366597,-0.427850395224592
-0.295629694972685,-0.421517938561974
-0.291731818557053,-0.415226972544394
-0.287869517211499,-0.408977350616895
-0.284042727027817,-0.402768926224518
-0.280251384097804,-0.396601552812305
-0.276495424513255,-0.390475083825299
-0.272774784365967,-0.384389372708539
-0.269089399747734,-0.378344272907069
-0.265439206750354,-0.37233963786593
-0.26182414146562,-0.366375321030164
-0.25824413998533,-0.360451175844812
-0.254699138401279,-0.354567055754917
-0.251189072805263,-0.348722814205519
-0.247713879289077,-0.342918304641662
-0.244273493944518,-0.337153380508386
-0.240867852863381,-0.331427895250732
-0.237496892137461,-0.325741702313744
-0.234160547858556,-0.320094655142463
-0.230858756118459,-0.31448660718193
-0.227591453008968,-0.308917411877187
-0.224358574621878,-0.303386922673276
-0.221160057048985,-0.297894993015239
-0.217995836382084,-0.292441476348116
-0.214865848712971,-0.287026226116951
-0.211770030133442,-0.281649095766785
-0.208708316735294,-0.27630993874266
-0.20568064461032,-0.271008608489616
-0.202686949850319,-0.265744958452697
-0.199727168547084,-0.260518842076944
-0.196801236792412,-0.255330112807398
-0.193909090678099,-0.250178624089101
-0.19105066629594,-0.245064229367095
-0.188225899737732,-0.239986782086422
-0.185434727095269,-0.234946135692124
-0.182677084460349,-0.229942143629241
-0.179952907924765,-0.224974659342817
-0.177262133580315,-0.220043536277892
-0.174604697518795,-0.215148627879509
-0.171980535831999,-0.210289787592708
-0.169389584611723,-0.205466868862533
-0.166831779949764,-0.200679725134024
-0.164307057937917,-0.195928209852224
-0.161815354667978,-0.191212176462173
-0.159356606231743,-0.186531478408915
-0.156930748721007,-0.18188596913749
-0.154537718227567,-0.17727550209294
-0.152177450843218,-0.172699930720307
-0.149849882659755,-0.168159108464634
-0.147554949768975,-0.16365288877096
-0.145292588262673,-0.159181125084329
-0.143062734232645,-0.154743670849782
-0.140865323770687,-0.15034037951236
-0.138700292968595,-0.145971104517106
-0.136567577918164,-0.141635699309062
-0.134467114711191,-0.137334017333268
-0.13239883943947,-0.133065912034766
-0.130362688194798,-0.128831236858599
-0.128358597068971,-0.124629845249809
-0.126386502153783,-0.120461590653436
-0.124446339541032,-0.116326326514523
-0.122538045322513,-0.112223906278111
-0.120661555590021,-0.108154183389242
-0.118816806435353,-0.104117011292958
-0.117003733950304,-0.1001122434343
-0.115222274226669,-0.096139733258311
-0.113472363356246,-0.0921993342100319
-0.111753937430828,-0.0882908997345044
-0.110066932542213,-0.0844142832767704
-0.108411284782196,-0.0805693382818718
-0.106786930242573,-0.0767559181948501
-0.105193805015139,-0.072973876460747
-0.103631845191691,-0.0692230665246044
-0.102100986864023,-0.065503341831464
-0.100601166123933,-0.0618145558263675
-0.0991323190632146,-0.0581565619543566
-0.0976943817736649,-0.0545292136604732
-0.0962872903470795,-0.0509323643897588
-0.094910980875254,-0.0473658675872553
-0.0935653894499841,-0.0438295766980045
-0.0922504521630657,-0.0403233451670479
-0.0909661051062946,-0.0368470264394274
-0.0897122843714665,-0.0334004739601848
-0.0884889260503771,-0.0299835411743616
-0.0872959662348223,-0.0265960815269997
-0.0861333410165978,-0.0232379484631409
-0.0850009864874994,-0.0199089954278268
-0.0838988387393229,-0.0166090758660992
-0.0828268338638639,-0.0133380432229998
-0.0817849079529185,-0.0100957509435704
-0.0807729970982822,-0.0068820524728527
-0.0797910373917508,-0.00369680125588838
-0.0788389649251201,-0.000539850737719297
-0.077916715790186,0.00258894563661291
-0.0770242260787441,0.00568973442206644
-0.0761614318825902,0.00876266217359967
-0.0753282692935202,0.0118078754461708
-0.0745246744033297,0.0148255207947379
-0.0737505833038146,0.0178157447742596
-0.0730059320867705,0.0207786939396939
-0.0722906568439934,0.0237145148459991
-0.071604693667279,0.0266233540481335
-0.070947978648423,0.0295053581010554
-0.0703204478792211,0.0323606735597231
-0.0697220374514692,0.0351894469790947
-0.0691526834569631,0.0379918249141286
-0.0686123219874986,0.0407679539197829
-0.0681008891348712,0.0435179805510161
-0.067618320990877,0.0462420513627863
-0.0671645536473116,0.0489403129100518
-0.0667395231959708,0.0516129117477709
-0.0663431657286503,0.0542599944309019
-0.065975417337146,0.0568817075144029
-0.0656362141132537,0.0594781975532323
-0.065325492148769,0.0620496111023483
-0.0650431875354878,0.0645960947167092
-0.0647892363652058,0.0671177949512733
-0.0645635747297188,0.0696148583609987
-0.0643661387208225,0.0720874315008439
-0.0641968644303128,0.074535660925767
-0.0640556879499855,0.0769596931907263
-0.0639425453716362,0.0793596748506801
-0.0638573727870608,0.0817357524605866
-0.063800106288055,0.0840880725754041
-0.0637706819664146,0.0864167817500909
-0.0637690359139353,0.0887220265396052
-0.0637951042224131,0.0910039534989053
-0.0638488229836435,0.0932627091829494
-0.0639301282894224,0.0954984401466959
-0.0640389562315456,0.0977112929451029
-0.0641752429018088,0.0999014141331288
-0.0643389243920078,0.102068950265732
-0.0645299367939383,0.10421404789787
-0.0647482161993962,0.106336853584502
-0.0649936987001773,0.108437513880586
-0.0652663203880772,0.11051617534108
-0.0655660173548917,0.112572984520942
-0.0658927256924167,0.114608087975132
-0.0662463814924479,0.116621632258606
-0.0666269208467811,0.118613763926323
-0.0670342798472119,0.120584629533242
-0.0674683945855363,0.12253437563432
-0.06792920115355,0.124463148784517
-0.0684166356430487,0.12637109553879
-0.0689306341458283,0.128258362452097
-0.0694711327536845,0.130125096079397
-0.070038067558413,0.131971442975648
-0.0706313746518097,0.133797549695809
-0.0712509901256703,0.135603562794837
-0.0718968500717905,0.137389628827691
-0.0725688905819662,0.139155894349329
-0.0732670477479931,0.140902505914709
-0.0739912576616671,0.14262961007879
-0.0747414564147837,0.14433735339653
-0.075517580099139,0.146025882422887
-0.0763195648065285,0.14769534371282
-0.0771473466287481,0.149345883821286
-0.0780008616575936,0.150977649303244
-0.0788800459848607,0.152590786713653
-0.0797848357023452,0.15418544260747
-0.0807151669018429,0.155761763539653
-0.0816709756751495,0.157319896065162
-0.0826521981140608,0.158859986738954
-0.0836587703103725,0.160382182115987
-0.0846906283558806,0.161886628751221
-0.0857477083423806,0.163373473199612
-0.0868299463616684,0.16484286201612
-0.0879372785055398,0.166294941755702
-0.0890696408657906,0.167729858973317
-0.0902269695342164,0.169147760223923
-0.0914092006026132,0.170548792062479
-0.0926162701627765,0.171933101043942
-0.0938481143065023,0.173300833723271
-0.0951046691255863,0.174652136655425
-0.0963858707118242,0.17598715639536
-0.0976916551570119,0.177306039498037
-0.0990219585529451,0.178608932518412
-0.10037671699142,0.179895982011445
-0.101755866564231,0.181167334532093
-0.103159343363175,0.182423136635315
-0.104587083480048,0.183663534876069
-0.106039023006646,0.184888675809313
-0.107515098034763,0.186098705990006
-0.109015244656196,0.187293771973106
-0.110539398962741,0.18847402031357
-0.112087497046194,0.189639597566358
-0.113659474998349,0.190790650286428
-0.115255268911004,0.191927325028737
-0.116874814875953,0.193049768348245
-0.118518048984993,0.194158126799909
-0.12018490732992,0.195252546938687
-0.121875326002528,0.196333175319539
-0.123589241094614,0.197400158497421
-0.125326588697974,0.198453643027293
-0.127087304904403,0.199493775464113
-0.128871325805697,0.200520702362839
-0.130678587493653,0.201534570278429
-0.132509026060065,0.202535525765842
-0.134362577596729,0.203523715380035
-0.136239178195442,0.204499285675967
-0.138138763947998,0.205462383208597
-0.140061270946195,0.206413154532882
-0.142006635281827,0.207351746203781
-0.14397479304669,0.208278304776252
-0.145965680332581,0.209192976805253
-0.147979233231294,0.210095908845743
-0.150015387834626,0.21098724745268
-0.152074080234372,0.211867139181022
-0.154155246522329,0.212735730585727
-0.156258822790291,0.213593168221754
-0.158384745130056,0.214439598644061
-0.160532949633417,0.215275168407607
-0.162703372392173,0.216100024067348
-0.164895949498117,0.216914312178244
-0.167110617043045,0.217718179295254
-0.169347311118755,0.218511771973334
-0.171605967817041,0.219295236767444
-0.173886523229699,0.220068720232542
-0.176188913448525,0.220832368923586
-0.178513074565314,0.221586329395534
-0.180858942671863,0.222330748203345
-0.183226453859967,0.223065771901976
-0.185615544221422,0.223791547046387
-0.188026149848024,0.224508220191534
-0.190458206831569,0.225215937892378
-0.192911651263851,0.225914846703875
-0.195386419236668,0.226605093180985
-0.197882446841815,0.227286823878665
-0.200399670171087,0.227960185351873
-0.202938025316281,0.228625324155569
-0.205497448369192,0.22928238684471
-0.208077875421615,0.229931519974254
-0.210679242565348,0.23057287009916
-0.213301485892184,0.231206583774386
-0.215944541493922,0.23183280755489
-0.218608345462355,0.23245168799563
-0.22129283388928,0.233063371651566
-0.223997942866492,0.233668005077654
-0.226723608485788,0.234265734828854
-0.229469766838963,0.234856707460123
-0.232236354017812,0.23544106952642
-0.235023306114133,0.236018967582704
-0.23783055921972,0.236590548183931
-0.240658049426368,0.237155957885061
-0.243505712825875,0.237715343241052
-0.246373485510036,0.238268850806862
-0.249261303570646,0.23881662713745
-0.252169103099501,0.239358818787773
-0.255096820188398,0.239895572312791
-0.258044390929131,0.24042703426746
-0.261011751413497,0.24095335120674
-0.263998837733291,0.241474669685589
-0.267005585980309,0.241991136258964
-0.270031932246348,0.242502897481825
-0.273077812623201,0.243010099909129
-0.276143163202667,0.243512890095835
-0.279227920076539,0.244011414596902
-0.282332019336615,0.244505819967286
-0.285455397074689,0.244996252761947
-0.288597989382557,0.245482859535843
-0.291759732352017,0.245965786843932
-0.294940562074862,0.246445181241172
-0.298140414642889,0.246921189282522
-0.301359226147893,0.24739395752294
-0.304596932681671,0.247863632517384
-0.307853470336018,0.248330360820813
-0.31112877520273,0.248794288988184
-0.314422783373602,0.249255563574456
-0.317735430940431,0.249714331134587
-0.321066653995013,0.250170738223536
-0.324416388629142,0.25062493139626
-0.327784570934615,0.251077057207718
-0.331171137003228,0.251527262212869
-0.334576022926776,0.25197569296667
-0.337999164797055,0.25242249602408
-0.341440498705861,0.252867817940057
-0.344899960744989,0.25331180526956
-0.348377487006236,0.253754604567546
-0.351873013581398,0.254196362388974
-0.355386476562269,0.254637225288801
-0.358917812040645,0.255077339821988
-0.362466956108324,0.25551685254349
-0.366033844857099,0.255955910008268
-0.369618414378768,0.256394658771279
-0.373220600765125,0.256833245387481
-0.376840340107967,0.257271816411833
-0.380477568499089,0.257710518399293
-0.384132222030288,0.25814949790482
-0.387804236793358,0.25858890148337
-0.391493548880096,0.259028875689904
-0.395200094382297,0.259469567079378
-0.398923809391758,0.259911122206752
-0.402664630000273,0.260353687626983
-0.40642249229964,0.26079740989503
-0.410197332381652,0.261242435565851
-0.413989086338107,0.261688911194404
-0.417797690260801,0.262136983335648
-0.421623080241528,0.262586798544541
-0.425465192372084,0.263038503376041
-0.429323962744266,0.263492244385106
-0.433199327449869,0.263948168126695
-0.437091222580689,0.264406421155766
-0.440999584228522,0.264867150027277
-0.444924348485163,0.265330501296186
-0.448865451442408,0.265796621517452
-0.452822829192053,0.266265657246033
-0.456796417825895,0.266737755036887
-0.460786153435727,0.267213061444973
-0.464791972113347,0.267691723025249
-0.46881380995055,0.268173886332672
-0.472851603039132,0.268659697922202
-0.476905287470889,0.269149304348796
-0.480974799337616,0.269642852167413
-0.485060074731109,0.270140487933011
-0.489161049743164,0.270642358200549
-0.493277660465576,0.271148609524984
-0.497409842990143,0.271659388461275
-0.501557533408658,0.27217484156438
-0.505720667812919,0.272695115389257
-0.50989918229472,0.273220356490865
-0.514093012945858,0.273750711424162
-0.518302095858128,0.274286326744106
-0.522526367123326,0.274827349005656
-0.526765762833248,0.275373924763769
-0.53102021907969,0.275926200573404
-0.535289671954447,0.27648432298952
-0.539574057549316,0.277048438567074
-0.543873311956091,0.277618693861024
-0.548187371266569,0.27819523542633
-0.552516171572546,0.278778209817949
-0.556859648965817,0.279367763590839
-0.561217739538178,0.27996404329996
-0.565590379381425,0.280567195500268
-0.569977504587353,0.281177366746723
-0.574379051247759,0.281794703594282
-0.578794955454438,0.282419352597904
-0.583225153299186,0.283051460312548
-0.587669580873798,0.28369117329317
-0.592128174270071,0.284338638094731
-0.5966008695798,0.284994001272187
-0.601087602894781,0.285657409380497
-0.60558831030681,0.28632900897462
-0.610102927907683,0.287008946609513
-0.614631391789194,0.287697368840136
-0.619173638043141,0.288394422221446
-0.623729602761319,0.289100253308401
-0.628299222035523,0.28981500865596
-0.63288243195755,0.290538834819081
-0.637479168619195,0.291271878352722
-0.642089368112253,0.292014285811842
-0.646712966528522,0.292766203751399
-0.651349899959796,0.29352777872635
-0.656000104497871,0.294299157291656
-0.660663516234543,0.295080486002272
-0.665340071261608,0.295871911413159
-0.670029705670862,0.296673580079273
-0.6747323555541,0.297485638555574
-0.6747323555541,0.297485638555574
-0.6793927174515,0.298300367489449
-0.683955815737085,0.299109927915702
-0.688422078253419,0.299914286970416
-0.692791932843068,0.300713411789673
-0.697065807348596,0.301507269509557
-0.701244129612566,0.30229582726615
-0.705327327477543,0.303079052195534
-0.709315828786093,0.303856911433793
-0.713210061380778,0.30462937211701
-0.717010453104164,0.305396401381267
-0.720717431798815,0.306157966362646
-0.724331425307295,0.306914034197232
-0.727852861472169,0.307664572021106
-0.731282168136001,0.308409546970352
-0.734619773141355,0.309148926181051
-0.737866104330796,0.309882676789288
-0.741021589546889,0.310610765931144
-0.744086656632198,0.311333160742703
-0.747061733429286,0.312049828360047
-0.74994724778072,0.312760735919259
-0.752743627529062,0.313465850556422
-0.755451300516877,0.314165139407619
-0.75807069458673,0.314858569608932
-0.760602237581186,0.315546108296445
-0.763046357342808,0.316227722606239
-0.765403481714161,0.316903379674398
-0.767674038537809,0.317573046637004
-0.769858455656318,0.318236690630141
-0.77195716091225,0.318894278789892
-0.773970582148171,0.319545778252337
-0.775899147206645,0.320191156153562
-0.777743283930237,0.320830379629648
-0.77950342016151,0.321463415816679
-0.78117998374303,0.322090231850736
-0.782773402517359,0.322710794867903
-0.784284104327065,0.323325072004263
-0.78571251701471,0.323933030395899
-0.787059068422858,0.324534637178892
-0.788324186394075,0.325129859489327
-0.789508298770924,0.325718664463285
-0.79061183339597,0.32630101923685
-0.791635218111778,0.326876890946104
-0.792578880760911,0.32744624672713
-0.793443249185936,0.328009053716011
-0.794228751229414,0.32856527904883
-0.794935814733912,0.329114889861669
-0.795564867541993,0.329657853290611
-0.796116337496222,0.33019413647174
-0.796590652439164,0.330723706541137
-0.796988240213382,0.331246530634886
-0.797309528661441,0.331762575889069
-0.797554945625905,0.33227180943977
-0.79772491894934,0.33277419842307
-0.797819876474309,0.333269709975053
-0.797840246043376,0.333758311231802
-0.797786455499107,0.334239969329399
-0.797658932684066,0.334714651403927
-0.797458105440816,0.335182324591469
-0.797184401611922,0.335642956028108
-0.796838249039949,0.336096512849926
-0.796420075567462,0.336542962193006
-0.795930309037024,0.336982271193431
-0.795369377291199,0.337414406987284
-0.794737708172554,0.337839336710648
-0.794035729523651,0.338257027499605
-0.793263869187055,0.338667446490238
-0.792422555005331,0.33907056081863
-0.791512214821043,0.339466337620864
-0.790533276476755,0.339854744033022
-0.789486167815032,0.340235747191188
-0.788371316678438,0.340609314231444
-0.787189150909537,0.340975412289872
-0.785940098350895,0.341334008502556
-0.784624586845075,0.341685070005579
-0.783243044234642,0.342028563935023
-0.78179589836216,0.342364457426971
-0.780283577070194,0.342692717617505
-0.778706508201308,0.343013311642709
-0.777065119598066,0.343326206638666
-0.775359839103033,0.343631369741457
-0.773591094558773,0.343928768087167
-0.771759313807851,0.344218368811877
-0.769864924692831,0.344500139051671
-0.767908355056277,0.344774045942631
-0.765890032740755,0.34504005662084
-0.763810385588827,0.345298138222381
-0.761669841443059,0.345548257883336
-0.759468828146016,0.345790382739789
-0.75720777354026,0.346024479927822
-0.754887105468358,0.346250516583518
-0.752507251772872,0.34646845984296
-0.750068640296369,0.34667827684223
-0.747571698881412,0.346879934717412
-0.745016855370565,0.347073400604588
-0.742404537606393,0.34725864163984
-0.73973517343146,0.347435624959253
-0.737009190688332,0.347604317698908
-0.734227017219571,0.347764686994888
-0.731389080867742,0.347916699983276
-0.728495809475411,0.348060323800155
-0.725547630885141,0.348195525581607
-0.722544972939497,0.348322272463716
-0.719488263481043,0.348440531582564
-0.716377930352343,0.348550270074234
-0.713214401395963,0.348651455074809
-0.709998104454465,0.348744053720372
-0.706729467370415,0.348828033147004
-0.703408917986378,0.34890336049079
-0.700036884144917,0.348970002887812
-0.696613793688597,0.349027927474152
-0.693140074459983,0.349077101385893
-0.689616154301638,0.349117491759119
-0.686042461056128,0.349149065729912
-0.682419422566016,0.349171790434355
-0.678747466673866,0.34918563300853
-0.675027021222245,0.349190560588521
-0.671258514053715,0.34918654031041
-0.667442373010842,0.34917353931028
-0.663579025936189,0.349151524724213
-0.659668900672321,0.349120463688293
-0.655712425061802,0.349080323338603
-0.651710026947198,0.349031070811224
-0.647662134171071,0.34897267324224
-0.643569174575987,0.348905097767734
-0.639431576004511,0.348828311523789
-0.635249766299205,0.348742281646486
-0.631024173302636,0.34864697527191
-0.626755224857366,0.348542359536142
-0.622443348805962,0.348428401575266
-0.618088972990986,0.348305068525364
-0.613692525255004,0.348172327522519
-0.60925443344058,0.348030145702815
-0.604775125390278,0.347878490202333
-0.600255028946663,0.347717328157156
-0.595694571952299,0.347546626703368
-0.59109418224975,0.347366352977051
-0.586454287681581,0.347176474114287
-0.581775316090357,0.346976957251161
-0.577057695318641,0.346767769523753
-0.572301853208998,0.346548878068148
-0.567508217603994,0.346320250020428
-0.56267721634619,0.346081852516676
-0.557809277278153,0.345833652692974
-0.552904828242447,0.345575617685405
-0.547964297081636,0.345307714630053
-0.542988111638284,0.345029910662999
-0.537976699754957,0.344742172920327
-0.532930489274218,0.34444446853812
-0.527849908038631,0.34413676465246
-0.522735383890762,0.34381902839943
-0.517587344673174,0.343491226915113
-0.512406218228432,0.343153327335591
-0.507192432399101,0.342805296796948
-0.501946415027744,0.342447102435266
-0.496668593956926,0.342078711386628
-0.491359397029213,0.341700090787116
-0.486019252087167,0.341311207772815
-0.480648586973353,0.340912029479805
-0.475247829530336,0.340502523044171
-0.469817407600681,0.340082655601994
-0.464357749026951,0.339652394289359
-0.458869281651711,0.339211706242346
-0.453352433317525,0.33876055859704
-0.447807631866959,0.338298918489523
-0.442235305142575,0.337826753055877
-0.436635880986939,0.337344029432187
-0.431009787242615,0.336850714754533
-0.425357451752168,0.336346776159
-0.419679302358162,0.33583218078167
-0.41397576690316,0.335306895758625
-0.408247273229729,0.334770888225949
-0.402494249180431,0.334224125319724
-0.396717122597832,0.333666574176034
-0.390916321324496,0.33309820193096
-0.385092273202987,0.332518975720586
-0.379245406075869,0.331928862680994
-0.373376147785708,0.331327829948267
-0.367484926175067,0.330715844658489
-0.361572169086511,0.330092873947741
-0.355638304362605,0.329458884952107
-0.349683759845912,0.328813844807669
-0.343708963378997,0.328157720650511
-0.337714342804425,0.327490479616714
-0.331700325964759,0.326812088842362
-0.325667340702565,0.326122515463537
-0.319615814860407,0.325421726616323
-0.313546176280849,0.324709689436802
-0.307458852806455,0.323986371061056
-0.30135427227979,0.32325173862517
-0.295232862543419,0.322505759265224
-0.289095051439905,0.321748400117303
-0.282941266811813,0.320979628317489
-0.276771936501708,0.320199411001865
-0.270587488352154,0.319407715306513
-0.264388350205715,0.318604508367516
-0.258174949904957,0.317789757320958
-0.251947715292442,0.316963429302921
-0.245707074210736,0.316125491449487
-0.239453454502402,0.315275910896739
-0.233187284010007,0.314414654780761
-0.226908990576113,0.313541690237635
-0.220619002043285,0.312656984403444
-0.214317746254087,0.311760504414271
-0.208005651051085,0.310852217406198
-0.201683144276842,0.309932090515307
-0.195350653773923,0.309000090877684
-0.189008607384892,0.308056185629408
-0.182657432952314,0.307100341906565
-0.176297558318753,0.306132526845235
-0.169929411326773,0.305152707581503
-0.163553419818939,0.30416085125145
-0.157170011637816,0.303156924991161
-0.150779614625967,0.302140895936716
-0.144382656625957,0.3011127312242
-0.13797956548035,0.300072397989695
-0.131570769031712,0.299019863369284
-0.125156695122605,0.297955094499049
-0.118737771595595,0.296878058515074
-0.112314426293247,0.295788722553441
-0.105887087058123,0.294687053750233
-0.0994561817327899,0.293573019241532
-0.0930221381598111,0.292446586163422
-0.0865853841817505,0.291307721651986
-0.0801463476411733,0.290156392843305
-0.0737054563806434,0.288992566873464
-0.0672631382427257,0.287816210878544
-0.060819821069984,0.286627291994628
-0.0543759327049833,0.2854257773578
-0.0479319009902874,0.284211634104141
-0.0414881537684613,0.282984829369736
-0.0350451188820688,0.281745330290666
-0.028603224173675,0.280493104003014
-0.0221628974858437,0.279228117642864
-0.0157245666611397,0.277950338346297
-0.00928865954212699,0.276659733249397
-0.00285560397137055,0.275356269488247
0.00357417220856587,0.274039914198929
0.0100002411551172,0.272710634517526
0.0164221750257197,0.271368397580121
0.0228395459778083,0.270013170522796
0.0292519261688192,0.268644920481635
0.0356588877561876,0.26726361459272
0.0420600028973493,0.265869219992134
0.0484548437497396,0.26446170381596
0.0548429824707947,0.26304103320028
0.0612239912179494,0.261607175281178
0.06759744214864,0.260160097194736
0.0739629074203016,0.258699766077037
0.0803199591903702,0.257226149064163
0.0866681696162809,0.255739213292198
0.0930071108554699,0.254238925897225
0.0993363550653722,0.252725254015325
0.105655474403424,0.251198164782582
0.11196404102706,0.249657625335079
0.118261627093717,0.248103602808898
0.12454780476083,0.246536064340122
0.130822146185834,0.244954977064834
0.137084223526165,0.243360308119117
0.143333608939259,0.241752024639054
0.149569874582552,0.240130093760727
0.155792592613478,0.238494482620219
0.162001335189474,0.236845158353613
0.168195674467976,0.235182088096991
0.174375182606417,0.233505238986437
0.180539431762235,0.231814578158033
0.186687994092865,0.230110072747863
0.192820441755743,0.228391689892008
0.198936346908304,0.226659396726552
0.205035281707983,0.224913160387577
0.211116818312217,0.223152948011166
0.21718052887844,0.221378726733402
0.223225985564089,0.219590463690368
0.229252760526599,0.217788126018146
0.235260425923406,0.21597168085282
0.241248553911945,0.214141095330472
0.247216716649652,0.212296336587185
0.253164486293963,0.210437371759041
0.259091435002312,0.208564167982124
0.264997134932136,0.206676692392516
0.270881158240871,0.2047749121263
0.276743077085951,0.202858794319559
0.282582463624812,0.200928306108375
0.288398890014891,0.198983414628832
0.294191928413623,0.197024087017012
0.299961150978442,0.195050290408998
0.305706129866785,0.193061991940872
0.311426437236088,0.191059158748718
0.317121645243786,0.189041757968619
0.322791326047315,0.187009756736656
0.328435051804109,0.184963122188913
0.334052394671606,0.182901821461473
0.339642926807239,0.180825821690419
0.345206220368446,0.178735090011832
0.350741847512662,0.176629593561797
0.356249380397321,0.174509299476395
0.36172839117986,0.17237417489171
0.367178452017715,0.170224186943824
0.372599135068321,0.16805930276882
0.377990012489113,0.165879489502782
0.383350656437528,0.163684714281791
0.388680639071,0.16147494424193
0.393979532546965,0.159250146519283
0.39924690902286,0.157010288249932
0.404482340656119,0.154755336569959
0.409685399604178,0.152485258615448
0.414855658024473,0.150200021522482
0.419992688074439,0.147899592427143
0.425096061911512,0.145583938465514
0.430165351693128,0.143253026773677
0.435200129576722,0.140906824487716
0.440199967719729,0.138545298743713
0.445164438279586,0.136168416677752
0.450093113413728,0.133776145425914
0.45498556527959,0.131368452124283
0.459841366034608,0.128945303908942
0.464660087836218,0.126506667915973
0.469441302841855,0.124052511281459
0.474184583208955,0.121582801141482
0.478889501094954,0.119097504632126
0.483555628657287,0.116596588889474
0.488182538053389,0.114080021049608
0.492769801440696,0.111547768248611
0.497316990976645,0.108999797622565
0.50182367881867,0.106436076307554
0.506289437124207,0.10385657143966
0.510713838050691,0.101261250154967
0.515096453755559,0.0986500795895562
0.519436856396246,0.0960230268795112
0.523734618130187,0.0933800591609145
0.527989311114818,0.0907211435698492
0.532200507507574,0.0880462472423978
0.536367779465892,0.0853553373146433
0.540490699147207,0.0826483809226682
0.544568838708954,0.0799253452025556
0.548601770308569,0.0771861972903882
0.552589066103488,0.0744309043222487
0.556530298251146,0.0716594334342198
0.560425038908978,0.0688717517623846
0.564272860234422,0.0660678264428255
0.56807333438491,0.0632476246116256
0.571826033517881,0.0604111134048674
0.575530529790769,0.0575582599586341
0.57918639536101,0.054689031409008
0.582793202386038,0.0518033948920723
0.586350523023291,0.0489013175439094
0.589857929430204,0.0459827665006024
0.593314993764211,0.0430477088982339
0.596721288182749,0.0400961118728869
0.600076384843254,0.0371279425606438
0.603379855903161,0.0341431680975878
0.606631273519905,0.0311417556198014
0.609830209850922,0.0281236722633676
0.612976237053648,0.0250888851643689
0.616068927285518,0.0220373614588884
0.619107852703968,0.0189690682830086
0.622092585466434,0.0158839727728126
0.62502269773035,0.0127820420643828
0.627897761653154,0.00966324329380244
0.630717349392279,0.00652754359715384
0.633481033105163,0.00337491011052017
0.63618838494924,0.000205309969983886
0.638838977081946,-0.0029812896883719
0.641432381660717,-0.00618492172846472
0.643968170842988,-0.00940561901421152
0.646445916786195,-0.0126434144095298
0.648865191647773,-0.0158983407783364
0.651225567585159,-0.0191704309845489
0.653526616755787,-0.0224597178920843
0.655767911317093,-0.02576623436486
0.657949023426513,-0.0290900132667929
0.660069525241483,-0.0324310874618006
0.662128988919438,-0.0357894898137999
0.664126986617813,-0.0391652531867085
0.666063090494044,-0.0425584104444431
0.667936872705567,-0.0459689944509214
0.669747905409818,-0.0493970380700602
0.671495760764232,-0.0528425741657771
0.673180010926244,-0.0563056356019889
0.674800228053291,-0.0597862552426132
0.676355984302807,-0.063284465951567
0.677846851832229,-0.0668003005927676
0.679272402798991,-0.0703337920301321
0.680632209360531,-0.0738849731275779
0.681925843674282,-0.077453876749022
0.683152877897681,-0.0810405357583818
0.684312884188164,-0.0846449830195744
0.685405434703165,-0.0882672513965172
0.686430101600121,-0.0919073737531271
0.687386457036467,-0.0955653829533216
0.688274073169639,-0.0992413118610177
0.689092522157073,-0.102935193340133
0.689841376156203,-0.106647060254584
0.690520207324466,-0.110376945468289
0.691128587819297,-0.114124881845164
0.691666089798131,-0.117890902249127
0.692132285418405,-0.121675039544095
0.692526746837554,-0.125477326593985
0.692849046213013,-0.129297796262714
0.693098755702219,-0.133136481414201
0.693098755702219,-0.133136481414201
0.693307970113377,-0.136950373594261
0.693509015396731,-0.140696672854945
0.69370181042277,-0.144375724819522
0.693886274061982,-0.147987875111259
0.694062325184858,-0.151533469353423
0.694229882661884,-0.155012853169283
0.694388865363552,-0.158426372182106
0.69453919216035,-0.161774372015159
0.694680781922766,-0.16505719829171
0.694813553521291,-0.168275196635027
0.694937425826413,-0.171428712668378
0.695052317708621,-0.17451809201503
0.695158148038404,-0.177543680298252
0.695254835686251,-0.180505823141309
0.695342299522652,-0.183404866167471
0.695420458418095,-0.186241155000005
0.69548923124307,-0.189015035262178
0.695548536868065,-0.191726852577259
0.695598294163569,-0.194376952568515
0.695638422000073,-0.196965680859213
0.695668839248064,-0.199493383072621
0.695689464778031,-0.201960404832008
0.695700217460465,-0.204367091760639
0.695701016165853,-0.206713789481785
0.695691779764685,-0.209000843618711
0.69567242712745,-0.211228599794685
0.695642877124638,-0.213397403632976
0.695603048626736,-0.215507600756851
0.695552860504235,-0.217559536789577
0.695492231627622,-0.219553557354423
0.695421080867388,-0.221490008074656
0.695339327094021,-0.223369234573543
0.695246889178011,-0.225191582474352
0.695143685989846,-0.226957397400351
0.695029636400015,-0.228667024974808
0.694904659279009,-0.23032081082099
0.694768673497315,-0.231919100562165
0.694621597925422,-0.233462239821601
0.69446335143382,-0.234950574222565
0.694293852892998,-0.236384449388325
0.694113021173445,-0.237764210942148
0.69392077514565,-0.239090204507302
0.693717033680101,-0.240362775707056
0.693501715647289,-0.241582270164676
0.693274739917702,-0.24274903350343
0.693036025361828,-0.243863411346587
0.692785490850159,-0.244925749317412
0.692523055253181,-0.245936393039175
0.692248637441385,-0.246895688135143
0.691962156285259,-0.247803980228584
0.691663530655292,-0.248661614942764
0.691352679421974,-0.249468937900953
0.691029521455794,-0.250226294726417
0.69069397562724,-0.250934031042425
0.690345960806801,-0.251592492472243
0.689985395864968,-0.25220202463914
0.689612199672228,-0.252762973166383
0.689226291099072,-0.25327568367724
0.688827589015987,-0.253740501794979
0.688416012293463,-0.254157773142867
0.687991479801989,-0.254527843344172
0.687553910412054,-0.254851058022161
0.687103222994147,-0.255127762800102
0.686639336418758,-0.255358303301264
0.686162169556374,-0.255543025148913
0.685671641277486,-0.255682273966317
0.685167670452583,-0.255776395376744
0.684650175952153,-0.255825735003462
0.684119076646685,-0.255830638469738
0.683574291406669,-0.25579145139884
0.683015739102593,-0.255708519414035
0.682443338604947,-0.255582188138592
0.68185700878422,-0.255412803195778
0.681256668510901,-0.25520071020886
0.680642236655478,-0.254946254801106
0.680013632088441,-0.254649782595785
0.67937077368028,-0.254311639216162
0.678713580301482,-0.253932170285507
0.678041970822537,-0.253511721427087
0.677355864113935,-0.25305063826417
0.676655179046164,-0.252549266420023
0.675939834489713,-0.252007951517913
0.675209749315071,-0.251427039181109
0.674464842392728,-0.250806875032879
0.673705032593172,-0.250147804696489
0.672930238786892,-0.249450173795208
0.672140379844378,-0.248714327952303
0.671335374636119,-0.247940612791042
0.670515142032604,-0.247129373934693
0.669679600904321,-0.246280957006523
0.668828670121759,-0.245395707629799
0.667962268555409,-0.244473971427791
0.667080315075759,-0.243516094023764
0.666182728553297,-0.242522421040987
0.665269427858514,-0.241493298102728
0.664340331861897,-0.240429070832255
0.663395359433937,-0.239330084852834
0.662434429445122,-0.238196685787733
0.661457460765941,-0.237029219260221
0.660464372266883,-0.235828030893565
0.659455082818438,-0.234593466311032
0.658429511291094,-0.23332587113589
0.657387576555341,-0.232025590991408
0.656329197481667,-0.230692971500852
0.655254292940562,-0.22932835828749
0.654162781802515,-0.22793209697459
0.653054582938014,-0.226504533185419
0.651929615217549,-0.225046012543246
0.650787797511609,-0.223556880671338
0.649629048690682,-0.222037483192962
0.648453287625259,-0.220488165731387
0.647260433185828,-0.218909273909879
0.646050404242877,-0.217301153351707
0.644823119666897,-0.215664149680138
0.643578498328376,-0.21399860851844
0.642316459097803,-0.212304875489881
0.641036920845668,-0.210583296217727
0.639739802442459,-0.208834216325248
0.638425022758665,-0.20705798143571
0.637092500664776,-0.205254937172382
0.63574215503128,-0.20342542915853
0.634373904728667,-0.201569803017423
0.632987668627425,-0.199688404372328
0.631583365598045,-0.197781578846513
0.630160914511014,-0.195849672063245
0.628720234236821,-0.193893029645793
0.627261243645957,-0.191911997217424
0.62578386160891,-0.189906920401405
0.624288006996169,-0.187878144821004
0.622773598678222,-0.185826016099489
0.62124055552556,-0.183750879860128
0.619688796408671,-0.181653081726188
0.618118240198044,-0.179532967320937
0.616528805764169,-0.177390882267642
0.614920411977534,-0.175227172189572
0.613292977708628,-0.173042182709994
0.611646421827941,-0.170836259452175
0.609980663205961,-0.168609748039383
0.608295620713178,-0.166362994094886
0.60659121322008,-0.164096343241952
0.604867359597158,-0.161810141103848
0.603123978714898,-0.159504733303841
0.601360989443792,-0.157180465465201
0.599578310654328,-0.154837683211193
0.597775861216995,-0.152476732165087
0.595953560002281,-0.150097957950148
0.594111325880676,-0.147701706189647
0.59224907772267,-0.145288322506849
0.590366734398751,-0.142858152525022
0.588464214779408,-0.140411541867435
0.586541437735131,-0.137948836157354
0.584598322136407,-0.135470381018049
0.582634786853728,-0.132976522072785
0.58065075075758,-0.130467604944831
0.578646132718454,-0.127943975257455
0.576620851606839,-0.125405978633924
0.574574826293224,-0.122853960697506
0.572507975648097,-0.120288267071468
0.570420218541947,-0.117709243379079
0.568311473845265,-0.115117235243605
0.566181660428539,-0.112512588288315
0.564030697162257,-0.109895648136476
0.561858502916909,-0.107266760411356
0.559664996562985,-0.104626270736223
0.557450096970973,-0.101974524734344
0.555213723011361,-0.0993118680289865
0.55295579355464,-0.0966386462434186
0.550676227471298,-0.0939552050009081
0.548374943631825,-0.0912618899247224
0.546051860906709,-0.0885590466381291
0.543706898166439,-0.0858470207643961
0.541339974281505,-0.083126157926791
0.538951008122396,-0.0803968037485814
0.5365399185596,-0.0776593038530349
0.534106624463607,-0.0749140038634193
0.531651044704906,-0.0721612494030024
0.529173098153985,-0.0694013860950516
0.526672703681334,-0.0666347595628346
0.524149780157442,-0.0638617154296191
0.521604246452799,-0.0610825993186729
0.519036021437892,-0.0582977568532636
0.516445023983211,-0.0555075336566587
0.513831172959246,-0.052712275352126
0.511194387236484,-0.0499123275629332
0.508534585685416,-0.047108035912348
0.505851687176531,-0.0442997460236379
0.503145610580316,-0.0414878035200706
0.500416274767262,-0.038672554024914
0.497663598607858,-0.0358543431614356
0.494887500972592,-0.0330335165529029
0.492087900731954,-0.0302104198225837
0.489264716756433,-0.0273853985937459
0.486417867916517,-0.0245587984896569
0.483547273082696,-0.0217309651335843
0.480652851125459,-0.0189022441487959
0.477734520915295,-0.0160729811585595
0.474792201322693,-0.0132435217861426
0.471825811218142,-0.0104142116548128
0.468835269472131,-0.00758539638783781
0.465820494955149,-0.00475742160848545
0.462781406537685,-0.00193063294002319
0.459717923090229,0.000894623994281113
0.456629963483269,0.00371800357115999
0.453517446587294,0.00653916016734556
0.450380291272794,0.00935774815957043
0.447218416410257,0.0121734219245666
0.444031740870173,0.0149858358390668
0.44082018352303,0.0177946442798029
0.437583663239318,0.0205995016235077
0.434322098889526,0.0234000622469131
0.431035409344143,0.0261959805267519
0.427723513473658,0.028986910839756
0.424386330148559,0.031772507562658
0.421023778239337,0.03455242507219
0.417635776616479,0.0373263177450847
0.414222244150476,0.0400938399580741
0.410783099711815,0.0428546460878906
0.407318262170987,0.0456083905112667
0.40382765039848,0.0483547276049346
0.400311183264784,0.0510933117456265
0.396768779640387,0.0538237973100751
0.393200358395778,0.0565458386750124
0.389605838401447,0.0592590902171709
0.385985138527882,0.0619632063132828
0.382338177645573,0.0646578413400806
0.378664874625009,0.0673426496742965
0.374965148336678,0.070017285692663
0.371238917651071,0.0726814037719122
0.367486101438675,0.0753346582887766
0.36370661856998,0.0779767036199884
0.359900387915474,0.0806071941422802
0.356067328345648,0.083225784232384
0.352207358730991,0.0858321282670324
0.34832039794199,0.0884258806229575
0.344406364849135,0.0910066956768919
0.340465178322916,0.0935742278055676
0.336496757233821,0.0961281313857173
0.332501020452339,0.098668060794073
0.32847788684896,0.101193670407367
0.324427275294172,0.103704614602332
0.320349104658465,0.106200547755701
0.316243293812327,0.108681124244204
0.312109761626248,0.111145998444576
0.307948426970717,0.113594824733548
0.303759208716223,0.116027257487852
0.299542025733254,0.118442951084221
0.295296796892301,0.120841559899387
0.291023441063851,0.123222738310083
0.286721877118394,0.125586140693041
0.28239202392642,0.127931421424992
0.278033800358416,0.130258234882671
0.273647125284873,0.132566235442807
0.269231917576279,0.134855077482136
0.264788096103124,0.137124415377387
0.260315579735895,0.139373903505295
0.255814287345084,0.141603196242591
0.251284137801177,0.143811947966007
0.246725049974665,0.145999813052276
0.242136942736037,0.14816644587813
0.237519734955782,0.150311500820302
0.232873345504388,0.152434632255523
0.228197693252345,0.154535494560527
0.223492697070141,0.156613742112045
0.218758275828267,0.15866902928681
0.213994348397211,0.160701010461554
0.209200833647462,0.16270934001301
0.204377650449508,0.164693672317909
0.19952471767384,0.166653661752985
0.194641954190946,0.168588962694969
0.189729278871316,0.170499229520594
0.184786610585437,0.172384116606592
0.1798138682038,0.174243278329696
0.174810970596894,0.176076369066637
0.169777836635207,0.177883043194149
0.164714385189228,0.179662955088963
0.159620535129447,0.181415759127812
0.154496205326353,0.183141109687428
0.149341314650434,0.184838661144544
0.14415578197218,0.186508067875892
0.13893952616208,0.188148984258203
0.133692466090623,0.189761064668212
0.128414520628298,0.191343963482649
0.123105608645594,0.192897335078247
0.117765649013,0.194420833831738
0.112394560601005,0.195914114119856
0.106992262280099,0.197376830319332
0.101558672920769,0.198808636806898
0.0960937113935059,0.200209187959287
0.0905972965687981,0.201578138153231
0.0850693473171348,0.202915141765463
0.0795097825090048,0.204219853172715
0.0739185210148976,0.205491926751718
0.0682954817053017,0.206731016879207
0.0626405834507067,0.207936777931912
0.0569537451216011,0.209108864286566
0.0512348855884747,0.210246930319902
0.0454839237218158,0.211350630408652
0.039700778392114,0.212419618929547
0.0338853684698579,0.213453550259322
0.028037612825537,0.214452078774707
0.0221574303296401,0.215414858852435
0.0162447398526563,0.216341544869239
0.0102994602650747,0.217231791201851
0.00432151043738449,0.218085252227003
-0.00168919075992577,0.218901582321427
-0.00773272445636636,0.219680435861857
-0.0138091717814487,0.220421467225023
-0.0199186138646833,0.221124330787659
-0.0260611318355817,0.221788680926497
-0.0322368068236542,0.222414172018269
-0.0384457199584124,0.223000458439707
-0.0446879523693666,0.223547194567545
-0.0509635851860283,0.224054034778513
-0.0572726995379079,0.224520633449345
-0.0636153765545168,0.224946644956773
-0.0699916973653656,0.225331723677529
-0.0764017430999656,0.225675523988346
-0.0828455948878274,0.225977700265955
-0.0893233338584622,0.22623790688709
-0.0958350411413806,0.226455798228482
-0.102380797866094,0.226631028666864
-0.108960685162113,0.226763252578968
-0.115574784158949,0.226852124341527
-0.122223175986112,0.226897298331272
-0.128905941773114,0.226898428924937
-0.135623162649465,0.226855170499253
-0.142374919744677,0.226767177430954
-0.14916129418826,0.22663410409677
-0.155982367109725,0.226455604873435
-0.162838219638583,0.22623133413768
-0.169728932904346,0.225960946266239
-0.176654588036524,0.225644095635844
-0.183615266164628,0.225280436623226
-0.190611048418169,0.224869623605118
-0.197642015926658,0.224411310958253
-0.204708249819606,0.223905153059363
-0.211809831226523,0.22335080428518
-0.218946841276922,0.222747919012437
-0.226119361100312,0.222096151617865
-0.233327471826204,0.221395156478198
-0.240571254584111,0.220644587970167
-0.247850790503541,0.219844100470505
-0.255166160714008,0.218993348355944
-0.262517446345021,0.218091986003217
-0.269904728526091,0.217139667789055
-0.277328088386729,0.216136048090192
-0.284787607056447,0.215080781283359
-0.292283365664755,0.213973521745289
-0.299815445341164,0.212813923852715
-0.307383927215185,0.211601641982367
-0.314988892416329,0.21033633051098
-0.322630422074107,0.209017643815285
-0.33030859731803,0.207645236272014
-0.338023499277608,0.206218762257901
-0.345775209082354,0.204737876149676
-0.353563807861777,0.203202232324073
-0.361389376745389,0.201611485157824
-0.3692519968627,0.199965289027661
-0.377151749343223,0.198263298310317
-0.385088715316466,0.196505167382523
-0.393062975911942,0.194690550621013
-0.401074612259161,0.192819102402518
-0.409123705487635,0.190890477103771
-0.417210336726873,0.188904329101505
-0.425334587106389,0.18686031277245
-0.433496537755691,0.184758082493341
-0.441696269804291,0.182597292640909
-0.4499338643817,0.180377597591886
-0.45820940261743,0.178098651723006
-0.466522965640989,0.175760109410999
-0.474874634581892,0.173361625032599
-0.483264490569646,0.170902852964538
-0.491692614733765,0.168383447583548
-0.500159088203758,0.165803063266362
-0.508663992109137,0.163161354389711
-0.517207407579412,0.160457975330329
-0.525789415744095,0.157692580464947
-0.534410097732696,0.154864824170298
-0.543069534674726,0.151974360823115
-0.551767807699697,0.149020844800129
-0.560504997937119,0.146003930478072
-0.569281186516504,0.142923272233678
-0.578096454567361,0.139778524443679
-0.586950883219202,0.136569341484806
-0.595844553601539,0.133295377733792
-0.604777546843882,0.129956287567371
-0.613749944075741,0.126551725362272
-0.622761826426628,0.123081345495231
-0.631813275026054,0.119544802342977
-0.64090437100353,0.115941750282245
-0.650035195488567,0.112271843689766
-0.659205829610675,0.108534736942272
-0.668416354499365,0.104730084416496
-0.677666851284149,0.100857540489171
-0.686957401094538,0.0969167595370276
-0.696288085060042,0.0929073959367996
-0.705658984310172,0.0888291040652185
-0.715070179974439,0.0846815382990172
-0.724521753182355,0.0804643530149276
