0.326351527871567,0.680186948284529
0.323031544462457,0.672911394854519
0.319719359995277,0.665655254182374
0.316414959392465,0.658418520641161
0.31311832757646,0.651201188603945
0.309829449469698,0.644003252443792
0.306548309994618,0.636824706533767
0.303274894073658,0.629665545246936
0.300009186629255,0.622525762956365
0.296751172583847,0.615405354035121
0.293500836859872,0.608304312856267
0.290258164379768,0.601222633792871
0.287023140065973,0.594160311217998
0.283795748840924,0.587117339504714
0.280575975627059,0.580093713026084
0.277363805346816,0.573089426155175
0.274159222922634,0.566104473265051
0.270962213276949,0.55913884872878
0.267772761332199,0.552192546919425
0.264590852010823,0.545265562210055
0.261416470235257,0.538357888973733
0.258249600927941,0.531469521583526
0.255090229011312,0.5246004544125
0.251938339407807,0.51775068183372
0.248793917039864,0.510920198220252
0.245656946829922,0.504108997945162
0.242527413700417,0.497317075381515
0.239405302573788,0.490544424902378
0.236290598372473,0.483791040880816
0.23318328601891,0.477056917689895
0.230083350435536,0.47034204970268
0.226990776544788,0.463646431292238
0.223905549269106,0.456970056831634
0.220827653530926,0.450312920693934
0.217757074252687,0.443675017252203
0.214693796356826,0.437056340879508
0.211637804765781,0.430456885948914
0.20858908440199,0.423876646833487
0.205547620187891,0.417315617906292
0.202513397045921,0.410773793540396
0.199486399898519,0.404251168108864
0.196466613668122,0.397747735984762
0.193454023277168,0.391263491541156
0.190448613648095,0.384798429151111
0.18745036970334,0.378352543187693
0.184459276365342,0.371925828023968
0.181475318556538,0.365518278033001
0.178498481199366,0.35912988758786
0.175528749216265,0.352760651061608
0.17256610752967,0.346410562827312
0.169610541062021,0.340079617258038
0.166662034735756,0.333767808726852
0.163720573473312,0.327475131606818
0.160786142197126,0.321201580271004
0.157858725829637,0.314947149092474
0.154938309293283,0.308711832444295
0.152024877510502,0.302495624699532
0.14911841540373,0.296298520231251
0.146218907895407,0.290120513412518
0.143326339907969,0.283961598616398
0.140440696363855,0.277821770215958
0.137561962185502,0.271701022584262
0.134690122295349,0.265599350094377
0.131825161615832,0.259516747119369
0.128967065069391,0.253453208032303
0.126115817578462,0.247408727206245
0.123271404065484,0.241383299014261
0.120433809452894,0.235376917829416
0.11760301866313,0.229389578024777
0.11477901661863,0.223421273973408
0.111961788241832,0.217472000048377
0.109151318455173,0.211541750622748
0.106347592181092,0.205630520069587
0.103550594342026,0.19973830276196
0.100760309860413,0.193865093072933
0.0979767236586906,0.188010885375572
0.0951998206592971,0.182175674042942
0.09242958578467,0.176359453448109
0.0896660039572471,0.170562217964139
0.0869090600994662,0.164783961964097
0.0841587391337653,0.15902467982105
0.0814150259825821,0.153284365908063
0.0786779055683543,0.147563014598201
0.0759473628135199,0.141860620264532
0.0732233826405166,0.136177177280119
0.0705059499717823,0.13051268001803
0.0677950497297547,0.12486712285133
0.0650906668368717,0.119240500153084
0.0623927862155711,0.113632806296358
0.0597013927882906,0.108044035654219
0.0570164714774682,0.102474182599732
0.0543380072055415,0.0969232415059617
0.0516659848949486,0.0913912067459754
0.0490003894681271,0.0858780726928381
0.0463412058475148,0.0803838337196157
0.0436884189555495,0.074908484199374
0.0410420137146692,0.0694520185051786
0.0384019750473116,0.0640144310100955
0.0357682878759145,0.0585957160871902
0.0331409371229157,0.0531958681095285
0.030519907710753,0.0478148814501765
0.0279051845618643,0.0424527504821994
0.0252967525986874,0.0371094695786634
0.02269459674366,0.0317850331126339
0.02009870191922,0.026479435457177
0.0175090530478052,0.0211926709853583
0.0149256350518534,0.0159247340702434
0.0123484328538024,0.0106756190848983
0.00977743137609012,0.00544532040238871
0.00721261554115425,0.000233832395780315
0.00465397027143262,-0.00495885056186116
0.00210148048936307,-0.01013273409747
-0.000444868882616564,-0.0152878238379802
-0.00298509292206853,-0.0204241254103262
-0.00551920670655497,-0.0255416444414423
-0.00804722531363808,-0.0306403865582626
-0.0105691638208801,-0.0357203573877214
-0.0130850373058431,-0.040781562556753
-0.0155948608460893,-0.0458240076922916
-0.018098649519181,-0.0508476984212714
-0.0205964184026803,-0.0558526403706267
-0.0230881825741494,-0.0608388391672917
-0.0255739571111505,-0.0658063004382007
-0.0280537570912458,-0.070755029810288
-0.0305275975919974,-0.0756850329104877
-0.0329954936909676,-0.0805963153657341
-0.0354574604657185,-0.0854888828029615
-0.0379135129938123,-0.0903627408491041
-0.0403636663528112,-0.0952178951310961
-0.0428079356202774,-0.100054351275872
-0.0452463358737731,-0.104872114910366
-0.0476788821908606,-0.109671191661512
-0.0501055896491018,-0.114451587156244
-0.0525264733260591,-0.119213307021497
-0.0549415482992946,-0.123956356884205
-0.0573508296463705,-0.128680742371302
-0.0597543324448491,-0.133386469109722
-0.0621520717722924,-0.138073542726401
-0.0645440627062627,-0.142741968848271
-0.0669303203243223,-0.147391753102267
-0.0693108597040331,-0.152022901115323
-0.0716856959229575,-0.156635418514375
-0.0740548440586576,-0.161229310926355
-0.0764183191886957,-0.165804583978198
-0.0787761363906338,-0.170361243296839
-0.0811283107420342,-0.174899294509211
-0.0834748573204592,-0.179418743242249
-0.0858157912034708,-0.183919595122888
-0.0881511274686312,-0.18840185577806
-0.0904808811935027,-0.192865530834702
-0.0928050674556474,-0.197310625919746
-0.0951237013326275,-0.201737146660127
-0.0974367979020053,-0.20614509868278
-0.0997443722413428,-0.210534487614638
-0.102046439428202,-0.214905319082636
-0.104343014540146,-0.219257598713708
-0.106634112654736,-0.223591332134788
-0.108919748849535,-0.227906524972811
-0.111199938202104,-0.232203182854711
-0.113474695790006,-0.236481311407422
-0.115744036690803,-0.240740916257878
-0.118007975982058,-0.244982003033014
-0.120266528741332,-0.249204577359763
-0.122519710046188,-0.253408644865061
-0.124767534974187,-0.257594211175841
-0.127010018602893,-0.261761281919037
-0.129247176009867,-0.265909862721584
-0.131479022272671,-0.270039959210417
-0.133705572468868,-0.274151577012468
-0.13592684167602,-0.278244721754673
-0.138142844971688,-0.282319399063966
-0.140353597433436,-0.286375614567281
-0.142559114138825,-0.290413373891552
-0.144759410165418,-0.294432682663713
-0.146954500590776,-0.298433546510699
-0.149144400492463,-0.302415971059445
-0.151329124948039,-0.306379961936883
-0.153508689035068,-0.310325524769949
-0.155683107831111,-0.314252665185577
-0.157852396413731,-0.318161388810701
-0.160016569860489,-0.322051701272255
-0.162175643248949,-0.325923608197173
-0.164329631656672,-0.32977711521239
-0.166478550161221,-0.33361222794484
-0.168622413840156,-0.337428952021457
-0.170761237771042,-0.341227293069176
-0.17289503703144,-0.34500725671493
-0.175023826698912,-0.348768848585655
-0.17714762185102,-0.352512074308283
-0.179266437565327,-0.35623693950975
-0.181380288919394,-0.35994344981699
-0.183489190990785,-0.363631610856936
-0.18559315885706,-0.367301428256524
-0.187692207595783,-0.370952907642687
-0.189786352284515,-0.37458605464236
-0.191875608000819,-0.378200874882476
-0.193959989822257,-0.381797373989971
-0.19603951282639,-0.385375557591778
-0.198114192090782,-0.388935431314832
-0.200184042692995,-0.392477000786067
-0.20224907971059,-0.396000271632417
-0.204309318221129,-0.399505249480816
-0.206364773302176,-0.402991939958199
-0.208415460031292,-0.4064603486915
-0.210461393486039,-0.409910481307653
-0.21250258874398,-0.413342343433592
-0.214539060882676,-0.416755940696252
-0.216570824979691,-0.420151278722566
-0.218597896112585,-0.42352836313947
-0.220620289358922,-0.426887199573897
-0.222638019796263,-0.430227793652782
-0.224651102502171,-0.433550151003058
-0.226659552554208,-0.436854277251661
-0.228663385029935,-0.440140178025524
-0.230662615006916,-0.443407858951581
-0.232657257562713,-0.446657325656767
-0.234647327774887,-0.449888583768017
-0.236632840721,-0.453101638912263
-0.238613811478616,-0.456296496716441
-0.240590255125296,-0.459473162807485
-0.242562186738602,-0.462631642812329
-0.244529621396097,-0.465771942357908
-0.246492574175342,-0.468894067071154
-0.2484510601539,-0.471998022579004
-0.250405094409334,-0.475083814508391
-0.252354692019204,-0.478151448486249
-0.254299868061075,-0.481200930139512
-0.256240637612506,-0.484232265095115
-0.258177015751062,-0.487245458979992
-0.260109017554304,-0.490240517421078
-0.262036658099793,-0.493217446045305
-0.263959952465094,-0.49617625047961
-0.265878915727767,-0.499116936350926
-0.267793562965374,-0.502039509286187
-0.269703909255479,-0.504943974912327
-0.271609969675642,-0.507830338856281
-0.273511759303428,-0.510698606744983
-0.275409293216396,-0.513548784205367
-0.27730258649211,-0.516380876864368
-0.279191654208133,-0.519194890348919
-0.281076511442025,-0.521990830285956
-0.282957173271349,-0.524768702302411
-0.284833654773668,-0.52752851202522
-0.286705971026544,-0.530270265081317
-0.288574137107538,-0.532993967097636
-0.290438168094214,-0.53569962370111
-0.292298079064133,-0.538387240518675
-0.294153885094857,-0.541056823177265
-0.296005601263949,-0.543708377303814
-0.29785324264897,-0.546341908525256
-0.299696824327483,-0.548957422468526
-0.301536361377051,-0.551554924760557
-0.303371868875235,-0.554134421028283
-0.305203361899597,-0.55669591689864
-0.3070308555277,-0.559239417998562
-0.308854364837106,-0.561764929954982
-0.310673904905377,-0.564272458394835
-0.312489490810076,-0.566762008945055
-0.314301137628764,-0.569233587232576
-0.316108860439003,-0.571687198884333
-0.317912674318356,-0.57412284952726
-0.319712594344386,-0.576540544788291
-0.321508635594653,-0.578940290294361
-0.323300813146721,-0.581322091672403
-0.325089142078152,-0.583685954549351
-0.326873637466507,-0.586031884552141
-0.328654314389349,-0.588359887307706
-0.33043118792424,-0.590669968442981
-0.332204273148743,-0.5929621335849
-0.333973585140419,-0.595236388360397
-0.335739138976831,-0.597492738396406
-0.337500949735541,-0.599731189319861
-0.339259032494111,-0.601951746757698
-0.341013402330103,-0.604154416336849
-0.342764074321079,-0.60633920368425
-0.344511063544603,-0.608506114426834
-0.346254385078235,-0.610655154191536
-0.347994053999538,-0.61278632860529
-0.349730085386074,-0.614899643295031
-0.351462494315406,-0.616995103887691
-0.353191295865095,-0.619072716010207
-0.354916505112704,-0.621132485289512
-0.356638137135795,-0.62317441735254
-0.35835620701193,-0.625198517826225
-0.360070729818671,-0.627204792337502
-0.361781720633581,-0.629193246513306
-0.363489194534222,-0.631163885980569
-0.365193166598155,-0.633116716366227
-0.366893651902944,-0.635051743297213
-0.368590665526149,-0.636968972400463
-0.370284222545335,-0.63886840930291
-0.371974338038062,-0.640750059631489
-0.373661027081892,-0.642613929013132
-0.375344304754389,-0.644460023074777
-0.377024186133114,-0.646288347443355
-0.378700686295629,-0.648098907745801
-0.380373820319497,-0.649891709609051
-0.38204360328228,-0.651666758660037
-0.383710050261539,-0.653424060525695
-0.385373176334838,-0.655163620832958
-0.387032996579738,-0.65688544520876
-0.388689526073802,-0.658589539280037
-0.390342779894591,-0.660275908673721
-0.391992773119668,-0.661944559016749
-0.393639520826595,-0.663595495936052
-0.395283038092935,-0.665228725058567
-0.396923339996249,-0.666844252011227
-0.398560441614099,-0.668442082420966
-0.400194358024049,-0.670022221914719
-0.401825104303659,-0.67158467611942
-0.403452695530493,-0.673129450662003
-0.405077146782112,-0.674656551169402
-0.406698473136078,-0.676165983268552
-0.408316689669955,-0.677657752586387
-0.409931811461303,-0.679131864749841
-0.411543853587685,-0.680588325385848
-0.413152831126664,-0.682027140121343
-0.414758759155801,-0.68344831458326
-0.416361652752659,-0.684851854398533
-0.417961526994799,-0.686237765194096
-0.419558396959785,-0.687606052596884
-0.421152277725178,-0.68895672223383
-0.422743184368541,-0.69028977973187
-0.424331131967435,-0.691605230717937
-0.425916135599423,-0.692903080818966
-0.427498210342067,-0.69418333566189
-0.429077371272929,-0.695446000873644
-0.430653633469571,-0.696691082081163
-0.432227012009556,-0.69791858491138
-0.433797521970446,-0.699128514991231
-0.435365178429803,-0.700320877947648
-0.436929996465189,-0.701495679407566
-0.438491991154166,-0.70265292499792
-0.440051177574297,-0.703792620345644
-0.441607570803143,-0.704914771077672
-0.443161185918268,-0.706019382820938
-0.444712037997232,-0.707106461202377
-0.446260142117599,-0.708176011848922
-0.44780551335693,-0.709228040387509
-0.449348166792787,-0.71026255244507
-0.450888117502734,-0.711279553648541
-0.452425380564331,-0.712279049624856
-0.453959971055142,-0.713261046000949
-0.455491904052728,-0.714225548403754
-0.457021194634651,-0.715172562460206
-0.458547857878475,-0.716102093797238
-0.46007190886176,-0.717014148041786
-0.461593362662069,-0.717908730820782
-0.463112234356965,-0.718785847761162
-0.464628539024009,-0.71964550448986
-0.466142291740764,-0.72048770663381
-0.467653507584792,-0.721312459819945
-0.469162201633655,-0.722119769675202
-0.470668388964915,-0.722909641826513
-0.472172084656134,-0.723682081900813
-0.473673303784876,-0.724437095525036
-0.4751720614287,-0.725174688326116
-0.476668372665171,-0.725894865930989
-0.47816225257185,-0.726597633966587
-0.4796537162263,-0.727282998059845
-0.481142778706082,-0.727950963837698
-0.482629455088759,-0.728601536927079
-0.484113760451893,-0.729234722954923
-0.485595709873045,-0.729850527548165
-0.487075318429779,-0.730448956333738
-0.488552601199657,-0.731030014938576
-0.49002757326024,-0.731593708989614
-0.491500249689092,-0.732140044113787
-0.492970645563773,-0.732669025938028
-0.494438775961846,-0.733180660089271
-0.495904655960874,-0.733674952194452
-0.497368300638419,-0.734151907880503
-0.498829725072042,-0.73461153277436
-0.500288944339307,-0.735053832502956
-0.501745973517774,-0.735478812693227
-0.503200827685007,-0.735886478972105
-0.504653521918567,-0.736276836966526
-0.506104071296017,-0.736649892303423
-0.507552490894919,-0.737005650609731
-0.508998795792836,-0.737344117512384
-0.510443001067328,-0.737665298638317
-0.511885121795959,-0.737969199614463
-0.513325173056291,-0.738255826067757
-0.514763169925886,-0.738525183625132
-0.516199127482305,-0.738777277913525
-0.517633060803112,-0.739012114559868
-0.519064984965868,-0.739229699191095
-0.520494915048136,-0.739430037434142
-0.521922866127478,-0.739613134915942
-0.523348853281456,-0.739778997263429
-0.524772891587631,-0.739927630103538
-0.526194996123568,-0.740059039063204
-0.527615181966826,-0.740173229769359
-0.52903346419497,-0.740270207848939
-0.53044985788556,-0.740349978928878
-0.53186437811616,-0.74041254863611
-0.533277039964331,-0.740457922597569
-0.534687858507635,-0.740486106440189
-0.536096848823635,-0.740497105790905
-0.537504025989893,-0.740490926276652
-0.537504025989893,-0.740490926276652
-0.538877593054553,-0.740469120931679
-0.54018600634053,-0.7404332447997
-0.541429660837541,-0.740383306521841
-0.542608951535303,-0.740319314739228
-0.543724273423535,-0.740241278092985
-0.544776021491953,-0.74014920522424
-0.545764590730274,-0.740043104774118
-0.546690376128216,-0.739922985383746
-0.547553772675497,-0.739788855694249
-0.548355175361834,-0.739640724346753
-0.549094979176943,-0.739478599982384
-0.549773579110544,-0.739302491242268
-0.550391370152352,-0.73911240676753
-0.550948747292086,-0.738908355199298
-0.551446105519462,-0.738690345178696
-0.551883839824198,-0.738458385346851
-0.552262345196012,-0.738212484344888
-0.552582016624621,-0.737952650813934
-0.552843249099741,-0.737678893395114
-0.553046437611092,-0.737391220729555
-0.553191977148389,-0.737089641458382
-0.553280262701351,-0.736774164222722
-0.553311689259694,-0.736444797663699
-0.553286651813137,-0.736101550422441
-0.553205545351396,-0.735744431140072
-0.553068764864188,-0.73537344845772
-0.552876705341232,-0.734988611016509
-0.552629761772245,-0.734589927457566
-0.552328329146944,-0.734177406422017
-0.551972802455045,-0.733751056550987
-0.551563576686268,-0.733310886485603
-0.551101046830329,-0.732856904866991
-0.550585607876945,-0.732389120336276
-0.550017654815835,-0.731907541534584
-0.549397582636714,-0.731412177103042
-0.548725786329301,-0.730903035682775
-0.548002660883313,-0.730380125914909
-0.547228601288468,-0.72984345644057
-0.546404002534482,-0.729293035900884
-0.545529259611073,-0.728728872936977
-0.54460476750796,-0.728150976189975
-0.543630921214857,-0.727559354301004
-0.542608115721484,-0.726954015911189
-0.541536746017558,-0.726334969661658
-0.540417207092796,-0.725702224193534
-0.539249893936916,-0.725055788147945
-0.538035201539634,-0.724395670166017
-0.536773524890668,-0.723721878888875
-0.535465258979736,-0.723034422957645
-0.534110798796555,-0.722333311013454
-0.532710539330842,-0.721618551697426
-0.531264875572315,-0.720890153650689
-0.529774202510691,-0.720148125514368
-0.528238915135687,-0.719392475929588
-0.526659408437021,-0.718623213537477
-0.52503607740441,-0.717840346979159
-0.523369317027572,-0.717043884895761
-0.521659522296224,-0.716233835928408
-0.519907088200084,-0.715410208718227
-0.518112409728868,-0.714573011906344
-0.516275881872294,-0.713722254133885
-0.514397899620079,-0.712857944041974
-0.512478857961942,-0.711980090271739
-0.510519151887599,-0.711088701464305
-0.508519176386767,-0.710183786260798
-0.506479326449164,-0.709265353302344
-0.504399997064508,-0.708333411230069
-0.502281583222515,-0.707387968685099
-0.500124479912904,-0.70642903430856
-0.497929082125391,-0.705456616741578
-0.495695784849694,-0.704470724625278
-0.49342498307553,-0.703471366600787
-0.491117071792617,-0.702458551309231
-0.488772445990672,-0.701432287391735
-0.486391500659412,-0.700392583489426
-0.483974630788555,-0.699339448243429
-0.481522231367819,-0.69827289029487
-0.47903469738692,-0.697192918284875
-0.476512423835575,-0.696099540854571
-0.473955805703503,-0.694992766645083
-0.471365237980421,-0.693872604297536
-0.468741115656046,-0.692739062453058
-0.466083833720095,-0.691592149752773
-0.463393787162286,-0.690431874837808
-0.460671370972336,-0.689258246349289
-0.457916980139963,-0.688071272928342
-0.455131009654884,-0.686870963216092
-0.452313854506816,-0.685657325853665
-0.449465909685477,-0.684430369482188
-0.446587570180584,-0.683190102742787
-0.443679230981854,-0.681936534276586
-0.440741287079005,-0.680669672724713
-0.437774133461755,-0.679389526728293
-0.434778165119819,-0.678096104928452
-0.431753777042917,-0.676789415966316
-0.428701364220766,-0.675469468483011
-0.425621321643082,-0.674136271119663
-0.422514044299583,-0.672789832517397
-0.419379927179987,-0.67143016131734
-0.41621936527401,-0.670057266160618
-0.413032753571371,-0.668671155688357
-0.409820487061786,-0.667271838541682
-0.406582960734974,-0.665859323361719
-0.403320569580651,-0.664433618789595
-0.400033708588534,-0.662994733466435
-0.396722772748342,-0.661542676033365
-0.393388157049791,-0.660077455131511
-0.390030256482599,-0.658599079402
-0.386649466036484,-0.657107557485956
-0.383246180701162,-0.655602898024506
-0.379820795466351,-0.654085109658776
-0.376373705321769,-0.652554201029892
-0.372905305257132,-0.65101018077898
-0.369415990262159,-0.649453057547165
-0.365906155326566,-0.647882839975574
-0.362376195440071,-0.646299536705332
-0.358826505592391,-0.644703156377566
-0.355257480773244,-0.643093707633401
-0.351669515972347,-0.641471199113963
-0.348063006179418,-0.639835639460378
-0.344438346384173,-0.638187037313773
-0.340795931576331,-0.636525401315273
-0.337136156745608,-0.634850740106003
-0.333459416881722,-0.633163062327091
-0.32976610697439,-0.631462376619661
-0.32605662201333,-0.62974869162484
-0.322331356988259,-0.628022015983754
-0.318590706888895,-0.626282358337529
-0.314835066704955,-0.62452972732729
-0.311064831426156,-0.622764131594163
-0.307280396042215,-0.620985579779275
-0.303482155542851,-0.619194080523751
-0.299670504917779,-0.617389642468718
-0.295845839156719,-0.615572274255301
-0.292008553249386,-0.613741984524625
-0.2881590421855,-0.611898781917818
-0.284297700954776,-0.610042675076005
-0.280424924546932,-0.608173672640312
-0.276541107951686,-0.606291783251865
-0.272646646158755,-0.604397015551789
-0.268741934157856,-0.602489378181211
-0.264827366938707,-0.600568879781257
-0.260903339491026,-0.598635528993052
-0.256970246804529,-0.596689334457723
-0.253028483868933,-0.594730304816395
-0.249078445673957,-0.592758448710194
-0.245120527209318,-0.590773774780247
-0.241155123464733,-0.588776291667679
-0.237182629429919,-0.586766008013616
-0.233203440094594,-0.584742932459184
-0.229217950448475,-0.582707073645509
-0.22522655548128,-0.580658440213717
-0.221229650182726,-0.578597040804934
-0.21722762954253,-0.576522884060285
-0.213220888550409,-0.574435978620897
-0.209209822196082,-0.572336333127896
-0.205194825469265,-0.570223956222408
-0.201176293359676,-0.568098856545558
-0.197154620857033,-0.565961042738472
-0.193130202951052,-0.563810523442276
-0.18910343463145,-0.561647307298097
-0.185074710887947,-0.55947140294706
-0.181044426710257,-0.557282819030291
-0.177012977088101,-0.555081564188917
-0.172980757011193,-0.552867647064062
-0.168948161469252,-0.550641076296853
-0.164915585451996,-0.548401860528416
-0.160883423949141,-0.546150008399876
-0.156852071950406,-0.543885528552361
-0.152821924445506,-0.541608429626995
-0.148793376424161,-0.539318720264904
-0.144766822876086,-0.537016409107215
-0.140742658791,-0.534701504795054
-0.13672127915862,-0.532374015969545
-0.132703078968663,-0.530033951271816
-0.128688453210847,-0.527681319342992
-0.124677796874889,-0.5253161288242
-0.120671504950506,-0.522938388356564
-0.116669972427416,-0.520548106581211
-0.112673594295337,-0.518145292139267
-0.108682765543985,-0.515729953671858
-0.104697881163077,-0.51330209982011
-0.100719336142332,-0.510861739225148
-0.0967475254714671,-0.508408880528099
-0.0927828441401989,-0.505943532370089
-0.0888256871382451,-0.503465703392243
-0.0848764494553231,-0.500975402235687
-0.0809355260811503,-0.498472637541548
-0.0770033120054441,-0.495957417950951
-0.0730802022179219,-0.493429752105022
-0.0691665917083009,-0.490889648644887
-0.0652628754662988,-0.488337116211673
-0.0613694484816327,-0.485772163446504
-0.05748670574402,-0.483194798990507
-0.0536150422431782,-0.480605031484808
-0.0497548529688246,-0.478002869570533
-0.0459065329106767,-0.475388321888807
-0.0420704770584517,-0.472761397080757
-0.038247080401867,-0.470122103787509
-0.0344367379306402,-0.467470450650188
-0.0306398446344883,-0.46480644630992
-0.0268567955031292,-0.462130099407832
-0.0230879855262797,-0.459441418585049
-0.0193338096936576,-0.456740412482697
-0.01559466299498,-0.454027089741902
-0.0118709404199646,-0.45130145900379
-0.00816303695832843,-0.448563528909487
-0.00447134759978916,-0.44581330810012
-0.000796267334063905,-0.443050805216813
0.0028618088491297,-0.440276028900692
0.00650248596007452,-0.437488987792884
0.0101253690090529,-0.434689690534516
0.0137300630063478,-0.431878145766711
0.0173161729622414,-0.429054362130597
0.0208833038870169,-0.426218348267299
0.0244310607909563,-0.423370112817944
0.0279590486843428,-0.420509664423657
0.0314668725774585,-0.417637011725564
0.0349541374805865,-0.414752163364791
0.0384204484040089,-0.411855127982464
0.0418654103580089,-0.408945914219709
0.0452886283528686,-0.406024530717652
0.0486897073988711,-0.403090986117419
0.0520682525062985,-0.400145289060136
0.0554238686854339,-0.397187448186928
0.0587561609465595,-0.394217472138922
0.0620647342999584,-0.391235369557243
0.0653491937559127,-0.388241149083018
0.0686091443247055,-0.385234819357372
0.071844191016619,-0.382216389021432
0.0750539388419362,-0.379185866716322
0.0782379928109394,-0.37614326108317
0.0813959579339115,-0.373088580763101
0.0845274392211348,-0.370021834397241
0.0876320416828924,-0.366943030626716
0.0907093703294663,-0.363852178092652
0.0937590301711397,-0.360749285436175
0.0967806262181948,-0.35763436129841
0.0997737634809145,-0.354507414320484
0.102738046969581,-0.351368453143523
0.105673081694478,-0.348217486408652
0.108578472665887,-0.345054522756998
0.11145382489409,-0.341879570829686
0.114298743389372,-0.338692639267842
0.117112833162014,-0.335493736712593
0.119895699222298,-0.332282871805064
0.122646946580508,-0.329060053186381
0.125366180246926,-0.325825289497669
0.128053005231835,-0.322578589380056
0.130707026545517,-0.319319961474667
0.133327849198255,-0.316049414422627
0.135915078200331,-0.312766956865064
0.138468318562029,-0.309472597443101
0.140987175293631,-0.306166344797867
0.143471253405419,-0.302848207570486
0.145920157907676,-0.299518194402084
0.148333493810685,-0.296176313933788
0.150710866124728,-0.292822574806723
0.153051879860088,-0.289456985662016
0.155356140027047,-0.286079555140791
0.157623251635889,-0.282690291884176
0.159852819696895,-0.279289204533295
0.162044449220349,-0.275876301729276
0.164197745216533,-0.272451592113243
0.16631231269573,-0.269015084326323
0.168387756668221,-0.265566787009643
0.170423682144291,-0.262106708804326
0.172419694134221,-0.2586348583515
0.174375397648295,-0.255151244292291
0.176290397696794,-0.251655875267824
0.178164299290001,-0.248148759919226
0.1799967074382,-0.244629906887622
0.181787227151672,-0.241099324814138
0.1835354634407,-0.2375570223399
0.185241021315567,-0.234003008106034
0.186903505786556,-0.230437290753667
0.188522521863948,-0.226859878923923
0.190097674558028,-0.223270781257929
0.191628568879077,-0.219670006396811
0.193114809837377,-0.216057562981694
0.194556002443213,-0.212433459653706
0.195951751706865,-0.208797705053971
0.197301662638618,-0.205150307823615
0.198605340248753,-0.201491276603765
0.199862389547553,-0.197820620035546
0.2010724155453,-0.194138346760085
0.202235023252278,-0.190444465418506
0.203349817678769,-0.186738984651937
0.204416403835055,-0.183021913101503
0.20543438673142,-0.17929325940833
0.206403371378145,-0.175553032213544
0.207322962785514,-0.171801240158271
0.208192765963809,-0.168037891883636
0.209012385923313,-0.164262996030767
0.209781427674308,-0.160476561240787
0.210499496227076,-0.156678596154825
0.211166196591902,-0.152869109414005
0.211781133779066,-0.149048109659454
0.212343912798852,-0.145215605532296
0.212854138661543,-0.141371605673659
0.21331141637742,-0.137516118724669
0.213715350956767,-0.13364915332645
0.214065547409867,-0.12977071812013
0.214361610747001,-0.125880821746833
0.214603145978453,-0.121979472847687
0.214789758114505,-0.118066680063816
0.21492105216544,-0.114142452036347
0.21499663314154,-0.110206797406406
0.215016106053088,-0.106259724815119
0.214979075910367,-0.102301242903611
0.214885147723659,-0.0983313603130083
0.214733926503246,-0.0943500856844375
0.214525017259412,-0.0903574276590237
0.21425802500244,-0.0863533948778935
0.213932554742611,-0.0823379959821723
0.213548211490208,-0.0783112396129864
0.213104600255515,-0.0742731344114614
0.212601326048812,-0.0702236890187236
0.212037993880384,-0.0661629120758986
0.211414208760513,-0.0620908122241126
0.210729575699482,-0.0580073981044912
0.209983699707572,-0.0539126783581607
0.209176185795067,-0.0498066616262466
0.20830663897225,-0.0456893565498753
0.207374664249402,-0.0415607717701723
0.206379866636807,-0.0374209159282639
0.205321851144747,-0.0332697976652757
0.204200222783505,-0.029107425622334
0.203014586563363,-0.0249338084405643
0.201764547494604,-0.0207489547610929
0.200449710587511,-0.0165528732250454
0.199069680852366,-0.0123455724735481
0.197624063299452,-0.0081270611477265
0.196112462939052,-0.00389734788870699
0.194534484781448,0.000343558662384905
0.192889733836922,0.00459564986442298
0.191177815115758,0.00885891707628159
0.189398333628238,0.0131333516568344
0.187550894384644,0.0174189449649559
0.18563510239526,0.0217156883595198
0.183650562670368,0.0260235731994005
0.18159688022025,0.0303425908434718
0.179473660055189,0.0346727326506081
0.177280507185468,0.039013989979683
0.175017026621369,0.0433663541895711
0.172682823373176,0.0477298166391459
0.17027750245117,0.0521043686872821
0.167800668865634,0.0564900016928532
0.165251927626851,0.0608867070147337
0.162630883745103,0.0652944760117973
0.159937142230673,0.0697133000429185
0.157170308093845,0.0741431704669709
0.154329986344899,0.078584078642829
0.15141578199412,0.0830360159293665
0.148427300051788,0.0874989736854578
0.145364145528189,0.0919729432699767
0.142225923433603,0.0964579160417976
0.139012238778313,0.100953883359794
0.135722696572603,0.105460836582841
0.132356901826754,0.109978767069811
0.128914459551049,0.11450766617958
0.125394974755772,0.119047525271021
0.121798052451203,0.123598335703008
0.118123297647627,0.128160088834415
0.114370315355326,0.132732776024117
0.110538710584583,0.137316388630987
0.106628088345679,0.1419109180139
0.102638053648898,0.146516355531729
0.0985682115045217,0.151132692543349
0.0944181669228339,0.155759920407633
0.0901875249141163,0.160398030483457
0.0858758904886521,0.165047014129693
0.0814828686567234,0.169706862705216
0.0770080644286133,0.174377567568901
0.072451082814604,0.17905912007962
0.0678115288249785,0.183751511596248
0.063089007470019,0.18845473347766
0.0582831237600086,0.193168777082729
0.0533934827052295,0.19789363377033
0.0484196893159647,0.202629294899335
0.0433613486024963,0.207375751828621
0.0382180655751076,0.21213299591706
0.0329894452440805,0.216901018523526
0.0276750926196983,0.221679811006895
0.0222746127122431,0.226469364726039
0.0167876105319979,0.231269671039833
0.0112136910892449,0.236080721307151
0.00555245939426728,0.240902506886867
-0.000196479542652936,0.245735019137855
-0.00603352071123259,0.250578249418989
-0.0119590591011896,0.255432189089143
-0.0179734897022407,0.260296829507192
-0.024077207504104,0.265172162032009
-0.0302706074964961,0.270058178022469
-0.0365540846691352,0.274954868837445
-0.0429280340117379,0.279862225835812
-0.0493928505140223,0.284780240376443
-0.055948929165705,0.289708903818213
-0.0625966649565042,0.294648207519996
-0.0625966649565042,0.294648207519996
-0.0692662662638945,0.299562857130631
-0.0758877335184152,0.304417659371161
-0.0824611497893798,0.309212757208769
-0.0889865981461016,0.313948293610636
-0.095464161657894,0.318624411543945
-0.10189392339407,0.323241253975877
-0.108275966423944,0.327798963873614
-0.114610373816829,0.332297684204338
-0.120897228642038,0.33673755793523
-0.127136613968884,0.341118728033473
-0.133328612866682,0.345441337466248
-0.139473308404744,0.349705529200738
-0.145570783652383,0.353911446204124
-0.151621121678914,0.358059231443588
-0.15762440555365,0.362149027886311
-0.163580718345903,0.366180978499477
-0.169490143124988,0.370155226250266
-0.175352762960217,0.37407191410586
-0.181168660920904,0.377931185033441
-0.186937920076364,0.381733182000192
-0.192660623495908,0.385478047973293
-0.19833685424885,0.389165925919928
-0.203966695404504,0.392796958807276
-0.209550230032183,0.396371289602522
-0.215087541201201,0.399889061272846
-0.22057871198087,0.403350416785429
-0.226023825440505,0.406755499107455
-0.231422964649418,0.410104451206105
-0.236776212676924,0.413397416048561
-0.242083652592334,0.416634536602004
-0.247345367464964,0.419815955833616
-0.252561440364126,0.42294181671058
-0.257731954359134,0.426012262200077
-0.262856992519301,0.429027435269289
-0.26793663791394,0.431987478885398
-0.272970973612365,0.434892536015586
-0.277960082683889,0.437742749627034
-0.282904048197825,0.440538262686925
-0.287802953223488,0.443279218162439
-0.29265688083019,0.44596575902076
-0.297465914087245,0.448598028229069
-0.302230136063966,0.451176168754548
-0.306949629829667,0.453700323564378
-0.31162447845366,0.456170635625742
-0.31625476500526,0.458587247905822
-0.32084057255378,0.460950303371798
-0.325381984168533,0.463259944990853
-0.329879082918832,0.46551631573017
-0.334331951873991,0.467719558556929
-0.338740674103324,0.469869816438313
-0.343105332676143,0.471967232341503
-0.347426010661763,0.474011949233682
-0.351702791129495,0.476004110082031
-0.355935757148655,0.477943857853732
-0.360124991788555,0.479831335515967
-0.364270578118509,0.481666686035917
-0.36837259920783,0.483450052380765
-0.372431138125831,0.485181577517693
-0.376446277941826,0.486861404413881
-0.380418101725128,0.488489676036513
-0.384346692545051,0.49006653535277
-0.388232133470908,0.491592125329834
-0.392074507572013,0.493066588934886
-0.395873897917678,0.49449006913511
-0.399630387577218,0.495862708897685
-0.403344059619945,0.497184651189794
-0.407014997115173,0.49845603897862
-0.410643283132215,0.499677015231344
-0.414229000740385,0.500847722915147
-0.417772233008997,0.501968304997212
-0.421273063007363,0.503038904444721
-0.424731573804797,0.504059664224855
-0.428147848470612,0.505030727304796
-0.431521970074122,0.505952236651727
-0.43485402168464,0.506824335232828
-0.43814408637148,0.507647166015282
-0.441392247203955,0.50842087196627
-0.444598587251377,0.509145596052975
-0.447763189583062,0.509821481242578
-0.450886137268322,0.510448670502262
-0.45396751337647,0.511027306799208
-0.45700740097682,0.511557533100597
-0.460005883138686,0.512039492373612
-0.46296304293138,0.512473327585435
-0.465878963424216,0.512859181703247
-0.468753727686508,0.51319719769423
-0.471587418787568,0.513487518525567
-0.474380119796711,0.513730287164438
-0.47713191378325,0.513925646578027
-0.479842883816497,0.514073739733513
-0.482513112965767,0.514174709598081
-0.485142684300373,0.514228699138911
-0.487731680889628,0.514235851323185
-0.490280185802845,0.514196309118085
-0.492788282109339,0.514110215490793
-0.495256052878422,0.513977713408491
-0.497683581179407,0.513798945838361
-0.500070950081609,0.513574055747584
-0.502418242654341,0.513303186103342
-0.504725541966915,0.512986479872818
-0.506992931088646,0.512624080023193
-0.509220493088847,0.512216129521648
-0.51140831103683,0.511762771335366
-0.51355646800191,0.511264148431529
-0.515665047053401,0.510720403777319
-0.517734131260614,0.510131680339916
-0.519763803692864,0.509498121086504
-0.521754147419465,0.508819868984264
-0.523705245509729,0.508097067000378
-0.525617181032969,0.507329858102027
-0.5274900370585,0.506518385256394
-0.529323896655635,0.50566279143066
-0.531118842893687,0.504763219592008
-0.532874958841969,0.503819812707619
-0.534592327569795,0.502832713744674
-0.536271032146478,0.501802065670357
-0.537911155641332,0.500728011451848
-0.53951278112367,0.49961069405633
-0.541075991662806,0.498450256450984
-0.542600870328052,0.497246841602992
-0.544087500188723,0.496000592479537
-0.545535964314131,0.494711652047799
-0.54694634577359,0.493380163274961
-0.548318727636414,0.492006269128205
-0.549653192971915,0.490590112574712
-0.550949824849407,0.489131836581664
-0.552208706338204,0.487631584116244
-0.553429920507619,0.486089498145633
-0.554613550426966,0.484505721637013
-0.555759679165557,0.482880397557565
-0.556868389792706,0.481213668874472
-0.557939765377727,0.479505678554915
-0.558973888989933,0.477756569566077
-0.559970843698637,0.475966484875139
-0.560930712573153,0.474135567449283
-0.561853578682794,0.472263960255691
-0.562739525096874,0.470351806261544
-0.563588634884705,0.468399248434025
-0.564400991115601,0.466406429740315
-0.565176676858877,0.464373493147597
-0.565915775183845,0.462300581623052
-0.566618369159817,0.460187838133861
-0.567284541856109,0.458035405647207
-0.567914376342033,0.455843427130273
-0.568507955686903,0.453612045550238
-0.569065362960032,0.451341403874286
-0.569586681230733,0.449031645069598
-0.57007199356832,0.446682912103357
-0.570521383042106,0.444295347942743
-0.570934932721405,0.441869095554939
-0.57131272567553,0.439404297907126
-0.571654844973794,0.436901097966487
-0.571961373685511,0.434359638700204
-0.572232394879994,0.431780063075457
-0.572467991626557,0.42916251405943
-0.572668246994513,0.426507134619303
-0.572833244053175,0.423814067722259
-0.572963065871857,0.42108345633548
-0.573057795519872,0.418315443426147
-0.573117516066534,0.415510171961443
-0.573142310581155,0.412667784908548
-0.57313226213305,0.409788425234646
-0.573087453791532,0.406872235906917
-0.573007968625914,0.403919359892544
-0.572893889705509,0.400929940158709
-0.572745300099631,0.397904119672593
-0.572562282877593,0.394842041401378
-0.572344921108709,0.391743848312246
-0.572093297862293,0.38860968337238
-0.571807496207656,0.38543968954896
-0.571487599214114,0.382234009809168
-0.571133689950979,0.378992787120188
-0.570745851487565,0.375716164449199
-0.570324166893184,0.372404284763385
-0.569868719237151,0.369057291029927
-0.569379591588779,0.365675326216006
-0.568856867017381,0.362258533288806
-0.568300628592271,0.358807055215507
-0.567710959382761,0.355321034963291
-0.567087942458166,0.351800615499341
-0.566431660887799,0.348245939790838
-0.565742197740973,0.344657150804964
-0.565019636087002,0.341034391508901
-0.564264058995199,0.337377804869831
-0.563475549534877,0.333687533854935
-0.56265419077535,0.329963721431396
-0.56180006578593,0.326206510566394
-0.560913257635933,0.322416044227114
-0.559993849394671,0.318592465380735
-0.559041924131456,0.314735916994439
-0.558057564915604,0.31084654203541
-0.557040854816427,0.306924483470828
-0.555991876903238,0.302969884267875
-0.554910714245351,0.298982887393734
-0.553797449912079,0.294963635815585
-0.552652166972736,0.290912272500612
-0.551474948496635,0.286828940415995
-0.55026587755309,0.282713782528917
-0.549025037211413,0.27856694180656
-0.547752510540919,0.274388561216105
-0.546448380610921,0.270178783724733
-0.545112730490731,0.265937752299629
-0.543745643249664,0.261665609907972
-0.542347201957033,0.257362499516944
-0.540917489682151,0.253028564093728
-0.539456589494332,0.248663946605506
-0.537964584462888,0.244268790019459
-0.536441557657134,0.23984323730277
-0.534887592146383,0.235387431422619
-0.533302770999948,0.230901515346189
-0.531687177287143,0.226385632040661
-0.530040894077281,0.221839924473219
-0.528364004439675,0.217264535611042
-0.526656591443639,0.212659608421315
-0.524918738158485,0.208025285871216
-0.523150527653529,0.203361710927931
-0.521352042998082,0.198669026558638
-0.519523367261459,0.193947375730522
-0.517664583512973,0.189196901410763
-0.515775774821936,0.184417746566543
-0.513857024257664,0.179610054165045
-0.511908414889468,0.17477396717345
-0.509930029786662,0.169909628558939
-0.50792195201856,0.165017181288696
-0.505884264654475,0.160096768329901
-0.503817050763721,0.155148532649736
-0.501720393415611,0.150172617215384
-0.499594375679458,0.145169164994026
-0.497439080624575,0.140138318952844
-0.495254591320277,0.13508022205902
-0.493040990835876,0.129995017279735
-0.490798362240686,0.124882847582173
-0.48852678860402,0.119743855933513
-0.486226352995191,0.114578185300939
-0.483897138483514,0.109385978651632
-0.481539228138301,0.104167378952774
-0.479152705028866,0.0989225291715471
-0.476737652224522,0.0936515722751328
-0.474294152794583,0.0883546512307128
-0.471822289808362,0.0830319090054695
-0.469322146335172,0.0776834885665841
-0.466793805444327,0.0723095328812391
-0.46423735020514,0.0669101849166158
-0.461652863686925,0.0614855876398965
-0.459040428958994,0.0560358840182627
-0.456400129090662,0.0505612170188966
-0.453732047151242,0.0450617296089796
-0.451036266210047,0.0395375647556941
-0.44831286933639,0.0339888654262213
-0.445561939599585,0.0284157745877437
-0.442783560068946,0.0228184352074427
-0.439977813813785,0.0171969902525005
-0.437144783903417,0.0115515826900985
-0.434284553407154,0.00588235548741919
-0.431397205394309,0.000189451611643604
-0.428482822934197,-0.00552698597004561
-0.425541489096131,-0.0112668142904672
-0.422573286949424,-0.0170298903824389
-0.419578299563389,-0.0228160712787792
-0.41655661000734,-0.0286252140123059
-0.41350830135059,-0.0344571756158375
-0.410433456662453,-0.0403118131221918
-0.407332159012242,-0.0461889835641872
-0.404204491469271,-0.0520885439746417
-0.401050537102852,-0.0580103513863737
-0.397870378982299,-0.063954262832201
-0.394664100176926,-0.069920135344942
-0.391431783756046,-0.0759078259574146
-0.388173512788972,-0.0819171917024374
-0.384889370345019,-0.087948089612828
-0.381579439493498,-0.094000376721405
-0.378243803303724,-0.100073910060986
-0.37488254484501,-0.10616854666439
-0.371495747186669,-0.112284143564434
-0.368083493398015,-0.118420557793938
-0.364645866548361,-0.124577646385718
-0.361182949707021,-0.130755266372593
-0.357694825943307,-0.136953274787382
-0.354181578326534,-0.143171528662902
-0.350643289926015,-0.149409885031971
-0.347080043811062,-0.155668200927408
-0.34349192305099,-0.161946333382031
-0.339879010715112,-0.168244139428659
-0.336241389872742,-0.174561476100108
-0.332579143593192,-0.180898200429197
-0.328892354945776,-0.187254169448745
-0.325181106999807,-0.19362924019157
-0.3214454828246,-0.200023269690489
-0.317685565489466,-0.206436114978321
-0.313901438063721,-0.212867633087884
-0.310093183616676,-0.219317681051996
-0.306260885217646,-0.225786115903476
-0.302404625935943,-0.232272794675141
-0.298524488840882,-0.23877757439981
-0.294620557001775,-0.245300312110301
-0.290692913487937,-0.251840864839431
-0.286741641368679,-0.25839908962002
-0.282766823713317,-0.264974843484884
-0.278768543591163,-0.271567983466843
-0.27474688407153,-0.278178366598715
-0.270701928223732,-0.284805849913317
-0.266633759117083,-0.291450290443468
-0.262542459820895,-0.298111545221987
-0.258428113404482,-0.30478947128169
-0.254290802937158,-0.311483925655396
-0.250130611488236,-0.318194765375924
-0.24594762212703,-0.324921847476092
-0.241741917922852,-0.331665028988717
-0.237513581945016,-0.338424166946618
-0.233262697262835,-0.345199118382613
-0.228989346945624,-0.35198974032952
-0.224693614062695,-0.358795889820157
-0.220375581683361,-0.365617423887343
-0.216035332876936,-0.372454199563896
-0.211672950712734,-0.379306073882633
-0.207288518260068,-0.386172903876373
-0.202882118588251,-0.393054546577935
-0.198453834766597,-0.399950859020135
-0.194003749864419,-0.406861698235793
-0.18953194695103,-0.413786921257726
-0.185038509095744,-0.420726385118753
-0.180523519367874,-0.427679946851691
-0.175987060836734,-0.43464746348936
-0.171429216571637,-0.441628792064577
-0.166850069641896,-0.44862378961016
-0.162249703116825,-0.455632313158927
-0.157628200065737,-0.462654219743697
-0.152985643557946,-0.469689366397287
-0.148322116662765,-0.476737610152517
-0.143637702449507,-0.483798808042203
-0.138932483987485,-0.490872817099164
-0.134206544346015,-0.497959494356219
-0.129459966594407,-0.505058696846185
-0.124692833801977,-0.512170281601881
-0.119905229038036,-0.519294105656124
-0.1150972353719,-0.526430026041734
-0.11026893587288,-0.533577899791527
-0.105420413610292,-0.540737583938322
-0.100551751653446,-0.547908935514938
-0.0956630330716588,-0.555091811554192
-0.0907543409342417,-0.562286069088903
-0.0858257583105089,-0.569491565151889
-0.0808773682697732,-0.576708156775968
-0.0759092538813487,-0.583935700993957
-0.0709214982145483,-0.591174054838676
-0.0659141843386856,-0.598423075342942
-0.0608873953230739,-0.605682619539574
-0.0558412142370267,-0.612952544461389
-0.0507757241498572,-0.620232707141206
-0.0456910081308792,-0.627522964611843
-0.0405871492494055,-0.634823173906118
-0.0354642305747499,-0.642133192056849
-0.0303223351762257,-0.649452876096856
-0.0251615461231464,-0.656782083058954
-0.0199819464848251,-0.664120669975963
-0.0147836193305756,-0.6714684938807
-0.00956664772971084,-0.678825411805985
-0.00433111475154465,-0.686191280784635
0.000922896534609988,-0.693565957849469
0.00619530305943928,-0.700949300033303
0.0114860217536303,-0.708341164368958
0.016794969547869,-0.715741407889249
0.0221220633728427,-0.723149887626997
0.0274672201592374,-0.730566460615019
0.0328303568377403,-0.737990983886133
0.0382113903390374,-0.745423314473158
0.0436102375938159,-0.752863309408911
0.0490268155327618,-0.76031082572621
0.0544610410865622,-0.767765720457875
0.0599128311859034,-0.775227850636722
0.0653821027614723,-0.78269707329557
0.0708687727439551,-0.790173245467237
0.0763727580640389,-0.797656224184542
0.0818939756524098,-0.805145866480303
0.0874323424397549,-0.812642029387337
0.0929877753567603,-0.820144569938462
0.0985601913341131,-0.827653345166498
0.1041495073025,-0.835168212104262
0.109755640192607,-0.842689027784572
0.11537850693512,-0.850215649240247
0.121018024460728,-0.857747933504104
0.126674109700115,-0.865285737608962
0.13234667958397,-0.872828918587638
0.138035651042978,-0.880377333472952
0.143740941007826,-0.887930839297721
0.1494624664092,-0.895489293094763
0.155200144177788,-0.903052551896897
0.160953891244276,-0.910620472736939
0.16672362453935,-0.918192912647711
0.172509260993697,-0.925769728662027
0.178310717538004,-0.933350777812708
0.184127911102957,-0.940935917132571
0.189960758619243,-0.948525003654434
0.195809177017548,-0.956117894411116
0.20167308322856,-0.963714446435435
0.207552394182964,-0.971314516760208
0.213447026811448,-0.978917962418254
0.219356898044697,-0.986524640442391
0.225281924813399,-0.994134407865438
