0.904516954695836,-0.521439395564745
0.897322720195084,-0.514218923723236
0.890203394052182,-0.507044926455833
0.883158688298226,-0.499917224650748
0.876188314964316,-0.492835639196193
0.869291986081551,-0.485799990980379
0.862469413681027,-0.478810100891518
0.855720309793843,-0.471865789817822
0.849044386451098,-0.464966878647503
0.842441355683889,-0.458113188268773
0.835910929523315,-0.451304539569843
0.829452820000474,-0.444540753438926
0.823066739146465,-0.437821650764233
0.816752398992385,-0.431147052433976
0.810509511569333,-0.424516779336368
0.804337788908406,-0.417930652359619
0.798236943040705,-0.411388492391942
0.792206685997325,-0.404890120321548
0.786246729809366,-0.39843535703665
0.780356786507925,-0.392024023425459
0.774536568124102,-0.385655940376188
0.768785786688994,-0.379330928777047
0.763104154233699,-0.373048809516249
0.757491382789315,-0.366809403482006
0.751947184386942,-0.360612531562529
0.746471271057677,-0.354458014646031
0.741063354832618,-0.348345673620723
0.735723147742863,-0.342275329374816
0.730450361819512,-0.336246802796524
0.725244709093661,-0.330259914774058
0.720105901596409,-0.324314486195629
0.715033651358854,-0.31841033794945
0.710027670412096,-0.312547290923732
0.705087670787231,-0.306725166006687
0.700213364515357,-0.300943784086527
0.695404463627574,-0.295202966051464
0.69066068015498,-0.28950253278971
0.685981726128672,-0.283842305189476
0.681367313579749,-0.278222104138975
0.67233096103845,-0.267101065240017
0.667908445108271,-0.261599869167984
0.663549318779869,-0.256137983198531
0.659253294084343,-0.25071522821987
0.655020083052792,-0.245331425120212
0.650849397716313,-0.239986394787769
0.646740950106004,-0.234679958110754
0.642694452252964,-0.229411935977378
0.638709616188291,-0.224182149275852
0.634786153943083,-0.21899041889439
0.630923777548438,-0.213836565721202
0.627122199035455,-0.2087204106445
0.623381130435232,-0.203641774552497
0.619700283778867,-0.198600478333404
0.616079371097458,-0.193596342875433
0.612518104422104,-0.188629189066796
0.609016195783903,-0.183698837795705
0.605573357213952,-0.178805109950371
0.60218930074335,-0.173947826419006
0.598863738403196,-0.169126808089823
0.595596382224587,-0.164341875851033
0.592386944238622,-0.159592850590848
0.589235136476398,-0.15487955319748
0.586140670969015,-0.15020180455914
0.583103259747571,-0.145559425564041
0.580122614843163,-0.140952237100395
0.577198448286889,-0.136380060056412
0.574330472109849,-0.131842715320306
0.57151839834314,-0.127340023780287
0.56876193901786,-0.122871806324569
0.566060806165108,-0.118437883841362
0.563414711815982,-0.114038077218878
0.56082336800158,-0.10967220734533
0.558286486753001,-0.105340095108929
0.555803780101341,-0.101041561397887
0.553374960077701,-0.0967764271004152
0.550999738713177,-0.0925445131047268
0.546408940085874,-0.0841796295715453
0.54419278688529,-0.080046301810476
0.542029080468217,-0.0759454779040369
0.539917532865751,-0.0718769787404398
0.537857856108991,-0.0678406252078964
0.535849762229036,-0.0638362381946187
0.533892963256984,-0.0598636385888186
0.531987171223932,-0.0559226472787078
0.53013209816098,-0.0520130851524982
0.528327456099224,-0.0481347730984017
0.526572957069765,-0.0442875320046302
0.524868313103699,-0.0404711827593954
0.523213236232125,-0.0366855462509092
0.52160743848614,-0.0329304433673835
0.520050631896845,-0.0292056949970301
0.518542528495336,-0.0255111220280609
0.517082840312711,-0.0218465453486877
0.51567127938007,-0.0182117858471224
0.51430755772851,-0.0146066644115768
0.512991387389129,-0.0110310019302628
0.511722480393026,-0.00748461929139213
0.510500548771298,-0.00396733738317682
0.509325304555045,-0.000478977093828561
0.508196459775364,0.00298064068844063
0.507113726463354,0.00641169507541907
0.506076816650112,0.00981436517889482
0.505085442366737,0.013188830110656
0.504139315644327,0.0165352689824909
0.50323814851398,0.0198538609061875
0.502381653006795,0.0231447849935341
0.50156954115387,0.0264082203563187
0.500801524986303,0.0296443461063296
0.500077316535192,0.0328533413553549
0.499396627831635,0.0360353852151827
0.498759170906731,0.0391906567976011
0.498164657791578,0.0423193352143983
0.497612800517274,0.0454215995773626
0.497103311114917,0.048497628998282
0.496210284050437,0.0545716994611387
0.495826170450511,0.0575700987266524
0.495181303270778,0.0634905208847911
0.494919973753167,0.0664129020009924
0.494518083017947,0.0721828998665996
0.494376945862535,0.0750308748395819
0.494275296890052,0.0778544059884008
0.494212848131597,0.0806536724248445
0.494189311618267,0.0834288532607011
0.494204399381162,0.0861801276077588
0.494257823451378,0.0889076745778057
0.494349295860016,0.09161167328263
0.494645233816944,0.0969497423437633
0.494849123427432,0.0995841709236486
0.495089909500733,0.102195767685464
0.495367304067946,0.104784711740997
0.495681019160168,0.107351182202037
0.496030766808499,0.109895358180371
0.496416259044035,0.112417418787788
0.496837207897876,0.114917543136075
0.497784323584863,0.119852699502415
0.498309914480206,0.122288089744043
0.498869810118247,0.124702260173695
0.499463722530083,0.127095389903158
0.500091363746812,0.129467658044221
0.500752445799533,0.131819243708672
0.502173780537344,0.136461084054889
0.50293345728463,0.138751696960232
0.503725422992301,0.141022343836116
0.50540506941319,0.145504455946656
0.506292174188604,0.147716279404889
0.507210416048796,0.149908853280815
0.508159507024863,0.152082356686223
0.509139159147905,0.1542369687329
0.512258602709855,0.160589247838427
0.513357619731775,0.162670085568062
0.51448575805616,0.164732927497907
0.516828246736717,0.168805340405381
0.518042021155086,0.170815269606585
0.519283765000313,0.172807919455152
0.520553190303496,0.17478346906287
0.521850009095733,0.176742097541526
0.523173933408123,0.17868398400291
0.524524675271764,0.180609307558809
0.52730545977719,0.184410982401305
0.528734926481173,0.186287691911478
0.530190058860799,0.18814855496332
0.531670568947166,0.189993750668617
0.533176168771374,0.191823458139158
0.536261485757702,0.195437124823126
0.537840626982019,0.197221442260128
0.539443706068569,0.198990987909528
0.54107043504845,0.200745940883112
0.542720525952761,0.202486480292669
0.546089641659062,0.205925034866856
0.54954874943626,0.209308084526392
0.55131133042919,0.210979242792636
0.553095545533138,0.212637062165583
0.554901106779204,0.214281721757019
0.556727726198485,0.215913400678734
0.558575115822078,0.217532278042516
0.560442987681083,0.219138532960151
0.562331053806598,0.22073234454343
0.564239026229721,0.222313891904139
0.56616661698155,0.223883354154067
0.568113538093183,0.225440910405002
0.570079501595719,0.226986739768733
0.572064219520255,0.228521021357047
0.57406740389789,0.230043934281733
0.576088766759723,0.231555657654578
0.57812802013685,0.233056370587371
0.580184876060372,0.2345462521919
0.582259046561385,0.236025481579954
0.584350243670988,0.237494237863319
0.586458179420279,0.238952700153786
0.588582565840357,0.24040104756314
0.59072311496232,0.241839459203172
0.592879538817265,0.243268114185668
0.597238858850497,0.246096870625209
0.59944117909098,0.247497330305829
0.601658222188839,0.248888749776067
0.603889700175172,0.25027130814771
0.606135325081077,0.251645184532547
0.608394808937652,0.253010558042366
0.610667863775996,0.254367607788955
0.612954201627206,0.255716512884103
0.615253534522382,0.257057452439597
0.617565574492621,0.258390605567225
0.619890033569021,0.259716151378776
0.62222662378268,0.261034268986039
0.626935045746172,0.263648936034848
0.6293063015582,0.264945843699971
0.63168853663188,0.266236039607958
0.636484792688591,0.268797012599676
0.638898237733818,0.270068147906982
0.641321510165091,0.271333287904304
0.646196385310165,0.27384629841615
0.648647412086162,0.27509452715425
0.651107114372598,0.276337477029518
0.661026919244688,0.28126007013804
0.663525679549788,0.282479312375974
0.666031387551915,0.283694350421806
0.671062494771646,0.286112530384314
0.673587318051445,0.287316030524567
0.676117937152664,0.28851604291987
0.678654064106402,0.289712746682011
0.683741689695827,0.292096944753962
0.68629261239371,0.293284797287347
0.688847891068504,0.294470057634723
0.691407237751308,0.295652904907878
0.696536983265337,0.298012076678679
0.699106806158759,0.2991887593999
0.701679545184583,0.300363745494053
0.704254912373908,0.301537214072926
0.706832619757832,0.302709344248307
0.709412379367453,0.303880315131984
0.711993903233869,0.305050305835745
0.714576903388179,0.306219495471379
0.717161091861481,0.307388063150673
0.722331881889452,0.309724049087396
0.724917907506317,0.310891825568401
0.727503969566568,0.312059696540219
0.730089780101301,0.313227841114638
0.732675051141616,0.314396438403447
0.735259494718609,0.315565667518433
0.73784282286338,0.316735707571385
0.740424747607027,0.317906737674091
0.743004980980647,0.319078936938339
0.74558323501534,0.320252484475918
0.748159221742203,0.321427559398615
0.750732653192334,0.322604340818218
0.753303241396832,0.323783007846516
0.755870698386795,0.324963739595296
0.763551402380455,0.328520114282417
0.76610345482326,0.32971089603101
0.768650936207021,0.330904638059027
0.771193558562836,0.332101519478256
0.773731033921803,0.333301719400485
0.776263074315021,0.334505416937501
0.781309698328602,0.336924021303051
0.783823706011161,0.338139286355161
0.788831672883308,0.34058263775699
0.791325056135092,0.341811082330286
0.793810988638814,0.343044278300887
0.796289182425573,0.344282404780581
0.798759349526466,0.345525640881156
0.801221201972592,0.346774165714401
0.803674451795049,0.348028158392104
0.806118811024935,0.349287798026053
0.808553991693349,0.350553263728035
0.810979705831388,0.35182473460984
0.818197169374241,0.355676969452067
0.822956199654405,0.358278435628779
0.827670452559429,0.360908221207695
0.830010067574009,0.36223418155245
0.832337624338098,0.363567759083121
0.834652834882795,0.364909132911495
0.836955411239198,0.36625848214936
0.839245065438405,0.367615985908506
0.843784455489624,0.37035617343779
0.850489425164941,0.374532091436018
0.852695499074035,0.375942283670394
0.854886635043621,0.377361884208567
0.859222941288662,0.380230026643457
0.861367535626312,0.38167892676375
0.863496040148847,0.383137951634993
0.865608166887365,0.384607280368973
0.867703627872964,0.386087092077479
0.869782135136742,0.3875775658723
0.871843400709797,0.389078880865222
0.873887136623228,0.390591216168035
0.875913054908132,0.392114750892526
0.877920867595609,0.393649664150483
0.879910286716756,0.395196135053696
0.881881024302671,0.396754342713951
0.8857653029932,0.399906684752743
0.88957139991598,0.403108123161165
0.891444410292211,0.404727701283457
0.8932970113198,0.406360090833521
0.895128915029844,0.408005470923145
0.896939833453442,0.409664020664117
0.898729478621693,0.411335919168225
0.903967894905341,0.416433498377249
0.905669567363183,0.418160583051784
0.907348526721169,0.419901912048396
0.909004485010397,0.421657664478873
0.910637154261964,0.423428019455003
0.913831473776511,0.427013253491377
0.915392548101686,0.428828490775196
0.918441086043335,0.43250510143304
0.921389556580699,0.436244420956413
0.922825546650521,0.438138044322143
0.924235655962566,0.44004788223962
0.926977080437721,0.443916918176967
0.928307819663027,0.445876474420413
0.929611526254949,0.447852961662757
0.932136689663037,0.451857445591298
0.93455026691077,0.455931802856893
0.935714490802249,0.457995631770557
0.936849954246933,0.460077466353848
0.937956369275922,0.462177485718557
0.939033447920313,0.464295868976469
0.940080902211205,0.466432795239374
0.941098444179695,0.46858844361906
0.942085785856883,0.470762993227315
0.943042639273865,0.472956623175927
0.943968716461741,0.475169512576684
0.944863729451608,0.477401840541374
0.946559410961711,0.481925528609707
0.947359503544143,0.484217246936927
0.948862752519257,0.488861327736412
0.949565332974137,0.491214048432253
0.950234833448696,0.493587461474545
0.950870965974031,0.495981745975076
0.951473442581243,0.498397081045633
0.952576276165685,0.503291619343981
0.953076057205113,0.505771180795347
0.95397090793387,0.510795783861406
0.95533370086175,0.521111925776896
0.955583779998118,0.523747617696069
0.955797035558442,0.526406330414938
0.95597317957382,0.529088243045291
0.956111924075351,0.531793534698918
0.956212981094132,0.534522384487605
0.956276062661262,0.537274971523141
0.956142875035232,0.548526274369537
0.956011759810579,0.55140023431614
0.955837609356878,0.554245146914066
0.95535084075549,0.559687682820328
0.954279127888498,0.567239520672838
0.95383203674754,0.569595277613063
0.953340530988387,0.571870968627659
0.952225504754174,0.576183821471189
0.951602598848456,0.578221817595734
0.95022753788315,0.582063034989416
0.949475997392902,0.583867090554165
0.948682193277152,0.585594000227926
0.945090486252544,0.591738522969228
0.943049040388662,0.594358754836915
0.941967994865173,0.595557323412338
0.940847143993547,0.596682083279223
0.938487255344563,0.598711845478603
0.935971832719075,0.6004513786175
0.934656564376819,0.601213352158784
0.933303334394448,0.601904019878365
0.931912450056633,0.60252379892405
0.930484218648045,0.603073106443644
0.929018947453354,0.603552359584955
0.927516943757231,0.603961975495787
0.925978514844346,0.604302371323948
0.924403967999371,0.604573964217242
0.922793610506975,0.604777171323476
0.921147749651828,0.604912409790457
0.919466692718603,0.604980096765989
0.916000219756595,0.604914484833934
0.912396649898316,0.60458367270976
0.910544221844751,0.604319859445143
0.908658441421131,0.603990997575915
0.906739615912124,0.603597504249881
0.902804058776637,0.60261829181862
0.896660567049777,0.600675165940837
0.892408386870608,0.599068410592791
0.890236262926657,0.598172882933328
0.888033859459355,0.597216478147315
0.885801483753372,0.596199613382556
0.883539443093381,0.595122705786858
0.88124804476405,0.593986172508027
0.878927596050051,0.592790430693868
0.876578404236053,0.591535897492188
0.874200776606729,0.590222990050793
0.86936144304078,0.587423721040082
0.861896856193665,0.582797439421303
0.856786992284617,0.579433199664711
0.854192940380813,0.577668315626613
0.851573218223717,0.575848811679053
0.848928133097999,0.573975104969839
0.84356310307938,0.57006675185767
0.84084377275582,0.568032939750328
0.83533301790355,0.563808130172157
0.832542207944183,0.56161796699694
0.829728186008887,0.559376521094712
0.826891259382334,0.557084209613276
0.824031735349193,0.554741449700441
0.821149921194137,0.55234865850401
0.818246124201835,0.549906253171792
0.815320651656957,0.547414650851591
0.812373810844174,0.544874268691214
0.809405909048158,0.542285523838467
0.806417253553578,0.539648833441155
0.800378910607409,0.534233284604063
0.794261240283032,0.528630959362387
0.791173425565692,0.525760798459344
0.788066700857811,0.522845194898574
0.784941373444061,0.519884565827881
0.781797750609112,0.516879328395073
0.775456847814297,0.510736697034333
0.769046450750732,0.504420637998801
0.765815960079844,0.501198615972504
0.762569017695781,0.497934488470927
0.756027006926808,0.491281585633157
0.746098285041294,0.480996869007056
0.742759085356256,0.477488868757727
0.732656911116933,0.46673142395714
0.72926235225799,0.463069184832097
0.712099629929689,0.444203579421805
0.694648528640208,0.424452196251934
0.691127083038347,0.420400214912677
0.684055424768022,0.412197884711328
0.680505826668901,0.408048370144848
0.673380628966092,0.399654727819308
0.666222811154998,0.3911377155557
0.648201686098723,0.369327341677455
0.637314504375067,0.355902710769566
0.633674869726889,0.351373935590282
0.626381583028119,0.342238040803569
0.622728545546868,0.337631755491752
0.619071655023933,0.333000467764703
0.615411218743986,0.328344594770228
0.600740161747478,0.309483593074185
0.597066605952524,0.304711050959669
0.593391348108581,0.299916426464563
0.589714695500319,0.295100136736673
0.586036955412408,0.290262598923805
0.582358435129519,0.285404230173765
0.567642697741596,0.265770788758009
0.549267345780153,0.240810348638669
0.545597924204365,0.235766613646242
0.541931102564976,0.23070663634251
0.538267188146654,0.225630833875279
0.534606488234072,0.220539623392354
0.5309493101119,0.215433422041541
0.527295961064808,0.210312646970648
0.523646748377466,0.205177715327478
0.520001979334546,0.20002904425984
0.516361961220719,0.194867050915538
0.512727001320653,0.18969215244238
0.509097406919021,0.18450476598817
0.505473485300492,0.179305308700714
0.498243889551428,0.168871850217293
0.491040672350824,0.158395114174563
0.487449723917871,0.153141559937973
0.483866291976046,0.147878437754974
0.476723206704457,0.137325158140973
0.473164167944035,0.132035835005583
0.466072634597289,0.121433907817056
0.459018542047144,0.110803720390237
0.455506304282473,0.105479071956984
0.448512982197287,0.0948127513898199
0.441563246602113,0.0841265135404857
0.438105491949957,0.0787769685045198
0.427804367991257,0.0627076347251001
0.424395730953182,0.0573456810674728
0.421000141530304,0.0519816681239452
0.414249334668821,0.0412491329704136
0.410894731799556,0.0358814450560214
0.407554405684171,0.0305133664469531
0.404228663607335,0.0251453142910148
0.397622160707994,0.0144109579297521
0.391077681378897,0.00368171315468138
0.365569165312245,-0.0391174064347149
0.35630157065671,-0.0550886331643663
0.35022016504496,-0.0657033088070114
0.33537404384316,-0.0921008333383438
0.332468545222035,-0.0973531442778284
0.326723731876382,-0.107827235007567
0.318276580869457,-0.123455786012008
0.312762111193701,-0.133814896563787
0.310040887508492,-0.138975223360905
0.30734408097129,-0.144122174975099
0.304671998866766,-0.149255334258564
0.30202494847959,-0.154374284063494
0.299403237094433,-0.159478607242082
0.296807171995965,-0.164567886646524
0.294237060468857,-0.169641705129012
0.291693209797779,-0.174699645541741
0.284222295767433,-0.189774026883312
0.272324669406716,-0.214541500595514
0.270030994250086,-0.219437766729138
0.267766652796192,-0.224313983314942
0.252763418207866,-0.257851071660915
0.246804194535248,-0.271881651525576
0.241139395369636,-0.285690487827063
0.237530528892062,-0.294767625855544
0.234058663444347,-0.303737868233159
0.230726257303854,-0.312597877777462
0.229113119685493,-0.316985502367605
0.227535768747949,-0.321344317306003
0.225994511775893,-0.325673905444848
0.22019656923596,-0.342691647048582
0.218840391361402,-0.346868843972574
0.216242155917491,-0.355127631613587
0.215000712917478,-0.359208388034995
0.212634712784692,-0.367270540340585
0.21151077022126,-0.371251101929155
0.210426609039362,-0.375197430944499
0.208378859958853,-0.38298572266429
0.205613278816361,-0.39440098724964
0.204774258901752,-0.398133160721708
0.203977171361371,-0.40182818158591
0.201840575832305,-0.412686157053252
0.200631474236363,-0.419731396615701
0.199597476969428,-0.426618014199336
0.199146910671014,-0.430000796879584
0.197570693916306,-0.446292763252879
0.19739292450553,-0.449423847087307
0.197261696739041,-0.452511521096778
0.197177317901509,-0.455555368133485
0.197150336151999,-0.461509912697383
0.197924247961912,-0.475600101737342
0.198225722804178,-0.478278315670923
0.198576812137435,-0.480908948301484
0.201087231132072,-0.493333791735813
0.202449455130341,-0.497956059815207
0.204019970202036,-0.502374653952736
0.204884105102094,-0.504506530423786
0.207795706675161,-0.510587471672404
0.208873663772715,-0.51250816554108
0.212434106770363,-0.517945547435232
0.215082951369653,-0.521295714126711
0.217954836706556,-0.524422183781634
0.219475187863289,-0.525900489350872
0.226126485721072,-0.531237783124197
0.233704362412405,-0.535633568197025
0.23574591416301,-0.536582275122235
0.244509670016632,-0.5397636310169
0.254244253696364,-0.541943408927001
0.256831896099155,-0.542328728235892
0.26496933142112,-0.54309491139295
0.267807670181874,-0.543218990362743
0.279798521083261,-0.543047605220959
0.282957144196554,-0.542835747941244
0.286180746034367,-0.542555451968209
0.292824115022233,-0.541787875350955
0.296244496741628,-0.541299760411124
0.299731086324224,-0.540741538186749
0.303284191054693,-0.540112791530025
0.310591175097929,-0.538642056328301
0.314345668980038,-0.53779923348769
0.318167907148701,-0.536884217623505
0.326016845484373,-0.534835938233188
0.330044160220723,-0.533701840411444
0.33414044838231,-0.532493880974902
0.342541174119876,-0.529854708666198
0.360183827223353,-0.523671670167746
0.364771533332372,-0.521934999289047
0.369430671143992,-0.520121129613101
0.378964471013718,-0.516260125278246
0.383839747641164,-0.514212156323724
0.388787685109895,-0.512085319980732
0.393808590704578,-0.509879199101462
0.398902771709887,-0.50759337653811
0.40407053541049,-0.505227435142869
0.425483562859263,-0.494954138286897
0.442331008695296,-0.486387477667588
0.480664722053153,-0.464999480720816
0.496023612261224,-0.455520912933859
0.505912327574774,-0.449101973579426
0.510752432264633,-0.445863165697862
0.515523439634606,-0.442605079033217
0.520225653178239,-0.439327923600355
0.533922565786536,-0.429384144841102
0.547011259725361,-0.419276307702982
0.55124041430385,-0.415871551308779
0.555403203004352,-0.412449406265268
0.559499929320412,-0.409010082587311
0.58270997278198,-0.388025150028578
0.586352760226188,-0.384471456325683
0.593447735299889,-0.377317783388146
0.600290600577596,-0.370103796507369
0.613229713538446,-0.355501601391728
0.625189522695575,-0.340678311930027
0.628028734967108,-0.336939518684506
0.633528395943687,-0.329423837241394
0.64624892394602,-0.310422213773506
0.648619121876707,-0.306587154365675
0.650932058735739,-0.302741006754441
0.653188038016658,-0.298883980954668
0.65538736321301,-0.295016286981218
0.657530337818338,-0.291138134848957
0.661648449230103,-0.283351296167451
0.665544800200306,-0.275525145029059
0.67097883696471,-0.263715882724919
0.675927569945097,-0.251827618061643
0.677470718623095,-0.247848287163439
0.678961158632602,-0.243861018284785
0.683119261585619,-0.23185368391476
0.68681391228981,-0.219782468255773
0.687943889439119,-0.215745513930148
0.692845634254502,-0.195471074676172
0.693678479486156,-0.191399723404251
0.695887470602071,-0.179156523013777
0.697121879132253,-0.170972200756507
0.697668518213848,-0.166874013073375
0.698168518497838,-0.162772087707064
0.699029816647182,-0.154557863984359
0.699391721499624,-0.150445985657691
0.699708201528639,-0.146331209707298
0.70052594328131,-0.129847329965746
0.700677160133499,-0.11746428583878
0.70064116734269,-0.113333889433673
0.700441405110032,-0.105070284168462
0.700278242655271,-0.100937495338085
0.700073297299615,-0.0968043290623452
0.699826872536608,-0.0926709953561062
0.698432449281954,-0.0761401865234278
0.69696596924745,-0.0637506126069894
0.694465358412033,-0.0472533384254933
0.692191544467465,-0.0349043515899111
0.690490527660915,-0.0266862576370189
0.689585387485221,-0.022582209886412
0.686655081790999,-0.0102925837163112
0.683408821710495,0.00195885651907608
0.68225793923436,0.00603320409823892
0.679854801569406,0.0141664404184343
0.677318523577835,0.0222776648553655
0.67600121569343,0.0263244975804482
0.674651533208002,0.0303651972901244
0.671856258408262,0.0384273576038026
0.670411273081038,0.0424483981780776
0.668935127126969,0.046462465677492
0.659440873877319,0.0703886752695444
0.652526601689623,0.0861734182843171
0.64890131843446,0.0940109304210002
0.647047702243955,0.0979152365946435
0.641326597343277,0.109567835358418
0.639367155245145,0.11343122831108
0.637382015403967,0.117283867921337
0.629190548479682,0.132582692641051
0.624948519391416,0.140162124560031
0.613936225263654,0.158893118784511
0.607061750992474,0.169974113188908
0.599996968662365,0.180929975505088
0.592750072599024,0.191755035331739
0.590295387162621,0.19533334131803
0.585329257128147,0.202443622267543
0.577742716575432,0.212990065911186
0.572596999964303,0.219939259646456
0.569998645266576,0.223388695861352
0.567383697632133,0.226821078287938
0.562105237527276,0.233633841716726
0.548639955420704,0.25035260795282
0.534820548605097,0.266603026508452
0.532017510705879,0.269794598334425
0.506271107618942,0.297593813146567
0.497505020955497,0.306473864275949
0.488660615350981,0.315151287832473
0.476760408113139,0.326396186767539
0.470769624621522,0.331875570621685
0.464754958479247,0.337257337241696
0.458718837634668,0.342539806508664
0.452663690036141,0.347721298303681
0.443550604611722,0.355300527976184
0.440506026370659,0.357774629002225
0.425245169127911,0.369743366977625
0.422187528926685,0.372055291037699
0.406888676302115,0.383194242845542
0.397711769200215,0.389533518601142
0.38854668073991,0.395607792369414
0.382447234258961,0.399507284690456
0.379401605246896,0.401411393749045
0.370284737046871,0.406938652338718
0.364226542212439,0.410467167428121
0.358186953823555,0.413868663202495
0.349167769462657,0.418729070388263
0.34617330817585,0.420283876330521
0.334263223690593,0.42617085077153
0.310831432554772,0.436306319787434
0.307944787208911,0.437415550637134
0.305068559851779,0.438489036375671
0.302203053976921,0.439526566988179
0.290854315171113,0.443312937880663
0.276946044240328,0.447211709377014
0.268763730746106,0.449095989097773
0.266065222053339,0.449646991719337
0.234937607461568,0.453165122865971
0.232457386359884,0.453194104984652
0.213322080091076,0.451909801701211
0.211023027028723,0.451556593538715
0.204256965315058,0.450235035025085
0.17930485746259,0.440918983443901
0.175498804930925,0.438722786497049
0.171799978959753,0.436338245895016
0.146360881170661,0.410279935223273
0.141243328713136,0.401764312679955
0.136661512225186,0.392421390283954
0.133588411090713,0.384863197386382
0.128411817875997,0.368305379879312
0.123617043209144,0.343172009009933
0.123193865574954,0.339780018319156
0.121905793534373,0.325646689729511
0.121220985251915,0.302727497730434
0.122091207464067,0.277704943940031
0.124582014776402,0.250533665147777
0.126455623659382,0.236128077872668
0.127175250685013,0.231203341588692
