0.0438391476046416,-0.802224295189926
0.728456272781247,-0.580718462652787
-0.164466812084592,0.966837367963702
-0.212084490065838,0.78898282947526
-0.259702168047083,0.611128290986817
-0.983236509166747,-0.447745616178318
-0.475359638190023,-0.400092123489792
0.0325172327867014,-0.352438630801265
0.694781744668844,0.188070427219328
-0.414693214907116,-0.925657976773688
