-0.918394481792239,0.910764592355765
-0.544953712822134,-0.685655612438465
-0.850331793111226,0.230644542974808
0.400076444815436,0.153017218463162
1.6504846827421,0.0753898939515159
-0.33667858826426,-0.872758856734744
-0.152380454761233,-0.828596370295172
0.0319176787417934,-0.784433883855601
0.530874194897605,0.711225955836166
-0.927445665259731,-0.687563232597505
