-0.167168091479337,-0.0143362671418443
0.700620206677403,0.559679828555057
0.873093374527571,0.835646257885466
0.819947225379055,0.618016659445287
0.766801076230538,0.400387061005108
-0.525461987543715,0.492210623728342
-0.867638138277968,-0.036489783138417
-1.20981428901222,-0.565190190005176
-0.475801319064421,0.907111731571761
0.260216950550443,0.00823532874890254
