-0.778181413995891,-0.102876862257162
-0.767092300612375,-0.0961349613506899
-0.756076270755997,-0.0894866241282357
-0.745133083873995,-0.0829313578690619
-0.73426249941361,-0.0764686698524311
-0.72346427682208,-0.070098067357606
-0.712738175546646,-0.0638190576638494
-0.702083955034546,-0.057631148050424
-0.691501374733022,-0.0515338457965925
-0.680990194089312,-0.0455266581816177
-0.670550172550656,-0.0396090924847623
-0.660181069564293,-0.0337806559852889
-0.649882644577464,-0.0280408559624603
-0.639654657037407,-0.0223891996955393
-0.629496866391362,-0.0168251944637886
-0.619409032086569,-0.0113483475464708
-0.609390913570268,-0.00595816622284867
-0.599442270289698,-0.000654157772184999
-0.589562861692099,0.00456417052625754
-0.57975244722471,0.00969731139321621
-0.570010786334771,0.0147457575494283
-0.560337638469522,0.019710001715631
-0.550732763076201,0.0245905366125618
-0.54119591960205,0.0293878549609577
-0.531726867494307,0.0341024494815562
-0.522325366200212,0.0387348128950946
-0.512991175167004,0.0432854379223099
-0.503724053841923,0.0477548172839397
-0.494523761672209,0.0521434437007211
-0.485390058105102,0.0564518098933913
-0.476322702587841,0.0606804085826878
-0.467321454567665,0.0648297324893478
-0.458386073491814,0.0689002743341085
-0.449516318807529,0.0728925268377072
-0.440711949962047,0.0768069827208812
-0.43197272640261,0.0806441347043678
-0.423298407576456,0.0844044755089043
-0.414688752930826,0.0880884978552278
-0.406143521912958,0.0916966944640758
-0.397662473970093,0.0952295580561856
-0.38924536854947,0.0986875813522942
-0.380891965098328,0.102071257073139
-0.372602023063908,0.105381077939458
-0.364375301893449,0.108617536671987
-0.356211561034189,0.111781125991464
-0.348110559933371,0.114872338618627
-0.340072058038231,0.117891667274212
-0.332095814796011,0.120839604678957
-0.32418158965395,0.1237166435536
-0.316329142059287,0.126523276618877
-0.308538231459263,0.129259996595525
-0.300808617301116,0.131927296204283
-0.293140059032086,0.134525668165887
-0.285532316099414,0.137055605201075
-0.277985147950337,0.139517600030583
-0.270498314032097,0.141912145375149
-0.263071573791933,0.144239733955511
-0.255704686677084,0.146500858492406
-0.24839741213479,0.148696011706571
-0.24114950961229,0.150825686318743
-0.233960738556825,0.152890375049659
-0.226830858415633,0.154890570620057
-0.219759628635954,0.156826765750674
-0.212746808665029,0.158699453162248
-0.205792157950096,0.160509125575515
-0.198895435938395,0.162256275711214
-0.192056402077166,0.16394139629008
-0.185274815813648,0.165564980032852
-0.178550436595081,0.167127519660266
-0.171883023868705,0.168629507893061
-0.165272337081759,0.170071437451973
-0.158718135681483,0.171453801057739
-0.152220179115116,0.172777091431098
-0.145778226829898,0.174041801292785
-0.139392038273069,0.175248423363539
-0.133061372891868,0.176397450364097
-0.126785990133535,0.177489375015196
-0.120565649445309,0.178524690037572
-0.11440011027443,0.179503888151965
-0.108289132068138,0.18042746207911
-0.102232474273672,0.181295904539745
-0.096229896338272,0.182109708254608
-0.0902811577091772,0.182869365944435
-0.0843860178336275,0.183575370329964
-0.0785442361588625,0.184228214131933
-0.0727555721321217,0.184828390071078
-0.0670197852006447,0.185376390868136
-0.0613366348116712,0.185872709243846
-0.0557058804124408,0.186317837918944
-0.050127281450193,0.186712269614167
-0.0446005973721675,0.187056497050254
-0.0391255876256037,0.18735101294794
-0.0337020116577416,0.187596310027964
-0.0283296289158206,0.187792881011063
-0.0230081988470801,0.187941218617973
-0.01773748089876,0.188041815569433
-0.0125172345180998,0.188095164586179
-0.00734721915233914,0.18810175838895
-0.00222719424871745,0.188062089698481
0.00284308074552539,0.187976651235511
0.00786384638315001,0.187845935720776
0.0128353432169167,0.187670435875014
0.0177578117995858,0.187450644418962
0.0226314926839179,0.187187054073358
0.0274566264226731,0.186880157558939
0.032233453568612,0.186530447596442
0.0369622146744951,0.186138416906603
0.0416431502930825,0.185704558210162
0.0462765009771348,0.185229364227854
0.0508625072794123,0.184713327680418
0.0554014097526755,0.18415694128859
0.0598934489496847,0.183560697773107
0.0643388654232004,0.182925089854708
0.0687378997259829,0.182250610254129
0.0730907924107926,0.181537751692107
0.0773977840303899,0.180787006889381
0.0816591151375352,0.179998868566686
0.0858750262849889,0.179173829444761
0.0900457580255114,0.178312382244342
0.0941715509118632,0.177415019686167
0.0982526454968045,0.176482234490973
0.102289282333096,0.175514519379498
0.106281701973497,0.174512367072479
0.11023014497077,0.173476270290653
0.114134851877674,0.172406721754757
0.117996063246969,0.171304214185528
0.121814019631416,0.170169240303705
0.125588961583775,0.169002292830023
0.129321129656808,0.167803864485221
0.133010764403273,0.166574447990036
0.136658106375932,0.165314536065205
0.140263396127545,0.164024621431464
0.143826874210872,0.162705196809553
0.147348781178674,0.161356754920207
0.150829357583712,0.159979788484165
0.154268843978744,0.158574790222162
0.157667480916533,0.157142252854938
0.161025508949838,0.155682669103228
0.164343168631419,0.15419653168777
0.167620700514038,0.152684333329302
0.170858345150454,0.151146566748561
0.174056343093428,0.149583724666284
0.177214934895721,0.147996299803208
0.180334361110092,0.14638478488007
0.183414862289302,0.144749672617609
0.186456678986111,0.143091455736561
0.189460051753281,0.141410626957663
0.192425221143571,0.139707679001652
0.195352427709741,0.137983104589267
0.198241912004553,0.136237396441244
0.201093914580765,0.134471047278321
0.20390867599114,0.132684549821234
0.206686436788437,0.130878396790721
0.209427437525417,0.12905308090752
0.21213191875484,0.127209094892367
0.214800121029466,0.125346931466001
0.217432284902056,0.123467083349157
0.22002865092537,0.121570043262574
0.222589459652169,0.119656303926989
0.225114951635212,0.117726358063139
0.227605367427262,0.115780698391761
0.230060947581077,0.113819817633593
0.232481932649418,0.111844208509371
0.234868563185046,0.109854363739834
0.23722107974072,0.107850776045718
0.239539722869203,0.105833938147761
0.241824733123253,0.1038043427667
0.244076351055631,0.101762482623272
0.246294817219097,0.0997088504382145
0.248480372166413,0.097643938932265
0.250633256450338,0.0955682408261604
0.252753710623633,0.0934822488406383
0.254841975239058,0.0913864556964358
0.256898290849373,0.0892813541142903
0.258922898007339,0.0871674368149389
0.260916037265717,0.0850451965191189
0.262877949177267,0.0829151259475679
0.264808874294748,0.0807777178210228
0.266709053170922,0.078633464860221
0.268578726358549,0.0764828597858998
0.27041813441039,0.0743263953187965
0.272227517879204,0.0721645641796483
0.274007117317752,0.0699978590891925
0.275757173278795,0.0678267727681665
0.277477926315092,0.0656517979373074
0.279169616979405,0.0634734273173526
0.280832485824493,0.0612921536290393
0.282466773403118,0.0591084695931048
0.284072720268039,0.0569228679302864
0.285650566972017,0.0547358413613215
0.287200554067812,0.052547882606947
0.288722922108185,0.0503594843879006
0.290217911645896,0.0481711394249194
0.291685763233706,0.0459833404387406
0.293126717424374,0.0437965801501016
0.294541014770661,0.0416113512797396
0.295928895825328,0.0394281465483919
0.297290601141136,0.0372474586767959
0.298626371270843,0.0350697803856887
0.299936446767212,0.0328956043958076
0.301221068183001,0.03072542342789
0.302480476070972,0.028559730202673
0.303714910983886,0.0263990174408941
0.304924613474501,0.0242437778632904
0.30610982409558,0.0220945041905993
0.307270783399881,0.0199516891435579
0.308407731940167,0.0178158254429037
0.309520910269196,0.0156874058093738
0.31061055893973,0.0135669229637056
0.311676918504528,0.0114548696266362
0.312720229516352,0.00935173851890314
0.313740732527961,0.00725802236124347
0.314738668092116,0.00517421387439468
0.315714276761577,0.00310080577909377
0.316667799089105,0.00103829079607833
0.317599475627461,-0.00101283835391468
0.318509546929404,-0.00305208895014769
0.319398253547695,-0.00507896827188363
0.320265836035094,-0.00709298359838506
0.321112534944362,-0.00909364220891487
0.321938590828259,-0.0110804513827356
0.322744244239545,-0.0130529183991102
0.323529735730982,-0.0150105505373012
0.324295305855329,-0.0169528550765714
0.325041195165346,-0.0188793392961834
0.325767644213795,-0.0207895104754002
0.326474893553435,-0.0226828758934843
0.327163183737027,-0.0245589428296985
0.327832755317331,-0.0264172185633054
0.328483848847108,-0.0282572103735679
0.329116704879118,-0.0300784255397485
0.329731563966122,-0.0318803713411102
0.330328666660879,-0.0336625550569155
0.330908253516151,-0.0354244839664273
0.331470565084697,-0.0371656653489082
0.332015841919278,-0.038885606483621
0.332544324572655,-0.0405838146498282
0.333056253597588,-0.0422597971267929
0.333551869546837,-0.0439130611937775
0.334031412973162,-0.0455431141300449
0.334495124429325,-0.0471494632148577
0.334943244468085,-0.0487316157274787
0.335376013642203,-0.0502890789471706
0.335793672504439,-0.0518213601531962
0.336196461607554,-0.053327966624818
0.336584621504307,-0.054808405641299
0.33695839274746,-0.0562621844819018
0.337318015889773,-0.0576888104258891
0.337663731484006,-0.0590877907525236
0.33799578008292,-0.0604586327410681
0.338314402239275,-0.0618008436707852
0.338619838505831,-0.0631139308209378
0.338912329435349,-0.0643974014707884
0.339192115580589,-0.0656507628996
0.339459437494311,-0.0668735223866351
0.339714535729277,-0.0680651872111566
0.339957650838246,-0.069225264652427
0.340189023373978,-0.0703532619897092
0.340408893889235,-0.0714486865022657
0.340617502936776,-0.0725110454693596
0.340815091069363,-0.0735398461702533
0.341001898839754,-0.0745345958842097
0.341178166800712,-0.0754948018904914
0.341344135504995,-0.0764199714683611
0.341500045505365,-0.0773096118970817
0.341646137354582,-0.0781632304559158
0.341782651605406,-0.0789803344241261
0.341909828810598,-0.0797604310809754
0.342027909522918,-0.0805030277057263
0.342137134295127,-0.0812076315776417
0.342237743679984,-0.0818737499759841
0.342329978230251,-0.0825008901800165
0.342414078498687,-0.0830885594690014
0.342490285038054,-0.0836362651222016
0.342558838401111,-0.0841435144188798
0.342619979140619,-0.0846098146382987
0.342673947809338,-0.0850346730597211
0.342720984960029,-0.0854175969624097
0.342761331145451,-0.0857580936256272
0.342795226918367,-0.0860556703286363
0.342822912831535,-0.0863098343506998
0.342844629437716,-0.0865200929710804
0.342860617289671,-0.0866859534690407
0.34287111694016,-0.0868069231238435
0.342876368941944,-0.0868825092147516
0.342876613847782,-0.0869122190210277
0.342872092210435,-0.0868955598219344
0.342863044582664,-0.0868320388967345
0.34284971151723,-0.0867211635246908
0.342832333566891,-0.0865624409850659
0.342811151284409,-0.0863553785571225
0.342786405222545,-0.0860994835201235
0.342758335934058,-0.0857942631533314
0.342727183971709,-0.0854392247360092
0.342693189888259,-0.0850338755474194
0.342656594236467,-0.0845777228668247
0.342617637569094,-0.0840702739734879
0.342576560438901,-0.0835110361466718
0.342533603398648,-0.0828995166656391
0.342489007001096,-0.0822352228096523
0.342443011799004,-0.0815176618579744
0.342395858345133,-0.080746341089868
0.342347787192244,-0.0799207677845958
0.342299038893096,-0.0790404492214206
0.342249854000451,-0.0781048926796052
0.342200473067069,-0.0771136054384119
0.34215113664571,-0.076066094777104
0.342102085289135,-0.0749618679749439
0.342053559550103,-0.0738004323111943
0.342005799981375,-0.072581295065118
0.341959047135713,-0.0713039635159777
0.341913541565875,-0.0699679449430361
0.341869523824623,-0.068572746625556
0.341827234464717,-0.0671178758428001
0.341786914038917,-0.0656028398740311
0.341748803099984,-0.0640271459985117
0.341713142200678,-0.0623903014955047
0.341680171893759,-0.0606918136442727
0.341650132731989,-0.0589311897240785
0.341623265268126,-0.0571079370141848
0.341599810054932,-0.0552215627938544
0.341580007645168,-0.0532715743423499
0.341564098591592,-0.0512574789389341
0.341552323446967,-0.0491787838628697
0.341544922764052,-0.0470349963934195
0.341542137095607,-0.044825623809846
0.341544206994393,-0.0425501733914122
0.341551373013171,-0.0402081524173806
0.341563875704701,-0.037799068167014
0.341581955621743,-0.0353224279195751
0.341605853317057,-0.0327777389543268
0.341635809343405,-0.0301645085505316
0.341672064253546,-0.0274822439874523
0.341714858600241,-0.0247304525443516
0.34176443293625,-0.0219086415004923
0.341821027814333,-0.019016318135137
0.341884883787252,-0.0160529897275486
0.341956241407765,-0.0130181635569895
0.342035341228635,-0.00991134690272287
0.342122423802621,-0.00673204704401106
0.342217729682483,-0.00347977126011699
0.342321499420983,-0.000154026830303189
0.34243397357088,0.00324567896616727
0.342555392684934,0.00671983885003211
0.342685997315907,0.0102689455420282
0.342826028016558,0.0138934917628932
0.342975725339648,0.0175939702333639
0.343135329837937,0.0213708736741782
0.343305082064187,0.0252246948060727
0.343485222571156,0.0291559263497853
0.343675991911606,0.0331650610260528
0.343877630638296,0.0372525915556129
0.344090379303989,0.0414190106592025
0.344314478461442,0.0456648110575592
0.344550168663418,0.0499904854714198
0.344797690462676,0.0543965266215222
0.345057284411978,0.0588834272286032
0.345329191064082,0.0634516800134004
0.345613650971751,0.0681017776966507
0.345910904687743,0.0728342129990918
0.34622119276482,0.0776494786414605
0.346544755755741,0.0825480673444947
0.346881834213268,0.0875304718289312
0.347232668690161,0.0925971848155074
0.347597499739179,0.0977486990249606
0.347976567913084,0.102985507178028
0.348370113764636,0.108308101995447
0.348778377846596,0.113716976197955
0.349201600711722,0.119212622506289
0.349640022912777,0.124795533641186
0.350093885002521,0.130466202323384
0.350563427533713,0.13622512127362
0.351048891059114,0.142072783212631
0.351550516131485,0.148009680861155
0.352068543303586,0.154036306939928
0.352603213128177,0.160153154169689
0.353154766158019,0.166360715271173
0.353723442945873,0.17265948296512
0.354309484044497,0.179049949972265
0.354913130006654,0.185532609013346
0.355534621385104,0.192107952809101
0.356174198732606,0.198776474080267
0.356832102601921,0.20553866554758
0.35750857354581,0.212395019931779
0.358203852117033,0.2193460299536
0.35891817886835,0.226392188333782
0.359651794352521,0.23353398779306
0.360404939122309,0.240771921052173
0.361177853730471,0.248106480831857
0.36197077872977,0.25553815985285
0.362783954672964,0.26306745083589
0.363617622112816,0.270694846501713
0.364472021602085,0.278420839571056
0.365347393693531,0.286245922764658
0.366243978939915,0.294170588803255
0.367162017893998,0.302195330407585
0.368101751108539,0.310320640298385
0.369063419136299,0.318547011196391
0.370047262530039,0.326874935822342
0.371053521842518,0.335304906896976
0.371053521842518,0.335304906896976
0.372049906070236,0.343736642357665
0.373004116206366,0.352069778281461
0.373916380798685,0.360304684598616
0.374786928394973,0.36844173123938
0.375615987543005,0.376481288134006
0.376403786790558,0.384423725212744
0.377150554685409,0.392269412405847
0.377856519775337,0.400018719643566
0.378521910608118,0.407672016856151
0.379146955731529,0.415229673973855
0.379731883693347,0.422692060926929
0.38027692304135,0.430059547645625
0.380782302323315,0.437332504060193
0.381248250087018,0.444511300100886
0.381674994880238,0.451596305697954
0.382062765250751,0.45858789078165
0.382411789746334,0.465486425282225
0.382722296914764,0.472292279129929
0.38299451530382,0.479005822255015
0.383228673461277,0.485627424587734
0.383424999934913,0.492157456058338
0.383583723272505,0.498596286597077
0.383705072021831,0.504944286134204
0.383789274730667,0.511201824599969
0.383836559946791,0.517369271924625
0.38384715621798,0.523446998038423
0.38382129209201,0.529435372871613
0.38375919611666,0.535334766354449
0.383661096839707,0.54114554841718
0.383527222808926,0.546868088990058
0.383357802572097,0.552502758003336
0.383153064676995,0.558049925387264
0.382913237671399,0.563509961072094
0.382638550103084,0.568883234988077
0.382329230519829,0.574170117065464
0.38198550746941,0.579370977234508
0.381607609499605,0.58448618542546
0.381195765158191,0.58951611156857
0.380750202992945,0.594461125594091
0.380271151551644,0.599321597432274
0.379758839382065,0.60409789701337
0.379213495031986,0.608790394267631
0.378635347049183,0.613399459125308
0.378024623981434,0.617925461516653
0.377381554376517,0.622368771371918
0.376706366782207,0.626729758621352
0.375999289746283,0.631008793195209
0.375260551816521,0.635206245023739
0.374490381540699,0.639322484037195
0.373689007466594,0.643357880165826
0.372856658141982,0.647312803339886
0.371993562114642,0.651187623489624
0.37109994793235,0.654982710545294
0.370176044142884,0.658698434437145
0.36922207929402,0.662335165095431
0.368238281933536,0.665893272450401
0.367224880609209,0.669373126432308
0.366182103868816,0.672775096971403
0.365110180260134,0.676099553997937
0.364009338330941,0.679346867442162
0.362879806629014,0.682517407234329
0.361721813702129,0.68561154330469
0.360535588098064,0.688629645583496
0.359321358364597,0.691572084000999
0.358079353049504,0.69443922848745
0.356809800700562,0.6972314489731
0.355512929865548,0.699949115388202
0.354188969092241,0.702592597663006
0.352838146928417,0.705162265727763
0.351460691921852,0.707658489512726
0.350056832620325,0.710081638948146
0.348626797571612,0.712432083964274
0.347170815323491,0.714710194491362
0.345689114423739,0.71691634045966
0.344181923420133,0.719050891799421
0.34264947086045,0.721114218440896
0.341091985292467,0.723106690314337
0.339509695263961,0.725028677349994
0.33790282932271,0.72688054947812
0.336271616016491,0.728662676628965
0.334616283893081,0.730375428732782
0.332937061500257,0.732019175719822
0.331234177385796,0.733594287520335
0.329507860097476,0.735101134064574
0.327758338183073,0.73654008528279
0.325985840190365,0.737911511105234
0.324190594667129,0.739215781462159
0.322372830161142,0.740453266283814
0.320532775220181,0.741624335500453
0.318670658392024,0.742729359042326
0.316786708224447,0.743768706839684
0.314881153265228,0.744742748822779
0.312954222062144,0.745651854921863
0.311006143162972,0.746496395067187
0.30903714511549,0.747276739189003
0.307047456467473,0.747993257217561
0.305037305766701,0.748646319083114
0.303006921560949,0.749236294715912
0.300956532397995,0.749763554046208
0.298886366825616,0.750228467004252
0.296796653391589,0.750631403520297
0.294687620643691,0.750972733524593
0.292559497129701,0.751252826947392
0.290412511397394,0.751472053718946
0.288246891994548,0.751630783769505
0.286062867468939,0.751729387029322
0.283860666368346,0.751768233428648
0.281640517240546,0.751747692897734
0.279402648633315,0.751668135366832
0.277147289094431,0.751529930766192
0.274874667171671,0.751333449026067
0.272585011412812,0.751079060076709
0.270278550365631,0.750767133848367
0.267955512577905,0.750398040271295
0.265616126597412,0.749972149275743
0.263260620971929,0.749489830791963
0.260889224249232,0.748951454750207
0.2585021649771,0.748357391080724
0.256099671703309,0.747708009713768
0.253681972975636,0.74700368057959
0.251249297341859,0.746244773608441
0.248801873349754,0.745431658730572
0.246339929547099,0.744564705876235
0.243863694481672,0.743644284975682
0.241373396701248,0.742670765959163
0.238869264753606,0.74164451875693
0.236351527186523,0.740565913299236
0.233820412547775,0.73943531951633
0.23127614938514,0.738253107338466
0.228718966246395,0.737019646695893
0.226149091679317,0.735735307518863
0.223566754231684,0.734400459737629
0.220972182451272,0.733015473282441
0.218365604885859,0.731580718083551
0.215747250083222,0.73009656407121
0.213117346591137,0.72856338117567
0.210476122957383,0.726981539327182
0.207823807729737,0.725351408455998
0.205160629455974,0.723673358492368
0.202486816683874,0.721947759366546
0.199802597961212,0.720174981008781
0.197108201835767,0.718355393349326
0.194403856855314,0.716489366318431
0.191689791567632,0.714577269846349
0.188966234520497,0.712619473863331
0.186233414261687,0.710616348299627
0.183491559338979,0.708568263085491
0.18074089830015,0.706475588151172
0.177981659692977,0.704338693426924
0.175214072065238,0.702157948842995
0.172438363964709,0.69993372432964
0.169654763939167,0.697666389817108
0.166863500536391,0.695356315235652
0.164064802304156,0.693003870515522
0.161258897790241,0.69060942558697
0.158446015542422,0.688173350380249
0.155626384108476,0.685696014825608
0.152800232036181,0.6831777888533
0.149967787873314,0.680619042393576
0.147129280167652,0.678020145376687
0.144284937466972,0.675381467732885
0.141434988319051,0.672703379392422
0.138579661271667,0.669986250285548
0.135719184872596,0.667230450342516
0.132853787669617,0.664436349493576
0.129983698210505,0.66160431766898
0.127109145043038,0.65873472479898
0.124230356714994,0.655827940813827
0.121347561774149,0.652884335643772
0.118460988768281,0.649904279219067
0.115570866245167,0.646888141469964
0.112677422752583,0.643836292326713
0.109780886838308,0.640749101719567
0.106881487050118,0.637626939578776
0.103979451935791,0.634470175834592
0.101075010043103,0.631279180417267
0.0981683899198318,0.628054323257052
0.0952598201137547,0.624795974284199
0.0923495291726487,0.621504503428958
0.089437745644291,0.618180280621581
0.0865246980764589,0.614823675792321
0.0836106150169293,0.611435058871428
0.0806957250134794,0.608014799789153
0.0777802566138866,0.604563268475749
0.0748644383659279,0.601080834861466
0.0719484988173804,0.597567868876556
0.0690326665160214,0.594024740451271
0.0661171700096281,0.590451819515861
0.0632022378459775,0.586849476000579
0.0602880985728469,0.583218079835676
0.0573749807380133,0.579558000951403
0.054463112889254,0.575869609278012
0.0515527235743462,0.572153274745754
0.048644041341067,0.56840936728488
0.0457372947371935,0.564638256825642
0.042832712310503,0.560840313298292
0.0399305226087727,0.557015906633082
0.0370309541797795,0.553165406760261
0.0341342355713007,0.549289183610082
0.0312405953311136,0.545387607112796
0.0283502620069953,0.541461047198655
0.0254634641467229,0.537509873797911
0.0225804302980735,0.533534456840814
0.0197013890088245,0.529535166257616
0.0168265688267528,0.525512371978568
0.0139561982996358,0.521466443933923
0.0110905059752505,0.51739775205393
0.00822972040137412,0.513306666268843
0.00537407012578378,0.509193556508912
0.00252378369625679,0.505058792704389
-0.000320910339429922,0.500902744785524
-0.00315978343349892,0.496725782682571
-0.00599260703817331,0.49252827632578
-0.00881915260567563,0.488310595645402
-0.011639191588229,0.484073110571689
-0.014452495438056,0.479816191034892
-0.0172588356073797,0.475540206965263
-0.0200579835484228,0.471245528293054
-0.0228497107134082,0.466932524948515
-0.0256337885545586,0.462601566861899
-0.0284099885240971,0.458253023963456
-0.0311780820742462,0.453887266183438
-0.033937840657229,0.449504663452097
-0.0366890357252681,0.445105585699684
-0.0394314387305867,0.44069040285645
-0.0421648211254072,0.436259484852647
-0.0448889543619528,0.431813201618527
-0.047603609892446,0.42735192308434
-0.05030855916911,0.422876019180338
-0.0530035736441673,0.418385859836773
-0.0556884247698409,0.413881814983896
-0.0583628839983536,0.409364254551959
-0.0610267227819284,0.404833548471212
-0.0636797125727878,0.400290066671909
-0.066321624823155,0.395734179084298
-0.0689522309852525,0.391166255638634
-0.0715713025113034,0.386586666265166
-0.0741786108535303,0.381995780894146
-0.0767739274641562,0.377393969455826
-0.0793570237954039,0.372781601880457
-0.0819276712994963,0.36815904809829
-0.0844856414286561,0.363526678039578
-0.0870307056351063,0.358884861634571
-0.0895626353710694,0.354233968813521
-0.0920812020887687,0.349574369506679
-0.0945861772404267,0.344906433644297
-0.0970773322782664,0.340230531156627
-0.0995544386545104,0.335547031973919
-0.102017267821382,0.330856306026425
-0.104465591231103,0.326158723244397
-0.106899180335898,0.321454653558085
-0.109317806587988,0.316744466897742
-0.111721241439597,0.312028533193619
-0.114109256342948,0.307307222375968
-0.116481622750263,0.302580904375039
-0.118838112113764,0.297849949121085
-0.121178495885676,0.293114726544356
-0.123502545518221,0.288375606575104
-0.125810032463622,0.283632959143581
-0.1281007281741,0.278887154180038
-0.130374404101881,0.274138561614726
-0.132630831699185,0.269387551377897
-0.134869782418236,0.264634493399803
-0.137091027711258,0.259879757610695
-0.139294339030472,0.255123713940823
-0.141479487828101,0.250366732320441
-0.143646245556369,0.245609182679798
-0.145794383667497,0.240851434949148
-0.14792367361371,0.23609385905874
-0.15003388684723,0.231336824938826
-0.152124794820279,0.226580702519659
-0.154196168985081,0.221825861731489
-0.156247780793858,0.217072672504568
-0.158279401698834,0.212321504769147
-0.16029080315223,0.207572728455478
-0.16228175660627,0.202826713493812
-0.164252033513177,0.198083829814401
-0.166201405325174,0.193344447347495
-0.168129643494483,0.188608936023347
-0.170036519473326,0.183877665772209
-0.171921804713928,0.17915100652433
-0.173785270668511,0.174429328209964
-0.175626688789298,0.16971300075936
-0.177445830528511,0.165002394102772
-0.179242467338373,0.160297878170449
-0.181016370671108,0.155599822892644
-0.182767311978938,0.150908598199609
-0.184495062714085,0.146224574021594
-0.186199394328773,0.14154812028885
-0.187880078275225,0.13687960693163
-0.189536886005663,0.132219403880185
-0.19116958897231,0.127567881064767
-0.19277795862739,0.122925408415626
-0.194361766423124,0.118292355863014
-0.195920783811736,0.113669093337183
-0.197454782245448,0.109055990768384
-0.198963533176484,0.104453418086868
-0.200446808057066,0.0998617452228877
-0.201904378339417,0.0952813421066935
-0.20333601547576,0.0907125786685374
-0.204741490918318,0.0861558248386703
-0.206120576119313,0.0816114505473442
-0.207473042530969,0.0770798257248101
-0.208798661605507,0.0725613203013199
-0.210097204795152,0.0680563042071246
-0.211368443552126,0.063565147372476
-0.212612149328651,0.0590882197276252
-0.213828093576951,0.0546258912028241
-0.215016047749249,0.0501785317283236
-0.216175783297767,0.0457465112343756
-0.217307071674727,0.0413301996512312
-0.218409684332354,0.0369299669091423
-0.219483392722869,0.0325461829383598
-0.220527968298496,0.0281792176691356
-0.221543182511458,0.0238294410317207
-0.222528806813976,0.0194972229563671
-0.223484612658275,0.0151829333733257
-0.224410371496576,0.0108869422128484
-0.225305854781104,0.00660961940518626
-0.226170833964079,0.00235133488059108
-0.227005080497727,-0.00188754143068606
-0.227808365834268,-0.00610663959839332
-0.228580461425927,-0.0103055896922796
-0.229321138724925,-0.0144840217820932
-0.230030169183486,-0.018641565937583
-0.230707324253833,-0.0227778522284971
-0.231352375388189,-0.0268925107245845
-0.231965094038775,-0.0309851714955933
-0.232545251657816,-0.0350554646112725
-0.233092619697533,-0.0391030201413703
-0.23360696961015,-0.0431274681556356
-0.23408807284789,-0.0471284387238166
-0.234535700862976,-0.0511055619156622
-0.234949625107629,-0.0550584678009205
-0.235329617034074,-0.0589867864493406
-0.235675448094532,-0.0628901479306706
-0.235986889741228,-0.0667681823146593
-0.236263713426383,-0.0706205196710551
-0.23650569060222,-0.0744467900696068
-0.236712592720963,-0.0782466235800627
-0.236884191234833,-0.0820196502721715
-0.237020257596055,-0.0857655002156816
-0.237120563256851,-0.0894838034803418
-0.237184879669443,-0.0931741901359004
-0.237212978286054,-0.0968362902521062
-0.237204630558908,-0.100469733898707
-0.237159607940227,-0.104074151145453
-0.237077681882234,-0.107649172062091
-0.236958623837151,-0.111194426718371
-0.236802205257203,-0.11470954518404
-0.23660819759461,-0.118194157528848
-0.236376372301598,-0.121647893822542
-0.236106500830387,-0.125070384134873
-0.235798354633201,-0.128461258535587
-0.235451705162263,-0.131820147094434
-0.235066323869795,-0.135146679881162
-0.234641982208021,-0.13844048696552
-0.234178451629163,-0.141701198417255
-0.233675503585445,-0.144928444306118
-0.233132909529088,-0.148121854701856
-0.232550440912316,-0.151281059674219
-0.231927869187352,-0.154405689292953
-0.231264965806418,-0.157495373627809
-0.230561502221738,-0.160549742748534
-0.229817249885534,-0.163568426724878
-0.229031980250028,-0.166551055626588
-0.228205464767445,-0.169497259523413
-0.227337474890006,-0.172406668485102
-0.226427782069935,-0.175278912581404
-0.225476157759454,-0.178113621882066
-0.224482373410786,-0.180910426456838
-0.223446200476154,-0.183668956375468
-0.222367410407781,-0.186388841707704
-0.221245774657889,-0.189069712523296
-0.220081064678702,-0.191711198891991
-0.218873051922443,-0.194312930883539
-0.217621507841333,-0.196874538567687
-0.216326203887597,-0.199395652014185
-0.214986911513456,-0.201875901292781
-0.213603402171134,-0.204314916473223
-0.212175447312853,-0.20671232762526
-0.210702818390837,-0.209067764818641
-0.209185286857308,-0.211380858123113
-0.207622624164489,-0.213651237608427
-0.206014601764603,-0.21587853334433
-0.204360991109873,-0.21806237540057
-0.20266156365252,-0.220202393846897
-0.20091609084477,-0.222298218753059
-0.199124344138843,-0.224349480188804
-0.197286094986964,-0.226355808223881
-0.195401114841354,-0.228316832928039
-0.193469175154237,-0.230232184371025
-0.191490047377836,-0.23210149262259
-0.189463502964373,-0.233924387752481
-0.187389313366071,-0.235700499830446
-0.185267250035153,-0.237429458926235
-0.183097084423842,-0.239110895109595
-0.180878587984361,-0.240744438450277
-0.178611532168932,-0.242329719018027
-0.178611532168932,-0.242329719018027
-0.176328892016927,-0.243887723705231
-0.174063712566041,-0.245439700623943
-0.171815870265979,-0.246985671673416
-0.169585241566448,-0.248525658752903
-0.167371702917156,-0.250059683761656
-0.165175130767808,-0.251587768598927
-0.162995401568111,-0.25310993516397
-0.160832391767772,-0.254626205356038
-0.158685977816497,-0.256136601074382
-0.156556036163992,-0.257641144218255
-0.154442443259965,-0.259139856686911
-0.152345075554122,-0.260632760379601
-0.15026380949617,-0.262119877195579
-0.148198521535814,-0.263601229034097
-0.146149088122761,-0.265076837794407
-0.144115385706719,-0.266546725375763
-0.142097290737394,-0.268010913677417
-0.140094679664492,-0.269469424598621
-0.138107428937719,-0.270922280038629
-0.136135415006784,-0.272369501896693
-0.134178514321391,-0.273811112072065
-0.132236603331247,-0.275247132463998
-0.13030955848606,-0.276677584971745
-0.128397256235535,-0.278102491494559
-0.126499573029379,-0.279521873931692
-0.124616385317299,-0.280935754182397
-0.122747569549002,-0.282344154145926
-0.120893002174193,-0.283747095721533
-0.11905255964258,-0.285144600808469
-0.117226118403869,-0.286536691305988
-0.115413554907766,-0.287923389113341
-0.113614745603979,-0.289304716129783
-0.111829566942213,-0.290680694254564
-0.110057895372176,-0.292051345386939
-0.108299607343573,-0.29341669142616
-0.106554579306112,-0.294776754271478
-0.104822687709499,-0.296131555822148
-0.10310380900344,-0.297481117977422
-0.101397819637642,-0.298825462636551
-0.0997045960618126,-0.30016461169879
-0.0980240147256569,-0.30149858706339
-0.0963559520788819,-0.302827410629604
-0.0947002845711944,-0.304151104296685
-0.0930568886523007,-0.305469689963886
-0.0914256407719076,-0.306783189530459
-0.0898064173797214,-0.308091624895657
-0.0881990949254489,-0.309395017958732
-0.0866035498587965,-0.310693390618937
-0.0850196586294709,-0.311986764775525
-0.0834472976871786,-0.313275162327748
-0.0818863434816261,-0.31455860517486
-0.0803366724625201,-0.315837115216112
-0.0787981610795671,-0.317110714350758
-0.0772706857824736,-0.318379424478049
-0.0757541230209462,-0.319643267497239
-0.0742483492446916,-0.320902265307581
-0.0727532409034162,-0.322156439808326
-0.0712686744468265,-0.323405812898728
-0.0697945263246293,-0.32465040647804
-0.068330672986531,-0.325890242445513
-0.0668769908822382,-0.327125342700401
-0.0654333564614575,-0.328355729141956
-0.0639996461738953,-0.329581423669431
-0.0625757364692585,-0.330802448182078
-0.0611615037972533,-0.33201882457915
-0.0597568246075865,-0.333230574759901
-0.0583615753499646,-0.334437720623581
-0.0569756324740941,-0.335640284069445
-0.0555988724296817,-0.336838286996745
-0.0542311716664338,-0.338031751304733
-0.0528724066340571,-0.339220698892662
-0.051522453782258,-0.340405151659785
-0.0501811895607433,-0.341585131505354
-0.0488484904192194,-0.342760660328622
-0.0475242328073928,-0.343931760028841
-0.0462082931749703,-0.345098452505265
-0.0449005479716583,-0.346260759657146
-0.0436008736471634,-0.347418703383737
-0.0423091466511921,-0.34857230558429
-0.0410252434334511,-0.349721588158057
-0.0397490404436468,-0.350866573004293
-0.0384804141314859,-0.352007282022248
-0.0372192409466749,-0.353143737111176
-0.0359653973389203,-0.35427596017033
-0.0347187597579289,-0.355403973098962
-0.033479204653407,-0.356527797796324
-0.0322466084750613,-0.35764745616167
-0.0310208476725983,-0.358762970094253
-0.0298017986957246,-0.359874361493324
-0.0285893379941468,-0.360981652258136
-0.0273833420175714,-0.362084864287942
-0.026183687215705,-0.363184019481995
-0.0249902500382541,-0.364279139739548
-0.0238029069349254,-0.365370246959852
-0.0226215343554254,-0.366457363042161
-0.0214460087494606,-0.367540509885727
-0.0202762065667376,-0.368619709389803
-0.0191120042569629,-0.369694983453642
-0.0179532782698432,-0.370766353976496
-0.0167999050550851,-0.371833842857618
-0.015651761062395,-0.37289747199626
-0.0145087227414794,-0.373957263291676
-0.0133706665420451,-0.375013238643117
-0.0122374689137986,-0.376065419949837
-0.0111090063064464,-0.377113829111088
-0.00998515516969505,-0.378158488026122
-0.00886579195325117,-0.379199418594194
-0.0077507931068213,-0.380236642714554
-0.00664003508011202,-0.381270182286456
-0.00553339432282987,-0.382300059209152
-0.00443074728468142,-0.383326295381895
-0.00333197041537326,-0.384348912703938
-0.00223694016461193,-0.385367933074534
-0.00114553298210398,-0.386383378392934
-5.76253175560044e-05,-0.387395270558392
0.00102690637932544,-0.38840363147016
0.00210818565883381,-0.389408483027491
0.00318633607126251,-0.390409847129638
0.004261481166905,-0.391407745675853
0.00533374449605472,-0.392402200565389
0.00640324960900506,-0.393393233697498
0.00747012005604953,-0.394380866971433
0.00853447938748151,-0.395365122286448
0.00959645115359444,-0.396346021541793
0.0106561589046818,-0.397323586636723
0.0117137261910369,-0.39829783947049
0.0127692765629534,-0.399268801942346
0.0138229335707245,-0.400236495951544
0.0148748207646438,-0.401200943397337
0.0159250616950047,-0.402162166178977
0.0169737799121005,-0.403120186195717
0.0180210989662249,-0.40407502534681
0.0190671424076711,-0.405026705531508
0.0201120337867326,-0.405975248649064
0.0211558966537029,-0.40692067659873
0.0221988545588754,-0.40786301127976
0.0232410310525435,-0.408802274591406
0.0242825496850007,-0.40973848843292
0.0253235340065404,-0.410671674703556
0.026364107567456,-0.411601855302565
0.027404393918041,-0.412529052129201
0.0284445166085888,-0.413453287082716
0.0294845991893928,-0.414374582062363
0.0305247652107465,-0.415292958967395
0.0315651382229434,-0.416208439697063
0.0326058417762768,-0.417121046150621
0.0336469994210402,-0.418030800227322
0.034688734707527,-0.418937723826417
0.0357311711860306,-0.419841838847161
0.0367744324068446,-0.420743167188804
0.0378186419202623,-0.421641730750601
0.0388639232765772,-0.422537551431803
0.0399104000260826,-0.423430651131664
0.0409581957190721,-0.424321051749435
0.0420074339058391,-0.42520877518437
0.043058238136677,-0.426093843335722
0.0441107319618793,-0.426976278102742
0.0451650389317393,-0.427856101384684
0.0462212825965506,-0.4287333350808
0.0472795865066065,-0.429608001090343
0.0483400742122005,-0.430480121312565
0.049402869263626,-0.43134971764672
0.0504680952111765,-0.432216811992059
0.0515358756051454,-0.433081426247835
0.0526063339958261,-0.433943582313302
0.0536795939335121,-0.434803302087712
0.0547557789684968,-0.435660607470317
0.0558350126510737,-0.43651552036037
0.0569174185315361,-0.437368062657123
0.0580031201601776,-0.43821825625983
0.0590922410872915,-0.439066123067743
0.0601849048631713,-0.439911684980114
0.0612812350381104,-0.440754963896197
0.0623813551624023,-0.441595981715244
0.0634853887863403,-0.442434760336507
0.0645934594602181,-0.44327132165924
0.0657056907343288,-0.444105687582695
0.0668222061589661,-0.444937880006123
0.0679431292844233,-0.445767920828779
0.0690685836609939,-0.446595831949915
0.0701986928389713,-0.447421635268784
0.071333580368649,-0.448245352684638
0.0724733698003203,-0.449067006096729
0.0736181846842787,-0.449886617404311
0.0747681485708178,-0.450704208506636
0.0759233850102307,-0.451519801302956
0.0770840175528112,-0.452333417692525
0.0782501697488525,-0.453145079574595
0.0794219651486481,-0.453954808848419
0.0805995273024914,-0.454762627413249
0.0817829797606759,-0.455568557168337
0.082972446073495,-0.456372620012938
0.0841680497912421,-0.457174837846303
0.0853699144642108,-0.457975232567685
0.0865781636426943,-0.458773826076336
0.0877929208769862,-0.45957064027151
0.0890143097173799,-0.460365697052458
0.0902424537141688,-0.461159018318434
0.0914774764176464,-0.46195062596869
0.092719501378106,-0.462740541902479
0.0939686521458412,-0.463528788019053
0.0952250522711454,-0.464315386217665
0.096488825304312,-0.465100358397569
0.0977600947956343,-0.465883726458015
0.099038984295406,-0.466665512298258
0.10032561735392,-0.467445737817549
0.101620117521471,-0.468224424915142
0.102922608348351,-0.469001595490289
0.104233213384854,-0.469777271442242
0.105552056181274,-0.470551474670255
0.106879260287903,-0.47132422707358
0.108214949255036,-0.472095550551469
0.109559246632966,-0.472865467003176
0.110912275971985,-0.473633998327952
0.112274160822389,-0.474401166425051
0.113645024734469,-0.475166993193725
0.11502499125852,-0.475931500533227
0.116414183944835,-0.47669471034281
0.117812726343707,-0.477456644521726
0.119220742005431,-0.478217324969227
0.120638354480298,-0.478976773584567
0.122065687318603,-0.479735012266998
0.123502864070639,-0.480492062915773
0.1249500082867,-0.481247947430144
0.126407243517079,-0.482002687709364
0.127874693312069,-0.482756305652686
0.129352481221964,-0.483508823159363
0.130840730797057,-0.484260262128646
0.132339565587642,-0.485010644459789
0.133849109144012,-0.485759992052044
0.135369485016461,-0.486508326804664
0.136900816755282,-0.487255670616902
0.138443227910768,-0.48800204538801
0.139996842033214,-0.488747473017241
0.141561782672911,-0.489491975403847
0.143138173380155,-0.490235574447082
0.144726137705237,-0.490978292046198
0.146325799198453,-0.491720150100447
0.147937281410094,-0.492461170509082
0.149560707890455,-0.493201375171356
0.151196202189829,-0.493940785986521
0.152843887858509,-0.49467942485383
0.15450388844679,-0.495417313672536
0.156176327504963,-0.496154474341892
0.157861328583323,-0.49689092876115
0.159559015232163,-0.497626698829562
0.161269511001777,-0.498361806446381
0.162992939442458,-0.499096273510861
0.1647294241045,-0.499830121922253
0.166479088538195,-0.500563373579811
0.168242056293837,-0.501296050382786
0.170018450921721,-0.502028174230432
0.171808395972138,-0.502759767022001
0.173612014995384,-0.503490850656747
0.17542943154175,-0.50422144703392
0.177260769161531,-0.504951578052775
0.179106151405019,-0.505681265612564
0.180965701822509,-0.506410531612539
0.182839543964294,-0.507139397951953
0.184727801380668,-0.507867886530059
0.186630597621922,-0.50859601924611
0.188548056238352,-0.509323817999357
0.190480300780251,-0.510051304689054
0.192427454797911,-0.510778501214454
0.194389641841628,-0.511505429474809
0.196366985461692,-0.512232111369371
0.198359609208399,-0.512958568797394
0.200367636632042,-0.513684823658129
0.202391191282914,-0.51441089785083
0.204430396711309,-0.51513681327475
0.20648537646752,-0.51586259182914
0.20855625410184,-0.516588255413254
0.210643153164563,-0.517313825926345
0.212746197205983,-0.518039325267664
0.214865509776392,-0.518764775336464
0.217001214426084,-0.519490198031999
0.219153434705354,-0.52021561525352
0.221322294164493,-0.520941048900281
0.223507916353796,-0.521666520871535
0.225710424823556,-0.522392053066532
0.227929943124066,-0.523117667384528
0.23016659480562,-0.523843385724773
0.232420503418511,-0.524569229986521
0.234691792513033,-0.525295222069025
0.236980585639479,-0.526021383871536
0.239287006348143,-0.526747737293308
0.241611178189318,-0.527474304233594
0.243953224713297,-0.528201106591645
0.246313269470374,-0.528928166266715
0.248691436010843,-0.529655505158056
0.251087847884996,-0.530383145164921
0.253502628643128,-0.531111108186563
0.255935901835531,-0.531839416122234
0.258387791012499,-0.532568090871187
0.260858419724326,-0.533297154332674
0.263347911521304,-0.534026628405949
0.265856389953728,-0.534756534990263
0.268383978571891,-0.535486895984869
0.270930800926086,-0.536217733289021
0.273496980566607,-0.536949068801971
0.276082641043747,-0.537680924422971
0.278687905907799,-0.538413322051274
0.281312898709058,-0.539146283586132
0.283957742997816,-0.539879830926799
0.286622562324366,-0.540613985972527
0.289307480239003,-0.541348770622569
0.29201262029202,-0.542084206776177
0.29473810603371,-0.542820316332604
0.297484061014367,-0.543557121191102
0.300250608784284,-0.544294643250925
0.303037872893754,-0.545032904411325
0.305845976893071,-0.545771926571554
0.308675044332528,-0.546511731630865
0.31152519876242,-0.547252341488511
0.314396563733038,-0.547993778043745
0.317289262794677,-0.548736063195819
0.32020341949763,-0.549479218843985
0.323139157392191,-0.550223266887497
0.326096600028653,-0.550968229225608
0.329075870957309,-0.551714127757568
0.332077093728453,-0.552460984382633
0.335100391892378,-0.553208821000053
0.338145888999378,-0.553957659509082
0.341213708599747,-0.554707521808972
0.344303974243776,-0.555458429798977
0.347416809481761,-0.556210405378348
0.350552337863994,-0.556963470446338
0.353710682940769,-0.5577176469022
0.35689196826238,-0.558472956645187
0.360096317379119,-0.559229421574551
0.363323853841281,-0.559987063589545
0.366574701199158,-0.560745904589421
0.369848983003044,-0.561505966473433
0.373146822803233,-0.562267271140832
0.376468344150017,-0.563029840490872
0.379813670593691,-0.563793696422805
0.383182925684548,-0.564558860835884
0.386576232972881,-0.565325355629361
0.389993716008984,-0.566093202702489
0.39343549834315,-0.566862423954521
0.396901703525673,-0.567633041284709
0.400392455106845,-0.568405076592307
0.403907876636961,-0.569178551776566
0.407448091666314,-0.569953488736739
0.411013223745197,-0.57072990937208
0.414603396423904,-0.571507835581839
0.418218733252728,-0.572287289265272
0.421859357781963,-0.573068292321629
0.425525393561901,-0.573850866650164
0.429216964142837,-0.574635034150129
0.432934193075065,-0.575420816720776
0.436677203908876,-0.57620823626136
0.440446120194566,-0.576997314671131
0.444241065482426,-0.577788073849343
0.448062163322751,-0.578580535695249
0.451909537265834,-0.579374722108101
0.455783310861969,-0.580170654987152
0.459683607661449,-0.580968356231654
0.463610551214568,-0.58176784774086
0.467564265071618,-0.582569151414023
0.471544872782893,-0.583372289150395
0.475552497898687,-0.584177282849229
0.479587263969293,-0.584984154409778
0.483649294545005,-0.585792925731294
0.487738713176116,-0.58660361871303
0.491855643412919,-0.587416255254239
0.496000208805709,-0.588230857254173
0.500172532904777,-0.589047446612085
0.504372739260419,-0.589866045227228
0.508600951422926,-0.590686674998853
0.512857292942593,-0.591509357826215
0.517141887369714,-0.592334115608565
0.52145485825458,-0.593160970245156
0.525796329147487,-0.593989943635241
0.530166423598727,-0.594821057678072
0.534565265158594,-0.595654334272903
0.538992977377381,-0.596489795318985
0.543449683805382,-0.597327462715572
0.54793550799289,-0.598167358361916
0.552450573490199,-0.599009504157269
0.556995003847602,-0.599853922000885
0.561568922615392,-0.600700633792016
0.566172453343863,-0.601549661429914
0.570805719583308,-0.602401026813833
0.575468844884021,-0.603254751843024
0.580161952796295,-0.604110858416742
0.584885166870424,-0.604969368434237
0.589638610656701,-0.605830303794764
0.594422407705419,-0.606693686397573
0.599236681566873,-0.60755953814192
0.604081555791354,-0.608427880927055
0.608957153929158,-0.609298736652231
0.613863599530577,-0.610172127216702
0.618801016145904,-0.611048074519719
0.623769527325433,-0.611926600460536
0.628769256619458,-0.612807726938405
0.633800327578272,-0.613691475852579
0.638862863752169,-0.614577869102309
0.643956988691441,-0.615466928586851
