-0.85747106058479,-0.682139245951803
-0.721715156034886,0.0503783252160088
-0.580645864265414,0.547601188450641
-0.441015909642934,0.114688720725483
-0.301385955020454,-0.318223746999674
0.574879517926019,-0.0124637183126841
0.0742483494191251,-0.175907198982543
-0.426382819087769,-0.339350679652402
-0.960925846197973,-0.686087727922234
-0.118213089715025,0.361172792960613
