0.461519064335772,0.0808606828733509
0.561065729850664,0.181730963126365
0.553799274351423,0.180328838009501
0.546616680945301,0.178939466699364
0.539517533095481,0.177562802583588
0.532501414265147,0.176198799049806
0.525567907917482,0.174847409485652
0.51871659751567,0.17350858727876
0.617945441400877,0.283919506715739
0.505258898402338,0.170868458487297
0.498651676617186,0.169567058677994
0.492124984630621,0.168278039776488
0.485678405905827,0.167001355170413
0.479311523905987,0.165736958247402
0.473023922094285,0.16448480239509
0.466815183933905,0.163244841001111
0.460684892888029,0.162017027453097
0.454632632419843,0.160801315138683
0.448657985992528,0.159597657445503
0.442760537069269,0.158406007761191
0.43693986911325,0.15722631947338
0.431195565587654,0.156058545969704
0.425527209955664,0.154902640637796
0.521799896145813,0.261737925580622
0.414416676225238,0.152626248039823
0.408973665053169,0.151505667549026
0.403604935627441,0.150396768780532
0.398310071411238,0.149299505121975
0.393088655867742,0.148213829960991
0.387940272460138,0.147139696685212
0.38286450465161,0.146077058682272
0.377860935905339,0.145025869339805
0.372929149684512,0.143986082045445
0.36806872945231,0.142957650186825
0.363279258671917,0.14194052715158
0.358560320806518,0.140934666327343
0.353911499319296,0.139940021101748
0.250439353504241,0.0439499796157563
0.344822539332114,0.137984190997019
0.340381567758523,0.137022912893152
0.336009046415843,0.136072663938463
0.331704558767257,0.135133397520584
0.4234507067651,0.238996202452692
0.319195132617902,0.132381027364152
0.216701345885576,0.0293335257281825
0.209248287315306,0.0358407294373166
0.307283014390006,0.129725821993834
0.303443099569222,0.128862128187378
0.299667886148001,0.128009044018804
0.295956957589527,0.127166522875744
0.292309897356983,0.126334518145833
0.288726288913553,0.125512983216705
0.281747761246769,0.123901136311332
0.278352008949782,0.123110731110354
0.275018042294643,0.122330609260694
0.271745444744536,0.121560724149986
0.268533799762644,0.120801029165863
0.265382690812151,0.120051477695959
0.35679275850544,0.229803921789934
0.259260414858097,0.118582618849345
0.256288414780902,0.117863218247901
0.253375284587841,0.117153774711212
0.250520607742096,0.116454241626911
0.247723967706852,0.115764572382632
0.244984947945292,0.115084720366009
0.242303131920599,0.114414638964675
0.237109444934551,0.113103601558411
0.234596740899562,0.112462552328748
0.232139574454176,0.111831087264911
0.34649402566464,0.211273511779763
0.227390188184942,0.110596723185244
0.225097135287463,0.109993730944683
0.330331430087453,0.225691810778601
0.320435036723244,0.215157020789625
0.214431611698778,0.107118803239951
0.212455539403069,0.106571498112056
0.210530839328798,0.106033311026323
0.208657094939148,0.105504195370387
0.206833889697302,0.104984104531881
0.205060807066445,0.104472991898439
0.20333743050976,0.103970810857695
0.201663343490431,0.103477514797282
0.20003812947164,0.102993057104835
0.313252186891361,0.208217575456565
0.196932654288411,0.102050470374372
0.195451560050339,0.101592248111623
0.194017672665541,0.101142677767375
0.1926305755972,0.100701712729262
0.189995086262622,0.0998454121219724
0.188745860922753,0.0994299833280644
0.187541759752076,0.099022973390826
0.185267263771029,0.0982340236368926
0.184196035887027,0.0978519905954653
0.18316826602495,0.0974781899612427
0.182183537647983,0.0971125751218586
0.181241434219309,0.0967550994649466
0.179483436059572,0.0960643792490746
0.178666708254877,0.0957310414653821
0.177890939251209,0.095405656414697
0.177155712511752,0.0950881774846531
0.17646061149969,0.0947785580628843
0.175805219678205,0.0944767515370242
0.175189120510481,0.0941827112947067
0.174611897459702,0.0938963907235655
0.174073133989052,0.0936177432112345
0.173572413561714,0.0933467221453475
0.173109319640872,0.0930832809135382
0.172683435689709,0.0928273729034404
0.172294345171409,0.0925789515026879
0.171941631549155,0.0923379700989146
0.171624878286132,0.0921043820797542
0.171343668845521,0.0918781408328405
0.171097586690509,0.0916591997458073
0.170886215284276,0.0914475122062884
0.170565938570889,0.0910457113203286
0.170379506410827,0.0906723652760315
0.170335440696252,0.0904962462885909
0.17032358650956,0.0903271011744674
0.170343527313933,0.0901648833212947
0.170394846572556,0.0900095461167066
0.170477127748611,0.089861042948337
0.0533374416421897,-0.00409790997701347
0.170732909705756,0.0895843522707881
0.170905577413212,0.0894560715368765
0.171107540890835,0.0893344383897184
0.171338383601809,0.0892194062169478
0.171597689009318,0.0891109284061983
0.172200021766672,0.088913449421298
0.172542216042885,0.0888243550224148
0.172911206868367,0.0887416285360879
0.173306577706302,0.0886652233499512
0.173727912019872,0.0885950928516384
0.174174793272261,0.0885311904287832
0.174646804926654,0.0884734694690197
0.175143530446233,0.0884218833599814
0.175664553294183,0.0883763854893023
0.176209456933686,0.0883369292446159
0.176777824827927,0.0883034680135564
0.177369240440088,0.0882759551837572
0.177983287233354,0.0882543441428524
0.178619548670908,0.0882385882784756
0.179277608215934,0.0882286409782606
0.179957049331615,0.0882244556298413
0.180657455481135,0.0882259856208514
0.181378410127677,0.0882331843389248
0.0809737178654643,-0.0147586815454547
0.184459382947742,0.0883177342345263
0.300816108533776,0.202012012446933
0.0697424940784577,-0.00842015282109596
0.186965461477521,0.0884383842844471
0.187835808774851,0.0884892547738428
0.188722955737856,0.0885453744790059
0.189626485829719,0.0886066967875701
0.190545982513624,0.0886731750871692
0.191481029252754,0.0887447627654371
0.192431209510294,0.0888214132100075
0.193396106749425,0.0889030798085143
0.0887923301325377,-0.0264826611751478
0.1953683860252,0.0890812750178718
0.197394534785548,0.0892789754945802
0.198426768880396,0.0893850236772754
0.201595111581837,0.0897314006543306
0.202673717498562,0.0898561150817848
0.203762875028715,0.0899853795395133
0.20486216763548,0.0901191474151498
0.207089491931581,0.0904000069706822
0.208216690547283,0.0905470054258455
0.209352358092331,0.0906983208494521
0.210496078029909,0.0908539066291357
0.212806008935389,0.091177702807269
0.213971386829658,0.0913458199809863
0.216320884817171,0.0916942594358913
0.217504171836783,0.0918744884923464
0.218692595491209,0.0920586616183152
0.219885739243634,0.0922467322014313
0.221083186557241,0.0924386536293285
0.222284520895213,0.0926343792896406
0.223489325720734,0.0928338625700014
0.340452717357549,0.205725092377399
0.225907680687158,0.0932439155414043
0.227120397754429,0.093454392007714
0.229550828373003,0.0938860118397189
0.230767708850674,0.0941070619806816
0.333219477888992,0.187571614029072
0.233202717458702,0.0945594096506966
0.234420012515426,0.0947906139550165
0.235636612691535,0.095025109755723
0.236852101450213,0.09526285044045
0.238066062254642,0.0955037893968311
0.137118632729969,-0.00399336382074487
0.240487733853492,0.0959950756750912
0.241694611574279,0.0962453297722378
0.138495376374228,-0.0218127594655285
0.244098368174496,0.0967548268207328
0.245294413980293,0.0970139765473489
0.246486016074127,0.0972759982590558
0.247672757919182,0.0975408453434872
0.140507022757359,-0.0200913427506388
0.250029994715688,0.0980788291810589
0.252362792075279,0.0986275551611343
0.254667817703424,0.0991866503847837
0.255808874776164,0.0994699699320333
0.351332631456879,0.212405783606028
0.258065994754894,0.100043919835551
0.259181224587252,0.100334456967086
0.26028701226585,0.100627306735318
0.261382941253872,0.10092242252788
0.262468595014501,0.101219757732406
0.26354355701092,0.101519265736529
0.264607410706314,0.101820899927884
0.265659739563866,0.102124613694104
0.266700127046759,0.102430360422823
0.267728156618177,0.102738093501675
0.156786525455155,-0.00951928196726325
0.270733932495419,0.103672744715366
0.170532414375705,-0.0054174214994602
0.27266835701457,0.10430492271511
0.273613491843994,0.104623595035068
0.165591552934941,-0.00892515985199409
0.277237129101626,0.105914418826933
0.278101730216936,0.106240925341077
0.278948974978974,0.106568858856958
0.279778446850924,0.106898172762212
0.280589729295969,0.107228820444471
0.281382405777293,0.10756075529137
0.181698555248289,-0.00640917934384427
0.28291027470151,0.108228300029623
0.283644634070772,0.108563816696244
0.284358721329046,0.10890043407804
0.285052119939517,0.109238105562645
0.285724413365368,0.109576784537692
0.286375185069783,0.109916424390815
0.287004018515945,0.110256978509649
0.287610497167038,0.110598400281826
0.288194204486246,0.110940643094981
0.288754723936751,0.111283660336747
0.289804533084392,0.111971831656649
0.290292989707893,0.112316892510052
0.393692016372524,0.211434848231815
0.291607569335326,0.113355416495676
0.3848957563486,0.225042790593367
0.292687216325007,0.114397973759733
0.293520684182894,0.115443305768333
0.29374185648998,0.115792148856722
0.192291012010707,0.0131667775354805
0.294096726414941,0.116490153987589
0.400797596467372,0.233662646868524
0.294332186508843,0.117188273641464
0.294404096527107,0.117537259883615
0.294444904477156,0.117886134919418
0.294431548025347,0.118583364922521
0.294376550549856,0.118931626665088
0.294167834415618,0.119627210570422
0.294013282683239,0.119974439508456
0.293824713124931,0.12032123095358
0.293601709203877,0.120667538293428
0.392018974986405,0.217099835702061
0.293050732126269,0.12135851420783
0.401862276114465,0.233792119063353
0.198613604109203,0.00579234447598675
0.291955595368856,0.122390181980708
0.291517237998185,0.122732605829208
0.291041530507055,0.123074219285869
0.290528056358648,0.123414975738324
0.289976399016148,0.123754828574207
0.289386141942738,0.124093731181151
0.383846962433452,0.228275200632953
0.288088162455924,0.124768499258761
0.286630785603675,0.125438907072223
0.285841281823471,0.125772359348983
0.28501067909146,0.126104581722608
0.284138560870823,0.126435527580731
0.167501440736634,0.0203278996729868
0.282268111816412,0.127093403301007
0.186068135444078,0.0103775048836281
0.280226602365705,0.127745613610881
0.180609246821273,0.0343528391519985
0.275617073097281,0.129031546403707
0.274352571322286,0.129348906065835
0.273042388690501,0.129664523088799
0.270283314709301,0.130290342767772
0.268833590286252,0.130600452199047
0.267336518859148,0.130908632541694
0.265791683891174,0.131214837183346
0.264198668845513,0.131519019511638
0.262557057185348,0.131821132914201
0.260866432373863,0.132121130778672
0.257336477149666,0.132714593443867
0.255496313663322,0.13300796501986
0.253605470878393,0.133299034608294
0.251663532258061,0.133587755596804
0.24967008126551,0.133874081373024
0.247624701363925,0.134157965324586
0.245526976016488,0.134439360839125
0.243376488686383,0.134718221304275
0.241172822836794,0.134994500107669
0.122306666357377,0.0153791680880441
0.236604289431897,0.135539126279727
0.234238588802956,0.135807380423657
0.231818043507266,0.136072866456367
0.229342237008009,0.136335537765491
0.22422317425153,0.136852249763513
0.221579084920675,0.13710619722768
0.315101943096091,0.230991420913039
0.216119707669653,0.137605042024492
0.210429288720771,0.13809150923017
0.207496397267591,0.138329984705417
0.0930032836518172,0.0315549671825008
0.198341996551302,0.1390258192724
0.195170565737567,0.13925107813392
0.191938458741652,0.139472916311093
0.188645259026741,0.139691287191553
0.178394938199866,0.140325129928989
0.171248290878666,0.140729500710331
0.167579787576632,0.14092608895082
0.163847275797887,0.141118883608031
0.0633568901084094,0.0491402083729871
0.156188560662998,0.141492905723158
0.15226152423322,0.141674039956342
0.148268813179466,0.141851194156783
0.144210010964918,0.142024321712117
0.135892466906176,0.142358310437995
0.13163289198835,0.142519078383807
0.127305559762464,0.142675633235047
0.122910053691703,0.142827928379348
0.11844595723925,0.142975917204343
0.109310327042003,0.143258789446953
0.0998953368761905,0.143523877063948
0.0950820404630317,0.143649635106924
0.0901976544472822,0.143770807156397
0.0852417622921261,0.143887346600002
0.0802139474607465,0.143999206825372
0.0751137934163273,0.144106341220141
0.064694801541104,0.144306246068411
0.0539814543719248,0.144486688245882
0.162322383653566,0.262012988488194
0.0373522280477011,0.144720043287932
0.031658364973573,0.144787692992709
0.0200419581553378,0.144907509764205
0.0141185813375977,0.144959583606192
0.00811786686502106,0.145006372269184
-0.00411724119190844,0.145083907608716
-0.0166666983099821,0.14513974288387
-0.0230603491089892,0.145159406466391
-0.0295338367837314,0.145173505195719
-0.0360875778710255,0.145181992459487
0.0625052580656968,0.26281294541302
-0.0494374864305345,0.145181946140883
-0.0494374864305345,0.145181946140883
-0.0628234101916573,0.145160206485328
-0.0694218354336535,0.145141626721091
-0.0759574939903036,0.145117888976663
0.00927134374036459,0.26056725482892
-0.0888412842686575,0.145054885479588
-0.0951898026009073,0.145015592693116
0.00811101995895841,0.258906363835831
-0.107701052177918,0.144921357459741
-0.113864170033224,0.144866387979014
-0.119965874340095,0.14480616589971
-0.231458975894793,0.044364918250096
-0.131985815529625,0.144669909877724
-0.137904439022829,0.144593848901217
-0.047091947908355,0.252780255100833
-0.149559958332481,0.144425793432613
-0.155297240759474,0.144333771906691
-0.160974462774944,0.144236403163807
-0.166591817684162,0.144133673687047
-0.290689869528914,0.0345846947017762
-0.177647699404938,0.143912078464254
-0.183086612827042,0.143793185684395
-0.188466432363986,0.143668878103012
-0.0906578417265589,0.241799518405235
-0.199049563003489,0.143403964468023
-0.204253260716594,0.143263331380592
-0.209398637765632,0.143117229423988
-0.214485887455875,0.142965645081297
-0.219515203092598,0.142808564835608
-0.224486777981073,0.142645975170008
-0.339587213825135,0.045853506096526
-0.132365309145513,0.24569264419692
-0.248485306884279,0.141749912451416
-0.253114496693999,0.141553982411192
-0.257687298892381,0.141352448332672
-0.266664513676226,0.14093251399309
-0.275418497677998,0.140490001297371
-0.27971226139879,0.14026024427368
-0.283950797339883,0.140024802110217
-0.405516014955636,0.0314304782305056
-0.177301351491141,0.236481332300643
-0.296336971537696,0.139284229612079
-0.182177347393594,0.24238486749044
-0.308233054708047,0.138492004247157
-0.315894081432218,0.137934977741275
-0.323341156027421,0.137354724067465
-0.326984944539842,0.137055853250306
-0.33057582493584,0.136751135090428
-0.437398757132412,0.0260844732904169
-0.34774337085404,0.135139361058317
-0.354246798090913,0.134453246954507
-0.369609919726191,0.132633504283705
-0.372530585388532,0.132251540629455
-0.375401049208273,0.131863540395713
-0.378221504490685,0.131469490065568
-0.380992144541043,0.131069376122106
-0.383713162664618,0.130663185048415
-0.267006386290514,0.239201100364567
-0.389007106352515,0.129832517442697
-0.394104881996559,0.128977379113115
-0.39658069006532,0.128540599634595
-0.401387113222681,0.127648552465534
-0.502198456912406,0.0196889666723968
-0.408236665087421,0.126264058428205
-0.412565232977897,0.125309955850183
-0.414658756833149,0.124823532044495
-0.416705365035441,0.124330841871805
-0.418705250890046,0.123831871815201
-0.420658607702237,0.123326608357772
-0.422565628777288,0.122815037982603
-0.42442650742047,0.122297147172784
-0.429734221811538,0.120705416966298
-0.542725769970202,0.0235148810727216
-0.433045529842915,0.119612413511993
-0.336057040322793,0.225076191523323
-0.437675605651438,0.117924863017319
-0.34283553136604,0.235560954723316
-0.440539987259611,0.116767641448081
-0.333869986730021,0.223855470273739
-0.443228304572323,0.115584543396097
-0.444506922381064,0.114983256896794
-0.449188965088299,0.112512879016225
-0.45025233515954,0.111878908990681
-0.451273235599101,0.111238361709152
-0.452251859712253,0.110591223654725
-0.454936007145992,0.108610129684937
-0.455747459006242,0.107936493369797
-0.570549068417156,-0.00251275766653969
-0.458582101499544,0.105175229365522
-0.350544759166101,0.215212601135845
-0.459755430051397,0.103754376880382
-0.46028177272208,0.103033848207869
-0.460768158729631,0.10230656655951
-0.462607504504959,0.0985683905880999
-0.463379478326693,0.0954549175206938
-0.57918742900681,0.00230754171913014
-0.357813017854391,0.209065985224128
-0.463273965767263,0.0897406256703061
-0.462674822891112,0.0871871723366296
-0.462094619343196,0.0854497760719046
-0.460507311324038,0.081890271232153
-0.367343806905764,0.19653273773395
-0.459503299737163,0.0800679463865292
-0.458361111688336,0.0782170957433417
-0.457082293619742,0.0763376111672919
-0.456392131591215,0.0753870973621628
-0.455668391973564,0.0744293845230811
-0.454911268072064,0.0734644591331345
-0.454120953191987,0.0724923076754107
-0.453297640638606,0.0715129166329972
-0.569700860389866,-0.0467116111940703
-0.449678279797502,0.0675226862782009
-0.448692878456696,0.0665068945586546
-0.44662675555536,0.0644533355441588
-0.444434827729544,0.0623703856497098
-0.442118641421433,0.0602579367400093
-0.437119679127059,0.0559441093336583
-0.435794693317944,0.0548470466361341
-0.434439996025165,0.0537425145664105
-0.431642240209711,0.0515109882427164
-0.430199568297582,0.0503839669549211
-0.428727958122882,0.0492494222272771
-0.427227602990884,0.0481073405428723
-0.425698696206861,0.0469577083847942
-0.424141431076086,0.0458005122361304
-0.312231050709485,0.16201364802256
-0.419301418655981,0.0422834046775023
-0.415936495905489,0.039900598542096
-0.414213140104936,0.0386977345947596
-0.412462779094542,0.0374872120384513
-0.407051597857045,0.0338095575465712
-0.405195149060018,0.0325682653852517
-0.401404328720808,0.0300624889650996
-0.397510900089879,0.0275256996355143
-0.391481749438789,0.0236621298899834
-0.287756996874747,0.128211738138039
-0.387338565763117,0.0210473351948836
-0.385230428868616,0.0197281728371728
-0.274002864675453,0.114364076471856
-0.380942031492649,0.0170662505168682
-0.265848750963773,0.110426103885123
-0.276876460876094,0.111801997438665
-0.365195640067302,0.00750032826873326
-0.362855145602628,0.00610194402339789
-0.358107832244504,0.00328117242047395
-0.353273375016501,0.000428306555130119
-0.232302111012542,0.092033966490495
-0.333095036249375,-0.0113062622364176
-0.327848056304735,-0.014321221443341
-0.325195270223488,-0.0158409729411759
-0.319832072369504,-0.0189050873101542
-0.314393328962021,-0.0220021069562925
-0.3116461109389,-0.0235629900505774
-0.308880586443223,-0.0251321400148893
-0.303295391255293,-0.0282952946212435
-0.300476107173586,-0.0298893262971104
-0.297639289840416,-0.0314916789106536
-0.270429713887831,-0.0306214779051433
-0.286120554098557,-0.0379845690798365
-0.177567210602461,0.0377910870647878
-0.277306875110169,-0.0429422688810294
-0.252628162280189,-0.0967812829465843
-0.253966124480517,-0.00605605927667118
-0.262300251347567,-0.0513738635680154
-0.26565362142226,-0.0310391362529005
-0.240665538745146,-0.0635353342198816
-0.254000124497506,-0.108252132845348
-0.200895116014455,-0.0811717690496317
-0.179617674749645,-0.0531706421159942
-0.221585967708946,-0.0742943359626182
-0.212876364205011,-0.107627864387932
-0.211874723825723,-0.0797907314505297
-0.208613529993857,-0.0816402711135518
-0.314968991863449,-0.181870782871706
-0.201911870236926,-0.13091404584642
-0.189078577581834,-0.08506705145805
-0.183014920778384,-0.0956605059601631
-0.200815314910093,-0.0569511837444543
-0.070887247037444,-0.00897993101136044
-0.148095920422232,-0.119708276254407
-0.206249480670642,-0.0953352876602005
-0.214808513013475,-0.124388141325984
-0.168577140504448,-0.102199851195328
-0.174306681744754,-0.0836316934196174
-0.154970039584418,-0.112428893748597
-0.116600096202927,-0.0775047003855806
-0.144641737477618,-0.118454958549841
-0.130175182265276,-0.120226685087043
-0.080835089630057,-0.162212811637488
-0.123772697593048,-0.130750001301239
-0.139588048537376,-0.144713890198979
-0.113242398300019,-0.137019709164661
-0.109719397704053,-0.139127803600435
-0.0629592410463135,-0.133462692504858
-0.0991143996951048,-0.145506851588431
-0.0920163372243294,-0.149805322650113
-0.0468447319986086,-0.106810052432854
-0.230741277137339,-0.226765490593756
-0.0425863001704736,-0.171867462027967
-0.0315980899391015,-0.19582493301647
-0.0691322823225874,-0.214741262830963
-0.0842820522948551,-0.195976682116781
-0.0101306089495105,-0.171930573013379
0.0827114638378223,-0.0885488507343661
0.0327926732572815,-0.242380276271396
0.0124437425592716,-0.216316951732892
0.0574526942650003,-0.253952716258934
0.0473555234384701,-0.2046327395411
0.0233090540344533,-0.223651586555876
0.122839842389986,-0.110609554097104
0.0341651490169361,-0.231072788430204
0.0377808971436678,-0.233565822589758
0.163402386139304,-0.141494533012693
0.0486165846477528,-0.241103014909529
0.0522239838395013,-0.243634820686196
0.0630299852120845,-0.251288652263202
0.0702185562388584,-0.256440020356166
0.077392979172459,-0.261630565573612
0.0845517075707023,-0.266860396050841
0.0916931949914043,-0.27212961992315
0.0952569900719948,-0.274779038174741
0.109461335739583,-0.285475735345297
0.116530301506692,-0.290883687665864
0.127087891955354,-0.299070424946354
0.134093458224944,-0.304578280030418
0.137585813235064,-0.307347257192308
0.154935574828001,-0.32134317987683
0.168669369636772,-0.332721973289276
0.172080927674804,-0.335592069736772
0.175483342836625,-0.338472352455846
0.178876421816964,-0.341362834963412
0.182259971310545,-0.34426353077638
0.185633798012098,-0.347174453411664
0.0994346265707832,-0.445465124137906
0.199028010792554,-0.3589206825142
0.202350323954864,-0.361882942014746
0.205661754493507,-0.364855509439082
0.20896210910321,-0.367838398304119
0.212251194478699,-0.370831622126771
0.115560304639119,-0.491427106439456
0.228520817158391,-0.385953238696172
0.231738227717867,-0.389008756119667
0.234943015906219,-0.392074703119163
0.34321034497021,-0.303166777086782
0.247632078842922,-0.404443057215398
0.250770855596557,-0.407561354848581
0.260149863480471,-0.41667347777637
0.152280954896215,-0.515654911209316
0.153602019015814,-0.524605727477264
0.156152739671212,-0.53220599086673
0.275699813510745,-0.430724700162691
0.284974719591187,-0.438485074049721
0.423362524587378,-0.356512649850466
0.327592046823417,-0.468271180736416
0.330588031046526,-0.470004853140973
0.333576870092778,-0.471687341623384
0.339532564829981,-0.474899769544604
0.360132290780518,-0.484567823785607
0.365943348461072,-0.486888270751242
0.377458904360343,-0.490953061084648
0.385998017635981,-0.493505459628933
0.388825076647501,-0.494263082925429
0.391642251358539,-0.494974535913975
0.394449404812914,-0.495640069275282
0.402809368074252,-0.497363658402861
0.408330059768508,-0.498287715498061
0.413807379487764,-0.499034110421338
0.419240231582572,-0.49960484861837
0.424627520403483,-0.500001935534837
0.427303736195773,-0.500135986464632
0.437889212932945,-0.500248089210794
0.533838186749969,-0.380175185014105
0.553691357945678,-0.383408760386353
0.450842167668842,-0.499452791507438
0.45593306820793,-0.498850085099762
0.460970735926976,-0.498087765531273
0.465954075176529,-0.497167838247647
0.485322234490837,-0.491952160875358
0.49001749665119,-0.490274276701233
0.492342357822137,-0.489380618633417
0.494651856445356,-0.488450817486045
0.501486807466833,-0.48544706237369
0.408979825614648,-0.601973517684858
0.508178565136234,-0.482127044050885
0.601349392225077,-0.370764558485916
0.512558358971156,-0.479741339128229
0.608123794992385,-0.379805487148803
0.525295074197519,-0.471778959266958
0.418486703312821,-0.578350301834534
0.535431294497231,-0.46425081591441
0.635947633233386,-0.344870939682872
0.539360029610924,-0.461019897550907
0.543215262389763,-0.457666466771645
0.548857897946999,-0.452410996735629
0.55070083834508,-0.450600089748563
0.55252458142236,-0.448760058741817
0.557879257167587,-0.443067728410593
0.559624841399854,-0.441113708132223
0.563056226603087,-0.437122306407799
0.683761308798163,-0.32044489126823
0.580458313114093,-0.413266466223847
0.581913084909985,-0.410945069264235
0.583346057217633,-0.408599311218429
0.587512807649312,-0.401418377370948
0.590179132965896,-0.39651387852134
0.474442105022151,-0.489035085758983
0.601042027797785,-0.373341165724334
0.602131573040054,-0.370660073070806
0.605255716219291,-0.362495696664045
0.606248476575908,-0.359734707315432
0.712408876275915,-0.227451234880991
0.615519161755699,-0.32814204108507
0.619789349826417,-0.306971390936796
0.620768423495485,-0.300785356567952
0.621217112204875,-0.297670713256474
0.621638386222596,-0.294541986767907
0.622736350563924,-0.285073815046764
0.731904621595708,-0.189423916035174
0.623328742469804,-0.278695880493566
0.624005214722491,-0.26903526216931
0.624173593487028,-0.265791067718876
0.62450547643502,-0.255990028870462
0.623168469075797,-0.215879367760875
0.620849472468992,-0.195374891084843
0.618672094147813,-0.181575656056325
0.615224660519736,-0.164209031950475
0.612762580725339,-0.15373838065693
0.71143221560084,-0.0459742629608406
0.606935520518231,-0.132714640971701
0.602370128904965,-0.11865947565926
0.598582494164296,-0.108108854748027
0.597249963383351,-0.104591556755325
0.591566258757795,-0.0905269278253247
0.693524316712517,0.00313201774530902
0.588510340157416,-0.0835008607147468
0.472165636554929,-0.19761883769069
0.468930414410591,-0.184985990904108
0.576672082527451,-0.0589766423553352
0.56909634118201,-0.0450335067143726
0.558780774724637,-0.0277069791658532
0.532697811992124,0.00986384892506299
0.501806218754674,0.0464088285137013
0.479560858712292,0.0689779405951403
0.476215221947316,0.0721521435513048
0.469396782714932,0.0784605757220758
0.465923706335162,0.0815943035752626
0.455247406667367,0.0909105260375108
0.432725663897284,0.109138084760215
0.332245504048331,-0.00186391539276409
0.420872825161215,0.118035884262339
0.408620411101938,0.126780672686091
0.303570490075705,0.0141448153815604
0.395964723902563,0.135365681652305
0.369428738815951,0.152029287695454
0.34605055320363,0.165367665486422
0.336373159059472,0.170555931746795
0.290482595405818,0.19279685015783
0.268838691294005,0.202068038054765
0.2520940540695,0.208759564716676
0.217272932242782,0.221439923155414
0.108737476075901,0.251854837233062
-0.0282007590045252,0.165025944806905
0.0668539849531629,0.260476625874494
0.0596881334223804,0.261799396164947
0.0378702345458514,0.265566931451044
0.0304903636383436,0.266755015748958
0.0155689431632446,0.269028039064347
0.1014909894848,0.391079576244444
-0.0867460635918268,0.280320115031027
-0.11168790035879,0.282032631319065
-0.120114288231326,0.282526183417318
-0.189569074005579,0.285047342221449
-0.198508436919324,0.285180319613581
-0.124527486253653,0.399574179493695
-0.23484407821318,0.285296549777161
