0.675799704436927,-0.261102239914196
0.674244019146849,-0.312686185586616
0.688214331709287,-0.344715443969109
0.702069277183205,-0.386203245265707
0.659937438878335,-0.421295208724306
0.690823459491666,-0.424992944481165
0.659451943596207,-0.474591148543826
0.645817936634951,-0.510829643116846
0.709086844111658,-0.51914681940661
0.659090484136468,-0.565217333159359
0.628602857980763,-0.584019135399481
0.623777183621725,-0.558825925006425
0.613954117200142,-0.624442796058093
0.592505911807004,-0.634847722657225
0.571576490802963,-0.64104824240336
0.556228981375214,-0.69503561300162
0.488938341999722,-0.671205163962077
0.498361925540186,-0.674583261421825
0.473854095967499,-0.64479265820043
0.442641936714704,-0.685543402609037
0.427680789528994,-0.656922939256545
0.371845541708652,-0.669878770659531
0.335752861836604,-0.662350180006403
0.29793824260961,-0.65224990529235
0.258433431133031,-0.639562598079419
0.217270174512224,-0.62427290992966
0.174480219852551,-0.606365492405119
0.130095314259372,-0.585824997067845
0.0841472048380447,-0.562636075479886
0.0366676386939306,-0.536783379203291
-0.0123116370676111,-0.508251559800107
-0.0627588753412204,-0.477025268832383
-0.114642329021538,-0.443089157862166
-0.167930251003203,-0.406427878451506
-0.222590894180857,-0.367026082162449
-0.278592511449139,-0.324868420557044
-0.33590335570269,-0.279939545197339
-0.39449167983615,-0.232224107645383
-0.454325736744159,-0.181706759463223
-0.515373779321358,-0.128372152212908
-0.571328736405414,-0.077949563700384
-0.629131780813403,-0.0236279776148914
-0.677457867685092,0.0248423958229539
-0.716769258011412,0.0676317267949355
-0.747528212783294,0.104910185482837
-0.770196992991669,0.136847942068442
-0.785237859627469,0.163615166733533
-0.793113073681623,0.185382029659894
-0.794284896145064,0.20231870102931
-0.789215588008722,0.214595351023562
-0.778367410263529,0.222382149824436
-0.762202623900414,0.225849267613713
-0.74118348991031,0.225166874573178
-0.715772269284148,0.220505140884615
-0.686431223012857,0.212034236729806
-0.65362261208737,0.199924332290535
-0.617808697498618,0.184345597748586
-0.579451740237531,0.165468203285742
-0.53901400129504,0.143462319083787
-0.496957741662077,0.118498115324503
-0.453745222329572,0.0907457621896759
-0.409838704288457,0.0603754298610874
-0.365700448529663,0.0275572885205216
-0.32179271604412,-0.00753849165023818
-0.278577767822759,-0.0447417404694084
-0.236517864856513,-0.0838822877552054
-0.196075268136311,-0.124789963325846
-0.157712238653084,-0.167294596999546
-0.121891037397765,-0.211226018594523
-0.0890739253612827,-0.256414057928993
-0.0597231635345695,-0.302688544821173
-0.0343010129085561,-0.349879309089278
-0.0132697344741735,-0.397816180551526
0.00290841077764719,-0.446328989026132
0.013771161855975,-0.495247564331315
0.018856257769879,-0.544401736285289
0.0177014375284281,-0.593621334706272
0.00984444014069124,-0.64273618941248
-0.00517699538426258,-0.691576130222129
-0.0278251300373644,-0.739970986953437
-0.0551113376887271,-0.783005165469387
-0.0859917319730524,-0.82750054525567
-0.110680905312984,-0.866093796296502
-0.129499396506909,-0.898924416736277
-0.142767744353214,-0.926131904719391
-0.150806487650286,-0.947855758390236
-0.153936165196512,-0.964235475893208
-0.152477315790278,-0.975410555372701
-0.146750478229971,-0.981520494973109
-0.137076191313979,-0.982704792838828
-0.123774993840688,-0.979102947114251
-0.107167424608485,-0.970854455943773
-0.0875740224157562,-0.958098817471788
-0.065315326060889,-0.940975529842691
-0.0407118743422702,-0.919624091200875
-0.0140842060582867,-0.894183999690736
0.014247139992675,-0.864794753456669
0.0439616250122278,-0.831595850643066
0.074738710201985,-0.794726789394324
0.10625785676356,-0.754327067854836
0.138198525898565,-0.710536184168996
0.170240178808614,-0.6634936364812
0.202062276695321,-0.613338922935841
0.233344280760297,-0.560211541677315
0.263765652205157,-0.504250990850015
0.293005852231514,-0.445596768598335
0.32074434204098,-0.384388373066671
0.346660582835169,-0.320765302399417
0.370434035815695,-0.254867054740967
0.391744162184169,-0.186833128235716
0.410270423142207,-0.116803021028058
0.425692279891419,-0.0449162312623868
0.437689193633421,0.0286877429169021
0.445940625569824,0.103869403365415
0.450126036902243,0.180489251938756
0.44992488883229,0.258407790492533
0.445016642561578,0.33748552088235
0.435080759291721,0.417582944963812
0.419796700224332,0.498560564592527
0.398843926561024,0.580278881624098
