0.0990957346016357,0.463941159508352
0.102713743989404,0.463706506727166
0.106315049161705,0.463466297094973
0.109899581008387,0.463220591670505
0.113467270419301,0.462969451512495
0.117018048284295,0.462712937679677
0.120551845493221,0.462451111230782
0.124068592935927,0.462184033224544
0.127568221502263,0.461911764719697
0.13105066208208,0.461634366774971
0.134515845565227,0.461351900449101
0.137963702841553,0.461064426800819
0.141394164800909,0.460772006888859
0.144807162333144,0.460474701771952
0.148202626328108,0.460172572508832
0.151580487675651,0.459865680158232
0.154940677265622,0.459554085778884
0.158283125987872,0.459237850429521
0.161607764732249,0.458917035168877
0.164914524388605,0.458591701055683
0.168203335846788,0.458261909148674
0.171474129996648,0.457927720506581
0.174726837728036,0.457589196188137
0.177961389930801,0.457246397252076
0.181177717494792,0.456899384757131
0.184375751309859,0.456548219762033
0.187555422265853,0.456192963325516
0.190716661252623,0.455833676506313
0.193859399160018,0.455470420363157
0.196983566877889,0.45510325595478
0.200089095296085,0.454732244339916
0.203175915304456,0.454357446577296
0.206243957792852,0.453978923725655
0.209293153651123,0.453596736843724
0.212323433769118,0.453210946990237
0.215334729036686,0.452821615223927
0.218326970343679,0.452428802603526
0.221300088579946,0.452032570187767
0.224254014635335,0.451632979035383
0.227188679399698,0.451230090205108
0.230104013762884,0.450823964755673
0.232999948614742,0.450414663745811
0.235876414845123,0.450002248234256
0.238733343343876,0.449586779279741
0.241570665000851,0.449168317940997
0.244388310705898,0.448746925276759
0.247186211348866,0.448322662345758
0.249964297819605,0.447895590206728
0.252722501007966,0.447465769918402
0.255460751803797,0.447033262539512
0.258178981096949,0.446598129128791
0.260877119777271,0.446160430744972
0.263555098734613,0.445720228446788
0.266212848858825,0.445277583292972
0.268850301039757,0.444832556342256
0.271467386167258,0.444385208653374
0.274064035131178,0.443935601285059
0.276640178821367,0.443483795296042
0.279195748127675,0.443029851745057
0.281730673939951,0.442573831690838
0.284244887148046,0.442115796192115
0.286738318641808,0.441655806307624
0.289210899311088,0.441193923096096
0.291662560045736,0.440730207616264
0.294093231735601,0.440264720926861
0.296502845270533,0.43979752408662
0.298891331540381,0.439328678154274
0.301258621434997,0.438858244188555
0.303604645844228,0.438386283248197
0.305929335657926,0.437912856391932
0.30823262176594,0.437438024678493
0.310514435058119,0.436961849166613
0.312774706424314,0.436484390915025
0.315013366754373,0.436005710982462
0.317230346938148,0.435525870427656
0.319425577865487,0.435044930309341
0.321598990426241,0.434562951686249
0.323750515510259,0.434079995617113
0.325880084007391,0.433596123160665
0.327987626807487,0.43311139537564
0.330073074800396,0.432625873320769
0.332136358875969,0.432139618054786
0.334177409924055,0.431652690636423
0.336196158834503,0.431165152124413
0.338192536497164,0.430677063577489
0.340166473801887,0.430188486054384
0.342117901638523,0.42969948061383
0.34404675089692,0.429210108314561
0.345952952466929,0.42872043021531
0.347836437238399,0.428230507374808
0.349697136101181,0.42774040085179
0.351534979945123,0.427250171704987
0.353349899660077,0.426759880993134
0.35514182613589,0.426269589774962
0.356910690262414,0.425779359109204
0.358656422929498,0.425289250054594
0.360378955026991,0.424799323669863
0.362078217444745,0.424309641013746
0.363754141072607,0.423820263144975
0.365406656800428,0.423331251122282
0.367035695518059,0.422842666004401
0.368641188115348,0.422354568850064
0.370223065482145,0.421867020718004
0.3717812585083,0.421380082666954
0.373315698083663,0.420893815755648
0.374826315098084,0.420408281042817
0.376313040441413,0.419923539587194
0.377775805003498,0.419439652447513
0.37921453967419,0.418956680682507
0.38062917534334,0.418474685350907
0.382019642900795,0.417993727511448
0.383385873236407,0.417513868222861
0.384727797240025,0.41703516854388
0.386045345801498,0.416557689533237
0.387338449810677,0.416081492249666
0.388607040157412,0.415606637751899
0.389851047731551,0.415133187098669
0.391070403422946,0.414661201348709
0.392265038121445,0.414190741560752
0.393434882716898,0.41372186879353
0.394579868099155,0.413254644105777
0.395699925158067,0.412789128556225
0.396794984783482,0.412325383203607
0.39786497786525,0.411863469106656
0.398909835293222,0.411403447324105
0.399929487957246,0.410945378914686
0.400923866747173,0.410489324937133
0.401892902552853,0.410035346450179
0.402836526264135,0.409583504512555
0.403754668770869,0.409133860182996
0.404647260962905,0.408686474520234
0.405514233730092,0.408241408583001
0.406355517962281,0.407798723430031
0.407171044549321,0.407358480120056
0.407960744381061,0.40692073971181
0.408724548347352,0.406485563264024
0.409462387338044,0.406053011835433
0.410174192242986,0.405623146484769
0.410859893952027,0.405196028270764
0.411519423355018,0.404771718252151
0.412152711341809,0.404350277487664
0.412759688802249,0.403931767036036
0.413340286626188,0.403516247955998
0.413894435703475,0.403103781306284
0.414422066923961,0.402694428145627
0.414923111177496,0.402288249532759
0.415397499353928,0.401885306526414
0.415845162343108,0.401485660185324
0.416266031034886,0.401089371568222
0.416660036319111,0.400696501733841
0.417027109085633,0.400307111740914
0.417367180224302,0.399921262648174
0.417680180624968,0.399539015514353
0.41796604117748,0.399160431398185
0.418224692771688,0.398785571358401
0.418456066297442,0.398414496453736
0.418660092644591,0.398047267742922
0.418836702702987,0.397683946284691
0.418985827362477,0.397324593137777
0.419107397512912,0.396969269360912
0.419201344044142,0.39661803601283
0.419267597846017,0.396270954152263
0.419306089808386,0.395928084837943
0.419316750821099,0.395589489128605
0.419299511774005,0.39525522808298
0.419254303556956,0.394925362759802
0.419181057059799,0.394599954217802
0.419079703172386,0.394279063515716
0.418950172784566,0.393962751712274
0.418792396786188,0.39365107986621
0.418606306067102,0.393344109036257
0.418391831517159,0.393041900281147
0.418148904026208,0.392744514659614
0.417877454484098,0.39245201323039
0.41757741378068,0.392164457052208
0.417248712805803,0.391881907183801
0.416891282449317,0.391604424683902
0.416505053601072,0.391332070611244
0.416089957150917,0.391064906024559
0.415645923988702,0.39080299198258
0.415172885004278,0.390546389544041
0.414670771087494,0.390295159767673
0.414139513128199,0.390049363712211
0.413579042016243,0.389809062436386
0.412989288641476,0.389574316998932
0.412370183893749,0.389345188458581
0.41172165866291,0.389121737874066
0.411043643838809,0.388904026304121
0.410336070311297,0.388692114807478
0.409598868970222,0.388486064442869
0.408831970705435,0.388285936269028
0.408035306406786,0.388091791344687
0.407208806964124,0.38790369072858
0.406352403267299,0.387721695479439
0.40546602620616,0.387545866655997
0.404549606670558,0.387376265316987
0.403603075550343,0.387212952521141
0.402626363735364,0.387055989327193
0.40161940211547,0.386905436793876
0.400582121580512,0.386761355979922
0.399514453020339,0.386623807944064
0.398416327324801,0.386492853745035
0.397287675383749,0.386368554441567
0.396128428087031,0.386250971092394
0.394938516324497,0.386140164756249
0.393717870985998,0.386036196491864
0.392466422961382,0.385939127357972
0.3911841031405,0.385849018413307
0.389870842413202,0.3857659307166
0.388526571669337,0.385689925326585
0.387151221798755,0.385621063301994
0.385744723691305,0.385559405701561
0.384307008236839,0.385505013584018
0.382838006325204,0.385457948008098
0.381337648846252,0.385418270032534
0.379805866689831,0.385386040716059
0.378242590745792,0.385361321117406
0.376647751903985,0.385344172295307
0.375021281054258,0.385334655308495
0.373363109086463,0.385332831215704
0.371673166890448,0.385338761075665
0.369951385356063,0.385352505947113
0.368197695373159,0.385374126888779
0.366412027831585,0.385403684959396
0.36459431362119,0.385441241217699
0.362744483631825,0.385486856722418
0.360862468753339,0.385540592532287
0.358948199875582,0.38560250970604
0.357001607888404,0.385672669302408
0.355022623681655,0.385751132380124
0.353011178145183,0.385837959997923
0.35096720216884,0.385933213214535
0.348890626642475,0.386036953088695
0.346781382455937,0.386149240679135
0.344639400499077,0.386270137044587
0.342464611661744,0.386399703243786
0.340256946833788,0.386538000335463
0.338016336905058,0.386685089378351
0.335742712765405,0.386841031431183
0.333436005304678,0.387005887552693
0.331096145412727,0.387179718801613
0.328723063979402,0.387362586236675
0.326316691894552,0.387554550916613
0.323876960048028,0.387755673900159
0.321403799329678,0.387966016246047
0.318897140629353,0.388185639013009
0.316356914836903,0.388414603259778
0.313783052842178,0.388652970045087
0.311175485535026,0.388900800427668
0.308534143805298,0.389158155466255
0.305858958542844,0.389425096219581
0.303149860637513,0.389701683746377
0.300406780979156,0.389987979105378
0.297629650457621,0.390284043355316
0.294818399962759,0.390589937554923
0.291972960384419,0.390905722762933
0.289093262612452,0.391231460038079
0.286179237536706,0.391567210439093
0.283230816047033,0.391913035024708
0.28024792903328,0.392268994853657
0.2772305073853,0.392635150984672
0.27417848199294,0.393011564476488
0.271091783746051,0.393398296387836
0.267970343534482,0.39379540777745
0.264814092248084,0.394202959704061
0.261622960776706,0.394621013226404
0.258396880010198,0.395049629403211
0.255135780838409,0.395488869293214
0.25183959415119,0.395938793955148
0.24850825083839,0.396399464447743
0.245141681789859,0.396870941829734
0.241739817895447,0.397353287159853
0.238302590045003,0.397846561496833
0.234829929128377,0.398350825899407
0.231321766035419,0.398866141426308
0.227778031655979,0.399392569136268
0.224198656879907,0.399930170088021
0.220583572597052,0.400479005340298
0.216932709697264,0.401039135951834
0.213245999070393,0.401610622981361
0.209523371606288,0.402193527487612
0.2057647581948,0.402787910529319
0.201970089725777,0.403393833165215
0.198139297089071,0.404011356454034
0.19427231117453,0.404640541454509
0.190369062872005,0.405281449225371
0.186429483071345,0.405934140825354
0.1824535026624,0.40659867731319
0.178441052535019,0.407275119747613
0.174392063579053,0.407963529187356
0.170306466684352,0.408663966691151
0.166184192740764,0.409376493317731
0.16202517263814,0.410101170125828
0.157829337266329,0.410838058174177
0.153596617515182,0.411587218521509
0.149326944274548,0.412348712226558
0.145020248434277,0.413122600348055
0.140676460884218,0.413908943944736
0.136295512514222,0.414707804075331
0.131877334214137,0.415519241798574
0.127421856873815,0.416343318173197
0.122929011383104,0.417180094257934
0.118398728631855,0.418029631111518
0.113830939509917,0.41889198979268
0.10922557490714,0.419767231360155
0.104582565713373,0.420655416872675
0.0999018428184677,0.421556607388972
0.0951833371122719,0.42247086396778
0.0904269794846363,0.423398247667832
0.0856327008254104,0.42433881954786
0.0808004320244441,0.425292640666597
0.0759301039715869,0.426259772082776
0.071021647556689,0.427240274855129
0.0660749936695998,0.428234210042391
0.0610900732001693,0.429241638703293
0.0560668170382471,0.430262621896568
0.0510051560736832,0.43129722068095
0.0459050211963269,0.432345496115171
0.0407663432960285,0.433407509257963
0.0355890532626374,0.434483321168061
0.0303730819860036,0.435572992904196
0.0251183603559767,0.436676585525101
0.0198248192624066,0.43779416008951
0.0144923895951428,0.438925777656155
0.00912100224403549,0.440071499283768
0.00371058809893401,0.441231386031084
-0.00173892195031149,0.442405498956834
-0.00722759701385174,0.443593899119752
-0.0127555062018363,0.444796647578571
-0.0183227186244161,0.446013805392022
-0.0239293033917407,0.447245433618839
-0.0295753296139611,0.448491593317756
-0.0352608664012267,0.449752345547504
-0.0409859828636886,0.451027751366817
-0.0467507481114962,0.452317871834427
-0.0525552312548004,0.453622768009068
-0.0583995014037509,0.454942500949471
-0.0642836276684985,0.456277131714371
-0.0702076791591928,0.457626721362499
-0.0761717249859847,0.45899133095259
-0.0821758342590238,0.460371021543374
-0.0882200760884609,0.461765854193586
-0.0943045195844457,0.463175889961958
-0.100429233857129,0.464601189907224
-0.10659428801666,0.466041815088115
-0.112799751173191,0.467497826563365
-0.11904569243687,0.468969285391706
-0.125332180917848,0.470456252631872
-0.131659285726276,0.471958789342596
-0.138027075972303,0.473476956582609
-0.14443562076608,0.475010815410645
-0.150884989217757,0.476560426885438
-0.157375250437485,0.478125852065719
-0.163906473535413,0.479707152010221
-0.170478727621692,0.481304387777678
-0.177092081806472,0.482917620426822
-0.183746605199903,0.484546911016386
-0.190442366912136,0.486192320605103
-0.19717943605332,0.487853910251705
-0.203957881733606,0.489531741014927
-0.210777773063144,0.491225873953499
-0.217639179152086,0.492936370126156
-0.224542169110579,0.49466329059163
-0.231486812048775,0.496406696408655
-0.238473177076825,0.498166648635961
-0.245501333304878,0.499943208332284
-0.252571349843084,0.501736436556355
-0.259683295801595,0.503546394366908
-0.266837240290559,0.505373142822674
-0.274033252420128,0.507216742982388
-0.281271401300451,0.509077255904782
-0.28855175604168,0.510954742648588
-0.295874385753962,0.51284926427254
-0.303239359547451,0.51476088183537
-0.310646746532295,0.516689656395812
-0.318096615818644,0.518635649012598
-0.32558903651665,0.520598920744461
-0.333124077736461,0.522579532650133
-0.340701808588229,0.524577545788348
-0.348322298182104,0.526593021217839
-0.355985615628236,0.528626019997338
-0.363691830036774,0.530676603185579
-0.37144101051787,0.532744831841293
-0.379233226181674,0.534830767023214
-0.387068546138335,0.536934469790075
-0.394947039498005,0.539056001200609
-0.402868775370833,0.541195422313548
-0.410833822866969,0.543352794187625
-0.418842251096564,0.545528177881573
-0.426894129169769,0.547721634454126
-0.434989526196732,0.549933224964015
-0.443128511287605,0.552163010469974
-0.451311153552537,0.554411052030735
-0.45953752210168,0.556677410705032
-0.467807686045182,0.558962147551597
-0.476121714493195,0.561265323629163
-0.484479676555869,0.563586999996462
-0.492881641343353,0.565927237712229
-0.501327677965799,0.568286097835195
-0.509817855533356,0.570663641424094
-0.509817855533356,0.570663641424094
-0.518281864434866,0.573011068026
-0.52664958979886,0.57527978735119
-0.534921392845018,0.577470175703195
-0.543097634793025,0.579582609385548
-0.551178676862561,0.581617464701781
-0.559164880273308,0.583575117955427
-0.567056606244949,0.585455945450018
-0.574854215997167,0.587260323489086
-0.582558070749642,0.588988628376164
-0.590168531722058,0.590641236414783
-0.597685960134096,0.592218523908477
-0.60511071720544,0.593720867160778
-0.61244316415577,0.595148642475218
-0.619683662204768,0.59650222615533
-0.626832572572118,0.597781994504645
-0.633890256477501,0.598988323826696
-0.6408570751406,0.600121590425016
-0.647733389781096,0.601182170603137
-0.654519561618671,0.602170440664591
-0.661215951873009,0.603086776912911
-0.667822921763791,0.603931555651629
-0.674340832510698,0.604705153184277
-0.680770045333414,0.605407945814388
-0.68711092145162,0.606040309845494
-0.693363822084999,0.606602621581128
-0.699529108453233,0.607095257324821
-0.705607141776003,0.607518593380106
-0.711598283272993,0.607873006050516
-0.717502894163883,0.608158871639583
-0.723321335668357,0.608376566450839
-0.729053969006097,0.608526466787816
-0.734701155396784,0.608608948954048
-0.740263256060101,0.608624389253066
-0.745740632215729,0.608573163988402
-0.751133645083352,0.60845564946359
-0.756442655882651,0.608272221982161
-0.761668025833309,0.608023257847648
-0.766810116155006,0.607709133363583
-0.771869288067427,0.607330224833498
-0.776845902790252,0.606886908560927
-0.781740321543165,0.6063795608494
-0.786552905545846,0.605808558002451
-0.791284016017979,0.605174276323612
-0.795934014179245,0.604477092116416
-0.800503261249327,0.603717381684394
-0.804992118447906,0.602895521331079
-0.809400946994665,0.602011887360003
-0.813730108109286,0.601066856074699
-0.817979963011452,0.6000608037787
-0.822150872920843,0.598994106775536
-0.826243199057143,0.597867141368742
-0.830257302640034,0.596680283861848
-0.834193544889197,0.595433910558389
-0.838052287024316,0.594128397761895
-0.841833890265071,0.592764121775899
-0.845538715831145,0.591341458903934
-0.849167124942221,0.589860785449532
-0.852719478817981,0.588322477716226
-0.856196138678106,0.586726912007547
-0.859597465742279,0.585074464627028
-0.862923821230181,0.583365511878202
-0.866175566361496,0.5816004300646
-0.869353062355905,0.579779595489756
-0.87245667043309,0.577903384457201
-0.875486751812734,0.575972173270468
-0.878443667714519,0.573986338233089
-0.881327779358126,0.571946255648597
-0.884139447963239,0.569852301820524
-0.886879034749539,0.567704853052402
-0.889546900936707,0.565504285647764
-0.892143407744427,0.563250975910141
-0.894668916392381,0.560945300143068
-0.897123788100251,0.558587634650075
-0.899508384087718,0.556178355734695
-0.901823065574466,0.55371783970046
-0.904068193780175,0.551206462850904
-0.90624412992453,0.548644601489558
-0.90835123522721,0.546032631919954
-0.910389870907899,0.543370930445625
-0.912360398186279,0.540659873370104
-0.914263178282032,0.537899836996922
-0.916098572414839,0.535091197629612
-0.917866941804384,0.532234331571707
-0.919568647670348,0.529329615126738
-0.921204051232415,0.526377424598239
-0.922773513710264,0.52337813628974
-0.924277396323579,0.520332126504776
-0.925716060292042,0.517239771546878
-0.927089866835336,0.514101447719578
-0.928399177173141,0.51091753132641
-0.929644352525141,0.507688398670904
-0.930825754111018,0.504414426056595
-0.931943743150454,0.501095989787013
-0.93299868086313,0.497733466165691
-0.933990928468729,0.494327231496162
-0.934920847186933,0.490877662081959
-0.935788798237425,0.487385134226613
-0.936595142839886,0.483850024233656
-0.937340242213998,0.480272708406622
-0.938024457579445,0.476653563049042
-0.938648150155907,0.472992964464449
-0.939211681163068,0.469291288956376
-0.939715411820608,0.465548912828354
-0.940159703348211,0.461766212383916
-0.940544916965558,0.457943563926594
-0.940871413892332,0.454081343759921
-0.941139555348215,0.450179928187429
-0.941349702552889,0.44623969351265
-0.941502216726036,0.442261016039117
-0.941597459087338,0.438244272070362
-0.941635790856477,0.434189837909918
-0.941617573253136,0.430098089861317
-0.941543167496997,0.425969404228091
-0.941412934807741,0.421804157313772
-0.941227236405052,0.417602725421893
-0.94098643350861,0.413365484855987
-0.940690887338099,0.409092811919585
-0.940340959113201,0.40478508291622
-0.939937010053596,0.400442674149425
-0.939479401378969,0.396065961922731
-0.938968494309001,0.391655322539672
-0.938404650063373,0.387211132303779
-0.937788229861769,0.382733767518585
-0.93711959492387,0.378223604487622
-0.936399106469358,0.373681019514422
-0.935627125717916,0.369106388902518
-0.934804013889226,0.364500088955443
-0.93393013220297,0.359862495976728
-0.93300584187883,0.355193986269907
-0.932031504136488,0.35049493613851
-0.931007480195626,0.345765721886071
-0.929934131275927,0.341006719816123
-0.928811818597073,0.336218306232197
-0.927640903378745,0.331400857437825
-0.926421746840626,0.326554749736541
-0.925154710202399,0.321680359431876
-0.923840154683745,0.316778062827363
-0.922478441504346,0.311848236226535
-0.921069931883884,0.306891255932923
-0.919614987042043,0.30190749825006
-0.918113968198503,0.296897339481478
-0.916567236572947,0.29186115593071
-0.914975153385058,0.286799323901288
-0.913338079854516,0.281712219696744
-0.911656377201006,0.276600219620611
-0.909930406644207,0.271463699976422
-0.908160529403803,0.266303037067707
-0.906347106699477,0.261118607198001
-0.90449049975091,0.255910786670835
-0.902591069777783,0.250679951789741
-0.90064917799978,0.245426478858252
-0.898665185636582,0.240150744179901
-0.896639453907873,0.234853124058219
-0.894572344033332,0.229533994796739
-0.892464217232644,0.224193732698994
-0.89031543472549,0.218832714068515
-0.888126357731552,0.213451315208836
-0.885897347470513,0.208049912423487
-0.883628765162054,0.202628882016003
-0.881320972025858,0.197188600289915
-0.878974329281607,0.191729443548756
-0.876589198148982,0.186251788096057
-0.874165939847666,0.180756010235351
-0.871704915597343,0.175242486270172
-0.869206486617692,0.16971159250405
-0.866671014128397,0.164163705240518
-0.86409885934914,0.15859920078311
-0.861490383499602,0.153018455435356
-0.858845947799467,0.14742184550079
-0.856165913468416,0.141809747282943
-0.853450641726131,0.136182537085349
-0.850700493792294,0.130540591211539
-0.847915830886589,0.124884285965046
-0.845097014228696,0.119213997649402
-0.842244405038297,0.11353010256814
-0.839358364535077,0.107832977024792
-0.836439253938715,0.10212299732289
-0.833487434468894,0.096400539765967
-0.830503267345297,0.0906659806575548
-0.827487113787606,0.0849196963011861
-0.824439335015503,0.0791620630003932
-0.821360292248669,0.0733934570587082
-0.818250346706787,0.0676142547796638
-0.815109859609541,0.0618248324667923
-0.81193919217661,0.0560255664236261
-0.808738705627678,0.0502168329536973
-0.805508761182426,0.0443990083605383
-0.802249720060537,0.0385724689476818
-0.798961943481694,0.0327375910186599
-0.795645792665577,0.026894750877005
-0.79230162883187,0.0210443248262494
-0.788929813200254,0.0151866891699257
-0.785530706990413,0.00932222021156603
-0.782104671422026,0.00345129425470272
-0.778652067714777,-0.0024257123971318
-0.775173257088349,-0.00830842344040508
-0.771668600762423,-0.0141964625715847
-0.768138459956681,-0.0200894534871386
-0.764583195890806,-0.0259870198835342
-0.761003169784479,-0.0318887854572391
-0.757398742857383,-0.0377943739047212
-0.7537702763292,-0.0437034089224477
-0.750118131419612,-0.0496155142068868
-0.746442669348302,-0.0555303134545055
-0.74274425133495,-0.0614474303617721
-0.73902323859924,-0.0673664886251537
-0.735279992360854,-0.0732871119411183
-0.731514873839474,-0.0792089240061332
-0.727728244254782,-0.0851315485166665
-0.72392046482646,-0.0910546091691852
-0.72009189677419,-0.0969777296601577
-0.716242901317655,-0.102900533686051
-0.712373839676536,-0.108822644943333
-0.708485073070516,-0.114743687128471
-0.704576962719276,-0.120663283937934
-0.7006498698425,-0.126581059068188
-0.696704155659869,-0.132496636215701
-0.692740181391066,-0.138409639076941
-0.688758308255771,-0.144319691348376
-0.684758897473669,-0.150226416726472
-0.68074231026444,-0.156129438907699
-0.676708907847767,-0.162028381588523
-0.672659051443332,-0.167922868465412
-0.668593102270818,-0.173812523234834
-0.664511421549905,-0.179696969593256
-0.660414370500278,-0.185575831237146
-0.656302310341617,-0.191448731862972
-0.652175602293604,-0.197315295167201
-0.648034607575923,-0.203175144846301
-0.643879687408255,-0.209027904596739
-0.639711203010282,-0.214873198114984
-0.635529515601687,-0.220710649097503
-0.63133498640215,-0.226539881240763
-0.627127976631356,-0.232360518241232
-0.622908847508986,-0.238172183795378
-0.618677960254722,-0.243974501599668
-0.614435676088245,-0.24976709535057
-0.610182356229239,-0.255549588744552
-0.605918361897386,-0.261321605478081
-0.601644054312367,-0.267082769247625
-0.597359794693865,-0.272832703749652
-0.593065944261562,-0.278571032680629
-0.58876286423514,-0.284297379737024
-0.584450915834281,-0.290011368615304
-0.580130460278667,-0.295712623011938
-0.575801858787981,-0.301400766623392
-0.571465472581904,-0.307075423146135
-0.56712166288012,-0.312736216276633
-0.562770790902309,-0.318382769711356
-0.558413217868154,-0.324014707146769
-0.554049304997338,-0.329631652279342
-0.549679413509542,-0.335233228805541
-0.545303904624448,-0.340819060421835
-0.54092313956174,-0.34638877082469
-0.536537479541098,-0.351941983710575
-0.532147285782205,-0.357478322775957
-0.527752919504743,-0.362997411717304
-0.523354741928394,-0.368498874231083
-0.518953114272841,-0.373982334013763
-0.514548397757766,-0.37944741476181
-0.51014095360285,-0.384893740171692
-0.505731143027776,-0.390320933939878
-0.501319327252226,-0.395728619762834
-0.496905867495882,-0.401116421337028
-0.492491124978427,-0.406483962358929
-0.488075460919542,-0.411830866525003
-0.48365923653891,-0.417156757531718
-0.479242813056212,-0.422461259075541
-0.474826551691131,-0.427743994852942
-0.47041081366335,-0.433004588560386
-0.46599596019255,-0.438242663894343
-0.461582352498413,-0.443457844551278
-0.457170351800621,-0.448649754227661
-0.452760319318858,-0.453818016619958
-0.448352616272803,-0.458962255424638
-0.443947603882141,-0.464082094338167
-0.439545643366554,-0.469177157057014
-0.435147095945722,-0.474247067277647
-0.430752322839329,-0.479291448696532
-0.426361685267056,-0.484309925010138
-0.421975544448586,-0.489302119914932
-0.417594261603601,-0.494267657107381
-0.413218197951783,-0.499206160283954
-0.408847714712814,-0.504117253141118
-0.404483173106377,-0.509000559375341
-0.400124934352152,-0.51385570268309
-0.395773359669824,-0.518682306760833
-0.391428810279073,-0.523479995305038
-0.387091647399582,-0.528248392012172
-0.382762232251033,-0.532987120578703
-0.378440926053109,-0.537695804701098
-0.374128090025491,-0.542374068075826
-0.369824085387861,-0.547021534399353
-0.365529273359902,-0.551637827368148
-0.361244015161295,-0.556222570678678
-0.356968672011724,-0.56077538802741
-0.352703605130869,-0.565295903110813
-0.348449175738414,-0.569783739625354
-0.344205745054041,-0.574238521267501
-0.339973674297431,-0.578659871733721
-0.335753324688266,-0.583047414720481
-0.33154505744623,-0.587400773924251
-0.327349233791003,-0.591719573041496
-0.323166214942268,-0.596003435768686
-0.318996362119708,-0.600251985802287
-0.314840036543004,-0.604464846838766
-0.310697599431839,-0.608641642574593
-0.306569412005895,-0.612781996706234
-0.302455835484853,-0.616885532930157
-0.298357231088397,-0.62095187494283
-0.294273960036207,-0.62498064644072
-0.290206383547967,-0.628971471120295
-0.286154862843359,-0.632923972678023
-0.282119759142064,-0.636837774810371
-0.278101433663764,-0.640712501213806
-0.274100247628143,-0.644547775584797
-0.270116562254882,-0.648343221619812
-0.266150738763663,-0.652098463015317
-0.262203138374168,-0.655813123467781
-0.258274122306081,-0.65948682667367
-0.254364051779081,-0.663119196329453
-0.250473288012853,-0.666709856131598
-0.246602192227077,-0.670258429776572
-0.242751125641436,-0.673764540960842
-0.238920449475613,-0.677227813380876
-0.235110524949289,-0.680647870733143
-0.231321713282147,-0.684024336714109
-0.227554375693869,-0.687356835020242
-0.223808873404136,-0.69064498934801
-0.220085567632631,-0.69388842339388
-0.216384819599037,-0.697086760854321
-0.212706990523035,-0.700239625425799
-0.209052441624307,-0.703346640804782
-0.205421534122536,-0.706407430687738
-0.201814629237403,-0.709421618771136
-0.198232088188592,-0.712388828751441
-0.194674272195783,-0.715308684325122
-0.19114154247866,-0.718180809188647
-0.187634260256904,-0.721004827038484
-0.184152786750198,-0.723780361571098
-0.180697483178223,-0.72650703648296
-0.177268710760662,-0.729184475470535
-0.173866830717197,-0.731812302230293
-0.17049220426751,-0.734390140458699
-0.167145192631284,-0.736917613852223
-0.163826157028199,-0.739394346107331
-0.16053545867794,-0.741819960920492
-0.157273458800187,-0.744194081988173
-0.154040518614622,-0.746516333006841
-0.150836999340929,-0.748786337672965
-0.147663262198789,-0.751003719683011
-0.144519668407884,-0.753168102733448
-0.141406579187897,-0.755279110520743
-0.138324355758509,-0.757336366741363
-0.135273359339403,-0.759339495091778
-0.132253951150261,-0.761288119268453
-0.129266492410765,-0.763181862967857
-0.126311344340597,-0.765020349886457
-0.123388868159439,-0.766803203720721
-0.120499425086974,-0.768530048167117
-0.117643376342884,-0.770200506922112
-0.11482108314685,-0.771814203682174
-0.112032906718555,-0.773370762143771
-0.109279208277682,-0.774869806003369
-0.106560349043911,-0.776310958957438
-0.103876690236926,-0.777693844702444
-0.101228593076408,-0.779018086934855
-0.0986164187820404,-0.780283309351139
-0.0960405285735042,-0.781489135647763
-0.0935012836704821,-0.782635189521195
-0.090999045292656,-0.783721094667903
-0.0885341746597083,-0.784746474784354
-0.0861070329913209,-0.785710953567016
-0.0837179815071762,-0.786614154712357
-0.0813673814269561,-0.787455701916843
-0.0790555939703429,-0.788235218876944
-0.0759970978337632,-0.764859573111626
-0.0745499018066657,-0.789606656849857
-0.0497383063097184,-0.753049345947725
-0.0702037947736017,-0.790725458202838
-0.061736370083603,-0.807129942258727
-0.0710427788653527,-0.820114985151911
-0.0455255399118641,-0.809794486631012
-0.0690457834873948,-0.770551950667004
-0.0776810770443259,-0.808949775237756
-0.058151882032661,-0.792535938259592
-0.0471802536506157,-0.783908924083556
-0.0883786401620064,-0.800767758619439
-0.0891999032311652,-0.797081924469121
-0.0347333011130298,-0.797011816844288
-0.0492819263378294,-0.792228457550109
-0.0537059798477726,-0.814989145270835
-0.0372677886541343,-0.758234711899912
-0.0585282713542134,-0.790877282829234
-0.0384715519820813,-0.803059814225445
-0.0415267741060291,-0.790219699318027
-0.079179072992902,-0.784637512998931
-0.056150951139232,-0.772806242875529
-0.0483398431391577,-0.752673120996438
-0.0374275718526755,-0.788178263384248
-0.0390349611357894,-0.790165343271605
-0.0348344759191531,-0.786537315531158
-0.0335367299247056,-0.785666148357486
-0.0311872473625895,-0.7978048451416
-0.0355485123259012,-0.777178008547833
-0.0296390543701813,-0.782851937193009
-0.0283384484781579,-0.781847536741767
-0.0270372014741495,-0.780810257834684
-0.0257353429031198,-0.779740272417182
-0.0244329023100323,-0.778637752434681
-0.0231299092398507,-0.777502869832603
-0.0218263932375385,-0.776335796556368
-0.0205223838480594,-0.775136704551398
-0.019217910616377,-0.773905765763112
-0.0179130030874548,-0.772643152136933
-0.0166076908062565,-0.77134903561828
-0.0153020033177456,-0.770023588152576
-0.0139959701668859,-0.76866698168524
-0.0126896208986408,-0.767279388161694
-0.011382985057974,-0.765860979527358
-0.0100760921898491,-0.764411927727654
-0.00876897183922972,-0.762932404708002
-0.00746165355107942,-0.761422582413824
-0.00615416687036184,-0.759882632790539
-0.00484654134204058,-0.75831272778357
-0.00353880651107922,-0.756713039338337
-0.00223099192244139,-0.75508373940026
-0.000923127121090685,-0.753424999914762
0.00038475834800929,-0.751736992827262
0.00169263493989492,-0.750019890083182
0.00300047310960262,-0.748273863627942
0.00430824331216878,-0.746499085406964
0.00561591600262978,-0.744695727365668
0.00692346163602204,-0.742863961449475
0.00823085066738193,-0.741003959603806
0.00953805355174586,-0.739115893774082
0.0108450407441502,-0.737199935905725
0.0121517826996314,-0.735256257944153
0.0134582498732258,-0.73328503183479
0.0147644127199699,-0.731286429523055
0.0160702416948999,-0.729260622954371
0.0173757072530524,-0.727207784074156
0.0186807798494636,-0.725128084827832
0.0199854299391701,-0.723021697160821
0.0212896279772082,-0.720888793018544
0.0225933444186142,-0.718729544346419
0.0238965497184247,-0.71654412308987
0.0251992143316759,-0.714332701194317
0.0265013087134043,-0.712095450605181
0.0278028033186463,-0.709832543267882
0.0291036686024382,-0.707544151127842
0.0304038750198165,-0.705230446130482
0.0317033930258176,-0.702891600221221
0.0330021930754778,-0.700527785345482
0.0343002456238336,-0.698139173448685
0.0355975211259213,-0.695725936476252
0.0368939900367774,-0.693288246373602
0.0381896228114382,-0.690826275086157
0.0394843899049401,-0.688340194559338
0.0407782617723196,-0.685830176738566
0.042071208868613,-0.683296393569261
0.0433632016488567,-0.680739016996844
0.0446542105680871,-0.678158218966738
0.0459442060813406,-0.675554171424361
0.0472331586436537,-0.672927046315136
0.0485210387100626,-0.670277015584482
0.0498078167356038,-0.667604251177822
0.0510934631753138,-0.664908925040576
0.0523779484842288,-0.662191209118164
0.0536612431173853,-0.659451275356009
0.0549433175298196,-0.656689295699529
0.0562241421765683,-0.653905442094148
0.0575036875126676,-0.651099886485285
0.058781923993154,-0.648272800818361
0.0600588220730638,-0.645424357038797
0.0613343522074335,-0.642554727092015
0.0626084848512994,-0.639664082923434
0.063881190459698,-0.636752596478477
0.0651524394876657,-0.633820439702563
0.0664222023902387,-0.630867784541114
0.0676904496224536,-0.627894802939551
0.0689571516393468,-0.624901666843295
0.0702222788959545,-0.621888548197765
0.0714858018473133,-0.618855618948385
0.0727476909484595,-0.615803051040573
0.0740079166544294,-0.612731016419752
0.0752664494202596,-0.609639687031341
0.0765232597009864,-0.606529234820763
0.0777783179516462,-0.603399831733438
0.0790315946272754,-0.600251649714786
0.0802830601829104,-0.597084860710229
0.0815326850735875,-0.593899636665188
0.0827804397543433,-0.590696149525083
0.084026294680214,-0.587474571235336
0.085270220306236,-0.584235073741367
0.0865121870874459,-0.580977828988597
0.0877521654788799,-0.577703008922447
0.0889901259355744,-0.574410785488338
0.0902260389125659,-0.571101330631691
0.0914598748648908,-0.567774816297928
0.0926916042475854,-0.564431414432467
0.0939211975156861,-0.561071296980732
0.0951486251242293,-0.557694635888141
0.0963738575282515,-0.554301603100118
0.097596865182789,-0.550892370562082
0.0988176185428783,-0.547467110219453
0.100036088063556,-0.544025994017654
0.101252244199857,-0.540569193902105
0.10246605740682,-0.537096881818227
0.10367749813948,-0.533609229711441
0.104886536852874,-0.530106409527168
0.106093144002038,-0.526588593210828
0.107297290042008,-0.523055952707843
0.108498945427821,-0.519508659963633
0.109698080614514,-0.51594688692362
0.110894666057122,-0.512370805533224
0.112088672210682,-0.508780587737866
0.113280069530231,-0.505176405482967
0.114468828470804,-0.501558430713949
0.115654919487439,-0.497926835376231
0.116838313035172,-0.494281791415235
0.118018979569038,-0.490623470776381
0.119196889544075,-0.486952045405091
0.120372013415319,-0.483267687246786
0.121544321637806,-0.479570568246886
0.122713784666573,-0.475860860350813
0.123880372956655,-0.472138735503986
0.12504405696309,-0.468404365651828
0.126204807140914,-0.464657922739759
0.127362593945163,-0.460899578713199
0.128517387830874,-0.457129505517571
0.129669159253083,-0.453347875098294
0.130817878666826,-0.44955485940079
0.13196351652714,-0.445750630370479
0.133106043289061,-0.441935359952783
0.134245429407625,-0.438109220093122
0.13538164533787,-0.434272382736918
0.136514661534831,-0.43042501982959
0.137644448453545,-0.42656730331656
0.138770976549048,-0.42269940514325
0.139894216276376,-0.41882149725508
0.141014138090567,-0.414933751597469
0.142130712446655,-0.411036340115841
0.143243909799679,-0.407129434755616
0.144353700604674,-0.403213207462214
0.145460055316676,-0.399287830181056
0.146562944390722,-0.395353474857563
0.147662338281849,-0.391410313437157
0.148758207445092,-0.387458517865258
0.149850522335488,-0.383498260087286
0.150939253408074,-0.379529712048664
0.152024371117886,-0.375553045694811
0.15310584591996,-0.371568432971149
0.154183648269332,-0.367576045823099
0.15525774862104,-0.363576056196081
0.15632811743012,-0.359568636035517
0.157394725151607,-0.355553957286827
0.158457542240538,-0.351532191895432
0.15951653915195,-0.347503511806753
0.16057168634088,-0.343468088966211
0.161622954262362,-0.339426095319227
0.162670313371435,-0.335377702811222
0.163713734123134,-0.331323083387617
0.164753186972495,-0.327262408993832
0.165788642374556,-0.323195851575289
0.166820070784352,-0.319123583077408
0.16784744265692,-0.315045775445611
0.168870728447296,-0.310962600625318
0.169889898610516,-0.30687423056195
0.170904923601618,-0.302780837200928
0.171915773875637,-0.298682592487673
0.17292241988761,-0.294579668367606
0.173924832092573,-0.290472236786147
0.174922980945563,-0.286360469688718
0.175916836901616,-0.28224453902074
0.176906370415768,-0.278124616727634
0.177891551943056,-0.274000874754819
0.178872351938516,-0.269873485047718
0.179848740857185,-0.265742619551751
0.180820689154099,-0.26160845021234
0.181788167284294,-0.257471148974904
0.182751145702807,-0.253330887784865
0.183709594864674,-0.249187838587644
0.184663485224931,-0.245042173328661
0.185612787238616,-0.240894063953339
0.186557471360764,-0.236743682407096
0.187497508046412,-0.232591200635355
0.188432867750595,-0.228436790583537
0.189363520928352,-0.224280624197061
0.190289438034717,-0.22012287342135
0.191210589524728,-0.215963710201823
0.19212694585342,-0.211803306483903
0.19303847747583,-0.20764183421301
0.193945154846995,-0.203479465334564
0.194846948421951,-0.199316371793986
0.195743828655735,-0.195152725536699
0.196635766003381,-0.190988698508122
0.197522730919928,-0.186824462653676
0.198404693860412,-0.182660189918782
0.199281625279868,-0.178496052248862
0.200153495633334,-0.174332221589335
0.201020275375845,-0.170168869885624
0.201881934962439,-0.166006169083148
0.202738444848151,-0.161844291127329
0.203589775488018,-0.157683407963588
0.204435897337076,-0.153523691537345
0.205276780850361,-0.149365313794022
0.206112396482911,-0.145208446679039
0.206942714689761,-0.141053262137817
0.207767705925948,-0.136899932115778
0.208587340646509,-0.132748628558342
0.209401589306478,-0.128599523410929
0.210210422360894,-0.124452788618962
0.211013810264793,-0.12030859612786
0.21181172347321,-0.116167117883045
0.212604132441182,-0.112028525829938
0.213391007623746,-0.107892991913959
0.214172319475938,-0.10376068808053
0.214948038452795,-0.0996317862750705
0.215718135009352,-0.0955064584430027
0.216482579600646,-0.0913848765297467
0.217241342681714,-0.0872672124807241
0.217994394707593,-0.0831536382413551
0.218741706133317,-0.0790443257570611
0.219483247413924,-0.0749394469732627
0.22021898900445,-0.070839173835381
0.220948901359932,-0.0667436782888368
0.221672954935406,-0.0626531322790511
0.222391120185908,-0.0585677077514446
0.223103367566475,-0.0544875766514386
0.223809667532143,-0.0504129109244534
0.224509990537949,-0.0463438825159105
0.225204307038929,-0.0422806633712304
0.225892587490119,-0.0382234254358343
0.226574802346555,-0.0341723406551429
0.227250922063275,-0.0301275809745772
0.227920917095314,-0.0260893183395579
0.22858475789771,-0.0220577246955063
0.229242414925497,-0.0180329719878428
0.229893858633713,-0.0140152321619888
0.230539059477395,-0.0100046771633648
0.231177987911578,-0.0060014789373921
0.231810614391298,-0.00200580942949113
0.232436909371593,0.00198215941491667
0.233056843307499,0.00596225565041093
0.233670386654052,0.00993430733157033
0.234277509866288,0.0138981425129743
0.234878183399244,0.0178535892492016
0.235472377707957,0.0218004755948316
0.236060063247462,0.0257386296044432
0.236641210472796,0.0296678793326157
0.237215789838995,0.033588052833928
0.237783771801097,0.0374989781629594
0.238345126814137,0.0414004833742887
0.238899825333151,0.0452923965224954
0.239447837813176,0.0491745456621581
0.239989134709249,0.0530467588478565
0.240523686476406,0.0569088641341691
0.241051463569682,0.0607606895756754
0.241572436444116,0.0646020632269543
0.242086575554742,0.0684328131425851
0.242593851356598,0.0722527673771465
0.24309423430472,0.0760617539852181
0.243587694854144,0.0798596010213785
0.244074203459906,0.0836461365402073
0.244553730577044,0.0874211885962832
0.245026246660592,0.0911845852441855
0.245491722165589,0.0949361545384931
0.24595012754707,0.0986757245337855
0.246401433260071,0.102403123284641
0.24684560975963,0.10611817884564
0.247282627500781,0.10982071927136
0.247712456938563,0.113510572616382
0.24813506852801,0.117187566935283
0.24855043272416,0.120851530282643
0.248958519982049,0.124502290713042
0.249359300756714,0.128139676281058
0.24975274550319,0.13176351504127
0.250138824676514,0.135373635048258
0.250517508731723,0.138969864356601
0.250888768123853,0.142552031020877
0.25125257330794,0.146119963095666
0.251608894739021,0.149673488635547
0.251957702872131,0.153212435695099
0.252298968162309,0.156736632328901
0.252632661064589,0.160245906591532
0.252958752034009,0.163740086537571
0.253277211525604,0.167219000221598
0.253588009994411,0.170682475698191
0.253891117895467,0.17413034102193
0.254186505683808,0.177562424247393
0.25447414381447,0.18097855342916
0.254754002742489,0.184378556621811
0.255026052922903,0.187762261879923
0.255290264810747,0.191129497258076
0.255546608861058,0.194480090810849
0.255795055528872,0.197813870592821
0.256035575269226,0.201130664658572
0.256268138537156,0.20443030106268
0.256492715787698,0.207712607859725
0.25670927747589,0.210977413104285
0.256917794056766,0.214224544850941
0.257118235985364,0.217453831154269
0.25731057371672,0.220665100068851
0.257494777705871,0.223858179649265
0.257670818407852,0.22703289795009
0.2578386662777,0.230189083025905
0.257998291770452,0.23332656293129
0.258149665341144,0.236445165720823
0.258292757444813,0.239544719449083
0.258427538536494,0.24262505217065
0.258553979071225,0.245685991940103
0.25867204950404,0.24872736681202
0.258781720289978,0.251749004840982
0.258882961884075,0.254750734081566
0.258975744741366,0.257732382588352
0.259060039316888,0.26069377841592
0.259135816065678,0.263634749618848
0.259203045442772,0.266555124251715
0.259261697903206,0.269454730369101
0.259311743902016,0.272333396025584
0.25935315389424,0.275190949275744
0.259385898334914,0.27802721817416
0.259409947679073,0.280842030775411
0.259425272381755,0.283635215134075
0.259431842897995,0.286406599304733
0.259429629682831,0.289156011341962
0.259418603191298,0.291883279300343
0.259398733878433,0.294588231234455
0.259369992199272,0.297270695198875
0.259332348608852,0.299930499248185
0.259285773562209,0.302567471436962
0.25923023751438,0.305181439819785
0.2591657109204,0.307772232451235
0.259092164235307,0.310339677385889
0.259009567914136,0.312883602678327
0.258917892411924,0.315403836383129
0.258817108183708,0.317900206554873
0.258707185684524,0.320372541248138
0.258588095369408,0.322820668517503
0.258459807693397,0.325244416417548
0.258322293111526,0.327643613002851
0.258175522078833,0.330018086327993
0.258019465050354,0.332367664447551
0.257854092481126,0.334692175416105
0.257679374826183,0.336991447288233
0.257495282540564,0.339265308118516
0.257301786079304,0.341513585961533
0.25709885589744,0.343736108871861
0.256886462450009,0.345932704904081
0.256664576192045,0.348103202112771
0.256433167578587,0.350247428552511
0.256192207064671,0.352365212277879
0.255941665105332,0.354456381343456
0.255681512155607,0.356520763803819
0.255411718670533,0.358558187713548
0.255132255105145,0.360568481127222
0.254843091914481,0.36255147209942
0.254544199553577,0.364506988684721
0.254235548477469,0.366434858937705
0.253917109141194,0.368334910912951
0.253588851999787,0.370206972665036
0.253250747508286,0.372050872248542
0.252902766121727,0.373866437718046
0.252544878295146,0.375653497128128
0.252177054483579,0.377411878533367
0.251799265142063,0.379141409988342
0.251411480725635,0.380841919547632
0.25101367168933,0.382513235265816
0.250605808488186,0.384155185197473
0.250187861577237,0.385767597397183
0.249759801411522,0.387350299919525
0.249321598446076,0.388903120819077
0.248873223135936,0.390425888150419
0.248414645936138,0.391918429968129
0.247945837301719,0.393380574326787
0.247466767687714,0.394812149280973
0.24697740754916,0.396212982885264
0.246477727341095,0.397582903194241
0.245967697518553,0.398921738262482
0.245447288536572,0.400229316144566
0.244916470850187,0.401505464895073
0.244375214914436,0.402750012568581
0.243823491184355,0.40396278721967
0.243261270114979,0.405143616902919
0.242688522161346,0.406292329672907
0.242105217778492,0.407408753584212
0.241511327421453,0.408492716691415
0.240906821545266,0.409544047049094
0.240291670604967,0.410562572711828
0.239665845055592,0.411548121734196
0.239029315352178,0.412500522170778
0.238382051949761,0.413419602076152
0.237724025303378,0.414305189504898
0.237055205868065,0.415157112511595
0.236375564098858,0.415975199150821
0.235685070450794,0.416759277477157
0.234983695378909,0.41750917554518
0.23427140933824,0.418224721409471
