-0.255483880170223,-0.492691475383478
-0.252685943118161,-0.462433517947385
-0.282940575226432,-0.518717753034695
-0.279560825753939,-0.53726073166485
-0.237924918224435,-0.487131390638845
-0.269117653756616,-0.475934519476106
-0.212273807440169,-0.502016672214293
-0.243013293585259,-0.444866404412644
-0.282982986942987,-0.464256208553562
-0.233114018354313,-0.463161534063908
-0.246026745186651,-0.481943109402137
-0.19271939883212,-0.478571348750024
-0.198648538712985,-0.433191070841872
-0.238963263179922,-0.474454042091853
-0.213899641156164,-0.443457505212528
-0.239126515463888,-0.47582975138327
-0.206327406627961,-0.435793330980509
-0.208793178968717,-0.477753312431224
-0.204558681453326,-0.40488005307632
-0.200098473545612,-0.460303361985422
-0.152303541794963,-0.415760266518078
-0.150243621876819,-0.3895481484589
-0.201157012126347,-0.387339524694474
-0.21512595683953,-0.43672601661115
-0.206905837140315,-0.438831262708045
-0.139857117342503,-0.451989064021949
-0.169425364978239,-0.399293254454665
-0.117869006662517,-0.444304751385109
-0.201102749472056,-0.416217705951139
-0.158662493689054,-0.38892267214084
-0.204878828331412,-0.343803416718482
-0.151565134583261,-0.382154366760272
-0.115625830105762,-0.336742614461505
-0.185626913497485,-0.348236323218495
-0.141035112890158,-0.372217506242708
-0.119642085878946,-0.364411860816218
-0.154462528530981,-0.362123317183428
-0.144889241240008,-0.316619700594209
-0.127209936072137,-0.359365501603761
-0.135993762041961,-0.402001626033375
-0.120388693038756,-0.353107429285491
-0.0980107531216226,-0.350034362046241
-0.135369892391906,-0.352238687736979
-0.0613485487790959,-0.300955233273552
-0.106927266393433,-0.340922091271989
-0.105184635336864,-0.290714711446002
-0.143059351008193,-0.383825810182292
-0.0969883387309663,-0.332068564020773
-0.143466697889789,-0.343114835850626
-0.106159440198211,-0.308492667665052
-0.115554064442742,-0.323340499420949
-0.056870337176961,-0.365535981914683
-0.0807195153415451,-0.3178463428127
-0.0775097920216546,-0.315080810192321
-0.0743146539935226,-0.312341286665225
-0.0509886630910291,-0.263182901661064
-0.0679679706795516,-0.306939761552943
-0.0648163438272216,-0.304277507298789
-0.0316255928225234,-0.284336674490113
-0.0585563158156447,-0.299029383722035
-0.0775858786728363,-0.336261715446292
-0.0523536501732087,-0.293882264490791
-0.0492737262823047,-0.291346265668525
-0.0294732935813878,-0.292071971460214
-0.0652432166577139,-0.244564405899245
-0.0401191009319024,-0.283886996361342
-0.0370958053117196,-0.281449727863872
-0.0340865648011034,-0.279036826111391
-0.0169737255863932,-0.304557384439165
-0.0144046795274731,-0.287430022060761
-0.0145283315944542,-0.271810260468124
-0.0388356542616467,-0.28463050399041
-0.000847714428335991,-0.261091447544347
0.0227074850160844,-0.240665951281205
-0.0105137306711049,-0.260595654773038
-0.00762915090053851,-0.258396368673669
-0.00475821840708334,-0.256220185974448
-0.0385394710639073,-0.283756854882873
0.0100333763751123,-0.222100861439708
0.00377310324307012,-0.249828994932826
-0.0262695157453232,-0.295920780800119
-0.00293178712801485,-0.225380934011404
-0.0264119620913614,-0.281289834225127
-0.0237817438984885,-0.279591857617272
-0.0100997183707071,-0.266043225255015
0.0374884518263396,-0.243854761158032
0.053333213509136,-0.235758059664273
0.0286433290010758,-0.23186207304306
0.0313405581674282,-0.229974738107699
0.0493421751218308,-0.208453948408808
0.036695828348357,-0.2262639460546
0.00823395278630423,-0.246385047420688
0.013968436326305,-0.190977330092424
0.0459973517936379,-0.192490464286884
0.0476391760067458,-0.185555899756953
0.0523984461224429,-0.232120241371823
0.0724306791220091,-0.206337802185276
0.0459455853189138,-0.174310981369627
0.0556357743039629,-0.245497301628119
0.0601560147408486,-0.210594351578604
0.0713063627193357,-0.206578881123888
0.0248962996623048,-0.213591695497269
0.0921985973093297,-0.184369918632007
0.109708482234171,-0.211784202587768
0.0710898680575319,-0.188823997339248
0.0409337644226442,-0.248906877153266
0.0522016554520996,-0.241953004181775
0.0829217115934746,-0.244720398575709
0.0850245488622899,-0.195074469071913
0.0384604687209458,-0.172045051716638
0.0898503122605087,-0.192198715592501
0.138329373666897,-0.148285704003844
0.134043813198006,-0.172569805489253
0.0771834823084415,-0.181469560018627
0.127274557295863,-0.202195699893782
0.104037588390382,-0.184009709032401
0.114656164817118,-0.162651034541249
0.117631202030523,-0.162029091123168
0.110970112314532,-0.18015547000184
0.162834521923267,-0.193830010981824
0.0815046380044703,-0.160960971309135
0.152329586853014,-0.175939419175609
0.143274149584351,-0.140209271080687
0.151104414997073,-0.174268146818926
0.165841795576588,-0.162296100615386
0.126735911015414,-0.171761570473645
0.163353461846875,-0.174090155596983
0.131136441295386,-0.169512877535247
0.15211698011049,-0.19059568737986
0.152158380423616,-0.182428102204991
0.137651807183903,-0.166260684817842
0.137439388448834,-0.195412334716544
0.139116310121051,-0.188377387292465
0.144065636432585,-0.163150476101048
0.14618120613955,-0.162144702301326
0.135670214380034,-0.194633820802843
0.150379030189061,-0.160178840353792
0.152461366098097,-0.159218499537012
0.19590134085579,-0.127623484684305
0.183574560385609,-0.113393055166323
0.197207952421156,-0.107684752618482
0.185371578334404,-0.174860254122502
0.190448047172884,-0.125790415253179
0.164725885276721,-0.153764757761643
0.174719730602475,-0.183499686168992
0.168727609981547,-0.152061260618544
0.170712446792056,-0.151230396688445
0.143247355671387,-0.132609939086838
0.174650273245493,-0.149609806438729
0.183010418166001,-0.10367306640463
0.178545908697126,-0.148043224106427
0.203514365472658,-0.116300992538162
0.186211911658836,-0.145068040490571
0.188102552813705,-0.14435642035394
0.155570701496749,-0.171525829555643
0.191853089103492,-0.142970906660086
0.197142482852337,-0.138456466636279
0.239506477685584,-0.157676227017299
0.227306935591376,-0.153389951425607
0.166533398862318,-0.0958708622783485
0.201051981263032,-0.139721298529415
0.246598968915407,-0.137804328730779
0.204661415149034,-0.138504472694565
0.206451268872629,-0.137913343885793
0.215214137392641,-0.18070012793697
0.189056694237525,-0.105779109288384
0.235469710775107,-0.166886935741643
0.178797323861727,-0.123863126194507
0.182609515974251,-0.152838546756482
0.249731122882803,-0.151379447281893
0.233740279025121,-0.132390810731548
0.220418764784034,-0.133582455871389
0.179292806108059,-0.144647264526489
0.223814541403846,-0.132605696729973
0.254610982221804,-0.159510164831199
0.194377767997847,-0.146542538079208
0.190825595046338,-0.142605693585027
0.198937905409255,-0.146101457030766
0.195781042361424,-0.165016266884268
0.207852743843357,-0.14141211356409
0.245948758631415,-0.0925158390745071
0.247866113705046,-0.170170958107432
0.260483746666492,-0.158478270090095
0.26841897718305,-0.140526561112602
0.278924969405546,-0.129461568010785
0.244980625667781,-0.127195465190184
0.246545229120492,-0.126841971098751
0.263094320769673,-0.100917371104089
0.249647849897007,-0.126159823377913
0.268472526439747,-0.0766290257464216
0.252715294389948,-0.125509954043218
0.259792542511333,-0.0892892330979303
0.259585856897836,-0.141499677156984
0.257251219304456,-0.124593461161723
0.254652879593822,-0.151609560795586
0.269879370873338,-0.157660735811783
0.261709832826973,-0.123743909597265
0.304116929911087,-0.132021582044945
0.227866415214152,-0.0778270568382276
0.266092236105129,-0.122957888318772
0.307312932866637,-0.134340527283953
0.264858928949853,-0.102004780295808
0.226822394442716,-0.073997320886288
0.303552517572737,-0.101452632874134
0.240706672465454,-0.0786504315030353
0.271014334580413,-0.139253580271194
0.230715586037723,-0.0718344734979202
0.278793195949719,-0.120946895888374
0.324690882030244,-0.150319877103515
0.28152682223496,-0.120564223242097
0.249027311169203,-0.0766172358323354
0.290215074728748,-0.16099022119168
0.286899638997506,-0.119861350128291
0.317836370277191,-0.116430268402897
0.251408055783155,-0.0809275262082725
0.290847904909706,-0.119384878913091
0.296560097269872,-0.0693950076077439
0.312607817552508,-0.092705490095245
0.296005890786297,-0.118810676949509
0.272603891664878,-0.0741417579098059
0.31462488970628,-0.0688421226089069
0.303271503640317,-0.162298443250976
0.265638120815198,-0.102680780792301
0.32954529562436,-0.109497442208813
0.303520238552368,-0.118063864071243
0.260580977156189,-0.164300594634485
0.263740978833773,-0.074583271587861
0.308385189466787,-0.11763052431195
0.358654016203286,-0.118807919938144
0.358709089665867,-0.131628992645986
0.35640979139959,-0.0973662785326447
0.35446160252904,-0.137841298130423
0.348021660811764,-0.089465081516444
0.329550302659719,-0.107967394599368
0.32006044901372,-0.116714093046219
0.32119082297102,-0.116632090717457
0.368829928553511,-0.164133450085183
0.323431836341962,-0.116471702328628
0.32606949414414,-0.0786166748984885
0.32564680887633,-0.116315293401498
0.307294762198509,-0.0673567158057271
0.328921154816099,-0.116085930648015
0.310934607945468,-0.141359979673969
0.339368388644149,-0.107316129183861
0.332138744119625,-0.115859836631567
0.368678275911024,-0.140401068925571
0.335300677934535,-0.115633600321084
0.336342478308291,-0.115557567035766
0.375544653887509,-0.0770317518807679
0.36481308434829,-0.107506042657978
0.306121669388792,-0.109906197182571
0.296466144448201,-0.14939503174786
0.342468270950281,-0.115086001500833
0.343468782100813,-0.115003667152655
0.3416065737534,-0.129841516403603
0.338220872755532,-0.078645879579798
0.347413881260607,-0.114659011517359
0.347222062530541,-0.153623310627449
0.332831124935572,-0.12856973403915
0.345503788682805,-0.146268927975256
0.314773809807639,-0.112275229937942
0.368442159044569,-0.162235790189321
0.327988034603654,-0.0765789785533137
0.355968357358535,-0.113759435304683
0.32724405746958,-0.136007456851338
0.35781104867884,-0.113529245845993
0.334944189101316,-0.136402362229157
0.38051471462462,-0.0635949996430888
0.350426746702804,-0.125217209014084
0.327230325016809,-0.143637700636636
0.409158770683492,-0.154190562015917
0.353094085151049,-0.0797891646295837
0.402932967509028,-0.138197044718251
0.356865778036378,-0.0832367578759684
0.357892571123728,-0.086994832102521
0.348858074931416,-0.141036741075593
0.368448235290578,-0.111835492847289
0.355925786974926,-0.0792168147301618
0.370154317989852,-0.111491664998262
0.336158809315516,-0.0762039958892867
0.371842190235692,-0.111127560389981
0.345969789059089,-0.151629259849346
0.349857321395451,-0.1340858902253
0.335541301988829,-0.112468332347661
0.37516460843093,-0.110334478192162
0.415570556069531,-0.0845906788595329
0.358955703063742,-0.102852502708634
0.385995795500449,-0.0839800443524379
0.342403106430402,-0.154925386916978
0.425007451988993,-0.105592534245501
0.409446085342437,-0.14668688122217
0.382392012774371,-0.108196834626839
0.371359223558551,-0.0916191185191618
0.369107507238427,-0.0633001769811713
0.385499962727034,-0.107071175930376
0.386267403927853,-0.10677140322994
0.388547468972605,-0.105826004513718
0.389300207079105,-0.105495090288392
0.356299136659929,-0.0908041059614726
0.390795002628956,-0.104808831850958
0.35509673178585,-0.0975926927913603
0.351390445804174,-0.11982284577108
0.393743013006925,-0.103335057663405
0.394471590853323,-0.102944781891883
0.370757220183852,-0.077462071244353
0.396637757529016,-0.101719535886451
0.440127647673968,-0.128432566436344
0.398065970759016,-0.100856092962266
0.365308134968085,-0.0851643020992171
0.39948184632294,-0.0999541811131115
0.397196142892921,-0.113173885029902
0.38592435174038,-0.0543854243301711
0.436632704682679,-0.109202952200876
0.405028497237147,-0.0959416309493397
0.418516769363839,-0.0466943290819886
0.430854278213608,-0.138699865287229
0.417257960948993,-0.0907171330071663
0.407736279612858,-0.0936782647449386
0.445113004930403,-0.0665650317228099
0.417394982014873,-0.117033898031923
0.402919430469364,-0.13405563653301
0.428314151151501,-0.122600813996625
0.411723365308877,-0.0899391113280495
0.422635286341497,-0.109053560849028
0.413033808840062,-0.0885969230561844
0.433146092860912,-0.125705179904154
0.410560430659556,-0.0418303489540718
0.398123261895333,-0.0639644422323164
0.41627235563526,-0.0850223011999182
0.418777241683929,-0.120432365170983
0.420843262564095,-0.0665173042809089
0.419461320708208,-0.0811219727858057
0.420093612531828,-0.0803014326367162
0.420724165786031,-0.079467106218408
0.421353021254063,-0.0786188671963972
0.42198021971917,-0.0777565892361994
0.459137522168663,-0.0791533680023801
0.413651932802164,-0.0348273654486856
0.470843746720112,-0.0899957749053185
0.41237757736466,-0.0950386768885657
0.457726893410667,-0.0322483103386633
0.430758910715318,-0.103751471864604
0.427557170008978,-0.0693434901861276
0.428170041523331,-0.0683338744474337
0.383077052715669,-0.0969753043459848
0.411166396042571,-0.112204194123946
0.43000156887602,-0.0652119501883416
0.424850922421147,-0.0981012592429173
0.467417593224852,-0.0495028363254487
0.430065700619139,-0.0962428601628605
0.465947424584008,-0.0595325645508389
0.466883163015908,-0.069051275652213
0.431172557165385,-0.00621938126298233
0.40812603842069,-0.0578252543302155
0.462800826548357,-0.070662113249909
0.43903461353112,-0.0474000794412139
0.437910451673799,-0.0801365959899819
0.414062816063738,-0.0516967264281479
0.39660657678793,-0.0613456903857854
0.431691326820219,0.000858265350548483
0.442887194772431,-0.0380071031769422
0.443384315278009,-0.0366366749389115
0.438674115681523,-0.010365313938612
0.459490442064419,-0.000926477361450788
0.445671319685214,-0.0296868563109749
0.399551186804873,0.0111692367687404
0.481926005857597,-0.00598836852616613
0.408004871999929,-0.00597356781763689
0.472789241654217,-0.0633565008387568
0.452857406336218,-0.0430537955434303
0.47116902948706,-0.0309433782055899
0.484625048415585,-0.0389975313419013
0.466497172749645,-0.0332941631594195
0.430207791182323,-0.016196610205414
0.44782676804928,0.0361963252689273
0.442888237973132,-0.0559335867613751
0.409594029765792,0.0174058324493138
0.45110856378497,-0.0437579985036726
0.450995160586345,-0.00504878697490599
0.479942121245316,-0.028986874029441
0.432928108189705,-0.0143030661559576
0.436056861908881,-0.0345174462408412
0.495258040956211,-0.0102770146487048
0.451980152119508,0.00392529709728826
0.485980891261031,-0.00788143256981876
0.466738883775262,0.00522386255082864
0.452577539525379,0.0160322364767445
0.423265055959551,0.00820220771272152
0.434656598194251,0.0211196765941244
0.406004004630144,0.0129345920949817
0.452435186717164,0.0267048781637284
0.45236453422404,0.0282324552600932
0.460729068866209,0.0345307284982147
0.421893909975583,0.0600382281889237
0.447226992138333,0.0154832749573642
0.45167809079858,0.0373989281028156
0.451520084294268,0.0389254811705827
0.437285866207527,0.0815273730552644
0.401773995470107,0.0689890369173795
0.444895643519745,0.0455670690515421
0.449429988193867,0.00418653426305356
0.491641100732744,0.0141440142022472
0.441437861639997,0.0891025327640639
0.409702888832862,0.00930171987992003
0.404967007996647,0.00792864207791256
0.448660594654419,0.0571455200402948
0.474301731481191,0.0791179432609847
0.496534060591139,0.0639684529992985
0.446948452709939,0.0646463011166148
0.402326155020586,0.0769693190227683
0.490257106788749,0.0389146403389705
0.434954577126541,0.108644722224786
0.44493307777564,0.072066880879318
0.444493798071596,0.0735397688937391
0.444042488997921,0.0750085740662598
0.44261655214237,0.0793890345501602
0.402571511477292,0.0424010878487915
0.431331247766947,0.0779720373180949
0.439442134325322,0.0880200360261466
0.458498481813302,0.0924117084692408
0.437694552913472,0.0922627039140312
0.388034547377467,0.10131643270365
0.436470406818109,0.0950615010754753
0.431469950119527,0.0894111023674267
0.434545883110405,0.099212308707404
0.458582568619273,0.113312928420837
0.460229728063386,0.12522608981899
0.438834180084041,0.119607578305292
0.48062330254819,0.111120096455073
0.448630937451176,0.0651352787917598
0.425070607224032,0.0804706679676185
0.418406298760803,0.148741052920697
0.467876600763422,0.0719434578566683
0.449346765046026,0.116262196423185
0.411200715092958,0.133288104952264
0.452786695830898,0.151162903535355
0.443041716471361,0.164054877791429
0.391247163579304,0.120370860415376
0.459434303767897,0.100602650024932
0.414445610005913,0.131080633371556
0.43677865058406,0.160243716203382
0.423406113605512,0.111960777721256
0.417074172662325,0.132438619557377
0.432031125617519,0.166333483405516
0.408559617979426,0.137852155043717
0.407539276244105,0.138942298136326
0.402656229132039,0.188623460093922
0.392987794681336,0.110779200274738
0.397866674171755,0.108321351057395
0.401182683354479,0.145239225936914
0.429216487452995,0.132138221931165
0.444355712433128,0.177860966524811
0.438162682923281,0.149345367241372
0.39672280258374,0.149194170929243
0.395580216070177,0.150151194834246
0.387601153338955,0.190286436082467
0.390899904482219,0.153848067135165
0.364621047635434,0.165577941639719
0.420706485062535,0.140336865501278
0.381014911676479,0.160581613774349
0.395338268811327,0.206411272301528
0.375812362724526,0.163599625939693
0.374484817144549,0.164316220213347
0.334049203099368,0.12779887930341
0.369067501206487,0.167026588290456
0.367686472109067,0.167664449064226
0.414252366406651,0.183929494562864
0.344733221286938,0.142792731935096
0.362056055017576,0.170052593230505
0.390004947422431,0.148062857864911
0.339700762794037,0.192901693036852
0.38910623376905,0.163998359228746
0.326326932965716,0.199105234475038
0.353293359690846,0.173128874888655
0.392684162766987,0.142891839994824
0.347241737790532,0.174828831765487
0.36044005252609,0.177861505668418
0.328993185791758,0.139816672776791
0.357020700298247,0.158875623766168
0.373468336952192,0.187630702092932
0.343128831650017,0.1548535926881
0.355316068831768,0.1879019037625
0.338281730403087,0.222295028796375
0.331386069370191,0.177782543318687
0.340803472143334,0.212399505999092
0.27945341735233,0.144141480417298
0.319676418049937,0.178687662901768
0.317962956170348,0.178735316726523
0.315108371717462,0.200850689729284
0.341360169894304,0.141674970249941
0.30128324601811,0.146960118969636
0.354353851384328,0.200108798955026
0.30027483458559,0.178041068183112
0.298451038631417,0.177851357088705
0.339132577972626,0.152776712892684
0.291056717193433,0.17686652054511
0.325512083296341,0.144870938478773
0.328945654359907,0.210326680537964
0.285407348045739,0.175886519012825
0.283504575161069,0.175513098221127
0.271291088899798,0.176552585934799
0.296091999147642,0.200702349145425
0.224870383900225,0.129228625212586
0.306402494472523,0.154729004760459
0.265940746275378,0.171071924120717
0.215162406425634,0.178867447321628
0.280180175653437,0.148393756197359
0.262013512557641,0.165380165330112
0.223406063543834,0.174545121996456
0.291038754029856,0.178437128040101
0.222988952752112,0.159887452185261
0.263428818744022,0.132043448080758
0.271301447044766,0.159288650479977
0.230642404767105,0.157087146559558
0.226310159456709,0.154934928839648
0.254042444718451,0.203037569165053
0.218821242554405,0.135212735274253
0.176414833073577,0.145342960189215
0.204091754995531,0.142488383253657
0.203303771775265,0.115377653591562
0.154274949734062,0.161415651175735
0.239008138950268,0.168512905579343
0.194946864496903,0.136701445890514
0.161026601571054,0.164698034857441
0.220863677770359,0.102788847731904
0.182070179030268,0.0961309381348013
0.177107871224888,0.150682131905879
0.181217749592628,0.0995538578716845
0.169051078263993,0.118305477285756
0.134963534115872,0.147508425750646
0.157638813863241,0.134953314153756
0.142076666265979,0.0961165083524129
0.134165518900736,0.122205015427023
0.120131675524331,0.0428087109234454
0.124721126357474,0.0327661949807193
0.157194592977655,0.110608091787708
0.0773337579800704,0.0603558933923969
0.137032602014153,0.0849544954699021
0.130463469051301,0.0738351162182101
0.0599004829529148,0.0582838642727516
0.0881259039333202,0.0276110938208283
0.0983188850156617,0.0539127535277752
0.0956680678192624,0.0511183128850845
0.0876650958371046,0.0425209562118712
0.0822878474381341,0.0366095648265186
0.116310627111589,0.0458188012533653
0.0714333093538811,0.0243499646719737
0.0505856510583262,0.0471845727676915
0.102093475648377,-0.0269523100861865
0.0576789336486906,0.00819440353045253
0.0483636179974786,0.0182486197970113
0.0930453663758232,-0.0290591100847783
0.00568223031068656,-0.0191036041141004
0.0309738504678849,-0.0117243897826684
-0.00900259416454895,-0.00884731210774114
0.0352465051209709,-0.0196181303649485
0.015959092375846,-0.0477198350031886
0.0670181904829003,-0.0337254575229401
0.0137767656334442,-0.0623879482240103
0.01656404200845,-0.0688341390131955
0.0122979365705293,-0.0499127647196897
0.00648114705397619,-0.0578829993987041
0.00356089680965556,-0.0619284050420034
-0.0504500518125969,-0.0453642027827935
0.026734831522772,-0.0511831193375085
-0.0260723365539454,-0.104627781191226
-0.0278033269312763,-0.124921852615336
-0.0385164918243141,-0.081713018456862
-0.0207731593361978,-0.0981862120113961
-0.0530923576815423,-0.189877691771157
-0.0534023421293464,-0.146630776273184
-0.0608216826631421,-0.152628429283092
-0.0755595340394602,-0.138299131055797
-0.0555351701915149,-0.206077901208302
-0.0942566198668899,-0.182205917103872
-0.0876366038520605,-0.202725706442283
-0.0564273178258366,-0.18287391834877
-0.0939576268030513,-0.213500985634271
-0.102968697013781,-0.188040173527493
-0.148091222397767,-0.26421597714989
-0.122764050846008,-0.264236662791275
-0.150441056545828,-0.312529295268473
-0.135754787663444,-0.287985007228803
-0.131666788288098,-0.286131155145506
-0.148859633625753,-0.31248451199162
-0.155454514369699,-0.325018865459531
-0.158762510878227,-0.331357702758903
-0.117941016386756,-0.368667632674651
-0.162572749054075,-0.363389668718394
-0.168728525050103,-0.350662606497396
-0.220300660140789,-0.339823518778974
-0.21016347149783,-0.318035398405212
-0.178757226366559,-0.370403159759199
-0.222367257758585,-0.442270185058741
-0.197280811981712,-0.410125928687787
-0.217743729605621,-0.443769157894589
-0.24371284974946,-0.453372575211997
-0.252755834711582,-0.460337145221897
-0.253976839477582,-0.402833314505139
-0.250998468321507,-0.491873271504802
-0.202004378878342,-0.498838670182583
-0.239126727941266,-0.493311036931747
-0.21747300196633,-0.455234610044504
-0.252436837592616,-0.490132249924431
-0.220751465198128,-0.536036858558992
-0.251719403379862,-0.517840152304853
-0.254800055010107,-0.523723887030112
-0.257853813689965,-0.529508962320674
-0.278481907375761,-0.567273870108498
-0.286924821768211,-0.58201684969403
-0.295131339705127,-0.595909425886527
-0.258209260808205,-0.572213100396504
-0.282980613391466,-0.573057610924603
-0.351850572097652,-0.597493424021205
-0.320798841598412,-0.636207634413532
-0.365729158850827,-0.591705285127133
-0.325624211068146,-0.643180414103833
-0.334970465222625,-0.65606337426965
-0.311031552922351,-0.638302223149879
-0.354690808997921,-0.64008160374343
-0.3558005038173,-0.641132917840179
-0.348235470974247,-0.672776809232009
-0.352457795825395,-0.677663817543256
-0.387419579558528,-0.701217356170469
-0.362581863814987,-0.688413538233173
-0.382488819538747,-0.68679351307268
-0.370247167626109,-0.665393964327283
-0.372094851532825,-0.697104312279726
-0.373924746121334,-0.698599563660637
-0.397750744476522,-0.685416222197131
-0.382713837676336,-0.70488215426722
-0.384399978504633,-0.705902592872726
-0.391714028668864,-0.680562951241243
-0.392475428620363,-0.70984523916523
-0.394019866633163,-0.710404512820509
-0.39996401100609,-0.711890058972721
-0.401391930033185,-0.712075453924822
-0.450032376300587,-0.691937752669016
-0.360546736939948,-0.677760171409948
-0.364983441261467,-0.72243896497612
-0.365974926858888,-0.669071048881033
-0.410833540708245,-0.732240541027242
-0.444955058304426,-0.671401743828921
-0.413408908387796,-0.750351874432319
-0.453296462771627,-0.673580093451482
-0.445981125293635,-0.678213045764041
-0.412392423051463,-0.666838829671582
-0.421969035239209,-0.632874028651637
-0.399712287326291,-0.679140364242398
-0.406907467125816,-0.657639189132174
-0.441178609184453,-0.658045097256051
-0.442127225035846,-0.65271031192289
-0.446482927276941,-0.609157386567831
-0.446784266966047,-0.602084873142878
-0.409121271895046,-0.643435729417969
-0.493980917981666,-0.627220305029623
-0.445223566846491,-0.571840431963383
-0.440615046656548,-0.554614732547548
-0.473590442297811,-0.515856057609331
-0.446952226805858,-0.555481010432326
-0.420386003040493,-0.550308167915422
-0.424936375284738,-0.513573602126221
-0.446207743164006,-0.53405557180994
-0.434034788593886,-0.48783428817583
-0.445535643506723,-0.52066390890359
-0.444044732417126,-0.497483327046903
-0.447966985945577,-0.504337475560771
-0.44209656190924,-0.473267385435208
-0.414585442340439,-0.419062039393529
-0.419855928123315,-0.440091263336845
-0.438614486398853,-0.437715890079096
-0.474903628111276,-0.451698677892417
-0.434269681192262,-0.400358004081074
-0.389871350721758,-0.353218497223021
-0.395284112105136,-0.331068646483006
-0.448016133535524,-0.367800327337328
-0.414799889917392,-0.306673630305827
-0.407507376230497,-0.278568539752177
-0.385190013794274,-0.291142723755519
-0.415216116512631,-0.272638752244098
-0.440731788208819,-0.245125797000407
-0.434458219536988,-0.289373459938861
-0.409787035561469,-0.241720346633398
-0.438515122398093,-0.248590447560872
-0.376768511036863,-0.226782214488957
-0.439765111550915,-0.197697542472851
-0.391177819278109,-0.145558357557843
-0.380864560127263,-0.123073814390941
-0.351012177013862,-0.106395185294713
-0.365420665258546,-0.133556674040222
-0.35845361698507,-0.135877638758131
-0.380473896058145,-0.0232981137937223
-0.351136701229744,0.0301295118252698
-0.33223892455826,0.0242588368660168
-0.361682464824435,0.105643943224522
-0.33117045860763,0.0800225067770416
-0.29700693631268,0.218778456408406
-0.272281465411918,0.152413019590736
-0.273054967638884,0.197089516683197
-0.304823734019062,0.259171596683527
-0.261941532890941,0.262675491362157
-0.330276507195411,0.248181601875129
-0.310466817109471,0.231418846252892
-0.275953656185361,0.300467092094251
-0.252893682834708,0.346264879637746
-0.267847936131105,0.323086824415428
-0.242635919649493,0.332297665390724
-0.290451095531005,0.351435045259443
-0.241607872844139,0.4496115982482
-0.237134664717829,0.439594049441345
-0.259635717601425,0.506711853852382
-0.194239768700199,0.445065625056995
-0.143930991087542,0.499226297758442
-0.189835766180798,0.536859815269153
-0.199171309075068,0.55334732706916
-0.221360750568671,0.575706983212282
-0.119253624759654,0.624250500075126
-0.169040641085979,0.612890723984604
-0.136070747895335,0.622882143869962
-0.166044766028182,0.632330082450069
-0.141651602454584,0.646826434114913
-0.0889402356840479,0.643668079549335
-0.0945571478898365,0.663379113066196
-0.0768347969347021,0.746947016564878
-0.0868805991572698,0.757668182039935
-0.127587610696408,0.793063685406616
-0.116956774421272,0.758720549457995
-0.010763148056406,0.823393074026485
-0.0416831173104876,0.851121615966087
-0.0405772167211556,0.920797208186313
-0.0540308656426835,0.883147406732656
-0.00271551611866392,0.911076925891932
0.0068531689282731,0.940268294017718
0.0155792681189168,0.936232783880219
