-0.437719567523482,0.805262584382197
-0.42928836692622,0.79944863519043
-0.420893893973836,0.793665390348939
-0.412536111958431,0.787912800217383
-0.404214984172102,0.78219081515542
-0.395930473906949,0.77649938552271
-0.387682544455071,0.770838461678911
-0.379471159108566,0.765207993983682
-0.371296281159535,0.759607932796683
-0.363157873900076,0.754038228477572
-0.355055900622288,0.748498831386008
-0.34699032461827,0.742989691881649
-0.338961109180122,0.737510760324156
-0.330968217599942,0.732061987073187
-0.323011613169829,0.726643322488401
-0.315091259181883,0.721254716929456
-0.307207118928202,0.715896120756012
-0.299359155700886,0.710567484327727
-0.291547332792033,0.705268758004261
-0.283771613493744,0.699999892145272
-0.276031961098116,0.69476083711042
-0.268328338897249,0.689551543259362
-0.260660710183242,0.684371960951759
-0.253029038248194,0.679222040547269
-0.245433286384204,0.674101732405551
-0.237873417883371,0.669010986886264
-0.230349396037795,0.663949754349066
-0.222861184139573,0.658917985153617
-0.215408745480807,0.653915629659576
-0.207992043353593,0.648942638226602
-0.200611041050032,0.643998961214353
-0.193265701862222,0.639084548982488
-0.185955989082264,0.634199351890667
-0.178681866002254,0.629343320298548
-0.171443295914294,0.62451640456579
-0.164240242110481,0.619718555052052
-0.157072667882916,0.614949722116993
-0.149940536523696,0.610209856120273
-0.142843811324921,0.605498907421548
-0.13578245557869,0.60081682638048
-0.128756432577103,0.596163563356727
-0.121765705612257,0.591539068709947
-0.114810237976253,0.586943292799799
-0.107889992961189,0.582376185985943
-0.101004933859165,0.577837698628038
-0.0941550239622792,0.573327781085741
-0.0873402265626308,0.568846383718713
-0.0805605049523191,0.564393456886612
-0.0738158224234431,0.559968950949097
-0.0671061422681019,0.555572816265827
-0.0604314277783944,0.551205003196461
-0.0537916422464197,0.546865462100658
-0.0471867489642771,0.542554143338076
-0.0406167112240655,0.538270997268376
-0.0340814923178839,0.534015974251214
-0.0275810555378315,0.529789024646251
-0.0211153641760072,0.525590098813146
-0.0146843815245103,0.521419147111557
-0.0082880708754398,0.517276119901143
-0.00192639552089455,0.513160967541563
0.00440068124702614,0.509073640392476
0.0106931961362233,0.505014088813542
0.0169511858545979,0.500982263164418
0.0231746871100507,0.496978113804764
0.0293637366104829,0.493001591094239
0.0355183710637952,0.489052645392502
0.0416386271778886,0.485131227059211
0.0477245416606642,0.481237286454026
0.0537761512200227,0.477370773936605
0.0597934925638651,0.473531639866607
0.0657766024000924,0.469719834603692
0.0717255174366055,0.465935308507518
0.0776402743813053,0.462178011937744
0.0835209099420928,0.45844789525403
0.0893674608268688,0.454744908816033
0.0951799637435344,0.451069002983413
0.100958455399991,0.447420128115828
0.106702972504138,0.443798234572939
0.112413551763878,0.440203272714403
0.118090229887111,0.43663519289988
0.123733043581738,0.433093945489028
0.12934202955566,0.429579480841507
0.134917224516779,0.426091749316975
0.140458665172994,0.422630701275091
0.145966388232207,0.419196287075514
0.15144043040232,0.415788457077903
0.156880828391232,0.412407161641918
0.162287618906844,0.409052351127216
0.167660838657059,0.405723975893457
0.173000524349776,0.4024219863003
0.178306712692896,0.399146332707404
0.183579440394321,0.395896965474427
0.188818744161951,0.392673834961029
0.194024660703688,0.389476891526868
0.199197226727432,0.386306085531604
0.204336478941084,0.383161367334894
0.209442454052546,0.380042687296399
0.214515188769717,0.376949995775778
0.219554719800499,0.373883243132688
0.224561083852793,0.370842379726789
0.229534317634501,0.36782735591774
0.234474457853521,0.3648381220652
0.239381541217757,0.361874628528827
0.244255604435108,0.358936825668281
0.249096684213476,0.356024663843221
0.253904817260762,0.353138093413305
0.258680040284866,0.350277064738193
0.263422389993689,0.347441528177542
0.268131903095133,0.344631434091014
0.272808616297098,0.341846732838265
0.277452566307485,0.339087374778955
0.282063789834195,0.336353310272744
0.286642323585129,0.333644489679289
0.291188204268188,0.33096086335825
0.295701468591274,0.328302381669286
0.300182153262286,0.325668994972055
0.304630294989126,0.323060653626217
0.309045930479694,0.320477307991431
0.313429096441892,0.317918908427355
0.317779829583621,0.315385405293649
0.322098166612782,0.31287674894997
0.326384144237275,0.310392889755979
0.330637799165001,0.307933778071334
0.334859168103861,0.305499364255694
0.339048287761757,0.303089598668718
0.343205194846589,0.300704431670065
0.347329926066259,0.298343813619394
0.351422518128666,0.296007694876363
0.355483007741712,0.293696025800632
0.359511431613298,0.29140875675186
0.363507826451325,0.289145838089705
0.367472228963694,0.286907220173826
0.371404675858306,0.284692853363883
0.375305203843061,0.282502688019534
0.379173849625861,0.280336674500438
0.383010649914606,0.278194763166254
0.386815641417198,0.276076904376641
0.390588860841538,0.273983048491259
0.394330344895525,0.271913145869764
0.398040130287062,0.269867146871818
0.401718253724049,0.267845001857078
0.405364751914387,0.265846661185204
0.408979661565978,0.263872075215855
0.412563019386721,0.261921194308689
0.416114862084518,0.259993968823365
0.41963522636727,0.258090349119542
0.423124148942878,0.25621028555688
0.426581666519243,0.254353728495037
0.430007815804265,0.252520628293672
0.433402633505846,0.250710935312444
0.436766156331886,0.248924599911011
0.440098420990287,0.247161572449034
0.44339946418895,0.24542180328617
0.446669322635774,0.243705242782079
0.449908033038662,0.242011841296419
0.453115632105514,0.24034154918885
0.456292156544232,0.23869431681903
0.459437643062715,0.237070094546618
0.462552128368865,0.235468832731274
0.465635649170583,0.233890481732656
0.468688242175771,0.232334991910423
0.471709944092328,0.230802313624234
0.474700791628155,0.229292397233748
0.477660821491155,0.227805193098623
0.480590070389227,0.22634065157852
0.483488575030272,0.224898723033096
0.486356372122192,0.22347935782201
0.489193498372887,0.222082506304922
0.491999990490259,0.220708118841491
0.494775885182208,0.219356145791375
0.497521219156635,0.218026537514233
0.500236029121442,0.216719244369724
0.502920351784528,0.215434216717508
0.505574223853795,0.214171404917243
0.508197682037145,0.212930759328587
0.510790763042477,0.2117122303112
0.513353503577693,0.210515768224741
0.515885940350694,0.209341323428869
0.51838811006938,0.208188846283243
0.520860049441653,0.207058287147521
0.523301795175414,0.205949596381362
0.525713383978563,0.204862724344426
0.528094852559001,0.203797621396371
0.53044623762463,0.202754237896856
0.53276757588335,0.201732524205541
0.535058904043063,0.200732430682083
0.537320258811668,0.199753907686143
0.539551676897068,0.198796905577378
0.541753195007162,0.197861374715449
0.543924849849853,0.196947265460013
0.54606667813304,0.196054528170729
0.548178716564625,0.195183113207258
0.550261001852509,0.194332970929256
0.552313570704592,0.193504051696385
0.554336459828777,0.192696305868301
0.556329705932962,0.191909683804665
0.55829334572505,0.191144135865135
0.560227415912942,0.19039961240937
0.562131953204538,0.189676063797029
0.564006994307739,0.188973440387771
0.565852575930447,0.188291692541255
0.567668734780561,0.18763077061714
0.569455507565984,0.186990624975084
0.571212930994616,0.186371205974747
0.572941041774357,0.185772463975788
0.57463987661311,0.185194349337864
0.576309472218774,0.184636812420637
0.577949865299251,0.184099803583763
0.579561092562442,0.183583273186903
0.581143190716247,0.183087171589715
0.582696196468568,0.182611449151859
0.584220146527305,0.182156056232992
0.58571507760036,0.181720943192774
0.587181026395633,0.181306060390863
0.588618029621025,0.18091135818692
0.590026123984438,0.180536786940602
0.591405346193772,0.180182297011569
0.592755732956927,0.179847838759479
0.594077320981806,0.179533362543992
0.595370146976309,0.179238818724766
0.596634247648337,0.17896415766146
0.59786965970579,0.178709329713733
0.59907641985657,0.178474285241245
0.600254564808578,0.178258974603654
0.601404131269715,0.178063348160618
0.602525155947881,0.177887356271797
0.603617675550977,0.177730949296851
0.604681726786905,0.177594077595436
0.605717346363565,0.177476691527214
0.606724570988859,0.177378741451842
0.607703437370687,0.177300177728979
0.60865398221695,0.177240950718285
0.609576242235549,0.177201010779418
0.610470254134385,0.177180308272037
0.611336054621359,0.177178793555802
0.612173680404371,0.17719641699037
0.612983168191324,0.177233128935402
0.613764554690118,0.177288879750555
0.614517876608653,0.177363619795489
0.61524317065483,0.177457299429863
0.615940473536551,0.177569869013336
0.616609821961717,0.177701278905566
0.617251252638229,0.177851479466213
0.617864802273986,0.178020421054935
0.618450507576891,0.178208054031391
0.619008405254844,0.178414328755241
0.619538532015746,0.178639195586143
0.620040924567498,0.178882604883756
0.620515619618001,0.179144507007739
0.620962653875157,0.17942485231775
0.621382064046865,0.17972359117345
0.621773886841026,0.180040673934497
0.622138158965543,0.180376050960549
0.622474917128315,0.180729672611266
0.622784198037244,0.181101489246306
0.623066038400231,0.181491451225329
0.623320474925176,0.181899508907993
0.62354754431998,0.182325612653957
0.623747283292545,0.182769712822881
0.623919728550771,0.183231759774423
0.624064916802559,0.183711703868242
0.624182884755811,0.184209495463996
0.624273669118426,0.184725084921346
0.624337306598307,0.18525842259995
0.624373833903353,0.185809458859466
0.624383287741466,0.186378144059554
0.624365704820548,0.186964428559872
0.624321121848497,0.18756826272008
0.624249575533217,0.188189596899836
0.624151102582607,0.1888283814588
0.624025739704569,0.18948456675663
0.623873523607003,0.190158103152985
0.623694490997811,0.190848941007524
0.623488678584893,0.191557030679907
0.62325612307615,0.192282322529791
0.622996861179484,0.193024766916836
0.622710929602794,0.1937843142007
0.622398365053983,0.194560914741044
0.622059204240951,0.195354518897525
0.621693483871599,0.196165077029802
0.621301240653827,0.196992539497535
0.620882511295538,0.197836856660383
0.620437332504631,0.198697978878003
0.619965740989008,0.199575856510056
0.619467773456569,0.2004704399162
0.618943466615216,0.201381679456094
0.61839285717285,0.202309525489397
0.617815981837371,0.203253928375768
0.61721287731668,0.204214838474866
0.616583580318679,0.205192206146349
0.615928127551268,0.206185981749877
0.615246555722348,0.207196115645109
0.61453890153982,0.208222558191703
0.613805201711585,0.209265259749319
0.613045492945544,0.210324170677615
0.612259811949598,0.21139924133625
0.611448195431648,0.212490422084883
0.610610680099594,0.213597663283173
0.609747302661338,0.21472091529078
0.608858099824781,0.215860128467361
0.607943108297823,0.217015253172576
0.607002364788366,0.218186239766084
0.606035906004311,0.219373038607544
0.605043768653557,0.220575600056614
0.604025989444007,0.221793874472953
0.602982605083561,0.223027812216222
0.601913652280121,0.224277363646077
0.600819167741586,0.225542479122179
0.599699188175859,0.226823109004186
0.598553750290839,0.228119203651757
0.597382890794428,0.229430713424551
0.596186646394528,0.230757588682227
0.594965053799037,0.232099779784444
0.593718149715859,0.233457237090861
0.592445970852893,0.234829910961137
0.591148553918041,0.23621775175493
0.589825935619203,0.237620709831899
0.588478152664281,0.239038735551705
0.587105241761175,0.240471779274004
0.585707239617786,0.241919791358457
0.584284182942016,0.243382722164722
0.582836108441764,0.244860522052459
0.581363052824933,0.246353141381325
0.579865052799423,0.247860530510981
0.578342145073135,0.249382639801084
0.57679436635397,0.250919419611294
0.575221753349828,0.25247082030127
0.573624342768611,0.254036792230671
0.57200217131822,0.255617285759155
0.570355275706556,0.257212251246382
0.568683692641519,0.25882163905201
0.566987458831011,0.260445399535698
0.565266610982932,0.262083483057106
0.563521185805183,0.263735839975892
0.561751220005666,0.265402420651715
0.559956750292281,0.267083175444234
0.558137813372929,0.268778054713108
0.556294445955511,0.270487008817997
0.554426684747928,0.272209988118557
0.552534566458082,0.27394694297445
0.550618127793872,0.275697823745333
0.548677405463199,0.277462580790866
0.546712436173966,0.279241164470707
0.544723256634073,0.281033525144515
0.54270990355142,0.28283961317195
0.540672413633908,0.28465937891267
0.538610823589439,0.286492772726335
0.536525170125914,0.288339744972602
0.534415489951233,0.290200246011131
0.532281819773297,0.292074226201582
0.530124196300007,0.293961635903612
0.527942656239265,0.295862425476881
0.52573723629897,0.297776545281047
0.523507973187025,0.29970394567577
0.52125490361133,0.301644577020709
0.518978064279785,0.303598389675522
0.516677491900292,0.305565333999869
0.514353223180752,0.307545360353407
0.512005294829066,0.309538419095797
0.509633743553135,0.311544460586697
0.507238606060859,0.313563435185766
0.504819919060139,0.315595293252664
0.502377719258877,0.317639985147047
0.499912043364974,0.319697461228577
0.497422928086329,0.321767671856911
0.494910410130845,0.32385056739171
0.492374526206422,0.32594609819263
0.489815313020961,0.328054214619332
0.487232807282363,0.330174867031475
0.484627045698529,0.332308005788716
0.48199806497736,0.334453581250716
0.479345901826757,0.336611543777134
0.476670592954621,0.338781843727627
0.473972175068852,0.340964431461855
0.471250684877352,0.343159257339477
0.468506159088021,0.345366271720152
0.465738634408762,0.347585424963539
0.462948147547473,0.349816667429296
0.460134735212057,0.352059949477083
0.457298434110414,0.354315221466559
0.454439280950445,0.356582433757382
0.451557312440052,0.358861536709211
0.448652565287134,0.361152480681705
0.445725076199594,0.363455216034524
0.442774881885331,0.365769693127326
0.439802019052248,0.36809586231977
0.436806524408244,0.370433673971515
0.433788434661221,0.372783078442219
0.43074778651908,0.375144026091543
0.427684616689722,0.377516467279144
0.424598961881047,0.379900352364682
0.421490858800956,0.382295631707815
0.418360344157351,0.384702255668203
0.415207454658132,0.387120174605504
0.412032227011201,0.389549338879378
0.408834697924458,0.391989698849482
0.405614904105804,0.394441204875477
0.40237288226314,0.396903807317021
0.399108669104367,0.399377456533773
0.395822301337386,0.401862102885392
0.395822301337386,0.401862102885392
0.392529186385117,0.404322439715975
0.38924468504029,0.406723423764758
0.385968764065522,0.409065400484105
0.382701390223431,0.411348715326385
0.379442530276635,0.413573713743962
0.376192150987749,0.415740741189203
0.372950219119393,0.417850143114473
0.369716701434183,0.41990226497214
0.366491564694737,0.421897452214568
0.363274775663672,0.423836050294124
0.360066301103605,0.425718404663174
0.356866107777154,0.427544860774084
0.353674162446937,0.429315764079221
0.350490431875569,0.43103146003095
0.34731488282567,0.432692294081636
0.344147482059856,0.434298611683648
0.340988196340745,0.43585075828935
0.337836992430953,0.437349079351108
0.334693837093099,0.438793920321288
0.3315586970898,0.440185626652258
0.328431539183673,0.441524543796382
0.325312330137335,0.442811017206027
0.322201036713404,0.444045392333558
0.319097625674498,0.445228014631343
0.316002063783233,0.446359229551747
0.312914317802227,0.447439382547135
0.309834354494097,0.448468819069875
0.306762140621461,0.449447884572331
0.303697642946936,0.450376924506872
0.30064082823314,0.451256284325861
0.297591663242689,0.452086309481665
0.294550114738202,0.452867345426652
0.291516149482295,0.453599737613185
0.288489734237586,0.454283831493632
0.285470835766692,0.454919972520359
0.282459420832231,0.455508506145731
0.27945545619682,0.456049777822116
0.276458908623076,0.456544133001878
0.273469744873617,0.456991917137383
0.27048793171106,0.457393475680999
0.267513435898023,0.457749154085091
0.264546224197122,0.458059297802025
0.261586263370976,0.458324252284167
0.258633520182202,0.458544362983884
0.255687961393416,0.458719975353541
0.252749553767237,0.458851434845504
0.249818264066281,0.458939086912139
0.246894059053167,0.458983277005813
0.243976905490511,0.458984350578892
0.241066770140931,0.458942653083741
0.238163619767043,0.458858529972726
0.235267421131467,0.458732326698215
0.232378140996819,0.458564388712573
0.229495746125715,0.458355061468165
0.226620203280775,0.458104690417358
0.223751479224614,0.457813621012518
0.220889540719851,0.457482198706012
0.218034354529103,0.457110768950204
0.215185887414987,0.456699677197462
0.21234410614012,0.456249268900151
0.20950897746712,0.455759889510638
0.206680468158605,0.455231884481288
0.203858544977191,0.454665599264467
0.201043174685496,0.454061379312542
0.198234324046137,0.453419570077879
0.195431959821732,0.452740517012843
0.192636048774898,0.452024565569801
0.189846557668253,0.451272061201119
0.187063453264414,0.450483349359162
0.184286702325997,0.449658775496298
0.181516271615622,0.448798685064892
0.178752127895904,0.44790342351731
0.175994237929462,0.446973336305918
0.173242568478912,0.446008768883082
0.170497086306872,0.445010066701168
0.16775775817596,0.443977575212543
0.165024550848793,0.442911639869573
0.162297431087987,0.441812606124622
0.159576365656161,0.440680819430059
0.156861321315933,0.439516625238248
0.154152264829918,0.438320369001556
0.151449162960735,0.437092396172348
0.148751982471001,0.435833052202991
0.146060690123333,0.434542682545851
0.143375252680349,0.433221632653295
0.140695636904667,0.431870247977687
0.138021809558902,0.430488873971394
0.135353737405674,0.429077856086783
0.132691387207599,0.427637539776218
0.130034725727294,0.426168270492067
0.127383719727377,0.424670393686696
0.124738335970466,0.423144254812469
0.122098541219178,0.421590199321755
0.119464302236129,0.420008572666918
0.116835585783938,0.418399720300324
0.114212358625221,0.41676398767434
0.111594587522597,0.415101720241332
0.108982239238683,0.413413263453666
0.106375280536095,0.411698962763708
0.103773678177452,0.409959163623823
0.10117739892537,0.408194211486379
0.098586409542467,0.406404451803741
0.0960006767913606,0.404590230028275
0.093420167434668,0.402751891612347
0.0908448482350065,0.400889782008324
0.0882746859549935,0.39900424666857
0.0857096473572464,0.397095631045454
0.0831496992043825,0.395164280591339
0.0805948082590192,0.393210540758594
0.0780449412837739,0.391234756999583
0.0755000650412639,0.389237274766672
0.0729601462941066,0.387218439512229
0.0704251518049194,0.385178596688618
0.0678950483363197,0.383118091748207
0.0653698026509247,0.38103727014336
0.062849381511352,0.378936477326444
0.0603337516802189,0.376816058749825
0.0578228799201426,0.37467635986587
0.0553167329937405,0.372517726126944
0.0528152776636303,0.370340502985412
0.050318480692429,0.368145035893643
0.0478263088427541,0.365931670304001
0.045338728877223,0.363700751668852
0.0428557075584531,0.361452625440563
0.0403772116490617,0.3591876370715
0.037903207911666,0.356906132014028
0.0354336631088837,0.354608455720514
0.032968544003332,0.352294953643324
0.0305078173576283,0.349965971234823
0.02805144993439,0.347621853947379
0.0255994084962343,0.345262947233357
0.0231516598057788,0.342889596545123
0.0207081706256407,0.340502147335043
0.0182689077184374,0.338100945055483
0.0158338378467864,0.33568633515881
0.0134029277733049,0.333258663097389
0.0109761442606104,0.330818274323586
0.00855345407132015,0.328365514289768
0.00613482396805157,0.3259007284483
0.00372022071342208,0.32342426225155
0.00130961107004898,0.320936461151881
-0.00109703819945034,0.318437670601662
-0.0034997603324585,0.315928236053257
-0.00589858856635812,0.313408502959034
-0.00829355613853182,0.310878816771357
-0.0106846962863623,0.308339522942593
-0.0130720422472322,0.305790966925109
-0.015455627258524,0.303233494171269
-0.0178354845576204,0.300667450133441
-0.0202116473819042,0.298093180263991
-0.0225841489687579,0.295511030015283
-0.024953022555564,0.292921344839685
-0.0273183013797053,0.290324470189563
-0.0296800186785644,0.287720751517282
-0.0320382076895239,0.285110534275208
-0.0343929016499664,0.282494163915709
-0.0367441337972746,0.279871985891149
-0.0390919373688312,0.277244345653895
-0.0414363456020187,0.274611588656313
-0.0437773917342197,0.271974060350769
-0.0461151090028169,0.269332106189629
-0.048449530645193,0.266686071625259
-0.0507806898987305,0.264036302110025
-0.0531086200008122,0.261383143096294
-0.0554333541888205,0.258726940036431
-0.0577549257001382,0.256068038382802
-0.060073367772148,0.253406783587773
-0.0623887136422323,0.250743521103711
-0.0647009965477738,0.248078596382982
-0.0670102497261553,0.245412354877951
-0.0693165064147592,0.242745142040985
-0.0716197998509683,0.24007730332445
-0.0739201632721651,0.237409184180712
-0.0762176299157324,0.234741130062137
-0.0785122330190527,0.23207348642109
-0.0808040058195086,0.229406598709939
-0.0830929815544829,0.226740812381049
-0.085379193461358,0.224076472886785
-0.0876626747775168,0.221413925679515
-0.0899434587403417,0.218753516211605
-0.0922215785872154,0.21609558993542
-0.0944970675555206,0.213440492303326
-0.0967699588826398,0.21078856876769
-0.0990402858059558,0.208140164780877
-0.101308081562851,0.205495625795254
-0.103573379390708,0.202855297263187
-0.10583621252691,0.200219524637041
-0.108096614208839,0.197588653369184
-0.110354617673878,0.19496302891198
-0.11261025615941,0.192342996717796
-0.114863562902816,0.189728902238999
-0.117114571141481,0.187121090927953
-0.119363314112785,0.184519908237026
-0.121609825054113,0.181925699618582
-0.123854137202847,0.179338810524989
-0.126096283796368,0.176759586408613
-0.128336298072061,0.174188372721819
-0.130574213267307,0.171625514916973
-0.132810062619489,0.169071358446442
-0.13504387936599,0.166526248762592
-0.137275696744193,0.163990531317789
-0.13950554799148,0.161464551564398
-0.141733466345233,0.158948654954786
-0.143959485042836,0.156443186941319
-0.14618363732167,0.153948492976363
-0.148405956419119,0.151464918512284
-0.150626475572566,0.148992809001448
-0.152845228019392,0.146532509896221
-0.155062246996981,0.14408436664897
-0.157277565742715,0.141648724712059
-0.159491217493976,0.139225929537857
-0.161703235488148,0.136816326578727
-0.163913652962613,0.134420261287038
-0.166122503154754,0.132038079115153
-0.168329819301953,0.129670125515441
-0.170535634641592,0.127316745940266
-0.172739982411056,0.124978285841995
-0.174942895847725,0.122655090672994
-0.177144408188983,0.120347505885628
-0.179344552672213,0.118055876932265
-0.181543362534796,0.11578054926527
-0.183740871014117,0.113521868337009
-0.185937111347557,0.111280179599848
-0.188132116772498,0.109055828506153
-0.190325920526324,0.10684916050829
-0.192518555846418,0.104660521058626
-0.194710055970161,0.102490255609527
-0.196900454134937,0.100338709613358
-0.199089783578128,0.0982062285224853
-0.201278077537116,0.0960931577892755
-0.203465369249285,0.0939998428660943
-0.205651691952017,0.0919266292053081
-0.207837078882694,0.0898738622592825
-0.2100215632787,0.087841887480384
-0.212205178377417,0.0858310503209784
-0.214387957416227,0.083841696233432
-0.216569933632513,0.0818741706701105
-0.218751140263658,0.0799288190833804
-0.220931610547045,0.0780059869256074
-0.223111377720055,0.0761060196491578
-0.225290475020072,0.0742292627063975
-0.227468935684479,0.0723760615496927
-0.229646792950657,0.0705467616314094
-0.23182408005599,0.0687417084039137
-0.23400083023786,0.0669612473195717
-0.23617707673365,0.0652057238307494
-0.238352852780743,0.0634754833898128
-0.24052819161652,0.0617708714491282
-0.242703126478365,0.0600922334610614
-0.244877690603661,0.0584399148779787
-0.24705191722979,0.0568142611522459
-0.249225839594134,0.0552156177362293
-0.251399490934076,0.0536443300822949
-0.253572904486999,0.0521007436428088
-0.255746113490286,0.0505852038701369
-0.257919151181319,0.0490980562166455
-0.260092050797481,0.0476396461347005
-0.262264845576154,0.0462103190766681
-0.264437568754721,0.0448104204949141
-0.266610253570564,0.043440295841805
-0.268782933261067,0.0421002905697064
-0.270955641063612,0.0407907501309847
-0.273128410215582,0.0395120199780058
-0.275301273954358,0.0382644455631359
-0.277474265517325,0.037048372338741
-0.279647418141864,0.0358641457571871
-0.281820765065357,0.0347121112708403
-0.283994339525189,0.0335926143320667
-0.286168174758741,0.0325060003932324
-0.288342304003396,0.0314526149067034
-0.290516760496537,0.0304328033248458
-0.292691577475545,0.0294469111000257
-0.294866788177805,0.028495283684609
-0.297042425840698,0.027578266530962
-0.299218523701607,0.0266962050914506
-0.301395114997915,0.0258494448184409
-0.303572232967004,0.0250383311642991
-0.305749910846258,0.0242632095813911
-0.307928181873058,0.023524425522083
-0.310107079284787,0.0228223244387409
-0.312286636318828,0.0221572517837308
-0.314466886212564,0.021529553009419
-0.316647862203376,0.0209395735681712
-0.318829597528649,0.0203876589123538
-0.321012125425764,0.0198741544943326
-0.323195479132104,0.0193994057664739
-0.325379691885052,0.0189637581811436
-0.32756479692199,0.0185675571907079
-0.329750827480301,0.0182111482475327
-0.331937816797368,0.0178948768039842
-0.334125798110573,0.0176190883124284
-0.336314804657298,0.0173841282252314
-0.338504869674927,0.0171903419947593
-0.340696026400843,0.0170380750733781
-0.342888308072427,0.0169276729134539
-0.345081747927062,0.0168594809673527
-0.347276379202131,0.0168338446874407
-0.349472235135017,0.0168511095260839
-0.351669348963102,0.0169116209356483
-0.353867753923769,0.0170157243685001
-0.356067483254401,0.0171637652770052
-0.35826857019238,0.0173560891135298
-0.360471047975088,0.01759304133044
-0.362674949839909,0.0178749673801017
-0.364880309024225,0.0182022127148811
-0.367087158765419,0.0185751227871442
-0.369295532300873,0.0189940430492572
-0.37150546286797,0.0194593189535859
-0.373716983704092,0.0199712959524966
-0.375930128046623,0.0205303194983554
-0.378144929132944,0.0211367350435281
-0.380361420200439,0.021790888040381
-0.38257963448649,0.0224931239412801
-0.38479960522848,0.0232437881985915
-0.387021365663791,0.0240432262646812
-0.389244949029806,0.0248917835919152
-0.391470388563908,0.0257898056326598
-0.393697717503479,0.0267376378392808
-0.395926969085901,0.0277356256641445
-0.398158176548559,0.0287841145596168
-0.400391373128833,0.0298834499780639
-0.402626592064107,0.0310339773718517
-0.404863866591764,0.0322360421933465
-0.407103229949185,0.0334899898949141
-0.409344715373755,0.0347961659289208
-0.411588356102854,0.0361549157477325
-0.413834185373867,0.0375665848037154
-0.416082236424175,0.0390315185492354
-0.418332542491161,0.0405500624366587
-0.420585136812208,0.0421225619183513
-0.422840052624698,0.0437493624466794
-0.425097323166015,0.0454308094740089
-0.42735698167354,0.0471672484527059
-0.429619061384656,0.0489590248351366
-0.431883595536747,0.0508064840736668
-0.434150617367194,0.0527099716206629
-0.43642016011338,0.0546698329284908
-0.438692257012688,0.0566864134495164
-0.440966941302501,0.0587600586361061
-0.443244246220201,0.0608911139406257
-0.445524205003171,0.0630799248154414
-0.447806850888793,0.0653268367129192
-0.45009221711445,0.0676321950854253
-0.452380336917524,0.0699963453853255
-0.454671243535399,0.0724196330649862
-0.456964970205457,0.0749024035767731
-0.45926155016508,0.0774450023730527
-0.461561016651651,0.0800477749061907
-0.463863402902554,0.0827110666285533
-0.466168742155169,0.0854352229925066
-0.468477067646881,0.0882205894504167
-0.470788412615072,0.0910675114546494
-0.473102810297123,0.0939763344575712
-0.475420293930419,0.0969474039115478
-0.477740896752341,0.0999810652689455
-0.480064652000273,0.10307766398213
-0.482391592911596,0.106237545503468
-0.484721752723694,0.109461055285325
-0.487055164673949,0.112748538780067
-0.489391861999743,0.116100341440061
-0.491731877938461,0.119516808717672
-0.494075245727483,0.122998286065266
-0.496421998604192,0.126545118935211
-0.498772169805972,0.13015765277987
-0.501125792570205,0.133836233051612
-0.503482900134273,0.137581205202801
-0.50584352573556,0.141392914685803
-0.508207702611447,0.145271706952986
-0.510575463999318,0.149217927456715
-0.512946843136554,0.153231921649355
-0.51532187326054,0.157314034983274
-0.517700587608656,0.161464612910837
-0.520083019418287,0.16568400088441
-0.522469201926814,0.16997254435636
-0.524859168371621,0.174330588779051
-0.527252951990089,0.178758479604851
-0.529650586019601,0.183256562286126
-0.532052103697541,0.187825182275241
-0.53445753826129,0.192464685024563
-0.536866922948233,0.197175415986457
-0.539280290995749,0.20195772061329
-0.541697675641224,0.206811944357428
-0.544119110122039,0.211738432671237
-0.546544627675576,0.216737531007083
-0.548974261539219,0.221809584817331
-0.55140804495035,0.226954939554349
-0.553846011146352,0.232173940670502
-0.556288193364608,0.237466933618156
-0.558734624842499,0.242834263849678
-0.561185338817409,0.248276276817432
-0.56364036852672,0.253793317973787
-0.566099747207816,0.259385732771106
-0.568563508098077,0.265053866661758
-0.571031684434888,0.270798065098106
-0.573504309455631,0.276618673532519
-0.575981416397689,0.282516037417361
-0.578463038498443,0.288490502204999
-0.580949208995277,0.294542413347799
-0.583439961125573,0.300672116298127
-0.583439961125573,0.300672116298127
-0.585918597428666,0.30681915131154
-0.588368428891247,0.312922821621995
-0.590789501421736,0.318983117149456
-0.593181860928551,0.325000027813885
-0.595545553320111,0.330973543535248
-0.597880624504835,0.336903654233507
-0.600187120391143,0.342790349828627
-0.602465086887453,0.348633620240571
-0.604714569902184,0.354433455389302
-0.606935615343756,0.360189845194786
-0.609128269120587,0.365902779576985
-0.611292577141097,0.371572248455863
-0.613428585313704,0.377198241751384
-0.615536339546827,0.382780749383512
-0.617615885748886,0.388319761272211
-0.619667269828299,0.393815267337443
-0.621690537693486,0.399267257499174
-0.623685735252865,0.404675721677366
-0.625652908414856,0.410040649791984
-0.627592103087877,0.415362031762992
-0.629503365180348,0.420639857510352
-0.631386740600688,0.425874116954029
-0.633242275257314,0.431064800013986
-0.635070015058648,0.436211896610188
-0.636870005913107,0.441315396662598
-0.638642293729111,0.44637529009118
-0.640386924415078,0.451391566815897
-0.642103943879428,0.456364216756714
-0.64379339803058,0.461293229833594
-0.645455332776952,0.4661785959665
-0.647089794026963,0.471020305075397
-0.648696827689034,0.475818347080249
-0.650276479671582,0.480572711901019
-0.651828795883027,0.48528338945767
-0.653353822231788,0.489950369670167
-0.654851604626283,0.494573642458474
-0.656322188974933,0.499153197742553
-0.657765621186154,0.50368902544237
-0.659181947168368,0.508181115477887
-0.660571212829993,0.512629457769069
-0.661933464079447,0.517034042235879
-0.66326874682515,0.52139485879828
-0.664577106975521,0.525711897376238
-0.665858590438979,0.529985147889715
-0.667113243123943,0.534214600258675
-0.668341110938831,0.538400244403082
-0.669542239792063,0.542542070242899
-0.670716675592059,0.546640067698091
-0.671864464247236,0.550694226688622
-0.672985651666014,0.554704537134454
-0.674080283756812,0.558670988955552
-0.675148406428049,0.56259357207188
-0.676190065588144,0.566472276403401
-0.677205307145516,0.570307091870078
-0.678194177008584,0.574098008391877
-0.679156721085768,0.57784501588876
-0.680092985285485,0.581548104280691
-0.681003015516155,0.585207263487635
-0.681886857686197,0.588822483429554
-0.68274455770403,0.592393754026413
-0.683576161478074,0.595921065198175
-0.684381714916746,0.599404406864804
-0.685161263928466,0.602843768946263
-0.685914854421654,0.606239141362518
-0.686642532304728,0.609590514033531
-0.687344343486107,0.612897876879266
-0.68802033387421,0.616161219819686
-0.688670549377456,0.619380532774757
-0.689295035904265,0.62255580566444
-0.689893839363054,0.625687028408701
-0.690467005662244,0.628774190927503
-0.691014580710253,0.631817283140809
-0.691536610415501,0.634816294968584
-0.692033140686405,0.63777121633079
-0.692504217431386,0.640682037147393
-0.692949886558863,0.643548747338355
-0.693370193977253,0.646371336823641
-0.693765185594977,0.649149795523214
-0.694134907320453,0.651884113357038
-0.694479405062101,0.654574280245076
-0.694798724728339,0.657220286107294
-0.695092912227586,0.659822120863653
-0.695362013468261,0.662379774434118
-0.695606074358784,0.664893236738652
-0.695825140807574,0.667362497697221
-0.696019258723049,0.669787547229786
-0.696188474013628,0.672168375256312
-0.696332832587731,0.674504971696764
-0.696452380353776,0.676797326471103
-0.696547163220183,0.679045429499295
-0.69661722709537,0.681249270701303
-0.696662617887757,0.683408839997091
-0.696683381505762,0.685524127306622
-0.696679563857805,0.68759512254986
-0.696651210852304,0.68962181564677
-0.696598368397679,0.691604196517314
-0.696521082402349,0.693542255081457
-0.696419398774732,0.695435981259162
-0.696293363423248,0.697285364970393
-0.696143022256315,0.699090396135114
-0.695968421182353,0.700851064673289
-0.695769606109781,0.702567360504881
-0.695546622947017,0.704239273549853
-0.695299517602481,0.705866793728171
-0.695028335984592,0.707449910959798
-0.694733124001768,0.708988615164696
-0.694413927562429,0.710482896262831
-0.694070792574994,0.711932744174166
-0.693703764947882,0.713338148818664
-0.693312890589511,0.71469910011629
-0.692898215408301,0.716015587987007
-0.692459785312671,0.717287602350779
-0.69199764621104,0.718515133127569
-0.691511844011826,0.719698170237342
-0.691002424623449,0.720836703600061
-0.690469433954329,0.72193072313569
-0.689912917912883,0.722980218764192
-0.689332922407531,0.723985180405532
-0.688729493346691,0.724945597979673
-0.688102676638784,0.72586146140658
-0.687452518192228,0.726732760606215
-0.686779063915442,0.727559485498542
-0.686082359716844,0.728341626003525
-0.685362451504855,0.729079172041129
-0.684619385187892,0.729772113531316
-0.683853206674375,0.730420440394051
-0.683063961872724,0.731024142549296
-0.682251696691356,0.731583209917018
-0.681416457038692,0.732097632417178
-0.680558288823149,0.73256739996974
-0.679677237953148,0.732992502494668
-0.678773350337107,0.733372929911926
-0.677846671883444,0.733708672141479
-0.67689724850058,0.733999719103289
-0.675925126096933,0.73424606071732
-0.674930350580922,0.734447686903536
-0.673912967860966,0.734604587581901
-0.672873023845484,0.734716752672379
-0.671810564442896,0.734784172094932
-0.670725635561619,0.734806835769527
-0.669618283110074,0.734784733616125
-0.668488552996679,0.73471785555469
-0.667336491129853,0.734606191505186
-0.666162143418016,0.734449731387579
-0.664965555769586,0.734248465121829
-0.663746774092982,0.734002382627903
-0.662505844296623,0.733711473825762
-0.661242812288929,0.733375728635372
-0.659957723978318,0.732995136976696
-0.658650625273209,0.732569688769698
-0.657321562082021,0.73209937393434
-0.655970580313174,0.731584182390588
-0.654597725875086,0.731024104058405
-0.653203044676177,0.730419128857755
-0.651786582624865,0.729769246708601
-0.650348385629569,0.729074447530907
-0.648888499598709,0.728334721244637
-0.647406970440703,0.727550057769755
-0.645903844063971,0.726720447026224
-0.644379166376931,0.725845878934009
-0.642832983288003,0.724926343413073
-0.641265340705605,0.723961830383379
-0.639676284538156,0.722952329764891
-0.638065860694076,0.721897831477574
-0.636434115081784,0.720798325441391
-0.634781093609698,0.719653801576306
-0.633106842186238,0.718464249802282
-0.631411406719822,0.717229660039284
-0.62969483311887,0.715950022207274
-0.6279571672918,0.714625326226217
-0.626198455147032,0.713255562016077
-0.624418742592985,0.711840719496817
-0.622618075538077,0.710380788588402
-0.620796499890728,0.708875759210794
-0.618954061559357,0.707325621283957
-0.617090806452382,0.705730364727856
-0.615206780478223,0.704089979462454
-0.613302029545299,0.702404455407715
-0.611376599562028,0.700673782483602
-0.60943053643683,0.69889795061008
-0.607463886078124,0.697076949707112
-0.605476694394329,0.695210769694662
-0.603469007293863,0.693299400492693
-0.601440870685146,0.69134283202117
-0.599392330476598,0.689341054200056
-0.597323432576635,0.687294056949314
-0.595234222893679,0.68520183018891
-0.593124747336147,0.683064363838805
-0.59099505181246,0.680881647818966
-0.588845182231035,0.678653672049353
-0.586675184500292,0.676380426449933
-0.58448510452865,0.674061900940668
-0.582274988224528,0.671698085441522
-0.580044881496345,0.669288969872459
-0.577794830252519,0.666834544153443
-0.575524880401471,0.664334798204437
-0.573235077851619,0.661789721945406
-0.570925468511382,0.659199305296312
-0.568596098289178,0.65656353817712
-0.566247013093428,0.653882410507794
-0.56387825883255,0.651155912208297
-0.561489881414962,0.648384033198593
-0.559081926749085,0.645566763398645
-0.556654440743337,0.642704092728419
-0.554207469306137,0.639796011107876
-0.551741058345904,0.636842508456982
-0.549255253771057,0.633843574695699
-0.546750101490015,0.630799199743992
-0.544225647411198,0.627709373521824
-0.541681937443024,0.624574085949159
-0.539119017493911,0.621393326945961
-0.53653693347228,0.618167086432193
-0.533935731286549,0.61489535432782
-0.531315456845137,0.611578120552805
-0.528676156056464,0.608215375027112
-0.526017874828947,0.604807107670704
-0.523340659071007,0.601353308403546
-0.520644554691063,0.597853967145601
-0.517929607597532,0.594309073816832
-0.515195863698835,0.590718618337205
-0.51244336890339,0.587082590626681
-0.509672169119617,0.583400980605226
-0.506882310255933,0.579673778192803
-0.504073838220759,0.575900973309375
-0.501246798922514,0.572082555874907
-0.498401238269616,0.568218515809362
-0.495537202170484,0.564308843032703
-0.492654736533537,0.560353527464896
-0.489753887267195,0.556352559025903
-0.486834700279877,0.552305927635688
-0.48389722148,0.548213623214215
-0.480941496775986,0.544075635681448
-0.477967572076252,0.53989195495735
-0.474975493289217,0.535662570961885
-0.471965306323301,0.531387473615017
-0.468937057086922,0.527066652836711
-0.4658907914885,0.522700098546928
-0.462826555436453,0.518287800665634
-0.459744394839201,0.513829749112792
-0.456644355605162,0.509325933808366
-0.453526483642756,0.504776344672319
-0.450390824860402,0.500180971624615
-0.447237425166518,0.495539804585218
-0.444066330469524,0.490852833474092
-0.440877586677838,0.486120048211201
-0.43767123969988,0.481341438716508
-0.434447335444069,0.476516994909977
-0.431205919818824,0.471646706711572
-0.427947038732563,0.466730564041256
-0.424670738093706,0.461768556818994
-0.421377063810671,0.456760674964749
-0.418066061791878,0.451706908398485
-0.414737777945746,0.446607247040165
-0.411392258180694,0.441461680809753
-0.408029548405141,0.436270199627214
-0.404649694527505,0.431032793412511
-0.401252742456206,0.425749452085607
-0.397838738099663,0.420420165566466
-0.394407727366295,0.415044923775053
-0.390959756164521,0.409623716631331
-0.387494870402759,0.404156534055263
-0.384013115989429,0.398643365966813
-0.380514538832951,0.393084202285946
-0.376999184841742,0.387479032932625
-0.373467099924222,0.381827847826813
-0.36991832998881,0.376130636888475
-0.366352920943925,0.370387390037574
-0.362770918697986,0.364598097194074
-0.359172369159411,0.358762748277938
-0.355557318236621,0.352881333209131
-0.351925811838034,0.346953841907617
-0.348277895872069,0.340980264293358
-0.344613616247144,0.334960590286319
-0.34093301887168,0.328894809806463
-0.337236149654095,0.322782912773755
-0.333523054502808,0.316624889108158
-0.329793779326238,0.310420728729635
-0.326048370032804,0.304170421558151
-0.322286872530926,0.297873957513669
-0.318509332729021,0.291531326516154
-0.314715796535509,0.285142518485567
-0.31090630985881,0.278707523341875
-0.307080918607342,0.27222633100504
-0.303239668689524,0.265698931395026
-0.299382606013775,0.259125314431796
-0.295509776488514,0.252505470035316
-0.291621226022161,0.245839388125547
-0.287717000523134,0.239127058622455
-0.283797145899852,0.232368471446002
-0.279861708060734,0.225563616516154
-0.2759107329142,0.218712483752872
-0.271944266368668,0.211815063076121
-0.267962354332557,0.204871344405866
-0.263965042714286,0.197881317662069
-0.259952377422275,0.190844972764694
-0.255924404364942,0.183762299633706
-0.251881169450707,0.176633288189067
-0.247822718587988,0.169457928350742
-0.243749097685204,0.162236210038694
-0.239660352650774,0.154968123172888
-0.235556529393118,0.147653657673287
-0.231437673820655,0.140292803459854
-0.227303831841803,0.132885550452553
-0.223155049364981,0.125431888571349
-0.218991372298609,0.117931807736205
-0.214812846551105,0.110385297867084
-0.210619518030889,0.102792348883951
-0.206411432646379,0.0951529507067694
-0.202188636305995,0.0874670932555022
-0.197951174918156,0.0797347664501142
-0.193699094391279,0.0719559602105682
-0.189432440633786,0.0641306644568289
-0.185151259554094,0.0562588691088592
-0.180855597060623,0.0483405640866237
-0.176545499061791,0.0403757393100852
-0.172221011466018,0.0323643846992084
-0.167882180181722,0.0243064901739563
-0.163529051117323,0.0162020456542932
-0.15916167018124,0.0080510410601824
-0.154780083281891,-0.000146533688411749
-0.150384336327697,-0.00839068867152623
-0.145974475227074,-0.0166814339691966
-0.141550545888444,-0.0250187796614597
-0.137112594220224,-0.0334027358283512
-0.132660666130834,-0.041833312549908
-0.128194807528693,-0.0503105199061655
-0.12371506432222,-0.0588343679771608
-0.119221482419833,-0.0674048668429293
-0.114714107729952,-0.0760220265835082
-0.110192986160996,-0.0846858572789329
-0.105658163621384,-0.0933963690092403
-0.101109686019535,-0.102153571854466
-0.096547599263867,-0.110957475894647
-0.0919719492628004,-0.119808091209818
-0.0873827819247535,-0.128705427880018
-0.0827801431581457,-0.13764949598528
-0.0781640788713956,-0.146640305605643
-0.0735346349729227,-0.155677866821142
-0.0688918573711454,-0.164762189711813
-0.0642357919744834,-0.173893284357692
-0.059566484691355,-0.183071160838817
-0.0548839814301799,-0.192295829235222
-0.0501883280993766,-0.201567299626945
-0.0454795706073644,-0.210885582094022
-0.0407577548625622,-0.220250686716488
-0.036022926773389,-0.22966262357438
-0.0312751322482638,-0.239121402747735
-0.0265144171956059,-0.248627034316587
-0.0217408275238337,-0.258179528360975
-0.0169544091413669,-0.267778894960934
-0.012155207956624,-0.2774251441965
-0.00734326987802445,-0.287118286147709
-0.00251864081398678,-0.296858330894599
0.00231863332706951,-0.306645288517204
0.00716850663672589,-0.316479169095561
0.0120309332065628,-0.326359982709707
0.0169058671281619,-0.336287739439678
0.0217932624931035,-0.346262449365509
0.026693073392969,-0.356284122567238
0.0316052539193392,-0.3663527691249
0.0365297581637953,-0.376468399118532
0.041466540217918,-0.38663102262817
0.0464155541732885,-0.39684064973385
0.0513767541214877,-0.407097290515608
0.0563500941540967,-0.417400955053481
0.0613355283626962,-0.427751653427505
0.0663330108388676,-0.438149395717716
0.0713424956741914,-0.448594192004151
0.0763639369602491,-0.459086052366845
0.0813972887886212,-0.469624986885835
0.0864425052508891,-0.480211005641157
0.0914995404386335,-0.490844118712847
0.0965683484434356,-0.501524336180943
0.101648883356876,-0.512251668125479
0.106741099270536,-0.523026124626492
0.111844950275997,-0.533847715764018
0.116960390464839,-0.544716451618094
0.122087373928644,-0.555632342268755
0.127225854758993,-0.566595397796039
0.132375787047465,-0.577605628279981
0.137537124885644,-0.588663043800618
0.142709822365108,-0.599767654437985
0.147893833577441,-0.61091947027212
0.153089112614221,-0.622118501383057
0.158295613567031,-0.633364757850835
0.163513290527452,-0.644658249755487
0.168742097587064,-0.655998987177053
0.173981988837448,-0.667386980195566
0.179232918370186,-0.678822238891064
0.184494840276857,-0.690304773343582
0.189767708649045,-0.701834593633158
0.195051477578328,-0.713411709839826
0.200346101156289,-0.725036132043625
0.205651533474509,-0.736707870324589
0.210967728624567,-0.748426934762755
0.216294640698046,-0.760193335438158
0.221632223786526,-0.772007082430837
0.226980431981588,-0.783868185820826
0.232339219374814,-0.795776655688162
