0.925564470427245,0.609174979937256
0.915491752572888,0.604462268387829
0.905503393718363,0.599796974258726
0.895599021536056,0.595178923503025
0.885778263698359,0.590607942073807
0.876040747877657,0.586083855924152
0.866386101746339,0.581606491007141
0.856813952976793,0.577175673275852
0.847323929241409,0.572791228683366
0.837915658212574,0.568452983182764
0.828588767562676,0.564160762727124
0.819342884964103,0.559914393269528
0.810177638089244,0.555713700763055
0.801092654610487,0.551558511160785
0.79208756220022,0.547448650415799
0.783161988530832,0.543383944481175
0.77431556127471,0.539364219309995
0.765547908104244,0.535389300855339
0.75685865669182,0.531459015070286
0.748247434709828,0.527573187907916
0.739713869830656,0.52373164532131
0.731257589726691,0.519934213263548
0.722878222070323,0.516180717687708
0.714575394533939,0.512470984546873
0.706348734789928,0.508804839794121
0.698197870510678,0.505182109382532
0.690122429368577,0.501602619265187
0.682122039036013,0.498066195395166
0.674196327185375,0.494572663725549
0.666344921489051,0.491121850209416
0.658567449619428,0.487713580799846
0.650863539248896,0.48434768144992
0.643232818049843,0.481023978112718
0.635674913694657,0.47774229674132
0.628189453855725,0.474502463288805
0.620776066205437,0.471304303708255
0.613434378416181,0.468147643952749
0.606164018160344,0.465032309975367
0.598964613110315,0.461958127729188
0.591835790938483,0.458924923167294
0.584777179317235,0.455932522242764
0.57778840591896,0.452980750908678
0.570869098416046,0.450069435118116
0.564018884480881,0.447198400824159
0.557237391785853,0.444367473979885
0.550524248003352,0.441576480538376
0.543879080805764,0.438825246452712
0.537301517865479,0.436113597675971
0.530791186854884,0.433441360161235
0.524347715446368,0.430808359861584
0.517970731312318,0.428214422730096
0.511659862125124,0.425659374719853
0.505414735557174,0.423143041783935
0.499234979280855,0.420665249875422
0.493120220968556,0.418225824947392
0.487070088292665,0.415824592952928
0.48108420892557,0.413461379845108
0.47516221053966,0.411136011577013
0.469303720807324,0.408848314101722
0.463508367400948,0.406598113372316
0.457775777992921,0.404385235341875
0.452105580255632,0.402209505963479
0.446497401861469,0.400070751190207
0.44095087048282,0.39796879697514
0.435465613792074,0.395903469271359
0.430041259461618,0.393874594031942
0.424677435163841,0.39188199720997
0.419373768571131,0.389925504758523
0.414129887355876,0.388004942630681
0.408945419190465,0.386120136779524
0.403819991747285,0.384270913158132
0.398753232698726,0.382457097719585
0.393744769717175,0.380678516416964
0.388794230475021,0.378934995203348
0.383901242644651,0.377226360031816
0.379065433898454,0.37555243685545
0.374286431908818,0.37391305162733
0.369563864348132,0.372308030300534
0.364897358888784,0.370737198828144
0.360286543203162,0.369200383163239
0.355731044963654,0.3676974092589
0.351230491842648,0.366228103068206
0.346784511512533,0.364792290544238
0.342392731645697,0.363389797640075
0.338054779914528,0.362020450308797
0.333770283991415,0.360684074503486
0.329538871548745,0.359380496177219
0.325360170258907,0.358109541283079
0.32123380779429,0.356871035774144
0.317159411827281,0.355664805603495
0.313136610030268,0.354490676724211
0.30916503007564,0.353348475089373
0.305244299635786,0.352238026652061
0.301374046383093,0.351159157365355
0.297553897989949,0.350111693182334
0.293783482128743,0.34909546005608
0.290062426471864,0.348110283939671
0.286390358691699,0.347155990786189
0.282766906460636,0.346232406548712
0.279191697451064,0.345339357180321
0.275664359335371,0.344476668634097
0.272184519785946,0.343644166863118
0.268751806475176,0.342841677820465
0.26536584707545,0.342069027459219
0.262026269259156,0.341326041732459
0.258732700698682,0.340612546593265
0.255484769066417,0.339928367994717
0.252282102034748,0.339273331889896
0.249124327276065,0.338647264231881
0.246011072462754,0.338049990973752
0.242941965267206,0.337481338068589
0.239916633361807,0.336941131469473
0.236934704418945,0.336429197129483
0.233995806111011,0.3359453610017
0.23109956611039,0.335489449039204
0.228245612089473,0.335061287195073
0.225433571720646,0.33466070142239
0.222663072676298,0.334287517674233
0.219933742628818,0.333941561903682
0.217245209250594,0.333622660063818
0.214597100214013,0.333330638107721
0.211989043191465,0.333065321988471
0.209420665855337,0.332826537659147
0.206891595878018,0.33261411107283
0.204401460931895,0.3324278681826
0.201949888689358,0.332267634941537
0.199536506822794,0.332133237302721
0.197160943004592,0.332024501219231
0.194822824907139,0.331941252644149
0.192521780202825,0.331883317530553
0.190257436564037,0.331850521831525
0.188029421663163,0.331842691500143
0.185837363172593,0.331859652489489
0.183680888764713,0.331901230752641
0.181559626111913,0.331967252242681
0.17947320288658,0.332057542912688
0.177421246761103,0.332171928715742
0.175403385407871,0.332310235604924
0.17341924649927,0.332472289533312
0.17146845770769,0.332657916453988
0.169550646705519,0.332866942320031
0.167665441165144,0.333099193084522
0.165812468758955,0.33335449470054
0.16399135715934,0.333632673121165
0.162201734038686,0.333933554299478
0.160443227069382,0.334256964188559
0.158715463923817,0.334602728741486
0.157018072274377,0.334970673911342
0.155350679793453,0.335360625651205
0.153712914153431,0.335772409914155
0.152104403026701,0.336205852653274
0.15052477408565,0.33666077982164
0.148973655002667,0.337137017372333
0.14745067345014,0.337634391258435
0.145955457100457,0.338152727433024
0.144487633626006,0.338691851849181
0.143046830699176,0.339251590459986
0.141632675992354,0.339831769218518
0.14024479717793,0.340432214077859
0.138882821928292,0.341052750991087
0.137546377915826,0.341693205911284
0.136235092812923,0.342353404791528
0.13494859429197,0.343033173584901
0.133686510025355,0.343732338244481
0.132448467685467,0.34445072472335
0.131234094944694,0.345188158974587
0.130043019475423,0.345944466951272
0.128874868950044,0.346719474606485
0.127729271040945,0.347513007893306
0.126605853420513,0.348324892764816
0.125504243761137,0.349154955174094
0.124424069735206,0.35000302107422
0.123364959015107,0.350868916418275
0.122326539273229,0.351752467159338
0.12130843818196,0.352653499250489
0.120310283413688,0.353571838644809
0.119331702640802,0.354507311295377
0.118372323535689,0.355459743155274
0.117431773770738,0.356428960177579
0.116509681018338,0.357414788315373
0.115605672950876,0.358417053521736
0.114719377240741,0.359435581749747
0.11385042156032,0.360470198952487
0.112998433582003,0.361520731083036
0.112163040978177,0.362587004094473
0.111343871421231,0.363668843939879
0.110540552583553,0.364766076572334
0.109752712137531,0.365878527944917
0.108979977755554,0.36700602401071
0.108221977110009,0.368148390722792
0.107478337873284,0.369305454034242
0.10674868771777,0.370477039898141
0.106032654315852,0.37166297426757
0.10532986533992,0.372863083095607
0.104639948462362,0.374077192335334
0.103962531355566,0.375305127939829
0.10329724169192,0.376546715862174
0.102643707143813,0.377801782055448
0.102001555383633,0.379070152472731
0.101370414083768,0.380351653067103
0.100749910916606,0.381646109791645
0.100139673554535,0.382953348599435
0.0995393296699447,0.384273195443555
0.0989485069352222,0.385605476277085
0.098366833022756,0.386950017053104
0.0977939356049342,0.388306643724692
0.0972294423541452,0.38967518224493
0.0966729809427772,0.391055458566897
0.0961241790432185,0.392447298643673
0.0955826643278573,0.39385052842834
0.0950480644690818,0.395264973873975
0.0945200071392802,0.396690460933661
0.0939981200108409,0.398126815560476
0.093482030756152,0.399573863707501
0.0929713670476019,0.401031431327815
0.0924657565575786,0.402499344374499
0.0919648269584706,0.403977428800633
0.091468205922666,0.405465510559297
0.0909755211225531,0.40696341560357
0.09048640023052,0.408470969886534
0.0900004709189551,0.409987999361267
0.0895173608602466,0.41151432998085
0.0890366977267828,0.413049787698363
0.0885581091909519,0.414594198466886
0.088081222925142,0.4161473882395
0.0876056666017416,0.417709182969283
0.0871310678931387,0.419279408609316
0.0866570544717217,0.42085789111268
0.0861832540098788,0.422444456432453
0.0857092941799982,0.424038930521717
0.0852348026544682,0.425641139333551
0.084759407105677,0.427250908821035
0.0842827352060129,0.42886806493725
0.0838044146278641,0.430492433635275
0.0833240730436188,0.43212384086819
0.0828413381256653,0.433762112589075
0.0823558375463919,0.435407074751011
0.0818671989781867,0.437058553307078
0.0813750500934381,0.438716374210355
0.0808790185645342,0.440380363413922
0.0803787320638633,0.44205034687086
0.0798738182638137,0.443726150534249
0.0793639048367735,0.445407600357168
0.078848619455131,0.447094522292697
0.0783275897912746,0.448786742293918
0.0778004435175924,0.450484086313909
0.0772668083064726,0.452186380305751
0.0767263118303035,0.453893450222523
0.0761785817614733,0.455605122017307
0.0756232457723704,0.457321221643181
0.0750599315353828,0.459041575053226
0.074488266722899,0.460766008200522
0.073907879007307,0.462494347038149
0.0733183960609952,0.464226417519187
0.0727194455563518,0.465962045596715
0.072110655165765,0.467701057223815
0.0714916525616231,0.469443278353566
0.0708620654163143,0.471188534939048
0.070221521402227,0.472936652933341
0.0695696481917491,0.474687458289526
0.0689060734572692,0.476440776960681
0.0682304248711753,0.478196434899888
0.0675423301058558,0.479954258060225
0.0668414168336989,0.481714072394775
0.0661273127270927,0.483475703856615
0.0653996454584257,0.485238978398827
0.0646580427000859,0.48700372197449
0.0639021321244617,0.488769760536685
0.0631315414039413,0.490536920038491
0.0623458982109129,0.492305026432988
0.0615448302177647,0.494073905673257
0.0607279650968851,0.495843383712378
0.0598949305206623,0.49761328650343
0.0590453541614844,0.499383439999494
0.0581788636917398,0.501153670153649
0.0572950867838167,0.502923802918976
0.0563936511101033,0.504693664248554
0.0554741843429879,0.506463080095465
0.0545363141548587,0.508231876412787
0.0535796682181039,0.509999879153601
0.0526038742051118,0.511766914270987
0.0516085597882707,0.513532807718024
0.0505933526399688,0.515297385447794
0.0495578804325943,0.517060473413375
0.0485017708385355,0.518821897567849
0.0474246515301805,0.520581483864294
0.0463261501799178,0.522339058255791
0.0452058944601353,0.524094446695421
0.0440635120432216,0.525847475136262
0.0428986306015647,0.527597969531396
0.041710877807553,0.529345755833902
0.0404998813335746,0.53109065999686
0.0392652688520178,0.53283250797335
0.0380066680352708,0.534571125716452
0.036723706555722,0.536306339179247
0.0354160120857595,0.538037974314814
0.0340832122977716,0.539765857076233
0.0327249348641464,0.541489813416585
0.0313408074572724,0.543209669288949
0.0299304577495376,0.544925250646406
0.0284935134133304,0.546636383442034
0.027029602121039,0.548342893628916
0.0255383515450516,0.55004460716013
0.0240193893577564,0.551741349988756
0.0224723432315419,0.553432948067876
0.020896840838796,0.555119227350568
0.0192925098519072,0.556800013789912
0.0176589779432635,0.558475133338989
0.0159958727852535,0.560144411950879
0.014302822050265,0.561807675578662
0.0125794534106866,0.563464750175417
0.0108253945389063,0.565115461694225
0.00904027310731261,0.566759636088166
0.0072237167882935,0.56839709931032
0.00537535325423741,0.570027677313767
0.00349481017753241,0.571651196051587
0.00158171523056696,0.57326748147686
-0.000364303914270947,0.574876359542666
-0.00234361958459291,0.576477656202084
-0.00435660410801074,0.578071197408196
-0.00640362981213612,0.579656809114081
-0.00848506902458094,0.581234317272819
-0.0106012940729568,0.582803547837491
-0.0127526772848756,0.584364326761175
-0.014939590987949,0.585916479996953
-0.0171624075097889,0.587459833497904
-0.0194214991780068,0.588994213217109
-0.0217172383202147,0.590519445107646
-0.0240499972640242,0.592035355122597
-0.0264201483370472,0.593541769215042
-0.0288280638668953,0.59503851333806
-0.0312741161811805,0.596525413444731
-0.0337586776075142,0.598002295488136
-0.0362821204735086,0.599468985421354
-0.0388448171067749,0.600925309197466
-0.0414471398349254,0.602371092769552
-0.0440894609855715,0.603806162090691
-0.0467721528863253,0.605230343113964
-0.0494955878647981,0.60664346179245
-0.0522601382486021,0.60804534407923
-0.0550661763653487,0.609435815927384
-0.0579140745426499,0.610814703289992
-0.0608042051081173,0.612181832120133
-0.0637369403893629,0.613537028370889
-0.066712652713998,0.614880117995338
-0.069731714409635,0.616210926946561
-0.0727944978038851,0.617529281177639
-0.0759013752243603,0.61883500664165
-0.0790527189986722,0.620127929291675
-0.0822489014544329,0.621407875080794
-0.0854902949192538,0.622674669962087
-0.0887772717207468,0.623928139888634
-0.0921102041865236,0.625168110813516
-0.0954894646441962,0.626394408689811
-0.0989154254213759,0.627606859470601
-0.102388458845675,0.628805289108965
-0.105908937244705,0.629989523557984
-0.109477232946077,0.631159388770736
-0.113093718277404,0.632314710700303
-0.116758765566297,0.633455315299765
-0.120472747140368,0.6345810285222
-0.124236035327229,0.635691676320691
-0.128049002454491,0.636787084648315
-0.131912020849766,0.637867079458154
-0.135825462840666,0.638931486703288
-0.139789700754803,0.639980132336796
-0.143805106919789,0.641012842311759
-0.147872053663234,0.642029442581256
-0.151990913312752,0.643029759098368
-0.156162058195953,0.644013617816175
-0.16038586064045,0.644980844687756
-0.164662692973854,0.645931265666193
-0.168992927523777,0.646864706704563
-0.17337693661783,0.647780993755949
-0.177815092583627,0.64867995277343
-0.182307767748777,0.649561409710085
-0.186855334440894,0.650425190518996
-0.191458164987588,0.651271121153241
-0.196116631716472,0.652099027565901
-0.200831106955157,0.652908735710056
-0.205601963031256,0.653700071538787
-0.210429572272379,0.654472861005172
-0.215314307006138,0.655226930062293
-0.220256539560147,0.655962104663228
-0.225256642262015,0.656678210761059
-0.230314987439355,0.657375074308865
-0.235431947419778,0.658052521259726
-0.240607894530897,0.658710377566723
-0.245843201100323,0.659348469182935
-0.251138239455668,0.659966622061442
-0.256493381924544,0.660564662155324
-0.261909000834562,0.661142415417662
-0.267385468513334,0.661699707801535
-0.272923157288472,0.662236365260024
-0.278522439487588,0.662752213746208
-0.284183687438293,0.663247079213168
-0.289907273468199,0.663720787613983
-0.295693569904919,0.664173164901734
-0.301542949076063,0.664604037029501
-0.307455783309243,0.665013229950363
-0.307455783309243,0.665013229950363
-0.313350372498101,0.665393812363245
-0.319145103175869,0.665739102774294
-0.324840477629545,0.666049301847429
-0.330436998146129,0.666324610246567
-0.335935167012619,0.666565228635625
-0.341335486516014,0.66677135767852
-0.346638458943313,0.666943198039169
-0.351844586581515,0.66708095038149
-0.356954371717617,0.6671848153694
-0.36196831663862,0.667254993666815
-0.366886923631522,0.667291685937655
-0.371710694983321,0.667295092845834
-0.376440132981017,0.667265415055271
-0.381075739911608,0.667202853229884
-0.385618018062093,0.667107608033588
-0.390067469719471,0.666979880130303
-0.394424597170741,0.666819870183944
-0.398689902702901,0.666627778858428
-0.40286388860295,0.666403806817674
-0.406947057157887,0.666148154725599
-0.410939910654711,0.665861023246119
-0.414842951380421,0.665542613043152
-0.418656681622014,0.665193124780615
-0.422381603666491,0.664812759122425
-0.42601821980085,0.664401716732501
-0.429567032312089,0.663960198274757
-0.433028543487208,0.663488404413113
-0.436403255613205,0.662986535811486
-0.439691670977079,0.662454793133792
-0.442894291865828,0.661893377043948
-0.446011620566453,0.661302488205873
-0.44904415936595,0.660682327283483
-0.45199241055132,0.660033094940696
-0.454856876409561,0.659354991841428
-0.457638059227671,0.658648218649597
-0.46033646129265,0.657912976029121
-0.462952584891497,0.657149464643916
-0.465486932311209,0.656357885157899
-0.467940005838786,0.655538438234989
-0.470312307761227,0.654691324539101
-0.47260434036553,0.653816744734155
-0.474816605938694,0.652914899484065
-0.476949606767719,0.651985989452751
-0.479003845139602,0.651030215304129
-0.480979823341343,0.650047777702116
-0.48287804365994,0.649038877310629
-0.484699008382392,0.648003714793586
-0.486443219795698,0.646942490814905
-0.488111180186857,0.645855406038502
-0.489703391842867,0.644742661128294
-0.491220357050727,0.643604456748199
-0.492662578097436,0.642440993562134
-0.494030557269994,0.641252472234016
-0.495324796855397,0.640039093427763
-0.496545799140647,0.638801057807292
-0.49769406641274,0.637538566036519
-0.498770100958676,0.636251818779363
-0.499774405065454,0.63494101669974
-0.500707481020073,0.633606360461567
-0.501569831109531,0.632248050728763
-0.502361957620827,0.630866288165243
-0.50308436284096,0.629461273434926
-0.503737549056928,0.628033207201729
-0.504322018555731,0.626582290129568
-0.504838273624367,0.625108722882362
-0.505286816549835,0.623612706124027
-0.505668149619134,0.62209444051848
-0.505982775119263,0.620554126729639
-0.50623119533722,0.618991965421422
-0.506413912560004,0.617408157257744
-0.506531429074613,0.615802902902524
-0.506584247168048,0.614176403019678
-0.506572869127306,0.612528858273125
-0.506497797239387,0.610860469326781
-0.506359533791288,0.609171436844563
-0.506158581070009,0.607461961490389
-0.505895441362549,0.605732243928176
-0.505570616955906,0.603982484821841
-0.50518461013708,0.602212884835301
-0.504737923193068,0.600423644632474
-0.50423105841087,0.598614964877277
-0.503664518077485,0.596787046233627
-0.503038804479911,0.594940089365441
-0.502354419905147,0.593074294936636
-0.501611866640192,0.591189863611131
-0.500811646972045,0.589286996052842
-0.499954263187704,0.587365892925686
-0.499040217574169,0.58542675489358
-0.498070012418437,0.583469782620442
-0.497044150007508,0.581495176770189
-0.495963132628381,0.579503138006738
-0.494827462568054,0.577493866994007
-0.493637642113527,0.575467564395913
-0.492394173551797,0.573424430876372
-0.491097559169864,0.571364667099302
-0.489748301254726,0.569288473728621
-0.488346902093383,0.567196051428246
-0.486893863972833,0.565087600862093
-0.485389689180075,0.562963322694081
-0.483834880002107,0.560823417588126
-0.482229938725929,0.558668086208146
-0.480575367638539,0.556497529218057
-0.478871669026936,0.554311947281777
-0.477119345178119,0.552111541063224
-0.475318898379087,0.549896511226314
-0.473470830916837,0.547667058434965
-0.47157564507837,0.545423383353094
-0.469633843150684,0.543165686644618
-0.467645927420777,0.540894168973455
-0.465612400175649,0.538609031003521
-0.463533763702298,0.536310473398734
-0.461410520287724,0.533998696823012
-0.459243172218924,0.531673901940271
-0.457032221782897,0.529336289414428
-0.454778171266643,0.526986059909402
-0.452481522957161,0.524623414089108
-0.450142779141448,0.522248552617465
-0.447762442106504,0.51986167615839
-0.445341014139327,0.517462985375799
-0.442878997526917,0.51505268093361
-0.440376894556272,0.512630963495741
-0.437835207514391,0.510198033726109
-0.435254438688273,0.507754092288629
-0.432635090364915,0.505299339847222
-0.429977664831319,0.502833977065802
-0.427282664374481,0.500358204608288
-0.424550591281401,0.497872223138596
-0.421781947839077,0.495376233320645
-0.418977236334509,0.492870435818351
-0.416136959054695,0.490355031295631
-0.413261618286634,0.487830220416403
-0.410351716317325,0.485296203844583
-0.407407755433766,0.48275318224409
-0.404430237922957,0.480201356278841
-0.401419666071895,0.477640926612751
-0.398376542167581,0.47507209390974
-0.395301368497012,0.472495058833724
-0.392194647347188,0.46991002204862
-0.389056881005106,0.467317184218346
-0.385888571757767,0.464716746006818
-0.382690221892169,0.462108908077955
-0.37946233369531,0.459493871095673
-0.376205409454189,0.456871835723889
-0.372919951455805,0.454243002626521
-0.369606461987158,0.451607572467487
-0.366265443335245,0.448965745910702
-0.362897397787065,0.446317723620084
-0.359502827629618,0.443663706259552
-0.356082235149902,0.441003894493022
-0.352636122634916,0.43833848898441
-0.349164992371658,0.435667690397635
-0.345669346647128,0.432991699396613
-0.342149687748323,0.430310716645263
-0.338606517962244,0.4276249428075
-0.335040339575889,0.424934578547243
-0.331451654876256,0.422239824528409
-0.327840966150344,0.419540881414914
-0.324208775685152,0.416837949870677
-0.32055558576768,0.414131230559613
-0.316881898684925,0.411420924145641
-0.313188216723886,0.408707231292678
-0.309475042171563,0.405990352664641
-0.305742877314953,0.403270488925448
-0.301992224441057,0.400547840739014
-0.298223585836872,0.397822608769259
-0.294437463789398,0.395094993680098
-0.290634360585632,0.392365196135449
-0.286814778512574,0.38963341679923
-0.282979219857224,0.386899856335358
-0.279128186906578,0.38416471540775
-0.275262181947637,0.381428194680322
-0.271381707267399,0.378690494816993
-0.267487265152863,0.37595181648168
-0.263579357891028,0.373212360338299
-0.259658487768892,0.370472327050769
-0.255725157073454,0.367731917283005
-0.251779868091713,0.364991331698927
-0.247823123110668,0.36225077096245
-0.243855424417317,0.359510435737492
-0.23987727429866,0.356770526687971
-0.235889175041695,0.354031244477803
-0.23189162893342,0.351292789770905
-0.227885138260836,0.348555363231196
-0.22387020531094,0.345819165522592
-0.219847332370731,0.34308439730901
-0.215817021727208,0.340351259254368
-0.21177977566737,0.337619952022583
-0.207736096478216,0.334890676277572
-0.203686486446744,0.332163632683252
-0.199631447859953,0.329439021903541
-0.195571483004842,0.326717044602356
-0.19150709416841,0.323997901443614
-0.187438783637655,0.321281793091232
-0.183367053699577,0.318568920209128
-0.179292406641173,0.315859483461219
-0.175215344749444,0.313153683511421
-0.171136370311387,0.310451721023653
-0.167055985614002,0.307753796661832
-0.162974692944287,0.305060111089874
-0.158892994589241,0.302370864971697
-0.154811392835862,0.299686258971219
-0.150730389971151,0.297006493752356
-0.146650488282104,0.294331769979025
-0.142572190055722,0.291662288315145
-0.138495997579003,0.288998249424631
-0.134422413138945,0.286339853971402
-0.130351939022548,0.283687302619375
-0.12628507751681,0.281040796032467
-0.12222233090873,0.278400534874594
-0.118164201485307,0.275766719809676
-0.11411119153354,0.273139551501627
-0.110063803340427,0.270519230614367
-0.106022539192967,0.267905957811811
-0.10198790137816,0.265299933757878
-0.0979603921830025,0.262701359116484
-0.0939405138944951,0.260110434551548
-0.0899287687996359,0.257527360726985
-0.085925659185424,0.254952338306713
-0.0819316873388577,0.25238556795465
-0.0779473555469363,0.249827250334713
-0.0739731660966582,0.247277586110818
-0.0700096212750226,0.244736775946884
-0.0660572233690277,0.242205020506827
-0.0621164746656729,0.239682520454565
-0.0581878774519564,0.237169476454014
-0.0542719340148775,0.234666089169093
-0.0503691466414347,0.232172559263718
-0.0464800176186269,0.229689087401807
-0.0426050492334527,0.227215874247277
-0.0387447437729111,0.224753120464045
-0.0348996035240007,0.222301026716028
-0.0310701307737205,0.219859793667143
-0.0272568278090691,0.217429621981309
-0.0234601969170454,0.215010712322441
-0.019680740384648,0.212603265354458
-0.015918960498876,0.210207481741276
-0.0121753595467278,0.207823562146813
-0.00845043981520258,0.205451707234986
-0.00474470359129868,0.203092117669712
-0.00105865316201538,0.200744994114908
0.00260720918564901,0.198410537234492
0.00625238116469526,0.196088947692381
0.00987636048812501,0.193780426152493
0.0134786448689392,0.191485173278743
0.0170587320201392,0.18920338973505
0.020616119654726,0.186935276185332
0.0241503054857011,0.184681033293504
0.0276607872260654,0.182440861723484
0.0311470625888205,0.18021496213919
0.0346086292869673,0.178003535204539
0.0380449850335072,0.175806781583448
0.0414556275414413,0.173624901939835
0.044840054523771,0.171458096937615
0.0481977636934972,0.169306567240708
0.0515282527636214,0.167170513513029
0.0548310194471446,0.165050136418497
0.0581055614570684,0.162945636621028
0.0613513765063934,0.16085721478454
0.0645679623081215,0.15878507157295
0.0677548165752533,0.156729407650175
0.0709114370207905,0.154690423680132
0.0740373213577339,0.152668320326739
0.0771319672990852,0.150663298253913
0.0801948725578451,0.148675558125571
0.0832255348470153,0.146705300605631
0.0862234518795965,0.144752726358009
0.0891881213685905,0.142818036046622
0.0921190410269979,0.140901430335389
0.0950157085678205,0.139003109888226
0.097877621704059,0.137123275369051
0.100704278148715,0.13526212744178
0.10349517561479,0.133419866770332
0.106249811815284,0.131596694018623
0.108967684463199,0.12979280985057
0.111648291271537,0.128008414930091
0.114291129953298,0.126243709921103
0.116895698221484,0.124498895487523
0.119461493789095,0.122774172293268
0.121988014369134,0.121069741002256
0.124474757674601,0.119385802278404
0.126921221418498,0.117722556785629
0.129326903313825,0.116080205187849
0.131691301073584,0.11445894814898
0.134013912410776,0.11285898633294
0.136294235038403,0.111280520403646
0.138531766669465,0.109723751025016
0.140726005016965,0.108188878860965
0.142876447793902,0.106676104575413
0.144982592713278,0.105185628832276
0.147043937488095,0.103717652295471
0.149059979831354,0.102272375628915
0.151030217456056,0.100849999496527
0.152954148075201,0.0994507245622219
0.154831269401792,0.0980747514899184
0.15666107914883,0.0967222809435332
0.158443075029315,0.0953935135869838
0.16017675475625,0.0940886500841873
0.161861616042634,0.0928078910990609
0.16349715660147,0.0915514372955219
0.165082874145759,0.0903194893374876
0.166618266388501,0.089112247888875
0.168102831042699,0.0879299136136017
0.169536065821353,0.0867726871755846
0.170917468437464,0.0856407692387411
0.172246536604034,0.0845343604669885
0.173522768034064,0.0834536615242438
0.174745660440555,0.0823988730744245
0.175914711536509,0.0813701957814476
0.177029419034926,0.0803678303092305
0.178089280648808,0.0793919773216905
0.179093794091155,0.0784428374827446
0.180042457074971,0.0775206114563102
0.180934767313254,0.0766254999063045
0.181770222519007,0.0757577034966448
0.182548320405232,0.0749174228912481
0.183268558684928,0.074104858754032
0.183930435071097,0.0733202117489134
0.184533447276741,0.0725636825398098
0.185077093014861,0.0718354717906383
0.185560869998458,0.0711357801653161
0.185984275940533,0.0704648083277605
0.186346808554087,0.0698227569418887
0.186647965552122,0.069209826671618
0.186887244647639,0.0686262181808656
0.187064143553639,0.0680721321335488
0.187178159983123,0.0675477691935847
0.187228791649093,0.0670533300248906
0.187215536264549,0.0665890152913838
0.187137891542493,0.0661550256569814
0.186995355195927,0.0657515617856008
0.18678742493785,0.0653788243411591
0.186513598481266,0.0650370139875737
0.186173373539174,0.0647263313887616
0.185766247824576,0.0644469772086402
0.185291719050473,0.0641991521111267
0.184749284929867,0.0639830567601384
0.184138443175758,0.0637988918195924
0.183458691501148,0.0636468579534061
0.182709527619038,0.0635271558254965
0.18189044924243,0.0634399860997811
0.181000954084324,0.063385549440177
0.180040539857722,0.0633640465106014
0.179008704275624,0.0633756779749717
0.177904945051033,0.0634206444972049
0.17672875989695,0.0634991467412185
0.175479646526374,0.0636113853709295
0.174157102652309,0.0637575610502552
0.172760625987755,0.063937874443113
0.171289714245713,0.0641525262134199
0.169743865139184,0.0644017170250933
0.16812257638117,0.0646856475420504
0.166425345684672,0.0650045184282084
0.164651670762691,0.0653585303474846
0.162801049328228,0.0657478839637961
0.160872979094285,0.0661727799410603
0.158866957773863,0.0666334189431943
0.156782483079963,0.0671300016341155
0.154619052725585,0.067662728677741
0.152376164423733,0.068231800737988
0.150053315887406,0.0688374184787739
0.147650004829605,0.0694797825640158
0.145165728963333,0.070159093657631
0.14259998600159,0.0708755524235368
0.139952273657377,0.0716293595256502
0.137222089643697,0.0724207156278887
0.134408931673549,0.0732498213941694
0.131512297459935,0.0741168774884096
0.128531684715857,0.0750220845745265
0.125466591154315,0.0759656433164373
0.122316514488311,0.0769477543780592
0.119080952430846,0.0779686184233096
0.115759402694921,0.0790284361161057
0.112351362993537,0.0801274081203646
0.108856331039697,0.0812657351000036
0.1052738045464,0.0824436177189401
0.101603281226648,0.0836612566410911
0.0978442587934426,0.0849188525303739
0.0939962349597848,0.0862166060507058
0.0900587074386754,0.0875547178660041
0.0860311739431163,0.0889333886401858
0.081913132186108,0.0903528190371683
0.0777040798806524,0.0918132097208688
0.0734035147397502,0.0933147613552046
0.069010934476403,0.0948576746040928
0.0645258368036116,0.0964421501314509
0.0599477194343776,0.0980683886011958
0.0552760800817019,0.0997365906772449
0.0505104164585861,0.101446957023515
0.045650226278031,0.103199688303925
0.0406950072530383,0.10499498518239
0.0356442570966086,0.106833048322828
0.0304974735217437,0.108714078389157
0.0252541542414443,0.110638276045293
0.0199137969687122,0.112605841955154
0.014475899416548,0.114616976782657
0.00893995929795344,0.11667188119172
0.00330547432592928,0.118770755846259
-0.00242805778652279,0.120913801410192
-0.00826113932640204,0.123101218547436
-0.00826113932640204,0.123101218547436
-0.0141169374135048,0.125306351442342
-0.0199184446677343,0.127502422150066
-0.0256659016262484,0.129689448140729
-0.0313595488262053,0.131867446884453
-0.0369996268047631,0.134036435851358
-0.04258637609908,0.136196432511568
-0.048120037246314,0.138347454335203
-0.0536008507836232,0.140489518792385
-0.0590290572481657,0.142622643353235
-0.0644048971770997,0.144746845487876
-0.0697286111075832,0.146862142666429
-0.0750004395767743,0.148968552359015
-0.0802206231218311,0.151066092035757
-0.0853894022799118,0.153154779166775
-0.0905070175881744,0.155234631222192
-0.0955737095837771,0.157305665672129
-0.100589718803878,0.159367899986707
-0.105555285785635,0.161421351636049
-0.110470651066206,0.163466038090275
-0.11533605518275,0.165501976819508
-0.120151738672425,0.16752918529387
-0.124917942072388,0.169547680983481
-0.129634905919798,0.171557481358463
-0.134302870751812,0.173558603888938
-0.13892207710559,0.175551066045028
-0.143492765518289,0.177534885296854
-0.148015176527067,0.179510079114538
-0.152489550669082,0.181476664968202
-0.156916128481492,0.183434660327967
-0.161295150501456,0.185384082663954
-0.165626857266132,0.187324949446286
-0.169911489312677,0.189257278145084
-0.17414928717825,0.191181086230469
-0.178340491400009,0.193096391172563
-0.182485342515112,0.195003210441489
-0.186584081060717,0.196901561507366
-0.190636947573982,0.198791461840318
-0.194644182592066,0.200672928910466
-0.198606026652125,0.202545980187931
-0.20252272029132,0.204410633142835
-0.206394504046807,0.206266905245299
-0.210221618455745,0.208114813965446
-0.214004304055291,0.209954376773396
-0.217742801382604,0.211785611139272
-0.221437350974843,0.213608534533195
-0.225088193369164,0.215423164425286
-0.228695569102727,0.217229518285668
-0.232259718712689,0.219027613584462
-0.235780882736209,0.220817467791789
-0.239259301710444,0.222599098377772
-0.242695216172552,0.224372522812531
-0.246088866659693,0.226137758566189
-0.249440493709023,0.227894823108866
-0.252750337857701,0.229643733910686
-0.256018639642885,0.231384508441768
-0.259245639601733,0.233117164172236
-0.262431578271404,0.23484171857221
-0.265576696189055,0.236558189111812
-0.268681233891844,0.238266593261164
-0.27174543191693,0.239966948490387
-0.27476953080147,0.241659272269603
-0.277753771082624,0.243343582068934
-0.280698393297548,0.245019895358501
-0.283603637983401,0.246688229608426
-0.286469745677341,0.248348602288831
-0.289296956916526,0.250001030869836
-0.292085512238115,0.251645532821564
-0.294835652179264,0.253282125614137
-0.297547617277134,0.254910826717676
-0.300221648068881,0.256531653602302
-0.302857985091663,0.258144623738137
-0.30545686888264,0.259749754595304
-0.308018539978968,0.261347063643922
-0.310543238917806,0.262936568354115
-0.313031206236312,0.264518286196003
-0.315482682471645,0.266092234639709
-0.317897908160962,0.267658431155354
-0.320277123841421,0.269216893213059
-0.322620570050181,0.270767638282947
-0.324928487324399,0.272310683835138
-0.327201116201234,0.273846047339755
-0.329438697217844,0.275373746266919
-0.331641470911386,0.276893798086751
-0.33380967781902,0.278406220269374
-0.335943558477903,0.279911030284909
-0.338043353425193,0.281408245603477
-0.340109303198048,0.2828978836952
-0.342141648333627,0.2843799620302
-0.344140629369087,0.285854498078599
-0.346106486841587,0.287321509310517
-0.348039461288284,0.288781013196078
-0.349939793246338,0.290233027205401
-0.351807723252905,0.291677568808609
-0.353643491845144,0.293114655475824
-0.355447339560214,0.294544304677167
-0.357219506935271,0.29596653388276
-0.358960234507475,0.297381360562724
-0.360669762813984,0.298788802187181
-0.362348332391955,0.300188876226253
-0.363996183778546,0.301581600150061
-0.365613557510917,0.302966991428727
-0.367200694126224,0.304345067532372
-0.368757834161626,0.305715845931118
-0.370285218154281,0.307079344095088
-0.371783086641348,0.308435579494401
-0.373251680159983,0.309784569599181
-0.374691239247346,0.311126331879548
-0.376102004440595,0.312460883805624
-0.377484216276887,0.313788242847531
-0.37883811529338,0.315108426475391
-0.380163942027234,0.316421452159324
-0.381461937015605,0.317727337369453
-0.382732340795652,0.3190260995759
-0.383975393904534,0.320317756248786
-0.385191336879407,0.321602324858232
-0.386380410257431,0.32287982287436
-0.387542854575763,0.324150267767292
-0.388678910371562,0.32541367700715
-0.389788818181985,0.326670068064054
-0.390872818544191,0.327919458408128
-0.391931151995338,0.329161865509491
-0.392964059072583,0.330397306838267
-0.393971780313086,0.331625799864576
-0.394954556254004,0.33284736205854
-0.395912627432495,0.334062010890281
-0.396846234385717,0.33526976382992
-0.397755617650828,0.33647063834758
-0.398641017764987,0.337664651913381
-0.399502675265352,0.338851821997445
-0.400340830689081,0.340032166069894
-0.401155724573331,0.34120570160085
-0.401947597455261,0.342372446060434
-0.402716689872029,0.343532416918767
-0.403463242360794,0.344685631645972
-0.404187495458712,0.34583210771217
-0.404889689702943,0.346971862587483
-0.405570065630644,0.348104913742032
-0.406228863778974,0.349231278645938
-0.406866324685091,0.350350974769324
-0.407482688886152,0.351464019582311
-0.408078196919316,0.352570430555021
-0.408653089321741,0.353670225157576
-0.409207606630585,0.354763420860096
-0.409741989383006,0.355850035132704
-0.410256478116163,0.356930085445521
-0.410751313367212,0.358003589268669
-0.411226735673313,0.359070564072269
-0.411682985571624,0.360131027326444
-0.412120303599303,0.361184996501314
-0.412538930293507,0.362232489067001
-0.412939106191395,0.363273522493627
-0.413321071830125,0.364308114251314
-0.413685067746855,0.365336281810184
-0.414031334478743,0.366358042640356
-0.414360112562948,0.367373414211955
-0.414671642536626,0.3683824139951
-0.414966164936938,0.369385059459914
-0.41524392030104,0.370381368076519
-0.41550514916609,0.371371357315035
-0.415750092069248,0.372355044645585
-0.41597898954767,0.37333244753829
-0.416192082138515,0.374303583463271
-0.416389610378942,0.375268469890651
-0.416571814806107,0.376227124290552
-0.41673893595717,0.377179564133094
-0.416891214369288,0.378125806888398
-0.41702889057962,0.379065870026588
-0.417152205125323,0.379999771017785
-0.417261398543557,0.38092752733211
-0.417356711371477,0.381849156439684
-0.417438384146244,0.382764675810629
-0.417506657405015,0.383674102915068
-0.417561771684948,0.384577455223122
-0.417603967523201,0.385474750204911
-0.417633485456932,0.386366005330558
-0.4176505660233,0.387251238070185
-0.417655449759463,0.388130465893913
-0.417648377202578,0.389003706271864
-0.417629588889803,0.389870976674159
-0.417599325358298,0.39073229457092
-0.417557827145219,0.391587677432269
-0.417505334787726,0.392437142728327
-0.417442088822976,0.393280707929215
-0.417368329788126,0.394118390505056
-0.417284298220337,0.394950207925971
-0.417190234656764,0.395776177662082
-0.417086379634568,0.39659631718351
-0.416972973690905,0.397410643960378
-0.416850257362933,0.398219175462805
-0.416718471187812,0.399021929160915
-0.416577855702698,0.399818922524829
-0.416428651444751,0.400610173024668
-0.416271098951127,0.401395698130554
-0.416105438758986,0.402175515312609
-0.415931911405485,0.402949642040954
-0.415750757427783,0.403718095785711
-0.415562217363038,0.404480894017001
-0.415366531748407,0.405238054204947
-0.415163941121048,0.405989593819669
-0.414954686018121,0.40673553033129
-0.414739006976783,0.407475881209931
-0.414517144534192,0.408210663925714
-0.414289339227505,0.408939895948759
-0.414055831593883,0.40966359474919
-0.413816862170481,0.410381777797127
-0.413572671494459,0.411094462562693
-0.413323500102975,0.411801666516008
-0.413069588533186,0.412503407127194
-0.412811177322251,0.413199701866373
-0.412548507007329,0.413890568203667
-0.412281818125576,0.414576023609198
-0.412011351214151,0.415256085553086
-0.411737346810212,0.415930771505453
-0.411460045450918,0.416600098936422
-0.411179687673426,0.417264085316113
-0.410896514014895,0.417922748114649
-0.410610765012482,0.418576104802151
-0.410322681203346,0.41922417284874
-0.410032503124645,0.419866969724539
-0.409740471313536,0.420504512899668
-0.409446826307179,0.42113681984425
-0.409151808642731,0.421763908028406
-0.40885565885735,0.422385794922257
-0.408558617488195,0.423002497995926
-0.408260925072422,0.423614034719534
-0.407962822147192,0.424220422563202
-0.407664549249661,0.424821678997053
-0.407366346916988,0.425417821491207
-0.40706845568633,0.426008867515787
-0.406771116094847,0.426594834540914
-0.406474568679696,0.427175740036709
-0.406179053978034,0.427751601473295
-0.405884812527021,0.428322436320793
-0.405592084863815,0.428888262049324
-0.405301111525573,0.42944909612901
-0.405012133049453,0.430004956029973
-0.404725389972614,0.430555859222335
-0.404441122832214,0.431101823176216
-0.404159572165411,0.43164286536174
-0.403880978509363,0.432179003249026
-0.403605582401227,0.432710254308197
-0.403333624378163,0.433236636009375
-0.403065344977329,0.433758165822681
-0.402800984735881,0.434274861218237
-0.402540784190979,0.434786739666164
-0.402284983879781,0.435293818636584
-0.402033824339445,0.435796115599619
-0.401787546107128,0.436293648025389
-0.401546389719989,0.436786433384018
-0.401310595715186,0.437274489145626
-0.401080404629877,0.437757832780336
-0.40085605700122,0.438236481758268
-0.400637793366374,0.438710453549544
-0.400425854262496,0.439179765624287
-0.400220480226745,0.439644435452616
-0.400021911796278,0.440104480504656
-0.399830389508254,0.440559918250526
-0.399646153899831,0.441010766160348
-0.399469445508166,0.441457041704244
-0.399300504870419,0.441898762352337
-0.399139572523747,0.442335945574746
-0.398986889005308,0.442768608841595
-0.39884269485226,0.443196769623004
-0.398707230601762,0.443620445389095
-0.398580736790971,0.44403965360999
-0.398463453957046,0.44445441175581
-0.398355622637145,0.444864737296678
-0.398257483368425,0.445270647702714
-0.398169276688046,0.44567216044404
-0.398091243133164,0.446069292990778
-0.398023623240939,0.44646206281305
-0.397966657548528,0.446850487380977
-0.397920586593089,0.447234584164681
-0.397885650911781,0.447614370634283
-0.397862091041761,0.447989864259905
-0.397850147520188,0.448361082511669
-0.39785006088422,0.448728042859696
-0.397862071671014,0.449090762774108
-0.39788642041773,0.449449259725026
-0.397923347661524,0.449803551182573
-0.397973093939556,0.450153654616869
-0.398035899788983,0.450499587498037
-0.398112005746963,0.450841367296198
-0.398201652350655,0.451179011481473
-0.398305080137217,0.451512537523984
-0.398422529643806,0.451841962893854
-0.398554241407581,0.452167305061203
-0.3987004559657,0.452488581496152
-0.39886141385532,0.452805809668825
-0.399037355613601,0.453119007049342
-0.3992285217777,0.453428191107825
-0.399435152884776,0.453733379314396
-0.399657489471985,0.454034589139175
-0.399895772076488,0.454331838052286
-0.400150241235441,0.454625143523849
-0.400421137486002,0.454914523023986
-0.400708701365331,0.455199994022819
-0.401013173410584,0.455481573990469
-0.40133479415892,0.455759280397058
-0.401673804147498,0.456033130712707
-0.402030443913474,0.456303142407539
-0.402404953994008,0.456569332951675
-0.402797574926258,0.456831719815236
-0.40320854724738,0.457090320468344
-0.403638111494535,0.45734515238112
-0.404086508204879,0.457596233023687
-0.404553977915571,0.457843579866166
-0.405040761163769,0.458087210378678
-0.405547098486631,0.458327142031346
-0.406073230421316,0.45856339229429
-0.40661939750498,0.458795978637633
-0.407185840274783,0.459024918531496
-0.407772799267882,0.459250229446
-0.408380515021436,0.459471928851268
-0.409009228072602,0.45969003421742
-0.409659178958539,0.459904563014579
-0.410330608216405,0.460115532712866
-0.411023756383358,0.460322960782403
-0.411738863996557,0.460526864693311
-0.412476171593158,0.460727261915713
-0.41323591971032,0.460924169919728
-0.414018348885202,0.46111760617548
-0.414823699654961,0.46130758815309
-0.415652212556756,0.46149413332268
-0.416504128127745,0.46167725915437
-0.417379686905085,0.461856983118283
-0.418279129425935,0.462033322684541
-0.419202696227454,0.462206295323264
-0.420150627846798,0.462375918504575
-0.421123164821126,0.462542209698596
-0.422120547687597,0.462705186375447
-0.423143016983368,0.46286486600525
-0.424190813245598,0.463021266058128
-0.425264177011444,0.463174404004201
-0.426363348818065,0.463324297313592
-0.427488569202619,0.463470963456421
-0.428640078702263,0.463614419902811
-0.429818117854157,0.463754684122884
-0.431022927195458,0.46389177358676
-0.432254747263324,0.464025705764561
-0.433513818594913,0.46415649812641
-0.434800381727384,0.464284168142427
-0.436114677197894,0.464408733282735
-0.437456945543602,0.464530211017454
-0.438827427301665,0.464648618816707
-0.440226363009243,0.464763974150615
-0.441653993203492,0.4648762944893
-0.443110558421571,0.464985597302883
-0.444596299200639,0.465091900061486
-0.446111456077852,0.465195220235231
-0.447656269590371,0.465295575294239
-0.449230980275351,0.465392982708632
-0.450835828669952,0.465487459948531
-0.452471055311332,0.465579024484059
-0.454136900736648,0.465667693785337
-0.455833605483059,0.465753485322485
-0.457561410087723,0.465836416565627
-0.459320555087799,0.465916504984883
-0.461111281020443,0.465993768050376
-0.462933828422815,0.466068223232226
-0.464788437832072,0.466139888000556
-0.466675349785372,0.466208779825487
-0.468594804819874,0.466274916177141
-0.470547043472736,0.466338314525639
-0.472532306281115,0.466398992341103
-0.474550833782171,0.466456967093654
-0.47660286651306,0.466512256253415
-0.478688645010941,0.466564877290507
-0.480808409812973,0.466614847675051
-0.482962401456313,0.466662184877169
-0.485150860478119,0.466706906366982
-0.48737402741555,0.466749029614614
-0.489632142805763,0.466788572090184
-0.491925447185917,0.466825551263814
-0.49425418109317,0.466859984605627
-0.49661858506468,0.466891889585743
-0.499018899637604,0.466921283674285
-0.501455365349102,0.466948184341374
-0.503928222736331,0.466972609057132
-0.50643771233645,0.46699457529168
-0.508984074686615,0.46701410051514
-0.511567550323986,0.467031202197633
-0.514188379785721,0.467045897809282
-0.516846803608978,0.467058204820207
-0.519543062330914,0.467068140700531
-0.522277396488688,0.467075722920374
-0.525050046619459,0.46708096894986
-0.527861253260383,0.467083896259108
-0.53071125694862,0.467084522318242
-0.533600298221327,0.467082864597382
-0.536528617615662,0.46707894056665
-0.539496455668784,0.467072767696167
-0.542504052917851,0.467064363456057
-0.54555164990002,0.467053745316439
-0.54863948715245,0.467040930747435
-0.551767805212299,0.467025937219168
-0.554936844616725,0.467008782201759
-0.558146845902886,0.46698948316533
-0.561398049607941,0.466968057580001
