0.897124572836663,0.711805255506061
0.890534558049025,0.702010577303763
0.883954557513437,0.692306533578437
0.87738459086494,0.682692778534976
0.870824677738578,0.673168966378271
0.864274837769394,0.663734751313211
0.857735090592429,0.654389787544688
0.851205455842726,0.645133729277592
0.844685953155328,0.635966230716814
0.838176602165278,0.626886946067245
0.831677422507617,0.617895529533776
0.82518843381739,0.608991635321296
0.818709655729637,0.600174917634698
0.812241107879403,0.591445030678871
0.805782809901728,0.582801628658706
0.799334781431657,0.574244365779095
0.792897042104231,0.565772896244928
0.786469611554494,0.557386874261094
0.780052509417487,0.549085954032487
0.773645755328253,0.540869789763995
0.767249368921836,0.532738035660509
0.760863369833277,0.524690345926922
0.754487777697618,0.516726374768122
0.748122612149904,0.508845776389001
0.741767892825176,0.50104820499445
0.735423639358477,0.493333314789359
0.729089871384848,0.485700759978619
0.722766608539334,0.478150194767121
0.716453870456977,0.470681273359755
0.710151676772819,0.463293649961412
0.703860047121903,0.455986978776983
0.69757900113927,0.448760914011359
0.691308558459965,0.44161510986943
0.68504873871903,0.434549220556088
0.678799561551506,0.427562900276221
0.672561046592437,0.420655803234723
0.666333213476866,0.413827583636482
0.660116081839834,0.407077895686391
0.653909671316385,0.400406393589339
0.64771400154156,0.393812731550218
0.641529092150404,0.387296563773917
0.635354962777957,0.380857544465329
0.629191633059263,0.374495327829343
0.623039122629365,0.36820956807085
0.616897451123305,0.361999919394741
0.610766638176125,0.355866036005907
0.604646703422868,0.349807572109238
0.598537666498577,0.343824181909626
0.592439547038294,0.33791551961196
0.586352364677062,0.332081239421132
0.580276139049924,0.326320995542032
0.574210889791921,0.320634442179551
0.568156636538098,0.31502123353858
0.562113398923495,0.309481023824009
0.556081196583157,0.30401346724073
0.550060049152124,0.298618217993632
0.544049976265441,0.293294930287607
0.538050997558149,0.288043258327546
0.532063132665291,0.282862856318338
0.526086401221911,0.277753378464875
0.520120822863049,0.272714478972048
0.514166417223749,0.267745812044747
0.508223203939054,0.262847031887862
0.502291202644006,0.258017792706286
0.496370432973647,0.253257748704907
0.490460914563021,0.248566554088618
0.48456266704717,0.243943863062309
0.478675710061136,0.23938932983087
0.472800063239962,0.234902608599193
0.46693574621869,0.230483353572167
0.461082778632364,0.226131218954684
0.455241180116026,0.221845858951635
0.449410970304717,0.21762692776791
0.443592168833482,0.213474079608399
0.437784795337362,0.209386968677994
0.431988869451401,0.205365249181586
0.42620441081064,0.201408575324064
0.420431439050122,0.197516601310321
0.41466997380489,0.193688981345245
0.408920034709987,0.189925369633729
0.403181641400455,0.186225420380663
0.397454813511336,0.182588787790937
0.391739570677673,0.179015126069443
0.38603593253451,0.17550408942107
0.380343918716887,0.172055332050711
0.374663548859849,0.168668508163255
0.368994842598437,0.165343271963593
0.363337819567694,0.162079277656616
0.357692499402663,0.158876179447215
0.352058901738386,0.15573363154028
0.346437046209906,0.152651288140703
0.340826952452265,0.149628803453373
0.335228640100507,0.146665831683181
0.329642128789673,0.143762027035019
0.324067438154807,0.140917043713777
0.31850458783095,0.138130535924346
0.312953597453145,0.135402157871616
0.307414486656436,0.132731563760478
0.301887275075864,0.130118407795823
0.296371982346472,0.127562344182542
0.290868628103303,0.125063027125525
0.2853772319814,0.122620110829663
0.279897813615804,0.120233249499846
0.274430392641559,0.117902097340967
0.268974988693706,0.115626308557914
0.26353162140729,0.113405537355579
0.258100310417351,0.111239437938853
0.252681075358934,0.109127664512626
0.24727393586708,0.10706987128179
0.241878911576832,0.105065712451234
0.236496022123232,0.103114842225849
0.231125287141324,0.101216914810527
0.225766726266149,0.0993715844101579
0.220420359132751,0.0975785052296323
0.215086205376172,0.095837331473841
0.209764284631454,0.094147717347675
0.20445461653364,0.0925093170560247
0.199157220717773,0.0909217848037811
0.193872116818895,0.0893847747958346
0.188599324472049,0.0878979412370761
0.183338863312278,0.0864609383323965
0.178090752974623,0.0850734202866862
0.172855013094128,0.083735041304836
0.167631663305836,0.0824454555917366
0.162420723244788,0.081204317352279
0.157222212546027,0.0800112807913536
0.152036150844597,0.0788660001138513
0.146862557775539,0.0777681295246626
0.141701452973896,0.0767173232286786
0.136552856074711,0.0757132354307897
0.131416786713026,0.0747555203358866
0.126293264523883,0.0738438321488601
0.121182309142327,0.0729778250746011
0.116083940203398,0.0721571533180002
0.11099817734214,0.071381471083948
0.105925040193596,0.0706504325773353
0.100864548392807,0.0699636920030529
0.0958167215748161,0.0693209035659915
0.0907815793746665,0.0687217214710417
0.0857591414274005,0.0681657999230943
0.0807494273680607,0.06765279312704
0.0757524568316896,0.0671823552877696
0.0707682494533297,0.0667541406101737
0.0657968248680237,0.0663678032991431
0.0608382027108143,0.0660229975595684
0.055892402616744,0.0657193775963405
0.0509594442208552,0.0654565976143501
0.0460393471581907,0.0652343118184878
0.0411321310637931,0.0650521744136443
0.0362378155727049,0.0649098396047106
0.0313564203199686,0.064806961596577
0.0264879649406269,0.0647431945941345
0.0216324690697224,0.0647181928022738
0.0167899523422977,0.0647316104258856
0.0119604343933953,0.0647831016698606
0.00714393485805773,0.0648723207390895
0.00234047337132778,0.064998921838463
-0.00244993043175207,0.0651625591728719
-0.00722725691613929,0.0653628869472068
-0.0119914864467913,0.0655995593663586
-0.0167425993886653,0.0658722306352179
-0.0214805761067189,0.0661805549586754
-0.0262053969659096,0.0665241865416219
-0.0309170423311947,0.0669027795889481
-0.0356154925675315,0.0673159883055447
-0.0403007280398775,0.0677634668963024
-0.0449727291131902,0.0682448695661119
-0.049631476152427,0.068759850519864
-0.0542769495225453,0.0693080639624494
-0.0589091295885023,0.0698891640987588
-0.0635279967152558,0.0705028051336829
-0.0681335312677629,0.0711486412721125
-0.0727257136109811,0.0718263267189382
-0.0773045241098679,0.0725355156790509
-0.0818699431293807,0.0732758623573411
-0.0864219510344768,0.0740470209586997
-0.0909605281901137,0.0748486456880172
-0.0954856549612487,0.0756803907501846
-0.0999973117128395,0.0765419103500924
-0.104495478809843,0.0774328586926315
-0.108980136617217,0.0783528899826925
-0.113451265499919,0.0793016584251661
-0.117908845822907,0.0802788182249431
-0.122352857951137,0.0812840235869142
-0.126783282249567,0.0823169287159701
-0.131200099083154,0.0833771878170015
-0.135603288816857,0.0844644550948992
-0.139992831815632,0.0855783847545538
-0.144368708444437,0.0867186310008562
-0.148730899068229,0.0878848480386969
-0.153079384051965,0.0890766900729668
-0.157414143760603,0.0902938113085565
-0.161735158559101,0.0915358659503568
-0.166042408812416,0.0928025082032584
-0.170335874885505,0.094093392272152
-0.174615537143325,0.0954081723619283
-0.178881375950835,0.0967465026774781
-0.183133371672991,0.0981080374236921
-0.187371504674751,0.0994924308054609
-0.191595755321073,0.100899337027675
-0.195806103976913,0.102328410295226
-0.200002531007229,0.103779304813004
-0.204185016776979,0.1052516747859
-0.20835354165112,0.106745174418804
-0.212508085994609,0.108259457916607
-0.216648630172404,0.1097941794842
-0.220775154549462,0.111348993326474
-0.224887639490741,0.11292355364832
-0.228986065361198,0.114517514654627
-0.233070412525791,0.116130530550287
-0.237140661349476,0.117762255540191
-0.241196792197212,0.119412343829229
-0.245238785433955,0.121080449622292
-0.249266621424664,0.122766227124271
-0.253280280534295,0.124469330540056
-0.257279743127806,0.126189414074538
-0.261264989570154,0.127926131932608
-0.265236000226297,0.129679138319157
-0.269192755461192,0.131448087439075
-0.273135235639797,0.133232633497253
-0.277063421127069,0.135032430698581
-0.280977292287966,0.136847133247952
-0.284876829487444,0.138676395350254
-0.288762013090461,0.140519871210379
-0.292632823461976,0.142377215033218
-0.296489240966944,0.144248081023661
-0.300331245970324,0.1461321233866
-0.304158818837073,0.148028996326924
-0.307971939932148,0.149938354049524
-0.311770589620507,0.151859850759292
-0.315554748267107,0.153793140661118
-0.319324396236905,0.155737877959892
-0.32307951389486,0.157693716860506
-0.326820081605928,0.15966031156785
-0.330546079735067,0.161637316286815
-0.334257488647234,0.163624385222291
-0.337954288707387,0.165621172579169
-0.341636460280483,0.167627332562341
-0.345303983731479,0.169642519376696
-0.348956839425334,0.171666387227126
-0.352595007727003,0.17369859031852
-0.356218469001446,0.175738782855771
-0.359827203613618,0.177786619043768
-0.363421191928478,0.179841753087403
-0.367000414310983,0.181903839191565
-0.370564851126091,0.183972531561147
-0.374114482738758,0.186047484401038
-0.377649289513943,0.188128351916129
-0.381169251816602,0.19021478831131
-0.384674350011693,0.192306447791474
-0.388164564464174,0.19440298456151
-0.391639875539001,0.196504052826309
-0.395100263601133,0.198609306790761
-0.398545709015527,0.200718400659759
-0.401976192147139,0.202830988638191
-0.405391693360929,0.204946724930949
-0.408792193021852,0.207065263742924
-0.412177671494866,0.209186259279007
-0.41554810914493,0.211309365744088
-0.418903486336999,0.213434237343057
-0.422243783436033,0.215560528280806
-0.425568980806987,0.217687892762225
-0.428879058814819,0.219815984992205
-0.432173997824488,0.221944459175637
-0.43545377820095,0.224072969517412
-0.438718380309162,0.226201170222419
-0.441967784514083,0.228328715495551
-0.445201971180669,0.230455259541696
-0.448420920673878,0.232580456565748
-0.451624613358667,0.234703960772595
-0.454813029599995,0.236825426367129
-0.457986149762817,0.238944507554241
-0.461143954212092,0.241060858538821
-0.464286423312777,0.243174133525759
-0.467413537429829,0.245283986719947
-0.470525276928206,0.247390072326276
-0.473621622172866,0.249492044549636
-0.476702553528765,0.251589557594917
-0.479768051360861,0.253682265667011
-0.482818096034112,0.255769822970809
-0.485852667913474,0.2578518837112
-0.488871747363906,0.259928102093076
-0.491875314750365,0.261998132321327
-0.494863350437808,0.264061628600845
-0.497835834791192,0.266118245136519
-0.500792748175476,0.268167636133241
-0.503734070955615,0.270209455795901
-0.506659783496569,0.27224335832939
-0.509569866163294,0.274268997938599
-0.512464299320747,0.276286028828418
-0.515343063333887,0.278294105203738
-0.51820613856767,0.280292881269451
-0.521053505387054,0.282282011230446
-0.523885144156996,0.284261149291614
-0.526701035242454,0.286229949657846
-0.529501159008385,0.288188066534033
-0.532285495819746,0.290135154125066
-0.535054026041496,0.292070866635835
-0.53780673003859,0.29399485827123
-0.540543588175988,0.295906783236144
-0.543264580818646,0.297806295735465
-0.545969688331522,0.299693049974086
-0.548658891079572,0.301566700156896
-0.551332169427755,0.303426900488788
-0.553989503741028,0.30527330517465
-0.556630874384348,0.307105568419374
-0.559256261722673,0.308923344427851
-0.56186564612096,0.310726287404971
-0.564459007944166,0.312514051555626
-0.56703632755725,0.314286291084705
-0.569597585325167,0.3160426601971
-0.572142761612877,0.317782813097701
-0.574671836785335,0.319506403991399
-0.5771847912075,0.321213087083085
-0.57968160524433,0.32290251657765
-0.58216225926078,0.324574346679983
-0.58462673362181,0.326228231594977
-0.587075008692376,0.327863825527521
-0.589507064837435,0.329480782682506
-0.591922882421946,0.331078757264823
-0.594322441810865,0.332657403479364
-0.59670572336915,0.334216375531017
-0.599072707461758,0.335755327624675
-0.601423374453647,0.337273913965228
-0.603757704709774,0.338771788757567
-0.606075678595097,0.340248606206581
-0.608377276474572,0.341704020517163
-0.610662478713159,0.343137685894203
-0.612931265675812,0.344549256542591
-0.615183617727492,0.345938386667219
-0.617419515233153,0.347304730472976
-0.619638938557755,0.348647942164755
-0.621841868066254,0.349967675947444
-0.624028284123609,0.351263586025936
-0.626198167094775,0.35253532660512
-0.628351497344712,0.353782551889889
-0.630488255238375,0.355004916085131
-0.632608421140723,0.356202073395739
-0.634711975416713,0.357373678026602
-0.636798898431302,0.358519384182611
-0.638869170549448,0.359638846068658
-0.640922772136108,0.360731717889633
-0.64295968355624,0.361797653850426
-0.644979885174801,0.362836308155929
-0.646983357356748,0.363847335011032
-0.648970080467039,0.364830388620625
-0.650940034870632,0.3657851231896
-0.652893200932483,0.366711192922847
-0.65482955901755,0.367608252025258
-0.656749089490791,0.368475954701721
-0.658651772717162,0.36931395515713
-0.660537589061623,0.370121907596373
-0.662406518889128,0.370899466224342
-0.664258542564638,0.371646285245928
-0.666093640453107,0.372362018866021
-0.667911792919495,0.373046321289512
-0.669712980328758,0.373698846721291
-0.671497183045853,0.37431924936625
-0.67326438143574,0.374907183429279
-0.675014555863373,0.375462303115269
-0.676747686693712,0.375984262629111
-0.678463754291714,0.376472716175695
-0.680162739022335,0.376927317959912
-0.681844621250534,0.377347722186652
-0.683509381341267,0.377733583060808
-0.685156999659493,0.378084554787268
-0.686787456570167,0.378400291570924
-0.68840073243825,0.378680447616667
-0.689996807628696,0.378924677129387
-0.691575662506465,0.379132634313975
-0.693137277436512,0.379303973375322
-0.694681632783796,0.379438348518319
-0.696208708913274,0.379535413947856
-0.697718486189904,0.379594823868823
-0.699210944978642,0.379616232486113
-0.700686065644447,0.379599294004615
-0.702143828552276,0.37954366262922
-0.703584214067086,0.379448992564818
-0.705007202553834,0.379314938016301
-0.706412774377478,0.37914115318856
-0.707800909902976,0.378927292286484
-0.709171589495284,0.378673009514966
-0.710524793519361,0.378377959078894
-0.711860502340163,0.378041795183161
-0.713178696322648,0.377664172032657
-0.714479355831774,0.377244743832272
-0.715762461232498,0.376783164786897
-0.717027992889776,0.376279089101424
-0.718275931168568,0.375732170980742
-0.71950625643383,0.375142064629743
-0.720718949050519,0.374508424253317
-0.721913989383593,0.373830904056355
-0.723091357798009,0.373109158243748
-0.724251034658726,0.372342841020385
-0.725393000330699,0.371531606591159
-0.726517235178887,0.37067510916096
-0.727623719568247,0.369773002934678
-0.728712433863737,0.368824942117205
-0.729783358430313,0.36783058091343
-0.730836473632933,0.366789573528245
-0.730836473632933,0.366789573528245
-0.731851893468598,0.365720857679255
-0.732809919329847,0.364643639782391
-0.73371081267495,0.363557977090029
-0.734554834962175,0.362463926854548
-0.735342247649792,0.361361546328327
-0.736073312196068,0.360250892763742
-0.736748290059272,0.359132023413172
-0.737367442697674,0.358004995528996
-0.737931031569542,0.35686986636359
-0.738439318133145,0.355726693169332
-0.738892563846752,0.354575533198602
-0.739291030168631,0.353416443703776
-0.739634978557052,0.352249481937232
-0.739924670470282,0.35107470515135
-0.740160367366592,0.349892170598505
-0.740342330704248,0.348701935531077
-0.740470821941522,0.347504057201444
-0.74054610253668,0.346298592861983
-0.740568433947992,0.345085599765072
-0.740538077633727,0.34386513516309
-0.740455295052153,0.342637256308414
-0.740320347661539,0.341402020453422
-0.740133496920155,0.340159484850492
-0.739895004286268,0.338909706752003
-0.739605131218148,0.337652743410331
-0.739264139174062,0.336388652077855
-0.738872289612281,0.335117490006954
-0.738429843991073,0.333839314450004
-0.737937063768706,0.332554182659384
-0.73739421040345,0.331262151887472
-0.736801545353573,0.329963279386645
-0.736159330077344,0.328657622409283
-0.735467826033031,0.327345238207762
-0.734727294678904,0.32602618403446
-0.733937997473231,0.324700517141756
-0.733100195874281,0.323368294782028
-0.732214151340323,0.322029574207653
-0.731280125329626,0.320684412671009
-0.730298379300457,0.319332867424475
-0.729269174711087,0.317974995720429
-0.728192773019784,0.316610854811247
-0.727069435684817,0.315240501949309
-0.725899424164453,0.313863994386992
-0.724682999916963,0.312481389376674
-0.723420424400615,0.311092744170733
-0.722111959073678,0.309698116021547
-0.72075786539442,0.308297562181494
-0.71935840482111,0.306891139902952
-0.717913838812018,0.305478906438299
-0.716424428825411,0.304060919039913
-0.714890436319559,0.302637234960172
-0.71331212275273,0.301207911451453
-0.711689749583194,0.299773005766135
-0.710023578269218,0.298332575156596
-0.708313870269072,0.296886676875213
-0.706560887041024,0.295435368174365
-0.704764890043344,0.29397870630643
-0.702926140734299,0.292516748523785
-0.70104490057216,0.291049552078808
-0.699121431015193,0.289577174223878
-0.69715599352167,0.288099672211372
-0.695148849549857,0.286617103293668
-0.693100260558024,0.285129524723144
-0.69101048800444,0.283636993752179
-0.688879793347373,0.28213956763315
-0.686708438045092,0.280637303618434
-0.684496683555866,0.279130258960411
-0.682244791337964,0.277618490911458
-0.679953022849655,0.276102056723953
-0.677621639549206,0.274581013650274
-0.675250902894888,0.273055418942798
-0.672841074344969,0.271525329853905
-0.670392415357717,0.269990803635971
-0.667905187391401,0.268451897541374
-0.665379651904291,0.266908668822494
-0.662816070354654,0.265361174731707
-0.660214704200761,0.263809472521391
-0.657575814900878,0.262253619443925
-0.654899663913276,0.260693672751687
-0.652186512696223,0.259129689697054
-0.649436622707988,0.257561727532404
-0.646650255406838,0.255989843510116
-0.643827672251045,0.254414094882566
-0.640969134698875,0.252834538902135
-0.638074904208599,0.251251232821198
-0.635145242238483,0.249664233892134
-0.632180410246799,0.248073599367322
-0.629180669691813,0.246479386499138
-0.626146282031796,0.244881652539962
-0.623077508725015,0.24328045474217
-0.619974611229739,0.241675850358141
-0.616837851004238,0.240067896640253
-0.61366748950678,0.238456650840884
-0.610463788195634,0.236842170212412
-0.607227008529068,0.235224512007214
-0.603957411965351,0.233603733477669
-0.600655259962753,0.231979891876155
-0.597320813979541,0.230353044455049
-0.593954335473985,0.228723248466729
-0.590556085904354,0.227090561163574
-0.587126326728916,0.225455039797962
-0.58366531940594,0.22381674162227
-0.580173325393694,0.222175723888876
-0.576650606150449,0.220532043850158
-0.573097423134471,0.218885758758495
-0.56951403780403,0.217236925866264
-0.565900711617395,0.215585602425842
-0.562257706032835,0.213931845689609
-0.558585282508619,0.212275712909942
-0.554883702503014,0.210617261339219
-0.55115322747429,0.208956548229818
-0.547394118880716,0.207293630834117
-0.543606638180561,0.205628566404493
-0.539791046832092,0.203961412193326
-0.53594760629358,0.202292225452992
-0.532076578023293,0.200621063435869
-0.528178223479499,0.198947983394337
-0.524252804120467,0.197273042580772
-0.520300581404466,0.195596298247552
-0.516321816789766,0.193917807647056
-0.512316771734634,0.192237628031662
-0.508285707697339,0.190555816653747
-0.504228886136151,0.188872430765689
-0.500146568509337,0.187187527619866
-0.496039016275168,0.185501164468657
-0.491906490891911,0.183813398564439
-0.487749253817835,0.18212428715959
-0.483567566511209,0.180433887506489
-0.479361690430302,0.178742256857512
-0.475131887033382,0.177049452465038
-0.470878417778719,0.175355531581445
-0.466601544124582,0.173660551459112
-0.462301527529238,0.171964569350415
-0.457978629450956,0.170267642507733
-0.453633111348006,0.168569828183443
-0.449265234678657,0.166871183629925
-0.444875260901176,0.165171766099555
-0.440463451473833,0.163471632844711
-0.436030067854897,0.161770841117773
-0.431575371502636,0.160069448171117
-0.427099623875319,0.158367511257121
-0.422603086431215,0.156665087628164
-0.418086020628592,0.154962234536623
-0.413548687925721,0.153259009234876
-0.408991349780868,0.151555468975302
-0.404414267652303,0.149851671010278
-0.399817702998295,0.148147672592182
-0.395201917277112,0.146443530973393
-0.390567171947024,0.144739303406287
-0.385913728466298,0.143035047143244
-0.381241848293205,0.14133081943664
-0.376551792886012,0.139626677538855
-0.371843823702989,0.137922678702265
-0.367118202202403,0.13621888017925
-0.362375189842524,0.134515339222186
-0.357615048081622,0.132812113083452
-0.352838038377963,0.131109259015425
-0.348044422189818,0.129406834270484
-0.343234460975455,0.127704896101007
-0.338408416193143,0.126003501759372
-0.33356654930115,0.124302708497956
-0.328709121757745,0.122602573569137
-0.323836395021197,0.120903154225294
-0.318948630549776,0.119204507718805
-0.314046089801749,0.117506691302046
-0.309129034235385,0.115809762227397
-0.304197725308954,0.114113777747235
-0.299252424480723,0.112418795113939
-0.294293393208963,0.110724871579885
-0.28932089295194,0.109032064397453
-0.284335185167925,0.10734043081902
-0.279336531315186,0.105650028096963
-0.274325192851992,0.103960913483662
-0.269301431236611,0.102273144231494
-0.264265507927313,0.100586777592836
-0.259217684382366,0.0989018708200672
-0.254158222060039,0.0972184811655653
-0.2490873824186,0.0955366658817079
-0.244005426916319,0.0938564822208733
-0.238912617011464,0.0921779874354393
-0.233809214162304,0.0905012387777839
-0.228695479827108,0.088826293500285
-0.223571675464144,0.0871532088553205
-0.218438062531682,0.0854820420952685
-0.21329490248799,0.0838128504725069
-0.208142456791336,0.0821456912394136
-0.20298098689999,0.0804806216483666
-0.197810754272221,0.0788176989517439
-0.192632020366297,0.0771569804019233
-0.187445046640486,0.0754985232512828
-0.182250094553058,0.0738423847522005
-0.177047425562282,0.0721886221570542
-0.171837301126426,0.070537292718222
-0.166619982703759,0.0688884536880816
-0.16139573175255,0.0672421623190111
-0.156164809731068,0.0655984758633885
-0.150927478097581,0.0639574515735918
-0.145683998310358,0.0623191467019987
-0.140434631827667,0.0606836185009874
-0.135179640107779,0.0590509242229358
-0.129919284608961,0.0574211211202217
-0.124653826789482,0.0557942664452233
-0.119383528107611,0.0541704174503183
-0.114108650021617,0.0525496313878848
-0.108829453989768,0.0509319655103008
-0.103546201470334,0.0493174770699441
-0.0982591539215821,0.0477062233191927
-0.0929685728017828,0.0460982615104247
-0.0876747195692038,0.0444936488960178
-0.0823778556821143,0.0428924427283502
-0.0770782425987828,0.0412947002597996
-0.0717761417774785,0.0397004787427442
-0.0664718146764697,0.0381098354295618
-0.0611655227540255,0.0365228275726304
-0.0558575274684144,0.034939512424328
-0.0505480902779054,0.0333599472370324
-0.0452374726407671,0.0317841892631217
-0.0399259360152686,0.0302122957549738
-0.0346137418596781,0.0286443239649666
-0.029301151632265,0.0270803311454782
-0.0239884267912975,0.0255203745488864
-0.0186758287950449,0.0239645114275692
-0.0133636191017754,0.0224127990339046
-0.00805205916975846,0.0208652946202705
-0.00274141045726217,0.0193220554390448
0.0025680655774441,0.0177831387426056
0.00787610747609213,0.0162486017833307
0.0131824537804126,0.0147185018135982
0.0184868430321373,0.0131928960857859
0.023789013772997,0.011671841852272
0.0290887045447232,0.010155396365434
0.0343856538890469,0.00864361687765038
0.0396796003476996,0.0071365606412987
0.0449702824624122,0.00563428490875714
0.0502574387749164,0.00413684693240349
0.0555408078269428,0.00264430396461583
0.0608201281602233,0.00115671325777202
0.0660951383164885,-0.000325867935749895
0.0713655768374702,-0.00180338236357208
0.0766311822648991,-0.00327577277331645
0.081891693140507,-0.0047429819126052
0.0871468480060244,-0.00620495252906021
0.0923963854031833,-0.00766162737030369
0.0976400438737143,-0.00911294918395756
0.102877561959349,-0.010558860717644
0.108108678201819,-0.0119993047189848
0.113333131142854,-0.0134342239356024
0.118550659324187,-0.0148635611151185
0.123761001287548,-0.0162872590051554
0.128963895574669,-0.0177052603533349
0.134159080727282,-0.0191175079072793
0.139346295287116,-0.0205239444146104
0.144525277795903,-0.0219245126229505
0.149695766795376,-0.0233191552799214
0.154857500827264,-0.0247078151331454
0.160010218433299,-0.0260904349302443
0.165153658155213,-0.0274669574188404
0.170287558534736,-0.0288373253465555
0.1754116581136,-0.0302014814610118
0.180525695433535,-0.0315593685098313
0.185629409036275,-0.0329109292406361
0.190722537463548,-0.0342561064010481
0.195804819257087,-0.0355948427386896
0.200875992958624,-0.0369270810011824
0.205935797109888,-0.0382527639361487
0.210983970252612,-0.0395718342912104
0.216020250928526,-0.0408842348139898
0.221044377679362,-0.0421899082521086
0.226056089046851,-0.0434887973531892
0.231055123572725,-0.0447808448648534
0.236041219798714,-0.0460659935347234
0.241014116266549,-0.0473441861104212
0.245973551517963,-0.0486153653395688
0.250919264094686,-0.0498794739697883
0.25585099253845,-0.0511364547487017
0.260768475390984,-0.0523862504239311
0.265671451194022,-0.0536288037430985
0.270559658489294,-0.0548640574538259
0.275432835818532,-0.0560919543037356
0.280290721723465,-0.0573124370404493
0.285133054745827,-0.0585254484115893
0.289959573427348,-0.0597309311647775
0.294770016309759,-0.0609288280476361
0.299564121934791,-0.062119081807787
0.304341628844176,-0.0633016351928524
0.309102275579645,-0.0644764309504541
0.313845800682929,-0.0656434118282144
0.31857194269576,-0.0668025205737552
0.323280440159868,-0.0679536999346987
0.327971031616985,-0.0690968926586667
0.332643455608842,-0.0702320414932815
0.33729745067717,-0.071359089186165
0.341932755363701,-0.0724779784849394
0.346549108210166,-0.0735886521372265
0.351146247758295,-0.0746910528906485
0.355723912549821,-0.0757851234928275
0.360281841126474,-0.0768708066913855
0.364819772029986,-0.0779480452339444
0.369337443802088,-0.0790167818681265
0.373834594984511,-0.0800769593415536
0.378310964118986,-0.081128520401848
0.382766289747245,-0.0821714077966315
0.387200310411019,-0.0832055642735264
0.391612764652038,-0.0842309325801546
0.396003391012035,-0.0852474554641381
0.40037192803274,-0.086255075673099
0.404718114255886,-0.0872537359546594
0.409041688223201,-0.0882433790564413
0.41334238847642,-0.0892239477260668
0.417619953557271,-0.0901953847111579
0.421874122007488,-0.0911576327593366
0.426104632368799,-0.092110634618225
0.430311223182939,-0.0930543330354452
0.434493632991636,-0.0939886707586191
0.438651600336623,-0.094913590535369
0.442784863759631,-0.0958290351133166
0.44689316180239,-0.0967349472400843
0.450976233006633,-0.0976312696632939
0.455033815914091,-0.0985179451305676
0.459065649066494,-0.0993949163895273
0.463071471005574,-0.100262126187795
0.467051020273062,-0.101119517272993
0.471004035410689,-0.101967032392744
0.474930254960187,-0.102804614294668
0.478829417463287,-0.103632205726389
0.482701261461719,-0.104449749435528
0.486545525497217,-0.105257188169708
0.490361948111509,-0.10605446467655
0.494150267846329,-0.106841521703677
0.497910223243406,-0.10761830199871
0.501641552844472,-0.108384748309272
0.505343995191259,-0.109140803382984
0.509017288825498,-0.109886409967469
0.512661172288919,-0.110621510810349
0.516275384123254,-0.111346048659246
0.519859662870235,-0.112059966261782
0.523413747071592,-0.112763206365578
0.526937375269057,-0.113455711718257
0.530430286004361,-0.114137425067442
0.533892217819235,-0.114808289160753
0.537322909255411,-0.115468246745814
0.54072209885462,-0.116117240570246
0.544089525158592,-0.11675521338167
0.547424926709059,-0.117382107927711
0.550728042047753,-0.117997866955988
0.553998609716404,-0.118602433214125
0.557236368256745,-0.119195749449743
0.560441056210505,-0.119777758410464
0.563612412119416,-0.120348402843911
0.56675017452521,-0.120907625497706
0.569854081969618,-0.12145536911947
0.572923872994371,-0.121991576456826
0.5759592861412,-0.122516190257395
0.578960059951836,-0.1230291532688
0.581925932968011,-0.123530408238663
0.584856643731456,-0.124019897914605
0.587751930783902,-0.12449756504425
0.59061153266708,-0.124963352375218
0.593435187922722,-0.125417202655133
0.596222635092558,-0.125859058631615
0.598973612718321,-0.126288863052287
0.60168785934174,-0.126706558664772
0.604365113504549,-0.12711208821669
0.607005113748476,-0.127505394455665
0.609607598615255,-0.127886420129318
0.612172306646616,-0.128255107985272
0.614698976384291,-0.128611400771147
0.61718734637001,-0.128955241234567
0.619637155145505,-0.129286572123154
0.622048141252506,-0.129605336184529
0.624420043232747,-0.129911476166314
0.626752599627956,-0.130204934816132
0.629045548979867,-0.130485654881605
0.631298629830209,-0.130753579110354
0.633511580720714,-0.131008650250002
0.635684140193114,-0.131250811048171
0.63781604678914,-0.131480004252483
0.639907039050522,-0.131696172610559
0.641956855518993,-0.131899258870023
0.643965234736283,-0.132089205778495
0.645931915244124,-0.132265956083598
0.647856635584246,-0.132429452532955
0.649739134298381,-0.132579637874186
0.651579149928261,-0.132716454854915
0.653376421015616,-0.132839846222763
0.655130686102177,-0.132949754725352
0.656841683729677,-0.133046123110304
0.658509152439846,-0.133128894125242
0.660132830774415,-0.133198010517787
0.661712457275116,-0.133253415035562
0.66324777048368,-0.133295050426188
0.664738508941837,-0.133322859437287
0.66618441119132,-0.133336784816483
0.66758521577386,-0.133336769311395
0.668940661231187,-0.133322755669648
0.670250486105033,-0.133294686638862
0.67151442893713,-0.13325250496666
0.672732228269208,-0.133196153400664
0.673903622642998,-0.133125574688495
0.673903622642998,-0.133125574688495
0.675036737026255,-0.133043612539217
0.676139892460727,-0.132953206062174
0.677213121599137,-0.132854441105414
0.678256457094207,-0.132747403516984
0.67926993159866,-0.132632179144931
0.680253577765219,-0.132508853837303
0.681207428246607,-0.132377513442148
0.682131515695546,-0.132238243807511
0.683025872764759,-0.132091130781442
0.683890532106969,-0.131936260211986
0.684725526374899,-0.131773717947192
0.685530888221271,-0.131603589835106
0.686306650298809,-0.131425961723777
0.687052845260234,-0.13124091946125
0.68776950575827,-0.131048548895574
0.68845666444564,-0.130848935874796
0.689114353975065,-0.130642166246964
0.68974260699927,-0.130428325860124
0.690341456170976,-0.130207500562323
0.690910934142907,-0.12997977620161
0.691451073567784,-0.129745238626031
0.691961907098332,-0.129503973683634
0.692443467387272,-0.129256067222466
0.692895787087328,-0.129001605090575
0.693318898851222,-0.128740673136007
0.693712835331677,-0.12847335720681
0.694077629181415,-0.128199743151032
0.694413313053161,-0.127919916816719
0.694719919599635,-0.127633964051919
0.694997481473561,-0.127341970704679
0.695246031327662,-0.127044022623047
0.69546560181466,-0.12674020565507
0.695656225587279,-0.126430605648796
0.69581793529824,-0.12611530845227
0.695950763600267,-0.125794399913542
0.696054743146083,-0.125467965880657
0.69612990658841,-0.125136092201665
0.696176286579971,-0.124798864724611
0.696193915773488,-0.124456369297543
0.696182826821685,-0.124108691768508
0.696143052377284,-0.123755917985554
0.696074625093009,-0.123398133796728
0.69597757762158,-0.123035425050078
0.695851942615723,-0.12266787759365
0.695697752728158,-0.122295577275492
0.69551504061161,-0.121918609943652
0.6953038389188,-0.121537061446176
0.695064180302452,-0.121151017631112
0.694796097415288,-0.120760564346507
0.694499622910031,-0.120365787440409
0.694174789439403,-0.119966772760864
0.693821629656129,-0.119563606155921
0.693440176212929,-0.119156373473626
0.693030461762528,-0.118745160562027
0.692592518957647,-0.118330053269171
0.692126380451009,-0.117911137443106
0.691632078895338,-0.117488498931878
0.691109646943356,-0.117062223583535
0.690559117247786,-0.116632397246125
0.68998052246135,-0.116199105767694
0.689373895236772,-0.115762434996291
0.688739268226773,-0.115322470779961
0.688076674084077,-0.114879298966754
0.687386145461407,-0.114433005404715
0.686667715011485,-0.113983675941892
0.685921415387033,-0.113531396426333
0.685147279240776,-0.113076252706085
0.684345339225435,-0.112618330629195
0.683515627993734,-0.11215771604371
0.682658178198394,-0.111694494797678
0.68177302249214,-0.111228752739147
0.680860193527692,-0.110760575716163
0.679919723957776,-0.110290049576773
0.678951646435112,-0.109817260169026
0.677955993612424,-0.109342293340968
0.676932798142434,-0.108865234940646
0.675882092677866,-0.108386170816109
0.674803909871442,-0.107905186815403
0.673698282375884,-0.107422368786576
0.672565242843916,-0.106937802577674
0.671404823928261,-0.106451574036746
0.67021705828164,-0.105963769011838
0.669001978556777,-0.105474473350998
0.667759617406395,-0.104983772902274
0.666490007483216,-0.104491753513712
0.665193181439963,-0.103998501033359
0.663869171929359,-0.103504101309264
0.662518011604127,-0.103008640189473
0.661139733116989,-0.102512203522034
0.659734369120668,-0.102014877154994
0.658301952267886,-0.101516746936401
0.656842515211367,-0.101017898714301
0.655356090603834,-0.100518418336742
0.653842711098009,-0.100018391651771
0.652302409346614,-0.0995179045074365
0.650735218002373,-0.0990170427517845
0.649141169718009,-0.0985158922328628
0.647520297146243,-0.0980145387987186
0.645872632939799,-0.0975130682973993
0.6441982097514,-0.0970115665769522
0.642497060233768,-0.0965101194854247
0.640769217039627,-0.0960088128708639
0.639014712821698,-0.0955077325813173
0.637233580232704,-0.0950069644648321
0.635425851925369,-0.0945065943694557
0.633591560552416,-0.0940067081432354
0.631730738766565,-0.0935073916342184
0.629843419220542,-0.0930087306904522
0.627929634567068,-0.092510811159984
0.625989417458866,-0.092013718890861
0.624022800548659,-0.0915175397311307
0.622029816489169,-0.0910223595288404
0.62001049793312,-0.0905282641320374
0.617964877533234,-0.0900353393887689
0.615892987942234,-0.0895436711470823
0.613794861812842,-0.0890533452550249
0.611670531797782,-0.0885644475606441
0.609520030549776,-0.0880770639119871
0.607343390721547,-0.0875912801571012
0.605140644965817,-0.0871071821440338
0.60291182593531,-0.0866248557208321
0.600656966282748,-0.0861443867355436
0.598376098660854,-0.0856658610362153
0.59606925572235,-0.0851893644708949
0.59373647011996,-0.0847149828876295
0.591377774506405,-0.0842428021344664
0.58899320153441,-0.0837729080594529
0.586582783856697,-0.0833053865106365
0.584146554125988,-0.0828403233360643
0.581684544995006,-0.0823778043837836
0.579196789116473,-0.0819179155018419
0.576683319143114,-0.0814607425382864
0.57414416772765,-0.0810063713411645
0.571579367522804,-0.0805548877585233
0.568988951181299,-0.0801063776384103
0.566372951355857,-0.0796609268288728
0.563731400699202,-0.0792186211779581
0.561064331864056,-0.0787795465337135
0.558371777503142,-0.0783437887441862
0.555653770269183,-0.0779114336574237
0.552910342814901,-0.0774825671214733
0.55014152779302,-0.0770572749843821
0.547347357856261,-0.0766356430941976
0.544527865657348,-0.0762177572989672
0.541683083849003,-0.075803703446738
0.538813045083949,-0.0753935673855573
0.53591778201491,-0.0749874349634726
0.532997327294607,-0.0745853920285312
0.530051713575763,-0.0741875244287803
0.527080973511102,-0.0737939180122672
0.524085139753345,-0.0734046586270392
0.521064244955217,-0.0730198321211438
0.518018321769439,-0.0726395243426282
0.514947402848733,-0.0722638211395396
0.511851520845824,-0.0718928083599255
0.508730708413434,-0.0715265718518331
0.505584998204285,-0.0711651974633098
0.5024144228711,-0.0708087710424028
0.499219015066602,-0.0704573784371594
0.495998807443514,-0.0701111054956271
0.492753832654558,-0.0697700380658531
0.489484123352458,-0.0694342619958846
0.486189712189935,-0.0691038631337691
0.482870631819713,-0.0687789273275538
0.479526914894515,-0.0684595404252861
0.476158594067062,-0.0681457882750132
0.472765701990079,-0.0678377567247825
0.469348271316288,-0.0675355316226414
0.465906334698411,-0.067239198816637
0.462439924789171,-0.0669488441548167
0.458949074241291,-0.0666645534852278
0.455433815707494,-0.0663864126559177
0.451894181840502,-0.0661145075149336
0.448330205293039,-0.0658489239103229
0.444741918717826,-0.0655897476901329
0.441129354767588,-0.0653370647024109
0.437492546095045,-0.0650909607952042
0.433831525352922,-0.0648515218165601
0.430146325193941,-0.0646188336145259
0.426436978270825,-0.064392982037149
0.422703517236296,-0.0641740529324766
0.418945974743077,-0.0639621321485561
0.415164383443892,-0.0637573055334348
0.411358775991462,-0.06355965893516
0.407529185038511,-0.063369278201779
0.403675643237761,-0.0631862491813391
0.399798183241935,-0.0630106577218877
0.395896837703755,-0.062842589671472
0.391971639275946,-0.0626821308781394
0.388022620611228,-0.0625293671899371
0.384049814362325,-0.0623843844549126
0.380053253181961,-0.062247268521113
0.376032969722856,-0.0621181052365858
0.371988996637735,-0.0619969804493782
0.36792136657932,-0.0618839800075375
0.363830112200334,-0.0617791897591111
0.3597152661535,-0.0616826955521463
0.355576861091539,-0.0615945832346903
0.351414929667176,-0.0615149386547906
0.347229504533132,-0.0614438476604943
0.343020618342131,-0.0613813960998489
0.338788303746895,-0.0613276698209016
0.334532593400147,-0.0612827546716997
0.33025351995461,-0.0612467365002906
0.325951116063007,-0.0612197011547216
0.32162541437806,-0.06120173448304
0.317276447552492,-0.0611929223332931
0.312904248239025,-0.0611933505535281
0.308508849090384,-0.0612031049917926
0.304090282759289,-0.0612222714961336
0.299648581898465,-0.0612509359145986
0.295183779160633,-0.0612891840952349
0.290695907198517,-0.0613371018860897
0.286184998664839,-0.0613947751352105
0.281651086212322,-0.0614622896906444
0.27709420249369,-0.0615397314004389
0.272514380161663,-0.0616271861126412
0.267911651868966,-0.0617247396752986
0.263286050268321,-0.0618324779364585
0.258637608012451,-0.0619504867441681
0.253966357754078,-0.0620788519464749
0.249272332145926,-0.0622176593914261
0.244555563840717,-0.0623669949270689
0.239816085491174,-0.0625269444014508
0.235053929750019,-0.062697593662619
0.230269129269976,-0.0628790285586209
0.225461716703766,-0.0630713349375037
0.220631724704114,-0.0632745986473148
0.215779185923741,-0.0634889055361015
0.21090413301537,-0.0637143414519111
0.206006598631724,-0.0639509922427909
0.201086615425527,-0.0641989437567882
0.1961442160495,-0.0644582818419504
0.191179433156366,-0.0647290923463247
0.186192299398848,-0.0650114611179586
0.18118284742967,-0.0653054740048992
0.176151109901552,-0.0656112168551938
0.17109711946722,-0.0659287755168899
0.166020908779394,-0.0662582358380347
0.160922510490798,-0.0665996836666755
0.155801957254154,-0.0669532048508597
0.150659281722187,-0.0673188852386346
0.145494516547617,-0.0676968106780474
0.140307694383168,-0.0680870670171455
0.135098847881562,-0.0684897401039762
0.129868009695524,-0.0689049157865868
0.124615212477774,-0.0693326799130246
0.119340488881036,-0.069773118331337
0.114043871558032,-0.0702263168895712
0.108725393161487,-0.0706923614357746
0.103385086344121,-0.0711713378179945
0.0980229837586577,-0.0716633318842781
0.0926391180578203,-0.0721684294826729
0.0872335218943314,-0.0726867164612261
0.0818062279209136,-0.073218278667985
0.0763572687902897,-0.0737632019509969
0.0708866771551824,-0.0743215721583093
0.0653944856683146,-0.0748934751379692
0.0598807269824088,-0.0754789967380242
0.054345433750188,-0.0760782228065215
0.0487886386243747,-0.0766912391915083
0.0432103742576919,-0.0773181317410321
0.0376106733028622,-0.0779589863031402
0.0319895684126086,-0.0786138887258797
0.0263470922396534,-0.0792829248572982
0.0206832774367198,-0.0799661805454427
0.0149981566565302,-0.0806637416383609
0.00929176255180772,-0.0813756939840997
0.00356412777527468,-0.0821021234307068
-0.00218471502034581,-0.0828431158262292
-0.00795473318233123,-0.0835987570187144
-0.0137458940579586,-0.0843691328562096
-0.0195581649945055,-0.0851543291867622
-0.0253915133392487,-0.0859544318584195
-0.031245906439466,-0.0867695267192288
-0.0371213116424341,-0.0875996996172373
-0.0430176962954308,-0.0884450364004926
-0.0489350277457328,-0.0893056229170417
-0.0548732733406179,-0.090181545014932
-0.0608324004273628,-0.0910728885422109
-0.0668123763532452,-0.0919797393469258
-0.072813168465542,-0.0929021832771238
-0.0788347441115309,-0.0938403061808522
-0.0848770706384885,-0.0947941939061585
-0.0909401153936926,-0.09576393230109
-0.0970238457244202,-0.0967496072136938
-0.103128228977949,-0.0977513044920174
-0.109253232501555,-0.0987691099841081
-0.115398823642517,-0.0998031095380131
-0.121564969748111,-0.10085338900178
-0.127751638165615,-0.101920034223456
-0.133958796242306,-0.103003131051088
-0.140186411325462,-0.104102765332723
-0.146434450762359,-0.10521902291641
-0.152702881900275,-0.106351989650195
-0.158991672086486,-0.107501751382125
-0.165300788668272,-0.108668393960249
-0.171630198992907,-0.109852003232612
-0.17797987040767,-0.111052665047263
-0.184349770259839,-0.112270465252249
-0.19073986589669,-0.113505489695617
-0.1971501246655,-0.114757824225414
-0.203580513913547,-0.116027554689689
-0.210031000988108,-0.117314766936487
-0.21650155323646,-0.118619546813857
-0.222992138005881,-0.119941980169845
-0.229502722643647,-0.121282152852499
-0.236033274497037,-0.122640150709867
-0.242583760913327,-0.124016059589995
-0.249154149239794,-0.125409965340932
-0.255744406823716,-0.126821953810723
-0.26235450101237,-0.128252110847417
-0.268984399153033,-0.129700522299061
-0.275634068592983,-0.131167274013703
-0.282303476679497,-0.132652451839388
-0.288992590759851,-0.134156141624166
-0.295701378181324,-0.135678429216083
-0.302429806291192,-0.137219400463186
-0.309177842436733,-0.138779141213523
-0.315945453965224,-0.140357737315141
-0.322732608223942,-0.141955274616087
-0.329539272560165,-0.143571838964409
-0.33636541432117,-0.145207516208154
-0.343211000854233,-0.14686239219537
-0.350075999506633,-0.148536552774103
-0.356960377625646,-0.150230083792401
-0.36386410255855,-0.151943071098312
-0.370787141652621,-0.153675600539882
-0.377729462255139,-0.155427757965158
-0.384691031713378,-0.15719962922219
-0.391671817374617,-0.158991300159022
-0.398671786586133,-0.160802856623704
-0.405690906695204,-0.162634384464281
-0.412729145049106,-0.164485969528802
-0.419786468995116,-0.166357697665314
-0.426862845880513,-0.168249654721864
-0.433958243052572,-0.170161926546499
-0.441072627858572,-0.172094598987268
-0.44820596764579,-0.174047757892216
-0.455358229761503,-0.176021489109391
-0.462529381552988,-0.178015878486841
-0.469719390367523,-0.180031011872613
-0.476928223552384,-0.182066975114755
-0.484155848454849,-0.184123854061313
-0.491402232422195,-0.186201734560335
-0.4986673428017,-0.188300702459868
-0.50595114694064,-0.190420843607959
-0.513253612186294,-0.192562243852657
-0.520574705885937,-0.194724989042007
-0.527914395386848,-0.196909165024059
-0.535272648036304,-0.199114857646857
-0.542649431181581,-0.201342152758451
-0.550044712169958,-0.203591136206888
-0.557458458348711,-0.205861893840214
-0.564890637065118,-0.208154511506477
-0.572341215666455,-0.210469075053725
-0.579810161500001,-0.212805670330004
-0.587297441913032,-0.215164383183362
-0.594803024252826,-0.217545299461847
-0.60232687586666,-0.219948505013505
-0.609868964101811,-0.222374085686384
-0.617429256305556,-0.224822127328531
-0.625007719825174,-0.227292715787994
-0.632604322007939,-0.22978593691282
-0.640219030201132,-0.232301876551056
-0.647851811752027,-0.234840620550749
-0.655502634007903,-0.237402254759947
-0.663171464316037,-0.239986865026698
-0.670858270023706,-0.242594537199047
-0.678563018478188,-0.245225357125044
-0.686285677026759,-0.247879410652734
-0.694026213016697,-0.250556783630166
-0.70178459379528,-0.253257561905387
-0.709560786709783,-0.255981831326443
-0.717354759107485,-0.258729677741383
-0.725166478335663,-0.261501186998253
-0.732995911741595,-0.264296444945102
-0.740843026672556,-0.267115537429976
-0.748707790475825,-0.269958550300922
-0.756590170498679,-0.272825569405988
-0.764490134088396,-0.275716680593221
-0.772407648592251,-0.278631969710669
-0.780342681357523,-0.281571522606378
-0.788295199731489,-0.284535425128397
-0.796265171061426,-0.287523763124772
-0.804252562694612,-0.290536622443551
-0.812257341978323,-0.293574088932781
-0.820279476259837,-0.296636248440509
-0.828318932886431,-0.299723186814783
-0.836375679205382,-0.30283498990365
-0.844449682563968,-0.305971743555157
-0.852540910309466,-0.309133533617352
-0.860649329789153,-0.312320445938282
-0.868774908350306,-0.315532566365994
-0.876917613340203,-0.318769980748536
-0.885077412106121,-0.322032774933955
-0.893254271995337,-0.325321034770298
-0.901448160355128,-0.328634846105612
-0.909659044532771,-0.331974294787945
