0.428220686570893,0.0606104529794227
0.420883693183321,0.0534369333502193
0.413621638160116,0.04636819308566
0.406434187489109,0.0394037707454882
0.399321007158126,0.0325432048894474
0.392281763154998,0.0257860340772811
0.385316121467552,0.0191317968687326
0.378423748083617,0.0125800318235453
0.371604308991022,0.00613027750146282
0.364857470177595,-0.000217927537771553
0.358182897631164,-0.00646504473441434
0.351580257339559,-0.0126115355287221
0.345049215290607,-0.0186578613609515
0.338589437472139,-0.0246044836713589
0.332200589871981,-0.0304518639002011
0.325882338477962,-0.0362004634877345
0.319634349277912,-0.0418507438742157
0.313456288259659,-0.0474031664999014
0.30734782141103,-0.052858192805048
0.301308614719856,-0.0582162842299121
0.295338334173964,-0.0634779022147503
0.289436645761183,-0.0686435081998192
0.283603215469342,-0.0737135636253753
0.277837709286269,-0.0786885299316752
0.272139793199792,-0.0835688685589755
0.266509133197741,-0.0883550409475327
0.260945395267944,-0.0930475085376034
0.255448245398229,-0.0976467327694441
0.250017349576425,-0.102153175083312
0.244652373790361,-0.106567296919462
0.239352984027864,-0.110889559718152
0.234118846276765,-0.115120424919639
0.228949626524891,-0.119260353964179
0.223844990760071,-0.123309808292028
0.218804604970133,-0.127269249343443
0.213828135142906,-0.131139138558681
0.208915247266219,-0.134919937377998
0.204065607327899,-0.13861210724165
0.199278881315777,-0.142216109589895
0.19455473521768,-0.145732405862989
0.189892835021437,-0.149161457501188
0.185292846714876,-0.15250372594475
0.180754436285826,-0.155759672633929
0.176277269722115,-0.158929759008984
0.171861013011573,-0.162014446510171
0.167505332142028,-0.165014196577746
0.163209893101308,-0.167929470651966
0.158974361877241,-0.170760730173087
0.154798404457658,-0.173508436581366
0.150681686830385,-0.17617305131706
0.146623874983252,-0.178755035820425
0.142624634904086,-0.181254851531717
0.138683632580718,-0.183672959891194
0.134800534000975,-0.186009822339112
0.130975005152686,-0.188265900315727
0.127206712023679,-0.190441655261296
0.123495320601783,-0.192537548616075
0.119840496874827,-0.194554041820322
0.116241906830639,-0.196491596314292
0.112699216457047,-0.198350673538243
0.109212091741881,-0.20013173493243
0.105780198672969,-0.201835241937111
0.102403203238139,-0.203461655992541
0.0990807714252202,-0.205011438538978
0.0958125692220409,-0.206485051016678
0.0925982626164298,-0.207882954865898
0.0894375175962154,-0.209205611526894
0.0863300001492263,-0.210453482439922
0.083275376263291,-0.21162702904524
0.0802733119262382,-0.212726712783104
0.0773234731258964,-0.213752995093771
0.074425525850094,-0.214706337417496
0.07157913608666,-0.215587201194537
0.0687839698234226,-0.21639604786515
0.0660396930482105,-0.217133338869592
0.0633459717488522,-0.217799535648119
0.0607024719131764,-0.218395099640988
0.0581088595290116,-0.218920492288456
0.0555648005841863,-0.219376175030778
0.0530699610665292,-0.219762609308212
0.0506240069638688,-0.220080256561014
0.0482266042640337,-0.220329578229441
0.0458774189548524,-0.220511035753749
0.0435761170241536,-0.220625090574195
0.0413223644597658,-0.220672204131035
0.0391158272495175,-0.220652837864527
0.0369561713812374,-0.220567453214926
0.0348430628427539,-0.220416511622489
0.0327761676218958,-0.220200474527472
0.0307551517064916,-0.219919803370133
0.0287796810843697,-0.219574959590728
0.0268494217433589,-0.219166404629513
0.0249640396712876,-0.218694599926745
0.0231232008559845,-0.218160006922681
0.0213265712852781,-0.217563087057576
0.0195738169469969,-0.216904301771689
0.0178646038289697,-0.216184112505274
0.0161985979190249,-0.215402980698589
0.014575465204991,-0.214561367791891
0.0129948716746967,-0.213659735225435
0.0114564833159705,-0.212698544439479
0.00995996611664113,-0.21167825687428
0.00850498606453701,-0.210599333970092
0.0070912091474867,-0.209462237167174
0.00571830135331889,-0.208267427905782
0.00438592866986201,-0.207015367626172
0.00309375708494471,-0.2057065177686
0.00184145258639555,-0.204341339773325
0.000628681162043135,-0.202920295080601
-0.000544891200284045,-0.201443845130686
-0.00167959851275732,-0.199912451363836
-0.00277577478754821,-0.198326575220308
-0.00383375403682809,-0.196686678140358
-0.00485387027276837,-0.194993221564243
-0.00583645750754055,-0.193246666932219
-0.00678184975331604,-0.191447475684543
-0.00769038102226621,-0.189596109261472
-0.00856238532656252,-0.187693029103262
-0.0093981966783764,-0.18573869665017
-0.0101981490898793,-0.183733573342452
-0.0109625765732426,-0.181678120620365
-0.0116918131406378,-0.179572799924165
-0.0123861928042363,-0.177418072694109
-0.0130460495762095,-0.175214400370454
-0.0136717174687288,-0.172962244393456
-0.0142635304939657,-0.170662066203371
-0.0148218226640916,-0.168314327240457
-0.015346927991278,-0.165919488944969
-0.0158391804876962,-0.163478012757165
-0.0162989141655177,-0.160990360117301
-0.0167264630369139,-0.158456992465633
-0.0171221611140563,-0.155878371242419
-0.0174863424091162,-0.153254957887913
-0.0178193409342651,-0.150587213842375
-0.0181214907016745,-0.147875600546059
-0.0183931257235157,-0.145120579439222
-0.0186345800119602,-0.142322611962121
-0.0188461875791795,-0.139482159555013
-0.0190282824373449,-0.136599683658154
-0.0191811985986278,-0.1336756457118
-0.0193052700751998,-0.130710507156209
-0.0194008308792322,-0.127704729431636
-0.0194682150228964,-0.124658773978338
-0.019507756518364,-0.121573102236573
-0.0195197893778062,-0.118448175646596
-0.0195046476133947,-0.115284455648664
-0.0194626652373006,-0.112082403683033
-0.0193941762616956,-0.108842481189961
-0.0192995146987511,-0.105565149609703
-0.0191790145606383,-0.102250870382517
-0.0190330098595289,-0.0989001049486584
-0.0188618346075942,-0.0955133147483843
-0.0186658228170057,-0.0920909612219513
-0.0184453084999347,-0.0886335058096158
-0.0182006256685527,-0.0851414099516342
-0.0179321083350312,-0.0816151350882634
-0.0176400905115415,-0.07805514265976
-0.0173249062102551,-0.0744618941063804
-0.0169868894433434,-0.070835850868381
-0.0166263742229779,-0.0671774743860187
-0.01624369456133,-0.0634872260995499
-0.015839184470571,-0.0597655674492312
-0.0154131779628725,-0.0560129598753192
-0.0149660090504059,-0.0522298648180703
-0.0144980117453425,-0.0484167437177413
-0.0140095200598539,-0.0445740580145887
-0.0135008680061114,-0.0407022691488689
-0.0129723895962865,-0.0368018385608386
-0.0124244188425506,-0.0328732276907545
-0.0118572897570751,-0.0289168979788729
-0.0112713363520315,-0.0249333108654505
-0.0106668926395912,-0.0209229277907438
-0.0100442926319256,-0.0168862101950097
-0.00940387034120616,-0.0128236195185043
-0.00874595977960427,-0.00873561720148436
-0.00807089495929142,-0.00462266468420641
-0.00737900989243899,-0.000485223406927165
-0.00667063859121843,0.00367624519009685
-0.00594611506780116,0.00786127966660932
-0.00520577333435859,0.0120694185823534
-0.00444994740306218,0.0163002004970726
-0.0036789712860834,0.0205531639705103
-0.00289317899559356,0.0248278475624101
-0.00209290454376414,0.0291237898325153
-0.00127848194276664,0.0334405293405693
-0.000450245204772423,0.0377776046463156
0.000391471658047083,0.0421345543094977
0.00124633463352045,0.046510916889859
0.00211400970947623,0.0509062309471428
0.002994162873743,0.0553200350410926
0.00388646011414934,0.0597518677314519
0.00479056741852383,0.0642012675779641
0.00570615077469499,0.0686677731403726
0.00663287617049144,0.0731509229784209
0.00757040959374175,0.0776502556518523
0.00851841703227449,0.0821653097204105
0.00947656447391822,0.0866956237438385
0.0104445179065015,0.0912407362818801
0.0114219433178529,0.0958001858942787
0.0124085066958011,0.100373511140778
0.0134038740281745,0.10496025058112
0.0144077113028018,0.10955994277505
0.0154196845075114,0.114172126282311
0.0164394596301321,0.118796339662645
0.0174667026584923,0.123432121475797
0.0185010795804207,0.128079010281511
0.0195422563837458,0.132736544639528
0.0205898990562962,0.137404263109593
0.0216436735859003,0.14208170425145
0.022703245960387,0.146768406624841
0.0237682821675846,0.15146390878951
0.0248384481953218,0.156167749305201
0.0259134100314271,0.160879466731657
0.0269928336637291,0.165598599628621
0.0280763850800564,0.170324686555837
0.0291637302682376,0.175057266073048
0.0302545352161011,0.179795876739998
0.0313484659114757,0.184540057116431
0.0324451883421898,0.189289345762088
0.0335443684960721,0.194043281236715
0.034645672360951,0.198801402100054
0.0357487659246553,0.203563246911849
0.0368533151750133,0.208328354231844
0.0379589860998539,0.213096262619781
0.0390654446870054,0.217866510635404
0.0401723569242965,0.222638636838457
0.0412793887995556,0.227412179788683
0.0423862063006115,0.232186678045825
0.0434924754152927,0.236961670169627
0.0445978621314277,0.241736694719833
0.0457020324368452,0.246511290256185
0.0468046523193736,0.251284995338428
0.0479053877668416,0.256057348526304
0.0490039047670778,0.260827888379557
0.0500998693079106,0.265596153457931
0.0511929473771687,0.270361682321169
0.0522828049626806,0.275124013529014
0.0533691080522751,0.279882685641209
0.0544515226337804,0.284637237217499
0.0555297146950254,0.289387206817627
0.0566033502238384,0.294132133001336
0.0576720952080482,0.298871554328369
0.0587356156354832,0.30360500935847
0.0597935774939721,0.308332036651383
0.0608456467713434,0.31305217476685
0.0618914894554257,0.317764962264616
0.0629307715340476,0.322469937704424
0.0639631589950376,0.327166639646016
0.0649883178262243,0.331854606649137
0.0660059140154363,0.33653337727353
0.0670156135505021,0.341202490078939
0.0680170824192503,0.345861483625106
0.0690099866095096,0.350509896471776
0.0699939921091084,0.355147267178691
0.0709687649058753,0.359773134305595
0.0719339709876389,0.364387036412233
0.0728892763422278,0.368988512058345
0.0738343469574706,0.373577099803678
0.0747688488211957,0.378152338207973
0.0756924479212319,0.382713765830975
0.0766048102454076,0.387260921232426
0.0775056017815514,0.391793342972071
0.078394488517492,0.396310569609652
0.0792711364410578,0.400812139704914
0.0801352115400775,0.405297591817598
0.0809863798023796,0.40976646450745
0.0818243072157926,0.414218296334212
0.0826486597681453,0.418652625857628
0.0834591034472661,0.42306899163744
0.0842553042409835,0.427466932233394
0.0850369281371263,0.431845986205232
0.0858036411235229,0.436205692112697
0.0865551091880019,0.440545588515533
0.0872909983183919,0.444865213973483
0.0880109745025214,0.449164107046292
0.0887147037282192,0.453441806293701
0.0894018519833135,0.457697850275455
0.0900720852556332,0.461931777551298
0.0907250695330067,0.466143126680971
0.0913604708032626,0.47033143622422
0.0919779550542296,0.474496244740787
0.092577188273736,0.478637090790416
0.0931578364496106,0.48275351293285
0.0937195655696819,0.486845049727833
0.0942620416217785,0.490911239735108
0.094784930593729,0.494951621514419
0.0952878984733618,0.498965733625508
0.0957706112485057,0.502953114628121
0.096232734906989,0.506913303081998
0.0966739354366405,0.510845837546886
0.0970938788252887,0.514750256582525
0.0974922310607623,0.518626098748662
0.0978686581308896,0.522472902605037
0.0982228260234993,0.526290206711396
0.0985544007264201,0.530077549627481
0.0988630482274804,0.533834469913036
0.0991484345145088,0.537560506127804
0.0994102255753339,0.541255196831529
0.0996480873977843,0.544918080583955
0.0998616859696886,0.548548695944823
0.100050687278875,0.552146581473879
0.100214757313173,0.555711275730866
0.10035356206041,0.559242317275526
0.100466767508415,0.562739244667604
0.100554039645017,0.566201596466842
0.100615044458045,0.569628911232985
0.100649447935326,0.573020727525775
0.10065691606469,0.576376583904956
0.100637114833964,0.579696018930272
0.100589710230978,0.582978571161466
0.10051436824356,0.586223779158281
0.100410754859539,0.589431181480461
0.100278536066744,0.592600316687749
0.100117377853002,0.59573072333989
0.0999269462061421,0.598821939996625
0.0997069071139935,0.601873505217698
0.0994569265643846,0.604884957562854
0.0991766705451437,0.607855835591835
0.0988658050440996,0.610785677864384
0.0985239960490807,0.613674022940247
0.0981509095479157,0.616520409379164
0.097746211528433,0.619324375740881
0.0973095679784614,0.622085460585141
0.0968406448858293,0.624803202471686
0.0963391082383653,0.627477139960261
0.0958046240238981,0.630106811610609
0.0952368582302561,0.632691755982473
0.0946354768452679,0.635231511635597
0.0940001458567622,0.637725617129723
0.0933305312525675,0.640173611024597
0.0926262990205123,0.64257503187996
0.0918871151484252,0.644929418255558
0.0911126456241348,0.647236308711131
0.0903025564354697,0.649495241806426
0.0894565135702585,0.651705756101184
0.0885741830163297,0.653867390155149
0.0876552307615119,0.655979682528065
0.0866993227936335,0.658042171779675
0.0857061251005234,0.660054396469722
0.0846753036700099,0.66201589515795
0.0836065244899217,0.663926206404103
0.0824994535480873,0.665784868767924
0.0813537568323354,0.667591420809155
0.0801691003304944,0.669345401087541
0.078945150030393,0.671046348162826
0.0776815719198597,0.672693800594752
0.0763780319867232,0.674287296943063
0.0750341962188119,0.675826375767502
0.0736497306039544,0.677310575627813
0.0722243011299793,0.678739435083739
0.0707575737847153,0.680112492695024
0.0692492145559908,0.681429287021411
0.0676988894316344,0.682689356622644
0.0661062643994747,0.683892240058466
0.0644710054473403,0.68503747588862
0.0627927785630597,0.68612460267285
0.0610712497344616,0.687153158970899
0.0593060849493743,0.688122683342511
0.0574969501956267,0.689032714347429
0.0556435114610472,0.689882790545396
0.0537454347334644,0.690672450496157
0.0518023860007068,0.691401232759454
0.0498140312506032,0.692068675895031
0.0477800364709819,0.692674318462631
0.0457000676496716,0.693217699021998
0.0435737907745008,0.693698356132875
0.0414008718332982,0.694115828355006
0.0391809768138923,0.694469654248134
0.0369137717041116,0.694759372372002
0.0345989224917848,0.694984521286354
0.0322360951647404,0.695144639550934
0.029824955710807,0.695239265725484
0.0273651701178131,0.695267938369749
0.0248564043735873,0.695230196043471
0.0222983244659584,0.695125577306394
0.0196905963827545,0.694953620718262
0.0170328861118046,0.694713864838817
0.0143248596409371,0.694405848227804
0.0115661829579806,0.694029109444966
0.00875652205076352,0.693583187050046
0.00589554290711473,0.693067619602788
0.00298291151486248,0.692481945662934
1.82938618356505e-05,0.691825703790229
-0.00299864406413747,0.691098432544417
-0.00606823627522807,0.690299670485239
-0.0091908167836078,0.689428956172441
-0.0123667196014479,0.688485828165765
-0.0155962787409199,0.687469825024954
-0.0188798282141951,0.686380485309752
-0.0222177020334452,0.685217347579903
-0.0256102342108414,0.683979950395151
-0.0290577587585552,0.682667832315237
-0.0325606096887579,0.681280531899906
-0.0361191210136213,0.679817587708902
-0.0397336267453163,0.678278538301967
-0.0434044608960148,0.676662922238846
-0.0471319574778879,0.674970278079281
-0.0509164505031073,0.673200144383016
-0.0547582739838441,0.671352059709795
-0.0586577619322701,0.66942556261936
-0.0586577619322701,0.66942556261936
-0.062579389332373,0.667442048666635
-0.066487413222079,0.66542335261709
-0.0703818406944671,0.663369671846288
-0.0742626788426163,0.661281203729793
-0.0781299347596056,0.659158145643169
-0.0819836155385139,0.657000694961979
-0.0858237282724201,0.654809049061786
-0.0896502800544033,0.652583405318156
-0.0934632779775423,0.65032396110665
-0.0972627291349162,0.648030913802833
-0.101048640619604,0.645704460782268
-0.104821019524684,0.643344799420519
-0.108579872943237,0.64095212709315
-0.11232520796834,0.638526641175724
-0.116057031693072,0.636068539043805
-0.119775351210513,0.633578018072956
-0.123480173613742,0.631055275638742
-0.127171505995837,0.628500509116725
-0.130849355449878,0.62591391588247
-0.134513729068943,0.62329569331154
-0.138164633946112,0.620646038779499
-0.141802077174463,0.61796514966191
-0.145426065847075,0.615253223334337
-0.149036607057028,0.612510457172343
-0.1526337078974,0.609737048551493
-0.15621737546127,0.606933194847349
-0.159787616841718,0.604099093435476
-0.163344439131821,0.601234941691437
-0.16688784942466,0.598340936990796
-0.170417854813312,0.595417276709116
-0.173934462390858,0.592464158221962
-0.177437679250376,0.589481778904896
-0.180927512484944,0.586470336133482
-0.184403969187643,0.583430027283284
-0.18786705645155,0.580361049729866
-0.191316781369746,0.577263600848791
-0.194753151035308,0.574137878015623
-0.198176172541315,0.570984078605925
-0.201585852980848,0.567802399995261
-0.204982199446984,0.564593039559196
-0.208365219032803,0.561356194673291
-0.211734918831383,0.558092062713112
-0.215091305935804,0.554800841054221
-0.218434387439145,0.551482727072182
-0.221764170434484,0.54813791814256
-0.2250806620149,0.544766611640916
-0.228383869273473,0.541369004942816
-0.231673799303281,0.537945295423823
-0.234950459197403,0.534495680459501
-0.238213856048919,0.531020357425412
-0.241463996950907,0.527519523697121
-0.244700888996446,0.523993376650192
-0.247924539278616,0.520442113660187
-0.251134954890494,0.516865932102671
-0.254332142925161,0.513265029353207
-0.257516110475694,0.50963960278736
-0.260686864635174,0.505989849780691
-0.263844412496679,0.502315967708766
-0.266988761153287,0.498618153947148
-0.270119917698078,0.4948966058714
-0.273237889224132,0.491151520857086
-0.276342682824526,0.487383096279769
-0.27943430559234,0.483591529515014
-0.282512764620652,0.479777017938385
-0.285578067002543,0.475939758925443
-0.288630219831089,0.472079949851754
-0.291669230199372,0.468197788092881
-0.294695105200469,0.464293471024387
-0.29770785192746,0.460367196021836
-0.300707477473423,0.456419160460793
-0.303693988931437,0.452449561716819
-0.306667393394582,0.448458597165479
-0.309627697955937,0.444446464182338
-0.312574909708579,0.440413360142957
-0.31550903574559,0.436359482422901
-0.318430083160046,0.432285028397735
-0.321338059045027,0.42819019544302
-0.324232970493613,0.424075180934321
-0.327114824598882,0.419940182247201
-0.329983628453913,0.415785396757225
-0.332839389151785,0.411611021839955
-0.335682113785577,0.407417254870956
-0.338511809448368,0.40320429322579
-0.341328483233237,0.398972334280023
-0.344132142233263,0.394721575409216
-0.346922793541525,0.390452213988935
-0.349700444251101,0.386164447394742
-0.352465101455072,0.381858473002201
-0.355216772246515,0.377534488186876
-0.35795546371851,0.37319269032433
-0.360681182964135,0.368833276790128
-0.36339393707647,0.364456444959832
-0.366093733148594,0.360062392209007
-0.368780578273585,0.355651315913215
-0.371454479544523,0.351223413448021
-0.374115444054486,0.346778882188989
-0.376763478896554,0.342317919511681
-0.379398591163805,0.337840722791662
-0.382020787949319,0.333347489404495
-0.384630076346174,0.328838416725744
-0.387226463447449,0.324313702130972
-0.389809956346223,0.319773542995743
-0.392380562135575,0.315218136695621
-0.394938287908585,0.310647680606169
-0.397483140758331,0.306062372102952
-0.400015127777892,0.301462408561531
-0.402534256060347,0.296847987357472
-0.405040532698775,0.292219305866338
-0.407533964786255,0.287576561463693
-0.410014559415866,0.282919951525099
-0.412482323680686,0.278249673426121
-0.414937264673796,0.273565924542323
-0.417379389488274,0.268868902249268
-0.419808705217198,0.264158803922519
-0.422225218953648,0.25943582693764
-0.424628937790702,0.254700168670196
-0.427019868821441,0.249952026495749
-0.429398019138941,0.245191597789863
-0.431763395836284,0.240419079928102
-0.434116006006547,0.23563467028603
-0.436455856742809,0.23083856623921
-0.43878295513815,0.226030965163205
-0.441097308285649,0.22121206443358
-0.443398923278383,0.216382061425898
-0.445687807209434,0.211541153515722
-0.447963967171878,0.206689538078617
-0.450227410258795,0.201827412490145
-0.452478143563265,0.196954974125872
-0.454716174178367,0.192072420361359
-0.456941509197178,0.187179948572171
-0.459154155712778,0.182277756133872
-0.461354120818246,0.177366040422024
-0.463541411606662,0.172444998812193
-0.465716035171103,0.16751482867994
-0.467877998604649,0.162575727400831
-0.47002730900038,0.157627892350428
-0.472163973451373,0.152671520904296
-0.474287999050708,0.147706810437997
-0.476399392891463,0.142733958327096
-0.478498162066719,0.137753161947156
-0.480584313669553,0.132764618673741
-0.482657854793045,0.127768525882414
-0.484718792530274,0.12276508094874
-0.486767133974318,0.117754481248281
-0.488802886218256,0.112736924156601
-0.490826056355169,0.107712607049264
-0.492836651478133,0.102681727301834
-0.494834678680229,0.0976444822898743
-0.496820145054536,0.0926010693889483
-0.498793057694132,0.0875516859746196
-0.500753423692096,0.0824965294224521
-0.502701250141507,0.0774357971080095
-0.504636544135445,0.0723696864068552
-0.506559312766988,0.0672983946945529
-0.508469563129215,0.0622221193466662
-0.510367302315205,0.057141057738759
-0.512252537418038,0.0520554072463947
-0.514125275530791,0.0469653652451368
-0.515985523746544,0.041871129110549
-0.517833289158377,0.0367728962181953
-0.519668578859367,0.031670863943639
-0.521491399942594,0.0265652296624437
-0.523301759501137,0.0214561907501732
-0.525099664628075,0.0163439445823911
-0.526885122416486,0.011228688534661
-0.52865813995945,0.00611061998254644
-0.530418724350046,0.000989936301611205
-0.532166882681353,-0.00413316513258111
-0.533902622046449,-0.00925848694446688
-0.535625949538414,-0.0143858317584825
-0.537336872250326,-0.0195150021990644
-0.539035397275265,-0.0246458008906488
-0.54072153170631,-0.029778030457672
-0.542395282636538,-0.0349114935245707
-0.54405665715903,-0.040045992715781
-0.545705662366865,-0.0451813306557392
-0.547342305353121,-0.0503173099688818
-0.548966593210877,-0.0554537332796452
-0.550578533033212,-0.0605904032124658
-0.552178131913205,-0.0657271223917798
-0.553765396943936,-0.0708636934420237
-0.555340335218483,-0.0759999189876338
-0.556902953829924,-0.0811356016530465
-0.55845325987134,-0.0862705440626982
-0.559991260435809,-0.0914045488410251
-0.56151696261641,-0.0965374186124637
-0.563030373506221,-0.10166895600145
-0.564531500198323,-0.106798963632422
-0.566020349785793,-0.111927244129813
-0.567496929361711,-0.117053600118062
-0.568961246019156,-0.122177834221605
-0.570413306851207,-0.127299749064877
-0.571853118950942,-0.132419147272316
-0.573280689411441,-0.137535831468357
-0.574696025325782,-0.142649604277438
-0.576099133787045,-0.147760268323993
-0.577490021888309,-0.15286762623246
-0.578868696722652,-0.157971480627276
-0.580235165383153,-0.163071634132876
-0.581589434962892,-0.168167889373696
-0.582931512554947,-0.173260048974174
-0.584261405252398,-0.178347915558745
-0.585579120148323,-0.183431291751847
-0.586884664335801,-0.188509980177914
-0.588178044907911,-0.193583783461384
-0.589459268957732,-0.198652504226693
-0.590728343578344,-0.203715945098278
-0.591985275862825,-0.208773908700574
-0.593230072904253,-0.213826197658019
-0.594462741795709,-0.218872614595047
-0.595683289630271,-0.223912962136097
-0.596891723501017,-0.228947042905604
-0.598088050501028,-0.233974659528004
-0.599272277723381,-0.238995614627734
-0.600444412261156,-0.244009710829231
-0.601604461207432,-0.24901675075693
-0.602752431655288,-0.254016537035268
-0.603888330697802,-0.259008872288682
-0.605012165428054,-0.263993559141608
-0.606123942939123,-0.268970400218481
-0.607223670324087,-0.273939198143739
-0.608311354676026,-0.278899755541818
-0.609387003088018,-0.283851875037154
-0.610450622653143,-0.288795359254184
-0.611502220464479,-0.293730010817344
-0.612541803615105,-0.298655632351069
-0.613569379198101,-0.303572026479798
-0.614584954306545,-0.308478995827966
-0.615588536033517,-0.313376343020009
-0.616580131472094,-0.318263870680364
-0.617559747715357,-0.323141381433467
-0.618527391856384,-0.328008677903754
-0.619483070988254,-0.332865562715663
-0.620426792204046,-0.337711838493629
-0.621358562596839,-0.342547307862088
-0.622278389259712,-0.347371773445477
-0.623186279285744,-0.352185037868233
-0.624082239768014,-0.356986903754791
-0.624966277799601,-0.361777173729589
-0.625838400473584,-0.366555650417061
-0.626698614883041,-0.371322136441646
-0.627546928121053,-0.376076434427779
-0.628383347280697,-0.380818346999896
-0.629207879455052,-0.385547676782434
-0.630020531737198,-0.39026422639983
-0.630821311220214,-0.394967798476519
-0.631610224997179,-0.399658195636938
-0.632387280161171,-0.404335220505524
-0.633152483805269,-0.408998675706712
-0.633905843022553,-0.41364836386494
-0.634647364906101,-0.418284087604642
-0.635377056548993,-0.422905649550257
-0.636094925044307,-0.42751285232622
-0.636800977485122,-0.432105498556967
-0.637495220964517,-0.436683390866936
-0.638177662575572,-0.441246331880561
-0.638848309411365,-0.445794124222281
-0.639507168564975,-0.45032657051653
-0.640154247129481,-0.454843473387746
-0.640789552197962,-0.459344635460364
-0.641413090863497,-0.463829859358822
-0.642024870219165,-0.468298947707555
-0.642624897358045,-0.472751703131
-0.643213179373216,-0.477187928253593
-0.643789723357757,-0.481607425699771
-0.644354536404746,-0.48600999809397
-0.644907625607263,-0.490395448060626
-0.645448998058387,-0.494763578224175
-0.645978660851197,-0.499114191209055
-0.646496621078771,-0.503447089639701
-0.647002885834189,-0.50776207614055
-0.64749746221053,-0.512058953336038
-0.647980357300872,-0.516337523850602
-0.648451578198295,-0.520597590308677
-0.648911131995877,-0.524838955334701
-0.649359025786697,-0.52906142155311
-0.649795266663835,-0.533264791588339
-0.650219861720369,-0.537448868064826
-0.650632818049379,-0.541613453607006
-0.651034142743943,-0.545758350839317
-0.65142384289714,-0.549883362386194
-0.651801925602049,-0.553988290872073
-0.652168397951749,-0.558072938921392
-0.65252326703932,-0.562137109158587
-0.652866539957839,-0.566180604208093
-0.653198223800387,-0.570203226694348
-0.653518325660041,-0.574204779241787
-0.653826852629882,-0.578185064474847
-0.654123811802987,-0.582143885017965
-0.654409210272436,-0.586081043495576
-0.654683055131308,-0.589996342532118
-0.654945353472682,-0.593889584752026
-0.655196112389637,-0.597760572779736
-0.655435338975251,-0.601609109239686
-0.655663040322604,-0.605434996756312
-0.655879223524775,-0.609238037954049
-0.656083895674842,-0.613018035457335
-0.656277063865885,-0.616774791890605
-0.656458735190982,-0.620508109878297
-0.656628916743213,-0.624217792044846
-0.656787615615656,-0.627903641014688
-0.656934838901391,-0.631565459412261
-0.657070593693496,-0.635203049862
-0.65719488708505,-0.638816214988342
-0.657307726169132,-0.642404757415724
-0.657409118038822,-0.64596847976858
-0.657499069787198,-0.649507184671349
-0.657577588507339,-0.653020674748466
-0.657644681292325,-0.656508752624368
-0.657700355235233,-0.659971220923491
-0.657744617429144,-0.663407882270272
-0.657777474967135,-0.666818539289146
-0.657798934942286,-0.67020299460455
-0.657809004447677,-0.673561050840921
-0.657807690576385,-0.676892510622694
-0.65779500042149,-0.680197176574307
-0.657770941076071,-0.683474851320196
-0.657735519633207,-0.686725337484796
-0.657688743185976,-0.689948437692545
-0.657630618827458,-0.693143954567879
-0.657561153650732,-0.696311690735233
-0.657480354748876,-0.699451448819045
-0.657388229214971,-0.702563031443751
-0.657284784142093,-0.705646241233787
-0.657170026623323,-0.70870088081359
-0.65704396375174,-0.711726752807595
-0.656906602620421,-0.71472365984024
-0.656757950322448,-0.71769140453596
-0.656598013950897,-0.720629789519193
-0.656426800598849,-0.723538617414374
-0.656244317359382,-0.726417690845939
-0.656050571325576,-0.729266812438326
-0.655845569590508,-0.73208578481597
-0.655629319247259,-0.734874410603308
-0.655401827388907,-0.737632492424776
-0.655163101108531,-0.740359832904811
-0.654913147499209,-0.743056234667848
-0.654651973654022,-0.745721500338325
-0.654379586666048,-0.748355432540678
-0.654095993628366,-0.750957833899342
-0.653801201634055,-0.753528507038755
-0.653495217776193,-0.756067254583353
-0.65317804914786,-0.758573879157572
-0.652849702842135,-0.761048183385848
-0.652510185952097,-0.763489969892619
-0.652159505570824,-0.765899041302319
-0.651797668791396,-0.768275200239386
-0.651424682706892,-0.770618249328256
-0.65104055441039,-0.772927991193365
-0.65064529099497,-0.77520422845915
-0.65023889955371,-0.777446763750048
-0.64982138717969,-0.779655399690493
-0.649392760965988,-0.781829938904923
-0.648953028005683,-0.783970184017775
-0.648502195391855,-0.786075937653484
-0.648040270217582,-0.788147002436486
-0.647567259575943,-0.79018318099122
-0.647083170560017,-0.792184275942119
-0.646588010262884,-0.794150089913622
-0.646081785777622,-0.796080425530164
-0.645564504197309,-0.797975085416182
-0.645036172615026,-0.799833872196111
-0.644496798123851,-0.80165658849439
-0.643946387816863,-0.803443036935453
-0.643384948787141,-0.805193020143737
-0.642812488127763,-0.806906340743679
-0.64222901293181,-0.808582801359715
-0.641634530292359,-0.81022220461628
-0.64102904730249,-0.811824353137813
-0.640412571055282,-0.813389049548749
-0.639785108643813,-0.814916096473524
-0.639146667161164,-0.816405296536574
-0.638497253700411,-0.817856452362337
-0.637836875354636,-0.819269366575249
-0.637165539216916,-0.820643841799744
-0.63648325238033,-0.821979680660262
-0.635790021937958,-0.823276685781237
-0.635085854982878,-0.824534659787106
-0.63437075860817,-0.825753405302305
-0.633644739906912,-0.826932724951271
-0.632907805972183,-0.82807242135844
-0.632159963897063,-0.829172297148248
-0.631401220774629,-0.830232154945132
-0.630631583697962,-0.831251797373528
-0.629851059760141,-0.832231027057872
-0.629059656054243,-0.833169646622602
-0.628257379673348,-0.834067458692153
-0.627444237710535,-0.834924265890961
-0.626620237258883,-0.835739870843463
-0.625785385411472,-0.836514076174096
-0.624939689261379,-0.837246684507295
-0.624083155901684,-0.837937498467497
-0.623215792425466,-0.838586320679139
-0.622337605925803,-0.839192953766656
-0.621448603495776,-0.839757200354486
-0.620548792228462,-0.840278863067064
-0.619638179216941,-0.840757744528827
-0.618716771554291,-0.841193647364211
-0.617784576333592,-0.841586374197653
-0.617784576333592,-0.841586374197653
-0.616826325751804,-0.841923490235924
-0.615826952505928,-0.842192928017612
-0.614786764439108,-0.842395041164876
-0.613706069394487,-0.842530183299878
-0.612585175215208,-0.842598708044777
-0.611424389744412,-0.842600969021734
-0.610224020825242,-0.842537319852909
-0.608984376300843,-0.842408114160463
-0.607705764014355,-0.842213705566557
-0.606388491808923,-0.841954447693349
-0.605032867527688,-0.841630694163002
-0.603639199013794,-0.841242798597675
-0.602207794110383,-0.840791114619528
-0.600738960660598,-0.840275995850723
-0.599233006507581,-0.839697795913419
-0.597690239494476,-0.839056868429776
-0.596110967464425,-0.838353567021957
-0.594495498260571,-0.837588245312119
-0.592844139726057,-0.836761256922424
-0.591157199704025,-0.835872955475033
-0.589434986037618,-0.834923694592106
-0.587677806569979,-0.833913827895802
-0.585885969144251,-0.832843709008282
-0.584059781603576,-0.831713691551708
-0.582199551791098,-0.830524129148239
-0.580305587549958,-0.829275375420036
-0.578378196723299,-0.827967783989258
-0.576417687154265,-0.826601708478067
-0.574424366685999,-0.825177502508623
-0.572398543161641,-0.823695519703086
-0.570340524424337,-0.822156113683616
-0.568250618317228,-0.820559638072374
-0.566129132683457,-0.818906446491521
-0.563976375366167,-0.817196892563215
-0.5617926542085,-0.815431329909619
-0.5595782770536,-0.813610112152893
-0.557333551744608,-0.811733592915196
-0.555058786124668,-0.80980212581869
-0.552754288036923,-0.807816064485533
-0.550420365324516,-0.805775762537888
-0.548057325830588,-0.803681573597915
-0.545665477398283,-0.801533851287772
-0.543245127870743,-0.799332949229622
-0.540796585091112,-0.797079221045625
-0.538320156902531,-0.79477302035794
-0.535816151148145,-0.792414700788728
-0.533284875671095,-0.79000461596015
-0.530726638314524,-0.787543119494366
-0.528141746921575,-0.785030565013537
-0.52553050933539,-0.782467306139822
-0.522893233399113,-0.779853696495382
-0.520230226955887,-0.777190089702377
-0.517541797848853,-0.774476839382969
-0.514828253921155,-0.771714299159317
-0.512089903015935,-0.768902822653581
-0.509327052976337,-0.766042763487923
-0.506540011645502,-0.763134475284502
-0.503729086866574,-0.760178311665478
-0.500894586482696,-0.757174626253013
-0.498036818337009,-0.754123772669266
-0.495156090272658,-0.751026104536399
-0.492252710132784,-0.747881975476571
-0.48932698576053,-0.744691739111942
-0.486379224999039,-0.741455749064673
-0.483409735691455,-0.738174358956925
-0.480418825680919,-0.734847922410858
-0.477406802810574,-0.731476793048631
-0.474373974923563,-0.728061324492407
-0.471320649863029,-0.724601870364344
-0.468247135472115,-0.721098784286604
-0.465153739593963,-0.717552419881346
-0.462040770071716,-0.713963130770732
-0.458908534748517,-0.710331270576921
-0.455757341467508,-0.706657192922074
-0.452587498071833,-0.702941251428351
-0.449399312404634,-0.699183799717913
-0.446193092309053,-0.69538519141292
-0.442969145628234,-0.691545780135532
-0.439727780205319,-0.68766591950791
-0.436469303883451,-0.683745963152215
-0.433194024505773,-0.679786264690606
-0.429902249915428,-0.675787177745243
-0.426594287955557,-0.671749055938288
-0.423270446469305,-0.667672252891901
-0.419931033299813,-0.663557122228242
-0.416576356290225,-0.659404017569471
-0.413206723283683,-0.655213292537749
-0.40982244212333,-0.650985300755236
-0.406423820652308,-0.646720395844093
-0.403011166713761,-0.64241893142648
-0.399584788150831,-0.638081261124557
-0.396144992806661,-0.633707738560485
-0.392692088524394,-0.629298717356424
-0.389226383147172,-0.624854551134534
-0.385748184518138,-0.620375593516976
-0.382257800480436,-0.615862198125911
-0.378755538877206,-0.611314718583498
-0.375241707551593,-0.606733508511899
-0.37171661434674,-0.602118921533272
-0.368180567105788,-0.59747131126978
-0.364633873671881,-0.592791031343581
-0.361076841888161,-0.588078435376837
-0.357509779597771,-0.583333876991708
-0.353932994643854,-0.578557709810355
-0.350346794869552,-0.573750287454937
-0.346751488118009,-0.568911963547615
-0.343147382232367,-0.564043091710549
-0.339534785055769,-0.559144025565901
-0.335914004431357,-0.55421511873583
-0.332285348202274,-0.549256724842496
-0.328649124211664,-0.54426919750806
-0.325005640302668,-0.539252890354682
-0.32135520431843,-0.534208157004524
-0.317698124102092,-0.529135351079744
-0.314034707496797,-0.524034826202504
-0.310365262345688,-0.518906935994963
-0.306690096491908,-0.513752034079283
-0.303009517778598,-0.508570474077624
-0.299323834048903,-0.503362609612145
-0.295633353145964,-0.498128794305008
-0.291938382912925,-0.492869381778373
-0.288239231192928,-0.4875847256544
-0.284536205829116,-0.482275179555249
-0.280829614664631,-0.476941097103082
-0.277119765542617,-0.471582831920058
-0.273406966306216,-0.466200737628337
-0.269691524798572,-0.46079516785008
-0.265973748862825,-0.455366476207448
-0.262253946342121,-0.449915016322601
-0.2585324250796,-0.444441141817699
-0.254809492918406,-0.438945206314902
-0.251085457701682,-0.433427563436372
-0.24736062727257,-0.427888566804268
-0.243635309474214,-0.42232857004075
-0.239909812149755,-0.41674792676798
-0.236184443142337,-0.411146990608117
-0.232459510295102,-0.405526115183322
-0.228735321451193,-0.399885654115755
-0.225012184453754,-0.394225961027577
-0.221290407145925,-0.388547389540948
-0.217570297370852,-0.382850293278028
-0.213852162971675,-0.377135025860978
-0.210136311791538,-0.371401940911958
-0.206423051673583,-0.365651392053129
-0.202712690460954,-0.359883732906651
-0.199005535996793,-0.354099317094684
-0.195301896124242,-0.348298498239389
-0.191602078686446,-0.342481629962926
-0.187906391526545,-0.336649065887455
-0.184215142487684,-0.330801159635137
-0.180528639413004,-0.324938264828132
-0.176847190145648,-0.319060735088601
-0.173171102528761,-0.313168924038703
-0.169500684405482,-0.3072631853006
-0.165836243618957,-0.301343872496452
-0.162178088012327,-0.295411339248419
-0.158526525428736,-0.289465939178662
-0.154881863711325,-0.28350802590934
-0.151244410703238,-0.277537953062614
-0.147614474247618,-0.271556074260645
-0.143992362187606,-0.265562743125594
-0.140378382366347,-0.259558313279619
-0.136772842626982,-0.253543138344883
-0.133176050812655,-0.247517571943544
-0.129588314766508,-0.241481967697764
-0.126009942331684,-0.235436679229703
-0.122441241351325,-0.229382060161521
-0.118882519668575,-0.223318464115379
-0.115334085126576,-0.217246244713437
-0.111796245568471,-0.211165755577856
-0.108269308837402,-0.205077350330795
-0.104753582776513,-0.198981382594415
-0.101249375228946,-0.192878205990877
-0.0977569940378437,-0.186768174142341
-0.094276747046349,-0.180651640670968
-0.0908089420976048,-0.174528959198917
-0.0873538870347537,-0.168400483348349
-0.0839118897009382,-0.162266566741425
-0.0804832579393014,-0.156127563000304
-0.077068299592986,-0.149983825747148
-0.0736673225051346,-0.143835708604116
-0.0702806345188899,-0.13768356519337
-0.0669085434773948,-0.131527749137068
-0.063551357223792,-0.125368614057373
-0.0602093836012243,-0.119206513576444
-0.0568829304528342,-0.113041801316441
-0.0535723056217647,-0.106874830899525
-0.0502778169511585,-0.100705955947857
-0.0469997722841583,-0.0945355300835958
-0.0437384794639068,-0.0883639069289029
-0.0404942463335468,-0.0821914401059385
-0.037267380736221,-0.076018483236863
-0.0340581905150722,-0.0698453899438368
-0.0308669835132431,-0.0636725138490199
-0.0276940675738764,-0.057500208574573
-0.024539750540115,-0.0513288277426566
-0.0214043402551017,-0.045158724975431
-0.0182881445619788,-0.0389902538950563
-0.0151914713038894,-0.0328237681236931
-0.0121146283239762,-0.0266596212835019
-0.00905792346538191,-0.0204981669966427
-0.00602166457124934,-0.0143397588852764
-0.00300615948472108,-0.00818475057156293
-1.17160489401524e-05,-0.00203349567766301
0.00296135789295111,0.00411365217426332
0.00591275449780958,0.0102563393620553
0.00884216592249276,0.0163942122635529
0.0117492843238577,0.0225269172565955
0.014633801858762,0.028654100719023
0.0174954106840624,0.0347754090286745
0.0203338029566168,0.0408904885633902
0.0231486708332818,0.0469989857010093
0.0259397064709151,0.0531005468193718
0.0287066020263738,0.0591948182963168
0.0314490496565152,0.0652814465096845
0.0341667415181965,0.071360077837314
0.036859369768275,0.0774303586570454
0.0395266265636079,0.0834919353467178
0.0421682040610526,0.0895444542841714
0.0447837944174662,0.0955875618472453
0.047373089789706,0.10162090441378
0.0499357823346293,0.107644128361613
0.0524715642090934,0.113656880068587
0.0549801275699553,0.119658805912539
0.0574611645740726,0.12564955227131
0.0599143673783024,0.131628765522739
0.062339428139502,0.137596092044666
0.0647360390145285,0.14355117821493
0.0671038921602393,0.149493670411372
0.0694426797334916,0.15542321501183
0.0717520938911428,0.161339458394144
0.0740318267900499,0.167242046936155
0.0762815705870704,0.173130627015701
0.0785010174390614,0.179004845010622
0.0806898595028803,0.184864347298758
0.0828477889353842,0.190708780257948
0.0849744978934305,0.196537790266033
0.0870696785338762,0.202351023700851
0.0891330230135789,0.208148126940242
0.0911642234893957,0.213928746362047
0.0931629721181838,0.219692528344104
0.0951289610568005,0.225439119264252
0.0970618824621031,0.231168165500333
0.0989614284909488,0.236879313430185
0.100827291300195,0.242572209431648
0.102659163046699,0.248246499882562
0.104456735887317,0.253901831160766
0.106219701978908,0.2595378496441
0.107947753478328,0.265154201710403
0.109640582542435,0.270750533737515
0.111297881328086,0.276326492103277
0.112919341992138,0.281881723185526
0.114504656691448,0.287415873362103
0.116053517582874,0.292928589010848
0.117565616823273,0.2984195165096
0.119040646569503,0.303888302236199
0.120478298978419,0.309334592568485
0.121878266206881,0.314758033884296
0.123240240411744,0.320158272561473
0.124563913749867,0.325534954977855
0.125848978378106,0.330887727511283
0.127095126453319,0.336216236539594
0.128302050132363,0.34152012844063
0.129469441572095,0.34679904959223
0.130596992929372,0.352052646372233
0.131684396361053,0.357280565158479
0.132731344023993,0.362482452328807
0.133737528075051,0.367657954261058
0.134702640671083,0.372806717333071
0.135626373968947,0.377928387922685
0.136508420125501,0.38302261240774
0.1373484712976,0.388089037166076
0.138146219642103,0.393127308575533
0.138901357315867,0.398137073013949
0.139613576475749,0.403117976859165
0.140282569278606,0.40806966648902
0.140908027881296,0.412991788281354
0.141489644440676,0.417883988614006
0.142027111113603,0.422745913864816
0.142520120056934,0.427577210411624
0.142968363427527,0.432377524632269
0.143371533382238,0.437146502904591
0.143729322077926,0.44188379160643
0.144041421671448,0.446589037115625
0.14430752431966,0.451261885810015
0.144527322179419,0.455901984067441
0.144700507407584,0.460508978265742
0.144826772161012,0.465082514782758
0.144905808596559,0.469622239996328
0.144937308871083,0.474127800284291
0.144920965141441,0.478598842024489
0.144856469564491,0.483035011594759
0.144743514297089,0.487435955372942
0.144581791496094,0.491801319736877
0.144370993318361,0.496130751064404
0.144110811920749,0.500423895733363
0.143800939460115,0.504680400121593
0.143441068093316,0.508899910606934
0.143030889977209,0.513082073567225
0.142570097268652,0.517226535380306
0.142058382124501,0.521332942424017
0.141495436701614,0.525400941076197
0.140880953156849,0.529430177714686
0.140214623647062,0.533420298717324
0.139496140329111,0.53737095046195
0.138725195359853,0.541281779326403
0.137901480896145,0.545152431688524
0.137024689094845,0.548982553926152
0.13609451211281,0.552771792417127
0.135110642106896,0.556519793539287
0.134072771233962,0.560226203670474
0.132980591650865,0.563890669188526
0.131833795514462,0.567512836471283
0.130632074981609,0.571092351896585
0.129375122209165,0.574628861842272
0.128062629353987,0.578122012686182
0.126694288572931,0.581571450806156
0.125269792022856,0.584976822580032
0.123788831860618,0.588337774385652
0.122251100243074,0.591653952600854
0.120656289327083,0.594925003603479
0.1190040912695,0.598150573771365
0.117294198227184,0.601330309482352
0.115526302356992,0.60446385711428
0.113700095815781,0.607550863044989
0.111815270760408,0.610590973652317
0.10987151934773,0.613583835314106
0.107868533734605,0.616529094408194
0.10580600607789,0.619426397312421
0.103683628534442,0.622275390404626
0.101501093261119,0.62507572006265
0.0992580924147769,0.627827032664332
0.0969543181522741,0.630528974587511
0.0945894626304677,0.633181192210027
0.0921632180062147,0.63578333190972
0.0896752764363726,0.638335040064429
0.0871253300777983,0.640835963051995
0.0845130710873494,0.643285747250255
0.0818381916218829,0.645684039037051
0.0791003838382563,0.648030484790222
0.0762993398933267,0.650324730887607
0.0734347519439514,0.652566423707047
0.0705063121469876,0.654755209626379
0.0675137126592927,0.656890735023446
0.0644566456377238,0.658972646276085
0.0613348032391383,0.661000589762137
0.0581478776203932,0.66297421185944
0.0548955609383461,0.664893158945836
0.0515775453498539,0.666757077399163
0.0481935230117743,0.668565613597261
0.0447431860809641,0.67031841391797
0.0412262267142809,0.672015124739128
0.0376423370685816,0.673655392438577
0.0339912093007239,0.675238863394155
0.0302725355675647,0.676765183983702
0.0264860080259615,0.678234000585058
0.0226313188327713,0.679644959576063
0.0187081601448517,0.680997707334555
0.0147162241190595,0.682291890238375
0.0106552029122524,0.683527154665362
0.00652478868128738,0.684703146993356
0.00232467358302193,0.685819513600196
-0.00194545022568702,0.686875900863722
-0.00628589058798186,0.687871955161775
-0.0106969553470057,0.688807322872192
-0.0151789523459009,0.689681650372814
-0.0197321894278105,0.690494584041481
-0.024356974435877,0.691245770256032
-0.0290536152132435,0.691934855394306
-0.0338224196030523,0.692561485834144
-0.0386636954484465,0.693125307953385
-0.0435777505925686,0.693625968129869
-0.0485648928785615,0.694063112741435
-0.0536254301495678,0.694436388165923
-0.0587596702487306,0.694745440781172
-0.063967921019192,0.694989916965022
-0.0692504903040955,0.695169463095314
-0.0746076859465831,0.695283725549885
-0.0800398157897982,0.695332350706576
-0.0855471876768831,0.695314984943227
-0.0911301094509808,0.695231274637677
-0.0967888889552338,0.695080866167766
-0.102523834032785,0.694863405911334
-0.108335252526777,0.694578540246219
-0.114223452280353,0.694225915550262
-0.120188741136655,0.693805178201303
-0.126231426938827,0.69331597457718
-0.13235181753001,0.692757951055734
-0.138550220753348,0.692130754014804
-0.144826944451983,0.69143402983223
-0.151182296469059,0.690667424885851
-0.157616584647717,0.689830585553507
-0.164130116831101,0.688923158213038
-0.170723200862353,0.687944789242283
-0.177396144584617,0.686895125019081
-0.184149255841034,0.685773811921274
-0.190982842474748,0.684580496326699
-0.1978972123289,0.683314824613198
-0.204892673246636,0.681976443158608
