-0.940961313645282,0.86772254307688
-0.2637325784572,0.758403117553038
0.699423999538134,0.839997197654896
0.151251707137281,0.828095008434701
-0.396920585263572,0.816192819214507
0.403817165139718,0.21716113230303
-0.297012593620024,0.506881182301752
-0.997842352379766,0.796601232300473
0.735834635847708,-0.326432820182655
-0.67365334737637,0.0807688933830653
