0.788496810446837,-0.530365776179397
0.783382043916362,-0.526859315872017
0.778277816614116,-0.523397186149345
0.773184201425577,-0.519979116682955
0.768101271236229,-0.516604837144419
0.76302909893155,-0.513274077205313
0.757967757397023,-0.509986566537209
0.752917319518127,-0.506742034811682
0.747877858180344,-0.503540211700304
0.742849446269155,-0.500380826874651
0.737832156670039,-0.497263610006294
0.732826062268477,-0.494188290766809
0.727831235949952,-0.491154598827768
0.722847750599943,-0.488162263860747
0.717875679103931,-0.485211015537317
0.712915094347396,-0.482300583529054
0.707966069215821,-0.47943069750753
0.703028676594684,-0.47660108714432
0.698102989369468,-0.473811482110996
0.693189080425652,-0.471061612079134
0.688287022648718,-0.468351206720306
0.683396888924147,-0.465679995706087
0.678518752137418,-0.463047708708049
0.673652685174014,-0.460454075397768
0.668798760919414,-0.457898825446815
0.663957052259099,-0.455381688526766
0.659127632078551,-0.452902394309194
0.654310573263249,-0.450460672465672
0.649505948698675,-0.448056252667775
0.64471383127031,-0.445688864587076
0.639934293863634,-0.443358237895148
0.635167409364127,-0.441064102263566
0.630413250657272,-0.438806187363903
0.625671890628548,-0.436584222867733
0.620943402163435,-0.434397938446629
0.616227858147416,-0.432247063772166
0.611525331465971,-0.430131328515917
0.60683589500458,-0.428050462349455
0.602159621648724,-0.426004194944355
0.597496584283884,-0.42399225597219
0.592846855795542,-0.422014375104534
0.588210509069176,-0.420070282012961
0.583587616990269,-0.418159706369044
0.578978252444301,-0.416282377844357
0.574382488316752,-0.414438026110473
0.569800397493105,-0.412626380838967
0.565232052858838,-0.410847171701413
0.560677527299433,-0.409100128369383
0.556136893700371,-0.407384980514452
0.551610224947133,-0.405701457808193
0.547097593925199,-0.40404928992218
0.54259907352005,-0.402428206527987
0.538114736617167,-0.400837937297187
0.533644656102031,-0.399278211901355
0.529188904860121,-0.397748760012063
0.52474755577692,-0.396249311300886
0.520320681737908,-0.394779595439397
0.515908355628566,-0.393339342099171
0.511510650334373,-0.39192828095178
0.507127638740812,-0.390546141668798
0.502759393733363,-0.3891926539218
0.498405988197506,-0.387867547382359
0.494067495018723,-0.386570551722048
0.489743987082494,-0.385301396612442
0.4854355372743,-0.384059811725114
0.481142218479622,-0.382845526731637
0.476864103583939,-0.381658271303586
0.472601265472734,-0.380497775112534
0.468353777031488,-0.379363767830055
0.464121711145679,-0.378255979127722
0.45990514070079,-0.37717413867711
0.455704138582302,-0.376117976149792
0.451518777675694,-0.375087221217342
0.447349130866448,-0.374081603551333
0.443195271040045,-0.37310085282334
0.439057271081964,-0.372144698704935
0.434935203877688,-0.371212870867693
0.430829142312697,-0.370305098983187
0.426739159272471,-0.369421112722991
0.422665327642491,-0.368560641758679
0.418607720308238,-0.367723415761825
0.414566410155193,-0.366909164404002
0.410541470068837,-0.366117617356783
0.40653297293465,-0.365348504291744
0.402540991638113,-0.364601554880456
0.398565599064706,-0.363876498794495
0.394606868099911,-0.363173065705434
0.390664871629209,-0.362490985284845
0.38673968253808,-0.361829987204305
0.382831373712004,-0.361189801135385
0.378940018036463,-0.360570156749659
0.375065688396938,-0.359970783718702
0.371208457678908,-0.359391411714088
0.367368398767856,-0.358831770407388
0.363545584549261,-0.358291589470179
0.359740087908604,-0.357770598574032
0.355951981731366,-0.357268527390523
0.352181338903029,-0.356785105591224
0.348428232309072,-0.35632006284771
0.344692734834976,-0.355873128831553
0.340974919366223,-0.355444033214329
0.337274858788292,-0.355032505667609
0.333592625986665,-0.354638275862969
0.329928293846823,-0.354261073471982
0.326281935254246,-0.353900628166222
0.322653623094415,-0.353556669617262
0.31904343025281,-0.353228927496676
0.315451429614913,-0.352917131476038
0.311877694066204,-0.352621011226921
0.308322296492164,-0.3523402964209
0.304785309778274,-0.352074716729547
0.301266806810014,-0.351824001824438
0.297766860472865,-0.351587881377144
0.294285543652309,-0.351366085059241
0.290822929233825,-0.351158342542301
0.287379090102895,-0.350964383497899
0.283954099144999,-0.350783937597608
0.280548029245618,-0.350616734513002
0.277160953290233,-0.350462503915655
0.273792944164324,-0.35032097547714
0.270444074753373,-0.350191878869031
0.26711441794286,-0.350074943762902
0.263804046618265,-0.349969899830327
0.26051303366507,-0.349876476742878
0.257241451968756,-0.349794404172131
0.253989374414802,-0.349723411789658
0.250756873888691,-0.349663229267034
0.247544023275901,-0.349613586275832
0.244350895461916,-0.349574212487625
0.241177563332214,-0.349544837573989
0.238024099772277,-0.349525191206495
0.234890577667586,-0.349515003056718
0.231777069903621,-0.349514002796232
0.228683649365864,-0.34952192009661
0.225610388939794,-0.349538484629427
0.222557361510893,-0.349563426066255
0.219524639964641,-0.349596474078669
0.21651229718652,-0.349637358338242
0.213520406062009,-0.349685808516548
0.21054903947659,-0.34974155428516
0.207598270315744,-0.349804325315653
0.204668171464951,-0.3498738512796
0.201758815809691,-0.349949861848575
0.198870276235447,-0.350032086694152
0.196002625627698,-0.350120255487903
0.193155936871925,-0.350214097901404
0.190330282853609,-0.350313343606227
0.187525736458231,-0.350417722273947
0.184742370571271,-0.350526963576137
0.18198025807821,-0.35064079718437
0.17923947186453,-0.350758952770222
0.17652008481571,-0.350881160005264
0.173822169817232,-0.351007148561071
0.171145799754576,-0.351136648109217
0.168491047513223,-0.351269388321276
0.165857985978654,-0.35140509886882
0.16324668803635,-0.351543509423425
0.16065722657179,-0.351684349656663
0.158089674470457,-0.351827349240108
0.155544104617831,-0.351972237845334
0.153020589899392,-0.352118745143915
0.150519203200622,-0.352266600807424
0.148040017407,-0.352415534507435
0.145583105404009,-0.352565275915523
0.143148540077128,-0.352715554703259
0.140736394311838,-0.352866100542219
0.138346740993621,-0.353016643103976
0.135979653007956,-0.353166912060104
0.133635203240325,-0.353316637082176
0.131313464576209,-0.353465547841766
0.129014509901087,-0.353613374010448
0.126738412100442,-0.353759845259796
0.124485244059753,-0.353904691261383
0.122255078664502,-0.354047641686782
0.120047988800168,-0.354188426207569
0.117864047352234,-0.354326774495316
0.115703327206179,-0.354462416221597
0.113565901247485,-0.354595081057986
0.111451842361632,-0.354724498676056
0.109361223434101,-0.354850398747382
0.107294117350373,-0.354972510943536
0.105250596995928,-0.355090564936094
0.103230735256247,-0.355204290396628
0.101234605016812,-0.355313416996712
0.0992622791631017,-0.355417674407919
0.0973138305805984,-0.355516792301825
0.0953893321547822,-0.355610500350001
0.093488856771134,-0.355698528224023
0.0916124773151347,-0.355780605595463
0.0897602666722649,-0.355856462135896
0.0879322977280053,-0.355925827516895
0.0861286433678367,-0.355988431410034
0.0843493764772401,-0.356044003486886
0.082594569941696,-0.356092273419025
0.0808642966466851,-0.356132970878026
0.0791586294776883,-0.356165825535461
0.0774776413201863,-0.356190567062905
0.07582140505966,-0.356206925131931
0.0741899935815899,-0.356214629414113
0.072583479771457,-0.356213409581024
0.0710019365147419,-0.356202995304238
0.0694454366969254,-0.35618311625533
0.0679140532034883,-0.356153502105872
0.0664078589199113,-0.356113882527439
0.0649269267316752,-0.356063987191604
0.0634713295242608,-0.35600354576994
0.0620411401831487,-0.355932287934023
0.0606364315938198,-0.355849943355424
0.0592572766417548,-0.355756241705719
0.0579037482124344,-0.35565091265648
0.0565759191913396,-0.355533685879282
0.0552738624639508,-0.355404291045698
0.053997650915749,-0.355262457827301
0.0527473574322149,-0.355107915895667
0.0515230548988293,-0.354940394922368
0.0503248162010728,-0.354759624578977
0.0491527142244264,-0.35456533453707
0.0480068218543706,-0.354357254468218
0.0468872119763863,-0.354135114043997
0.0457939574759543,-0.35389864293598
0.0447271312385553,-0.35364757081574
0.0436868061496699,-0.353381627354852
0.0426730550947792,-0.353100542224889
0.0416859509593636,-0.352804045097424
0.0407255666289041,-0.352491865644032
0.0397919749888814,-0.352163733536286
0.0388852489247762,-0.351819378445761
0.0380054613220693,-0.351458530044028
0.0371526850662415,-0.351080918002663
0.0363269930427734,-0.350686271993239
0.0355284581371459,-0.350274321687329
0.0347571532348398,-0.349844796756508
0.0340131512213357,-0.34939742687235
0.0332965249821144,-0.348931941706427
0.0326073474026568,-0.348448070930314
0.0319456913684434,-0.347945544215584
0.0313116297649553,-0.347424091233811
0.0307052354776729,-0.346883441656568
0.0301265813920772,-0.346323325155431
0.0295757403936488,-0.345743471401971
0.0290527853678686,-0.345143610067764
0.0285577892002173,-0.344523470824381
0.0280908247761756,-0.343882783343399
0.0276519649812243,-0.343221277296389
0.0272412827008442,-0.342538682354926
0.026858850820516,-0.341834728190583
0.0265047422257204,-0.341109144474935
0.0261790298019383,-0.340361660879555
0.0258817864346504,-0.339592007076016
0.0256130850093375,-0.338799912735892
0.0253729984114802,-0.337985107530758
0.0251615995265594,-0.337147321132186
0.0249789612400558,-0.336286283211751
0.0248251564374502,-0.335401723441026
0.0247002580042233,-0.334493371491585
0.0246043388258559,-0.333560957035001
0.0245374717878287,-0.332604209742849
0.0244997297756226,-0.331622859286702
0.0244911856747182,-0.330616635338133
0.0245119123705963,-0.329585267568717
0.0245619827487377,-0.328528485650027
0.0246414696946231,-0.327446019253638
0.0247504460937333,-0.326337598051121
0.0248889848315491,-0.325202951714052
0.0250571587935511,-0.324041809914005
0.0252550408652202,-0.322853902322551
0.0254827039320371,-0.321638958611267
0.0257402208794826,-0.320396708451724
0.0260276645930374,-0.319126881515498
0.0263451079581823,-0.317829207474161
0.0266926238603981,-0.316503415999287
0.0270702851851654,-0.315149236762451
0.0274781648179651,-0.313766399435225
0.027916335644278,-0.312354633689184
0.0283848705495846,-0.310913669195901
0.0288838424193659,-0.30944323562695
0.0294133241391026,-0.307943062653904
0.0299733885942754,-0.306412879948338
0.0305641086703652,-0.304852417181825
0.0311855572528525,-0.303261404025938
0.0318378072272183,-0.301639570152253
0.0325209314789433,-0.299986645232341
0.0332350028935082,-0.298302358937777
0.0339800943563938,-0.296586440940135
0.0347562787530808,-0.294838620910988
0.03556362896905,-0.293058628521911
0.0364022178897821,-0.291246193444476
0.037272118400758,-0.289401045350257
0.0381734033874583,-0.287522913910829
0.0391061457353639,-0.285611528797765
0.0400704183299554,-0.283666619682638
0.0410662940567137,-0.281687916237023
0.0420938458011195,-0.279675148132493
0.0431531464486535,-0.277628045040621
0.0442442688847965,-0.275546336632982
0.0453672859950293,-0.27342975258115
0.0465222706648326,-0.271278022556697
0.0477092957796873,-0.269090876231198
0.0489284342250739,-0.266868043276226
0.0501797588864733,-0.264609253363355
0.0514633426493663,-0.262314236164159
0.0527792583992336,-0.259982721350212
0.0541275790215559,-0.257614438593087
0.0555083774018141,-0.255209117564357
0.0569217264254889,-0.252766487935598
0.058367698978061,-0.250286279378382
0.0598463679450111,-0.247768221564283
0.0613578062118202,-0.245212044164874
0.0629020866639688,-0.24261747685173
0.0644792821869379,-0.239984249296425
0.0660894656662079,-0.237312091170531
0.06773270998726,-0.234600732145623
0.0694090880355746,-0.231849901893274
0.0711186726966326,-0.229059330085059
0.0728615368559147,-0.22622874639255
0.0746377533989019,-0.223357880487322
0.0764473952110746,-0.220446462040948
0.0782905351779138,-0.217494220725001
0.0801672461849001,-0.214500886211057
0.0820776011175144,-0.211466188170688
0.0840216728612373,-0.208389856275468
0.0859995343015498,-0.205271620196971
0.0880112583239323,-0.20211120960677
0.090056917813866,-0.19890835417644
0.0921365856568312,-0.195662783577553
0.094250334738309,-0.192374227481684
0.0963982379437799,-0.189042415560407
0.098580368158725,-0.185667077485295
0.100796798268625,-0.182247942927921
0.10304760115896,-0.17878474155986
0.105332849715211,-0.175277203052686
0.10765261682286,-0.171725057077971
0.110006975367386,-0.16812803330729
0.112395998234271,-0.164485861412216
0.114819758308995,-0.160798271064323
0.117278328477039,-0.157064991935185
0.119771781623884,-0.153285753696376
0.122300190635011,-0.149460286019469
0.1248636283959,-0.145588318576038
0.127462167792032,-0.141669581037657
0.130095881708887,-0.137703803075899
0.132764843031948,-0.133690714362338
0.135469124646693,-0.129630044568548
0.138208799438605,-0.125521523366102
0.140983940293164,-0.121364880426575
0.14379462009585,-0.117159845421539
0.146640911732144,-0.11290614802257
0.149522888087528,-0.108603517901239
0.152440622047482,-0.104251684729122
0.155394186497486,-0.099850378177792
0.158383654323022,-0.0953993279188223
0.16140909840957,-0.0908982636237867
0.16447059164261,-0.0863469149642593
0.167568206907625,-0.0817450116118133
0.170702017090093,-0.0770922832380229
0.173872095075497,-0.0723884595144615
0.177078513749317,-0.0676332701127031
0.180321345997034,-0.062826444704321
0.183600664704128,-0.0579677129608894
0.18691654275608,-0.0530568045539816
0.190269053038372,-0.0480934491551716
0.193658268436483,-0.0430773764360329
0.197084261835894,-0.0380083160681395
0.200547106122087,-0.0328859977230647
0.204046874180542,-0.0277101510723827
0.207583638896739,-0.0224805057876667
0.21115747315616,-0.017196791540491
0.214768449844286,-0.0118587380024287
0.218416641846596,-0.00646607484505404
0.222102122048572,-0.00101853173994027
0.225824963335694,0.00448416164133838
0.229585238593444,0.0100422756272088
0.233383020707302,0.0156560805460966
0.237218382562749,0.0213258467264287
0.241091397045265,0.0270518444966309
0.245002137040332,0.0328343441851298
0.24895067543343,0.0386736161203515
0.252937085110039,0.0445699306307225
0.256961438955641,0.0505235580446686
0.261023809855717,0.0565347686906168
0.265124270695747,0.0626038328969928
0.269262894361211,0.0687310209922233
0.273439753737591,0.074916603304734
0.277654921710368,0.081160850162952
0.281908471165021,0.0874640318953027
0.286200474987033,0.0938264188302132
0.290531006061883,0.100248281296109
0.294900137275053,0.106729889621417
0.299307941512022,0.113271514134564
0.303754491658273,0.119873425163975
0.308239860599285,0.126535893038076
0.31276412122054,0.133259188085295
0.317327346407518,0.140043580634058
0.3219296090457,0.14688934101279
0.326570982020567,0.153796739549918
0.331251538217599,0.160766046573868
0.335971350522277,0.167797532413067
0.340730491820083,0.174891467395941
0.345529034996495,0.182048121850916
0.350367052936997,0.189267766106418
0.350367052936997,0.189267766106418
0.355183697038226,0.196490641209499
0.359918338581812,0.203656948709459
0.364571380280723,0.210766899688105
0.369143224847927,0.217820705227241
0.373634274996392,0.224818576408671
0.378044933439085,0.2317607243142
0.382375602888974,0.238647360025633
0.386626686059027,0.245478694624774
0.390798585662212,0.252254939193428
0.394891704411495,0.2589763048134
0.398906445019846,0.265643002566493
0.402843210200232,0.272255243534514
0.40670240266562,0.278813238799266
0.410484425128979,0.285317199442553
0.414189680303276,0.291767336546182
0.417818570901478,0.298163861191955
0.421371499636555,0.304506984461679
0.424848869221472,0.310796917437157
0.428251082369198,0.317033871200194
0.431578541792702,0.323218056832595
0.43483165020495,0.329349685416164
0.43801081031891,0.335428968032707
0.44111642484755,0.341456115764026
0.444148896503838,0.347431339691928
0.447108628000742,0.353354850898217
0.449996022051229,0.359226860464697
0.452811481368267,0.365047579473174
0.455555408664824,0.370817219005451
0.458228206653867,0.376535990143333
0.460830278048365,0.382204103968626
0.463362025561284,0.387821771563133
0.465823851905594,0.393389204008659
0.468216159794261,0.398906612387009
0.470539351940253,0.404374207779987
0.472793831056538,0.409792201269398
0.474979999856085,0.415160803937047
0.477098261051859,0.420480226864739
0.47914901735683,0.425750681134277
0.481132671483965,0.430972377827467
0.483049626146232,0.436145528026113
0.484900284056598,0.44127034281202
0.486685047928032,0.446347033266992
0.4884043204735,0.451375810472834
0.490058504405972,0.456356885511351
0.491648002438414,0.461290469464347
0.493173217283794,0.466176773413627
0.49463455165508,0.471016008440995
0.49603240826524,0.475808385628257
0.497367189827241,0.480554116057216
0.498639299054052,0.485253410809678
0.49984913865864,0.489906480967447
0.500997111353972,0.494513537612327
0.502083619853017,0.499074791826124
0.503109066868742,0.503590454690641
0.504073855114116,0.508060737287684
0.504978387302105,0.512485850699057
0.505823066145677,0.516866006006565
0.506608294357801,0.521201414292012
0.507334474651443,0.525492286637202
0.508002009739573,0.529738834123942
0.508611302335157,0.533941267834035
0.509162755151163,0.538099798849286
0.509656770900559,0.542214638251499
0.510093752296313,0.546285997122479
0.510474102051393,0.550314086544031
0.510798222878765,0.554299117597959
0.511066517491399,0.558241301366068
0.511279388602261,0.562140848930163
0.51143723892432,0.565997971372047
0.511540471170543,0.569812879773527
0.511589488053898,0.573585785216406
0.511584692287352,0.577316898782489
0.511526486583875,0.581006431553581
0.511415273656432,0.584654594611486
0.511251456217992,0.588261599038008
0.511035436981523,0.591827655914954
0.510767618659993,0.595352976324127
0.510448403966369,0.598837771347331
0.510078195613618,0.602282252066372
0.50965739631471,0.605686629563053
0.509186408782611,0.609051114919181
0.508665635730288,0.612375919216558
0.508095479870711,0.615661253536991
0.507476343916847,0.618907328962283
0.506808630581663,0.622114356574239
0.506092742578128,0.625282547454664
0.505329082619208,0.628412112685362
0.504518053417872,0.631503263348138
0.503660057687087,0.634556210524797
0.502755498139822,0.637571165297143
0.501804777489043,0.640548338746981
0.500808298447719,0.643487941956115
0.499766463728818,0.646390186006351
0.498679676045307,0.649255281979492
0.497548338110153,0.652083440957343
0.496372852636326,0.65487487402171
0.495153622336792,0.657629792254396
0.493891049924519,0.660348406737206
0.492585538112475,0.663030928551945
0.491237489613627,0.665677568780417
0.489847307140944,0.668288538504428
0.488415393407393,0.670864048805781
0.486942151125942,0.673404310766281
0.485427983009559,0.675909535467734
0.483873291771211,0.678379933991943
0.482278480123866,0.680815717420713
0.480643950780492,0.683217096835848
0.478970106454057,0.685584283319155
0.477257349857529,0.687917487952436
0.475506083703874,0.690216921817497
0.473716710706061,0.692482795996142
0.471889633577058,0.694715321570176
0.470025255029833,0.696914709621404
0.468123977777352,0.69908117123163
0.466186204532584,0.701214917482658
0.464212338008497,0.703316159456294
0.462202780918059,0.705385108234342
0.460157935974236,0.707421974898606
0.458078205889998,0.709426970530892
0.455963993378311,0.711400306213004
0.453815701152143,0.713342193026746
0.451633731924463,0.715252842053923
0.449418488408237,0.71713246437634
0.447170373316434,0.718981271075801
0.444889789362021,0.720799473234112
0.442577139257967,0.722587281933075
0.440232825717238,0.724344908254497
0.437857251452803,0.726072563280182
0.43545081917763,0.727770458091935
0.433013931604685,0.729438803771559
0.430546991446937,0.73107781140086
0.428050401417354,0.732687692061643
0.425524564228904,0.734268656835711
0.422969882594553,0.73582091680487
0.42038675922727,0.737344683050924
0.417775596840023,0.738840166655678
0.415136798145779,0.740307578700936
0.412470765857506,0.741747130268503
0.409777902688172,0.743159032440184
0.407058611350745,0.744543496297784
0.404313294558192,0.745900732923106
0.401542355023481,0.747230953397956
0.39874619545958,0.748534368804138
0.395925218579457,0.749811190223457
0.393079827096079,0.751061628737717
0.390210423722414,0.752285895428723
0.387317411171429,0.753484201378279
0.384401192156094,0.754656757668192
0.381462169389375,0.755803775380263
0.378500745584239,0.7569254655963
0.375517323453656,0.758022039398105
0.372512305710592,0.759093707867484
0.369486095068016,0.760140682086242
0.366439094238894,0.761163173136183
0.363371705936195,0.762161392099111
0.360284332872887,0.763135550056831
0.357177377761938,0.764085858091149
0.354051243316314,0.765012527283867
0.350906332248984,0.765915768716792
0.347743047272916,0.766795793471728
0.344561791101077,0.767652812630479
0.341362966446435,0.76848703727485
0.338146976021958,0.769298678486645
0.334914222540613,0.77008794734767
0.331665108715369,0.770855054939728
0.328400037259192,0.771600212344625
0.325119410885052,0.772323630644165
0.321823632305915,0.773025520920153
0.318513104234749,0.773706094254393
0.315188229384523,0.774365561728689
0.311849410468203,0.775004134424848
0.308497050198757,0.775622023424672
0.305131551289154,0.776219439809968
0.301753316452361,0.776796594662539
0.298362748401346,0.777353699064189
0.294960249849076,0.777890964096725
0.29154622350852,0.77840860084195
0.288121072092645,0.778906820381668
0.284685198314418,0.779385833797686
0.281239004886808,0.779845852171806
0.277782894522782,0.780287086585834
0.274317269935308,0.780709748121575
0.270842533837354,0.781114047860832
0.267359088941887,0.781500196885411
0.263867337961876,0.781868406277117
0.260367683610288,0.782218887117753
0.25686052860009,0.782551850489124
0.253346275644251,0.782867507473036
0.249825327455738,0.783166069151293
0.24629808674752,0.783447746605699
0.242764956232562,0.783712750918059
0.239226338623835,0.783961293170177
0.235682636634305,0.784193584443859
0.232134252976939,0.784409835820908
0.228581590364707,0.78461025838313
0.225025051510575,0.78479506321233
0.221465039127511,0.78496446139031
0.217901955928483,0.785118663998877
0.214336204626459,0.785257882119835
0.210768187934406,0.785382326834989
0.207198308565293,0.785492209226143
0.203626969232086,0.785587740375101
0.200054572647754,0.78566913136367
0.196481521525265,0.785736593273652
0.192908218577586,0.785790337186852
0.189335066517685,0.785830574185077
0.18576246805853,0.785857515350128
0.182190825913088,0.785871371763813
0.178620542794327,0.785872354507935
0.175052021415215,0.785860674664298
0.17148566448872,0.785836543314708
0.16792187472781,0.785800171540969
0.164361054845451,0.785751770424886
0.160803607554613,0.785691551048262
0.157249935568262,0.785619724492904
0.153700441599367,0.785536501840615
0.150155528360895,0.785442094173201
0.146615598565814,0.785336712572465
0.143081054927092,0.785220568120212
0.139552300157696,0.785093871898247
0.136029736970594,0.784956834988375
0.132513768078754,0.784809668472401
0.129004796195144,0.784652583432128
0.125503224032731,0.784485790949362
0.122009454304484,0.784309502105906
0.118523889723369,0.784123927983567
0.115046933002355,0.783929279664147
0.11157898685441,0.783725768229453
0.108120453992501,0.783513604761289
0.104671737129595,0.783293000341458
0.101233238978662,0.783064166051766
0.0978053622526673,0.782827312974018
0.0943885096645801,0.782582652190018
0.090983083927368,0.782330394781571
0.0875894877539984,0.782070751830481
0.0842081238574394,0.781803934418552
0.0808393949506584,0.781530153627591
0.0774837037466234,0.7812496205394
0.0741414529583019,0.780962546235786
0.070813045298662,0.780669141798552
0.0674988834806711,0.780369618309502
0.0641993702172973,0.780064186850443
0.060914908221508,0.779753058503178
0.0576459002062712,0.779436444349511
0.0543927488845544,0.779114555471248
0.0511558569693257,0.778787602950194
0.0479356271735524,0.778455797868152
0.0447324622102026,0.778119351306927
0.041546764792244,0.777778474348325
0.0383789376326442,0.777433378074149
0.035229383444371,0.777084273566204
0.0320985049403924,0.776731371906296
0.0289867048336756,0.776374884176227
0.025894385837189,0.776015021457804
0.0228219506638999,0.775651994832831
0.0197698020267761,0.775286015383112
0.0167383426387855,0.774917294190452
0.0137279752128958,0.774546042336655
0.0107391024620747,0.774172470903527
0.00777212709928994,0.773796790972872
0.00482745183750925,0.773419213626494
0.00190547938970055,0.773039949946198
-0.000993387531168635,0.772659211013789
-0.00386874621213038,0.772277207911071
-0.00672019394021713,0.771894151719849
-0.0095473280024609,0.771510253521928
-0.0123497456858941,0.771125724399112
-0.015127044277549,0.770740775433206
-0.0178788210644578,0.770355617706014
-0.0206046733336527,0.769970462299341
-0.023304198372166,0.769585520294992
-0.0259769934670299,0.769201002774772
-0.0286226559052768,0.768817120820484
-0.0312407829739388,0.768434085513933
-0.0338309719600483,0.768052107936925
-0.0363928201506373,0.767671399171264
-0.0389259248327384,0.767292170298754
-0.0414298832933836,0.7669146324012
-0.0439042928196052,0.766538996560407
-0.0463487506984354,0.766165473858179
-0.0487628542169066,0.765794275376321
-0.0511462006620509,0.765425612196637
-0.0534983873209008,0.765059695400933
-0.0558190114804882,0.764696736071012
-0.0581076704278456,0.76433694528868
-0.0603639614500051,0.763980534135741
-0.0625874818339992,0.763627713693999
-0.0647778288668598,0.763278695045259
-0.0669345998356195,0.762933689271327
-0.0690573920273102,0.762592907454006
-0.0711458027289645,0.762256560675101
-0.0731994292276144,0.761924860016416
-0.0752178688102923,0.761598016559757
-0.0772007187640303,0.761276241386928
-0.0791475763758609,0.760959745579734
-0.0810580389328161,0.760648740219979
-0.0829317037219282,0.760343436389468
-0.0847681680302296,0.760044045170005
-0.0865670291447524,0.759750777643395
-0.0883278843525289,0.759463844891443
-0.0900503309405914,0.759183457995953
-0.0917339661959721,0.75890982803873
-0.0933783874057033,0.758643166101579
-0.0949831918568171,0.758383683266304
-0.096547976836346,0.75813159061471
-0.098072339631322,0.757887099228601
-0.0995558775287776,0.757650420189782
-0.100998187815745,0.757421764580058
-0.102398867779256,0.757201343481233
-0.103757514706343,0.756989367975112
-0.105073725884039,0.7567860491435
-0.106347098599376,0.756591598068201
-0.107577230139386,0.756406225831019
-0.1087637177911,0.75623014351376
-0.109906158841553,0.756063562198228
-0.111004150577775,0.755906692966228
-0.112057290286799,0.755759746899563
-0.113065175255657,0.75562293508004
-0.114027402771382,0.755496468589463
-0.114943570121005,0.755380558509635
-0.11581327459156,0.755275415922362
-0.116636113470078,0.755181251909448
-0.117411684043591,0.755098277552699
-0.118139583599132,0.755026703933918
-0.118819409423733,0.75496674213491
-0.119450758804426,0.75491860323748
-0.120033229028244,0.754882498323433
-0.120566417382219,0.754858638474573
-0.121049921153382,0.754847234772704
-0.121483337628767,0.754848498299632
-0.121866264095405,0.75486264013716
-0.12219829784033,0.754889871367095
-0.122479036150572,0.754930403071239
-0.122708076313164,0.754984446331399
-0.122885015615139,0.755052212229377
-0.123009451343529,0.75513391184698
-0.123080980785365,0.755229756266012
-0.123099201227681,0.755339956568276
-0.123063709957509,0.755464723835579
-0.12297410426188,0.755604269149725
-0.122829981427827,0.755758803592517
-0.122630938742383,0.755928538245761
-0.122376573492579,0.756113684191262
-0.122066482965448,0.756314452510824
-0.121700264448022,0.756531054286251
-0.121277515227333,0.756763700599349
-0.120797832590414,0.757012602531921
-0.120260813824297,0.757277971165773
-0.119666056216013,0.75756001758271
-0.119013157052596,0.757858952864535
-0.118301713621078,0.758174988093053
-0.11753132320849,0.758508334350069
-0.116701583101865,0.758859202717388
-0.115812090588236,0.759227804276814
-0.114862442954634,0.759614350110153
-0.113852237488092,0.760019051299207
-0.112781071475642,0.760442118925783
-0.111648542204317,0.760883764071684
-0.110454246961148,0.761344197818716
-0.109197783033167,0.761823631248683
-0.107878747707408,0.762322275443389
-0.106496738270902,0.76284034148464
-0.105051352010682,0.76337804045424
-0.10354218621378,0.763935583433992
-0.101968838167227,0.764513181505703
-0.100330905158057,0.765111045751177
-0.0986279844733019,0.765729387252218
-0.0968596733999934,0.766368417090631
-0.0950255692251638,0.76702834634822
-0.0931252692358456,0.767709386106791
-0.091158370719071,0.768411747448148
-0.0891244709618723,0.769135641454095
-0.0870231672512815,0.769881279206437
-0.0848540568743313,0.770648871786978
-0.0826167371180535,0.771438630277524
-0.0803108052694807,0.772250765759879
-0.0779358586156448,0.773085489315848
-0.0754914944435784,0.773943012027234
-0.0729773100403135,0.774823544975844
-0.0703929026928826,0.77572729924348
-0.0677378696883177,0.776654485911949
-0.0650118083136512,0.777605316063055
-0.0622143158559153,0.778580000778601
-0.0593449896021423,0.779578751140394
-0.0564034268393643,0.780601778230237
-0.0533892248546138,0.781649293129935
-0.0503019809349228,0.782721506921293
-0.0471412923673238,0.783818630686116
-0.0439067564388488,0.784940875506207
-0.0405979704365303,0.786088452463372
-0.0372145316474003,0.787261572639415
-0.0337560373584913,0.788460447116141
-0.0302220848568352,0.789685286975355
-0.0266122714294648,0.790936303298861
-0.0229261943634117,0.792213707168463
-0.0191634509457088,0.793517709665967
-0.0153236384633878,0.794848521873176
-0.0114063542034814,0.796206354871897
-0.00741119545302138,0.797591419743932
-0.00741119545302138,0.797591419743932
-0.00338212307254573,0.798959531078594
0.000636625687789882,0.800266528805521
0.00464503895652587,0.801512662017012
0.00864310486220266,0.802698179805364
0.0126308115333607,0.803823331262875
0.0166081470985403,0.804888365481843
0.020575099686282,0.805893531554565
0.0245316574251262,0.80683907857334
0.0284778084436133,0.807725255630465
0.0324135408702837,0.808552311818238
0.0363388428336778,0.809320496228957
0.0402537024623361,0.81003005795492
0.0441581078847989,0.810681246088424
0.0480520472296068,0.811274309721767
0.0519355086253,0.811809497947246
0.0558084802004192,0.812287059857161
0.0596709500835045,0.812707244543808
0.0635229064030966,0.813070301099485
0.0673643372877357,0.81337647861649
0.0711952308659623,0.813626026187122
0.0750155752663169,0.813819192903677
0.0788253586173398,0.813956227858453
0.0826245690475715,0.814037380143749
0.0864131946855524,0.814062898851861
0.090191223659823,0.814033033075089
0.0939586440989235,0.813948031905728
0.0977154441313945,0.813808144436078
0.101461611885776,0.813613619758437
0.10519713549061,0.813364706965101
0.108922003074434,0.813061655148369
0.112636202765791,0.812704713400539
0.116339722693221,0.812294130813907
0.120032550985263,0.811830156480773
0.123714675770459,0.811313039493434
0.127386085177349,0.810743028944187
0.131046767334473,0.810120373925331
0.134696710370372,0.809445323529163
0.138335902413585,0.808718126847981
0.141964331592654,0.807939032974083
0.145581986036119,0.807108290999766
0.149188853872521,0.806226150017329
0.152784923230399,0.805292859119069
0.156370182238294,0.804308667397284
0.159944619024747,0.803273823944271
0.163508221718298,0.80218857785233
0.167060978447487,0.801053178213756
0.170602877340856,0.799867874120848
0.174133906526943,0.798632914665905
0.17765405413429,0.797348548941223
0.181163308291437,0.7960150260391
0.184661657126925,0.794632595051835
0.188149088769294,0.793201505071724
0.191625591347084,0.791722005191067
0.195091152988836,0.79019434450216
0.19854576182309,0.788618772097301
0.201989405978386,0.786995537068789
0.205422073583266,0.785324888508921
0.208843752766269,0.783607075509994
0.212254431655936,0.781842347164306
0.215654098380808,0.780030952564156
0.219042741069424,0.778173140801842
0.222420347850325,0.77626916096966
0.225786906852052,0.774319262159908
0.229142406203145,0.772323693464885
0.232486834032144,0.770282703976889
0.23582017846759,0.768196542788216
0.239142427638023,0.766065458991165
0.242453569671984,0.763889701678034
0.245753592698013,0.761669519941121
0.249042484844651,0.759405162872722
0.252320234240437,0.757096879565136
0.255586829013913,0.754744919110661
0.258842257293618,0.752349530601595
0.262086507208094,0.749910963130235
0.26531956688588,0.747429465788879
0.268541424455517,0.744905287669825
0.271752068045546,0.74233867786537
0.274951485784507,0.739729885467813
0.27813966580094,0.737079159569451
0.281316596223385,0.734386749262583
0.284482265180384,0.731652903639505
0.287636660800476,0.728877871792516
0.290779771212202,0.726061902813913
0.293911584544103,0.723205245795994
0.297032088924718,0.720308149831058
0.300141272482589,0.7173708640114
0.303239123346255,0.714393637429321
0.306325629644257,0.711376719177117
0.309400779505136,0.708320358347086
0.312464561057431,0.705224804031525
0.315516962429684,0.702090305322734
0.318557971750435,0.698917111313009
0.321587577148224,0.695705471094648
0.324605766751591,0.69245563375995
0.327612528689078,0.689167848401211
0.330607851089224,0.685842364110729
0.333591722080569,0.682479429980804
0.336564129791655,0.679079295103731
0.339525062351022,0.675642208571809
0.342474507887209,0.672168419477336
0.345412454528758,0.66865817691261
0.34833889040421,0.665111729969928
0.351253803642103,0.661529327741588
0.354157182370979,0.657911219319888
0.357049014719379,0.654257653797126
0.359929288815842,0.650568880265599
0.362797992788909,0.646845147817605
0.36565511476712,0.643086705545442
0.368500642879017,0.639293802541409
0.371334565253138,0.635466687897801
0.374156870018025,0.631605610706919
0.376967545302219,0.627710820061058
0.379766579234259,0.623782565052518
0.382553959942686,0.619821094773595
0.38532967555604,0.615826658316588
0.388093714202863,0.611799504773794
0.390846064011693,0.607739883237511
0.393586713111072,0.603648042800037
0.39631564962954,0.59952423255367
0.399032861695638,0.595368701590707
0.401738337437905,0.591181699003447
0.404432064984883,0.586963473884187
0.407114032465112,0.582714275325224
0.409784228007132,0.578434352418857
0.412442639739483,0.574123954257384
0.415089255790706,0.569783329933102
0.417724064289342,0.565412728538308
0.420347053363931,0.561012399165302
0.422958211143013,0.55658259090638
0.425557525755128,0.55212355285384
0.428144985328818,0.547635534099981
0.430720577992622,0.5431187837371
0.433284291875081,0.538573550857494
0.435836115104736,0.534000084553461
0.438376035810126,0.5293986339173
0.440904042119792,0.524769448041308
0.443420122162276,0.520112776017783
0.445924264066116,0.515428866939023
0.448416455959853,0.510717969897325
0.450896685972029,0.505980333984987
0.453364942231183,0.501216208294307
0.455821212865855,0.496425841917583
0.458265486004587,0.491609483947113
0.460697749775918,0.486767383475193
0.463117992308389,0.481899789594124
0.465526201730541,0.4770069513962
0.467922366170913,0.472089117973722
0.470306473758047,0.467146538418986
0.472678512620482,0.462179461824291
0.475038470886759,0.457188137281933
0.477386336685419,0.452172813884212
0.479722098145002,0.447133740723424
0.482045743394048,0.442071166891867
0.484357260561098,0.43698534148184
0.486656637774692,0.431876513585639
0.488943863163371,0.426744932295564
0.491218924855674,0.421590846703911
0.493481810980143,0.416414505902979
0.495732509665318,0.411216158985064
0.49797100903974,0.405996055042466
0.500197297231948,0.400754443167481
0.502411362370483,0.395491572452408
0.504613192583885,0.390207691989544
0.506802776000696,0.384903050871187
0.508980100749455,0.379577898189635
0.511145154958702,0.374232483037186
0.513297926756979,0.368867054506137
0.515438404272826,0.363481861688786
0.517566575634782,0.358077153677432
0.519682428971389,0.352653179564371
0.521785952411187,0.347210188441901
0.523877134082717,0.341748429402322
0.525955962114518,0.336268151537929
0.528022424635131,0.330769603941021
0.530076509773097,0.325253035703896
0.532118205656955,0.319718695918852
0.534147500415248,0.314166833678185
0.536164382176513,0.308597698074195
0.538168839069293,0.303011538199179
0.540160859222129,0.297408603145434
0.542140430763558,0.291789142005259
0.544107541822124,0.286153403870952
0.546062180526365,0.280501637834808
0.548004335004823,0.274834092989128
0.549933993386038,0.269151018426209
0.551851143798549,0.263452663238348
0.553755774370899,0.257739276517843
0.555647873231626,0.252011107356992
0.557527428509272,0.246268404848093
0.559394428332376,0.240511418083443
0.56124886082948,0.234740396155341
0.563090714129124,0.228955588156084
0.564919976359848,0.223157243177969
0.566736635650192,0.217345610313296
0.568540680128697,0.21152093865436
0.570332097923904,0.205683477293461
0.572110877164352,0.199833475322897
0.573877005978583,0.193971181834963
0.575630472495136,0.18809684592196
0.577371264842553,0.182210716676184
0.579099371149373,0.176313043189933
0.580814779544137,0.170404074555505
0.582517478155385,0.164484059865197
0.584207455111657,0.158553248211309
0.585884698541495,0.152611888686136
0.587549196573439,0.146660230381978
0.589200937336029,0.140698522391132
0.590839908957805,0.134727013805895
0.592466099567307,0.128745953718566
0.594079497293078,0.122755591221442
0.595680090263656,0.116756175406821
0.597267866607581,0.110747955367001
0.598842814453396,0.104731180194279
0.600404921929639,0.0987060989809543
0.601954177164852,0.0926729608193234
0.603490568287574,0.0866320148016845
0.605014083426347,0.0805835100203353
0.60652471070971,0.0745276955675737
0.608022438266205,0.0684648205356974
0.60950725422437,0.0623951340170044
0.610979146712748,0.0563188851037919
0.612438103859878,0.0502363228883585
0.613884113794301,0.0441476964630013
0.615317164644557,0.0380532549200186
0.616737244539186,0.0319532473517077
0.618144341606729,0.0258479228503669
0.619538443975727,0.0197375305082934
0.62091953977472,0.0136223194177856
0.622287617132248,0.00750253867114081
0.623642664176851,0.00137843736065718
0.624984669037071,-0.00474973542136789
0.626313619841447,-0.0108817305826362
0.62762950471852,-0.0170172990308504
0.62893231179683,-0.0231561916737121
0.630222029204918,-0.0292981594189243
0.631498645071324,-0.0354429531741885
0.632762147524589,-0.0415903238472074
0.634012524693253,-0.0477400223456829
0.635249764705856,-0.0538917995773175
0.636473855690939,-0.060045406449813
0.637684785777043,-0.0662005938708722
0.638882543092707,-0.0723571127481966
0.640067115766472,-0.0785147139894891
0.641238491926879,-0.0846731485024515
0.642396659702468,-0.0908321671947862
0.643541607221779,-0.0969915209741952
0.644673322613352,-0.103150960748381
0.645791794005729,-0.109310237425046
0.64689700952745,-0.115469101911891
0.647988957307055,-0.12162730511662
0.649067625473084,-0.127784597946935
0.650133002154078,-0.133940731310537
0.651185075478578,-0.140095456115129
0.652223833575122,-0.146248523268413
0.653249264572254,-0.152399683678092
0.654261356598512,-0.158548688251867
0.655260097782437,-0.164695287897441
0.656245476252569,-0.170839233522516
0.657217480137449,-0.176980276034794
0.658176097565617,-0.183118166341978
0.659121316665614,-0.189252655351769
0.66005312556598,-0.19538349397187
0.660971512395256,-0.201510433109983
0.661876465281981,-0.207633223673811
0.662767972354697,-0.213751616571055
0.663646021741944,-0.219865362709417
0.664510601572261,-0.225974212996601
0.665361699974191,-0.232077918340308
0.666199305076272,-0.23817622964824
0.667023405007046,-0.244268897828099
0.667833987895053,-0.250355673787589
0.668631041868833,-0.25643630843441
0.669414555056927,-0.262510552676266
0.670184515587874,-0.268578157420858
0.670940911590217,-0.274638873575889
0.671683731192494,-0.28069245204906
0.672412962523247,-0.286738643748075
0.673128593711015,-0.292777199580634
0.67383061288434,-0.298807870454442
0.674519008171762,-0.304830407277199
0.67519376770182,-0.310844560956608
0.675854879603056,-0.316850082400371
0.67650233200401,-0.32284672251619
0.677136113033222,-0.328834232211768
0.677756210819233,-0.334812362394807
0.678362613490583,-0.340780863973009
0.678955309175812,-0.346739487854076
0.679534286003462,-0.35268798494571
0.680099532102072,-0.358626106155614
0.680651035600183,-0.36455360239149
0.681188784626335,-0.37047022456104
0.681712767309069,-0.376375723571966
0.682222971776925,-0.38226985033197
0.682719386158443,-0.388152355748756
0.683201998582165,-0.394022990730024
0.683670797176629,-0.399881506183477
0.684125770070378,-0.405727653016818
0.684566905391951,-0.411561182137748
0.684994191269888,-0.41738184445397
0.68540761583273,-0.423189390873186
0.685807167209018,-0.428983572303098
0.686192833527292,-0.434764139651408
0.686564602916092,-0.44053084382582
0.686922463503958,-0.446283435734033
0.687266403419432,-0.452021666283753
0.687596410791054,-0.457745286382679
0.687912473747363,-0.463454046938514
0.688214580416901,-0.469147698858962
0.688502718928208,-0.474825993051723
0.688776877409823,-0.4804886804245
0.689037043990289,-0.486135511884996
0.689283206798144,-0.491766238340912
0.68951535396193,-0.497380610699952
0.689733473610187,-0.502978379869815
0.689937553871455,-0.508559296758207
0.690127582874275,-0.514123112272827
0.690303548747188,-0.51966957732138
0.690465439618732,-0.525198442811565
0.69061324361745,-0.530709459651088
0.690746948871881,-0.536202378747648
0.690866543510566,-0.541676951008948
0.690972015662046,-0.547132927342692
0.69106335345486,-0.55257005865658
0.691140545017549,-0.557988095858315
0.691203578478654,-0.5633867898556
0.691252441966714,-0.568765891556136
0.691287123610271,-0.574125151867627
0.691307611537865,-0.579464321697772
0.691313893878036,-0.584783151954277
0.691305958759325,-0.590081393544841
0.691283794310271,-0.595358797377168
0.691247388659416,-0.60061511435896
0.6911967299353,-0.605850095397919
0.691131806266464,-0.611063491401747
0.691052605781447,-0.616255053278147
0.69095911660879,-0.62142453193482
0.690851326877034,-0.626571678279469
0.690729224714718,-0.631696243219796
0.690592798250384,-0.636797977663504
0.690442035612572,-0.641876632518294
0.690276924929823,-0.646931958691869
0.690097454330675,-0.651963707091931
0.689903611943671,-0.656971628626182
0.689695385897351,-0.661955474202324
0.689472764320254,-0.66691499472806
0.689235735340922,-0.671849941111091
0.688984287087894,-0.676760064259121
0.688718407689712,-0.681645115079851
0.688438085274915,-0.686504844480983
0.688143307972045,-0.69133900337022
0.68783406390964,-0.696147342655265
0.687510341216243,-0.700929613243817
0.687172128020393,-0.705685566043582
0.68681941245063,-0.710414951962259
0.686452182635496,-0.715117521907553
0.68607042670353,-0.719793026787165
0.685674132783274,-0.724441217508796
0.685263289003266,-0.72906184498015
0.684837883492049,-0.733654660108929
0.684397904378161,-0.738219413802834
0.683943339790144,-0.742755856969568
0.683474177856539,-0.747263740516834
0.682990406705884,-0.751742815352333
0.682492014466722,-0.756192832383768
0.681978989267592,-0.76061354251884
0.681451319237035,-0.765004696665253
0.680908992503591,-0.769366045730708
0.6803519971958,-0.773697340622907
0.679780321442203,-0.777998332249553
0.679193953371341,-0.782268771518348
0.678592881111754,-0.786508409336995
0.677977092791982,-0.790716996613194
0.677346576540566,-0.794894284254649
0.676701320486045,-0.799040023169062
0.676041312756962,-0.803153964264135
0.675366541481855,-0.80723585844757
0.674676994789266,-0.81128545662707
0.673972660807734,-0.815302509710336
0.6732535276658,-0.819286768605071
0.672519583492005,-0.823237984218977
0.67177081641489,-0.827155907459756
0.671007214562993,-0.831040289235111
0.670228766064857,-0.834890880452744
0.66943545904902,-0.838707432020356
0.668627281644025,-0.842489694845651
0.667804221978411,-0.84623741983633
0.666966268180718,-0.849950357900096
0.666113408379487,-0.85362825994465
0.665245630703258,-0.857270876877695
0.664362923280573,-0.860877959606934
0.66346527423997,-0.864449259040068
0.662552671709992,-0.867984526084799
0.661625103819177,-0.871483511648831
0.660682558696067,-0.874945966639864
0.659725024469201,-0.878371641965602
0.658752489267121,-0.881760288533746
0.657764941218367,-0.885111657251999
0.656762368451479,-0.888425499028063
0.655744759094997,-0.89170156476964
