-0.734278385531078,-0.196285094581397
0.817636131640245,0.869217634347194
-0.419934972897817,-0.844256453349214
0.536947797788605,-0.963436094693708
1.49383056847503,-1.0826157360382
0.452632207618854,0.558841783468344
0.226203182104491,0.759729942704808
-0.000225843409871196,0.960618101941272
0.836377937649691,-0.0273116730708418
-0.344723813908865,0.306440622807663
