0.236693196101735,0.919561161939688
0.242194867840421,0.89705334627069
0.247609115946267,0.874797972858441
0.252936944002906,0.852793372430668
0.258179355593971,0.831037875715099
0.263337354303093,0.809529813439462
0.268411943713904,0.788267516331486
0.273404127410036,0.767249315118897
0.278314908975122,0.746473540529424
0.283145291992794,0.725938523290796
0.287896280046684,0.705642594130739
0.292568876720424,0.685584083776982
0.297164085597646,0.665761322957252
0.301682910261982,0.646172642399278
0.306126354297065,0.626816372830787
0.310495421286527,0.607690844979508
0.314791114813999,0.588794389573168
0.319014438463114,0.570125337339495
0.323166395817504,0.551682019006218
0.327247990460801,0.533462765301063
0.331260225976638,0.515465906951759
0.335204105948646,0.497689774686034
0.339080633960457,0.480132699231616
0.342890813595705,0.462793011316233
0.34663564843802,0.445669041667612
0.350316142071035,0.428759121013481
0.353933298078382,0.41206158008157
0.357488120043694,0.395574749599604
0.360981611550602,0.379296960295313
0.364414776182739,0.363226542896424
0.367788617523736,0.347361828130665
0.371104139157226,0.331701146725764
0.374362344666841,0.316242829409449
0.377564237636213,0.300985206909447
0.380710821648975,0.285926609953488
0.383803100288758,0.271065369269298
0.386842077139194,0.256399815584606
0.389828755783916,0.241928279627139
0.392764139806556,0.227649092124626
0.395649232790746,0.213560583804794
0.398485038320118,0.199661085395371
0.401272559978304,0.185948927624086
0.404012801348937,0.172422441218666
0.406706766015648,0.159079956906838
0.409355457562069,0.145919805416332
0.411959879571834,0.132940317474874
0.414521035628573,0.120139823810193
0.41703992931592,0.107516655150017
0.419517564217506,0.0950691422220734
0.421954943916963,0.0827956157540903
0.424353071997923,0.0706944064737956
0.426712952044019,0.0587638451089173
0.429035587638883,0.0470022623871832
0.431321982366147,0.0354079890363212
0.433573139809443,0.0239793557840593
0.435790063552403,0.0127146933581254
0.43797375717866,0.00161233248624743
0.440125224271845,-0.00932939610384667
0.44224546841559,-0.0201121616844291
0.444335493193528,-0.0307376335277719
0.446396302189292,-0.0412074809061471
0.448428898986512,-0.0515233730918267
0.450434287168821,-0.0616869793570829
0.452413470319852,-0.0716999689741879
0.454367452023236,-0.0815640112154136
0.456297235862606,-0.0912807753530322
0.458203825421593,-0.100851930659316
0.46008822428383,-0.110279146406536
0.46195143603295,-0.119564091866966
0.463794464252583,-0.128708436312876
0.465618312526363,-0.137713849016541
0.467423984437921,-0.14658199925023
0.46921248357089,-0.155314556286217
0.470984813508901,-0.163913189396773
0.472741977835587,-0.172379567854171
0.47448498013458,-0.180715360930683
0.476214823989513,-0.18892223789858
0.477932512984016,-0.197001868030135
0.479639050701723,-0.20495592059762
0.481335440726266,-0.212786064873308
0.483022686641276,-0.220493970129469
0.484701792030386,-0.228081305638376
0.486373760477228,-0.235549740672302
0.488039595565434,-0.242900944503518
0.489700300878637,-0.250136586404297
0.491356880000467,-0.25725833564691
0.493010336514558,-0.26426786150363
0.494661674004542,-0.271166833246728
0.496311896054051,-0.277956920148477
0.497962006246717,-0.284639791481149
0.499613008166171,-0.291217116517016
0.501265905396047,-0.29769056452835
0.502921701519976,-0.304061804787423
0.504581400121591,-0.310332506566508
0.506246004784524,-0.316504339137875
0.507916519092406,-0.322578971773798
0.50959394662887,-0.328558073746549
0.511279290977548,-0.334443314328399
0.512973555722072,-0.34023636279162
0.514677744446075,-0.345938888408485
0.516392860733188,-0.351552560451266
0.518119908167043,-0.357079048192235
0.519859890331274,-0.362520020903664
0.521613810809511,-0.367877147857825
0.523382673185388,-0.37315209832699
0.525167481042535,-0.378346541583432
0.526969237964586,-0.383462146899421
0.528788947535172,-0.388500583547231
0.530627613337926,-0.393463520799133
0.53248623895648,-0.3983526279274
0.534365827974465,-0.403169574204304
0.536267383975515,-0.407916028902116
0.53819191054326,-0.412593661293109
0.540140411261334,-0.417204140649555
0.542113889713369,-0.421749136243726
0.544113349482996,-0.426230317347894
0.546139794153847,-0.430649353234331
0.548194227309556,-0.435007913175309
0.550277652533753,-0.439307666443101
0.552391073410072,-0.443550282309978
0.554535493522144,-0.447737430048212
0.556711916453601,-0.451870778930076
0.558921345788076,-0.455951998227842
0.5611647851092,-0.459982757213781
0.563443238000606,-0.463964725160166
0.565757708045926,-0.46789957133927
0.568109198828793,-0.471788965023362
0.570498713932837,-0.475634575484718
0.572927256941692,-0.479438071995607
0.57539583143899,-0.483201123828302
0.577905441008362,-0.486925400255076
0.580457089233441,-0.4906125705482
0.583051779697859,-0.494264303979947
0.585690515985248,-0.497882269822588
0.58837430167924,-0.501468137348396
0.591104140363467,-0.505023575829642
0.593881035621562,-0.5085502545386
0.596705991037157,-0.51204984274754
0.599580010193883,-0.515524009728735
0.602504096675374,-0.518974424754457
0.60547925406526,-0.522402757096979
0.608506485947174,-0.525810676028572
0.611586795904749,-0.529199850821508
0.614721187521617,-0.532571950748059
0.617910664381409,-0.535928645080498
0.621156230067758,-0.539271603091096
0.624458888164295,-0.542602494052126
0.627819642254654,-0.54592298723586
0.631239495922466,-0.54923475191457
0.634719452751363,-0.552539457360527
0.638260516324977,-0.555838772846005
0.641863690226941,-0.559134367643275
0.645529978040887,-0.562427911024608
0.649260383350447,-0.565721072262279
0.653055909739253,-0.569015520628557
0.656917560790937,-0.572312925395716
0.660846340089131,-0.575614955836027
0.664843251217468,-0.578923281221763
0.668909297759579,-0.582239570825195
0.673045483299097,-0.585565493918596
0.677252811419654,-0.588902719774239
0.681532285704882,-0.592252917664394
0.685884909738412,-0.595617756861333
0.690311687103878,-0.59899890663733
0.694813621384912,-0.602398036264657
0.699391716165145,-0.605816815015584
0.70404697502821,-0.609256912162385
0.708780401557738,-0.612719996977331
0.713592999337363,-0.616207738732695
0.718485771950716,-0.619721806700748
0.723459722981428,-0.623263870153763
0.728515856013134,-0.626835598364012
0.733655174629464,-0.630438660603767
0.73887868241405,-0.634074726145299
0.744187382950525,-0.637745464260882
0.749582279822522,-0.641452544222786
0.755064376613671,-0.645197635303285
0.760634676907605,-0.64898240677465
0.766294184287957,-0.652808527909154
0.772043902338359,-0.656677667979067
0.777884834642442,-0.660591496256664
0.783817984783838,-0.664551682014215
0.789844356346181,-0.668559894523992
0.795964952913102,-0.672617803058268
0.802180778068233,-0.676727076889316
0.808492835395206,-0.680889385289406
0.814902128477654,-0.685106397530811
0.821409660899208,-0.689379782885803
0.828016436243501,-0.693711210626655
0.834723458094165,-0.698102350025637
0.841531730034832,-0.702554870355023
0.848442255649134,-0.707070440887085
0.855456038520704,-0.711650730894094
0.862574082233173,-0.716297409648322
0.869797390370174,-0.721012146422043
0.877126966515338,-0.725796610487527
0.884563814252298,-0.730652471117047
0.892108937164686,-0.735581397582875
0.899763338836135,-0.740585059157283
0.907528022850275,-0.745665125112543
0.91145203435574,-0.748234331380577
0.919119225299881,-0.753226357094817
0.926372103087165,-0.757888392232423
0.933215409523331,-0.762223583951843
0.939653886414112,-0.766235079411526
0.945692275565247,-0.769926025769919
0.951335318782471,-0.773299570185472
0.95658775787152,-0.776358859816632
0.961454334638131,-0.779107041821848
0.965939790888039,-0.781547263359567
0.970048868426981,-0.783682671588239
0.973786309060694,-0.785516413666312
0.977156854594913,-0.787051636752233
0.980165246835375,-0.788291488004451
0.982816227587815,-0.789239114581415
0.985114538657971,-0.789897663641572
0.987064921851578,-0.790270282343371
0.988672118974372,-0.79036011784526
0.98994087183209,-0.790170317305688
0.990875922230468,-0.789704027883102
0.991482011975242,-0.788964396735952
0.991763882872149,-0.787954571022684
0.991726276726924,-0.786677697901748
0.991373935345303,-0.785136924531592
0.990711600533025,-0.783335398070664
0.989744014095823,-0.781276265677412
0.988475917839434,-0.778962674510285
0.986912053569596,-0.776397771727731
0.985057163092043,-0.773584704488198
0.982915988212512,-0.770526619950134
0.98049327073674,-0.767226665271988
0.977793752470462,-0.763687987612208
0.974822175219415,-0.759913734129242
0.971583280789335,-0.755907051981539
0.968081810985958,-0.751671088327547
0.96432250761502,-0.747208990325713
0.960310112482259,-0.742523905134487
0.956049367393409,-0.737618979912317
0.951545014154207,-0.732497361817651
0.946801794570389,-0.727162198008937
0.941824450447692,-0.721616635644623
0.936617723591852,-0.715863821883158
0.931186355808604,-0.70990690388299
0.925535088903686,-0.703749028802567
0.919668664682833,-0.697393343800338
0.913591824951781,-0.69084299603475
0.907309311516268,-0.684101132664253
0.900825866182028,-0.677170900847294
0.894146230754799,-0.670055447742322
0.887275147040316,-0.662757920507785
0.880217356844316,-0.65528146630213
0.872977601972535,-0.647629232283808
0.865560624230709,-0.639804365611265
0.857971165424574,-0.63181001344295
0.850213967359866,-0.623649322937311
0.842293771842323,-0.615325441252797
0.834215320677679,-0.606841515547856
0.825983355671672,-0.598200692980936
0.817602618630037,-0.589406120710485
0.809077851358511,-0.580460945894952
0.800413795662829,-0.571368315692785
0.791615193348729,-0.562131377262432
0.782686786221946,-0.552753277762342
0.773633316088216,-0.543237164350962
0.764459524753276,-0.533586184186741
0.755170154022862,-0.523803484428128
0.745769945702711,-0.51389221223357
0.736263641598557,-0.503855514761516
0.726655983516138,-0.493696539170415
0.71695171326119,-0.483418432618713
0.707155572639449,-0.473024342264861
0.697272303456651,-0.462517415267305
0.687306647518533,-0.451900798784495
0.677263346630831,-0.441177639974877
0.66714714259928,-0.430351085996902
0.656962777229617,-0.419424284009017
0.646714992327579,-0.40840038116967
0.636408529698901,-0.39728252463731
0.62604813114932,-0.386073861570385
0.615638538484572,-0.374777539127342
0.605184493510393,-0.363396704466632
0.59469073803252,-0.351934504746701
0.584162013856688,-0.340394087125998
0.573603062788634,-0.328778598762971
0.563018626634094,-0.317091186816068
0.552413447198805,-0.305334998443739
0.541792266288502,-0.29351318080443
0.531159825708921,-0.281628881056591
0.5205208672658,-0.269685246358669
0.509880132764874,-0.257685423869114
0.499242364011879,-0.245632560746372
0.488612302812551,-0.233529804148893
0.477994690972628,-0.221380301235125
0.467394270297844,-0.209187199163516
0.456815782593937,-0.196953645092514
0.446263969666643,-0.184682786180567
0.435743573321697,-0.172377769586124
0.425259335364835,-0.160041742467634
0.414815997601795,-0.147677851983543
0.404418301838312,-0.135289245292302
0.394070989880123,-0.122879069552357
0.383778803532964,-0.110450471922157
0.37354648460257,-0.0980065995601511
0.363378774894679,-0.0855505996247868
0.353280416215026,-0.0730856192745123
0.343256150369348,-0.0606148056677764
0.333310719163381,-0.0481413059630267
0.32344886440286,-0.035668267318712
0.313675327893523,-0.0231988368932804
0.303994851441106,-0.0107361618451801
0.294412176851344,0.00171661066714054
0.284932045929974,0.0141563334852332
0.275559200482733,0.0265798594506496
0.266298382315355,0.0389840414049417
0.257154333233578,0.051365732189661
0.248131795043139,0.0637217846463592
0.239235509549772,0.0760490516165882
0.230470218559214,0.0883443859418996
0.221840663877202,0.100604640463845
0.213351587309471,0.112826668023977
0.205007730661759,0.125007321463846
0.1968138357398,0.137143453625004
0.188774644349332,0.149231917349003
0.18089489829609,0.161269565477396
0.173179339385811,0.173253250851732
0.165632709424232,0.185179826313565
0.158259750217087,0.197046144704446
0.151065203570114,0.208849058865927
0.144053811289048,0.220585421639559
0.137230315179626,0.232252085866894
0.130599457047584,0.243845904389484
0.124165978698659,0.255363730048881
0.117934621938586,0.266802415686636
0.111910128573102,0.278158814144301
0.106097240407943,0.289429778263427
0.100500699248844,0.300612160885568
0.0951252469015437,0.311702814852273
0.0899756251717766,0.322698593005096
0.0850565758652792,0.333596348185587
0.0803728407877878,0.344392933235298
0.0759291617450388,0.355085200995782
0.0717302805427682,0.365670004308589
0.0677809389867123,0.376144196015272
0.0640858788826072,0.386504628957383
0.0606498420361893,0.396748155976472
0.0574775702531947,0.406871629914092
0.0545738053393596,0.416871903611795
0.0519432891004204,0.426745829911132
0.049590763342113,0.436490261653654
0.047520969870174,0.446102051680915
0.0457386504903392,0.455578052834465
0.0442485470083452,0.464915117955856
0.043055401229928,0.474110099886639
0.0421639549608238,0.483159851468368
0.041578950006769,0.492061225542592
0.0413051281734996,0.500811074950865
0.041347231266752,0.509406252534737
0.0417100010922623,0.517843611135761
0.0423981794557668,0.526120003595488
0.0434165081630016,0.53423228275547
0.044769729019703,0.542177301457258
0.0464625838316073,0.549951912542405
0.0484998144044506,0.557552968852462
0.0508861625439691,0.564977323228981
0.053626370055899,0.572221828513513
0.0567251787459767,0.579283337547611
0.0601873304199382,0.586158703172825
0.0640175668835199,0.592844778230709
0.0682206299424579,0.599338415562813
0.0728012614024884,0.605636468010688
0.0777642030693478,0.611735788415888
0.083114196748772,0.617633229619964
0.0888559842464975,0.623325644464467
0.0949943073682604,0.628809885790948
0.101533907919797,0.634082806440961
0.108479527706843,0.639141259256056
0.115835908535136,0.643982097077786
0.123607792210411,0.648602172747701
0.131799920538404,0.652998339107354
0.140417035324852,0.657167448998297
0.149463878375491,0.661106355262081
0.158945191496057,0.664811910740257
0.168865716492286,0.668280968274379
0.179230195169915,0.671510380705996
0.19004336933468,0.674497000876662
0.201309980792317,0.677237681627927
0.213034771348562,0.679729275801344
0.225222482809152,0.681968636238464
0.237877856979822,0.683952615780839
0.251005635666309,0.685678067270021
0.264610560674349,0.687141843547561
0.278697373809679,0.688340797455012
0.293270816878034,0.689271781833924
0.308335631685151,0.68993164952585
0.323896560036766,0.690317253372341
0.306130284224337,0.657462248659243
0.316676930425248,0.674726408548153
0.373603444415961,0.689797010254723
0.419601099311548,0.645024986009751
0.419119495267373,0.663521472089671
0.418561595022387,0.687394969647739
0.436914606194106,0.686102701489346
0.478664626107632,0.689286404473906
0.442100897912837,0.681219474587031
0.46417424621531,0.646267091097459
0.504730076191734,0.681572446758238
0.554922749219395,0.694858174264912
0.568012357860396,0.694637850796945
0.549837160598995,0.662894456938739
0.56848902345681,0.675833162564814
0.574466786572554,0.692106776099982
0.577272404845421,0.663420595198503
0.606718724206837,0.638281550149086
0.624384122851429,0.663893251389208
0.621450245083632,0.629133158288098
0.636835752571093,0.673992200514903
0.635349828273207,0.688032809848744
0.672785650796698,0.688706777701708
0.666589989228537,0.672532171196197
0.675541475297762,0.672109617579577
0.684017965073976,0.671715666637609
0.692024438626354,0.671348243128199
0.672642211450985,0.635137005649696
0.678052442234594,0.635326107561151
0.683831109663485,0.635012152250635
0.719449771980912,0.670102318574259
0.725180865451672,0.66983640359623
0.730471823113622,0.669584564598196
0.735327625035935,0.669344726338063
0.774226292549594,0.70109805670003
0.755017708275193,0.695779093415045
0.791699750145067,0.689003090753915
0.794197309627402,0.625519974036961
0.754536761264648,0.705963536607275
0.705740261829045,0.689005360380368
0.781250153241707,0.71343134490998
0.727655365261084,0.688468799204656
0.713757790444335,0.676351445179463
0.779618308423257,0.646388832431323
0.761445467148352,0.666905034939217
0.794127128911881,0.645648828243478
0.714747201878059,0.639217248160934
0.777145486370111,0.637521201915512
0.759332412150748,0.66577607636036
0.757903011646184,0.665446016981879
0.776739069968887,0.627280032799179
0.753997707015061,0.66471398784974
0.751531763026845,0.664307867611895
0.748730264682422,0.663872243270073
0.745598192050962,0.663405039582183
0.742140525201638,0.662904181306128
0.73836224420362,0.662367593199816
0.734268329126081,0.661793200021153
0.729863760038191,0.661178926528045
0.725153517009123,0.660522697478398
0.720142580108048,0.659822437630119
0.714835929404136,0.659076071741113
0.709238544966561,0.658281524569286
0.703355406864493,0.657436720872545
0.697191495167103,0.656539585408797
0.690751789943564,0.655588042935946
0.684041271263047,0.6545800182119
0.677064919194722,0.653513435994564
0.669827713807763,0.652386221041845
0.662334635171339,0.651196298111648
0.654590663354623,0.649941591961881
0.646600778426787,0.648620027350448
0.638369960457001,0.647229529035257
0.629903189514437,0.645768021774213
0.621205445668267,0.644233430325223
0.612281708987662,0.642623679446193
0.603136959541794,0.640936693895029
0.593776177399834,0.639170398429636
0.584204342630953,0.637322717807922
0.574426435304324,0.635391576787793
0.564447435489117,0.633374900127153
0.554272323254504,0.631270612583911
0.543906078669657,0.629076638915972
0.533353681803747,0.626790903881241
0.522620112725945,0.624411332237626
0.511710351505424,0.621935848743032
0.500629378211353,0.619362378155366
0.489382172912907,0.616688845232534
0.477973715679254,0.613913174732441
0.466408986579568,0.611033291412995
0.454692965683019,0.6080471200321
0.442830633058779,0.604952585347664
0.43082696877602,0.601747612117593
0.418686952903912,0.598430125099793
0.406415565511628,0.594998049052169
0.394017786668339,0.591449308732628
0.381498596443217,0.587781828899076
0.368862974905432,0.58399353430942
0.356115902124157,0.580082349721566
0.343262358168563,0.576046199893419
0.330307323107821,0.571883009582886
0.317255777011103,0.567590703547872
0.304112699947581,0.563167206546285
0.290883071986425,0.558610443336031
0.277571873196808,0.553918338675015
0.264184083647901,0.549088817321143
0.250724683408875,0.544119804032323
0.237198652548902,0.539009223566459
0.223610971137153,0.533755000681459
0.2099666192428,0.528355060135228
0.196270576935015,0.522807326685672
0.182527824282968,0.517109725090698
0.168743341355832,0.511260180108212
0.154922108222777,0.50525661649612
0.141069104952976,0.499096959012328
0.1271893116156,0.492779132414742
0.11328770827982,0.486301061461269
0.0993692750148073,0.479660670909815
0.0854389918897342,0.472855885518285
0.0715018389737719,0.465884630044586
0.0575627963360917,0.458744829246624
0.0436268440458654,0.451434407882306
0.0296989621722643,0.443951290709537
0.0157841307844599,0.436293402486224
0.00188732995162369,0.428458667970272
-0.0119864602570728,0.420445011919588
-0.0258322597724581,0.412250359092079
-0.0396450885253607,0.40387263424565
-0.0534199664466091,0.395309762138207
-0.0671519134670317,0.386559667527657
-0.0808359495174573,0.377620275171905
-0.0944670945287143,0.368489509828859
-0.108040368431631,0.359165296256424
-0.121550791157036,0.349645559212506
-0.134993382635758,0.339928223455011
-0.148363162798626,0.330011213741846
-0.161655151576467,0.319892454830916
-0.17486436890011,0.309569871480129
-0.187985834700385,0.29904138844739
-0.201014568908119,0.288304930490604
-0.213945591454141,0.27735842236768
-0.226773922269279,0.266199788836521
-0.239494581284362,0.254826954655036
-0.252102588430219,0.243237844581129
-0.264592963637678,0.231430383372708
-0.276960726837567,0.219402495787678
-0.289200897960715,0.207152106583945
-0.301308496937951,0.194677140519415
-0.313278543700102,0.181975522351996
-0.325106058177998,0.169045176839592
-0.336786060302467,0.15588402874011
-0.348313570004338,0.142490002811457
-0.359683607214439,0.128861023811537
-0.370891191863598,0.114995016498259
-0.381931343882644,0.100889905629527
-0.392799083202406,0.0865436159632477
-0.403489429753712,0.0719540722573276
-0.41399740346739,0.0571191992696728
-0.42431802427427,0.0420369217581892
-0.434446312105179,0.0267051644807832
-0.444377286890946,0.0111218521953609
-0.4541059685624,-0.00471509034017162
-0.463627377050368,-0.0208077383679082
-0.472936532285681,-0.0371581671299426
-0.482028454199166,-0.0537684518683685
-0.490898162721651,-0.0706406678252801
-0.499540677783965,-0.0877768902427709
-0.507951019316937,-0.105179194362935
-0.516124207251396,-0.122849655427866
-0.524055261518168,-0.140790348679658
-0.531739202048085,-0.159003349360405
-0.539171048771972,-0.1774907327122
-0.54634582162066,-0.196254573977137
-0.553258540524977,-0.215296948397311
-0.559904225415751,-0.234619931214814
-0.566277896223811,-0.254225597671742
-0.572374572879984,-0.274116023010187
-0.578189275315101,-0.294293282472244
-0.583717023459989,-0.314759451300006
-0.588952837245477,-0.335516604735568
-0.593891736602392,-0.356566818021022
-0.598528741461565,-0.377912166398464
-0.602858871753823,-0.399554725109986
-0.606877147409995,-0.421496569397682
-0.610578588360909,-0.443739774503647
-0.613958214537394,-0.466286415669975
-0.617011045870278,-0.489138568138758
-0.61973210229039,-0.512298307152091
-0.622116403728558,-0.535767707952068
-0.624158970115611,-0.559548845780783
-0.625854821382378,-0.583643795880329
-0.627198977459686,-0.6080546334928
-0.628186458278365,-0.63278343386029
-0.628812283769243,-0.657832272224893
-0.629071473863148,-0.683203223828703
-0.628959048490909,-0.708898363913814
-0.628470027583354,-0.734919767722319
-0.627599431071312,-0.761269510496312
-0.626342278885612,-0.787949667477888
-0.624693590957082,-0.814962313909139
-0.62264838721655,-0.84230952503216
-0.620201687594845,-0.869993376089045
-0.617348512022795,-0.898015942321887
-0.61408388043123,-0.926379298972781
-0.610402812750977,-0.955085521283819
