0.290627395486956,-0.714378669272365
-0.86704232682753,0.261805305380516
-0.459539916065055,0.82933711595884
-0.31982097181245,0.832198118011117
-0.180102027559845,0.835059120063394
0.149736151847589,-0.711722170152854
0.353695880222209,0.389359300045217
0.557655608596829,1.49044077024329
-0.669566969991817,-0.503115196091237
-0.741884136689162,-0.20748637549791
