0.938964480113377,0.331284460575331
-0.682039312295339,-0.0439588586482529
0.271527322091246,0.32716187891581
-0.0473759724151379,0.583168310482019
-0.366279266921522,0.839174742048227
-0.628946583351109,0.656592009104587
-0.631889631513879,0.216687265429247
-0.63483267967665,-0.223217478246093
-0.86307614678544,-0.582864239310391
0.217502520206742,-0.307659153481047
