-0.765046972617153,-0.716435893835
-0.756191211730228,-0.702227567269424
-0.747359078597179,-0.688314208404825
-0.738550614436197,-0.67469343931467
-0.729765860465474,-0.661362882072422
-0.7210048579032,-0.648320158751546
-0.829350972799126,-0.54134160923191
-0.588528927089827,-0.737799861688792
-0.801709147984174,-0.727986785564006
-0.68619918610243,-0.598980046151053
-0.677557558855274,-0.587340823539005
-0.775740495044611,-0.684287046214536
-0.544454773922287,-0.466077601514275
-0.75563913594186,-0.440135646890802
-0.643231449224539,-0.54349581744705
-0.634710227747282,-0.533200647380443
-0.528579147058579,-0.628040315503051
-0.731664980508632,-0.404185229345948
-0.725091087756007,-0.623035171271202
-0.600867802105707,-0.494612955143478
-0.701398706282632,-0.39073190280932
-0.480358725565257,-0.361467191138731
-0.473537079565722,-0.354484463381072
-0.567415291365231,-0.460059903279951
-0.678305604366771,-0.356579254712422
-0.452001490790269,-0.351708871782171
-0.445515324938132,-0.552975782556105
-0.436205208394761,-0.315691150575632
-0.632998479893429,-0.526248338357165
-0.417602080126726,-0.529801628896943
-0.509819564801983,-0.408842665059287
-0.591974425489344,-0.287328600926177
-0.604783815797496,-0.281546198636766
-0.376298996926466,-0.281980580512166
-0.588506776425742,-0.279911771493487
-0.562015714178383,-0.480368951524699
-0.461419363515333,-0.37378739362736
-0.453440169228438,-0.368699810579658
-0.445486086550304,-0.363821589877658
-0.437557156699122,-0.359150353594823
-0.429653420893085,-0.354683723804619
-0.421774920350382,-0.350419322580509
-0.413921696289206,-0.346354771995959
-0.406093789927747,-0.342487694124434
-0.398291242484197,-0.338815711039396
-0.390514095176747,-0.335336444814312
-0.382762389223589,-0.332047517522646
-0.375036165842913,-0.328946551237861
-0.367335466252911,-0.326031168033423
-0.359660331671774,-0.323298989982797
-0.352010803317694,-0.320747639159446
-0.344386922408861,-0.318374737636835
-0.336788730163467,-0.316177907488429
-0.329216267799703,-0.314154770787693
-0.321669576535761,-0.31230294960809
-0.314148697589832,-0.310620066023085
-0.306653672180106,-0.309103742106144
-0.299184541524775,-0.307751599930729
-0.291741346842031,-0.306561261570307
-0.284324129350065,-0.305530349098341
-0.276932930267067,-0.304656484588296
-0.26956779081123,-0.303937290113637
-0.262228752200744,-0.303370387747828
-0.254915855653801,-0.302953399564333
-0.247629142388592,-0.302683947636617
-0.240368653623309,-0.302559654038145
-0.233134430576141,-0.302578140842381
-0.225926514465282,-0.30273703012279
-0.218744946508921,-0.303033943952836
-0.211589767925251,-0.303466504405983
-0.204461019932462,-0.304032333555697
-0.197358743748746,-0.304729053475442
-0.190282980592295,-0.305554286238682
-0.183233771681298,-0.306505653918881
-0.176211158233948,-0.307580778589506
-0.169215181468436,-0.308777282324018
-0.162245882602952,-0.310092787195885
-0.15530330285569,-0.311524915278569
-0.148387483444838,-0.313071288645536
-0.14149846558859,-0.31472952937025
-0.134636290505136,-0.316497259526175
-0.127800999412667,-0.318372101186777
-0.120992633529374,-0.320351676425518
-0.11421123407345,-0.322433607315865
-0.107456842263084,-0.324615515931282
-0.100729499316469,-0.326895024345233
-0.0940292464517961,-0.329269754631182
-0.0873561248872556,-0.331737328862595
-0.0807101758410393,-0.334295369112935
-0.0740914405313385,-0.336941497455668
-0.0674999601763442,-0.339673335964257
-0.0609357759942479,-0.342488506712168
-0.0543989292032407,-0.345384631772865
-0.047889461021514,-0.348359333219812
-0.041407412667259,-0.351410233126474
-0.034952825358667,-0.354534953566315
-0.0285257403139291,-0.3577311166128
-0.0221261987512367,-0.360996344339394
-0.015754241888781,-0.364328258819561
-0.00940991094475337,-0.367724482126765
-0.00309324713734491,-0.371182636334471
0.00319570831525307,-0.374700343516144
0.00945691419484926,-0.378275225745248
0.0156903292832525,-0.381904905095248
0.0218959123622714,-0.385587003639607
0.0280736222137149,-0.389319143451792
0.0342234176193915,-0.393098946605266
0.0403452573611101,-0.396924035173493
0.0464391002206795,-0.400792031229939
0.0525049049799082,-0.404700556848067
0.0585426304206052,-0.408647234101343
0.0645522353245791,-0.412629685063231
0.0705336784736387,-0.416645531807195
0.0764869186495928,-0.4206923964067
0.08241191463425,-0.424767900935211
0.0883086252094191,-0.428869667466191
0.0941770091569088,-0.432995318073106
0.100017025258528,-0.43714247482942
0.105828632296085,-0.441308759808597
0.111611789051389,-0.445491795084103
0.117366454306249,-0.449689202729401
0.123092586842473,-0.453898604817956
0.128790145441871,-0.458117623423233
0.13445908888625,-0.462343880618696
0.14009937595742,-0.46657499847781
0.145710965437189,-0.470808599074039
0.151293816107366,-0.475042304480848
0.15684788674976,-0.479273736771701
0.162373136146179,-0.483500518020063
0.167869523078433,-0.487720270299398
0.17333700632833,-0.491930615683171
0.178775544677679,-0.496129176244846
0.184185096908288,-0.500313574057889
0.189565621801967,-0.504481431195763
0.194917078140523,-0.508630369731932
0.200239424705767,-0.512758011739863
0.205532620279506,-0.516861979293018
0.210796623643549,-0.520939894464863
0.216031393579705,-0.524989379328862
0.221236888869783,-0.52900805595848
0.226413068295591,-0.53299354642718
0.231559890638939,-0.536943472808429
0.236677314681635,-0.540855457175689
0.241765299205487,-0.544727121602427
0.246823802992305,-0.548556088162105
0.251852784823897,-0.55233997892819
0.256852203482071,-0.556076415974144
0.261822017748638,-0.559763021373434
0.266762186405405,-0.563397417199523
0.271672668234181,-0.566977225525875
0.276553422016776,-0.570500068425956
0.281404406534996,-0.573963567973231
0.286225580570653,-0.577365346241162
0.291016902905553,-0.580703025303216
0.295778332321506,-0.583974227232856
0.300509827600321,-0.587176574103547
0.305211347523806,-0.590307687988754
0.309882850873771,-0.59336519096194
0.314524296432023,-0.596346705096572
0.319135642980372,-0.599249852466112
0.323716849300626,-0.602072255144026
0.328267874174594,-0.604811535203779
0.332788676384085,-0.607465314718834
0.337279214710908,-0.610031215762656
0.341739447936871,-0.61250686040871
0.346169334843783,-0.614889870730461
0.350568834213453,-0.617177868801372
0.354937904827689,-0.619368476694909
0.359276505468301,-0.621459316484536
0.363584594917097,-0.623448010243717
0.367862131955885,-0.625332180045917
0.372109075366475,-0.6271094479646
0.376325383930676,-0.628777436073232
0.380511016430295,-0.630333766445276
0.384665931647142,-0.631776061154197
0.388790088363026,-0.633101942273459
0.392883445359755,-0.634309031876528
0.396945961419137,-0.635394952036868
0.400977595322983,-0.636357324827942
0.4049783058531,-0.637193772323216
0.408948051791297,-0.637901916596155
0.412886791919383,-0.638479379720222
0.416794485019167,-0.638923783768883
0.420671089872457,-0.639232750815601
0.424516565261063,-0.639403902933842
0.428330869966792,-0.639434862197069
0.432113962771454,-0.639323250678748
0.435865802456858,-0.639066690452343
0.439586347804811,-0.638662803591318
0.443275557597124,-0.638109212169138
0.446933390615604,-0.637403538259268
0.450559805642061,-0.636543403935171
0.454154761458302,-0.635526431270314
0.457718216846138,-0.634350242338159
0.461250130587376,-0.633012459212172
0.464750461463826,-0.631510703965817
0.468219168257295,-0.629842598672559
0.471656209749594,-0.628005765405861
0.47506154472253,-0.62599782623919
0.478435131957912,-0.623816403246009
0.480110007293336,-0.622659892212435
0.483426718138732,-0.620248360151765
0.486693085990117,-0.61772888292372
0.489908863811469,-0.615102581961386
0.493073804566771,-0.61237057869785
0.49618766122,-0.609533994566198
0.499250186735139,-0.606593950999515
0.502261134076165,-0.603551569430887
0.505220256207061,-0.6004079712934
0.508127306091805,-0.59716427802014
0.510982036694378,-0.593821611044194
0.51378420097876,-0.590381091798647
0.516533551908931,-0.586843841716585
0.519229842448871,-0.583210982231095
0.52187282556256,-0.579483634775262
0.524462254213978,-0.575662920782172
0.526997881367106,-0.571749961684911
0.529479459985922,-0.567745878916565
0.531906743034408,-0.56365179391022
0.534279483476544,-0.559468828098963
0.536597434276309,-0.555198102915879
0.538860348397683,-0.550840739794053
0.541067978804647,-0.546397860166573
0.543220078461181,-0.541870585466524
0.545316400331264,-0.537260037126992
0.547356697378877,-0.532567336581063
0.549340722568001,-0.527793605261823
0.551268228862614,-0.522939964602358
0.553138969226697,-0.518007536035754
0.55495269662423,-0.512997440995097
0.556709164019194,-0.507910800913473
0.558408124375567,-0.502748737223968
0.560049330657331,-0.497512371359668
0.561632535828465,-0.492202824753659
0.56315749285295,-0.486821218839026
0.564623954694765,-0.481368675048857
0.566031674317891,-0.475846314816237
0.567380404686307,-0.470255259574251
0.568669898763994,-0.464596630755986
0.569899909514932,-0.458871549794528
0.5710701899031,-0.453081138122963
0.57218049289248,-0.447226517174377
0.57323057144705,-0.441308808381855
0.574220178530792,-0.435329133178484
0.562954427501149,-0.424482403215608
0.609657559367635,-0.417632632252197
0.605808534217555,-0.403211826421028
0.577568951437069,-0.410813196918228
0.573584948826658,-0.406997134563426
0.569415466613494,-0.399788943846454
0.574084102637846,-0.389521480174817
0.543567561716324,-0.379906010938922
0.580364665153872,-0.378908604319119
0.580735970548227,-0.372370943826985
0.576335290259732,-0.3702065086836
0.581288767699773,-0.359147852335094
0.572826571898778,-0.296278906681307
0.581586833094967,-0.345735209720276
0.575898395556442,-0.359031322637942
0.60756287128406,-0.328677345823141
0.581551986014248,-0.325280462521569
0.573038736414624,-0.321942960929199
0.581204575757863,-0.311433192257446
0.583348885441981,-0.294505877117274
0.581005157586722,-0.257594915324586
0.579639799066264,-0.287461074544354
0.562536599757451,-0.263261407155705
0.582551660094226,-0.269761199120646
0.578584547246606,-0.268978361344722
0.602298042583247,-0.238160602041814
0.565604297058294,-0.240581519081984
0.580805120070854,-0.244328191536786
0.57550326723909,-0.240004005282821
0.574563858448693,-0.232686804138956
0.608578234944177,-0.277719153924108
0.572480405069539,-0.217971917328762
0.571335866408742,-0.210576474528605
0.570122457052438,-0.203157194042521
0.568839929964607,-0.195715197303598
0.56748803810923,-0.188251605744921
0.566066534450287,-0.180767540799577
0.564575171951757,-0.17326412390065
0.56301370357762,-0.165742476481228
0.561381882291858,-0.158203719974396
0.559679461058449,-0.15064897581324
0.557906192841374,-0.143079365430847
0.556061830604612,-0.135496010260301
0.554146127312145,-0.12790003173469
0.552158835927952,-0.120292551287098
0.550099709416013,-0.112674690350613
0.547968500740308,-0.10504757035832
0.545764962864817,-0.0974123127433045
0.543488848753521,-0.0897700389386534
0.541139911370399,-0.0821218703774524
0.538717903679432,-0.0744689284927873
0.536222578644599,-0.0668123347177443
0.53365368922988,-0.0591532104854092
0.531010988399256,-0.0514926772288682
0.528294229116707,-0.043831856381207
0.525503164346213,-0.0361718693755119
0.522637547051753,-0.0285138376448686
0.519697130197309,-0.0208588826223633
0.516681666746859,-0.0132081257410818
0.513590909664385,-0.00556268843411026
0.510424611913865,0.00207630786546545
0.507182526459281,0.00970774172455928
0.503864406264612,0.0173304917100853
0.500470004293838,0.0249434363889575
0.49699907351094,0.0325454543280899
0.493451366879897,0.0401354240943965
0.48982663736469,0.0477122242547913
0.486124637929298,0.0552747333761883
0.482345121537702,0.0628218300255016
0.478487841153881,0.0703523927696452
0.474552549741817,0.077865300175533
0.470539000265488,0.0853594308100792
0.466446945688875,0.0928336632401976
0.462276138975958,0.100286876032802
0.458026333090717,0.107717947754808
0.453697280997133,0.115125756973127
0.449288735659184,0.122509182254675
0.444800450040852,0.129867102166365
0.440232177106116,0.137198395275112
0.435583669818956,0.144501940147829
0.430854681143353,0.15177661535143
0.426044964043287,0.15902129945283
0.421154271482736,0.166234871018942
0.416182356425683,0.173416208616681
0.411128971836106,0.180564190812961
0.405993870677987,0.187677696174695
0.400776805915304,0.194755603268797
0.395477530512037,0.201796790662182
0.390095797432168,0.208800136921763
0.384631359639676,0.215764520614455
0.379083970098541,0.222688820307172
0.373453381772744,0.229571914566827
0.367739347626263,0.236412681960335
0.36194162062308,0.243210001054609
0.356059953727174,0.249962750416564
0.350094099902526,0.256669808613114
0.344043812113115,0.263330054211172
0.337908843322922,0.269942365777653
0.331688946495926,0.276505621879471
0.325383874596108,0.28301870108354
0.318993380587448,0.289480481956773
0.312517217433926,0.295889843066085
0.305955138099522,0.302245662978389
0.299306895548216,0.308546820260601
0.292572242743988,0.314792193479633
0.285750932650817,0.3209806612024
0.278842718232686,0.327111101995816
0.271847352453572,0.333182394426795
0.264764588277457,0.33919341706225
0.25759417866832,0.345143048469097
0.250335876590141,0.351030167214248
0.242989435006901,0.356853651864618
0.23555460688258,0.362612380987121
0.228031145181157,0.368305233148671
0.220418802866614,0.373931086916182
0.212717332902928,0.379488820856568
0.204926488254082,0.384977313536743
0.197046021884055,0.390395443523621
0.189075686756827,0.395742089384116
0.181015235836377,0.401016129685141
0.172864422086687,0.406216442993612
0.164622998471736,0.411341907876442
0.156290717955505,0.416391402900545
0.147867333501972,0.421363806632835
0.139352598075119,0.426257997640226
0.130746264638926,0.431072854489633
0.122048086157372,0.435807255747968
0.113257815594438,0.440460079982146
0.104375205914103,0.445030205759082
0.0954000100803482,0.449516511645689
0.0863319810571531,0.45391787620888
0.0771708718084978,0.458233178015572
0.0679164352983625,0.462461295632676
0.0585684244907272,0.466601107627107
0.049126592349572,0.47065149256578
0.0395906918388769,0.474611329015608
0.029960475922622,0.478479495543506
0.0202356975647874,0.482254870716386
0.0104161097293531,0.485936333101164
0.000501465380299236,0.489522761264753
-0.00950848251839417,0.493013033774068
-0.019613981002747,0.496406029196021
-0.0298152771087793,0.499700626097528
-0.0401126178725109,0.502895703045503
-0.0505062503299617,0.505990138606859
-0.0609964215171517,0.50898281134851
-0.0715833784701009,0.511872599837371
-0.0822673682248291,0.514658382640355
-0.0930486378173563,0.517339038324377
-0.103927434283702,0.51991344545635
-0.114904004659887,0.522380482603188
-0.125978595981931,0.524739028331806
-0.137151455285854,0.526987961209118
-0.148422829607675,0.529126159802037
-0.159792965983415,0.531152502677477
-0.171262111449093,0.533065868402353
-0.177033889789415,0.53397983438549
-0.188460613075597,0.535738631348793
-0.199606053076513,0.537416886590177
-0.210473288901122,0.53901533823967
-0.221065399658386,0.5405347244273
-0.231385464457266,0.541975783283093
-0.241436562406721,0.543339252937078
-0.251221772615714,0.544625871519282
-0.260744174193204,0.545836377159732
-0.270006846248152,0.546971507988455
-0.27901286788952,0.548032002135479
-0.287765318226268,0.549018597730832
-0.296267276367356,0.54993203290454
-0.304521821421745,0.550773045786631
-0.312532032498397,0.551542374507134
-0.320300988706272,0.552240757196074
-0.32783176915433,0.55286893198348
-0.335127452951533,0.553427636999378
-0.34219111920684,0.553917610373797
-0.349025847029214,0.554339590236764
-0.355634715527614,0.554694314718306
-0.362020803811002,0.55498252194845
-0.368187190988337,0.555204950057225
-0.374136956168582,0.555362337174656
-0.379873178460696,0.555455421430773
-0.38539893697364,0.555484940955602
-0.390717310816376,0.55545163387917
-0.395831379097863,0.555356238331506
-0.400744220927063,0.555199492442636
-0.405458915412936,0.554982134342587
-0.409978541664443,0.554704902161389
-0.414306178790545,0.554368534029067
-0.418444905900203,0.553973768075649
-0.422397802102376,0.553521342431162
-0.426167946506027,0.553011995225635
-0.429758418220116,0.552446464589094
-0.433172296353603,0.551825488651567
-0.43641266001545,0.551149805543081
-0.439482588314616,0.550420153393664
-0.442385160360064,0.549637270333343
-0.445123455260753,0.548801894492145
-0.447700552125644,0.547914764000098
-0.450119530063698,0.54697661698723
-0.452383468183876,0.545988191583567
-0.454495445595138,0.544950225919138
-0.456458541406446,0.543863458123969
-0.458275834726759,0.542728626328088
-0.45995040466504,0.541546468661522
-0.461485330330248,0.5403177232543
-0.462883690831344,0.539043128236447
-0.464148565277289,0.537723421737993
-0.465283032777044,0.536359341888963
-0.466290172439569,0.534951626819386
-0.467173063373825,0.533501014659289
-0.467934784688774,0.532008243538699
-0.468578415493375,0.530474051587644
-0.469107034896589,0.528899176936151
-0.469523722007378,0.527284357714247
-0.469831555934702,0.525630332051961
-0.470033615787521,0.523937838079319
-0.470132980674797,0.522207613926349
-0.47013272970549,0.520440397723078
-0.470035941988561,0.518636927599534
-0.469845696632971,0.516797941685744
-0.46956507274768,0.514924178111736
-0.469197149441649,0.513016375007536
-0.468745005823839,0.511075270503173
-0.468211721003211,0.509101602728673
-0.467600374088725,0.507096109814065
-0.466914044189343,0.505059529889376
-0.466155810414024,0.502992601084632
-0.46532875187173,0.500896061529862
-0.464435947671421,0.498770649355093
-0.463480476922058,0.496617102690351
-0.462465418732603,0.494436159665666
-0.461393852212015,0.492228558411064
-0.460268856469255,0.489995037056572
-0.459093510613284,0.487736333732218
-0.457870893753064,0.48545318656803
-0.456604084997553,0.483146333694035
-0.455296163455715,0.480816513240259
-0.453950208236508,0.478464463336731
-0.452569298448894,0.476090922113479
-0.451156513201834,0.473696627700528
-0.449714931604288,0.471282318227908
-0.448247632765217,0.468848731825645
-0.446757695793582,0.466396606623766
-0.445248199798343,0.4639266807523
-0.443722223888462,0.461439692341273
-0.442182847172899,0.458936379520714
-0.440633148760615,0.456417480420648
-0.43907620776057,0.453883733171105
-0.437515103281726,0.45133587590211
-0.435952914433042,0.448774646743692
-0.434392720323481,0.446200783825879
-0.432837600062002,0.443615025278696
-0.431290632757566,0.441018109232173
-0.429754897519134,0.438410773816336
-0.428233473455667,0.435793757161213
-0.426729439676126,0.43316779739683
-0.425245875289471,0.430533632653217
-0.423785859404663,0.427892001060399
-0.422352471130662,0.425243640748405
-0.420948789576431,0.422589289847261
-0.419577893850928,0.419929686486996
-0.418242863063115,0.417265568797636
-0.416946776321953,0.41459767490921
-0.415692712736403,0.411926742951744
-0.414483751415425,0.409253511055266
-0.41332297146798,0.406578717349803
-0.412213452003028,0.403903099965382
-0.411158272129531,0.401227397032032
-0.410160510956449,0.39855234667978
-0.409223247592744,0.395878687038653
-0.408349561147375,0.393207156238678
-0.407542530729303,0.390538492409882
-0.406805235447489,0.387873433682294
-0.406140754410895,0.385212718185941
-0.40555216672848,0.38255708405085
-0.405042551509206,0.379907269407048
-0.404614987862033,0.377264012384563
-0.404272554895921,0.374628051113423
-0.404018331719833,0.372000123723654
-0.403855397442728,0.369380968345284
-0.403786831173567,0.366771323108341
-0.403815712021311,0.364171926142852
-0.40394511909492,0.361583515578844
-0.404178131503356,0.359006829546345
-0.404517828355579,0.356442606175383
-0.40496728876055,0.353891583595984
-0.40552959182723,0.351354499938176
-0.406207816664579,0.348832093331987
-0.407005042381558,0.346325101907444
-0.407924348087128,0.343834263794573
-0.40896881289025,0.341360317123404
-0.410141515899884,0.338904000023963
-0.411445536224991,0.336466050626277
-0.412883952974533,0.334047207060375
-0.414459845257468,0.331648207456283
-0.416176292182759,0.329269789944029
-0.418036372859366,0.32691269265364
-0.42004316639625,0.324577653715143
-0.422199751902372,0.322265411258567
-0.424509208486692,0.319976703413938
-0.426974615258171,0.317712268311285
-0.42959905132577,0.315472844080633
-0.432385595798449,0.313259168852011
-0.43533732778517,0.311071980755447
-0.438457326394892,0.308912017920967
-0.441748670736578,0.306780018478599
-0.445214439919187,0.304676720558371
-0.448857713051681,0.302602862290309
-0.452681569243019,0.300559181804442
-0.456689087602163,0.298546417230796
-0.460883347238074,0.2965653066994
-0.465267427259712,0.29461658834028
-0.469844406776039,0.292701000283464
-0.474617364896013,0.290819280658979
-0.479589380728598,0.288972167596853
-0.484763533382753,0.287160399227114
-0.490142901967438,0.285384713679788
-0.495730565591616,0.283645849084902
-0.501529603364246,0.281944543572486
-0.507543094394289,0.280281535272565
-0.513774117790707,0.278657562315168
-0.520225752662459,0.277073362830321
-0.526901078118506,0.275529674948052
-0.53380317326781,0.274027236798389
-0.54093511721933,0.272566786511359
-0.548299989082029,0.271149062216989
-0.555900867964866,0.269774802045307
-0.563740832976802,0.268444744126341
-0.571822963226798,0.267159626590117
-0.580150337823815,0.265920187566662
-0.588726035876813,0.264727165186006
-0.597553136494754,0.263581297578174
-0.606634718786597,0.262483322873195
-0.615973861861304,0.261433979201095
-0.625573644827836,0.260434004691902
-0.635437146795153,0.259484137475644
-0.645567446872215,0.258585115682348
-0.655967624167985,0.257737677442041
-0.666640757791422,0.256942560884752
-0.677589926851486,0.256200504140506
-0.68881821045714,0.255512245339332
-0.700328687717344,0.254878522611257
-0.712124437741058,0.254300074086308
-0.724208539637243,0.253777637894514
-0.73658407251486,0.2533119521659
-0.749254115482869,0.252903755030496
-0.762221747650233,0.252553784618327
-0.77549004812591,0.252262779059423
-0.789062096018862,0.252031476483809
-0.802940970438049,0.251860615021513
-0.817129750492434,0.251750932802564
-0.831631515290975,0.251703167956987
-0.846449343942634,0.251718058614811
-0.861586315556371,0.251796342906064
-0.877045509241149,0.251938758960771
-0.892830004105926,0.252146044908962
