0.298357755044891,-0.176996181574435
0.179848596824988,-0.279143667476479
0.180306659852412,-0.278033205765235
0.297855113112595,-0.1885082671456
0.297608826767677,-0.19223298465544
0.201017810558668,-0.312095923705917
0.20196809637867,-0.318443182052147
0.296637474454324,-0.203073635198993
0.296237079215067,-0.206577073064777
0.295798821720772,-0.210025982279489
0.295322967958857,-0.213420679347105
0.294809783916739,-0.216761480771603
0.294259535581838,-0.220048703056959
0.293672488941571,-0.22328266270715
0.293048909983358,-0.226463676226153
0.292389064694616,-0.229592060117944
0.291693219062765,-0.232668130886501
0.290961639075221,-0.235692205035799
0.290194590719404,-0.238664599069817
0.381375366784364,-0.122690226561328
0.288555152852624,-0.244455612807915
0.287683295316498,-0.247274865519949
0.286777033361772,-0.250043704132609
0.285836632975864,-0.252762445149872
0.284862360146193,-0.255431405075715
0.283854480860178,-0.258050900414113
0.282813261105236,-0.260621247669045
0.281738966868787,-0.263142763344486
0.184295534246275,-0.370331119567819
0.279492218901038,-0.268040565972805
0.278320297144575,-0.270417485933637
0.277116364856277,-0.272746840330885
0.275880688023564,-0.275028945668527
0.274613532633854,-0.277264118450539
0.377487190476755,-0.169099809887704
0.271985850133112,-0.281594932363581
0.270625854996919,-0.283691206502566
0.269235445253401,-0.285741814101827
0.267814886889978,-0.287747071665343
0.266364445894068,-0.28970729569709
0.174669633246609,-0.410387555803245
0.263374979954458,-0.293493909181184
0.261836486985596,-0.295320931641484
0.26026917533392,-0.297104186585923
0.258673310986848,-0.298843990518476
0.357005791488069,-0.183755638724084
0.255396988156193,-0.302194511363836
0.253717061647445,-0.303805861284594
0.252009646392976,-0.305375026209376
0.250275008380203,-0.306902322642155
0.348795378350519,-0.194647037316197
0.153032422177954,-0.421048320984861
0.244910417666247,-0.311236166028255
0.243069548494443,-0.312599153532797
0.241202786501429,-0.313921855065223
0.23931039767462,-0.315204587129507
0.237392648001438,-0.316447666229628
0.235449803469298,-0.317651408869562
0.23348213006562,-0.318816131553285
0.231489893777823,-0.319942150784775
0.229473360593325,-0.321029783068009
0.227432796499543,-0.322079344906962
0.225368467483897,-0.323091152805612
0.223280639533804,-0.324065523267936
0.221169578636684,-0.32500277279791
0.219035550779955,-0.325903217899511
0.216878821951034,-0.326767175076716
0.214699658137341,-0.327594960833502
0.212498325326293,-0.328386891673845
0.323803208659045,-0.210393715029999
0.208030216661808,-0.329864454621111
0.205763972783208,-0.330550719735988
0.203476623856927,-0.331202395950329
0.201168435870383,-0.331819799768111
0.303737117335102,-0.217725459422463
0.196490606666182,-0.332953056229906
0.091352270329245,-0.449822483416505
0.191732613069953,-0.333953021153188
0.189324219593373,-0.334403810547829
0.186896582981041,-0.334822226569771
0.184449969220375,-0.335208585722992
0.181984644298794,-0.335563204511469
0.179500874203716,-0.335886399439178
0.280241023460504,-0.237804619068185
0.174479062442743,-0.336439783728199
0.171941552751684,-0.336670606097466
0.169386661836802,-0.336871270621871
0.166814655685515,-0.337042093805393
0.255457987743679,-0.242444119135085
0.161620361623399,-0.337295482165693
0.158998605687407,-0.337378680350424
0.156360798464683,-0.337433303210178
0.153707205942646,-0.337459667248932
0.151038094108715,-0.337458088970663
0.148353728950307,-0.337428884879348
0.14565437645484,-0.337372371478963
0.142940302609735,-0.337288865273485
0.241028099533673,-0.217610711560208
0.137469054820278,-0.337042140463157
0.134712412850763,-0.336879554866261
0.131942113481283,-0.336691242480179
0.0326314112768605,-0.439028427227156
0.126361606492097,-0.336238703356365
0.242705605908518,-0.242793518808291
0.120729661752066,-0.33568705512353
0.117895065194031,-0.33537485635117
0.11504840716054,-0.335038829813486
0.112189953639011,-0.334679292014453
0.109319970616863,-0.334296559458049
0.106438724081514,-0.333890948648249
0.103546480020383,-0.333462776089032
0.100643504420888,-0.333012358284373
0.0977300632704473,-0.33254001173825
0.0948064225564797,-0.332046052954639
0.091872848266403,-0.331530798437517
0.088929606387636,-0.330994564690861
0.085976962907597,-0.330437668218648
0.0830151838137043,-0.329860425524854
0.0800445350933763,-0.329263153113456
0.0770652827340313,-0.32864616748843
0.074077692723088,-0.328009785153755
0.0710820310479644,-0.327354322613406
0.068078563696079,-0.32668009637136
0.0650675566548502,-0.325987422931594
0.0620492759116965,-0.325276618798085
0.0590239874540361,-0.324548000474809
0.0559919572692874,-0.323801884465744
0.0529534513448689,-0.323038587274865
0.0499087356681989,-0.322258425406151
0.0468580762266959,-0.321461715363577
0.043801739007778,-0.320648773651121
0.0407399899988638,-0.319819916772758
0.0376730951873716,-0.318975461232467
-0.0620594987911947,-0.435728124247602
0.031524932106327,-0.317241020182004
0.0284441958116112,-0.316351667679786
0.025359377663991,-0.315447982531546
0.0222707436508847,-0.314530281241261
0.0191785597597107,-0.313598880312908
0.0160830919778874,-0.312654096250463
0.0129846062928333,-0.311696245557903
0.00988336869196652,-0.310725644739205
0.0067796451627056,-0.309742610298345
0.00367370169246885,-0.308747458739301
0.000565804268674808,-0.307740506566049
-0.0025437811212583,-0.306722070282566
-0.00565478848991205,-0.305692466392829
-0.00876695184986814,-0.304652011400815
-0.0118800052137081,-0.3036010218105
-0.0149936825940134,-0.30253981412586
-0.018107718003366,-0.301468704850874
-0.0212218454543473,-0.300388010489517
-0.024335798959539,-0.299298047545767
-0.0274493125315225,-0.2981991325236
-0.0305621201828798,-0.297091581926993
-0.0336739559261923,-0.295975712259922
-0.0367845537740416,-0.294851840026365
-0.0398936477390093,-0.293720281730299
-0.0430009718336772,-0.292581353875699
-0.0461062600706268,-0.291435372966543
-0.0492092464624396,-0.290282655506808
-0.0523096650216974,-0.28912351800047
-0.0554072497609818,-0.287958276951506
-0.0585017346928743,-0.286787248863893
-0.0615928538299567,-0.285610750241608
-0.0646803411848104,-0.284429097588627
-0.0677639307700172,-0.283242607408927
-0.0708433565981587,-0.282051596206486
-0.0739183526818164,-0.280856380485279
-0.0769886530335721,-0.279657276749284
-0.0800539916660072,-0.278454601502477
-0.0831141025917036,-0.277248671248835
0.0312790968409798,-0.175470432030233
-0.204598351162635,-0.373838225099155
-0.0922604092541754,-0.273614515486667
-0.0952969494787325,-0.272398730245453
-0.0983269320594588,-0.271181272517289
-0.101350091008936,-0.26996245880615
-0.104366160339746,-0.268742605616013
-0.107374874064469,-0.267522029450855
-0.110375966195689,-0.266301046814654
-0.113369170745985,-0.265079974211386
-0.116354221727941,-0.263859128145027
-0.119330853154138,-0.262638825119554
-0.122298799037156,-0.261419381638945
-0.125257793389578,-0.260201114207175
-0.128207570223986,-0.258984339328222
-0.131147863552961,-0.257769373506063
-0.134078407389084,-0.256556533244674
-0.136998935744938,-0.255346135048031
-0.139909182633104,-0.254138495420113
-0.142808882066163,-0.252933930864895
-0.145697768056697,-0.251732757886355
-0.148575574617289,-0.250535292988468
-0.151442035760518,-0.249341852675213
-0.154296885498968,-0.248152753450565
-0.157139857845219,-0.246968311818501
-0.159970686811853,-0.245788844282999
-0.162789106411453,-0.244614667348034
-0.165594850656598,-0.243446097517585
-0.168387653559872,-0.242283451295627
-0.171167249133856,-0.241127045186137
-0.281734199587083,-0.353116202247951
-0.176685754344279,-0.238834219320469
-0.179424132005881,-0.237698432572244
-0.18214823838852,-0.236570151952395
-0.184857807504777,-0.235449693964898
-0.0961231803568331,-0.123859573153998
-0.19023226998847,-0.233233511902868
-0.19289663138107,-0.232138420836288
-0.309047825152595,-0.329655685999968
-0.198178284530684,-0.229975821151883
-0.296830644462036,-0.346562049569948
-0.203395404916728,-0.227852108092329
-0.297848300049001,-0.332354044249531
-0.115469267573773,-0.123620874832474
-0.21109543178428,-0.224744989744187
-0.21362753580072,-0.223731469975031
-0.216141910701756,-0.222729570885948
-0.218638290499972,-0.221739608980915
-0.221116409207949,-0.220761900763909
-0.124675744652233,-0.108380365850886
-0.226016799403509,-0.218844511409886
-0.228438538916257,-0.217905463280821
-0.230840953389091,-0.216979934855691
-0.233223776834594,-0.216068242638472
-0.345455881574536,-0.322459242653797
-0.133787560342549,-0.102853436608662
-0.240252041132932,-0.213419348274047
-0.242553840594925,-0.212566165928238
-0.244834719092496,-0.211728402310225
-0.247094410638225,-0.210906373923983
-0.249332649244693,-0.210100397273489
-0.251549168924484,-0.20931078886272
-0.253743703690177,-0.208537865195653
-0.255915987554355,-0.207781942776264
-0.2580657545296,-0.207043338108531
-0.260192738628493,-0.20632236769643
-0.262296673863615,-0.205619348043938
-0.264377294247549,-0.204934595655031
-0.266434333792875,-0.204268427033687
-0.268467526512177,-0.203621158683882
-0.270476606418034,-0.202993107109593
-0.272461307523029,-0.202384588814797
-0.274421363839743,-0.20179592030347
-0.276356509380759,-0.20122741807959
-0.278266478158657,-0.200679398647132
-0.280151004186019,-0.200152178510075
-0.374617219987982,-0.307432169035078
-0.176686807033781,-0.0920604556064311
-0.285649265890707,-0.198698478911069
-0.287429361041743,-0.198257620995378
-0.185618201876011,-0.0951671009242629
-0.400135416404881,-0.293958536472034
-0.29260794641941,-0.197070604155916
-0.294279354895424,-0.196721172525221
-0.202210886907654,-0.0914124040941916
-0.297538395948131,-0.196093569261381
-0.299125496549987,-0.195816030636188
-0.300683962552287,-0.195563089354117
-0.302213527967611,-0.195335061919144
-0.303713926808543,-0.195132264835245
-0.305184893087663,-0.194955014606398
-0.306626160817554,-0.194803627736579
-0.308037464010796,-0.194678420729765
-0.309418536679971,-0.194579710089933
-0.310769112837662,-0.194507812321059
-0.312088926496449,-0.194463043927121
-0.420712100585902,-0.299462750139208
-0.31463520236764,-0.194456161279957
-0.315861132605207,-0.194494680034685
-0.317055236394197,-0.194561594180255
-0.318217247747192,-0.194657220220645
-0.319346900676773,-0.19478187465983
-0.320443929195522,-0.194935874001789
-0.21573053825963,-0.0983411121565638
-0.226125794935691,-0.0841276566365771
-0.440408782713463,-0.292042315202117
-0.32450047941383,-0.195851650476884
-0.325430396067143,-0.196157121892358
-0.326326092385114,-0.196493837234465
-0.327187302380324,-0.196862113007181
-0.432190708377155,-0.288435194966451
-0.218934319003179,-0.0811807748135394
-0.329561354555207,-0.198159467948761
-0.330281959385191,-0.198657150483686
-0.330966747955322,-0.199187975969105
-0.331615454278182,-0.199752260908995
-0.332227812366353,-0.200350321807332
-0.332803556232416,-0.200982475168094
-0.333342419888953,-0.201649037495256
-0.333844137348545,-0.202350325292797
-0.334308442623775,-0.203086655064692
-0.334735069727223,-0.203858343314919
-0.232866652841596,-0.0956605168095737
-0.429690651023622,-0.306936896820803
-0.335786222132697,-0.206388723975355
-0.336059476674836,-0.207305011178675
-0.336293723108103,-0.20825823938021
-0.238730278598628,-0.115129803003616
-0.336644127698342,-0.210276784793834
-0.336759753880479,-0.211342735013875
-0.22426344919581,-0.120513515160698
-0.336870524081694,-0.213589573000302
-0.336865136125935,-0.214771093774641
-0.336818878149375,-0.215991771075033
-0.336731484164594,-0.217251921405454
-0.336602688184175,-0.218551861269882
-0.336432224220699,-0.219891907172292
-0.336219826286748,-0.221272375616662
-0.335965228394903,-0.222693583106969
-0.335668164557746,-0.224155846147189
-0.245002161549612,-0.132268947571239
-0.334945575097821,-0.227204804893276
-0.334519517500218,-0.228792133607096
-0.334049930007628,-0.230421783886737
-0.333536546632635,-0.232094072236175
-0.451087159074417,-0.341080373186832
-0.332377328285763,-0.23556782916035
-0.331730961339047,-0.237369930743041
-0.331039734560254,-0.239215936411435
-0.330303381961965,-0.241106162669511
-0.329521637556761,-0.243040926021244
-0.328694235357225,-0.245020542970612
-0.442810701692685,-0.358190809161034
-0.326901393625482,-0.249115603678159
-0.325935422118438,-0.251231680444292
-0.324922728867387,-0.253393876823966
-0.323863047884912,-0.255602509321158
-0.322756113183594,-0.257857894439846
-0.223179858657841,-0.14028955809815
-0.320399418674756,-0.262510188557614
-0.319149126892399,-0.264907730564648
-0.317850517441526,-0.267353291209085
-0.316503324334717,-0.2698471869949
-0.315107281584556,-0.272389734426072
-0.313662123203623,-0.274981250006576
-0.3121675832045,-0.277622050240389
-0.310623395599768,-0.280312451631489
-0.19285360111469,-0.187043724747036
-0.307385013623807,-0.285843323901454
-0.30569028727774,-0.288684427788273
-0.303944849376391,-0.291576398848285
-0.302148433932342,-0.294519553585467
-0.300300774958175,-0.297514208503796
-0.29840160646647,-0.300560680107249
-0.415374760463534,-0.406132345392458
-0.294447676980776,-0.306810339385432
-0.29239238401195,-0.310014160068115
-0.176321106853638,-0.198862371501282
-0.186501132321382,-0.206682180950118
-0.285910000352535,-0.319945384338259
-0.283642817590357,-0.323363434848926
-0.281321997411294,-0.326835834076531
-0.38676119327848,-0.449528397266766
-0.276518380852844,-0.333944944698462
-0.274035052498619,-0.337582289100741
-0.271497022777836,-0.341275248235865
-0.268904025703078,-0.345024138607811
-0.266255795286925,-0.348829276720555
-0.153915156745966,-0.251708596088513
-0.260792570480763,-0.356609562184345
-0.257977044115916,-0.360585342543345
-0.255105220460002,-0.364618636659051
-0.351644832027467,-0.480532429122901
-0.249191617325297,-0.372859032176485
-0.246149305871669,-0.377066766586168
-0.344557686542422,-0.478114213140894
-0.239892333254771,-0.385658891227348
-0.13144832366024,-0.292306873363478
-0.23340378777556,-0.394488666990792
-0.230072010244041,-0.398993465303306
-0.226681541534689,-0.403558625908316
-0.223232115660086,-0.408184465309799
-0.219723466632812,-0.412871300011732
-0.330980901712238,-0.536267224339197
-0.212527435170581,-0.422429221332855
-0.208839520760787,-0.427300940959999
-0.205091319248649,-0.4322349219035
-0.20128256464675,-0.437231480667335
-0.0851128059575993,-0.334891139586876
-0.193482332223991,-0.447413597671914
-0.189490322428295,-0.45259978892061
-0.185436695593164,-0.457849824005549
-0.181321185731179,-0.463164019430704
-0.177143526854922,-0.468542691700055
-0.172903452976974,-0.473986157317576
-0.168600698109917,-0.479494732787246
-0.164234996266333,-0.48506873461304
-0.159806081458803,-0.490708479298937
-0.155313687699909,-0.496414283348911
-0.150757549002232,-0.502186463266941
-0.146137399378354,-0.508025335557002
-0.141452972840857,-0.513931216723073
-0.136704003402323,-0.519904423269128
-0.131890225075332,-0.525945271699147
-0.127011371872468,-0.532054078517103
-0.12206717780631,-0.538231160226976
-0.117057376889441,-0.544476833332742
-0.111981703134442,-0.550791414338377
-0.111981703134442,-0.550791414338377
-0.106893457003579,-0.557095744550757
-0.101846017974022,-0.563310717765796
-0.0968392385807123,-0.569436729221023
-0.0918729713585927,-0.575474174153968
-0.0869470688426044,-0.581423447802161
-0.082061383567689,-0.587284945403131
-0.0772157680687884,-0.593059062194409
-0.0724100748808443,-0.598746193413525
-0.0676441565387982,-0.604346734298008
-0.0629178655775919,-0.609861080085388
-0.0582310545321671,-0.615289626013195
-0.0535835759374656,-0.620632767318959
-0.0489752823284289,-0.625890899240211
-0.0444060262399987,-0.631064417014479
-0.0398756602071168,-0.636153715879294
-0.035384036764725,-0.641159191072185
-0.0309310084477647,-0.646081237830683
-0.0265164277911779,-0.650920251392318
-0.022140147329906,-0.655676626994618
-0.017802019598891,-0.660350759875115
0.0188727755566012,-0.693434215541657
0.0225220423237159,-0.689956469668435
-0.0011845428371914,-0.656343056544489
-0.000828086676232014,-0.678232768929662
0.00301397085355752,-0.729429246801352
-0.0398404442549545,-0.637578595696428
0.0115089851359233,-0.690800093780597
-0.021183324435009,-0.71488785280596
0.0195485888533115,-0.698782247510847
0.0049314474119764,-0.732778298329489
0.027441480252005,-0.706451239855077
0.0765536294738147,-0.689490026935735
0.0473630095047522,-0.715398900223221
0.0470355906602022,-0.731811822008328
-0.00471499792959405,-0.72653903104011
0.159815167264667,-0.619478763915823
0.0427121998214043,-0.764204402700485
0.00798758063523017,-0.733316734183662
0.00788856969082337,-0.716239370206161
0.0267072830454058,-0.74273829268281
0.0647465426813762,-0.740209447294303
0.0515167625535096,-0.750797972289428
0.119095751220038,-0.781070338766717
0.075250636020041,-0.74888475004361
0.0559357010383287,-0.771284645867794
0.0463467751672726,-0.786183015900986
0.085444534424514,-0.756908796740907
0.0887742565220122,-0.759440599848033
0.116612315842657,-0.804785567946883
0.0572300562518672,-0.757227682527777
0.0985607552133446,-0.766612905118907
0.0906410661068903,-0.741740317874713
0.111177365965014,-0.737931554897456
0.108046349269158,-0.773158854302156
0.11114203442792,-0.77520349156335
0.234197505672482,-0.686140466337387
0.132347268858802,-0.733517614108496
0.161789156053771,-0.769104763142559
-0.0269157227548959,-0.911047295408298
0.172218828677163,-0.777673093132408
0.113531767130173,-0.813199406276646
0.121697049622015,-0.750392630034934
0.199722145173626,-0.620701303770338
0.177729828940218,-0.820573393190619
0.142502576805291,-0.767087552676392
0.188817510595232,-0.82060715624899
0.147045923998754,-0.769521896025569
0.148450815850685,-0.795738352883534
0.151100104495544,-0.79686675836976
0.143216802261449,-0.811502072168882
0.156306490818295,-0.798936522043814
0.158863883426304,-0.799878670706702
0.161390938952146,-0.800759524236871
0.0670872844772806,-0.918134018548202
0.166354628617565,-0.802338926849168
0.168791557687258,-0.803038266406357
0.171198739535017,-0.803677891780946
0.288965216528084,-0.689876467865349
0.175924451424969,-0.804779580932443
0.178243276397278,-0.805242435184411
0.180532944007887,-0.805647156203899
0.182793601721854,-0.805994139228436
0.185025397004238,-0.806283779495552
0.187228477320097,-0.806516472242778
0.189402990134488,-0.806692612707642
0.191549082912471,-0.806812596127676
0.193666903119104,-0.806876817740408
0.195756598219445,-0.80688567278337
0.30686660523746,-0.704186363253134
0.199852202961484,-0.806738864110098
0.201858407533298,-0.806583990868925
0.315540820256026,-0.689584468232071
0.20578835840381,-0.806113282765154
0.207712399632623,-0.805798238377615
0.312858571506983,-0.689408044627867
0.211479351002656,-0.805010745118883
0.213322556073993,-0.804539086722748
0.310915013251107,-0.713376924187613
0.216929162314598,-0.803441922584591
0.218692858413983,-0.802817207317629
0.220430346452834,-0.802142263568785
0.11658576431865,-0.893760362492034
0.223827288209167,-0.800643271575567
0.328666052706227,-0.703587772340363
0.109993239078558,-0.918892950836338
0.228729827016118,-0.798027950909868
0.23031316345799,-0.797059936257855
0.231871324094735,-0.796044459786668
0.233404456391413,-0.794981916733839
0.234912707813081,-0.793872702336895
0.236396225824799,-0.792717211833368
0.237855157891623,-0.791515840460787
0.239289651478614,-0.790268983456682
0.339130632395587,-0.670340856496841
0.242085913073325,-0.78764039350402
0.243447976011163,-0.786259451030522
0.244786190329399,-0.78483460387562
0.246100703493092,-0.783366247276844
0.247391662967301,-0.781854776471723
0.248659216217084,-0.780300586697787
0.249903510707498,-0.778704073192567
0.251124693903604,-0.777065631193591
0.252322913270457,-0.77538565593839
0.253498316273118,-0.773664542664494
0.254651050376645,-0.771902686609434
0.354460956084297,-0.660083250414151
0.256889101746526,-0.768258327105935
0.257974713942998,-0.766376614132558
0.259038247100569,-0.764455739328135
0.260079848684296,-0.762496097930196
0.261099666159238,-0.760498085176271
0.157811128840042,-0.87478331270284
0.172883136554435,-0.848931000986537
0.26402988858194,-0.75427777115388
0.264964044272326,-0.75213022535131
0.265877153179219,-0.749946284380403
0.266769362767677,-0.747726343478691
0.148701704546652,-0.850078212117264
0.364521573953623,-0.623511522978238
0.269322070273023,-0.740854473564012
0.270132157238324,-0.738494485314372
0.270922082210482,-0.736100473321575
0.164297336282796,-0.845097813876807
0.387075724721086,-0.615361415288411
0.178328809041356,-0.826701948439221
0.273883111468842,-0.726192092669412
0.274574438451157,-0.723633890523778
0.275246488230678,-0.721044036060166
0.275899408272463,-0.718422924516106
0.276533346041572,-0.715770951129127
0.277148449003061,-0.713088511136761
0.16045033800717,-0.818432413055216
0.278322740363418,-0.707633812285984
0.278882223692401,-0.704862343902633
0.279423462073999,-0.702061989864013
0.279946602973269,-0.699233145407655
0.280451793855271,-0.696376205771088
0.280939182185062,-0.693491566191841
0.281408915427701,-0.690579621907446
0.281861141048245,-0.687640768155432
0.384165605574165,-0.583851852811569
0.282713659283286,-0.681683913198667
0.283114246827899,-0.678666702468974
0.283497916610651,-0.675624163221783
0.2838648160966,-0.672556690694622
0.284215092750805,-0.669464680125021
0.384039117847458,-0.554003295950446
0.284866367424216,-0.66320862580862
0.285167660373539,-0.660045372536879
0.285452920351351,-0.656859162172818
0.167292987053403,-0.755677458546349
0.285975931252674,-0.650419451117855
0.286213977106303,-0.647166740902014
0.286436579848654,-0.643892654543971
0.286643886944785,-0.640597587281257
0.286836045859756,-0.637281934351403
0.287013204058623,-0.633946090991938
0.287175509006447,-0.630590452440392
0.287323108168283,-0.627215413934294
0.287456149009192,-0.623821370711176
0.287574778994232,-0.620408718008566
0.28767914558846,-0.616977851063994
0.287769396256935,-0.613529165114991
0.287845678464716,-0.610063055399086
0.28790813967686,-0.60657991715381
0.287956927358426,-0.603080145616691
0.287992188974473,-0.59956413602526
0.288014071990058,-0.596032283617048
0.4078577985722,-0.473400242520411
0.288018292080076,-0.588922631300396
0.394243049401711,-0.47607204167801
0.287970767348949,-0.581754350566974
0.287927969338101,-0.578149212637799
0.287872677517142,-0.574530603317021
0.28780503935113,-0.57089891784217
0.287725202305122,-0.567254551450777
0.40673334869213,-0.448187544744668
0.287529521433355,-0.55992935686848
0.287413972537712,-0.556249319152636
0.287286814622308,-0.55255818147037
0.2871481951522,-0.548856339059209
0.171332046299351,-0.642442101963162
0.286837161408107,-0.541422121000327
0.286665042064238,-0.537690535827666
0.286482051025899,-0.53394982687623
0.286288335758148,-0.53020038938355
0.286084043726044,-0.526442618587156
0.285869322394644,-0.522676909724578
0.285644319229007,-0.518903658033345
0.285409181694192,-0.515123258750988
0.285164057255256,-0.511336107115036
0.403732748994279,-0.399052418834021
0.284644437525256,-0.503743127732468
0.284370237164309,-0.499938090460912
0.284086639759474,-0.49612788178588
0.283793792775811,-0.492312896944903
0.283491843678377,-0.488493531175511
0.283180939932231,-0.484670179715234
0.28286122900243,-0.480843237801601
0.282532858354034,-0.477013100672142
0.282195975452101,-0.473180163564388
0.281850727761689,-0.469344821715868
0.281497262747856,-0.465507470364111
0.28113572787566,-0.461668504746649
0.28076627061016,-0.457828320101011
0.280389038416415,-0.453987311664726
0.280004178759482,-0.450145874675325
0.279611839104419,-0.446304404370338
0.279212166916286,-0.442463295987294
0.27880530966014,-0.438622944763723
0.27839141480104,-0.434783745937155
0.18702604272867,-0.530581936863526
0.27754310213421,-0.427110386425149
0.277108979256597,-0.42327701621477
0.276668408636262,-0.419446379351514
0.276221537738265,-0.415618871072911
0.275768514027664,-0.41179488661649
0.275309484969516,-0.407974821219781
0.27484459802888,-0.404159070120315
0.391264464347799,-0.299884109651884
0.273897840360379,-0.396542091763229
0.273416264562629,-0.392741654980669
0.272929420742625,-0.388947113445471
0.160254424932983,-0.492621067504133
0.271940518896086,-0.38137729706728
0.271438755799668,-0.377602812699347
0.270932314541229,-0.373835804528895
0.270421342585826,-0.370076667793455
0.269905987398518,-0.366325797730556
0.269386396444364,-0.362583589577728
0.268862717188422,-0.358850438572501
0.26833509709575,-0.355126739952405
0.267803683631406,-0.351412888954969
0.267268624260449,-0.347709280817725
0.266730066447937,-0.3440163107782
0.266188157658929,-0.340334374073927
0.265643045358482,-0.336663865942433
0.265094877011654,-0.33300518162125
0.264543800083506,-0.329358716347907
0.263989962039093,-0.325724865359934
0.357065011041227,-0.225625127892182
0.262874592461712,-0.318496587190218
0.262313355858859,-0.314902950483534
0.261749947999976,-0.31132350901234
0.261184516350121,-0.307758658014166
0.37921501423411,-0.187702487851394
0.260048171537728,-0.300674308386994
0.259477553305307,-0.297155600233058
0.258905501142147,-0.29365306350226
0.258332162513307,-0.290167093432131
0.257757684883845,-0.286698085260201
0.257182215718819,-0.283246434224
0.256605902483288,-0.279812535561057
0.256028892642309,-0.276396784508903
0.255451333660942,-0.272999576305067
0.254873373004244,-0.269621306187079
0.254295158137273,-0.26626236939247
0.253716836525089,-0.262923161158769
0.357004512550238,-0.148113450535372
0.252560462925312,-0.256305511324209
0.251982705867836,-0.253027860198412
0.251405431925379,-0.249771518583641
0.250828788562999,-0.246536881717429
0.250252923245755,-0.243324344837303
0.249677983438706,-0.240134303180795
0.34214405166745,-0.120596407594412
0.248531470215423,-0.23382328648875
0.247960191729306,-0.230703101928274
0.247390428613616,-0.227606993541533
0.246822328333412,-0.22453535656606
0.246256038353752,-0.221488586239384
0.245691706139695,-0.218467077799034
0.245129479156298,-0.21547122648254
0.358151685164877,-0.11075985560907
0.244011930741719,-0.209558076171241
0.243456904240654,-0.206641567651496
0.242904572830482,-0.203752297205727
0.242355083976263,-0.200890660071464
0.241808585143054,-0.198057051486236
0.35137980760714,-0.0972141406634333
0.240725147399901,-0.192475500913008
0.240188503420073,-0.189728349400067
0.239655439321489,-0.187010807386282
0.239126102569207,-0.184323270109182
0.354310710080633,-0.0882808269729667
0.238079200963783,-0.179039790715156
0.237561931040756,-0.176444639073291
0.237048978324265,-0.17388107311823
0.236540490279368,-0.171349488087504
0.236036614371122,-0.168850279218643
0.235537498064587,-0.166383841749176
0.23504328882482,-0.163950570916634
0.347827680571935,-0.0525245800555101
0.234070181405824,-0.159185110112441
0.233591578156712,-0.156853710615851
0.233118471834601,-0.154557058706305
0.232651009904551,-0.152295549621333
0.232189339831619,-0.150069578598464
0.140084318856878,-0.244504025566897
0.231283965117343,-0.145725831689157
0.230840555406115,-0.143608846277779
0.230403527412239,-0.141528979878624
0.229973028600773,-0.139486627729222
0.229549206436774,-0.137482185067103
0.229132208385303,-0.135516047129797
0.228722181911415,-0.133588609154834
0.228319274480171,-0.131700266379744
0.227923633556629,-0.129851414042056
0.227535406605845,-0.1280424473793
0.22715474109288,-0.126273761629008
0.226781784482791,-0.124545752028707
0.226416684240637,-0.122858813815928
0.226059587831475,-0.121213342228202
0.225710642720365,-0.119609732503058
0.225369996372363,-0.118048379878025
0.22503779625253,-0.116529679590634
0.224714189825923,-0.115054026878415
0.2243993245576,-0.113621816978897
0.22409334791262,-0.11223344512961
0.223796407356041,-0.110889306568085
0.223508650352921,-0.109589796531851
0.223230224368318,-0.108335310258439
0.222961276867292,-0.107126242985377
0.2227019553149,-0.105962989950196
0.131047291599862,-0.202845993514294
0.222212779916251,-0.103775507543596
0.221983221000111,-0.102752068647237
0.221763877892839,-0.101776024938878
0.221554898059492,-0.10084777165605
0.221356428965129,-0.0999677040362814
0.221168618074809,-0.0991362173171033
0.220991612853589,-0.0983537067360453
0.220825560766528,-0.097620567530637
0.220670609278685,-0.0969371949384086
0.220526905855117,-0.0963039841968898
0.220394597960883,-0.0957213305436105
0.220273833061041,-0.0951896292161007
0.22016475862065,-0.0947092754518902
0.220067522104767,-0.094280664488509
0.219982270978451,-0.0939041915634868
0.219909152706761,-0.0935802519143537
0.219848314754755,-0.0933092407786394
0.21979990458749,-0.093091553393874
0.219764069670026,-0.0929275849975871
0.21974095746742,-0.0928177308273089
0.101900194248108,-0.194182526598977
0.219733491067018,-0.0927619461148977
0.219749431799338,-0.0928168060478245
0.21977868510675,-0.0929273611568795
0.219821398454312,-0.0930940066795925
0.219877719307083,-0.0933171378534933
0.21994779513012,-0.093597149916112
0.220031773388483,-0.0939344381049784
0.220129801547228,-0.0943293976576224
0.330360033393792,0.0152270916795765
0.112867808742447,-0.214048835084006
0.115535117731863,-0.212291328424172
0.220665362487211,-0.0964938542565719
0.220835852123748,-0.0971830991910522
0.221021276451018,-0.0979323869144894
0.22122178293408,-0.0987421126644134
0.221437519037991,-0.0996126716783541
0.318579233140106,0.00140778132177309
0.221915269968597,-0.101537870448405
0.222177579725408,-0.102593300679576
0.222455708963301,-0.103711145124882
0.222749805147336,-0.104891799021855
0.223060015742571,-0.106135657608023
0.223386488214064,-0.107443116120918
0.223729370026873,-0.108814569798069
0.224088808646056,-0.110250413877005
0.224464951536673,-0.111751043595257
0.22485794616378,-0.113316854190354
0.225267939992437,-0.114948240899827
0.225695080487702,-0.116645598961205
0.226139515114633,-0.118409323612018
0.226601391338288,-0.120239810089796
0.227080856623726,-0.12213745363207
0.227578058436005,-0.124102649476368
0.336602476145526,-0.0205107026169283
0.343243442911471,-0.0205236029596543
0.228592541788934,-0.128101508071098
0.229101308566201,-0.130101166475715
0.229610951128168,-0.132100747194443
0.230121363762957,-0.134100077409238
0.330194202629375,-0.0192624851084714
0.231144076403494,-0.138097295054855
0.231656164985487,-0.140094836849592
0.232168600792795,-0.142091436868223
0.23268127811354,-0.144086922292705
0.233194091235845,-0.146081120304995
0.233706934447834,-0.148073858087049
0.133104834314382,-0.26388598806354
0.234732288293352,-0.152054261688279
0.235244587503127,-0.154041581871367
0.235756493955078,-0.156026750552048
0.119837145213062,-0.273443119030944
0.236778705737996,-0.159989942134011
0.145105449368209,-0.281725135400808
0.237798077947091,-0.163942453889821
0.238306434931761,-0.165914272787812
0.238813764887345,-0.167882903275134
0.239319962101964,-0.169848172533746
0.239824920863743,-0.171809907745603
0.240328535460803,-0.173767936092664
0.131905183897421,-0.281310866052229
0.241331309313261,-0.177672180920219
0.241830257144905,-0.179618051764628
0.126026812045625,-0.295784471029496
0.242822746059637,-0.183496426224491
0.243316075718971,-0.185428584203859
0.243807321230448,-0.187355825592127
0.244296376882191,-0.189277977571253
0.244783136962322,-0.191194867323191
0.355388923772883,-0.0989460824051517
0.245749347560243,-0.195012168873337
0.246228586654278,-0.196912235035457
0.246705107329194,-0.198806347698218
0.247178803873114,-0.200694334043576
0.24764957057416,-0.202576021253488
0.248117301720456,-0.204451236509912
0.248581891600124,-0.206319806994803
0.249043234501288,-0.208181559890119
0.141384103744302,-0.302538155560711
0.249955756520594,-0.211883921639852
0.250406724214983,-0.213724184858182
0.250854022083359,-0.215556939214764
0.251297544413845,-0.217382011891555
0.251737185494565,-0.21919923007051
0.252172839613641,-0.221008420933588
0.137076471233868,-0.318675386916835
0.149898672251447,-0.317079368905635
0.145085735945545,-0.323369665486531
0.345481841157704,-0.124838043486681
0.254287605868672,-0.229927916879293
0.254697118268469,-0.231685314668195
0.255101903723483,-0.233433475414916
0.255501856521838,-0.235172226301413
0.348173894083801,-0.139074438885393
0.25628684130106,-0.238620807221564
0.256671661858173,-0.24033029161913
0.257051226911119,-0.2420296748843
0.257425430748019,-0.24371878419903
0.257794167656998,-0.245397446745277
0.258157331926178,-0.247065489704997
0.258514817843682,-0.248722740260148
0.258866519697633,-0.250369025592686
0.259212331776154,-0.252004172884567
0.259552148367368,-0.25362800931775
0.259885863759398,-0.25524036207419
0.260213372240367,-0.256841058335844
0.146140487085204,-0.354566158433204
0.374084399474777,-0.169142773257046
0.261157599098139,-0.26157147997166
0.261459222816094,-0.263123822073739
0.261754111063603,-0.264663643590816
0.262042158128788,-0.266190771704848
0.262323258299774,-0.267705033597792
0.262597305864683,-0.269206256451604
0.262864195111637,-0.270694267448241
0.26312382032876,-0.27216889376966
0.14939468978947,-0.36742357351341
0.263620855826005,-0.275077301114672
0.263858054682372,-0.276510736502178
0.2640875666614,-0.277930095942293
0.356843591307532,-0.174039335739274
0.14793389796196,-0.381270687912493
0.264728924215679,-0.28210199039786
0.26492663156658,-0.28346331786798
0.265116123480757,-0.284809705300492
0.265297294246332,-0.286140979877353
0.265470038151428,-0.287456968780522
0.26563424948417,-0.288757499191953
0.265789822532679,-0.290042398293605
0.265936651585078,-0.291311493267434
0.368807690356408,-0.188322797606163
0.266203654854041,-0.293801579559448
0.26632361764685,-0.295022225241548
0.266434413596041,-0.296226375523651
0.266535936989738,-0.297413857587716
0.266628082116063,-0.298584498615698
0.26671074326314,-0.299738125789554
0.266783814719091,-0.300874566291241
0.149754985341038,-0.392333435541392
0.266900765710109,-0.303095196005935
0.266944433821421,-0.304179039582856
0.176426457744617,-0.406725016330133
0.267001626716267,-0.306292920085628
0.267014940076047,-0.307322611375394
0.267017923761562,-0.308333906266688
0.267010472060936,-0.309326631941467
0.266992479262291,-0.310300615581688
0.26696383965375,-0.311255684369308
0.266924447523436,-0.312191665486283
0.266874197159472,-0.313108386114571
0.266812982849981,-0.314005673436128
0.266740698883087,-0.314883354632911
0.266657239546912,-0.315741256886876
0.266562499129578,-0.316579207379981
0.26645637191921,-0.317397033294182
0.363343600711208,-0.211185803566644
0.266209534271861,-0.318971620113699
0.266068612411126,-0.319728035382929
0.265915880909848,-0.320463634801083
0.26575123405615,-0.321178245550116
0.265574566138154,-0.321871694811987
0.265385771443985,-0.322543809768651
0.265184744261765,-0.323194417602065
0.264971378879616,-0.323823345494187
0.264745569585663,-0.324430420626972
0.264507210668027,-0.325015470182378
0.264256196414832,-0.325578321342362
0.379799136976696,-0.23349772754395
0.263715779054257,-0.326636737203889
0.161665308725465,-0.436328167725623
0.26312347180892,-0.327604285667207
0.262807595199774,-0.328053552579429
0.262478428983807,-0.32847958418797
0.262135867449141,-0.328882207674786
0.2617798048839,-0.329261250221833
0.357027465867598,-0.221711444157982
0.261026753814184,-0.32994790122445
0.260629553885955,-0.330255164043933
0.153034585546023,-0.447276776089795
0.25979327668337,-0.330796700229032
0.25935398798526,-0.331030627958562
0.258900458273435,-0.331239765022021
0.258432581836019,-0.331423938601365
0.257950252961135,-0.331582975878553
0.257453365936904,-0.331716704035539
0.256941815051452,-0.331824950254282
0.357908061043239,-0.223428128463478
0.255874298849371,-0.331964305604864
0.362692580294258,-0.230231031191129
0.254746858659875,-0.331999659385951
0.254160402790155,-0.331977903642827
0.253558648787949,-0.331929629053199
0.252941490941382,-0.331854662799025
0.252308823538577,-0.331752832062261
0.251660540867655,-0.331623964024865
0.153258489133041,-0.442928835270579
0.343547546418443,-0.235008068773481
0.249620944127427,-0.331073407928446
0.248909143265273,-0.330834662508086
0.248181198575618,-0.330568015696877
0.247437004346585,-0.330273294676776
0.246676454866297,-0.329950326629739
0.245899444422877,-0.329598938737724
0.245105867304449,-0.329218958182687
0.244295617799134,-0.328810212146584
0.243468590195057,-0.328372527811373
0.342498032637925,-0.224289217595606
0.241763777843106,-0.327409652971455
0.240885781671477,-0.32688411683066
0.239990584553578,-0.326328951118583
0.347911112172123,-0.225652203246408
0.238148164631459,-0.325129039708415
0.237200730403485,-0.324483948374235
0.236235672381731,-0.323808536196602
0.235252884854322,-0.323102630357471
0.23425226210938,-0.3223660580388
0.233233698435027,-0.321598646422545
0.232197088119387,-0.320800222690663
0.231142325450583,-0.319970614025111
0.230069304716738,-0.319109647607845
0.228977920205975,-0.318217150620822
0.227868066206416,-0.317292950246
0.226739637006186,-0.316336873665334
0.225592526893406,-0.315348748060782
0.224426630156199,-0.314328400614301
0.22324184108269,-0.313275658507846
0.222038053961,-0.312190348923376
0.220815163079253,-0.311072299042846
0.219573062725571,-0.309921336048214
0.218311647188078,-0.308737287121436
0.217030810754897,-0.307519979444469
0.21573044771415,-0.30626924019927
0.214410452353961,-0.304984896567795
0.313675829183243,-0.20203014749686
0.211711141827747,-0.302314704873847
0.210331615237969,-0.300928511175286
0.20893203348124,-0.299508021818278
0.303104536904178,-0.185380809397451
0.206072281619422,-0.296563464856743
0.204611900090579,-0.29503905161613
0.203131040547278,-0.293479651444896
0.303285689754081,-0.175344396955002
0.200107464569792,-0.290255199038392
0.198564536711852,-0.288589801167035
0.197000707991947,-0.286888725092883
0.195415872698197,-0.285151797997895
0.193809925118727,-0.283378847064026
0.192182759541659,-0.281569699473233
0.190534270255116,-0.279724182407473
0.188864351547222,-0.277842123048703
0.187172897706099,-0.275923348578879
0.18545980301987,-0.273967686179959
0.183724961776658,-0.271974963033899
0.181968268264587,-0.269945006322655
0.180189616771778,-0.267877643228185
0.178388901586356,-0.265772700932446
0.176566016996443,-0.263630006617394
0.174720857290161,-0.261449387464985
0.172853316755636,-0.259230670657178
0.170963289680988,-0.256973683375928
0.169050670354341,-0.254678252803192
0.167115353063818,-0.252344206120927
0.165157232097542,-0.24997137051109
0.0567998633946691,-0.344664668832991
0.161172156290223,-0.245108641236527
0.264195476180035,-0.129294312542455
0.157094597237368,-0.240088682435156
0.155020872214171,-0.237519309916809
0.264432951905517,-0.129213632495405
0.057071362271992,-0.348234024528061
0.148658646614984,-0.229571546074608
0.146490535532465,-0.226841833304677
0.0270970838596899,-0.332233157744315
0.142082625271981,-0.221260683622756
0.139842614670261,-0.218408901074682
0.137578426138388,-0.215516082964473
0.135289953964483,-0.212582056474086
0.0365927345991507,-0.310151219837529
0.222083477160239,-0.0999232918055602
0.12827777847181,-0.203530998541431
0.12589111461101,-0.200430410349903
0.123479638548793,-0.197287749687982
0.121043244573283,-0.194102843737624
0.118581826972603,-0.190875519680786
0.116095280034875,-0.187605604699425
0.113583498048222,-0.184292925975497
0.111046375300769,-0.18093731069096
0.108483806080636,-0.17753858602777
0.105895684675949,-0.174096579167884
0.103281905374828,-0.170611117293259
0.100642362465399,-0.167082027585851
0.0979769502357823,-0.163509137227617
0.0952855629741024,-0.159892273400515
0.0925680949684819,-0.1562312632865
0.0898244405070438,-0.15252593406753
-0.0252205026631312,-0.258057863599989
0.0842581493692066,-0.144981627042551
0.0814353012690535,-0.141142303600455
0.0785858438655747,-0.137257969781231
0.0757096714468932,-0.133328452766836
0.072806678301132,-0.129353579739226
-0.0252624237765917,-0.23559817775127
-0.0379951057579753,-0.238054672041605
0.0639357173825997,-0.117155096396674
0.0609243842097494,-0.112997071135772
0.0578857017504342,-0.10879282577144
0.0548195642927772,-0.104542187485633
0.0517258661249013,-0.100244983460309
0.0486045015349296,-0.0959010408774248
0.0454553648109849,-0.0915101869189364
0.0422783502411903,-0.0870722487668012
0.0390733521136687,-0.0825870536029756
0.132132986713087,0.0329209194091328
0.0325789823379368,-0.0734742009680808
-0.0617207962363145,-0.175084482980293
-0.0679271430050378,-0.166713107416854
0.0226249081944614,-0.0594461739769814
0.0192497887711608,-0.0546738075641065
0.0158459458069942,-0.0498529744132391
0.0124132735900844,-0.0449835017063353
0.00895166640855463,-0.0400652166253525
0.00546101855052758,-0.035097946352247
0.00194122430412649,-0.030081518068976
-0.00160782204252589,-0.0250157589574958
-0.00518622620130631,-0.0199004961997636
-0.00879409388409212,-0.0147355569777358
-0.01243153080276,-0.00952076847336961
-0.0160986426691872,-0.00425595786862126
-0.0197955351952506,0.00105904765455178
-0.0235223140928274,0.00642442091419343
-0.0272790850737944,0.0118403347283464
-0.0310659538500288,0.0173069619150544
-0.0348830261334074,0.0228244752923601
-0.0387304076358076,0.0283930476783072
-0.0426082040691059,0.0340128518909386
-0.0465165211451799,0.0396840607482978
-0.050455464575906,0.0454068470684277
0.0467691038227012,0.16348324133924
-0.0584256533488239,0.0570078433691733
-0.0624571101147696,0.0628863989858755
-0.0665196160828757,0.0688172233375212
-0.0706132769650194,0.0748004892421542
-0.0747381984730775,0.0808363695178171
-0.0788944863189273,0.0869250369825537
-0.0830822462144455,0.0930666644544069
0.0142936044797274,0.200420678030481
-0.091552605001996,0.105509490691636
-0.0958354153177822,0.111811035093099
-0.100150120530745,0.118166230773851
-0.104496826352761,0.124575250551937
-0.108875638495708,0.131038267245398
-0.113286662671463,0.137555453672278
-0.117730004591903,0.144126982650621
-0.122205769968904,0.15075302699847
-0.0247618993058938,0.264765613923754
-0.241558388340994,0.0526725064170703
-0.135828663958049,0.170959980439482
-0.140435180280067,0.177805814445786
-0.239762170360942,0.090754250018057
-0.149747174683822,0.191663793655602
-0.154452864189312,0.198676284495201
-0.15919182284638,0.205744673248652
-0.163964156366903,0.212869132733997
-0.07617210702552,0.338352067777464
-0.173609370845821,0.227286955172545
-0.178482463227971,0.234580663761834
-0.183389353321084,0.24193113435519
-0.188330146837037,0.249338539770658
-0.193304949487706,0.256803052826279
-0.19831386698497,0.264324846340099
-0.203357005040705,0.271904093130158
-0.100642927463365,0.380547940399538
-0.0986933470452488,0.402458096073335
-0.218692799677507,0.294988281338212
-0.223873877085896,0.302799069413666
-0.119215658738928,0.423467950539836
-0.23434038496812,0.318595770481987
-0.239626026865709,0.326582029110941
-0.244946735016785,0.334627123560481
-0.250302615133226,0.342731226648651
-0.255693772926907,0.350894511193493
-0.261120314109707,0.359117150013052
-0.266582344393502,0.367399315925369
-0.27207996949017,0.37574118174849
-0.277613295111587,0.384142920300456
-0.28318242696963,0.392604704399311
-0.288787470776177,0.401126706863098
-0.294428532243104,0.409709100509861
-0.300105717082288,0.418352058157642
-0.305819131005607,0.427055752624485
-0.311568879724937,0.435820356728433
-0.420100938237235,0.335638975682205
-0.32317780439914,0.453532985119817
-0.209215640451412,0.580371390143033
-0.334933336799914,0.47149132587614
-0.242661964686441,0.579284261984053
-0.346836322622273,0.489696761541748
-0.35284337484624,0.498892572010643
-0.464365889858974,0.404219110629127
-0.464490428954433,0.41621138690333
-0.371088037311815,0.526854447778202
-0.377244445771154,0.536300463881159
-0.38343845756903,0.54580946343774
-0.389670178417318,0.555381619265988
-0.497291022520198,0.470208328612532
-0.40224717011264,0.574716091009657
-0.408592652383428,0.584478752561165
-0.414976266552137,0.594305261656513
-0.421398118330644,0.604195791113744
-0.427858313430825,0.614150513750901
-0.434356957564558,0.624169602386028
-0.545530881177568,0.520550885288909
-0.447470015780189,0.644401568922364
-0.45408464128584,0.654614792459659
-0.460738138672551,0.664893073267096
-0.467430613652199,0.67523658416272
-0.47416217193666,0.685645497964572
-0.480932919237813,0.696119987490696
-0.487742961267534,0.706660225559136
-0.4945924037377,0.717266384987935
-0.402607289605213,0.846738263666756
-0.618793500382171,0.636964698184952
-0.515378190909637,0.749482119616914
-0.522386292260354,0.760353692667579
-0.529434322610899,0.771292051168819
-0.536522387673153,0.782297367938677
-0.54365059315899,0.793369815795196
-0.550819044780289,0.80450956755642
-0.455790831754237,0.912352423383086
-0.565277109276777,0.826991674065153
-0.678453067697083,0.71990642622036
-0.579897426857635,0.849745070009223
-0.587268694834394,0.861223933564616
-0.594680843217877,0.872771137932975
