-0.711684403006911,-0.886740118584705
-0.26440839291315,0.374895845801356
-0.196567518462529,-0.756120748260086
0.576725078347211,-0.306871984513056
1.35001767515695,0.142376779233974
-0.997106396653237,-0.16248607024974
-0.768329984660522,0.43284083535182
-0.539553572667808,1.02816774095338
-0.0526432113306519,-0.206721284146162
0.724007682699786,-0.746849314106191
