0.140563998504526,0.422388253784923
0.148789704920395,0.421649428902069
0.156796100690939,0.420733254834543
0.164584657622097,0.419642334514875
0.285195655414857,0.532071166746476
0.179514142190003,0.416946666849237
0.186658013438625,0.415347125368327
0.193589933071611,0.413583249365399
0.200311372894897,0.411657641772982
0.20682380471442,0.409572905523607
0.213128700336118,0.407331643549805
0.219227531565929,0.404936458784106
0.22512177020979,0.402389954159041
0.230812888073638,0.399694732607141
0.326808132161567,0.498808614984609
0.241591648685044,0.393868550452957
0.246682235044478,0.390742795715734
0.355415909575097,0.489183355575209
0.256273178900492,0.384078973583681
0.260776480008947,0.380546112053912
0.369432417904289,0.489563071999281
0.158790722752412,0.282881073752109
0.273135361727356,0.369174960800002
0.276876221117631,0.365135731268933
0.280430149593204,0.360976417068866
0.283798618960013,0.35669962113233
0.286983101023995,0.352307946391858
0.289985067591087,0.347803995779979
0.292805990467227,0.343190372229224
0.295447341458353,0.338469678672125
0.297910592370401,0.33364451804121
0.300197215009308,0.328717493269012
0.302308681181013,0.32369120728806
0.304246462691453,0.318568263030885
0.306012031346564,0.313351263430019
0.307606858952285,0.308042811417991
0.309032417314553,0.302645509927332
0.198711358457672,0.203549007784697
0.311381613532478,0.291594770240245
0.203202891530591,0.190736560846253
0.313071394447839,0.280219867829002
0.313672683681902,0.274417362933149
0.314113534508135,0.268541626153849
0.314395418732477,0.262595260423633
0.426706748515131,0.357037769110743
0.314488174599235,0.250501053840573
0.314301989853526,0.244358418852792
0.313962725729675,0.238155566644216
0.313471854033619,0.231895100147378
0.312830846571296,0.225579622294806
0.312041175148643,0.219211736019033
0.311104311571597,0.212794044252589
0.310021727646096,0.206329149928004
0.308794895178078,0.199819655977809
0.307425285973479,0.193268165334535
0.305914371838236,0.186677280930712
0.304263624578288,0.180049605698871
0.302474515999572,0.173387742571542
0.300548517908024,0.166694294481256
0.298487102109583,0.159971864360545
0.296291740410186,0.153223055141938
0.399845197269698,0.257140244477189
0.291505066532272,0.139656711141159
0.288916697965631,0.132844382224049
0.286200270721782,0.126016085939166
0.191455533034931,0.0158495105345344
0.280389127426215,0.112322002996203
0.27729735498637,0.105461422203185
0.274083411093069,0.0985952857725159
0.270748767552247,0.0917261966367273
0.267294896169843,0.0848567577283494
0.263723268751794,0.0779895719799129
0.260035357104037,0.0711272423239484
0.25623263303251,0.0642723716929867
0.25231656834315,0.0574275630195582
0.248288634841894,0.0505954192361937
0.24415030433468,0.0437785432754239
0.239903048627445,0.0369795380697792
0.235548339526127,0.0302010065517904
0.231087648836662,0.0234455516539881
0.226522448364989,0.0167157763089029
0.221854209917044,0.0100142834490655
0.217084405298766,0.00334367600700644
0.21221450631609,-0.00329344308474358
0.207245984774956,-0.0098944708936539
0.0894878308531718,-0.131605919622015
0.0781843655554985,-0.116797230864855
0.191763402860171,-0.0294549772980406
0.186415109144573,-0.0358856106502859
0.180975551900203,-0.0422671380570384
0.175446202932998,-0.0485969565857674
0.169828534048895,-0.0548724633039423
0.164124017053832,-0.0610910552790325
0.158334123753746,-0.0672501295785073
0.152460325954575,-0.0733470832698362
0.146504095462256,-0.0793793134204883
0.140466904082725,-0.0853442170979332
0.134350223621922,-0.0912391913696402
0.128155525885782,-0.0970616333030786
0.226411095427964,-8.48223295424749e-05
0.115537965811245,-0.108478508425027
0.109118047084721,-0.114067735748476
-0.0118917504773662,-0.212156480170701
0.0960632912828526,-0.12499475525767
0.0894313978193819,-0.130327341578354
0.0827317897221369,-0.135569175033055
0.0759659387970548,-0.140717652689242
0.0691353168500732,-0.145770171614385
0.0622413956871292,-0.150724128875953
0.0552856471141604,-0.155576921541416
0.0482695429371041,-0.160325946678242
0.0411945549618976,-0.164968601353902
0.0340621549944784,-0.169502282635864
0.0268738148407839,-0.173924387591598
0.0196310063067513,-0.178232313288574
-0.0825441525528494,-0.294363122479556
0.00498787132142163,-0.186495215176126
-0.00240951151800074,-0.190444985501642
-0.00985547551401157,-0.194270164838276
-0.0173485488606736,-0.197968150253498
-0.0248872597520493,-0.201536338814778
-0.0324701363822014,-0.204972127589585
0.0568787433406055,-0.116926612637995
-0.0477624996350854,-0.211436094049657
-0.0554690426459424,-0.21445906586986
-0.0632138641718263,-0.217339226173468
-0.0709954924067997,-0.22007397202795
-0.0788124555449252,-0.222660700500775
-0.0866632817802655,-0.225096808659412
-0.209877175616749,-0.34150398446513
-0.220947911554479,-0.345714118730596
0.00364525302620775,-0.132323776768402
-0.118375781575027,-0.233282979501472
-0.232555803191447,-0.327272302768703
-0.134396943101324,-0.23640466679158
-0.142443600450921,-0.237713550640046
-0.150512346450234,-0.23885099071408
-0.158601709293326,-0.23981438408115
-0.166710217174258,-0.240601127808727
-0.280890483081112,-0.358694923625624
-0.0632842024011211,-0.141534061589457
-0.191135892984727,-0.241875431829186
-0.0993999478085008,-0.146344732990977
-0.207488418938727,-0.241793999215628
-0.21568088912202,-0.241466183523098
-0.223882201701593,-0.240943497663359
-0.332624120507401,-0.348048659032853
-0.240305466825827,-0.239303103712134
-0.248524475758614,-0.238180189755586
-0.256746439863931,-0.236851993901708
-0.26496988733584,-0.235315913217968
-0.273193346368405,-0.233569344771836
-0.281415345155687,-0.231609685630781
-0.289634411891749,-0.229434332862272
-0.297849074770655,-0.22704068353378
-0.306057861986466,-0.224426134712773
-0.314259301733245,-0.22158808346672
-0.322451922205056,-0.218523926863092
-0.33063425159596,-0.215231061969357
-0.33880481810002,-0.211706885852984
-0.240276237836691,-0.098944318464955
-0.355104775223859,-0.203954188222205
-0.363231222231763,-0.199720460842738
-0.371340019129074,-0.19524501051051
-0.379429694109854,-0.190525234292992
-0.387498775368166,-0.185558529257653
-0.395545791098073,-0.180342292471962
-0.515113493698194,-0.285612566103174
-0.41156773874892,-0.169150811919403
-0.419539727057986,-0.163170362287473
-0.427483762614897,-0.156929969175069
-0.315983961619194,-0.0403227242467475
-0.443282088248504,-0.143658940778717
-0.451133434713326,-0.136623099629706
-0.458950941202243,-0.129316903270099
-0.466733135909318,-0.121737748767365
-0.474478547028615,-0.113883033188972
-0.482185702754194,-0.105750153602391
-0.48985313128012,-0.0973365070750909
-0.497479360800454,-0.0886394906745406
-0.50506291950926,-0.0796565014682098
-0.512602335600599,-0.0703849365235676
-0.633377058302952,-0.152075344412431
-0.52754285270713,-0.0509656676892274
-0.534941010110447,-0.040812757934468
-0.542289137672549,-0.0303608607112747
-0.549585763587497,-0.0196073730871172
-0.556829416049355,-0.0085496921294646
-0.564018623252185,0.00281478509421357
-0.571151913390051,0.0144886615164481
-0.483684937900479,0.139775510815989
-0.585244855247136,0.0387750236867083
-0.592201563354482,0.0513927152997954
-0.599096467173113,0.0643302178415613
-0.605928094897092,0.0775901342445366
-0.612694974720482,0.091175067441252
-0.619395634837345,0.105087620364238
-0.51597156554351,0.230374822555018
-0.632592408727742,0.133905997119145
-0.6390855788894,0.148817026816127
-0.642305215859247,0.156399140777483
-0.741912748865108,0.0588448012261489
-0.654534031054772,0.186102557106515
-0.568262313443742,0.30008107955699
-0.665550531945643,0.214236893576176
-0.670610986494403,0.22772498417967
-0.675376548828084,0.240831997597432
-0.679849947733712,0.253561664755835
-0.78190316612132,0.171361661243425
-0.800074600258473,0.180677296750325
-0.806310309459952,0.182759061016227
-0.80608665171396,0.182609024895598
-0.697929998387054,0.31168038908042
-0.700707721251958,0.322224328136447
-0.703212382198006,0.332417037417708
-0.705446710012224,0.342262247850574
-0.810665127147906,0.238867167965077
-0.709115281393289,0.360925095876606
-0.710554982534189,0.369750195322513
-0.711735265691374,0.378242719625508
-0.712658859651869,0.386406399711961
-0.713328493202703,0.394244966508244
-0.713746895130904,0.401762150940728
-0.7139167942235,0.408961683935782
-0.713840919267518,0.415847296419777
-0.713521999049988,0.422422719319085
-0.712962762357936,0.428691683560075
-0.71216593797839,0.434657920069119
-0.711134254698378,0.440325159772587
-0.709870441304929,0.44569713359685
-0.708377226585071,0.450777572468278
-0.70665733932583,0.455570207313243
-0.704713508314235,0.460078769058115
-0.702548462337315,0.464306988629264
-0.598630838735973,0.568630029946578
-0.697565640635607,0.471937324955877
-0.694753322484876,0.475346903564083
-0.69173070451693,0.478491063704049
-0.688500515518798,0.481373536302147
-0.685065484277508,0.483998052284745
-0.589661088815694,0.605781985306636
-0.677591810213563,0.48848813810893
-0.673558624964964,0.490361169803258
-0.56116820733476,0.592798431978366
-0.555673687460891,0.601181614453515
-0.561693081886638,0.592686350205086
-0.65551390089038,0.495460276744119
-0.650538368036826,0.496155453152075
-0.645382552023365,0.496626251281869
-0.640049181637024,0.496876402059871
-0.634540985664832,0.496909636412453
-0.628860692893816,0.496729685265984
-0.623011032111005,0.496340279546835
-0.616994732103426,0.495745150181378
-0.610814521658107,0.494948028095982
-0.604473129562076,0.493952644217019
-0.597973284602361,0.492762729470859
-0.591317715565991,0.491382014783873
-0.584509151239992,0.489814231082431
-0.577550320411392,0.488063109292905
-0.570443951867221,0.486132380341664
-0.662121131330852,0.390393721270636
-0.555799516780273,0.481747024659523
-0.548266907811552,0.479299859781364
-0.54059767627537,0.476688011446974
-0.532794550958755,0.473915210582723
-0.524860260648736,0.470985188114982
-0.51679753413234,0.467901674970121
-0.508609100196595,0.464668402074511
-0.500297687628529,0.461289100354524
-0.491866025215169,0.457767500736529
-0.483316841743544,0.454107334146897
-0.474652866000682,0.450312331512
-0.465876826773611,0.446386223758207
-0.456991452849358,0.442332741811889
-0.447999473014951,0.438155616599418
-0.438903616057419,0.433858579047163
-0.429706610763789,0.429445360081495
-0.420411185921089,0.424919690628786
-0.411020070316347,0.420285301615405
-0.401535992736591,0.415545923967724
-0.39196168196885,0.410705288612112
-0.382299866800149,0.405767126474942
-0.489542141084005,0.287684419853801
-0.362724638407986,0.395613145561406
-0.352816682758579,0.390404788637781
-0.238446134126275,0.492888582718237
-0.332773732488253,0.379743996488674
-0.32264419544139,0.374299023115932
-0.312446255502764,0.368782639446226
-0.302182641459403,0.363198576405925
-0.291856082098335,0.357550564921402
-0.281469306206588,0.351842335919026
-0.271025042571191,0.346077620325169
-0.260526019979169,0.3402601490662
-0.249974967217553,0.334393653068491
-0.239374613073369,0.328481863258412
-0.228727686333646,0.322528510562334
-0.218036915785411,0.316537325906627
-0.207305030215693,0.310512040217663
-0.196534758411519,0.304456384421811
-0.185728829159917,0.298374089445444
-0.174889971247915,0.29226888621493
-0.0599663899981897,0.380503693954323
-0.153124384590823,0.280004678696949
-0.142203113419789,0.273853136262223
-0.131259828736467,0.267693609278833
-0.120297259327884,0.261529828673152
-0.109318133981069,0.255365525371548
-0.0983251814830494,0.249204430300394
0.0131228047841209,0.348786083855341
-0.0763087101815086,0.236906788554915
-0.164639961813504,0.134945175907161
-0.0542696757194848,0.22466675084768
-0.0432485192708616,0.218577660824331
-0.0322299083932014,0.212514164589655
-0.0212165718735321,0.206479993070023
-0.0102112384988816,0.200478877191805
0.000783362943722082,0.194514547881373
0.0117645036672512,0.188590736065096
-0.0728238068092512,0.0912567385212113
0.0336754878089736,0.176879588620493
0.0445998736531112,0.171099714844907
0.152155076233388,0.256733309174754
0.0663727889527995,0.159710021819023
0.0772158608342944,0.154107664421465
0.0880263704875192,0.148571941002658
0.0988015891254461,0.143106582488972
0.109538787961047,0.137715319806778
0.00299084654156881,0.0335217902319014
0.0157996849460112,0.0343172736086829
0.141494977783615,0.122023416012854
0.152052809539633,0.116965845920334
0.162558977558186,0.11200102629116
0.0726702645293898,0.0141317201108033
0.183405407234784,0.102364562128329
0.193740211318772,0.097700379447415
0.204012436517184,0.0931438709353285
0.115227842220491,-0.0188338929276344
0.224358235109164,0.0843688001231223
0.234426350928677,0.0801576996757438
0.244420972714501,0.0760691971026761
0.254339371679608,0.0721070233302897
0.264178819036971,0.0682749092849554
0.273936585999561,0.0645765858930439
0.389857137174137,0.172130898465528
0.293196163592312,0.0575962347749717
0.302692516648417,0.0543216689015524
0.312096274161638,0.0511958173870385
0.321404707344947,0.0482224111578008
0.330615087411315,0.0454051811402099
0.339724685573716,0.0427478582606364
0.348730773045121,0.0402541734454511
0.357630621038502,0.0379278576210247
0.461508368829729,0.138401838247577
0.375100683443082,0.0337922566499309
0.383665440280224,0.031990433356005
0.392113042491231,0.0303709027583206
0.400440761289074,0.0289373957832485
0.500620859952821,0.132573284826557
0.307765334667757,-0.0727029000266228
0.424677329333346,0.0257903258574121
0.432498226608257,0.0251382226364956
0.323410468265426,-0.0668216819848444
0.447736710326142,0.02445178188443
0.45514883919506,0.0244249062060223
0.462419254354592,0.0246139015611923
0.559749736160877,0.115569192203503
0.476524028397384,0.0256544290777478
0.483352929706589,0.0265134230918747
0.490029202158295,0.027603211845062
0.496550116965474,0.0289275262636803
0.5029129453411,0.0304900972741003
0.509114958498143,0.0322946558026926
0.515153427649577,0.034344932775828
0.521025624008373,0.0366446591198772
0.526728818787502,0.0391975657612107
0.532260283199938,0.0420073836261993
0.432412610372783,-0.0583692672728413
0.542797105776618,0.0484126767326245
0.547797006366805,0.0520156138268024
0.552614261442187,0.0558903858501182
0.673011924676568,0.174181494144032
0.561689919900423,0.0644703583896457
0.565942865709222,0.0691830207585989
0.570002250855103,0.0741824417621726
0.690003953307346,0.175678831904212
0.577529424010003,0.0850564833786641
0.580991754444965,0.0909385658443234
0.584249609068899,0.0971223306500858
0.587300259094777,0.103611508722322
0.590140975735569,0.110409830987403
0.59276903020425,0.117521028371699
0.595181693713789,0.124948831801581
0.597376237477161,0.13269697220342
0.599349932707337,0.140769180503586
0.601100050617288,0.14916918762845
0.602623862419987,0.157900724504382
0.603918639328407,0.166967522057754
0.604981652555518,0.176373311214936
0.605425395042637,0.181204493559446
0.712943480577732,0.309395235652146
0.60692226064253,0.200506361783716
0.607550261178147,0.210011399887923
0.608097858180301,0.219419384806414
0.608564965131061,0.228730474653867
0.608951495512497,0.237944827544958
0.609257362806675,0.247062601594364
0.609482480495666,0.256083954916764
0.609626762061536,0.265009045626832
0.609690120986355,0.273838031839247
0.609672470752191,0.282571071668686
0.609573724841112,0.291208323229826
0.609393796735188,0.299749944637344
0.510376571629228,0.192888026177459
0.494551377496082,0.223961481558896
0.608366054069024,0.324802609084935
0.6078605320044,0.332963291024734
0.488628654131392,0.238163900704736
0.60660455700371,0.3490002942783
0.60585393103178,0.356876931821421
0.605021430721552,0.364659204128336
0.485766392169365,0.256342708189597
0.603110461014476,0.379941285492257
0.602031818581764,0.387441410778617
0.600870955739027,0.39484780328748
0.599627785968335,0.402160621133523
0.598302222751755,0.409380022431423
0.596894179571356,0.416506165295856
0.595403569909206,0.4235392078415
0.593830307247374,0.430479308183033
0.592174305067929,0.43732662443513
0.590435476852938,0.444081314712469
0.588613736084471,0.450743537129728
0.586708996244595,0.457313449801583
0.584721170815379,0.463791210842711
0.582650173278892,0.470176978367789
0.580495917117202,0.476470910491495
0.578258315812378,0.482673165328506
0.575937282846487,0.488783900993498
0.573532731701599,0.494803275601148
0.454762756154584,0.397712376112058
0.568472728803105,0.506568574103133
0.565817104013635,0.512314814226822
0.563077614973442,0.517970325751878
0.560254175164593,0.523535266792978
0.557346698069158,0.529009795464799
0.554355097169204,0.534394069882017
0.5512792859468,0.539688248159311
0.548119177884015,0.544892488411358
0.544874686462917,0.550006948752833
0.4427782775921,0.464689090306556
0.538132207474057,0.55996716216278
0.534634046870431,0.564813231460606
0.531051156836766,0.569570153306569
0.527383450855131,0.574238085815347
0.523630842407593,0.578817187101617
0.519793244976222,0.583307615280055
0.515870572043085,0.587709528465339
0.393851213796711,0.489846319461168
0.50776965359979,0.596248442315153
0.603412360325452,0.707955000067601
0.398272041191805,0.505449385069051
0.49497804672332,0.608396903508144
0.49054310390303,0.612271047142722
0.486022479955454,0.616057782586884
0.584937627203164,0.736588104315083
0.476723842606718,0.623369661362674
0.471945656169694,0.626895120923655
0.467081442533659,0.630333804752929
0.46213111518068,0.633685870965174
0.457094587592825,0.636951477675067
0.451971773252164,0.640130782997284
0.446762585640765,0.643223945046503
0.462204119728395,0.691747131133128
0.436084744534025,0.649152471784655
0.390040175892573,0.683943299001165
0.471762411540512,0.69104378672491
0.377488116622304,0.688184537008052
0.422148381159116,0.64509662285084
0.416053656261508,0.683540070636173
0.419276203111322,0.660218974246953
0.395978824496243,0.667212045126272
0.432635985431055,0.633033467090683
0.411295760300109,0.699097386670787
0.374552504600978,0.664059826075552
0.371143813396538,0.675667956021581
0.364716315611991,0.677571714289917
0.360641139633607,0.646349131111035
0.38890286570978,0.72990986679083
0.353516231244851,0.640091528881148
0.362630604453045,0.644458260314522
0.320879731300759,0.665433840184013
0.326063276661885,0.701124789433578
0.179892168586813,0.53820457358775
0.341789880593615,0.738601462421912
0.293499631604501,0.705130662994807
0.295605155123693,0.692027950488673
0.288208517416086,0.693018917982983
0.248413888778181,0.736859666124654
0.273149287272066,0.694754914212098
0.26548652179979,0.695500259176256
0.291108172708931,0.679757060773222
0.249894257465048,0.696746433377159
0.217517358188564,0.703487328033988
0.233945771823842,0.697667640706026
0.225837729718486,0.698006777080138
0.195387237763606,0.698946962563181
0.209353614348611,0.698442905821106
0.227573317586902,0.745529104918731
0.15403413814003,0.681453133912362
0.147397143173397,0.706611208181704
0.192883929591536,0.679122776238332
0.121761538796402,0.716317456366534
0.135598186515569,0.666632575666188
0.191287941538698,0.658136349080771
0.101646763726089,0.667340680663192
0.0615183764048059,0.582093030021082
0.240694852950987,0.803690980736128
0.112274035704416,0.695123272654054
0.135888141197582,0.687316010422011
0.0934508624472161,0.693490282033622
0.0797150688046265,0.699274962540937
0.0742652385924812,0.691543708797902
0.0469549729053207,0.671923441713739
0.0547164719967594,0.689284817864311
0.0448056938761995,0.688038648547506
0.0348038705165983,0.686714874150265
0.0247109154000242,0.685313652787264
0.0145267420085457,0.68383514257318
0.00425126382423119,0.682279501622691
-0.00611560567085073,0.680646888050474
-0.0165739529946318,0.678937459971205
-0.0271238646650433,0.677151375499563
-0.037765427200017,0.675288792750222
-0.0484987271174845,0.673349869837862
0.0498511575793429,0.78315786757189
-0.0702408851716263,0.669243635982789
-0.0812499163441638,0.667076641269431
-0.0923510309709211,0.664833938851761
-0.10354431556983,0.662515686844456
-0.114829856658821,0.660122043362193
-0.126207740755828,0.65765316651965
-0.137678054378779,0.655109214431503
-0.149240884045609,0.652490345212429
-0.160896316274247,0.649796716977106
-0.172644437582626,0.647028487840211
-0.184485334488678,0.64418581591642
-0.196419093510332,0.641268859320411
-0.208445801165523,0.638277776166861
-0.220565543972179,0.635212724570447
-0.232778408448234,0.632073862645845
-0.245084481111619,0.628861348507734
-0.257483848480265,0.625575340270789
-0.269976597072104,0.622215996049689
-0.282562813405068,0.61878347395911
-0.295242583997087,0.615277932113729
-0.205652228538568,0.701914830709364
-0.32088313403002,0.60804842161727
-0.453283774482098,0.492373837570393
-0.346898939314355,0.600528729477729
-0.360047778970627,0.596660460578495
-0.373290691993545,0.592720120612522
-0.386627764901039,0.588707867694487
-0.400059084211041,0.584623859939066
-0.413584736441483,0.580468255460937
-0.427204808110297,0.576241212374778
-0.440919385735413,0.571942888795264
-0.454728555834764,0.567573442837073
-0.349474645584129,0.663137326167969
-0.482631019527895,0.558621816243368
-0.399127412341727,0.656421303689935
-0.510912891333142,0.549387597511081
-0.525196321572638,0.544664911379661
-0.539574863393958,0.539872051557627
-0.460184488409402,0.647896292330621
-0.568617627853794,0.530076443300423
-0.689138125624837,0.424387475509629
-0.598041876856103,0.520002037656885
-0.612897274355514,0.514860681101934
-0.627848302544338,0.509650099544431
-0.642895047940506,0.504370451099052
-0.560224181884103,0.595387674072858
-0.673276036426601,0.493604586003378
-0.688610452552392,0.488118685582437
-0.704040931957253,0.482564350732329
-0.623875611098317,0.585792334410236
-0.843431128100959,0.352696576940779
-0.750909615025575,0.465492320753774
-0.646973589747769,0.570686929988471
-0.782637306295221,0.453771694057982
-0.798645982251068,0.447810073041091
-0.913153293819035,0.329068106246565
-0.830953427394467,0.435685006242704
-0.727438245426852,0.52998481093321
-0.863648240299684,0.423291893856024
-0.880141125957802,0.416995215853767
-0.89673111311017,0.410632000798467
-0.913418288274718,0.404202406804803
-0.930202737969379,0.397706591987451
