-0.751489765165487,-0.272566799521441
0.483227494380836,0.290629892865334
0.21426437054931,-0.937250713645265
0.0247626022301588,-0.162123952691725
-0.164739166088992,0.613002808261814
-0.88663512204766,-0.937335686384406
-0.137333233072576,-0.701636044849575
0.611968655902507,-0.465936403314744
0.969735818855353,-0.930061133996458
-0.542505389018368,0.0676384568653492
