-0.7870591800004,0.0689829694593179
-0.773739858338235,0.0964041572011998
-0.769641031973981,0.0640981390432971
-0.759739181784456,0.0955212226947121
-0.75348411319193,0.0992218269816149
-0.737787210280683,0.0903873623082545
-0.700969016570915,0.0502024910246727
-0.741738342952206,0.0917373824514608
-0.737535406521265,0.0764047367916172
-0.723527803790246,0.161624128823389
-0.725105628009365,0.128496769217717
-0.719862373723229,0.147482806700632
-0.704519799762727,0.126247868703103
-0.718808338722165,0.142997910571118
-0.692573992934744,0.13229982626773
-0.686644827841589,0.135221888880892
-0.637498240911718,0.15448385128697
-0.674873472107351,0.140859787915016
-0.675471187440237,0.161820627119854
-0.663217412723073,0.146224860221005
-0.672801730552219,0.154276304622226
-0.654069946291115,0.17501085991446
-0.664987729652715,0.156523163124839
-0.658570603701146,0.159621978867835
-0.588975763364116,0.159906978002194
-0.62331756305426,0.162891204782829
-0.617730068618339,0.165008278838832
-0.596653066196071,0.16373386026223
-0.627406735881226,0.220754571181097
-0.594356099291571,0.178981631523555
-0.579714844266791,0.180052109732249
-0.594012417607622,0.191640920234268
-0.597941338045895,0.172385010216655
-0.579390934875428,0.178025943151869
-0.574023185844046,0.179632056507375
-0.56868245301759,0.181175745306809
-0.583218356968511,0.197569425363356
-0.565104563684025,0.168493422479047
-0.566891469776117,0.221966807743713
-0.555449297696334,0.202346987785226
-0.538130365129245,0.1867986672116
-0.49502478962414,0.166050546081908
-0.526917121232871,0.191316519190116
-0.511128021970541,0.204802409374355
-0.503157706231399,0.185511565779308
-0.511688736206542,0.194128172956807
-0.546211501636016,0.185050838205689
-0.531656833486845,0.189316112294906
-0.454270949992621,0.188505209109304
-0.491745107426182,0.197058566439398
-0.472239001067644,0.175171852194804
-0.486128374079087,0.202597263059578
-0.480589208188798,0.208386830416936
-0.5155740818706,0.205705809428202
-0.489032364780801,0.197709092667824
-0.462589931443329,0.19974203459119
-0.454422873492124,0.193798567633932
-0.461307717525081,0.204955767135167
-0.448348588068028,0.200332105644021
-0.432415981731591,0.202283184451612
-0.371703252312449,0.166346490455492
-0.434327792005018,0.200432632266731
-0.429702735120895,0.200358852559524
-0.401568943692905,0.213118168982355
-0.410059323013444,0.197593445113666
-0.390039143852197,0.234711222996708
-0.43912064871192,0.192384064715184
-0.404494478242994,0.178049052205042
-0.390560679055942,0.176766783396532
-0.40226994456878,0.188654681143793
-0.389869098973772,0.212851904096741
-0.412349246950224,0.199997207209617
-0.39174367271706,0.20828369035311
-0.363730507134309,0.188696006443112
-0.376053400674985,0.195422872752293
-0.381721210526427,0.18775928941129
-0.344376734045846,0.222918288930965
-0.380153820547076,0.200725896265312
-0.340810346825199,0.189592308463558
-0.350476086258087,0.190260465558362
-0.330219665912409,0.170762452849357
-0.341713204326638,0.184602522185125
-0.337989775867693,0.187036013800119
-0.333871794939287,0.185868042051612
-0.329775707881876,0.184654028437259
-0.334243299543564,0.199237135139984
-0.326632302867403,0.183069494543302
-0.309019486674,0.225440227404152
-0.34304616423422,0.177501424425506
-0.317681520806218,0.177918736235087
-0.300148426167283,0.191907506267462
-0.324767929322104,0.170894479269671
-0.288157028856331,0.20604963491796
-0.289996903870076,0.170052260100628
-0.296732995683789,0.132043817627307
-0.278473219142434,0.16482820095384
-0.249878676761921,0.192914717879084
-0.238558890339196,0.136443768780745
-0.267133924075804,0.159230239896173
-0.277953501096458,0.135637200295219
-0.253758074890595,0.143112525018323
-0.255976306846342,0.15326705011657
-0.238780944698169,0.154095410704447
-0.253171852672919,0.158825733354849
-0.244997655630202,0.146947304803973
-0.259882874529132,0.156314817284854
-0.240325549494728,0.196286770633971
-0.263817290472997,0.14443180057919
-0.234687414249926,0.166015232431719
-0.217261582301458,0.147581617178882
-0.210773350995842,0.102081117958935
-0.205300876584981,0.140906925401764
-0.219801641342383,0.133373567114267
-0.209659865415826,0.123417723264443
-0.208368413535924,0.119752760496275
-0.20281847442194,0.118276232002507
-0.175226378315597,0.121794567134767
-0.171892085682408,0.0828013143140601
-0.170759378517707,0.102431355936767
-0.209066217582887,0.10395235863324
-0.182732172477749,0.10202686531633
-0.169583433336994,0.0750961495548672
-0.188763622113424,0.0842500365344689
-0.172930352287179,0.093454080563181
-0.144882277595406,0.0837550018618274
-0.202125459399159,0.0441827760086798
-0.148350994391195,0.0851467463026908
-0.140696253068499,0.0770898441708887
-0.153795814349859,0.0754556741814776
-0.146005224394581,0.0833078056377051
-0.159342700273182,0.0965887471677894
-0.144457672955418,0.066047398930809
-0.148605231425307,0.0324273965986079
-0.150369376178925,0.05882188840103
-0.14450095855969,0.037147467576436
-0.109515300309834,0.0315686572610606
-0.0994025781573966,0.0482609807478972
-0.126226086195745,0.0464560702545533
-0.102714688242666,0.032970591361557
-0.10030238986492,0.0465047253244744
-0.0989613323812686,0.00980290178218426
-0.129228413780001,0.0642459392621273
-0.150374264464747,0.00853829555539489
-0.105680923867822,0.0223718270541575
-0.102807764054526,0.0188292880996371
-0.132340933960398,0.0428721881332315
-0.0942788700450059,0.00805583910436521
-0.0912994141991737,0.0374484187083761
-0.0798863351783982,-0.0176102816173729
-0.0884333095475005,-0.0379370449779223
-0.100497873289122,-0.0193865893675654
-0.077619677049797,-0.014118392849066
-0.0767190392192078,-0.0296827654857457
-0.0721817687683511,-0.0216862575061642
-0.062471861248686,0.00568914371926584
-0.0641301031005236,-0.0331946463188409
-0.0788838677728214,-0.0330146592404432
-0.0588312853824639,-0.0409675524044101
-0.0532399046154805,-0.0615494355289326
-0.0738104515911162,-0.0487502526302914
-0.031857685809484,-0.0691840785932718
-0.0824237827806358,-0.0702475730705708
-0.0458197400870232,-0.0607333433170738
-0.0369869808636698,-0.0425281306000828
-0.0407072123724061,-0.0687663241480133
-0.0381702804213221,-0.0728086720321468
-0.0266911054417237,-0.059024090956092
-0.0214386669683142,-0.0839816444945832
-0.0373472766593079,-0.103026320894929
-0.0281490884403459,-0.0891429513446386
-0.0487844712068509,-0.0930785434891239
-0.0101413917099967,-0.0838316283905308
-0.036837603384095,-0.111490949757963
-0.00686470094827556,-0.0901312285280439
-0.0134858597677362,-0.114103698427035
0.0107506301882499,-0.110320612836657
-0.0191517638799335,-0.105223453817855
-0.035377991227992,-0.120130263942638
0.00787535627565072,-0.154367101109642
0.048821520795387,-0.153595304996463
-0.00737576837642438,-0.161214183827475
0.00772266202964568,-0.152440981814765
0.00567121957547327,-0.123157189185262
-0.00582624969089,-0.161593407182975
-0.0123156727977669,-0.184803856742353
0.0191208875443353,-0.174129196089845
0.0116915865096342,-0.146892077246383
0.0524926881402673,-0.154660681600235
0.0222529716965005,-0.194051095663789
0.0185952220685734,-0.204774962724175
-0.00542233874626471,-0.211947349097939
0.0368254086107955,-0.209286861298249
0.0324818716007989,-0.199903330563317
0.052551187241579,-0.236302087456919
0.0890420566268033,-0.227627587853823
0.0497003068628825,-0.23593839283715
0.0518142565228542,-0.240398300134998
0.0539193692414581,-0.244862489500078
0.0498412013289657,-0.259293735427427
0.0712783056058555,-0.23659478982038
0.052660023422882,-0.261959511393084
0.0884087601495999,-0.26633347320941
0.066684015501407,-0.278224187046488
0.051652397185847,-0.280744864444556
0.0706935098788157,-0.217599838926866
0.0685778921806667,-0.297422916813615
0.0709944943221139,-0.302665584224305
0.0765210962610038,-0.294159317396277
0.103924018259392,-0.314225361316064
0.1133595624493,-0.271350318314114
0.106836859539005,-0.34366077197626
0.0904147804314691,-0.325583930257163
0.0986679958295556,-0.342191296588224
0.0962632784328645,-0.339030726748399
0.0981993892351897,-0.343507850599883
0.104565801800029,-0.400242310279482
0.102052130670151,-0.352452458459137
0.103968962178628,-0.356919300008467
0.105879568131663,-0.361382071665306
0.103808797297406,-0.401309809002967
0.109682505123086,-0.370294120384628
0.111575037037315,-0.374742754988672
0.113461745147783,-0.379186034783344
0.117218091709115,-0.388055245027691
0.0638502894269263,-0.377312620611419
0.120952348310443,-0.39689918128391
0.152489458542499,-0.38436805680369
0.12466531845513,-0.405715273718238
0.126514072201033,-0.410112075429144
0.128357805646537,-0.414500952496917
0.130196619229561,-0.418881583692336
0.121710480798507,-0.416291736690017
0.170979323892379,-0.441942785099319
0.141131808139168,-0.444974218709119
0.160966097743984,-0.453626810265909
0.144742065394916,-0.453591234344578
0.146541119922034,-0.457883197373917
0.154004352036932,-0.459913049927844
0.18646169719035,-0.488483505143167
0.151915192355404,-0.470689052557729
0.17881177055123,-0.525337240235984
0.149791036071262,-0.479648908047376
0.151645192777309,-0.517522013203585
0.160801035526289,-0.491779424430195
0.207966707679132,-0.442344525649517
0.158906495122981,-0.49215529780291
0.153073529410554,-0.561590628307096
0.172149680161896,-0.522721879082762
0.186491312856378,-0.500160767418701
0.184596594403075,-0.565925832227281
0.178351878114407,-0.532867914648996
0.180093713343611,-0.53688724235517
0.181833541410021,-0.540889008541608
0.211244460436588,-0.562369718356173
0.210377591907976,-0.544828882451269
0.200249898186351,-0.527649288320685
0.181093101123287,-0.555696383365377
0.181287161660367,-0.53983639590263
0.193964574101977,-0.568382666039571
0.203189727342773,-0.596274342776289
0.196250441432069,-0.577756522371124
0.204087880141684,-0.569009399596699
0.229085123509025,-0.561757461307457
0.207758400656718,-0.598589683100165
0.177214994392171,-0.585811117408624
0.2112008469763,-0.605920850077136
0.214642496174963,-0.613158642471315
0.229720087572248,-0.636222200057245
0.21808415175607,-0.620300490448941
0.183258128455167,-0.627062561598793
0.202243165444959,-0.596964406428126
0.239727773073155,-0.635707634303078
0.224970696079062,-0.634286073819488
0.211133282234748,-0.664129358961427
0.233593224787678,-0.651182590525694
0.217015262763624,-0.67917822005117
0.254760912736237,-0.672570571644117
0.250793751120667,-0.654554944605542
0.235811934249709,-0.643707619211525
0.254714840127177,-0.620804449214863
0.271894137658849,-0.678388767415897
0.220633342248779,-0.709046509063488
0.249191917250679,-0.679835600932122
0.252677829341116,-0.685876663887364
0.254424052012158,-0.688850776259124
0.279746378937598,-0.670523848322841
0.227614032455352,-0.727817087600348
0.270303580002547,-0.721743641919342
0.266717961930706,-0.708773091491494
0.261671781964023,-0.715046927075934
0.267093563957079,-0.735183711514785
0.265433236196767,-0.716250514055569
0.249502116974308,-0.707294400915215
0.318919141868889,-0.732007781831878
0.276064409635772,-0.7059335662976
0.284545479932463,-0.734348283976697
0.268499316897643,-0.760176390191145
0.309026184290914,-0.719509411541227
0.297018125918979,-0.744104798010057
0.297257903666397,-0.750078333114838
0.279311513469112,-0.755413529190139
0.295840427009008,-0.762990573035993
0.302774909176163,-0.756239949167618
0.297763577081878,-0.77285867382109
0.289492896877991,-0.730101505450083
0.300364087675423,-0.763862406269746
0.315316222678594,-0.814599028165705
0.290603765738233,-0.747578503643581
0.305132625599937,-0.797902115371721
0.319608041548411,-0.772527536052416
0.329096903298193,-0.794583921624851
0.339860306804251,-0.746325082598961
0.313128087864584,-0.762887801851088
0.300173220838779,-0.793684623987608
0.311173665528069,-0.824718887467671
0.336921295985841,-0.785337094059093
0.326069737352475,-0.802062428996578
0.350636164012475,-0.845872470388178
0.344789339154755,-0.789852578915067
0.348766357742728,-0.791828918612017
0.349999480432671,-0.744342915622357
0.369878491106373,-0.82500956694156
0.358840756906132,-0.795928397680572
0.386265243024551,-0.813878759906888
0.364979827196506,-0.79779829640514
0.367042525052873,-0.798321370485248
0.36911356085223,-0.798793796435948
0.384473030819712,-0.793635675550026
0.375377700287432,-0.799903973219402
0.385504455652356,-0.797152616977069
0.367284000650625,-0.835154758796778
0.38172049697466,-0.800546752586264
0.387372297449929,-0.784842074819131
0.417951170325363,-0.781742535141924
0.373464033106816,-0.804026089011632
0.390304602052612,-0.800661738397108
0.392473984127577,-0.800555833795797
0.355612712533628,-0.785684949027682
0.368260553847845,-0.811359905906354
0.411738916800686,-0.827775627856033
0.400892159851333,-0.799985772390789
0.402910515676265,-0.799831275908516
0.402648717801861,-0.790693851711783
0.438048200268595,-0.805204386219339
0.426639996031694,-0.813610946977712
0.424234697073305,-0.771242936115248
0.414311512714649,-0.798799681004613
0.416095288287876,-0.798609830760168
0.435342851586449,-0.815648991846278
0.421250943376471,-0.798008531525867
0.425970369727262,-0.78802425501976
0.424526914632045,-0.797580692115437
0.428124853286026,-0.780579027063573
0.391204805009414,-0.799483456077916
0.433598356632591,-0.796163159967059
0.435001968766982,-0.79590681893416
0.42510412396878,-0.753029414011387
0.421188994110191,-0.821168598974668
0.454473652029912,-0.806824976635991
0.453477845272113,-0.787353823532117
0.445151671798364,-0.793640204096769
0.444068638239944,-0.779424977362152
0.453474182899339,-0.792564916215746
0.465135567470196,-0.798009374671544
0.44362009049353,-0.793629250721149
0.481174216352569,-0.786808592208166
0.421929335489578,-0.790285160162105
0.454365275174492,-0.790607811227427
0.455250686155801,-0.790237797419436
0.456940827549026,-0.789477301639176
0.434272226473186,-0.774850903991857
0.459277229549002,-0.788284613302954
0.452273107102231,-0.744577711018975
0.457002040200752,-0.746575325040278
0.46265392301431,-0.786154839166441
0.450489978144941,-0.785325176099174
0.46437803441799,-0.784789527390453
0.465404860998562,-0.78384202288378
0.460843940322102,-0.776998945789213
0.509107999109004,-0.747495010236372
0.471680113864273,-0.783953366618188
0.490281457580414,-0.752728999088831
0.48563856360871,-0.802571431479341
0.46852062203495,-0.776227735650121
0.463920413276885,-0.780082694902916
0.46937300270462,-0.778077722629987
0.469598210967941,-0.777505842326433
0.433472450825173,-0.788314959787132
0.47770793765282,-0.758009445052177
0.423159989735758,-0.796348732067627
0.477257771271647,-0.750278506009984
0.470576368638148,-0.773270212749124
0.512373724182183,-0.807372806414524
0.470669314155543,-0.771983762678484
0.445114236079933,-0.749292711872424
0.484835595907572,-0.767861680788245
0.451755829119847,-0.813119888432558
0.470118912824858,-0.765759921056212
0.451682886477279,-0.778429208453531
0.469790532509553,-0.764277758883972
0.443558419485828,-0.770281364296392
0.469390559142336,-0.762758670651026
0.469164206953197,-0.761985150219267
0.468920534767804,-0.761202243421304
0.468774054791726,-0.781722428243589
0.473137844294569,-0.782017921523728
0.44295009421176,-0.749205085514007
0.460089577814894,-0.766582616474856
0.456608240018378,-0.754895058284152
0.480711138653836,-0.735269740798194
0.461796598398736,-0.788513236465003
0.463930547601383,-0.740046677307738
0.469884544244537,-0.754527557655332
0.475641716136489,-0.738857186225512
0.462582985892761,-0.707965288429045
0.460706735431667,-0.743493480365658
0.474865825409838,-0.723013357876001
0.487631084752081,-0.719113242153445
0.45490301529888,-0.703834371264388
0.48339764714255,-0.720539389764419
0.456498756048185,-0.736327104900929
0.474178171646048,-0.746603123828688
0.453131516172197,-0.730884348349852
0.443928582652945,-0.711609917251741
0.442273345362075,-0.752230510573049
0.477895412693951,-0.729905750394225
0.485093192931192,-0.702346321540212
0.447962496885784,-0.722797275347189
0.447184084421493,-0.721596587953782
0.446396254939512,-0.720384397896805
0.426967621912497,-0.726640035934744
0.437574248631632,-0.733341480455092
0.444506882946351,-0.708050974141094
0.423989706459771,-0.715113514323197
0.436471704464358,-0.67313770621267
0.443843645582334,-0.717523963481509
0.432704182521968,-0.701409852728181
0.387495283844609,-0.710975394524698
0.437429169790974,-0.674489025208883
0.431749130190999,-0.697967242520477
0.427132777048605,-0.712049581043564
0.428958935169827,-0.693645547214009
0.406744609556198,-0.683866232974226
0.427071638143311,-0.690701569934261
0.47584420388109,-0.716529312452698
0.431252631980892,-0.684851524091117
0.416035934011823,-0.669297319595057
0.422723369872365,-0.666521782534293
0.428007276590464,-0.70583683063104
0.431651776458015,-0.694222402305991
0.396290198771678,-0.677959689944679
0.41835437463897,-0.676819562599527
0.417366975534323,-0.675212033527623
0.388128285440577,-0.679862404945507
0.413388745834226,-0.668649340821281
0.411925917628237,-0.636055971095219
0.411385149593319,-0.665287725978748
0.392433388666708,-0.70267321225196
0.405334939842329,-0.654876852260848
0.386242681601288,-0.656355506219057
0.421077277544258,-0.641315467745388
0.440785059003255,-0.658027593054199
0.378091116535819,-0.618054766927287
0.396951068996866,-0.662501738235622
0.405808183262894,-0.617014023590285
0.395212376172317,-0.636413855932384
0.375529944354931,-0.655113856752073
0.350907966817805,-0.668115432628003
0.409158105680747,-0.639828546034432
0.391185723481831,-0.628629983179812
0.406396835107624,-0.633577306507878
0.387250807310717,-0.631989548971596
0.386197853412911,-0.61857242360187
0.385208266394098,-0.616516699697896
0.384221791469951,-0.614446118024771
0.371755069063088,-0.613615686548674
0.352883244111176,-0.610043282689188
0.392055656965222,-0.605867750279325
0.398084149639362,-0.592464339572167
0.381053616842808,-0.623835236512786
0.394509203353525,-0.634441162811531
0.381470898870634,-0.603322379197448
0.369684426654326,-0.610036850130981
0.38479725588595,-0.59413770980199
0.372696998793251,-0.588421443362369
0.363749198423097,-0.579162947888043
0.362722301570914,-0.601129644249274
0.396664822994193,-0.585569383649119
0.350753532227237,-0.546468098277048
0.359632296748936,-0.56498419901241
0.358121910829009,-0.52502344149526
0.357000740595144,-0.576390660257502
0.359467669171333,-0.55273556756127
0.359825867364479,-0.556426140226711
0.385843123120881,-0.560964613882912
0.353300057662866,-0.534324261944418
0.304189878249591,-0.498778423093084
0.389791478972778,-0.55348852631749
0.364957436853526,-0.530119114654564
0.35240743527578,-0.529574462451387
0.370056414213886,-0.502369802540812
0.337083381213417,-0.508782739463241
0.343634436501855,-0.501570339837413
0.336766600838207,-0.555519412299459
0.330682543277419,-0.509866637501445
0.346176969505489,-0.505055181864631
0.358468643302146,-0.529206330588584
0.343710970994651,-0.493711924622559
0.352966172520366,-0.469814736176972
0.328252379545025,-0.519452002784111
0.319833589596985,-0.495061614106972
0.339893764816224,-0.473187850339643
0.338927135607719,-0.467164403923161
0.348141520345226,-0.4569758741112
0.348748534284528,-0.418214301397899
0.341242677335561,-0.460513718515629
0.335316558780178,-0.439166726236978
0.332581836203998,-0.420533304177416
0.334687675192169,-0.432744299937732
0.324346545296018,-0.421541242345435
0.333783743945839,-0.477432904363305
0.363595701826817,-0.423088189136327
0.334100704413873,-0.421384129194683
0.332363163956173,-0.392643728758689
0.332287828015284,-0.389179157333917
0.332231602881761,-0.385695443928255
0.302942579570895,-0.385297675280325
0.340815498720186,-0.362603886347369
0.3080976384729,-0.348215106490442
0.339395730050408,-0.348677778435701
0.332492921547705,-0.357130431329819
0.332762852178078,-0.349794145180679
0.369215402168943,-0.347119861203262
0.341281543249276,-0.335872376396113
0.325519352407694,-0.331405872634965
0.334088359096084,-0.327310600557239
0.334386509290708,-0.323493576074069
0.345255309103705,-0.29086287767404
0.344778961767454,-0.276930208227742
0.345956544609441,-0.328422977981968
0.334116336879244,-0.301163268744745
0.364124435729026,-0.311071177568042
0.346139429355598,-0.285233950245739
0.372449184023284,-0.275512736795963
0.341676354257147,-0.263800772855357
0.340913582900325,-0.286840197927471
0.346311356639042,-0.252120943429037
0.333123851876875,-0.244701932966009
0.301311617742832,-0.232558920481127
0.346160581143957,-0.238620150624885
0.350342565554794,-0.230854392165506
0.350627947513294,-0.217055008205505
0.351508039685941,-0.211121408490836
0.349756527100456,-0.172665008508794
0.353637929922131,-0.203859378138546
0.33516446676826,-0.216183082467925
0.358046523797873,-0.185963012112214
0.36149390635495,-0.176166742321134
0.365531509973253,-0.158464197282157
0.357970543905189,-0.138525548966774
0.381341675141351,-0.140399252752903
0.382893778462758,-0.101104265646299
0.378803606808484,-0.115721810736995
0.388637808631996,-0.141764848704837
0.372482121524553,-0.127416548027934
0.364326002137156,-0.0838875640831702
0.388736748162034,-0.118121465357972
0.390901782399914,-0.0812169319531024
0.393949727395076,-0.0471907111569569
0.394654150342719,-0.0711529792099562
0.388666814630677,-0.0379722199122821
0.383211331452524,-0.03834778314867
0.397327856337196,-0.0475710808822616
0.398165057014883,-0.0681549254027609
0.41548636563333,-0.039443851607736
0.417733594594931,-0.0141447194301731
0.432230633888828,0.00602928954486994
0.422386280947105,-0.0034750407841815
0.434784500522408,-0.00497880829677783
0.426754876961579,0.00360125549585878
0.437216267332576,0.0291040695623128
0.4398330287471,0.0565775642949517
0.425255956586507,0.0475543435106159
0.459081649279061,0.0738884732575173
0.462143846599635,0.106468048561631
0.500603816507217,0.0927832636084177
0.474727695369984,0.103699914014106
0.455857613746931,0.142365054013771
0.516858121892598,0.144576680951313
0.505700634445516,0.182191255338823
0.510355304215554,0.168169836390369
0.510355304215554,0.168169836390369
0.546748168553175,0.168521746527196
0.539236564675946,0.207210202388915
0.550710056112967,0.234205499669593
0.558381175516271,0.247880678636667
0.575955949758379,0.270258554110536
0.537517826190396,0.293268468145816
0.539037618062234,0.272685507296012
0.568463986289993,0.287800872804223
0.553710728516009,0.279275822028508
0.587996701844453,0.278450078986394
0.576961621758711,0.307025761897755
0.577946824267322,0.296908232096003
0.580988582988964,0.319445149878968
0.565402596053598,0.315043272707194
0.57045297729367,0.323978067232749
0.585369612278707,0.335123094376409
0.586290973944969,0.338887523402773
0.588643896515803,0.349814210473276
0.592443526893904,0.347537660413295
0.59075659193777,0.35477281526403
0.581230387991332,0.369095347715925
0.591785227758523,0.373215725155182
0.570713756505794,0.347895316655749
0.591940972147832,0.391012734776284
0.591745581787564,0.393781606443893
0.572506056215732,0.38456736995903
0.57239805891089,0.416520165679756
0.591833957678885,0.409703988211963
0.586204238612204,0.403272561226083
0.569685554014325,0.428906331423035
0.552763587385447,0.417968871147527
0.582843735981057,0.422393108488258
0.600646861727111,0.42984484593796
0.558642362653826,0.444983741558717
0.570864034523747,0.4428625455129
0.56979265688916,0.462795705144972
0.531300438491731,0.422593813183594
0.615203007899064,0.422592696920028
0.555127065239345,0.467593099468839
0.564738107861561,0.410448618968392
0.54404396066992,0.460169578481414
0.540437567616743,0.472364815843493
0.532134854287398,0.464275793351517
0.556083367495522,0.461127207429189
0.518443720581666,0.464035103568312
0.495250525218282,0.474835141841919
0.507834850122239,0.469118535214172
0.504917246229071,0.469463011715391
0.4833367956399,0.470845062874432
0.450273144729485,0.443502334592449
0.476804816230525,0.483573580491477
0.444155171364179,0.497799384197362
0.44557550673321,0.469594584404221
0.434517330962433,0.468578479524805
0.428121817047242,0.451160338504002
0.397549560457102,0.484388530652341
0.416403318217338,0.440432804682713
0.349131279612572,0.45438239044693
0.335912491325847,0.434093032582277
0.245016483093872,0.429670236580144
0.251557807002061,0.437660864748876
0.259955642116847,0.437448753999154
0.225523845370878,0.417610342936665
0.235468263363969,0.452288404713849
0.252548604262872,0.428741830671842
0.203747212970583,0.391941504312732
0.213215207428205,0.418832072905825
0.188273424744609,0.411372437291052
0.131072716736207,0.434738821430778
0.186834047907612,0.414434285677049
0.147725560445059,0.398875142463366
0.112459101271483,0.425532155026482
0.103693848687663,0.363189452219019
0.111734347437876,0.387493851430375
0.0961981069230407,0.382519827316924
0.0975998776726759,0.35507816972003
0.0701944624791235,0.374135956268811
0.0649807273225737,0.372448222007797
0.0445457989111946,0.379347420957384
0.0545433443151405,0.369064561947675
0.0257378742050122,0.38164571610588
0.0388682885183442,0.363973783974699
0.00225871652788201,0.35207240756746
-0.0323266671786594,0.327638267689837
-0.101561673423866,0.31882623372885
-0.0882977863206572,0.346391824296083
-0.129135999936316,0.322324313876829
-0.124379485782106,0.262129286657074
-0.147299061440096,0.304773642044075
-0.157426531657862,0.32144186212848
-0.17193839858865,0.313869998309159
-0.20180559801769,0.288871334202378
-0.245670516053445,0.291283926403491
-0.226247718180598,0.300147837860855
-0.220984253086936,0.266045644925132
-0.27909914725228,0.309654939199737
-0.268191739771988,0.271343751621534
-0.274441699034469,0.251027177168771
-0.324534149854564,0.244173692389259
-0.348863686194779,0.268664349750722
-0.368451786711481,0.286358765493947
-0.393869357788693,0.267508481107938
-0.391276129579359,0.266162779127514
-0.398254233247231,0.247846565703372
-0.387824863258931,0.2601924357914
-0.440820548038622,0.225935855744241
-0.439695305208037,0.232363694086343
-0.440531115750549,0.247666445138458
-0.443714276726081,0.246185654903004
-0.471371029725839,0.242450026077832
-0.517894534494737,0.261342803015104
-0.498033301825048,0.254675818795255
-0.481266019575021,0.253867668935161
-0.535369499732311,0.283037929425276
-0.533687342110792,0.309498428681075
-0.522107325304821,0.276088117995906
-0.516471260310991,0.295645527939935
-0.540791857770511,0.278937505173035
-0.544663074718402,0.291217214967567
-0.556601109171044,0.313308490902586
