-0.915359744239461,0.493064236966167
-0.919925194667626,0.517232141028804
-0.863978154030057,0.509747895171987
-0.907275649854675,0.438256743093974
-0.84961089511115,0.410063255737374
-0.840414002994093,0.422822013177739
-0.858920438788833,0.418694948407061
-0.812332376070425,0.396722766708714
-0.769649293749188,0.407696129379409
-0.823579401999546,0.386546566194544
-0.772174513874176,0.359665577589268
-0.719384767226635,0.375381866489829
-0.770918263102192,0.29436308475429
-0.750588171660038,0.3390258942702
-0.722184396356327,0.314078728418165
-0.710303437962685,0.303351673944363
-0.720291126592469,0.249540898752152
-0.715062081095723,0.235463052388061
-0.676097089766352,0.272746552487673
-0.686545329057568,0.270869370296836
-0.673050792147093,0.249452864198674
-0.631721046931118,0.243951774439843
-0.642457121548975,0.257711859647028
-0.576564383669969,0.230312758785607
-0.613905520784083,0.218453353910923
-0.604315170096872,0.210278437459691
-0.637076071601031,0.213017145911956
-0.583508621563008,0.158684084594708
-0.576818482339654,0.187212967067643
-0.5680686988176,0.180004416424007
-0.559522300308495,0.173032592107142
-0.580141910114629,0.143062337669948
-0.495617465530983,0.136272516447858
-0.49866275462747,0.162514224075017
-0.56290984096519,0.130784619109558
-0.519746488060438,0.141656253672599
-0.548717494322573,0.121089454088895
-0.486690705497493,0.141788883212557
-0.498148647341473,0.125546619329857
-0.472621220853981,0.134517603714816
-0.484649894435671,0.11590616589967
-0.478162352120815,0.111409891873915
-0.430809116298671,0.114329625518757
-0.482996166876099,0.0846320906523843
-0.459714629192386,0.099193527953394
-0.45389468051717,0.0955390725319641
-0.404013226883553,0.136537729141407
-0.432904808399733,0.0935556468092993
-0.473683837405404,0.120471203411693
-0.46847739022999,0.0386622192846836
-0.404302034201356,0.108207342685954
-0.422243367832064,0.0778616082966152
-0.435772725946495,0.0696128203813807
-0.4128731620997,0.0735411838905503
-0.416274784095771,0.0961842875237141
-0.391003100623766,0.0324550463788115
-0.399849996279411,0.0684808405979077
-0.398687337516382,0.051183825943737
-0.407434576991163,0.0861929704302132
-0.388000536720963,0.065078144083784
-0.384298927828987,0.0643031962962861
-0.398572182477637,0.0172320416326255
-0.377251810218278,0.0632805509967986
-0.373900896076872,0.0630289613847068
-0.370661474762985,0.0629479323976481
-0.333132934196247,0.0157621373199541
-0.396875801556487,0.0296558515302787
-0.361585140673065,0.0637087486861595
-0.358764663555885,0.064290501698722
-0.324222793470542,0.0783759184805376
-0.401928731331605,0.0501322851722134
-0.37535693677967,0.0403376845767698
-0.303025460387046,0.0509789317245754
-0.38288407640174,0.111093272839721
-0.385186844673925,0.106482100725915
-0.339934115510712,0.0958806311891311
-0.339501072616326,0.0745709510869176
-0.377173870525043,0.0917783563361867
-0.335502804909629,0.078632604178674
-0.366135304596394,0.0522387152711419
-0.363757269180941,0.0638146069296766
-0.291350069433591,0.0886640268571872
-0.32833607369524,0.088436780452973
-0.368596398628047,0.0645085181285564
-0.296358822302127,0.0777522351957356
-0.353218106848641,0.0808304804986784
-0.322131603474925,0.10037832751226
-0.336376163603445,0.063183329921605
-0.319336162010821,0.107111694085252
-0.295988624846775,0.148070505974899
-0.272212120809332,0.109383239806834
-0.315465680867166,0.118121199122774
-0.266859823672949,0.122903049225885
-0.313068949174142,0.12604446868255
-0.333450978591257,0.127825486872693
-0.294224596010657,0.14940676900725
-0.345591989622447,0.179309353713304
-0.265770738936547,0.140201701840484
-0.307562023523246,0.147781721367332
-0.348621152606596,0.142439176749744
-0.305496457757492,0.15720738690431
-0.3044822649924,0.162069027857537
-0.273311204989906,0.156596183086952
-0.282405852508897,0.147278803540264
-0.283528607199775,0.211675155417677
-0.257752602399942,0.185141108152751
-0.299489093891338,0.187787472469003
-0.307111986077072,0.205630347514504
-0.29747767811069,0.198696635973792
-0.318893718730816,0.215698761354037
-0.25333162428553,0.233316899322562
-0.288227116555529,0.202211909343314
-0.258461993899646,0.182210053087273
-0.318171101084724,0.265893836882281
-0.276670153696474,0.241870396421244
-0.289505650835766,0.243329911106997
-0.337051681815257,0.282275609593237
-0.306157314074952,0.248631128997002
-0.286380414436941,0.257910387853507
-0.275701936117798,0.300167076371929
-0.272840001249219,0.255716978256687
-0.289695659748905,0.277314640615557
-0.281052484514995,0.283483647830452
-0.290485692100132,0.328822566933034
-0.278111527551453,0.296612524051231
-0.226916772118263,0.313383965002485
-0.303339372924946,0.304206498115781
-0.258659717783548,0.291854101531496
-0.250313684506301,0.331502314435007
-0.232400295944968,0.332612318502567
-0.251596345706374,0.296544969404157
-0.265995050068178,0.34409474771158
-0.300429600935082,0.324391205563411
-0.227015273307234,0.345305307778155
-0.305257110779361,0.381337945461427
-0.233607378182196,0.362757300607015
-0.266577687208111,0.423035345336646
-0.211432907593501,0.370942645529836
-0.250336286961005,0.393450203228209
-0.277451377988691,0.356344033724493
-0.242700660103373,0.436458527540877
-0.251794563670723,0.459173412053603
-0.239441250478368,0.422237484933781
-0.236469194715941,0.429481227162788
-0.256834862708646,0.388305015385407
-0.241307843587978,0.469155698602398
-0.226913872107039,0.451293929375264
-0.209068260861924,0.499682868525756
-0.219984000486392,0.465884166620949
-0.181911238482085,0.490508459167117
-0.218867858507088,0.497538755438819
-0.223239671726713,0.49932848175295
-0.20468378392168,0.495110829160161
-0.198609334999744,0.49919531605074
-0.0383795885618458,0.597900328171108
-0.119860398617493,0.588279268064177
-0.187318791654484,0.524295286427103
-0.237376130036672,0.376228199630418
-0.323863330172113,0.657815895111376
-0.121260349645972,0.668608778795408
-0.23821665276496,0.506951918753785
-0.0446329453027304,0.453121329282474
-0.0236866584055827,0.656019738304114
-0.284241957507676,0.482230391745925
-0.00970046918115591,0.738856986585085
-0.179431901528407,0.628237251195708
-0.0399915005861526,0.496509812725672
-0.0319651021965005,0.50785396112523
0.0115847597494997,0.461293975094928
-0.114532162372243,0.617348022668506
-0.214193963902733,0.718677572083382
-0.166258100488585,0.5569862351913
-0.0123568138809804,0.515122814801149
-0.190011037081569,0.495866481383351
-0.0570407882488718,0.612190712992359
-0.164622028677392,0.524548232995975
0.0447977503145798,0.743324255478835
-0.152201817872235,0.747182568134935
0.0669932656477618,0.787044565515725
0.0591756288900932,0.580402026595922
-0.0415701880613588,0.728514039370812
0.0692459794620244,0.602986191469621
-0.0606536169455816,0.692740482329887
-0.0515925249270248,0.70805478381385
0.00657965002897152,0.716942774597296
-0.023430137131588,0.68140888995956
0.00464264175129162,0.723301239997019
-0.00206590611213052,0.710012470968786
0.0593624339469998,0.756724227312984
0.0840647709479618,0.785450646421347
0.114122934594944,0.774307006976717
0.0791397528891444,0.758821734242461
0.0953797628891537,0.781786586501321
0.10194075819081,0.770109538001108
0.113699698955259,0.775630774083037
0.125701202077235,0.781067638233302
0.137947970268074,0.786418184401852
0.179146172956425,0.777567244015288
0.163188112701683,0.796852538593602
0.16649337103412,0.775555835225896
0.182782141748218,0.804437245788157
0.195937027025768,0.809338049293803
0.183013939263298,0.824642449448767
0.217026809705505,0.811031544547329
0.190755334595463,0.786779296156195
0.246582464169606,0.82725876124068
0.25875721240884,0.831324111011463
0.316981709919012,0.829366026965816
0.288701144378351,0.815545472106343
0.294135718437965,0.842543123975136
0.305551250848057,0.845960981048796
0.35629695149867,0.81569052373257
0.347804119960224,0.89339786171515
0.297912331876089,0.842566350592802
0.328596859274274,0.901959256395821
0.359861375405177,0.860688837787276
0.418717278971931,0.846241632658876
0.427632481067472,0.89151263855109
0.390283207747798,0.867678149508045
0.363293970300684,0.871017917923075
0.409685711462571,0.871587264030894
0.419127496932785,0.873320171686814
0.428398148796846,0.874906858886528
0.437499050043728,0.876348485090635
0.446431583662404,0.877646209759734
0.497994922553748,0.92514151032199
0.421583367405777,0.843804239231105
0.447433811069885,0.88291127656629
0.434044490075598,0.907797895119704
0.520897974291586,0.856087113104466
0.49656851256461,0.88247555533263
0.478057928002303,0.868373302325937
0.559840688674476,0.910155343952705
0.530944528704963,0.880446386222798
0.537630156432187,0.929547987177922
0.533972724852467,0.882755285540293
0.540992720072551,0.88241662971594
0.502790145184428,0.870850215652234
0.554582927187014,0.881353991886135
0.609704667820686,0.894768153861279
0.519038244547954,0.863697976726198
0.608577656130497,0.862950108951627
0.580002931804361,0.877719876398872
0.61449140726494,0.905447828285942
0.591854857130811,0.875166950110985
0.581985563532174,0.825784512962712
0.603149483018156,0.872135812373309
0.604952209761531,0.867907595311984
0.613897873378178,0.86863573887063
0.627827814920304,0.826668235411834
0.628024429245828,0.85343984474501
0.619645546376892,0.827368607011814
0.67234380757516,0.861129118852752
0.63845167576727,0.857894832823443
0.642976270412135,0.855414660620422
0.647375370086952,0.852826530160935
0.651650357780694,0.850131600905581
0.631707413444565,0.82678480918642
0.695928382699812,0.826054082194084
0.642494053189325,0.808608516178855
0.71191117529575,0.87448419914695
0.661908418344154,0.873214816793992
0.674771379723051,0.831784180453739
0.63188331457223,0.830028020265041
0.690817696994898,0.850106414714769
0.684768401056517,0.821262602792062
0.713228737952994,0.853983073816826
0.699387380092617,0.798546327080839
0.71548165495759,0.85315649585034
0.696560267504161,0.805906384734218
0.726288195546425,0.850039533409185
0.743196226888382,0.813802377519684
0.704299450456209,0.793434216430067
0.716751253191639,0.797252464889503
0.708953594933271,0.78468206529781
0.711133222891429,0.78017825643463
0.713216398647969,0.775590837987546
0.715204505191864,0.770920969417156
0.754047650955505,0.757236860448882
0.752097081734997,0.720635720420042
0.720612239437406,0.756428257572136
0.705162386649137,0.769635862286711
0.733227944313849,0.70067690665515
0.700536898904299,0.746506665350595
0.726575484118782,0.736020680662119
0.701897879562391,0.690432144379446
0.729047542698405,0.725373207733597
0.76127007631396,0.719347889097032
0.768332874201552,0.751269189616442
0.732149793118396,0.708873480612381
0.760585854456469,0.740993059181337
0.733830203303444,0.697534844419593
0.739403086781352,0.734036820147006
0.734524943818504,0.687387365069993
0.70672843750628,0.637503451424926
0.780820945241721,0.68558259011896
0.749235321962963,0.690604741197702
0.745279991294448,0.69757397703751
0.767235463905746,0.611098357393926
0.690718792681383,0.60849261839741
0.70717094050212,0.630347420228362
0.787566087293311,0.626527818625865
0.767280398816747,0.667901957609762
0.777354386222235,0.603894014744946
0.71697168084384,0.659534850802239
0.694024719424058,0.578280326463366
0.735375369629062,0.591183694957576
0.773510875255008,0.615991810040234
0.774183554947802,0.547532580798462
0.759046962909405,0.546707654985927
0.761682343891533,0.60302700451409
0.746287801219612,0.548473913449115
0.718530421591816,0.607344594547858
0.735127140125348,0.557675128367826
0.773367532006097,0.529530383127015
0.739684097226009,0.545375966021013
0.766415831450995,0.554139292947758
0.68828292556972,0.565357042261243
0.731929748317989,0.522775705107171
0.780342020901301,0.514485416561311
0.750167690947639,0.525515478910126
0.708501232870417,0.530002915927302
0.68786864735009,0.49850658209461
0.727807764615993,0.487032462391962
0.726887629726939,0.479795309580954
0.723417370246255,0.447263066689946
0.724962685711958,0.465241775375757
0.700866828615761,0.443663558679905
0.693066954592874,0.458737674517877
0.740725360608856,0.456389510605488
0.69133470937162,0.402802465140995
0.750783937953181,0.420906877512059
0.668995802276834,0.452082800001286
0.71054861626976,0.46165704376228
0.726340402863014,0.378927962846462
0.718658410412486,0.384383611529375
0.719119245737321,0.395398198836246
0.761641957693795,0.383914575331481
0.711622998358242,0.376189143266743
0.710417791182111,0.368671793599648
0.709204643098624,0.361145039826933
0.74536595907935,0.347713614699087
0.732677527168409,0.316913566279795
0.726639876761171,0.330036290965382
0.677775367752972,0.335213154968276
0.709935995032949,0.363022317453941
0.701836442925713,0.315851960766112
0.697902050013876,0.266099716251676
0.741391092217185,0.345334209685884
0.69215985358695,0.262133622488922
0.696940669933221,0.285615357622259
0.666187074404381,0.312528091286234
0.675902828260828,0.253219550565198
0.650925797656945,0.239941906065802
0.678764958236507,0.294720388821668
0.690994945465179,0.247903673768521
0.667331805871251,0.282227267802149
0.648401647436042,0.272928744522883
0.665729627104352,0.196051349143222
0.686485432448688,0.217892020673051
0.720340366293908,0.236935931419106
0.707457658059435,0.179978393598264
0.683305505381978,0.195523966355958
0.674126060920186,0.160706220860648
0.706976677406101,0.158171831051912
0.637169179227923,0.134312281600296
0.724478942299956,0.176417964218721
0.641118220971401,0.170458405946582
0.718875552662387,0.164157714242836
0.672179662522833,0.191554959060296
0.67597730397897,0.136720442098971
0.707828498270734,0.0976916514143312
0.719405661208586,0.127552426124554
0.661851137614922,0.0714797917691942
0.690811136507106,0.111450295203854
0.65342037906567,0.0892740572320922
0.653951718579675,0.116323475994576
0.671374842361453,0.086640374392106
0.643801746758504,0.0635342330148355
0.670440622555797,0.0726262902837372
0.692485638446707,0.0606631417494269
0.669695917356375,0.0587601034485954
0.70867331866313,0.081382848908818
0.669151790674969,0.0450510895714662
0.701117081693925,0.0800441083857206
0.675626192959718,0.0545467982895303
0.669045336165865,0.0236022028435192
0.668709528513336,0.0181416834303871
0.632818337826973,-0.0364443546103309
0.674604908097897,-0.015691402350821
0.693231627592452,-0.0285618227352828
0.71314407255771,-0.0145318322505703
0.635727493407175,-0.0638651154349185
0.635452486069977,-0.0642513692173229
0.66456874147308,-0.0288919079837052
0.670718758524707,-0.0333829232250614
0.630917267124943,-0.0654231841246234
0.641461174133033,-0.0468622661705526
0.670186515535262,-0.0589490821798052
0.640262311345535,-0.0786339825496953
0.632327456894086,-0.0155168957032213
0.709998493268035,-0.103565560817356
0.67536380598913,-0.0726285234779288
0.676108895174748,-0.0784079335146908
0.676815763894156,-0.0841113938281251
0.677484543528848,-0.0897388931523194
0.714802883718048,-0.097438840013169
0.710727399768602,-0.0648448766244877
0.67926366173956,-0.10616551253034
0.718690654167127,-0.0622996932302181
0.657110039661488,-0.10474553047444
0.680704707921591,-0.121908077432361
0.681110542645087,-0.127003534386333
0.681479339335815,-0.132022940223768
0.681811229375268,-0.136966283678752
0.68210634414494,-0.141833553485375
0.682364815026324,-0.146624738377722
0.633217981704237,-0.10783263502311
0.648650032520154,-0.120387169280921
0.682921678155686,-0.160541670909998
0.683034887298855,-0.165028403486126
0.697596984204826,-0.175223597044023
0.683153476024226,-0.173773433640963
0.704606633946924,-0.166946860411413
0.668234177091844,-0.224785952477264
0.639250020312283,-0.181527634597491
0.682963013912921,-0.190349438515422
0.637646925950937,-0.164511375100474
0.68265606518014,-0.198180232980447
0.682450121229695,-0.201981288789216
0.710224727358298,-0.163562729880439
0.710814104203901,-0.180613799524536
0.697037122073934,-0.16912861361212
0.681279613769068,-0.216422972994714
0.687355098334191,-0.193260726625318
0.636321954991213,-0.227141734987735
0.652257202526391,-0.191548893877582
0.655429307068046,-0.242704763554717
0.675897871782908,-0.246504390782611
0.647361540413737,-0.281397951743845
0.708088539028689,-0.215079187117945
0.677301614235991,-0.241643810753999
0.638683104319053,-0.203390997787563
0.670672027344602,-0.232878515567702
0.688437565236812,-0.232851861802549
0.663272919512439,-0.260255273294989
0.673731185621953,-0.254924921085957
0.656370877900558,-0.260780380059324
0.638180585971543,-0.281375042570449
0.67119702465772,-0.26197646752179
0.677934742804467,-0.303449584194315
0.645916312854459,-0.294679951384092
0.639700702176582,-0.287025157398035
0.664459577305321,-0.257462413651504
0.647917247805602,-0.310782309841363
0.665263473256861,-0.274014621421001
0.664163921431425,-0.275753171694353
0.6268803542221,-0.278991690406986
0.661871177420886,-0.279000620525119
0.66067824799877,-0.280509496550708
0.702285513769664,-0.247013027286838
0.658199931228314,-0.283297495492738
0.645564902006452,-0.260629030965647
0.674019869883001,-0.275587406559272
0.643003215186382,-0.32787542763344
0.648895236294325,-0.319332906900018
0.675176728688086,-0.301703995151513
0.617939764813063,-0.284963321504053
0.665316226262844,-0.292043700907283
0.679947484654434,-0.243365066594094
0.628258902222864,-0.330119871463462
0.610754369358891,-0.273652279485808
0.642409446040778,-0.293151948179822
0.597935800225877,-0.310115956134693
0.670262499527237,-0.254488397694501
0.629119640626374,-0.306325127399566
0.635783600427869,-0.294434361996309
0.618056677163875,-0.318826661228332
0.669065189862543,-0.316894832292575
0.631090495375594,-0.330012858014723
0.594403258914113,-0.28882291621922
0.64552239146016,-0.30385008188092
0.628577330897438,-0.245130724449707
0.610585078740631,-0.292706093701626
0.612979645655659,-0.311785619920707
0.619213424889235,-0.292827524764153
0.654924273800987,-0.316193223870208
0.57067594278645,-0.250249200870862
0.57127710667234,-0.307844542036425
0.611129582452292,-0.290115151341351
0.571769665100089,-0.337629966983815
0.61420300385241,-0.31558010878404
0.649098553216802,-0.330829746256482
0.586704339281346,-0.276055159073588
0.557628198888548,-0.322082804763844
0.572779571832154,-0.245689875844789
0.630260905680515,-0.281022314813625
0.550093432073119,-0.23534788669928
0.557164794873349,-0.327801215081429
0.589053853725316,-0.27794833913213
0.559161969246085,-0.27286551173157
0.54222935359855,-0.226901656863097
0.581925804314042,-0.272796698675804
0.598124694534305,-0.232987027369546
0.577047483912279,-0.268976965238252
0.592632095874494,-0.301474804675454
0.596024777755302,-0.279289283134716
0.606054550558056,-0.261578056037941
0.613490860608311,-0.227536352470453
0.537305617375412,-0.297084478495403
0.561817904466033,-0.255667302485321
0.559194305570534,-0.25317904796188
0.524332441392053,-0.246803370823347
0.566430941678142,-0.249815980272562
0.5646215385414,-0.196967098314667
0.548460911154377,-0.242454252790521
0.565617205686419,-0.209643497654375
0.542952653986709,-0.236628631235512
0.540163595248205,-0.233599975034982
0.53872881261496,-0.22594490824634
0.508690109502906,-0.261290249152709
0.531658274991936,-0.224050489550346
0.528777558164572,-0.220712784541411
0.525874255268727,-0.217297789165595
0.491297546140167,-0.23849746298342
0.500279013594471,-0.228904106195783
0.490269199513169,-0.227300942219273
0.471988908774547,-0.200134065581161
0.476339736331159,-0.236981985283944
0.507987487819188,-0.19518408831509
0.511908746516881,-0.214720626344281
0.501850499415865,-0.187194021041846
0.461790481467901,-0.186773613820484
0.4477482820134,-0.206160041335371
0.51310385355141,-0.190372451467397
0.517086454640037,-0.136473636085521
0.486135763970502,-0.165864299903666
0.503583046434573,-0.117264011009428
0.514853783485201,-0.177044085233729
0.468491715139412,-0.140666641719086
0.498274732495799,-0.109542521332909
0.447771777836914,-0.167210620926679
0.43747681153437,-0.0923671602794291
0.46326745047079,-0.132749555099246
0.443029174287888,-0.124483315770333
0.406973336433684,-0.157279816856103
0.497514404667965,-0.159792966021657
0.453674851072125,-0.143175832092525
0.416988349562168,-0.084128006412607
0.423578742171631,-0.141097556537408
0.439427611172329,-0.0958359896939411
0.473564210460931,-0.0456357641522402
0.434641436755438,-0.0752895143831587
0.428924298757463,-0.0788520283664085
0.409329991920642,-0.106863711100115
0.431162753051114,-0.0829010838563335
0.418254367162958,-0.0611693105474299
0.368055870204181,-0.0315786091447383
0.400177201681151,-0.082734180819503
0.407421363689139,-0.0427875320573751
0.381451951117735,-0.0707127228836758
0.35212318877822,-0.0166819873471341
0.378074430157011,-0.0729688119165922
0.437002562889536,0.0288671865490952
0.432455096610938,0.0298347666513822
0.385280330304857,-0.00392557634551762
0.423675279328332,-0.0254938407519082
0.360376373571028,0.0252348465861556
0.389745249418183,-0.00657739465332011
0.391452411210125,0.0531056887445518
0.385610852555419,0.0466969262723399
0.362529577007217,0.0377362722062033
0.340520665831452,0.0718041201638034
0.332410691194472,0.0886249540331831
0.350934423641701,0.0596179167460873
0.347037688882901,0.0670675356268003
0.372490305750756,0.0293765192311727
0.289958743828691,0.0936727042299272
0.335274587189424,0.105554787563381
0.301178089904997,0.0703380187222374
0.310746175446689,0.0855221452429778
0.325854404894199,0.0697172166413461
0.319330463153845,0.121396347569302
0.348737390950259,0.116980760550574
0.338690692733492,0.16450918887413
0.263918290521919,0.123999497072265
0.278191939749176,0.168270666446827
0.299095864637116,0.162541406144153
0.275798174825572,0.208339034131205
0.290902781660152,0.17954550927094
0.251687563538958,0.15399508639104
0.246989276158116,0.174281773534414
0.303681640673227,0.255417058376476
0.308824579436273,0.248053371511103
0.270181161996608,0.223421754943884
0.261201295359283,0.269029195228154
0.264683116532348,0.260337716153075
0.210276972377077,0.261699279084863
0.208035101978424,0.264584509674279
0.282226571423162,0.24553419205439
