-0.7212025345513,0.0791564909210236
0.368672938801387,0.417364195309703
0.668615961192968,0.221065133860871
0.323949396603418,0.00762760779041582
-0.0207171679861324,-0.205809918280039
0.581265462067107,0.658913873257547
-0.228826700202399,-0.400351642572921
-1.03891886247191,-1.45961715840339
-0.743756214997658,-0.0278434435646759
0.81565610462978,-0.214158812203281
