0.530466063338527,-0.534216162419334
0.526757824174933,-0.536025783237154
0.523062732565797,-0.537826061889934
0.51938077204702,-0.539616982109442
0.515711926154504,-0.541398527627446
0.512056178424148,-0.543170682175712
0.508413512391854,-0.544933429486008
0.50478391159352,-0.546686753290101
0.50116735956505,-0.548430637319759
0.497563839842342,-0.55016506530675
0.493973335961298,-0.55189002098284
0.490395831457818,-0.553605488079797
0.486831309867802,-0.555311450329389
0.483279754727152,-0.557007891463383
0.479741149571768,-0.558694795213546
0.47621547793755,-0.560372145311645
0.472702723360399,-0.562039925489449
0.469202869376215,-0.563698119478725
0.4657158995209,-0.56534671101124
0.462241797330354,-0.56698568381876
0.458780546340477,-0.568615021633055
0.455332130087169,-0.570234708185892
0.451896532106333,-0.571844727209037
0.448473735933867,-0.573445062434257
0.445063725105673,-0.575035697593322
0.441666483157652,-0.576616616417998
0.438281993625703,-0.578187802640052
0.434910240045728,-0.579749239991251
0.431551205953627,-0.581300912203365
0.4282048748853,-0.582842803008158
0.424871230376648,-0.5843748961374
0.421550255963573,-0.585897175322857
0.418241935181974,-0.587409624296297
0.414946251567751,-0.588912226789488
0.411663188656806,-0.590404966534196
0.40839272998504,-0.591887827262189
0.405134859088352,-0.593360792705235
0.401889559502643,-0.594823846595102
0.398656814763814,-0.596276972663555
0.395436608407766,-0.597720154642363
0.392228923970398,-0.599153376263294
0.389033744987613,-0.600576621258114
0.385851054995309,-0.601989873358592
0.382680837529389,-0.603393116296493
0.379523076125751,-0.604786333803587
0.376377754320298,-0.606169509611641
0.373244855648929,-0.607542627452421
0.370124363647546,-0.608905671057695
0.367016261852048,-0.610258624159231
0.363920533798337,-0.611601470488796
0.360837163022312,-0.612934193778157
0.357766133059875,-0.614256777759083
0.354707427446926,-0.615569206163339
0.351661029719365,-0.616871462722695
0.348626923413094,-0.618163531168916
0.345605092064012,-0.619445395233772
0.342595519208022,-0.620717038649028
0.339598188381022,-0.621978445146452
0.336613083118913,-0.623229598457813
0.333640186957597,-0.624470482314876
0.330679483432973,-0.625701080449411
0.327730956080943,-0.626921376593183
0.324794588437407,-0.628131354477961
0.321870364038265,-0.629330997835512
0.318958266419419,-0.630520290397603
0.316058279116768,-0.631699215896003
0.313170385666213,-0.632867758062477
0.310294569603655,-0.634025900628793
0.307430814464995,-0.635173627326721
0.304579103786133,-0.636310921888025
0.301739421102969,-0.637437768044474
0.298911749951404,-0.638554149527836
0.296096073867339,-0.639660050069877
0.293292376386675,-0.640755453402366
0.290500641045311,-0.641840343257069
0.287720851379149,-0.642914703365754
0.284952990924089,-0.643978517460188
0.282197043216032,-0.645031769272139
0.279452991790878,-0.646074442533375
0.276720820184528,-0.647106520975662
0.274000511932882,-0.648127988330768
0.271292050571842,-0.649138828330461
0.268595419637307,-0.650139024706508
0.265910602665178,-0.651128561190675
0.263237583191356,-0.652107421514732
0.260576344751741,-0.653075589410445
0.257926870882235,-0.654033048609582
0.255289145118736,-0.654979782843909
0.252663150997148,-0.655915775845195
0.250048872053368,-0.656841011345207
0.247446291823299,-0.657755473075712
0.244855393842841,-0.658659144768478
0.242276161647895,-0.659552010155272
0.23970857877436,-0.660434052967862
0.237152628758138,-0.661305256938014
0.23460829513513,-0.662165605797497
0.232075561441235,-0.663015083278078
0.229554411212354,-0.663853673111524
0.227044827984389,-0.664681359029603
0.224546795293239,-0.665498124764081
0.222060296674805,-0.666303954046728
0.219585315664988,-0.667098830609309
0.217121835799689,-0.667882738183592
0.214669840614807,-0.668655660501345
0.212229313646244,-0.669417581294336
0.209800238429899,-0.670168484294331
0.207382598501675,-0.670908353233097
0.20497637739747,-0.671637171842404
0.202581558653187,-0.672354923854017
0.200198125804725,-0.673061592999705
0.197826062387985,-0.673757163011234
0.195465351938867,-0.674441617620372
0.193115977993273,-0.675114940558887
0.190777924087103,-0.675777115558546
0.188451173756256,-0.676428126351116
0.186135710536635,-0.677067956668365
0.183831517964139,-0.67769659024206
0.18153857957467,-0.678314010803969
0.179256878904127,-0.678920202085859
0.176986399488411,-0.679515147819497
0.174727124863423,-0.680098831736651
0.172479038565064,-0.680671237569089
0.170242124129234,-0.681232349048577
0.168016365091833,-0.681782149906883
0.165801744988762,-0.682320623875775
0.163598247355922,-0.68284775468702
0.161405855729214,-0.683363526072386
0.159224553644537,-0.683867921763639
0.157054324637794,-0.684360925492547
0.154895152244883,-0.684842520990879
0.152747020001706,-0.6853126919904
0.150609911444163,-0.685771422222878
0.148483810108155,-0.686218695420082
0.146368699529582,-0.686654495313779
0.144264563244346,-0.687078805635734
0.142171384788346,-0.687491610117717
0.140089147697483,-0.687892892491495
0.138017835507659,-0.688282636488835
0.135957431754772,-0.688660825841504
0.133907919974725,-0.68902744428127
0.131869283703417,-0.6893824755399
0.129841506476749,-0.689725903349163
0.127824571830622,-0.690057711440824
0.125818463300936,-0.690377883546651
0.123823164423593,-0.690686403398413
0.121838658734491,-0.690983254727876
0.119864929769533,-0.691268421266808
0.117901961064618,-0.691541886746976
0.115949736155648,-0.691803634900148
0.114008238578522,-0.692053649458091
0.112077451869142,-0.692291914152573
0.110157359563408,-0.69251841271536
0.10824794519722,-0.692733128878221
0.10634919230648,-0.692936046372922
0.104461084427087,-0.693127148931232
0.102583605094943,-0.693306420284917
0.100716737845948,-0.693473844165746
0.0988604662160017,-0.693629404305484
0.0970147737410058,-0.693773084435901
0.0951796439568606,-0.693904868288763
0.0933550603994667,-0.694024739595837
0.0915410066047246,-0.694132682088892
0.089737466108535,-0.694228679499694
0.0879444224467983,-0.694312715560012
0.0861618591554153,-0.694384774001611
0.0843897597702865,-0.694444838556261
0.0826281078273123,-0.694492892955727
0.0808768868623936,-0.694528920931778
0.0791360804114308,-0.694552906216182
0.0774056720103246,-0.694564832540705
0.0756856451949754,-0.694564683637114
0.0739759835012839,-0.694552443237178
0.0722766704651507,-0.694528095072664
0.0705876896224764,-0.694491622875339
0.0689090245091615,-0.694443010376971
0.0672406586611066,-0.694382241309326
0.0655825756142124,-0.694309299404173
0.0639347589043794,-0.694224168393279
0.0622971920675081,-0.694126832008411
0.0606698586394992,-0.694017273981337
0.0590527421562533,-0.693895478043824
0.057445826153671,-0.693761427927639
0.0558490941676527,-0.693615107364551
0.0542625297340992,-0.693456500086325
0.052686116388911,-0.693285589824731
0.0511198376679886,-0.693102360311535
0.0495636771072327,-0.692906795278504
0.0480176182425439,-0.692698878457407
0.0464816446098227,-0.692478593580009
0.0449557397449698,-0.69224592437808
0.0434398871838856,-0.692000854583386
0.0419340704624709,-0.691743367927695
0.0404382731166261,-0.691473448142774
0.0389524786822519,-0.691191078960391
0.0374766706952488,-0.690896244112312
0.0360108326915175,-0.690588927330306
0.0345549482069585,-0.69026911234614
0.0331090007774724,-0.689936782891581
0.0316729739389598,-0.689591922698397
0.0302468512273212,-0.689234515498354
0.0288306161784574,-0.688864545023222
0.0274242523282687,-0.688481995004766
0.0260277432126559,-0.688086849174755
0.0246410723675195,-0.687679091264955
0.0232642233287602,-0.687258705007135
0.0218971796322784,-0.686825674133061
0.0205399248139747,-0.686379982374501
0.0191924424097498,-0.685921613463223
0.0178547159555043,-0.685450551130993
0.0165267289871387,-0.68496677910958
0.0152084650405536,-0.684470281130751
0.0138999076516496,-0.683961040926272
0.0126010403563273,-0.683439042227913
0.0113118466904872,-0.682904268767439
0.0100323101900301,-0.682356704276618
0.00876241439085627,-0.681796332487219
0.00750214282886655,-0.681223137131008
0.00625147903996138,-0.680637101939752
0.00501040656004146,-0.680038210645219
0.00377890892500727,-0.679426446979177
0.00255696967075948,-0.678801794673393
0.0013445723331986,-0.678164237459634
0.000141700448225299,-0.677513759069668
-0.00105166244825994,-0.676850343235262
-0.00223553282035644,-0.676173973688184
-0.00340992713216368,-0.6754846341602
-0.00457486184778101,-0.67478230838308
-0.00573035343130793,-0.674066980088589
-0.00687641834684376,-0.673338633008495
-0.008013073058488,-0.672597250874566
-0.00914033403033999,-0.671842817418569
-0.0102582177264992,-0.671075316372272
-0.0113667406110651,-0.670294731467441
-0.0124659191481369,-0.669501046435845
-0.0135557698018142,-0.668694245009251
-0.0146363090361964,-0.667874310919426
-0.0157075533153829,-0.667041227898138
-0.016769519103473,-0.666194979677153
-0.0178222228645662,-0.665335549988241
-0.018865681062762,-0.664462922563167
-0.0198999101621597,-0.663577081133699
-0.0209249266268588,-0.662678009431605
-0.0219407469209586,-0.661765691188653
-0.0229473875085587,-0.660840110136608
-0.0239448648537582,-0.65990125000724
-0.0249331954206569,-0.658949094532316
-0.0259123956733539,-0.657983627443602
-0.0268824820759488,-0.657004832472866
-0.0278434710925409,-0.656012693351876
-0.0287953791872298,-0.6550071938124
-0.0297382228241146,-0.653988317586203
-0.0306720184672951,-0.652956048405055
-0.0315967825808704,-0.651910370000722
-0.03251253162894,-0.650851266104972
-0.0334192820756034,-0.649778720449572
-0.03431705038496,-0.64869271676629
-0.0352058530211091,-0.647593238786892
-0.0360857064481502,-0.646480270243148
-0.0369566271301827,-0.645353794866823
-0.0378186315313061,-0.644213796389685
-0.0386717361156197,-0.643060258543502
-0.0395159573472229,-0.641893165060041
-0.0403513116902152,-0.64071249967107
-0.041177815608696,-0.639518246108356
-0.0419954855667646,-0.638310388103666
-0.0428043380285206,-0.637088909388768
-0.0436043894580633,-0.635853793695429
-0.0443956563194922,-0.634605024755417
-0.0451781550769066,-0.6333425863005
-0.045951902194406,-0.632066462062443
-0.0467169141360897,-0.630776635773016
-0.0474732073660573,-0.629473091163984
-0.048220798348408,-0.628155811967117
-0.0489597035472414,-0.626824781914181
-0.0496899394266569,-0.625479984736943
-0.0504115224507538,-0.624121404167172
-0.0511244690836315,-0.622749023936634
-0.0518287957893896,-0.621362827777096
-0.0525245190321274,-0.619962799420327
-0.0532116552759443,-0.618548922598094
-0.0538902209849397,-0.617121181042164
-0.0545602326232131,-0.615679558484304
-0.0552217066548638,-0.614224038656283
-0.0558746595439913,-0.612754605289866
-0.056519107754695,-0.611271242116823
-0.0571550677510743,-0.60977393286892
-0.0577825559972287,-0.608262661277924
-0.0584015889572575,-0.606737411075604
-0.0590121830952601,-0.605198165993726
-0.059614354875336,-0.603644909764058
-0.0602081207615845,-0.602077626118367
-0.0607934972181052,-0.600496298788421
-0.0613705007089974,-0.598900911505988
-0.0619391476983605,-0.597291448002834
-0.062499454650294,-0.595667892010726
-0.0630514380288972,-0.594030227261434
-0.0635951142982696,-0.592378437486723
-0.0641304999225106,-0.590712506418361
-0.0646576113657196,-0.589032417788116
-0.065176465091996,-0.587338155327755
-0.0656870775654392,-0.585629702769046
-0.0661894652501487,-0.583907043843756
-0.0666836446102238,-0.582170162283652
-0.067169632109764,-0.580419041820502
-0.0676474442128687,-0.578653666186073
-0.0681170973836373,-0.576874019112133
-0.0685786080861693,-0.575080084330449
-0.069031992784564,-0.573271845572788
-0.0694772679429208,-0.571449286570918
-0.0699144500253392,-0.569612391056606
-0.0703435554959185,-0.567761142761621
-0.0707646008187583,-0.565895525417728
-0.0711776024579579,-0.564015522756696
-0.0715825768776167,-0.562121118510292
-0.0719795405418341,-0.560212296410283
-0.0723685099147096,-0.558289040188438
-0.0727495014603426,-0.556351333576522
-0.0731225316428325,-0.554399160306304
-0.0734876169262786,-0.552432504109552
-0.0738447737747805,-0.550451348718031
-0.0741940186524375,-0.548455677863511
-0.0745353680233491,-0.546445475277758
-0.0748688383516146,-0.54442072469254
-0.0751944461013335,-0.542381409839624
-0.0755122077366051,-0.540327514450778
-0.0758221397215291,-0.538259022257768
-0.0761242585202045,-0.536175916992364
-0.0764185805967311,-0.534078182386331
-0.0767051224152081,-0.531965802171437
-0.0769839004397349,-0.52983876007945
-0.0772549311344111,-0.527697039842137
-0.0775182309633359,-0.525540625191266
-0.0777738163906088,-0.523369499858604
-0.0780217038803293,-0.521183647575918
-0.0782619098965967,-0.518983052074976
-0.0784944509035105,-0.516767697087545
-0.07871934336517,-0.514537566345393
-0.0789366037456747,-0.512292643580287
-0.079146248509124,-0.510032912523995
-0.0793482941196173,-0.507758356908283
-0.0795427570412541,-0.50546896046492
-0.0797296537381337,-0.503164706925673
-0.0799090006743556,-0.500845580022308
-0.0800808143140191,-0.498511563486595
-0.0802451111212237,-0.496162641050299
-0.0804019075600688,-0.493798796445189
-0.0805512200946539,-0.491420013403031
-0.0806930651890783,-0.489026275655594
-0.0808274593074414,-0.486617566934645
-0.0809544189138427,-0.484193870971951
-0.0810739604723815,-0.481755171499279
-0.0811861004471574,-0.479301452248397
-0.0812908553022696,-0.476832696951073
-0.0813882415018178,-0.474348889339074
-0.0814782755099011,-0.471850013144166
-0.0815609737906191,-0.469336052098119
-0.0816363528080711,-0.466806989932698
-0.0817044290263566,-0.464262810379672
-0.0817652189095751,-0.461703497170808
-0.0818187389218258,-0.459129034037873
-0.0818650055272083,-0.456539404712635
-0.0819040351898219,-0.453934592926861
-0.0819358443737661,-0.451314582412319
-0.0819604495431402,-0.448679356900775
-0.0819778671620438,-0.446028900123999
-0.0819881136945761,-0.443363195813756
-0.0819912056048367,-0.440682227701814
-0.0819871593569248,-0.437985979519941
-0.0819759914149401,-0.435274434999904
-0.0819577182429817,-0.43254757787347
-0.0819323563051493,-0.429805391872408
-0.0818999220655422,-0.427047860728484
-0.0818604319882597,-0.424274968173466
-0.0818139025374014,-0.42148669793912
-0.0817603501770666,-0.418683033757216
-0.0816997913713548,-0.41586395935952
-0.0816322425843654,-0.413029458477799
-0.0815577202801977,-0.410179514843821
-0.0814762409229512,-0.407314112189353
-0.0813878209767253,-0.404433234246163
-0.0812924769056195,-0.401536864746018
-0.0811902251737331,-0.398624987420686
-0.0810810822451656,-0.395697586001934
-0.0809650645840163,-0.392754644221529
-0.0808421886543847,-0.389796145811239
-0.0807124709203702,-0.386822074502831
-0.0805759278460722,-0.383832414028073
-0.0804325758955902,-0.380827148118732
-0.0802824315330235,-0.377806260506575
-0.0801255112224715,-0.374769734923371
-0.0799618314280338,-0.371717555100886
-0.0797914086138096,-0.368649704770887
-0.0796142592438984,-0.365566167665143
-0.0794303997823997,-0.36246692751542
-0.0792398466934128,-0.359351968053487
-0.0790426164410371,-0.35622127301111
-0.0788387254893721,-0.353074826120057
-0.0786281903025172,-0.349912611112095
-0.0784110273445718,-0.346734611718991
-0.0781872530796353,-0.343540811672514
-0.0781872530796353,-0.343540811672514
-0.0779672477576026,-0.340347704194212
-0.07776127800202,-0.337171766365825
-0.0775691898374638,-0.334012957709411
-0.0773908292885103,-0.330871237747027
-0.0772260423797358,-0.327746566000731
-0.0770746751357166,-0.32463890199258
-0.0769365735810291,-0.321548205244632
-0.0768115837402496,-0.318474435278942
-0.0766995516379543,-0.31541755161757
-0.0766003232987196,-0.312377513782572
-0.0765137447471219,-0.309354281296005
-0.0764396620077373,-0.306347813679926
-0.0763779211051424,-0.303358070456394
-0.0763283680639132,-0.300385011147464
-0.0762908489086262,-0.297428595275196
-0.0762652096638578,-0.294488782361645
-0.0762512963541841,-0.291565531928869
-0.0762489550041816,-0.288658803498925
-0.0762580316384264,-0.285768556593871
-0.0762783722814951,-0.282894750735764
-0.0763098229579638,-0.280037345446662
-0.0763522296924089,-0.27719630024862
-0.0764054385094067,-0.274371574663698
-0.0764692954335335,-0.271563128213951
-0.0765436464893657,-0.268770920421438
-0.0766283377014794,-0.265994910808216
-0.0767232150944512,-0.263235058896341
-0.0768281246928572,-0.260491324207872
-0.0769429125212739,-0.257763666264865
-0.0770674246042774,-0.255052044589378
-0.0772015069664441,-0.252356418703468
-0.0773450056323504,-0.249676748129192
-0.0774977666265726,-0.247012992388608
-0.0776596359736869,-0.244365111003773
-0.0778304596982698,-0.241733063496744
-0.0780100838248974,-0.239116809389579
-0.0781983543781462,-0.236516308204334
-0.0783951173825924,-0.233931519463067
-0.0786002188628123,-0.231362402687836
-0.0788135048433823,-0.228808917400697
-0.0790348213488787,-0.226271023123709
-0.0792640144038778,-0.223748679378927
-0.0795009300329559,-0.22124184568841
-0.0797454142606894,-0.218750481574215
-0.0799973131116545,-0.216274546558399
-0.0802564726104275,-0.213814000163019
-0.0805227387815848,-0.211368801910132
-0.0807959576497028,-0.208938911321797
-0.0810759752393576,-0.20652428792007
-0.0813626375751257,-0.204124891227008
-0.0816557906815833,-0.201740680764669
-0.0819552805833067,-0.19937161605511
-0.0822609533048724,-0.197017656620389
-0.0825726548708565,-0.194678761982562
-0.0828902313058354,-0.192354891663687
-0.0832135286343855,-0.190046005185821
-0.083542392881083,-0.187752062071022
-0.0838766700705042,-0.185473021841346
-0.0842162062272255,-0.183208844018852
-0.0845608473758232,-0.180959488125596
-0.0849104395408736,-0.178724913683635
-0.085264828746953,-0.176505080215027
-0.0856238610186378,-0.17429994724183
-0.0859873823805042,-0.1721094742861
-0.0863552388571285,-0.169933620869895
-0.0867272764730872,-0.167772346515272
-0.0871033412529564,-0.165625610744288
-0.0874832792213125,-0.163493373079001
-0.0878669364027319,-0.161375593041467
-0.0882541588217908,-0.159272230153745
-0.0886447925030656,-0.157183243937891
-0.0890386834711325,-0.155108593915964
-0.089435677750568,-0.153048239610019
-0.0898356213659482,-0.151002140542114
-0.0902383603418495,-0.148970256234307
-0.0906437407028483,-0.146952546208655
-0.0910516084735209,-0.144948969987215
-0.0914618096784435,-0.142959487092045
-0.0918741903421925,-0.140984057045201
-0.0922885964893442,-0.139022639368742
-0.0927048741444749,-0.137075193584724
-0.093122869332161,-0.135141679215204
-0.0935424280769787,-0.13322205578224
-0.0939633964035043,-0.13131628280789
-0.0943856203363143,-0.12942431981421
-0.0948089458999848,-0.127546126323257
-0.0952332191190922,-0.12568166185709
-0.0956582860182129,-0.123830885937765
-0.0960839926219231,-0.12199375808734
-0.0965101849547992,-0.120170237827871
-0.0969367090414174,-0.118360284681417
-0.0973634109063541,-0.116563858170034
-0.0977901365741857,-0.11478091781578
-0.0982167320694884,-0.113011423140712
-0.0986430434168384,-0.111255333666887
-0.0990689166408123,-0.109512608916363
-0.0994941977659862,-0.107783208411197
-0.0999187328169365,-0.106067091673446
-0.10034236781824,-0.104364218225167
-0.100764948794472,-0.102674547588418
-0.101186321770209,-0.100998039285256
-0.101606332770028,-0.0993346528377389
-0.102024827818505,-0.097684347767923
-0.102441652940216,-0.096047083597866
-0.102856654159738,-0.0944228198496252
-0.103269677501647,-0.0928115160452578
-0.103680568990519,-0.0912131317068211
-0.10408917465093,-0.0896276263563725
-0.104495340507458,-0.0880549595159693
-0.104898912584677,-0.0864950907076685
-0.105299736907165,-0.0849479794535277
-0.105697659499498,-0.0834135852756041
-0.106092526386252,-0.0818918676959549
-0.106484183592003,-0.0803827862366375
-0.106872477141328,-0.0788863004197091
-0.107257253058804,-0.077402369767227
-0.107638357369005,-0.0759309538012485
-0.10801563609651,-0.0744720120438308
-0.108388935265893,-0.0730255040170314
-0.108758100901732,-0.0715913892429074
-0.109122979028602,-0.0701696272435161
-0.10948341567108,-0.0687601775409149
-0.109839256853743,-0.0673629996571609
-0.110190348601166,-0.0659780531143116
-0.110536536937926,-0.0646052974344242
-0.110877667888599,-0.0632446921395559
-0.111213587477762,-0.061896196751764
-0.111544141729991,-0.0605597707931059
-0.111869176669861,-0.0592353737856388
-0.112188538321951,-0.05792296525142
-0.112502072710835,-0.0566225047125068
-0.11280962586109,-0.0553339516909565
-0.113111043797293,-0.0540572657088264
-0.113406172544019,-0.0527924062881737
-0.113694858125846,-0.0515393329510557
-0.113976946567349,-0.0502980052195297
-0.114252283893104,-0.0490683826156531
-0.114520716127689,-0.047850424661483
-0.114782089295679,-0.0466440908790768
-0.115036249421651,-0.0454493407904918
-0.11528304253018,-0.0442661339177852
-0.115522314645844,-0.0430944297830144
-0.115753911793218,-0.0419341879082365
-0.11597767999688,-0.040785367815509
-0.116193465281404,-0.039647929026889
-0.116401113671369,-0.038521831064434
-0.116600471191349,-0.037407033450201
-0.116791383865921,-0.0363034957062475
-0.116973697719661,-0.0352111773546308
-0.117147258777147,-0.034130037917408
-0.117311913062953,-0.0330600369166366
-0.117467506601657,-0.0320011338743737
-0.117613885417835,-0.0309532883126767
-0.117750895536063,-0.0299164597536028
-0.117878382980917,-0.0288906077192094
-0.117996193776974,-0.0278756917315538
-0.11810417394881,-0.0268716713126931
-0.118202169521001,-0.0258785059846847
-0.118290026518124,-0.0248961552695859
-0.118367590964755,-0.023924578689454
-0.11843470888547,-0.0229637357663462
-0.118491226304846,-0.0220135860223198
-0.118536989247459,-0.0210740889794322
-0.118571843737884,-0.0201452041597406
-0.1185956358007,-0.0192268910853023
-0.118608211460481,-0.0183191092781745
-0.118609416741805,-0.0174218182604146
-0.118599097669247,-0.0165349775540799
-0.118577100267383,-0.0156585466812276
-0.118543270560791,-0.014792485163915
-0.118497454574047,-0.0139367525241994
-0.118439498331726,-0.0130913082841381
-0.118369247858405,-0.0122561119657884
-0.11828654917866,-0.0114311230912075
-0.118191248317068,-0.0106163011824528
-0.118083191298206,-0.00981160576158148
-0.117962224146648,-0.00901699635065092
-0.117828192886972,-0.00823243247171834
-0.117680943543755,-0.00745787364684103
-0.117520322141571,-0.00669327939807633
-0.117346174704998,-0.00593860924748148
-0.117158347258612,-0.00519382271711375
-0.116956685826989,-0.00445887932903046
-0.116741036434706,-0.00373373860528889
-0.116511245106339,-0.00301836006794631
-0.116267157866463,-0.00231270323906001
-0.116008620739657,-0.00161672764068728
-0.115735479750495,-0.00093039279488541
-0.115447580923554,-0.000253658223711681
-0.115144770283411,0.000413516550776635
-0.114826893854641,0.00107117200652224
-0.114493797661821,0.00171934862146784
-0.114145327729528,0.00235808687355616
-0.113781330082338,0.00298742724072992
-0.113401650744826,0.00360741020093184
-0.11300613574157,0.0042180762321046
-0.112594631097146,0.00481946581219093
-0.112166982836129,0.0054116194191336
-0.111723036983097,0.00599457753087525
-0.111262639562625,0.00656838062535861
-0.11078563659929,0.00713306918052643
-0.110291874117669,0.00768868367432139
-0.109781198142337,0.00823526458468622
-0.109253454697871,0.00877285238956362
-0.108708489808847,0.00930148756689634
-0.108146149499842,0.00982121059462704
-0.107566279795431,0.0103320619506985
-0.106968726720191,0.0108340821130534
-0.106353336298699,0.0113273115596344
-0.105719954555531,0.0118117907683843
-0.105068427515263,0.0122875602172458
-0.104398601202471,0.0127546603841616
-0.103710321641732,0.0132131317470744
-0.103003434857622,0.0136630147839269
-0.102277786874717,0.0141043499726619
-0.101533223717594,0.014537177791222
-0.100769591410828,0.01496153871755
-0.0999867359789974,0.0153774732295886
-0.099184503446677,0.0157850218052805
-0.0983627398384437,0.0161842249225684
-0.0975212911788734,0.016575123059395
-0.0966600034925428,0.0169577566937031
-0.095778722804028,0.0173321663034354
-0.0948772951379053,0.0176983923665345
-0.0939555665187512,0.0180564753609432
-0.0930133829711419,0.0184064557646042
-0.0920505905196536,0.0187483740554602
-0.0910670351888629,0.019082270711454
-0.0900625630033459,0.0194081862105282
-0.0890370199876789,0.0197261610306256
-0.0879902521664384,0.0200362356496888
-0.0869221055642005,0.0203384505456607
-0.0858324262055416,0.0206328461964838
-0.0847210601150381,0.020919463080101
-0.0835878533172662,0.0211983416744549
-0.0824326518368024,0.0214695224574883
-0.0812553016982227,0.0217330459071438
-0.0800556489261037,0.0219889525013642
-0.0788335395450216,0.0222372827180922
-0.0775888195795527,0.0224780770352705
-0.0763213350542733,0.0227113759308419
-0.0750309319937599,0.0229372198827489
-0.0737174564225885,0.0231556493689345
-0.0723807543653357,0.0233667048673412
-0.0710206718465776,0.0235704268559118
-0.0696370548908908,0.0237668558125889
-0.0682297495228513,0.0239560322153154
-0.0667986017670356,0.0241379965420339
-0.0653434576480199,0.0243127892706872
-0.0638641631903807,0.0244804508792179
-0.0623605644186941,0.0246410218455688
-0.0608325073575366,0.0247945426476826
-0.0592798380314844,0.024941053763502
-0.0577024024651139,0.0250805956709697
-0.0561000466830012,0.0252132088480284
-0.0544726167097229,0.0253389337726209
-0.0528199585698552,0.0254578109226898
-0.0511419182879744,0.0255698807761779
-0.0494383418886568,0.0256751838110279
-0.0477090753964788,0.0257737605051825
-0.0459539648360165,0.0258656513365844
-0.0441728562318466,0.0259508967831764
-0.042365595608545,0.0260295373229011
-0.0405320289906883,0.0261016134337012
-0.0386720024028527,0.0261671655935196
-0.0367853618696146,0.0262262342802988
-0.0348719534155501,0.0262788599719816
-0.0329316230652358,0.0263250831465108
-0.0309642168432479,0.026364944281829
-0.0289695807741627,0.0263984838558789
-0.0269475608825564,0.0264257423466033
-0.0248980031930055,0.0264467602319449
-0.0228207537300862,0.0264615779898464
-0.020715658518375,0.0264702360982505
-0.0185825635824479,0.0264727750350999
-0.0164213149468816,0.0264692352783374
-0.014231758636252,0.0264596573059056
-0.0120137406751358,0.0264440815957473
-0.00976710708810898,0.0264225486258051
-0.00749170389974817,0.0263950988740219
-0.0051873771346294,0.0263617728183403
-0.00285397281732923,0.026322610936703
-0.000491336972423789,0.0262776537070527
0.00190068437551046,0.0262269416073322
0.00432224520189738,0.0261705151154842
0.00677349948216042,0.0261084147094513
0.00925460119172351,0.0260406808671764
0.0117657043060101,0.025967354066602
0.0143069628004441,0.025888474785671
0.0168785306504489,0.0258040835023261
0.0194805618314486,0.0257142206945099
0.0221132103188665,0.0256189268401652
0.0247766300881265,0.0255182424172346
0.0274709751146522,0.025412207903661
0.0301963993738673,0.025300863777387
0.0329530568411955,0.0251842505163553
0.0357411014920605,0.0250624085985087
0.0385606873018859,0.0249353785017898
0.0414119682460955,0.0248032007041414
0.0442950983001128,0.0246659156835062
0.0472102314393618,0.0245235639178269
0.0501575216392658,0.0243761858850462
0.0531371228752489,0.0242238220631069
0.0561491891227344,0.0240665129299516
0.0591938743571462,0.023904298963523
0.0622713325539078,0.023737220641764
0.0653817176884433,0.0235653184426171
0.0685251837361758,0.0233886328440252
0.0717018846725295,0.0232072043239309
0.0749119744729277,0.0230210733602769
0.0781556071127944,0.022830280431006
0.081432936567553,0.0226348660140608
0.0847441168126275,0.0224348705873841
0.0880893018234412,0.0222303346289186
0.0914686455754182,0.0220212986166071
0.0948823020439818,0.0218078030283921
0.098330425204556,0.0215898883422165
0.101813169032564,0.021367595036023
0.10533068750343,0.0211409635877542
0.108883134592578,0.0209100344753529
0.112470664275431,0.0206748481767618
0.116093430527412,0.0204354451699236
0.119751587323947,0.0201918659327811
0.123445288640457,0.0199441509432769
0.127174688452367,0.0196923406793537
0.130939940735101,0.0194364756189544
0.134741199464083,0.0191765962400215
0.138578618614735,0.0189127430204978
0.142452352162482,0.018644956438326
0.146362554082747,0.0183732769714489
0.150309378350955,0.0180977450978091
0.154292978942528,0.0178184012953494
0.15831350983289,0.0175352860420124
0.162371124997466,0.017248439815741
0.166465978411678,0.0169579030944777
0.170598224050951,0.0166637163561654
0.174768015890708,0.0163659200787467
0.178975507906373,0.0160645547401644
0.183220854073369,0.0157596608183611
0.187504208367121,0.0154512787912796
0.191825724763051,0.0151394491368626
0.196185557236584,0.0148242123330528
0.200583859763143,0.0145056088577929
0.205020786318152,0.0141836791890256
0.209496490877035,0.0138584638046937
0.214011127415215,0.0135300031827399
0.218564849908116,0.0131983378011069
0.223157812331161,0.0128635081377374
0.227790168659776,0.012525554670574
0.232462072869382,0.0121845178775596
0.237173678935403,0.0118404382366368
0.241925140833264,0.0114933562257484
0.246716612538389,0.0111433123228371
0.2515482480262,0.0107903470058455
0.256420201272121,0.0104345007527165
0.261332626251577,0.0100758140413926
0.266285676939991,0.00971432734981672
0.271279507312785,0.00935008115593146
0.276314271345386,0.00898311593767954
0.281390123013215,0.00861347217300371
0.286507216291696,0.00824119033984665
0.291665705156254,0.00786631091615111
0.296865743582312,0.00748887437985977
0.302107485545293,0.00710892120891538
0.307391085020622,0.00672649188126062
0.312716695983722,0.00634162687483823
0.318084472410016,0.0059543666675909
0.323494568274929,0.00556475173746138
0.328947137553884,0.00517282256239235
0.334442334222304,0.00477861962032656
0.339980312255614,0.00438218338920668
0.345561225629237,0.00398355434697547
0.351185228318597,0.0035827729715756
0.356852474299117,0.00317987974094984
0.362563117546221,0.00277491513304084
0.368317312035333,0.00236791962579137
0.374115211741877,0.00195893369714411
0.379956970641276,0.0015479978250418
0.385842742708954,0.00113515248742713
0.391772681920334,0.000720438162242839
0.39774694225084,0.000303895327431612
0.403765677675897,-0.0001144355390638
0.409829042170927,-0.00053451395930072
0.415937189711354,-0.000956299455336395
0.422090274272603,-0.00137975154922815
0.428288449830096,-0.00180482976303323
0.434531870359257,-0.00223149361880896
0.440820689835511,-0.00265970263861259
0.44715506223428,-0.00308941634450144
0.453535141530988,-0.00352059425853275
0.45996108170106,-0.00395319590276386
0.466433036719918,-0.004387180799252
0.472951160562987,-0.00482250847005451
0.47951560720569,-0.00525913843722862
0.486126530623451,-0.00569703022283167
0.492784084791693,-0.00613614334892089
0.499488423685841,-0.00657643733755362
0.506239701281317,-0.0070178717107871
0.513038071553547,-0.00746040599067865
0.513038071553547,-0.00746040599067865
0.51981270768796,-0.0078905943270498
0.52649294211432,-0.00829508332792185
0.533079167674552,-0.00867397120265175
0.539571777210577,-0.00902735616059645
0.545971163564319,-0.00935533641111287
0.5522777195777,-0.00965801016355796
0.558491838092642,-0.00993547562728864
0.56461391195107,-0.0101878310116619
0.570644333994905,-0.0104151745260346
0.57658349706607,-0.0106176043797637
0.582431794006488,-0.0107952187822062
0.588189617658081,-0.010948115942719
0.593857360862774,-0.011076394070659
0.599435416462487,-0.0111801513753832
0.604924177299144,-0.0112594860662485
0.610324036214669,-0.0113144963526118
0.615635386050983,-0.0113452804438302
0.620858619650009,-0.0113519365492604
0.625994129853671,-0.0113345628782595
0.63104230950389,-0.0112932576401844
0.636003551442591,-0.0112281190443921
0.640878248511694,-0.0111392453002394
0.645666793553124,-0.0110267346170834
0.650369579408803,-0.0108906852042809
0.654986998920654,-0.0107311952711889
0.659519444930599,-0.0105483630271643
0.663967310280562,-0.0103422866815641
0.668330987812464,-0.0101130644437452
0.67261087036823,-0.00986079452306452
0.676807350789781,-0.00958557512887904
0.680920821919041,-0.00928750447054568
0.684951676597932,-0.00896668075742139
0.688900307668377,-0.0086232021988631
0.692767107972298,-0.00825716700422773
0.696552470351619,-0.00786867338287224
0.700256787648263,-0.00745781954415357
0.703880452704151,-0.00702470369742864
0.707423858361207,-0.00656942405205441
0.710887397461354,-0.0060920788173878
0.714271462846515,-0.00559276620278575
0.717576447358611,-0.00507158441760522
0.720802743839566,-0.00452863167120311
0.723950745131303,-0.00396400617293639
0.727020844075745,-0.00337780613216199
0.730013433514814,-0.00277012975823685
0.732928906290432,-0.0021410752605179
0.735767655244523,-0.00149074084836208
0.738530073219011,-0.000819224731126337
0.741216553055816,-0.000126625118167599
0.743827487596863,0.000586959781157191
0.746363269684073,0.0013214317574911
0.74882429215937,0.00207669260147718
0.751210947864677,0.00285264410375849
0.753523629641915,0.00364918805497811
0.755762730333009,0.00446622624577909
0.75792864277988,0.00530366046680449
0.760021759824452,0.00616139250869738
0.762042474308647,0.00703932416210081
0.763991179074388,0.00793735721765785
0.765868266963598,0.00885539346601157
0.7676741308182,0.00979333469780501
0.769409163480115,0.0107510827036813
0.771073757791268,0.0117285392742833
0.772668306593582,0.0127256062002544
0.774193202728977,0.0137421852722373
0.775648839039378,0.0147781782808754
0.777035608366707,0.0158334870168115
0.778353903552888,0.0169080132706888
0.779604117439842,0.0180016588331503
0.780786642869493,0.0191143254948392
0.781901872683763,0.0202459150463983
0.782950199724575,0.0213963292784709
0.783932016833852,0.0225654699816999
0.784847716853516,0.0237532389467285
0.785697692625491,0.0249595379641997
0.786482336991699,0.0261842688247565
0.787202042794064,0.0274273333190421
0.787857202874506,0.0286886332376994
0.788448210074951,0.0299680703713716
0.788975457237319,0.0312655465107017
0.789439337203535,0.0325809634463328
0.78984024281552,0.0339142229689079
0.790178566915198,0.03526522686907
0.790454702344492,0.0366338769374624
0.790669041945324,0.0380200749647279
0.790821978559616,0.0394237227415097
0.790913905029292,0.0408447220584509
0.790945214196275,0.0422829747061945
0.790916298902486,0.0437383824753835
0.79082755198985,0.045210847156661
0.790679366300289,0.0467002705406701
0.790472134675725,0.0482065544180539
0.790206249958081,0.0497296005794554
0.789882104989281,0.0512693108155177
0.789500092611246,0.0528255869168838
0.7890606056659,0.0543983306741967
0.788564036995165,0.0559874438780997
0.788010779440965,0.0575928283192356
0.787401225845221,0.0592143857882476
0.786735769049857,0.0608520180757788
0.786014801896796,0.0625056269724722
0.78523871722796,0.0641751142689709
0.784407907885272,0.0658603817559178
0.783522766710655,0.0675613312239562
0.782583686546031,0.069277864463729
0.781591060233324,0.0710098832658793
0.780545280614455,0.0727572894210502
0.77944674053135,0.0745199847198847
0.778295832825928,0.076297870953026
0.777092950340114,0.0780908499111169
0.77583848591583,0.0798988233848007
0.774532832394999,0.0817216931647204
0.773176382619544,0.0835593610415191
0.771769529431387,0.0854117288058397
0.770312665672451,0.0872786982483254
0.76880618418466,0.0891601711596193
0.767250477809936,0.0910560493303643
0.765645939390201,0.0929662345512035
0.763992961767378,0.0948906286127801
0.762291937783391,0.0968291333057371
0.760543260280162,0.0987816504207175
0.758747322099613,0.100748081748364
0.756904516083668,0.102728329079321
0.755015235074249,0.10472229420423
0.75307987191328,0.106729878913735
0.751098819442681,0.108750984998478
0.749072470504378,0.110785514249104
0.747001217940292,0.112833368456254
0.744885454592346,0.114894449410572
0.742725573302462,0.116968658902701
0.740521966912565,0.119055898723284
0.738275028264576,0.121156070662965
0.735985150200418,0.123269076512385
0.733652725562014,0.125394818062189
0.731278147191287,0.127533197103019
0.728861807930159,0.129684115425518
0.726404100620554,0.13184747482033
0.723905418104394,0.134023177078097
0.721366153223601,0.136211123989463
0.7187866988201,0.138411217345071
0.716167447735811,0.140623358935563
0.713508792812659,0.142847450551583
0.710811126892566,0.145083393983773
0.708074842817454,0.147331091022778
0.705300333429247,0.149590443459239
0.702487991569867,0.151861353083801
0.699638210081237,0.154143721687105
0.69675138180528,0.156437451059796
0.693827899583918,0.158742442992516
0.690868156259075,0.161058599275908
0.687872544672673,0.163385821700615
0.684841457666635,0.165724012057281
0.681775288082883,0.168073072136548
0.678674428763341,0.170432903729059
0.675539272549931,0.172803408625458
0.672370212284576,0.175184488616388
0.669167640809199,0.177576045492491
0.665931950965722,0.179977981044411
0.662663535596069,0.182390197062791
0.659362787542161,0.184812595338274
0.656030099645923,0.187245077661503
0.652665864749276,0.18968754582312
0.649270475694143,0.19213990161377
0.645844325322448,0.194602046824094
0.642387806476112,0.197073883244737
0.63890131199706,0.199555312666341
0.635385234727212,0.20204623687955
0.631839967508493,0.204546557675005
0.628265903182825,0.207056176843351
0.624663434592131,0.209574996175231
0.621032954578333,0.212102917461287
0.617374855983354,0.214639842492163
0.613689531649118,0.217185673058501
0.609977374417547,0.219740310950945
0.606238777130563,0.222303657960138
0.602474132630089,0.224875615876723
0.598683833758049,0.227456086491342
0.594868273356365,0.23004497159464
0.591027844266959,0.232642172977258
0.587162939331755,0.235247592429841
0.583273951392676,0.23786113174303
0.579361273291643,0.24048269270747
0.57542529787058,0.243112177113804
0.57146641797141,0.245749486752673
0.567485026436055,0.248394523414722
0.563481516106438,0.251047188890594
0.559456279824482,0.25370738497093
0.55540971043211,0.256375013446376
0.551342200771244,0.259049976107573
0.547254143683808,0.261732174745165
0.543145932011723,0.264421511149795
0.539017958596913,0.267117887112105
0.534870616281301,0.269821204422739
0.53070429790681,0.272531364872341
0.526519396315361,0.275248270251552
0.522316304348878,0.277971822351016
0.518095414849284,0.280701922961377
0.513857120658501,0.283438473873276
0.509601814618452,0.286181376877358
0.50532988957106,0.288930533764265
0.501041738358248,0.291685846324641
0.496737753821939,0.294447216349128
0.492418328804054,0.29721454562837
0.488083856146518,0.299987735953009
0.483734728691253,0.302766689113689
0.479371339280181,0.305551306901052
0.474994080755226,0.308341491105742
0.470603345958309,0.311137143518402
0.466199527731355,0.313938165929675
0.461783018916285,0.316744460130204
0.457354212355023,0.319555927910632
0.452913500889491,0.322372471061601
0.448461277361612,0.325193991373757
0.443997934613308,0.32802039063774
0.439523865486504,0.330851570644194
0.43503946282312,0.333687433183763
0.430545119465081,0.336527880047089
0.426041228254308,0.339372813024815
0.421528182032725,0.342222133907586
0.417006373642255,0.345075744486042
0.41247619592482,0.347933546550828
0.407938041722342,0.350795441892587
0.403392303876746,0.353661332301962
0.398839375229953,0.356531119569595
0.394279648623886,0.359404705486131
0.389713516900468,0.362281991842211
0.385141372901622,0.365162880428479
0.38056360946927,0.368047273035578
0.375980619445336,0.370935071454151
0.371392795671742,0.373826177474842
0.366800530990411,0.376720492888293
0.362204218243266,0.379617919485147
0.357604250272228,0.382518359056047
0.353001019919223,0.385421713391637
0.348394920026171,0.388327884282559
0.343786343434996,0.391236773519457
0.33917568298762,0.394148282892974
0.334563331525967,0.397062314193751
0.329949681891959,0.399978769212434
0.325335126927519,0.402897549739665
0.320720059474569,0.405818557566087
0.316104872375033,0.408741694482342
0.311489958470832,0.411666862279074
0.306875710603891,0.414593962746927
0.302262521616132,0.417522897676542
0.297650784349477,0.420453568858564
0.293040891645849,0.423385878083635
0.288433236347171,0.426319727142398
0.283828211295366,0.429255017825496
0.279226209332357,0.432191651923573
0.274627623300066,0.435129531227272
0.270032846040416,0.438068557527235
0.26544227039533,0.441008632614105
0.260856289206731,0.443949658278526
0.256275295316541,0.446891536311141
0.251699681566683,0.449834168502593
0.24712984079908,0.452777456643524
0.242566165855655,0.455721302524579
0.238009049578331,0.458665607936399
0.23345888480903,0.461610274669628
0.228916064389675,0.46455520451491
0.224380981162188,0.467500299262886
0.219854027968494,0.470445460704201
0.215335597650513,0.473390590629497
0.21082608305017,0.476335590829418
0.206325877009387,0.479280363094606
0.201835372370087,0.482224809215704
0.197354961974192,0.485168830983356
0.192885038663625,0.488112330188204
0.188425995280309,0.491055208620892
0.183978224666167,0.493997368072063
0.179542119663122,0.496938710332359
0.175118073113095,0.499879137192425
0.170706477858012,0.502818550442902
0.166307726739792,0.505756851874434
0.161922212600361,0.508693943277664
0.15755032828164,0.511629726443235
0.153192466625552,0.514564103161791
0.14884902047402,0.517496975223973
0.144520382668967,0.520428244420426
0.140206946052316,0.523357812541792
0.135909103465988,0.526285581378715
0.131627247751908,0.529211452721837
0.127361771751998,0.532135328361801
0.12311306830818,0.535057110089251
0.118881530262378,0.53797669969483
0.114667550456513,0.540893998969181
0.11047152173251,0.543808909702946
0.10629383693229,0.546721333686769
0.102134888897777,0.549631172711292
0.0979950704708929,0.55253832856716
0.093874774493561,0.555442703045015
0.0897743938077037,0.5583441979355
0.0856943212552441,0.561242715029258
0.0816349496781047,0.564138156116932
0.0775966719182086,0.567030422989165
0.0735798808174781,0.569919417436601
0.0695849692178365,0.572805041249882
0.0656123299612061,0.575687196219652
0.0616623558895101,0.578565784136553
0.0577354398446709,0.581440706791228
0.0538319746686116,0.584311865974321
0.0499523532032546,0.587179163476475
0.046096968290523,0.590042501088333
0.0422662127723394,0.592901780600537
0.0384604794906267,0.595756903803732
0.0346801612873075,0.598607772488559
0.0309256510043048,0.601454288445662
0.0271973414835411,0.604296353465684
0.0234956255669394,0.607133869339269
0.0198208960964222,0.609966737857058
0.0161735459139127,0.612794860809696
0.0125539678613333,0.615618139987825
0.00896255478060698,0.618436477182089
0.00539969951365631,0.62124977418313
0.00186579490240435,0.624057932781591
-0.00163876621122647,0.626860854768116
-0.00511359098531307,0.629658441933347
-0.00855828657793289,0.632450596067928
-0.011972460147163,0.635237218962502
-0.0153557188510808,0.638018212407712
-0.0187076698477633,0.6407934781942
-0.022027920295288,0.643562918112611
-0.0253160773517318,0.646326433953586
-0.0285717481751722,0.64908392750777
-0.0317945399236863,0.651835300565805
-0.0349840597553514,0.654580454918333
-0.0381399148282446,0.657319292355999
-0.0412617123004434,0.660051714669445
-0.0443490593300246,0.662777623649315
-0.0474015630750659,0.665496921086251
-0.0504188306936441,0.668209508770896
-0.0534004693438367,0.670915288493894
-0.0563460861837209,0.673614162045888
-0.0592552883713738,0.676306031217521
-0.0621276830648728,0.678990797799434
-0.064962877422295,0.681668363582273
-0.0677604786017176,0.68433863035668
-0.070520093761218,0.687001499913297
-0.0732413300588731,0.689656874042769
-0.0759237946527606,0.692304654535737
-0.0785670947009573,0.694944743182846
-0.0811708373615407,0.697577041774738
-0.0837346297925879,0.700201452102056
-0.0862580791521762,0.702817875955443
-0.0887407925983827,0.705426215125543
-0.0911823772892848,0.708026371402998
-0.0935824403829595,0.710618246578451
-0.0959405890374844,0.713201742442546
-0.0982564304109362,0.715776760785925
-0.100529571661393,0.718343203399233
-0.102759619946931,0.72090097207311
-0.104946182425628,0.723449968598202
-0.107088866255561,0.725990094765151
-0.109187278594807,0.728521252364599
-0.111241026601444,0.73104334318719
-0.113249717433549,0.733556269023568
-0.115212958249198,0.736059931664374
-0.11713035620647,0.738554232900253
-0.119001518463442,0.741039074521847
-0.12082605217819,0.743514358319799
-0.122603564508792,0.745979986084752
-0.124333662613325,0.74843585960735
-0.126015953649866,0.750881880678235
-0.127650044776494,0.753317951088051
-0.129235543151284,0.75574397262744
-0.130772055932314,0.758159847087046
-0.132259190277661,0.760565476257512
-0.133696553345403,0.76296076192948
-0.135083752293617,0.765345605893594
-0.136420394280379,0.767719909940497
-0.137706086463768,0.770083575860832
-0.13894043600186,0.772436505445242
-0.140123050052733,0.77477860048437
-0.141253535774464,0.77710976276886
-0.14233150032513,0.779429894089353
-0.143356550862808,0.781738896236494
-0.144328294545576,0.784036671000925
-0.145246338531511,0.786323120173289
-0.146110289978689,0.78859814554423
-0.146919756045189,0.79086164890439
-0.147674343889088,0.793113532044413
-0.148373660668462,0.795353696754941
-0.149017313541389,0.797582044826619
-0.149604909665946,0.799798478050088
-0.15013605620021,0.802002898215991
-0.15061036030226,0.804195207114973
-0.151027429130171,0.806375306537675
-0.151386869842021,0.808543098274742
-0.151688289595887,0.810698484116815
-0.151931295549847,0.812841365854539
-0.152115494861978,0.814971645278556
-0.152240494690356,0.817089224179509
-0.15230590219306,0.819194004348041
-0.152311324528167,0.821285887574796
-0.152256368853753,0.823364775650416
-0.152140642327895,0.825430570365545
-0.151963752108672,0.827483173510825
-0.151725305354161,0.8295224868769
