-0.905172694983309,0.803034812188703
-0.904595078301849,0.792016044809476
-0.903993921512341,0.78109201860674
-0.903369378207242,0.770262378391223
-0.902721601979009,0.759526768973654
-0.902050746420099,0.748884835164762
-0.901356965122968,0.738336221775274
-0.900640411680076,0.727880573615919
-0.899901239683878,0.717517535497427
-0.899139602726832,0.707246752230525
-0.898355654401394,0.697067868625942
-0.897549548300022,0.686980529494406
-0.896721438015175,0.676984379646647
-0.895871477139307,0.667079063893393
-0.894999819264876,0.657264227045371
-0.894106617984341,0.647539513913311
-0.893192026890157,0.637904569307942
-0.892256199574783,0.628359038039992
-0.891299289630675,0.618902564920189
-0.890321450650289,0.609534794759262
-0.889322836226085,0.600255372367939
-0.888303599950518,0.59106394255695
-0.887263895416046,0.581960150137021
-0.885123695940215,0.564014056713265
-0.884023508183771,0.555171045330893
-0.88290346653825,0.546414250582496
-0.881763724596109,0.537743317278805
-0.880604435949807,0.529157890230546
-0.879425754191799,0.520657614248448
-0.878227832914544,0.51224213414324
-0.877010825710497,0.503911094725651
-0.875774886172118,0.495664140806409
-0.874520167891862,0.487500917196243
-0.873246824462187,0.47942106870588
-0.87195500947555,0.471424240146051
-0.870644876524408,0.463510076327482
-0.869316579201218,0.455678222060904
-0.867970271098438,0.447928322157043
-0.866606105808524,0.44026002142663
-0.865224236923934,0.432672964680392
-0.863824818037125,0.425166796729058
-0.862408002740554,0.417741162383356
-0.860973944626678,0.410395706454016
-0.859522797287955,0.403130073751765
-0.858054714316842,0.395943909087332
-0.856569849305795,0.388836857271446
-0.855068355847272,0.381808563114835
-0.85355038753373,0.374858671428228
-0.852016097957627,0.367986827022353
-0.850465640711418,0.361192674707939
-0.848899169387562,0.354475859295715
-0.847316837578517,0.347836025596409
-0.845718798876738,0.341272818420749
-0.844105206874683,0.334785882579464
-0.842476215164809,0.328374862883282
-0.840831977339574,0.322039404142933
-0.839172646991434,0.315779151169145
-0.83580932309627,0.303482841764164
-0.83410563673416,0.297446074954429
-0.832387472218974,0.291483093154169
-0.830654983143169,0.285593541174112
-0.827147645679533,0.274033305917523
-0.825373104476616,0.268361912262448
-0.823584853082908,0.26276252767049
-0.821783045090868,0.257234796952378
-0.819967834092952,0.251778364918842
-0.818139373681618,0.246392876380608
-0.816297817449322,0.241077976148406
-0.814443318988522,0.235833309032965
-0.812576031891675,0.230658519845012
-0.810696109751238,0.225553253395277
-0.808803706159669,0.220517154494488
-0.806898974709424,0.215549867953373
-0.80498206899296,0.210651038582662
-0.803053142602736,0.205820311193082
-0.801112349131207,0.201057330595362
-0.799159842170832,0.196361741600231
-0.797195775314067,0.191733189018417
-0.795220302153369,0.187171317660649
-0.793233576281196,0.182675772337656
-0.791235751290005,0.178246197860165
-0.789226980772253,0.173882239038905
-0.787207418320396,0.169583540684606
-0.785177217526893,0.165349747607995
-0.781085515284776,0.157075456530753
-0.779024321021076,0.153034248151579
-0.776953102785558,0.149056524293008
-0.774872014170679,0.145141929765768
-0.772781208768896,0.141290109380588
-0.768571061974448,0.133773370279321
-0.766452027766696,0.130107741184691
-0.76432389114187,0.126503465475036
-0.760040925010821,0.119477553453561
-0.757886402689513,0.116055206763199
-0.755723392320958,0.112692792700725
-0.751372521811937,0.106146341702355
-0.744786395505488,0.0967672801821755
-0.742575682295054,0.0937570029123297
-0.740357556184575,0.0908041719454721
-0.73366023637743,0.0822868049701125
-0.731413994591337,0.0795602073224922
-0.726901729798327,0.0742736679078725
-0.724636013976324,0.07171301576233
-0.722364113993932,0.0692069684056039
-0.720086183443608,0.0667551706484227
-0.71780237591781,0.064357267301515
-0.715512845008994,0.0620129031756093
-0.710917227412138,0.057483371829718
-0.708611447909013,0.0552974942311895
-0.706300559392698,0.0531637350965772
-0.703984715455652,0.0510817392366096
-0.701664069690332,0.0490511514620154
-0.699338775689194,0.0470716165835229
-0.697008987044695,0.0451427794118608
-0.694674857349294,0.0432642847577575
-0.692336540195447,0.0414357774319418
-0.689994189175611,0.0396569022451421
-0.687647957882244,0.0379273040080869
-0.685297999907802,0.0362466275315047
-0.682944468844743,0.0346145176261243
-0.680587518285524,0.033030619102674
-0.678227301822602,0.0314945767718825
-0.675863973048434,0.0300060354444782
-0.673497685555478,0.0285646399311897
-0.671128592936191,0.0271700350427457
-0.668756848783029,0.0258218655898745
-0.66638260668845,0.0245197763833048
-0.664006020244911,0.0232634122337651
-0.661627243044869,0.022052417951984
-0.659246428680782,0.0208864383486899
-0.656863730745106,0.0197651182346115
-0.654479302830299,0.0186881024204773
-0.652093298528818,0.0176550357170158
-0.64970587143312,0.0166655629349556
-0.647317175135662,0.0157193288850253
-0.644927363228902,0.0148159783779533
-0.642536589305296,0.0139551562244682
-0.640145006957302,0.0131365072352986
-0.637752769777376,0.012359676221173
-0.635360031357977,0.01162430799282
-0.632966945291561,0.010930047360968
-0.628180344587507,0.00966342812968169
-0.625787137134784,0.00909035915170431
-0.618609729483313,0.00760785249717818
-0.61621851047658,0.00719139974123329
-0.613828172562487,0.00681321306761783
-0.611438869333492,0.0064729372870604
-0.609050754382052,0.00617021721028954
-0.606663981300624,0.00590469764803377
-0.604278703681665,0.00567602341102171
-0.601895075117633,0.00548383930998177
-0.597133379524175,0.00520752075873275
-0.594755619679664,0.00512267592998074
-0.590007043857364,0.00505783921986437
-0.58763653506449,0.00507713695995713
-0.585268750473742,0.00513043851112195
-0.582903843677578,0.00521738868408726
-0.580541968268455,0.00533763228958174
-0.578183277838829,0.00549081413833386
-0.575827925981159,0.00567657904107223
-0.5734760662879,0.0058945718085253
-0.566442976119171,0.00673836540645853
-0.564106621008134,0.00708171774005609
-0.561774526023794,0.00745552199201112
-0.557123730805039,0.00829306549390782
-0.554805337755536,0.00875609436530656
-0.552491819202561,0.00924815439797699
-0.55018332873857,0.00976889040264763
-0.547880019956019,0.010317947190047
-0.545582046447367,0.0108949695709037
-0.54328956180507,0.0114996023559462
-0.541002719621586,0.0121314903559032
-0.538721673489372,0.0127902783815031
-0.536446577000884,0.0134756112434744
-0.53417758374858,0.0141871337525458
-0.531914847324918,0.0149244907194458
-0.529658521322354,0.0156873269549029
-0.527408759333345,0.0164752872696457
-0.525165714950349,0.0172880164744026
-0.522929541765824,0.0181251593799024
-0.520700393372225,0.0189863607968735
-0.51847842336201,0.0198712655360444
-0.516263785327637,0.0207795184081437
-0.514056632861562,0.0217107642238999
-0.511857119556242,0.0226646477940417
-0.509665399004136,0.0236408139292975
-0.5074816247977,0.0246389074403958
-0.505305950529391,0.0256585731380653
-0.503138529791666,0.0266994558330345
-0.500979516176982,0.0277612003360319
-0.498829063277797,0.0288434514577861
-0.496687324686569,0.0299458540090256
-0.494554453995752,0.0310680528004789
-0.492430604797807,0.0322096926428746
-0.490315930685188,0.0333704183469413
-0.488210585250354,0.0345498747234075
-0.486114722085762,0.0357477065830017
-0.484028494783868,0.0369635587364525
-0.48195205693713,0.0381970759944885
-0.479885562138006,0.0394479031678381
-0.477829163978952,0.04071568506723
-0.475783016052425,0.0420000665033926
-0.473747271950883,0.0433006922870546
-0.471722085266782,0.0446172072289444
-0.469707609592581,0.0459492561397907
-0.467703998520735,0.0472964838303218
-0.465711405643703,0.0486585351112665
-0.461759888843907,0.0514256876873106
-0.459801272106058,0.0528300786038671
-0.45785428793285,0.0542478723537512
-0.455919089916742,0.0556787137476916
-0.45399583165019,0.0571222475964168
-0.452084666725651,0.0585781187106552
-0.450185748735582,0.0600459719011356
-0.448299231272442,0.0615254519785864
-0.444564012296773,0.0645178720373134
-0.440880238538301,0.0675525373726645
-0.439058027596656,0.0690848240458956
-0.437249138736682,0.0706266064704683
-0.435453725550837,0.0721775294571114
-0.433671941631576,0.073737237816553
-0.431903940571357,0.0753053763595222
-0.430149875962638,0.0768815898967471
-0.428409901397875,0.0784655232389565
-0.426684170469526,0.0800568211968788
-0.424972836770048,0.0816551285812427
-0.423276053891897,0.0832600902027766
-0.421593975427532,0.0848713508722091
-0.41992675496941,0.0864885554002688
-0.418274546109986,0.0881113485976841
-0.41663750244172,0.0897393752751837
-0.413409525048485,0.0930097083133498
-0.411818898508432,0.0946513042954735
-0.410244051529363,0.0962967130005955
-0.408685137703737,0.0979455792394445
-0.407142310624011,0.099597547822749
-0.405615723882642,0.101252263561238
-0.404105531072086,0.102909371265639
-0.402611885784802,0.104568515746681
-0.401134941613246,0.106229341815093
-0.399674852149876,0.107891494281604
-0.398231770987148,0.109554617956941
-0.396805851717519,0.111218357651833
-0.395397247933448,0.112882358177009
-0.394006113227391,0.114546264343198
-0.392632601191805,0.116209720961128
-0.389939059501876,0.119533864795124
-0.388619337032447,0.121193841632648
-0.387317851603318,0.122851948164827
-0.386034756806946,0.12450782920239
-0.384770206235788,0.126161129556065
-0.383524353482302,0.127811494036581
-0.382297352138944,0.129458567454666
-0.379900518052442,0.132741420346459
-0.377580932715941,0.136006846717272
-0.376450492310084,0.137632136984132
-0.375339824869098,0.139252005052932
-0.37424908398544,0.140866095734402
-0.373178423251569,0.14247405383927
-0.372127996259941,0.144075524178264
-0.370088457873242,0.147257580801544
-0.369099653663085,0.148837456707288
-0.368131697565001,0.150409424090073
-0.367184743171445,0.151973127760626
-0.366258944074875,0.153528212529677
-0.364471426142523,0.156611104606185
-0.363610014491654,0.1581382015351
-0.3627703725076,0.159655258805427
-0.361952653782818,0.161161921227893
-0.360383600480897,0.164142640772162
-0.359632573088674,0.165615987515421
-0.35890408332555,0.167077518653734
-0.357515331056434,0.169963713358438
-0.356855375735355,0.171387666546286
-0.356218572413206,0.172798383372102
-0.355605074682442,0.174195508646616
-0.355015036135522,0.175578687180555
-0.354448610364903,0.176947563784649
-0.353387211522395,0.179640990446213
-0.35289254563542,0.180964830125141
-0.352422106894575,0.182272947117137
-0.351976048892316,0.18356498623293
-0.351554525221101,0.184840592283249
-0.351157689473387,0.186099410078822
-0.350785695241631,0.187341084430377
-0.34982029756668,0.190959694928225
-0.349549205323327,0.192129243610996
-0.349303722558218,0.193279872903393
-0.349084002863809,0.194411227616144
-0.348890199832559,0.195522952559977
-0.348465826642328,0.198736796885257
-0.348315310359679,0.200774699120879
-0.348280232748978,0.201761186476506
-0.348272146948634,0.202725557738316
-0.348291206551106,0.203667457717036
-0.348337565148851,0.204586531223396
-0.348411376334325,0.205482423068124
-0.348512793699986,0.206354778061948
-0.348799061341698,0.2080274567398
-0.348984218802662,0.208827070045285
-0.349197596813643,0.209601725742781
-0.349439348967095,0.210351068643016
-0.349709628855478,0.211074743556718
-0.350008590071248,0.211772395294617
-0.350336386206862,0.21244366866744
-0.351079097607451,0.213705659560776
-0.35149432005734,0.214295666702746
-0.351938991796902,0.214857874722554
-0.352413266418595,0.21539192843093
-0.352917297514874,0.215897472638602
-0.353451238678198,0.216374152156299
-0.354609465575806,0.21723949636468
-0.355234058495006,0.217627450676822
-0.355889175851078,0.217985119541903
-0.356574971236481,0.218312147770651
-0.357291598243671,0.218608180173795
-0.359628004920536,0.219306750536888
-0.36134258334243,0.219610973180953
-0.362247425521944,0.219713571655772
-0.364152983780392,0.219817966964626
-0.366187397854446,0.219785592157292
-0.367253309803469,0.219717227986875
-0.368351896483765,0.219613605719597
-0.369483311487791,0.219474370166185
-0.370647708408005,0.21929916613737
-0.371845240836864,0.219087638443878
-0.37563818709988,0.218231561482634
-0.379734882269157,0.217035784725534
-0.384139473341037,0.21549071806225
-0.385676808441487,0.214896418312069
-0.387248968567611,0.214261887815227
-0.388856107311865,0.213586771382452
-0.390498378266707,0.212870713824471
-0.392175935024594,0.212113359952015
-0.393888931177983,0.21131435457581
-0.395637520319332,0.210473342506587
-0.397421856041097,0.209589968555073
-0.399242091935736,0.208663877531997
-0.401098381595705,0.207694714248087
-0.402990878613463,0.206682123514072
-0.40688510909217,0.204525238938643
-0.408887149738035,0.203380234718684
-0.410926012111516,0.202190382291535
-0.413001849805071,0.200955326467924
-0.415114816411157,0.199674712058579
-0.417265065522231,0.198348183874229
-0.41945275073075,0.196975386725603
-0.41945275073075,0.196975386725603
-0.421636085159837,0.195583752024974
-0.423773332541362,0.194200908285147
-0.425864722380905,0.192826795967641
-0.427910484184046,0.191461355533977
-0.429910847456363,0.190104527445675
-0.431866041703437,0.188756252164255
-0.435641841144174,0.186085121868143
-0.437462905348995,0.184762147776492
-0.440972510255443,0.1821410840136
-0.442661509968228,0.1808428752654
-0.444306947194827,0.179552802554725
-0.44590905144082,0.178270806343094
-0.447468052211785,0.176996827092029
-0.448984179013303,0.175730805263048
-0.450457661350953,0.174472681317674
-0.455929736174468,0.169517973602637
-0.457193438776473,0.168298445998095
-0.458415873948088,0.16708645904628
-0.459597271194892,0.165881953208714
-0.460737860022466,0.164684868946915
-0.462897530442237,0.162312726996703
-0.463917071045595,0.16113755023133
-0.46489672125204,0.159969556887806
-0.465836710567152,0.158808687427652
-0.46673726849651,0.157654882312388
-0.468421008220286,0.155368226962611
-0.469204649025861,0.154235257651138
-0.469949776468002,0.153109114530637
-0.470656620052287,0.151989738062626
-0.471325409284296,0.150877068708628
-0.471956373669609,0.149771046930161
-0.472549742713806,0.148671613188747
-0.474106572855491,0.145412244802021
-0.474960690513323,0.143271181190671
-0.475669934940599,0.141155040804017
-0.475970803456727,0.140106167973752
-0.476236142181955,0.139063347334223
-0.476661148282029,0.136995624473449
-0.476821274668033,0.135970603175246
-0.476946789285456,0.134951395913859
-0.477037921639877,0.133937943150809
-0.477094901236874,0.132930185347616
-0.477117957582029,0.131928062965799
-0.47710732018092,0.130931516466881
-0.477063218539127,0.12994048631238
-0.476875540555808,0.127974736882712
-0.476556759676708,0.126030338368959
-0.476348779415189,0.125065996859351
-0.475836786776113,0.123152731642275
-0.47443509919003,0.119386205339247
-0.473549076332297,0.11753199163762
-0.473060573406787,0.116611938764599
-0.471415852710634,0.113879281594952
-0.470172324035977,0.112079832638237
-0.469507133752221,0.111186626291354
-0.468813298844952,0.110297685980816
-0.46809104881975,0.109412952168142
-0.467340613182196,0.108532365314853
-0.466562221437867,0.107655865882469
-0.465756103092345,0.106783394332511
-0.464922487651208,0.105914891126498
-0.464061604620036,0.105050296725951
-0.46317368350441,0.10418955159239
-0.462258953809907,0.103332596187336
-0.460349986706593,0.101629816408828
-0.459356208308942,0.100783872958415
-0.454003548083916,0.0966062385555736
-0.451687676254234,0.0949583787391198
-0.450493199560353,0.0941391808079776
-0.449274668354551,0.0933230581435855
-0.446766360429505,0.0916998004611332
-0.44547704272142,0.0908925463661135
-0.440090702048854,0.0876913057295518
-0.438687996948554,0.0868976418138922
-0.435816849368422,0.0853178727053919
-0.434348865899749,0.084531648435592
-0.43285958198611,0.0837477849707858
-0.431349227133086,0.0829662227724937
-0.429818030846256,0.0821869023022361
-0.426694031993495,0.0806347483919054
-0.425101688438724,0.0798617958748729
-0.423489421472465,0.079090846931956
-0.421857460600298,0.0783218420246751
-0.416845709604145,0.0760258961318511
-0.411664975655683,0.0737453031744815
-0.408120333679822,0.0722326434317583
-0.406321455405564,0.0714784556136145
-0.404505178281193,0.0707256164463097
-0.40267173181229,0.0699740663913642
-0.398954248863205,0.0684745954646323
-0.391323349076147,0.0654885032663732
-0.389376143351745,0.0647443099205112
-0.387413604327447,0.0640009293791708
-0.385435961508833,0.0632583021038726
-0.383443444401482,0.0625163685561366
-0.381436282510974,0.0617750691974832
-0.379414705342889,0.0610343444894327
-0.373265777228966,0.0588150228841019
-0.371188834006367,0.0580760013936661
-0.366995373817711,0.0565987297489283
-0.364879315862813,0.0558603605176667
-0.362750678674974,0.0551220896291706
-0.358456584622793,0.0536456047265554
-0.351926836936957,0.0514301264813805
-0.349727543968646,0.0506911953414027
-0.347517278306452,0.0499519457748324
-0.345296269455954,0.0492123182431899
-0.338571078830432,0.0469905724730321
-0.334038110074191,0.0455064272621046
-0.331757461711041,0.0447632816319551
-0.329467676698645,0.0440193412673755
-0.327168984542581,0.0432745466298861
-0.322545796821771,0.0417821563822591
-0.320221760268184,0.0410344416951621
-0.317889734593248,0.0402856345812365
-0.315549949302544,0.0395356755020026
-0.313202633901649,0.0387845049189808
-0.306117802093625,0.0365231287623903
-0.303742661307769,0.0357665167794195
-0.298973461494761,0.0342487056864389
-0.296579861478769,0.0334873874994697
-0.289365815059795,0.0311930679148897
-0.28695081581507,0.0304246412505401
-0.28453104052711,0.0296542886206461
-0.282106718701495,0.028881950486728
-0.27480876905452,0.0265524276760326
-0.272368556134082,0.0257715521412214
-0.269924944203888,0.0249883934099877
-0.267478162769517,0.0242028919438518
-0.265028441336548,0.0234149882043339
-0.262576009410562,0.0226246226529544
-0.25520474573029,0.0202381597428493
-0.252743766888027,0.0194373515592264
-0.250281225080645,0.0186337838713434
-0.247817349813722,0.0178273971407206
-0.245352370592838,0.0170181318288783
-0.240420018311507,0.0153907273076164
-0.233018947874294,0.012926542704585
-0.230552164546817,0.0120987555973521
-0.228085883804436,0.0112676731395418
-0.225620335152732,0.0104332357926745
-0.22069235214367,0.0087540582778498
-0.215770051564266,0.0070607467450405
-0.210855269459159,0.00535282488640898
-0.208401271598415,0.00449323623871064
-0.198613256564364,0.00101597429417394
-0.19617439443598,0.00013663427720545
-0.193739247970807,-0.000746834629056198
-0.191308046674424,-0.00163449196309065
-0.188881020052412,-0.00252639726337764
-0.186458397610348,-0.00342261006839682
-0.179219250419652,-0.0061376888966447
-0.174419380794561,-0.00797037051126545
-0.172028003049367,-0.00889367865275156
-0.169642636023179,-0.00982171106832781
-0.167263509221578,-0.0107545272964738
-0.160165865220088,-0.0135822742411276
-0.157813994372628,-0.0145348211043497
-0.155469511277652,-0.0154924494725402
-0.148482683563427,-0.018396418991718
-0.141570607822426,-0.0213482654408795
-0.134739480705298,-0.0243495963589763
-0.132481497942043,-0.0253613143932328
-0.130233427492648,-0.0263787688557343
-0.121344858945259,-0.0305071417577834
-0.119149792648857,-0.031554171438705
-0.116966015699793,-0.0326072947787497
-0.112633247865996,-0.0347320605901273
-0.110484715992421,-0.0358038221384195
-0.108348391488503,-0.0368819154997537
-0.10622450385982,-0.0379664002126095
-0.104113282611952,-0.0390573358154665
-0.102014957250479,-0.0401547818468046
-0.0999297572809802,-0.0412587978451034
-0.0937552047801245,-0.0446108610265608
-0.0877070430079025,-0.0480241972959336
-0.0817914686149631,-0.0515004141921735
-0.0798501453720844,-0.0526734044764626
-0.0779244720825552,-0.053853619650989
-0.0760146782519557,-0.0550411192542324
-0.074120993385865,-0.0562359628246727
-0.0703828685695291,-0.0586479200210621
-0.0613355287981685,-0.0648105001315578
-0.0544192901122262,-0.069880971939694
-0.0510734309357216,-0.072464320263562
-0.0462001312545889,-0.0764008228899071
-0.0446154131388295,-0.0777296232900857
-0.0430509350880117,-0.0790668393500957
-0.0399836172035199,-0.0817667566035282
-0.0384812363810051,-0.0831295768739102
-0.0355401785033353,-0.0858812383944041
-0.0312912936889244,-0.0900746762016654
-0.0299193039736642,-0.0914903124317434
-0.0272431594109365,-0.0943486775642637
-0.0259394635746282,-0.0957915255436656
-0.020959211659956,-0.101655409446743
-0.0197739290668262,-0.103144801111279
-0.0174767068822696,-0.106152106036227
-0.0142176736933862,-0.110735260490538
0.00568182268861921,-0.0994533840727087
0.0151517816267254,-0.098862517905481
-0.0083948086846252,-0.120167373149449
-0.0184821715614847,-0.149749631899141
-0.0132627655200593,-0.127859428993086
-0.00524502777614406,-0.136463814956829
0.0283354812346074,-0.113872343835737
-0.00354018983886591,-0.129964607735089
0.00713899652166644,-0.113468833540852
-0.00783989042041689,-0.157517785335738
0.00334034333301568,-0.152915558516027
-0.0125698807783359,-0.121452264616921
0.00306601654287574,-0.150705883933019
-0.0430831825643181,-0.184671514926315
-0.00610762594315729,-0.137339435806874
0.00471845766847225,-0.161675646168537
0.00560184850575462,-0.168698245531255
0.0156750042568978,-0.18738723167244
-0.0238896026689859,-0.182981182049891
0.00520648957278871,-0.171134776908257
0.004994367135669,-0.178915364318921
0.00447414976315198,-0.184877720470752
0.0293601007061335,-0.169604701410957
-0.0215515754548143,-0.171632488325985
0.00650146805771161,-0.185301098415156
0.00201907150035397,-0.199222661422815
-0.0279751425747772,-0.222407392816707
-0.00223746562940712,-0.214190021462982
0.0298328208026064,-0.189409704990034
-0.0113814504544271,-0.259120193696915
-0.00837418203993294,-0.229800222289788
-0.00940892994737673,-0.232083918547835
-0.0104838849051871,-0.234381210313447
-0.0127553339942264,-0.239016818521285
-0.0139522871366145,-0.24135525404047
-0.0220056652126148,-0.255678457893527
-0.0250276933610669,-0.260565751239657
-0.0298835177276078,-0.268004164874962
-0.03158911911047,-0.270512533871611
-0.0333385996329723,-0.273035450991501
-0.036970116119216,-0.278125167754918
-0.0388526110941166,-0.280692086475406
-0.0447474811965385,-0.288452586053657
-0.0507369323609227,-0.295940657771034
-0.0527344187373552,-0.298351435988117
-0.0547322954886108,-0.300720078447255
-0.0567304960430918,-0.303046877400294
-0.0647252048613218,-0.31194148318836
-0.0707213744005852,-0.318187401055792
-0.0727197688033608,-0.32018997302647
-0.0767156650138588,-0.324077769501202
-0.084702023049912,-0.331392155635835
-0.0886914197299071,-0.334823421325265
-0.0926775847541748,-0.33810718611579
-0.094669288966417,-0.339694486303576
-0.100638089544408,-0.344241565059177
-0.104611364164813,-0.347096855241567
-0.110561056016088,-0.351121492070046
-0.114519927195412,-0.353635793930493
-0.124386656608528,-0.35934783385104
-0.12635425016948,-0.360394228753244
-0.130283152396935,-0.362393343490512
-0.136159794928029,-0.365162211706242
-0.138113953269314,-0.366025055748155
-0.142014786768677,-0.367662329298058
-0.143961328783561,-0.36843734330974
-0.147846330485746,-0.369901587065789
-0.151720111940504,-0.371253400144391
-0.157508581155759,-0.373075426649376
-0.161351981986037,-0.374156391848951
-0.163268809092416,-0.37465763546315
-0.167092383829666,-0.3755831059796
-0.168998998317342,-0.376007917385542
-0.170902075455589,-0.376407835892422
-0.172801548672809,-0.376783153752086
-0.176589417057779,-0.377461156537148
-0.182242525937596,-0.378300962156757
-0.185991359390412,-0.378746109802705
-0.193438855797582,-0.379371591519937
-0.200815907721606,-0.379659575236044
-0.204476685570488,-0.379682850380586
-0.206299904466055,-0.379665331655938
-0.209931669341454,-0.379573442872032
-0.211740082178091,-0.379499657316465
-0.215341635791253,-0.37929786513733
-0.217134643424583,-0.379170443017453
-0.218922382846949,-0.379025726546497
-0.220704787486753,-0.378864007976308
-0.22601932699482,-0.378279762188793
-0.231283456882323,-0.377553018574615
-0.238220775092454,-0.376376002222578
-0.241653298063105,-0.375703601065578
-0.245061020180439,-0.37497838860761
-0.255130055684746,-0.372509263575531
-0.258433248661015,-0.371596186061327
-0.261708977920069,-0.370641987319973
-0.271366057666132,-0.367556043880653
-0.285347784811726,-0.36241075100966
-0.28836856984845,-0.361201419183628
-0.295777078618317,-0.358100472395689
-0.304387256482335,-0.354274764358104
-0.307187121249549,-0.352984308981174
-0.308573592588319,-0.352337542795189
-0.311319280318197,-0.351042394687405
-0.31267836356611,-0.350394597269297
-0.31402818430721,-0.34974704061084
-0.315368675969898,-0.349100016963878
-0.321928868101254,-0.345883122716093
-0.325748773856891,-0.343978086423481
-0.333118725919733,-0.340261313146917
-0.33431129281455,-0.339657354893847
-0.342364494797614,-0.335591866374358
-0.34347204389593,-0.335037763501149
-0.36147493754318,-0.326637650361265
-0.36236349376005,-0.326276916613591
-0.363239858319816,-0.325929282706768
-0.364103964650881,-0.325595040892642
-0.364955746181647,-0.325274483423058
-0.36980388655051,-0.323654875944294
-0.374191558066049,-0.322601552334118
-0.374877059177559,-0.322485486261525
-0.376853755409718,-0.322245112273402
-0.378104381263205,-0.322177638991156
-0.380991961832572,-0.322350719960953
-0.381527976676919,-0.322446262314033
-0.384447964842132,-0.323470548701372
-0.386486214257706,-0.324946905888763
-0.387198930380458,-0.32570484087766
-0.387533039946127,-0.326120847118192
-0.388445575801138,-0.327520527846268
-0.390208807305367,-0.332416634160128
-0.390359470034388,-0.333152915020657
-0.390494412811639,-0.333917785069849
-0.390930997415412,-0.338181201960333
-0.390970222478489,-0.339123744430253
-0.390993261588612,-0.340096921851753
-0.390922227067619,-0.34430182609047
-0.390863337839012,-0.345432562047555
-0.390787863227867,-0.346595686467294
-0.39031877952595,-0.351577913809693
-0.389789558224581,-0.355668983514782
-0.389351265199739,-0.358569508618852
-0.38856427599463,-0.363185859262884
-0.38795247341069,-0.366443877955719
-0.387620229469768,-0.368127899536717
-0.38690272343203,-0.371607428427103
-0.38651732819202,-0.373403520240182
-0.385692920411729,-0.377109819861337
-0.383316026701542,-0.387054883971172
-0.381085218769656,-0.395728947939416
-0.38048122688952,-0.397999623346909
-0.378557090350357,-0.405061508195948
-0.374198101783856,-0.420335944379653
-0.373404623161223,-0.423034253818826
-0.370908032098721,-0.431396575873639
-0.369146176345574,-0.437197207876379
-0.368235810240764,-0.440166125823145
-0.360237576473746,-0.465602493330376
-0.356905996993433,-0.475932722403396
-0.355754666191738,-0.479474420564658
-0.340319634764841,-0.525929625607505
-0.332989214800387,-0.547515359007202
-0.331458462622042,-0.551995135488491
-0.325117674237228,-0.570466082479656
-0.323477699365179,-0.575223240753178
-0.321815680239597,-0.580036752140684
-0.313172590802777,-0.604959834602549
-0.309558715247404,-0.615333768199769
-0.307717945516046,-0.620608625565578
-0.29012407643615,-0.670771664205974
-0.288053877003799,-0.676649506710754
-0.283843484225842,-0.688591201669303
-0.268365183396084,-0.732370924932369
-0.266058897102989,-0.738880977760671
-0.258995922958151,-0.758801275757969
-0.251715377911435,-0.779312920312617
-0.24673992086906,-0.793319772572182
-0.241666434216122,-0.807595290560811
-0.203362462436296,-0.91524295013519
