-0.800359939283197,0.498326540625847
-0.0550707554197747,-0.9001191069864
0.492033598376388,-0.198329469769494
-0.0221050579644588,0.284757009749186
-0.536243714305306,0.767843489267867
-0.561592400348527,0.900998457994326
0.120428322794401,-0.286052693769906
0.802449045937328,-1.47310384553414
-0.160185533298902,-0.414697584296699
-0.500704538843127,0.8436652632876
