-0.794336520952041,0.722672934049698
0.889905574942398,0.697141173463504
-0.458747143917985,0.875198042011085
0.118744974748892,0.370291917720462
0.696237093415769,-0.134614206570161
-0.779070187471923,0.200558154626995
-0.936661642698944,-0.167028458006808
-1.09425309792597,-0.53461507064061
-0.906009261766668,0.672083400629044
-0.209328062698367,-0.396878731189374
