0.619439242457454,0.0335823674816268
0.687237482017548,-0.0278071143580393
0.639182198586117,0.0145341105342979
0.626048461560407,0.0176549906723403
0.644135635425948,0.00115787094435273
0.643661376981883,-0.0329912436422172
0.599990941123327,0.0175909879569165
0.670981006589954,0.0280953603879468
0.625940886527682,-0.000251108424551102
0.596014306877106,0.0336850374692382
0.660386719540718,-0.015624834964451
0.576115638009255,0.00596707253351825
0.631622262747563,-0.0284502699517798
0.615088883115637,-0.0285202136974568
0.611939425881695,-0.0314692162154485
0.625323114774154,-0.0801423604567292
0.569262508674339,0.00858076027393974
0.557203899141722,-0.00177340249727334
0.583483857780224,-0.0517685323431022
0.573628774204644,-0.00978757907323758
0.583855127471094,-0.0881192984330948
0.620732930171747,-0.0791986027584186
0.569343114642006,-0.0581137540727917
0.625954413190171,-0.0698747100499038
0.578286441317018,-0.0594681289856368
0.575315034268237,-0.0616188933826697
0.583255220828154,-0.0583780970226511
0.566434074104157,-0.112854680723013
0.566486299287323,-0.0676870439208781
0.611512489343868,-0.0749395997639121
0.56067089143159,-0.0714158416210941
0.597138226297507,-0.105852482339544
0.55491104780853,-0.0748945812208919
0.533753548599687,-0.0912677867859761
0.546374025049153,-0.0796499267319047
0.587497508879428,-0.0731658948665147
0.540750211485676,-0.0825157111798572
0.573877473831694,-0.0544149088329171
0.515372785555754,-0.0892189916840174
0.531574898997377,-0.0430032683635503
0.529661705398649,-0.0875291483209771
0.526922249006527,-0.0886349285072102
0.563911882774924,-0.0923235606871585
0.492371496050489,-0.0892740411392108
0.518780971331181,-0.0916036518449743
0.516092634937633,-0.0924781815124125
0.557834828422067,-0.0537701560920029
0.510753602594104,-0.0940567634108558
0.487841706634832,-0.13088890235297
0.543655846483638,-0.0847422193328029
0.518159523766672,-0.112225277993935
0.500211554235226,-0.0670274401030129
0.497621750293266,-0.097025019910037
0.494595860488243,-0.0841987438640444
0.471982647001898,-0.0800949354485149
0.473934846426985,-0.0737126264893666
0.439231236876087,-0.123992681622065
0.447281118324664,-0.127131272055081
0.482258560965598,-0.098792130563011
0.479989302624291,-0.0922962445984131
0.477230410448628,-0.0989581391119183
0.487377613659698,-0.0704978486168727
0.478644103827043,-0.116810526681151
0.483328953134648,-0.0860483597081977
0.445909469844672,-0.111298396823736
0.438379830770449,-0.0542335357648207
0.462415479003748,-0.0982260880698294
0.496574353531302,-0.0916714322677927
0.475979682185878,-0.12053010709548
0.461545113681583,-0.0860639298056406
0.459545057324492,-0.0531643871900142
0.412431365631292,-0.0891224359478449
0.485359179927312,-0.112254050731582
0.445623634125419,-0.0951192437763233
0.402093335133342,-0.0569843841766948
0.412203087130298,-0.0856897628312609
0.438582822645959,-0.0930729258736296
0.425217861850872,-0.0621650415114779
0.433939200136488,-0.0914774086409797
0.431632217522909,-0.0906113033010443
0.429335010935925,-0.0897000978634333
0.427047498074906,-0.0887441406166953
0.424769596639219,-0.0877437798493791
0.422501224328234,-0.086699363850033
0.426490029233386,-0.115725692075919
0.391975538855371,-0.133103379816646
0.38095156129261,-0.0961119507697083
0.402797956719532,-0.0973987858594489
0.40276278993469,-0.0458171021203506
0.409086493245688,-0.0795272121400511
0.366471418930149,-0.0637303093194224
0.437278431221827,-0.064977851071643
0.402501104536735,-0.0753746020250928
0.421137173220815,-0.110682635005556
0.422783864870316,-0.116377070709854
0.395994070893262,-0.0708568407912387
0.431580844156494,-0.0975125711778495
0.391698481714461,-0.0676467820832636
0.387436070996578,-0.0642813997600842
0.394985963927912,-0.023302303021084
0.393926982295696,-0.0255745193016983
0.407926346109237,-0.0704741035002739
0.349247144558049,-0.0889382487543257
0.360281614366605,-0.0417625642333799
0.362155873069693,-0.0482457259963975
0.398936540380269,-0.0927147541245929
0.379555038408346,-0.0682517322310989
0.414283587711802,-0.0360072072760362
0.406958258307845,-0.0489507402362945
0.316023492453682,-0.00760637927384617
0.358043801266685,-0.028302136525739
0.383797529183769,-0.0779105230652457
0.354452201240361,-0.0321010480339282
0.330674059401063,-0.0583615199158704
0.350458768443415,-0.0274631370513982
0.341007809887272,0.0106319687648468
0.346491930056871,-0.0226977655375503
0.316515588460297,0.0171243754227114
0.342551027675676,-0.017807719800773
0.340590096735507,-0.0153168148201574
0.373181520705268,0.00982584002486223
0.336686863852865,-0.0102449820772149
0.294287375710306,-0.00293476153581529
0.332807920962944,-0.00505544088231474
0.329268688494167,-0.050337251796166
0.328952609660692,0.000249022456154518
0.327033610103363,0.00294347920785615
0.319962503747367,0.0103256749178437
0.323212511673144,0.00841510143345026
0.352914779776392,0.00769780592134763
0.29585891663673,0.0505625934729934
0.298437099584678,-0.00442428390922285
0.30208129088075,-0.0106435444947068
0.359909889986295,0.0494478167541906
0.311878496212517,0.025466561112263
0.337106817493804,0.021831813826233
0.272065994695582,0.0644373008595158
0.258674296350001,0.0124835346014076
0.304423635046611,0.0373368319826102
0.318156519619157,0.050553711963166
0.253215874823581,0.0515747297729026
0.263756603584113,0.0715951150031199
0.297043548079832,0.0495832021755744
0.295209592552015,0.05270094807886
0.260374713918968,0.0853530670926404
0.243360334886985,0.0437090451736851
0.287915566277315,0.0653860964557232
0.286102097164624,0.0686091832981263
0.284292478433064,0.0718522934627071
0.329566916970418,0.071854810341907
0.233421010336013,0.0599692874328984
0.294549213669693,0.0990766165863266
0.275299259970128,0.0883560040190776
0.267492929105889,0.0974076854017553
0.298289511598618,0.124221350245298
0.269944266225524,0.0984762197519238
0.22981242010237,0.0769282767369083
0.271653961131842,0.0747169232950047
0.262847425952708,0.11220465753586
0.261080372818388,0.115676376630831
0.25762469925816,0.087577492920671
0.245333066709173,0.166325742064538
0.236686134088324,0.105343761446524
0.252283933718515,0.133255215572178
0.254127218900563,0.106970723342794
0.248781940866919,0.14038303004684
0.261052898111145,0.12037879352551
0.196090663882415,0.133137616477683
0.225501716267805,0.197162981554888
0.25011074165957,0.110378026976303
0.238324258320812,0.162060350541054
0.236587490241097,0.165712437333071
0.234852268124832,0.169374795367906
0.24692686203899,0.185088831789823
0.231386132580126,0.176728932011833
0.229655054550423,0.180420014043829
0.192875917378433,0.139324535454027
0.187384266349508,0.164398173157813
0.211900929277516,0.234698498268354
0.222742087034539,0.195269640172557
0.191951755094571,0.241743011635165
0.220769843975767,0.226083800433629
0.215805640836003,0.252831454819045
0.214120230448914,0.213997471694003
0.242430956181536,0.262712416176022
0.210675396305773,0.221531246764223
0.189379973739309,0.200639492404449
0.205510275244321,0.232868890507598
0.218140956613015,0.236610987197838
0.226130390844567,0.207414945179296
0.214770293627447,0.223297048775899
0.234947965250938,0.201162864747344
0.214129892671988,0.256262887672821
0.192973255664548,0.274054700546155
0.228362880574769,0.239566634372353
0.159797519020567,0.27531564227979
0.204333401691692,0.280429362241366
0.140883830496728,0.253799145191725
0.184833379515578,0.278485611977857
0.183106266509191,0.282294153122127
0.177229743994914,0.299070515152573
0.140728130194085,0.318985374150571
0.176186937916081,0.297519577791837
0.174453975122755,0.301322007539678
0.2198941332115,0.351976353548974
0.139587991624292,0.360513718359394
0.165766262254264,0.320293183333946
0.180487441997607,0.322631618046053
0.158562508083412,0.285976079962847
0.136964507883183,0.363655793131452
0.131260591908415,0.36198450356546
0.155279765544626,0.34292247971978
0.153524368598237,0.346674716684239
0.15000627900425,0.354159502502066
0.103036594461087,0.316736169527735
0.146477913137773,0.361615715581446
0.138385437575732,0.363178190763029
0.137607718996283,0.380112957400396
0.185702876361389,0.3956052550128
0.116481887311815,0.402225089404143
0.179332149506999,0.396790750974575
0.179909345986303,0.357826494262159
0.0795091313965664,0.447814724994883
0.101568739619199,0.367087389858986
0.169033623512971,0.403525759580031
0.099716624911233,0.400885019290478
0.121436310418366,0.412775120555975
0.0847600346193967,0.368296647947729
0.167292700745635,0.452726349997533
0.106666101996167,0.382541220893339
0.150897717987658,0.385639442989201
0.0855227986730487,0.468094254273569
0.0899529420370405,0.443280316311409
0.111533706495659,0.474780681155101
0.106799350777394,0.440951374518043
0.112435883146423,0.480881333216841
0.103096314047005,0.447847382681757
0.0638697027773632,0.494341430790715
0.0975062365657907,0.458069034054398
0.0956330755666915,0.461442228458302
0.0926124155612059,0.461773728637036
0.108723733108218,0.475479342693933
0.0899830348444708,0.471454867469407
0.126792235983603,0.480883276626866
0.0842721848465366,0.443199868582821
0.0458081358327613,0.490096830496252
0.113436618792308,0.49994136393554
0.0766107911828675,0.494149153628039
0.0746776846913099,0.497309681910013
0.0854814433167765,0.498478560878236
0.0854843859964652,0.538432122789618
0.107684360954515,0.549439266153643
0.0668850017786426,0.509734082001392
0.0649213553107092,0.512784012322364
0.0589919573213665,0.521793423384008
0.0570023974609665,0.524748606142304
0.0550061535008712,0.527679231288559
0.0846874444814511,0.507431658059851
0.0509932840790687,0.533465415590754
0.0489764940160986,0.536320278169596
0.0469526906509075,0.539149189982204
0.0698566125045755,0.575396124489555
0.0610377069834074,0.523996967132745
0.0249936126399463,0.527455973102757
0.00845380104511261,0.50979092736222
0.039973536193102,0.589178625181978
0.0613793768844071,0.605183464800312
0.0622799046448833,0.591878385529547
-0.0206890534692788,0.599965958928851
0.0263108192379132,0.565934392484674
0.0463595660157526,0.597695266845808
0.0199675896139868,0.573405052529126
0.017836958451397,0.575834083316844
0.0156980794771141,0.5782319390101
0.0388911526827916,0.556192449117732
-0.0164552505920384,0.573041810200921
-0.0178632206484257,0.58895424694918
0.00705843945042414,0.587504645067514
-0.044946204842775,0.596107700279934
0.00268699275050358,0.591944892027176
0.0255926524328414,0.587198933573411
0.0165211318722766,0.614216976237857
-0.0083974827923283,0.602451184876419
-0.0348069291228739,0.642171551117088
-0.0128953448399338,0.606408658136631
0.0282180688910116,0.599344588885896
-0.0174308069696726,0.610221926860268
-0.0275545144352394,0.572163921108906
-0.0359226233296739,0.605204944532608
-0.0243059405793314,0.615665351390046
-0.0338773783381883,0.663676593966047
-0.0336105307934915,0.622392529340112
-0.0359618244109939,0.623977230221297
-0.0736402616882488,0.620605119781936
-0.0430773726271144,0.628492735592883
-0.050287150201915,0.632643030996991
-0.0527117333206132,0.633943679681251
-0.0498870066657977,0.66933703947298
-0.0388101103534197,0.678654580583615
-0.0600506066668418,0.637592400343016
-0.0894456078035654,0.629484120394008
-0.0459494606060441,0.660058914543311
-0.0699907996623674,0.641853499207197
-0.0502471000613278,0.672552941801898
-0.0607422278497083,0.690953303691094
-0.121603352010853,0.617061845827659
-0.0891321898229021,0.652129385587055
-0.127998295316554,0.674255838691918
-0.0936984081566385,0.632343216463822
-0.0792379405060599,0.626504640655987
-0.0982806302158981,0.64984064564505
-0.127141375435135,0.658076756094177
-0.0773830024140143,0.634098394291437
-0.138882611424856,0.693206062505755
-0.122801386976857,0.684316427505465
-0.0855702808219064,0.661893162466959
-0.114330759002133,0.651766572600875
-0.0671246564884583,0.627772616872525
-0.0752534525056416,0.621508072058551
-0.12528523444633,0.652048548459363
-0.176224469170309,0.695161049529705
-0.163434970060283,0.608647349357308
-0.13363839024123,0.651718146115437
-0.136449366673708,0.651502938416575
-0.176518113439498,0.668031902770214
-0.142111700093719,0.650912822911231
-0.144963221682515,0.650537218527651
-0.164249535026185,0.656681298712346
-0.199414709970891,0.6793012342442
-0.105781809081125,0.643295693777597
-0.211392027137557,0.675193417338427
-0.215251878898139,0.634664160305927
-0.167215124621101,0.679820142765191
-0.184195647607492,0.605804534347645
-0.186358334316713,0.639433261307598
-0.16035176536856,0.629948690067724
-0.193547136813719,0.655893646650626
-0.231964977738912,0.645433359767838
-0.168450468193201,0.653285353258335
-0.208764828565992,0.656549660230832
-0.17349150766652,0.652515722747023
-0.166221572150873,0.65480602897642
-0.214490379032725,0.626244631410114
-0.217692927276658,0.62447300805905
-0.246005411222232,0.6618699504254
-0.227394830422127,0.618781618468649
-0.201915257085359,0.581719882249447
-0.258230423296746,0.616602833774804
-0.237239849501359,0.612518135512914
-0.266561088323937,0.560906355801597
-0.247230206631406,0.605673155401034
-0.247230206631406,0.605673155401034
-0.266380511950549,0.647495010136711
-0.230034103990192,0.592372787363969
-0.263176192487882,0.620285287959104
-0.260125523975513,0.595930753995947
-0.263187029429711,0.593426382865159
-0.255205281464326,0.584890848460711
-0.271986290934583,0.585752840235693
-0.229690537016965,0.621333139478507
-0.243220842618151,0.578876223982355
-0.280213343379874,0.577844718332356
-0.282829797343286,0.575157896655224
-0.289010148056302,0.545990370013141
-0.283089317811487,0.573155252592176
-0.31562733142618,0.561224068312545
-0.305807011958675,0.52653089343348
-0.259862849760257,0.576037548787871
-0.267851726063997,0.516869740018481
-0.295507664950151,0.563317405834729
-0.299053407445742,0.593253357468022
-0.329443574642438,0.503041593997993
-0.308659628763804,0.500256225714474
-0.299509117716182,0.58456046292164
-0.294278249447149,0.545780353926548
-0.357378782234908,0.523102388480107
-0.294871538007078,0.562845105202199
-0.277381224238599,0.477666407312814
-0.283300801373409,0.509452143347115
-0.277355274962841,0.548132983558446
-0.318037517642287,0.476159542647614
-0.347048531673687,0.549808320254543
-0.369547998378421,0.46377807595294
-0.37258052997543,0.516773422129293
-0.349720388809949,0.524288796267618
-0.292170878039179,0.467373686567947
-0.333171716448409,0.527016364848826
-0.375194592458935,0.461337460658535
-0.354510849276209,0.42823184506546
-0.375718636008177,0.456450156914609
-0.331210779082089,0.474605641995623
-0.337497452975405,0.464086680788184
-0.340010700309308,0.508836415419847
-0.355116348216702,0.503603729799758
-0.305918980601587,0.458992675106056
-0.344943795363832,0.495743802888517
-0.317479033934352,0.410305295381501
-0.353791349891327,0.459983720474064
-0.314519107223472,0.409131851944435
-0.351891406189762,0.456527364932417
-0.33977079549708,0.418650134276357
-0.360953226576313,0.454737298713738
-0.310831521345369,0.382615190226335
-0.335823479234845,0.382428504678554
-0.363544830481675,0.392502383957409
-0.319760308770714,0.398219331932
-0.33292576922953,0.367703303305559
-0.332086970122211,0.364004492338322
-0.331202962679831,0.360299254700707
-0.329869044400132,0.380515549958398
-0.291685982022393,0.298624045058127
-0.326114255820324,0.341686774093261
-0.333681582798586,0.336160138779835
-0.360579113012344,0.315456365651123
-0.303363533176197,0.325652480915373
-0.278753031347204,0.326541997659282
-0.317166959171069,0.315440242177368
-0.304509708532502,0.27942869616448
-0.326610257293129,0.349277585246477
-0.318994555805462,0.323193722292388
-0.331119700869213,0.337079644783547
-0.256988731771409,0.271401419734923
-0.304445100115818,0.285289637166263
-0.3386893070104,0.251089158284758
-0.329319312384655,0.24636388354355
-0.297126683077376,0.2701964032669
-0.302896671664662,0.304164241815398
-0.265815608777926,0.239107519620508
-0.289192994144615,0.255115858484931
-0.31744258503383,0.223303358612277
-0.282563615747218,0.20604709808396
-0.263893735209193,0.266599256222652
-0.299607362310847,0.255852144620556
-0.297127968110374,0.227213807385925
-0.243115652660567,0.205851189446529
-0.264344009165288,0.213860681166578
-0.216626436510286,0.185413941708612
-0.25290597903082,0.208525870067424
-0.251651316163751,0.195290221230016
-0.202916097700546,0.210770973075622
-0.243636922092764,0.184224461295322
-0.236961694927165,0.218567577487231
-0.260011034613139,0.204427064585055
-0.248494225161485,0.190303425571476
-0.186861339044682,0.14306658259569
-0.253822025161838,0.19046410789198
-0.162442174494281,0.140605831063298
-0.228358666076704,0.164229245023674
-0.230812855477818,0.158822648188002
-0.196170802485379,0.126527446152765
-0.181287648185042,0.121062392318662
-0.146396016748649,0.0662443396123605
-0.134740361972818,0.158951364129764
-0.219875772569954,0.120340770105051
-0.189879154179893,0.140236040230881
-0.166259363574426,0.0953533526272663
-0.15932508491433,0.0885795687031996
-0.133787724676364,0.082750200169454
-0.136200407105642,0.0881443904933409
-0.188973947004995,0.0346005654569395
-0.137932170409938,0.0686330394048974
-0.0841269060503875,0.0436873125993616
-0.123200107596924,0.0556708084362991
-0.111906384617394,0.0222251474860087
-0.0754452576328945,0.0837204048186011
-0.0624601728351325,0.0570454073517202
-0.132031582473243,0.0244392890596741
-0.096572955564687,0.0336956598258
-0.0473937324593408,-0.0117189062874039
-0.136723211247502,-0.0152559533986238
-0.0411465635460994,0.0508903946506817
-0.0477844278507701,0.0155638051333833
-0.036291438137268,0.0634431698564029
-0.0649260758804692,0.00979549847995229
-0.0578557462938696,-0.0350977038987535
-0.0568270232021555,0.00403920525614634
-0.0436378908299287,-0.0350727659978545
-0.0404192471421524,-0.0071947124381965
-0.0372712808458623,-0.0408149070831628
-0.0241494063779802,0.00261338786642468
-0.0707754097231304,-0.0658255658058712
-0.0329593119163324,-0.0447914653543811
0.0076696779072673,-0.0131119460867763
0.0327330215049041,-0.00765741553539398
0.0345621747051853,-0.0184398571361805
0.0500865058927307,-0.0927357593678112
0.0282114895642964,-0.00651202192897642
0.0679464909209992,-0.0823742071101864
0.000451078307372753,-0.0179041853975588
0.0256000410315628,-0.0663035430665493
0.0585398284221184,-0.0637123831795873
0.0381607013997144,-0.0981087649035423
0.0803505309844307,-0.0358144258216575
0.0903011263952686,-0.0466835133953818
0.114776451995583,-0.0489920726292098
0.137210350566326,-0.118406183029021
0.108007198650439,-0.0851939037936331
0.117107830640099,-0.0886688472363513
0.138780388157379,-0.128302808957008
0.136988482992974,-0.124984555220148
0.164323432548247,-0.112766442371739
0.185228413502757,-0.110390296514297
0.19370524173282,-0.0730648526779478
0.15836837430743,-0.102560955553592
0.151600105865146,-0.0734466931260104
0.133001606690173,-0.0799865455476369
0.141731352855557,-0.0849110266159261
0.170771442154479,-0.0670366606878246
0.16676569891505,-0.0806254034593685
0.204990668221323,-0.139601218371292
0.218546791872239,-0.117255451527381
0.227330460620852,-0.156212142313998
0.232477406505286,-0.119687156418072
0.202026845644585,-0.11131953505372
0.241765396547047,-0.121099768356582
0.295191136848034,-0.170231019255555
0.274164066487186,-0.128921270536012
0.260333843785918,-0.123414136635012
0.27060166009545,-0.17285120507935
0.245547445668743,-0.174877254472066
0.279314410919741,-0.0763475061429042
0.305119902217184,-0.107394055656416
0.280503057114288,-0.162895393218941
0.306610162920402,-0.126112251552092
0.332638110674046,-0.15583341689437
0.341467771001353,-0.142304893002277
0.357649034483457,-0.111967345594262
0.325017385173113,-0.125907858553081
0.367920960149269,-0.125476719106648
0.334190214510473,-0.125521355293418
0.347904902822768,-0.124579719187536
0.366096636823504,-0.122636563612205
0.370625891248829,-0.122026056460121
0.419075293652831,-0.100967970500418
0.341534765425846,-0.164027322476323
0.408983664171256,-0.0714779809277377
0.397598889504843,-0.0770725214333579
0.419026884728353,-0.0718827774872054
0.366067228373345,-0.104460197979251
0.410919907749957,-0.0996086440355434
0.455418005040401,-0.14165910949033
0.419637613924157,-0.0675267264664586
0.466471792751574,-0.142707032704348
0.42100299120307,-0.137061415389762
0.456153909149411,-0.0924389669285677
0.450520650727215,-0.102127595681301
0.437458288698133,-0.0605788999689127
0.467764026331081,-0.0953158374403931
0.48420029274699,-0.0704062321632491
0.479471899261131,-0.0791919953918984
0.51062549586114,-0.122767460859208
0.457087071694258,-0.096796407972054
0.509857771571278,-0.0742687335194075
0.556012423868575,-0.088518291393597
0.572983963726342,-0.0658970815057267
0.550285831350308,-0.0472510145990852
0.554226623711679,-0.044209740482158
0.532844346219292,0.00791217308535328
0.573630754271019,-0.0280543515700287
0.621711204759642,-0.0183085954077264
0.549974760462033,-0.00311246981586197
0.590957681104284,-0.00958650193159136
0.616698011713803,0.0184885659202693
0.656862092995691,0.0314251974265644
0.617996481086315,0.0173486456865039
0.646181728462892,0.0690895690458644
0.632033032771369,0.034627687014515
0.643748146887809,0.0413475020289071
0.631348463950427,0.0595691079805662
0.63168771116514,0.0175850081736893
0.658874361253398,0.072513728243993
0.693734371433944,0.059328545958239
0.679306032738951,0.0737074326251242
0.68092344379716,0.109399991554366
0.68395805765353,0.114960264471086
0.674720669330415,0.0991717272343536
0.696770524000861,0.177886426798434
0.669843257764525,0.190511882282414
0.739062550396031,0.140030033391602
0.763070980433557,0.153042059192805
0.723209187509979,0.200660129953766
0.609812914958448,0.11746032501177
0.684670197210074,0.184224088779237
0.625136492614526,0.154744511328351
0.726435878797688,0.298692404724912
0.656151049692698,0.179652366494726
0.640777741726085,0.37715232134426
0.87605346625201,0.150177289218095
0.655126320864044,0.148271965264157
0.828355892515324,0.209820478245014
0.695555600734603,0.430534669173429
0.855972748301662,0.499433924825223
0.682850162921604,0.305463888295694
0.674951503944407,0.48089217103647
0.707308099449034,0.329934132844304
0.746330413372217,0.393703023965657
0.7904749772627,0.449609405447622
0.787145960048132,0.454942605498103
0.694255414254047,0.573683418338513
0.683868918203734,0.369666782820502
0.78973192348874,0.473263279113268
0.918705176019348,0.355900372272339
0.878973420572027,0.634463824624149
0.940297429902823,0.467554940802124
0.689520687247312,0.447925976411036
0.885100894603101,0.483864102323948
0.803683841793625,0.565584151959433
0.679301980918978,0.474689996657056
0.706872294244994,0.685587965651134
0.662333017348921,0.425490355362963
0.799474170191726,0.595020493653593
0.734684045263294,0.706094136158202
0.827282122125462,0.629725701424817
0.836982654584518,0.63739860810883
0.822880618160382,0.644165646702354
0.793293183804882,0.690694354380993
0.792353211047411,0.696197920064103
0.777116317841635,0.716921566695283
0.824866841809112,0.69655953997465
0.797706233920775,0.692426267988418
0.826217803131878,0.738281528345105
0.82717306699178,0.773435569077755
0.782591113922269,0.736473990148635
0.791487424101882,0.778726402489201
0.773475286970341,0.756714782968783
0.765046461322927,0.777801427638186
0.75232388906457,0.820692955327951
0.749462965606478,0.801085157530983
0.766093216762012,0.754111003819883
0.736768703578784,0.815010228248125
0.680512053700878,0.800987204268458
0.669062082459263,0.863796627629272
0.723406971129359,0.870756595066325
0.684700768316427,0.846639787605143
0.678064467025736,0.828780585570242
0.634232874870079,0.865446493133658
0.643812327057631,0.824506213656927
0.6265421566232,0.847665601973927
0.618511048092701,0.815041174865303
0.640571226234725,0.855600930382711
0.636648312661152,0.855889852862883
0.607369255369748,0.859795037272012
0.591087901313186,0.819502413762358
0.556515064085866,0.806694502221151
0.597145116891207,0.882949926885765
0.571138263729355,0.887232906779325
0.546755579469784,0.847355811945116
0.548687229725387,0.828535432404361
0.546181944511865,0.817579850330601
0.567175133283329,0.851403632459211
0.485114397975335,0.829747717191188
0.483435768206536,0.808974857442005
0.441974986408066,0.796869939982283
0.440142810778496,0.806396274081573
0.393394750992771,0.794753129034459
0.373683228233103,0.783060974193602
0.358014814729321,0.775352530263072
0.349451065805309,0.747413650860628
0.315901055668157,0.753530630684582
0.289948032075353,0.711705568076712
0.32285002119767,0.712645604809
0.284109603354594,0.736107476912099
0.309340567474532,0.73012113560408
0.268183019051138,0.727105021065234
0.237175643441532,0.68721332328846
0.261994505267143,0.73070281555764
0.21742147128963,0.673911994558293
0.186366724647031,0.667631001071536
0.1649508364729,0.703208505692978
0.196168650810597,0.696460435314557
0.110468969176599,0.610860222093813
0.0861140155621008,0.59676390126443
0.117413907467394,0.625835505233403
0.0803319375271513,0.610664813660977
0.00191310884971859,0.566083715338083
0.0309600957115266,0.577960278901303
0.0165340784274909,0.568321501039912
0.0392367628845515,0.579823697146646
-0.0117050111462194,0.549391952294264
-0.0193614725241432,0.536665238092994
-0.0254930959807936,0.540135617146984
-0.00724683536185634,0.563578800712098
-0.0241234191841398,0.559968397453586
-0.0789543439071168,0.503320205058037
-0.123597203245575,0.452412368792555
-0.119997351794335,0.483979124834837
-0.130080123715361,0.428927801446493
-0.137190837068042,0.436682069861051
-0.168841642732492,0.446613403818477
-0.180509075916169,0.415891442966292
-0.215399167767303,0.407747629214709
-0.241132465374741,0.437039606079814
-0.206012007812576,0.418990135168307
-0.244141868129276,0.444008353327237
-0.228073853495492,0.414657781345014
-0.246479792384378,0.364459763255606
-0.289819783216725,0.385786900890223
-0.256382077168825,0.406159663640242
-0.275480938454946,0.364512986593847
-0.240602863103331,0.39408487492757
-0.254749981484833,0.369127150263221
-0.312400815319249,0.401816184396633
-0.269428959282528,0.409610481002803
-0.244985558804707,0.384057168597367
-0.273089561162802,0.418900509558297
-0.285644818481088,0.441442141719481
-0.291616503437685,0.465864973175131
-0.241729178255553,0.421847807478689
-0.291588404137044,0.421103341307286
-0.319087322895391,0.474941988958855
-0.268359312819958,0.443494459912607
-0.252737490671659,0.448667215017492
-0.246480555465613,0.531561500066081
-0.216624270937427,0.542398083711678
-0.2583974987606,0.552292539024634
-0.203727076927716,0.563121243240713
-0.193225948168573,0.587404832184391
-0.185581667694753,0.591400473649897
-0.142324663100654,0.656179444740203
-0.0605967944182932,0.670578395654598
-0.037457594317425,0.765775459062691
