0.467354357913395,0.168896057069105
-0.105773209597422,0.874597509348323
-0.330584899709444,0.711400279394516
-0.41899846055743,0.0100298078448644
-0.507412021405416,-0.691340663704787
-0.967986560467834,-0.263506358891897
0.151727901064049,-0.0432442940102653
1.27144236259593,0.177017770871366
-0.646461374970994,0.873862583767633
-0.259595015026052,-0.406574377075115
