0.783336791789896,-0.653120680042273
0.780222736727448,-0.655008482689662
0.77710119298494,-0.656860412860124
0.773972268383701,-0.658676572751713
0.770836070745062,-0.660457064562481
0.767692707890354,-0.662201990490484
0.764542287640906,-0.663911452733773
0.761384917818048,-0.665585553490403
0.758220706243111,-0.667224394958428
0.755049760737425,-0.668828079335901
0.751872189122319,-0.670396708820876
0.748688099219124,-0.671930385611405
0.745497598849171,-0.673429211905544
0.742300795833789,-0.674893289901346
0.739097797994308,-0.676322721796863
0.735888713152059,-0.677717609790151
0.732673649128371,-0.679078056079261
0.729452713744576,-0.680404162862249
0.726226014822002,-0.681696032337168
0.722993660181981,-0.68295376670207
0.719755757645842,-0.684177468155011
0.716512415034915,-0.685367238894043
0.713263740170531,-0.68652318111722
0.71000984087402,-0.687645397022596
0.706750824966711,-0.688733988808224
0.703486800269936,-0.689789058672158
0.700217874605023,-0.690810708812452
0.696944155793304,-0.691799041427159
0.693665751656109,-0.692754158714332
0.690382770014767,-0.693676162872026
0.687095318690608,-0.694565156098295
0.683803505504964,-0.69542124059119
0.680507438279163,-0.696244518548767
0.677207224834537,-0.697035092169079
0.673902972992415,-0.697793063650179
0.670594790574128,-0.698518535190122
0.667282785401005,-0.69921160898696
0.663967065294377,-0.699872387238747
0.660647738075573,-0.700500972143538
0.657324911565925,-0.701097465899385
0.653998693586762,-0.701661970704342
0.650669191959414,-0.702194588756463
0.647336514505212,-0.702695422253801
0.644000769045485,-0.70316457339441
0.640662063401564,-0.703602144376344
0.637320505394779,-0.704008237397657
0.63397620284646,-0.704382954656401
0.630629263577937,-0.70472639835063
0.627279795410541,-0.705038670678399
0.6239279061656,-0.70531987383776
0.620573703664447,-0.705570110026768
0.61721729572841,-0.705789481443476
0.61385879017882,-0.705978090285937
0.610498294837007,-0.706136038752205
0.607135917524302,-0.706263429040334
0.603771766062033,-0.706360363348378
0.600405948271532,-0.706426943874389
0.597038571974129,-0.706463272816423
0.593669744991153,-0.706469452372531
0.590299575143935,-0.706445584740768
0.586928170253806,-0.706391772119188
0.583555638142095,-0.706308116705844
0.580182086630131,-0.70619472069879
0.576807623539247,-0.706051686296079
0.573432356690771,-0.705879115695765
0.570056393906034,-0.705677111095901
0.566679843006365,-0.705445774694542
0.563302811813096,-0.70518520868974
0.559925408147556,-0.70489551527955
0.556547739831075,-0.704576796662025
0.553169914684983,-0.704229155035218
0.549792040530612,-0.703852692597184
0.54641422518929,-0.703447511545976
0.543036576482348,-0.703013714079647
0.539659202231116,-0.702551402396251
0.536282210256924,-0.702060678693841
0.532905708381102,-0.701541645170473
0.529529804424981,-0.700994404024198
0.526154606209891,-0.700419057453071
0.522780221557161,-0.699815707655144
0.519406758288122,-0.699184456828473
0.516034324224105,-0.69852540717111
0.512663027186438,-0.697838660881109
0.509292974996453,-0.697124320156524
0.50592427547548,-0.696382487195408
0.502557036444848,-0.695613264195815
0.499191365725887,-0.694816753355798
0.495827371139929,-0.693993056873411
0.492465160508303,-0.693142276946708
0.489104841652339,-0.692264515773743
0.485746522393367,-0.691359875552568
0.482390310552718,-0.690428458481238
0.479036313951721,-0.689470366757806
0.475684640411707,-0.688485702580326
0.472335397754006,-0.687474568146851
0.468988693799948,-0.686437065655435
0.465644636370864,-0.685373297304132
0.462303333288083,-0.684283365290996
0.458964892372935,-0.683167371814079
0.455629421446751,-0.682025419071435
0.45229702833086,-0.680857609261119
0.448967820846594,-0.679664044581183
0.445641906815282,-0.678444827229682
0.442319394058253,-0.677200059404668
0.43900039039684,-0.675929843304196
0.43568500365237,-0.67463428112632
0.432373341646176,-0.673313475069092
0.429065512199586,-0.671967527330566
0.425761623133931,-0.670596540108797
0.422461782270541,-0.669200615601837
0.419166097430746,-0.66777985600774
0.415874676435877,-0.666334363524561
0.412587627107263,-0.664864240350351
0.409305057266235,-0.663369588683166
0.406027074734123,-0.661850510721059
0.402753787332256,-0.660307108662083
0.399485302881966,-0.658739484704291
0.396221729204582,-0.657147741045739
0.392963174121434,-0.655531979884478
0.389709745453853,-0.653892303418564
0.386461551023168,-0.652228813846048
0.383218698650711,-0.650541613364986
0.37998129615781,-0.64883080417343
0.376749451365796,-0.647096488469435
0.373523272096,-0.645338768451053
0.370302866169751,-0.64355774631634
0.367088341408379,-0.641753524263346
0.363879805633215,-0.639926204490128
0.360677366665589,-0.638075889194738
0.357481132326831,-0.63620268057523
0.35429121043827,-0.634306680829658
0.351107708821238,-0.632387992156074
0.347930735297065,-0.630446716752534
0.34476039768708,-0.62848295681709
0.341596803812614,-0.626496814547796
0.338440061494996,-0.624488392142705
0.335290278555558,-0.622457791799872
0.332147562815628,-0.62040511571735
0.329012022096538,-0.618330466093192
0.325883764219617,-0.616233945125452
0.322762897006196,-0.614115655012184
0.319649528277604,-0.611975697951442
0.316543765855172,-0.609814176141278
0.31344571756023,-0.607631191779747
0.310355491214109,-0.605426847064902
0.307273194638137,-0.603201244194796
0.304198935653646,-0.600954485367484
0.301132822081965,-0.598686672781019
0.298074961744425,-0.596397908633455
0.295025462462356,-0.594088295122845
0.291984432057088,-0.591757934447243
0.288951978349951,-0.589406928804702
0.285928209162275,-0.587035380393277
0.282913232315391,-0.58464339141102
0.279907155630628,-0.582231064055986
0.276910086929317,-0.579798500526227
0.273922134032788,-0.577345803019798
0.27094340476237,-0.574873073734752
0.267974006939395,-0.572380414869143
0.265014048385192,-0.569867928621024
0.262063636921091,-0.56733571718845
0.259122880368423,-0.564783882769473
0.256191886548518,-0.562212527562147
0.253270763282705,-0.559621753764526
0.250359618392316,-0.557011663574663
0.247458559698679,-0.554382359190613
0.244567695023126,-0.551733942810428
0.241687132186986,-0.549066516632163
0.23881697901159,-0.546380182853871
0.235957343318267,-0.543675043673605
0.233108332928348,-0.540951201289419
0.230270055663164,-0.538208757899367
0.227442619344043,-0.535447815701503
0.224626131792317,-0.532668476893879
0.221820700829315,-0.529870843674551
0.219026434276367,-0.52705501824157
0.216243439954805,-0.524221102792991
0.213471825685957,-0.521369199526868
0.210711699291154,-0.518499410641254
0.207963168591726,-0.515611838334202
0.205226341409004,-0.512706584803767
0.202501325564317,-0.509783752248002
0.199788228878995,-0.50684344286496
0.197087159174369,-0.503885758852695
0.194398224271769,-0.500910802409262
0.191721531992525,-0.497918675732713
0.189057190157967,-0.494909481021101
0.186405306589426,-0.491883320472482
0.183765989108231,-0.488840296284907
0.181139345535712,-0.485780510656432
0.1785254836932,-0.482704065785109
0.175924511402025,-0.479611063868991
0.173336536483517,-0.476501607106134
0.170761666759006,-0.47337579769459
0.168200010049823,-0.470233737832413
0.165651674177296,-0.467075529717656
0.163116766962758,-0.463901275548374
0.160595396227537,-0.46071107752262
0.158087669792964,-0.457505037838447
0.155593695480369,-0.454283258693908
0.153113581111082,-0.451045842287059
0.150647434506433,-0.447792890815952
0.148195363487753,-0.44452450647864
0.145757475876371,-0.441240791473178
0.143333879493618,-0.43794184799762
0.140924682160824,-0.434627778250017
0.138529991699319,-0.431298684428426
0.136149915930433,-0.427954668730898
0.133784562675497,-0.424595833355487
0.13143403975584,-0.421222280500248
0.129098454992792,-0.417834112363234
0.126777916207684,-0.414431431142498
0.124472531221846,-0.411014339036094
0.122182407856608,-0.407582938242076
0.1199076539333,-0.404137330958497
0.117648377273253,-0.40067761938341
0.115404685697796,-0.397203905714871
0.113176687028259,-0.393716292150931
0.110964489085974,-0.390214880889645
0.108768199692269,-0.386699774129066
0.106587926668475,-0.383171074067249
0.104423777835922,-0.379628882902245
0.102275861015941,-0.37607330283211
0.100144284029861,-0.372504436054897
0.0980291546990123,-0.368922384768659
0.0959305808447255,-0.36532725117145
0.0938486702883308,-0.361719137461324
0.091783530851158,-0.358098145836334
0.0897352703545375,-0.354464378494534
0.0877039966197991,-0.350817937633978
0.0856898174682734,-0.347158925452718
0.08369284072129,-0.343487444148809
0.0817131742001796,-0.339803595920305
0.0797509257262719,-0.336107482965258
0.0778062031208974,-0.332399207481723
0.0758791142053859,-0.328678871667754
0.0739697668010678,-0.324946577721403
0.0720782687292732,-0.321202427840724
0.0702047278113322,-0.317446524223771
0.0683492518685748,-0.313678969068598
0.0665119487223314,-0.309899864573258
0.064692926193932,-0.306109312935805
0.0628922921047068,-0.302307416354293
0.0611101542759859,-0.298494277026775
0.0593466205290995,-0.294669997151304
0.0576017986853776,-0.290834678925935
0.0558757965661506,-0.28698842454872
0.0541687219927484,-0.283131336217714
0.0524806827865013,-0.279263516130971
0.0508117867687392,-0.275385066486543
0.0491621417607926,-0.271496089482484
0.0475318555839914,-0.267596687316849
0.0459210360596659,-0.26368696218769
0.0443297910091461,-0.259767016293061
0.0427582282537622,-0.255836951831016
0.0412064556148443,-0.251896870999609
0.0396745809137226,-0.247946875996893
0.0381627119717272,-0.243987069020921
0.0366709566101884,-0.240017552269748
0.0351994226504361,-0.236038427941427
0.0337482179138006,-0.232049798234011
0.032317450221612,-0.228051765345555
0.0309072273952004,-0.224044431474111
0.029517657255896,-0.220027898817733
0.0281488476250291,-0.216002269574476
0.0268009063239295,-0.211967645942392
0.0254739411739276,-0.207924130119536
0.0241680599963534,-0.20387182430396
0.0228833706125371,-0.199810830693719
0.0216199808438089,-0.195741251486866
0.0203779985114989,-0.191663188881455
0.0191575314369372,-0.187576745075538
0.0179586874414541,-0.183482022267171
0.0167815743463795,-0.179379122654407
0.0156262999730437,-0.175268148435298
0.0144929721427768,-0.1711492018079
0.013381698676909,-0.167022384970264
0.0122925873967704,-0.162887800120446
0.0112257461236911,-0.158745549456499
0.0101812826790013,-0.154595735176475
0.00915930488403121,-0.15043845947843
0.00815992056011081,-0.146273824560416
0.00718323752857039,-0.142101932620487
0.00622936361073996,-0.137922885856696
0.00529840662794981,-0.133736786467098
0.00439047440152994,-0.129543736649746
0.00350567475281063,-0.125343838602694
0.00264411550312191,-0.121137194523995
0.00180590447379401,-0.116923906611702
0.000991149486156986,-0.11270407706387
0.000199958361541065,-0.108477808078552
-0.000567561078723647,-0.104245201853801
-0.001311301013307,-0.100006360587672
-0.00203115362087888,-0.0957613864782177
-0.00272701108010908,-0.0915103817234919
-0.00339876556966752,-0.087253448521548
-0.00404630926822402,-0.0829906890704399
-0.00466953435444846,-0.078722205568221
-0.00526833300701066,-0.0744481002129452
-0.00584259740458053,-0.0701684752026658
-0.00639221972582786,-0.0658834327354367
-0.00691709214942257,-0.0615930750093112
-0.00741710685403446,-0.0572975042223433
-0.00789215601833345,-0.0529968225725862
-0.00834213182098933,-0.0486911322580939
-0.00876692644067201,-0.0443805354769197
-0.0091664320560513,-0.0400651344271175
-0.00954054084579711,-0.0357450313067406
-0.00988914498857925,-0.031420328313843
-0.0102121366630676,-0.0270911276464778
-0.010509408047932,-0.0227575315026992
-0.0107808513218423,-0.0184196420805603
-0.0110263586634684,-0.0140775615781152
-0.0112458222514801,-0.00973139219341705
-0.0114391342645473,-0.00538123612451984
-0.0116061868813399,-0.00102719556947686
-0.0117468722805276,0.00333062727365792
-0.0118610826407804,0.00769213020683132
-0.0119487101407681,0.0120572110319892
-0.0120096469591606,0.0164257675510785
-0.0120437852746277,0.0207976975660451
-0.0120510172658393,0.0251728988788358
-0.0120312351114652,0.0295512692913966
-0.0119843309901753,0.0339327066056744
-0.0119101970806395,0.0383171086236149
-0.0118087255615275,0.0427043731471652
-0.0116798086115093,0.047094397978271
-0.0115233384092548,0.0514870809188793
-0.0113392071334337,0.055882319770936
-0.011127306962716,0.0602800123363878
-0.0108875300757714,0.0646800564171809
-0.0106197686512699,0.0690823498152619
-0.0103239148678813,0.0734867903325769
-0.00999986090427537,0.0778932757710726
-0.00964749893912214,0.0823017039326951
-0.00926672115109134,0.086711972619391
-0.00885741971885289,0.0911239796331064
-0.00841948682107661,0.0955376227757881
-0.00795281463643238,0.099952799849382
-0.00745729534359003,0.104369408655835
-0.00693282112121944,0.108787346997093
-0.00637928414799045,0.113206512675103
-0.00579657660257294,0.11762680349181
-0.00518459066363673,0.122048117249162
-0.00454321850985171,0.126470351749105
-0.00387235231988771,0.130893404793585
-0.00317188427241463,0.135317174184549
-0.00244170654610226,0.139741557723942
-0.00168171131962051,0.144166453213712
-0.000891790771639199,0.148591758455804
-7.18370808282399e-05,0.153017371252166
0.000778257574142594,0.157443189404743
0.00165860101460334,0.161869110715481
0.00256930106188427,0.166295032986329
0.0035104655373154,0.17072085401923
0.00448220226222698,0.175146471616133
0.00548461905794907,0.179571783578983
0.00651782374581189,0.183996687709726
0.00758192414714549,0.18842108181031
0.00867702808328013,0.192844863682681
0.00980324337554583,0.197267931128784
0.0109606778452728,0.201690181950567
0.0121494393137912,0.206111513949975
0.0133696356024312,0.210531824928955
0.0146213745325228,0.214951012689454
0.0159047639253963,0.219368975033418
0.0172199116023818,0.223785609762793
0.0185669253848094,0.228200814679525
0.0199459130940092,0.232614487585562
0.0213569825513116,0.237026526282849
0.0228002415780464,0.241436828573332
0.0242757979955439,0.245845292258959
0.0257837596251343,0.250251815141676
0.0273242342881477,0.254656295023428
0.0288973298059142,0.259058629706162
0.030503153999764,0.263458716991826
0.0321418146910271,0.267856454682364
0.0338134197010339,0.272251740579724
0.0355180768511144,0.276644472485851
0.0372558939625987,0.281034548202693
0.039026978856817,0.285421865532196
0.0408314393550995,0.289806322276305
0.0426693832787762,0.294187816236968
0.0445409184491774,0.298566245216131
0.046446152687633,0.302941507015739
0.0483851938154735,0.307313499437741
0.0503581496540287,0.311682120284081
0.0523651280246291,0.316047267356706
0.0544062367486045,0.320408838457563
0.0564815836472852,0.324766731388599
0.0585912765420013,0.329120843951758
0.0607354232540831,0.333471073948989
0.0629141316048605,0.337817319182237
0.0651275094156638,0.342159477453448
0.067375664507823,0.346497446564569
0.0696587047026685,0.350831124317547
0.0719767378215302,0.355160408514328
0.0743298716857385,0.359485196956857
0.0767182141166231,0.363805387447083
0.0791418729355147,0.36812087778695
0.0791418729355147,0.36812087778695
0.0815776900068741,0.372417222744415
0.0840024727416027,0.376680107909381
0.0864162772806902,0.380909627316715
0.0888191597651269,0.385105875001284
0.0912111763359025,0.389268944997956
0.0935923831340069,0.393398931341597
0.0959628363004303,0.397495928067074
0.0983225919761625,0.401560029209255
0.100671706302193,0.405591328803007
0.103010235419513,0.409589920883197
0.105338235469111,0.413555899484692
0.107655762591978,0.417489358642358
0.109962872929104,0.421390392391065
0.112259622621478,0.425259094765677
0.11454606781009,0.429095559801063
0.116822264635932,0.432899881532089
0.119088269239991,0.436672153993623
0.121344137763259,0.440412471220532
0.123589926346725,0.444120927247682
0.125825691131379,0.447797616109942
0.128051488258211,0.451442631842178
0.130267373868212,0.455056068479257
0.132473404102371,0.458638020056046
0.134669635101677,0.462188580607413
0.136856123007122,0.465707844168224
0.139032923959695,0.469195904773347
0.141200094100386,0.472652856457649
0.143357689570184,0.476078793255996
0.145505766510081,0.479473809203257
0.147644381061065,0.482837998334298
0.149773589364126,0.486171454683985
0.151893447560256,0.489474272287188
0.154004011790443,0.492746545178772
0.156105338195678,0.495988367393604
0.15819748291695,0.499199832966552
0.16028050209525,0.502381035932483
0.162354451871567,0.505532070326264
0.164419388386892,0.508653030182761
0.166475367782213,0.511744009536843
0.168522446198523,0.514805102423376
0.170560679776809,0.517836402877228
0.172590124658063,0.520838004933265
0.174610836983274,0.523810002626354
0.176622872893431,0.526752489991363
0.178626288529526,0.529665561063159
0.180621140032548,0.532549309876609
0.182607483543487,0.53540383046658
0.184585375203333,0.538229216867939
0.186554871153076,0.541025563115553
0.188516027533705,0.54379296324429
0.190468900486212,0.546531511289016
0.192413546151585,0.549241301284599
0.194350020670815,0.551922427265905
0.196278380184891,0.554574983267803
0.198198680834804,0.557199063325158
0.200110978761543,0.559794761472838
0.202015330106099,0.562362171745711
0.203911791009462,0.564901388178642
0.20580041761262,0.5674125048065
0.207681266056565,0.569895615664152
0.209554392482287,0.572350814786464
0.211419853030774,0.574778196208304
0.213277703843018,0.577177853964538
0.215128001060008,0.579549882090035
0.216970800822735,0.581894374619661
0.218806159272187,0.584211425588282
0.220634132549355,0.586501129030767
0.222454776795229,0.588763578981983
0.224268148150799,0.590998869476796
0.226074302757055,0.593207094550073
0.227873296754987,0.595388348236683
0.229665186285584,0.597542724571491
0.231450027489838,0.599670317589365
0.233227876508737,0.601771221325172
0.234998789483271,0.603845529813779
0.236762822554431,0.605893337090054
0.238520031863207,0.607914737188863
0.240270473550588,0.609909824145074
0.242014203757565,0.611878691993553
0.243751278625127,0.613821434769168
0.245481754294264,0.615738146506785
0.247205686905967,0.617628921241273
0.248923132601225,0.619493853007498
0.250634147521028,0.621333035840327
0.252338787806366,0.623146563774627
0.254037109598229,0.624934530845266
0.255729169037608,0.62669703108711
0.257415022265491,0.628434158535027
0.25909472542287,0.630146007223883
0.260768334650733,0.631832671188547
0.262435906090071,0.633494244463884
0.264097495881874,0.635130821084763
0.265753160167132,0.636742495086049
0.267402955086834,0.638329360502611
0.269046936781971,0.639891511369316
0.270685161393533,0.64142904172103
0.27231768506251,0.642942045592621
0.273944563929891,0.644430617018955
0.275565854136666,0.6458948500349
0.277181611823826,0.647334838675323
0.27879189313236,0.648750676975092
0.280396754203259,0.650142458969072
0.281996251177512,0.651510278692132
0.283590440196109,0.652854230179138
0.28517937740004,0.654174407464958
0.286763118930296,0.655470904584459
0.288341720927865,0.656743815572507
0.289915239533739,0.65799323446397
0.291483730888907,0.659219255293715
0.293047251134358,0.660421972096609
0.294605856411084,0.66160147890752
0.296159602860073,0.662757869761314
0.297708546622317,0.663891238692858
0.299252743838804,0.66500167973702
0.300792250650524,0.666089286928666
0.302327123198469,0.667154154302665
0.303857417623627,0.668196375893882
0.305383190066989,0.669216045737185
0.306904496669544,0.670213257867441
0.308421393572283,0.671188106319518
0.309933936916195,0.672140685128282
0.31144218284227,0.6730710883286
0.312946187491499,0.67397940995534
0.314446007004871,0.674865744043368
0.315941697523377,0.675730184627553
0.317433315188005,0.67657282574276
0.318920916139747,0.677393761423857
0.320404556519592,0.678193085705712
0.32188429246853,0.678970892623191
0.323360180127551,0.679727276211161
0.324832275637645,0.680462330504489
0.326300635139802,0.681176149538043
0.327765314775011,0.68186882734669
0.329226370684264,0.682540457965296
0.330683859008549,0.68319113542873
0.332137835888857,0.683820953771858
0.333588357466178,0.684430007029546
0.335035479881502,0.685018389236663
0.336479259275817,0.685586194428075
0.337919751790116,0.68613351663865
0.339357013565387,0.686660449903255
0.34079110074262,0.687167088256756
0.342222069462806,0.68765352573402
0.343649975866934,0.688119856369916
0.345074876095995,0.68856617419931
0.346496826290978,0.688992573257069
0.347915882592873,0.689399147578061
0.34933210114267,0.689785991197151
0.350745538081359,0.690153198149209
0.35215624954993,0.690500862469099
0.353564291689373,0.690829078191691
0.354969720640679,0.69113793935185
0.356372592544836,0.691427539984445
0.357772963542835,0.691697974124341
0.359170889775666,0.691949335806406
0.360566427384318,0.692181719065508
0.361959632509783,0.692395217936513
0.363350561293049,0.692589926454289
0.364739269875107,0.692765938653702
0.366125814396946,0.69292334856962
0.367510250999557,0.69306225023691
0.368892635823929,0.693182737690439
0.370273025011053,0.693284904965073
0.371651474701918,0.693368846095682
0.373028041037514,0.69343465511713
0.374402780158832,0.693482426064286
0.375775748206861,0.693512252972016
0.377147001322591,0.693524229875188
0.378516595647013,0.693518450808669
0.379884587321115,0.693495009807325
0.381251032485889,0.693454000906024
0.382615987282324,0.693395518139634
0.383979507851409,0.693319655543021
0.385341650334136,0.693226507151051
0.386702470871493,0.693116166998594
0.388062025604471,0.692988729120515
0.38942037067406,0.692844287551682
0.39077756222125,0.692682936326961
0.39213365638703,0.69250476948122
0.393488709312391,0.692309881049326
0.394842777138323,0.692098365066147
0.396195916005815,0.691870315566548
0.397548182055858,0.691625826585398
0.398899631429441,0.691364992157563
0.400250320267554,0.691087906317911
0.401600304711188,0.690794663101308
0.402949640901332,0.690485356542622
0.404298384978977,0.69016008067672
0.405646593085111,0.68981892953847
0.406994321360726,0.689461997162737
0.408341625946811,0.689089377584389
0.409688562984356,0.688701164838293
0.411035188614351,0.688297452959318
0.412381558977786,0.687878335982328
0.413727730215651,0.687443907942193
0.415073758468935,0.686994262873778
0.41641969987863,0.686529494811951
0.417765610585724,0.686049697791579
0.419111546731208,0.685554965847529
0.420457564456072,0.685045393014668
0.421803719901306,0.684521073327864
0.423150069207899,0.683982100821983
0.424496668516841,0.683428569531892
0.425843573969123,0.68286057349246
0.427190841705735,0.682278206738552
0.428538527867665,0.681681563305036
0.429886688595906,0.681070737226779
0.431235380031445,0.680445822538648
0.432584658315274,0.679806913275511
0.433934579588382,0.679154103472233
0.435285199991759,0.678487487163683
0.436636575666395,0.677807158384728
0.437988762753281,0.677113211170235
0.439341817393405,0.67640573955507
0.440695795727758,0.675684837574101
0.44205075389733,0.674950599262195
0.443406748043112,0.67420311865422
0.444763834306091,0.673442489785041
0.44612206882726,0.672668806689527
0.447481507747608,0.671882163402545
0.448842207208124,0.671082653958961
0.450204223349799,0.670270372393643
0.451567612313622,0.669445412741457
0.452932430240584,0.668607869037271
0.454298733271674,0.667757835315953
0.455666577547883,0.666895405612369
0.4570360192102,0.666020673961385
0.458407114399616,0.665133734397871
0.45977991925712,0.664234680956691
0.461154489923702,0.663323607672715
0.462530882540352,0.662400608580808
0.463909153248061,0.661465777715837
0.465289358187817,0.660519209112671
0.466671553500612,0.659560996806176
0.468055795327435,0.658591234831219
0.469442139809276,0.657610017222668
0.470830643087124,0.656617438015388
0.472221361301971,0.655613591244248
0.473614350594805,0.654598570944115
0.475009667106617,0.653572471149856
0.476407366978397,0.652535385896337
0.477807506351135,0.651487409218426
0.47921014136582,0.65042863515099
0.480615328163443,0.649359157728897
0.482023122884993,0.648279070987013
0.483433581671461,0.647188468960205
0.484846760663836,0.64608744568334
0.486262716003109,0.644976095191287
0.487681503830269,0.643854511518911
0.489103180286306,0.64272278870108
0.490527801512211,0.64158102077266
0.491955423648972,0.64042930176852
0.493386102837581,0.639267725723526
0.494819895219027,0.638096386672546
0.4962568569343,0.636915378650446
0.497697044124391,0.635724795692093
0.499140512930288,0.634524731832355
0.500587319492982,0.633315281106098
0.502037519953463,0.632096537548191
0.503491170452721,0.630868595193499
0.504948327131745,0.629631548076891
0.506409046131526,0.628385490233233
0.507873383593054,0.627130515697392
0.509341395657319,0.625866718504235
0.51081313846531,0.62459419268863
0.512288668158018,0.623313032285444
0.513768040876432,0.622023331329543
0.515251312761543,0.620725183855796
0.51673853995434,0.619418683899068
0.518229778595813,0.618103925494227
0.519725084826953,0.616781002676141
0.521224514788749,0.615450009479676
0.522728124622192,0.614111039939699
0.52423597046827,0.612764188091078
0.525748108467974,0.611409547968679
0.527264594762295,0.610047213607371
0.528785485492221,0.608677279042019
0.530310836798744,0.607299838307491
0.531840704822853,0.605914985438654
0.533375145705537,0.604522814470376
0.534914215587787,0.603123419437522
0.536457970610593,0.601716894374962
0.538006466914945,0.600303333317561
0.539559760641832,0.598882830300186
0.541117907932245,0.597455479357705
0.542680964927174,0.596021374524985
0.544248987767608,0.594580609836894
0.545822032594538,0.593133279328297
0.547400155548953,0.591679477034062
0.548983412771844,0.590219296989057
0.550571860404199,0.588752833228148
0.552165554587011,0.587280179786203
0.553764551461267,0.585801430698089
0.555368907167959,0.584316679998672
0.556978677848076,0.58282602172282
0.558593919642608,0.581329549905401
0.560214688692545,0.57982735858128
0.561841041138877,0.578319541785325
0.563473033122594,0.576806193552404
0.565110720784686,0.575287407917384
0.566754160266143,0.573763278915131
0.568403407707954,0.572233900580512
0.570058519251111,0.570699366948396
0.571719551036602,0.569159772053648
0.573386559205418,0.567615209931137
0.575059599898548,0.566065774615728
0.576738729256984,0.56451156014229
0.578424003421713,0.562952660545689
0.580115478533727,0.561389169860793
0.581813210734016,0.559821182122468
0.583517256163569,0.558248791365582
0.585227670963376,0.556672091625002
0.586944511274428,0.555091176935594
0.588667833237714,0.553506141332227
0.590397692994224,0.551917078849767
0.592134146684948,0.550324083523081
0.593877250450877,0.548727249387037
0.595627060433,0.547126670476501
0.597383632772306,0.54552244082634
0.599147023609787,0.543914654471423
0.600917289086431,0.542303405446615
0.602694485343229,0.540688787786784
0.604478668521171,0.539070895526797
0.606269894761247,0.537449822701521
0.608068220204447,0.535825663345824
0.609873700991761,0.534198511494572
0.611686393264178,0.532568461182632
0.613506353162688,0.530935606444872
0.615333636828282,0.529300041316159
0.61716830040195,0.527661859831359
0.619010400024681,0.526021156025341
0.620859991837466,0.524378023932971
0.622717131981294,0.522732557589115
0.624581876597155,0.521084851028643
0.626454281826039,0.519434998286419
0.628334403808937,0.517783093397312
0.630222298686838,0.516129230396189
0.632118022600732,0.514473503317916
0.634021631691609,0.512816006197361
0.635933182100459,0.511156833069391
0.637852729968272,0.509496077968874
0.639780331436038,0.507833834930675
0.641716042644747,0.506170197989663
0.643659919735388,0.504505261180704
0.645612018848953,0.502839118538665
0.64757239612643,0.501171864098415
0.64954110770881,0.499503591894819
0.651518209737083,0.497834395962745
0.653503758352238,0.49616437033706
0.655497809695265,0.494493609052631
0.657500419907156,0.492822206144325
0.659511645128898,0.491150255647009
0.661531541501483,0.489477851595551
0.663560165165901,0.487805088024817
0.665597572263141,0.486132058969675
0.667643818934193,0.484458858464992
0.669698961320047,0.482785580545635
0.671763055561693,0.481112319246471
0.673836157800122,0.479439168602366
0.675918324176322,0.477766222648189
0.678009610831285,0.476093575418807
0.680110073905999,0.474421320949085
0.682219769541456,0.472749553273893
0.684338753878644,0.471078366428096
0.686467083058555,0.469407854446561
0.688604813222176,0.467738111364157
0.6907520005105,0.466069231215749
0.692908701064516,0.464401308036206
0.695074971025213,0.462734435860394
0.697250866533581,0.46106870872318
0.699436443730612,0.459404220659432
0.701631758757293,0.457741065704016
0.703836867754617,0.4560793378918
0.706051826863571,0.454419131257651
0.708276692225147,0.452760539836435
0.710511519980334,0.451103657663021
0.712756366270123,0.449448578772275
0.715011287235503,0.447795397199064
0.717276339017464,0.446144206978255
0.719551577756996,0.444495102144716
0.721837059595089,0.442848176733313
0.724132840672733,0.441203524778914
0.726438977130918,0.439561240316386
0.728755525110634,0.437921417380596
0.731082540752871,0.43628415000641
0.733420080198619,0.434649532228697
0.735768199588868,0.433017658082323
0.738126955064607,0.431388621602156
0.740496402766827,0.429762516823062
0.742876598836518,0.428139437779908
0.745267599414669,0.426519478507562
0.747669460642271,0.424902733040891
0.750082238660313,0.423289295414762
0.752505989609786,0.421679259664042
0.754940769631679,0.420072719823598
0.757386634866982,0.418469769928298
0.759843641456686,0.416870504013007
0.76231184554178,0.415275016112594
0.764791303263255,0.413683400261926
0.764791303263255,0.413683400261926
0.767264272376704,0.412084136835439
0.769712924242527,0.410465800153506
0.772137185408919,0.4088286251699
0.774536982424077,0.407172846838394
0.776912241836196,0.405498700112759
0.779262890193473,0.403806419946768
0.781588854044101,0.402096241294194
0.783890059936279,0.400368399108809
0.786166434418201,0.398623128344385
0.788417904038063,0.396860663954695
0.790644395344061,0.395081240893512
0.792845834884391,0.393285094114608
0.795022149207249,0.391472458571755
0.797173264860831,0.389643569218726
0.799299108393331,0.387798661009292
0.801399606352948,0.385937968897228
0.803474685287875,0.384061727836305
0.805524271746309,0.382170172780295
0.807548292276446,0.380263538682971
0.809546673426481,0.378342060498106
0.811519341744611,0.376405973179472
0.813466223779031,0.374455511680841
0.815387246077937,0.372490910955986
0.817282335189525,0.370512405958679
0.81915141766199,0.368520231642693
0.820994420043529,0.3665146229618
0.822811268882337,0.364495814869772
0.824601890726611,0.362464042320383
0.826366212124546,0.360419540267404
0.828104159624337,0.358362543664608
0.82981565977418,0.356293287465767
0.831500639122273,0.354212006624655
0.83315902421681,0.352118936095042
0.834790741605986,0.350014310830703
0.836395717837999,0.347898365785408
0.837973879461043,0.345771335912931
0.839525153023315,0.343633456167045
0.84104946507301,0.341484961501521
0.842546742158325,0.339326086870131
0.844016910827454,0.33715706722665
0.845459897628595,0.334978137524848
0.846875629109942,0.332789532718498
0.848264031819692,0.330591487761373
0.84962503230604,0.328384237607246
0.850958557117182,0.326168017209888
0.852264532801314,0.323943061523072
0.853542885906632,0.321709605500571
0.854793542981332,0.319467884096157
0.85601643057361,0.317218132263602
0.85721147523166,0.31496058495668
0.85837860350368,0.312695477129161
0.859517741937865,0.31042304373482
0.86062881708241,0.308143519727428
0.861711755485512,0.305857140060757
0.862766483695367,0.303564139688581
0.86379292826017,0.301264753564671
0.864791015728117,0.298959216642801
0.865760672647403,0.296647763876741
0.866701825566226,0.294330630220266
0.86761440103278,0.292008050627148
0.868498325595262,0.289680260051158
0.869353525801866,0.287347493446069
0.87017992820079,0.285009985765654
0.870977459340229,0.282667971963686
0.871746045768378,0.280321686993936
0.872485614033434,0.277971365810177
0.873196090683592,0.275617243366182
0.873877402267049,0.273259554615723
0.874529475331999,0.270898534512572
0.875152236426639,0.268534418010502
0.875745612099165,0.266167440063286
0.876309528897773,0.263797835624695
0.876843913370657,0.261425839648503
0.877348692066015,0.259051687088481
0.877823791532042,0.256675612898402
0.878269138316933,0.254297852032039
0.878684658968886,0.251918639443165
0.879070280036094,0.24953821008555
0.879425928066755,0.247156798912968
0.879751529609064,0.244774640879192
0.880047011211217,0.242391970937994
0.880312299421409,0.240009024043146
0.880547320787837,0.237626035148421
0.880752001858697,0.235243239207591
0.880926269182184,0.232860871174429
0.881070049306494,0.230479166002706
0.881183268779822,0.228098358646197
0.881265854150366,0.225718684058672
0.88131773196632,0.223340377193905
0.88133882877588,0.220963673005667
0.881329071127242,0.218588806447732
0.881288385568602,0.216216012473872
0.881216698648157,0.213845526037859
0.881113936914101,0.211477582093465
0.88098002691463,0.209112415594464
0.88081489519794,0.206750261494627
0.880618468312228,0.204391354747728
0.880390672805689,0.202035930307538
0.880131435226518,0.199684223127829
0.879840682122912,0.197336468162376
0.879518340043067,0.194992900364949
0.879164335535177,0.192653754689321
0.87877859514744,0.190319266089265
0.878361045428051,0.187989669518553
0.877911612925205,0.185665199930958
0.877430224187099,0.183346092280252
0.876916805761928,0.181032581520207
0.876371284197889,0.178724902604596
0.875793586043177,0.176423290487192
0.875183637845987,0.174127980121767
0.874541366154516,0.171839206462092
0.87386669751696,0.169557204461942
0.873159558481514,0.167282209075088
0.872419875596374,0.165014455255303
0.871647575409736,0.162754177956358
0.870842584469796,0.160501612132027
0.87000482932475,0.158256992736083
0.869134236522793,0.156020554722296
0.868230732612121,0.153792533044441
0.86729424414093,0.151573162656289
0.866324697657417,0.149362678511613
0.865322019709776,0.147161315564185
0.864286136846204,0.144969308767777
0.863216975614896,0.142786893076163
0.862114462564049,0.140614303443115
0.860978524241857,0.138451774822404
0.859809087196517,0.136299542167804
0.858606077976225,0.134157840433087
0.857369423129177,0.132026904572026
0.856099049203568,0.129906969538392
0.854794882747594,0.127798270285958
0.853456850309451,0.125701041768497
0.852084878437335,0.123615518939782
0.850678893679442,0.121541936753584
0.849238822583967,0.119480530163676
0.847764591699107,0.117431534123831
0.846256127573057,0.115395183587821
0.844713356754012,0.113371713509418
0.84313620579017,0.111361358842395
0.841524601229725,0.109364354540524
0.839878469620874,0.107380935557578
0.838197737511811,0.10541133684733
0.836482331450734,0.103455793363551
0.834732177985838,0.101514540060014
0.832947203665319,0.0995878118904916
0.831127335037372,0.0976758438087563
0.829272498650194,0.0957788707685806
0.82738262105198,0.0938971277237368
0.825457628790926,0.0920308496279974
0.823497448415227,0.0901802714351347
0.821502006473081,0.0883456280989214
0.819471229512682,0.0865271545731298
0.817405044082227,0.0847250858115324
0.81530337672991,0.0829396567679015
0.813166154003929,0.0811711023960097
0.810993302452478,0.0794196576496296
0.808784748623754,0.0776855574825334
0.806540419065953,0.0759690368484935
0.80426024032727,0.0742703307012824
0.801944138955901,0.0725896739946728
0.799592041500042,0.0709273016824369
0.797203874507889,0.0692834487183472
0.794779564527637,0.0676583500561761
0.792319038107484,0.0660522406496963
0.789822221795623,0.0644653554526799
0.787289042140251,0.0628979294188996
0.784719425689564,0.0613501975021276
0.782113298991758,0.0598223946561366
0.779470588595029,0.058314755834699
0.776791221047572,0.0568275159915872
0.774075122897583,0.0553609100805736
0.771322220693258,0.0539151730554307
0.768532440982793,0.052490539869931
0.765705710314384,0.0510872454778469
0.762841955236226,0.0497055248329508
0.759941102296516,0.0483456128890152
0.757003078043449,0.0470077445998126
0.754027809025221,0.0456921549191153
0.751015221790028,0.0443990788006959
0.747965242886065,0.0431287511983268
0.744877798861529,0.0418814070657805
0.741752816264615,0.0406572813568293
0.738590221643519,0.0394566090252458
0.735389941546438,0.0382796250248024
0.732151902521566,0.0371265643092715
0.7288760311171,0.0359976618324256
0.725562253881234,0.0348931525480371
0.722210497362167,0.0338132714098785
0.718820688108093,0.0327582533717223
0.715392752667207,0.0317283333873408
0.711926617587706,0.0307237464105065
0.708422209417786,0.029744727394992
0.704879454705642,0.0287915112945696
0.70129827999947,0.0278643330630117
0.697678611847466,0.0269634276540909
0.694020376797827,0.0260890300215796
0.690323501398747,0.0252413751192502
0.686587912198422,0.0244206979008751
0.682813535745049,0.0236272333202269
0.679000298586823,0.022861216331078
0.67514812727194,0.0221228818872007
0.671256948348596,0.0214124649423677
0.667326688364986,0.0207302004503512
0.663357273869307,0.0200763233649239
0.659348631409754,0.019451068639858
0.655300687534523,0.0188546712289262
0.651213368791811,0.0182873660859007
0.647086601729812,0.0177493881645541
0.642920312896722,0.0172409724186588
0.638714428840739,0.0167623538019873
0.634468876110056,0.016313767268312
0.63018358125287,0.0158954477714054
0.625858470817378,0.0155076302650398
0.621493471351774,0.0151505497029879
0.617088509404254,0.0148244410390219
0.612643511523016,0.0145295392269143
0.608158404256253,0.0142660792204378
0.603633114152162,0.0140342959733645
0.599067567758939,0.013834424439467
0.59446169162478,0.0136666995725179
0.58981541229788,0.0135313563262894
0.585128656326436,0.013428629654554
0.580401350258643,0.0133587545110843
0.575633420642697,0.0133219658496526
0.570824794026793,0.0133184986240313
0.565975396959129,0.0133485877879931
0.561085155987898,0.0134124682953102
0.556153997661299,0.0135103750997552
0.551181848527524,0.0136425431551005
0.546168635134773,0.0138092074151185
0.541114284031239,0.0140106028335817
0.536018721765118,0.0142469643642626
0.530881874884607,0.0145185269609335
0.525703669937901,0.014825525577367
0.520484033473196,0.0151681951673354
0.515222892038689,0.0155467706846113
0.509920172182573,0.0159614870829671
0.504575800453047,0.0164125793161752
0.499189703398304,0.0169002823380081
0.493761807566543,0.0174248311022382
0.488292039505957,0.0179864605626381
0.482780325764743,0.01858540567298
0.477226592891096,0.0192219013870366
0.471630767433213,0.01989618265858
0.465992775939289,0.0206084844413831
0.460312544957521,0.021359041689218
0.454590001036103,0.0221480893558574
0.448825070723233,0.0229758623950735
0.443017680567105,0.023842595760639
0.437167757115915,0.0247485244063261
0.43127522691786,0.0256938832859074
0.425340016521135,0.0266789073531553
0.419362052473936,0.0277038315618423
0.413341261324458,0.0287688908657408
0.407277569620898,0.0298743202186233
0.401170903911452,0.0310203545742622
0.395021190744314,0.03220722888643
0.388828356667682,0.033435178108899
0.382592328229751,0.0347044371954419
0.376313031978717,0.0360152410998309
0.369990394462775,0.0373678247758387
0.363624342230121,0.0387624231772374
0.357214801828951,0.0401992712577998
0.350761699807462,0.0416786039712982
0.344264962713848,0.0432006562715051
0.337724517096307,0.0447656631121928
0.331140289503032,0.0463738594471339
0.324512206482221,0.0480254802301008
0.317840194582069,0.0497207604148659
0.311124180350772,0.0514599349552017
0.304364090336526,0.0532432388048808
0.297559851087526,0.0550709069176753
0.290711389151969,0.056943174247358
0.28381863107805,0.0588602757477012
0.276881503413966,0.0608224463724773
0.269899932707911,0.0628299210754588
0.262873845508082,0.0648829348104181
0.255803168362675,0.0669817225311276
0.248687827819884,0.06912651919136
0.241527750427908,0.0713175597448876
0.23432286273494,0.0735550791454828
0.227073091289177,0.075839312346918
0.219778362638815,0.0781704943029659
0.212438603332049,0.0805488599673987
0.205053739917076,0.082974644293989
0.197623698942091,0.0854480822365089
0.19014840695529,0.0879694087487315
0.182627790504869,0.0905388587844287
0.175061776139023,0.0931566672973732
0.167450290405949,0.0958230692413373
0.159793259853842,0.0985382995700936
0.152090611030899,0.101302593237414
0.144342270485314,0.104116185197072
0.136548164765284,0.10697931040284
0.128708220419005,0.109892203808489
0.120822363994672,0.112855100367793
0.112890522040481,0.115868235034523
0.104912621104629,0.118931842762453
0.0968885877353106,0.122046158505354
0.0888183484807219,0.125211417217
0.0807018298890586,0.128427853851162
0.0725389585085169,0.131695703361614
0.0643296608872922,0.135015200702126
0.0560738635735809,0.138386580826473
0.047771493115578,0.141810078688426
0.0394224760614802,0.145285929241758
0.0310267389594826,0.148814367440242
0.0225842083577819,0.152395628237649
0.0140948108045727,0.156029946587752
0.00555847284805203,0.159717557444324
-0.00302487896358522,0.163458695761138
-0.0116553180821424,0.167253596491964
-0.0203329179594246,0.171102494590577
-0.0290577520472348,0.175005625010748
-0.0378298937973786,0.17896322270625
-0.0466494166616588,0.182975522630855
-0.0555163940918809,0.187042759738337
-0.0644308995398478,0.191165168982466
-0.0733930064573647,0.195342985317016
-0.0824027882962349,0.19957644369576
-0.0914603185082634,0.203865779072469
-0.100565670545254,0.208211226400916
-0.109718917859011,0.212613020634873
-0.118920133901337,0.217071396728113
-0.128169392124039,0.221586589634409
-0.13746676597892,0.226158834307533
-0.146812328917783,0.230788365701257
-0.156206154392434,0.235475418769354
-0.165648315854676,0.240220228465595
-0.175138886756313,0.245023029743755
-0.18467794054915,0.249884057557605
-0.194265550684991,0.254803546860917
-0.20390179061564,0.259781732607464
-0.213586733792901,0.264818849751018
-0.223320453668579,0.269915133245353
-0.233103023694476,0.275070818044239
-0.242934517322399,0.280286139101451
-0.252815008004151,0.28556133137076
-0.262744569191535,0.290896629805938
-0.272723274336357,0.296292269360759
-0.28275119689042,0.301748484988994
-0.292828410305529,0.307265511644416
-0.302954988033488,0.312843584280798
-0.3131310035261,0.318482937851911
-0.323356530235171,0.324183807311529
-0.333631641612503,0.329946427613424
-0.343956411109903,0.335771033711368
-0.354330912179172,0.341657860559134
-0.364755218272117,0.347607143110494
-0.375229402840541,0.35361911631922
-0.385753539336248,0.359694015139086
-0.396327701211041,0.365832074523863
-0.406951961916727,0.372033529427324
-0.417626394905108,0.378298614803242
-0.428351073627989,0.384627565605388
-0.439126071537174,0.391020616787536
-0.449951462084468,0.397478003303457
-0.460827318721673,0.403999960106925
-0.471753714900595,0.410586722151711
-0.482730724073038,0.417238524391589
-0.493758419690806,0.42395560178033
-0.504836875205703,0.430738189271707
-0.515966164069533,0.437586521819492
-0.5271463597341,0.444500834377458
-0.53837753565121,0.451481361899378
-0.549659765272664,0.458528339339024
-0.560993122050269,0.465642001650167
-0.572377679435828,0.472822583786582
-0.583813510881145,0.480070320702039
-0.595300689838024,0.487385447350313
-0.606839289758271,0.494768198685174
-0.618429384093687,0.502218809660395
-0.630071046296079,0.509737515229751
-0.64176434981725,0.51732455034701
-0.653509368109005,0.524980149965948
-0.665306174623147,0.532704549040336
-0.677154842811481,0.540497982523948
-0.68905544612581,0.548360685370553
-0.70100805801794,0.556292892533927
-0.713012751939673,0.564294838967841
-0.725069601342815,0.572366759626068
-0.737178679679169,0.580508889462379
-0.749340060400541,0.588721463430548
-0.761553816958733,0.597004716484346
-0.773820022805551,0.605358883577548
-0.786138751392797,0.613784199663923
-0.798510076172277,0.622280899697246
-0.810934070595794,0.630849218631289
-0.823410808115154,0.639489391419824
-0.835940362182158,0.648201653016623
-0.848522806248614,0.65698623837546
-0.861158213766323,0.665843382450106
-0.873846658187092,0.674773320194334
-0.886588212962722,0.683776286561916
-0.89938295154502,0.692852516506625
-0.912230947385788,0.702002244982233
-0.925132273936832,0.711225706942513
-0.938087004649955,0.720523137341237
-0.951095212976961,0.729894771132178
