-0.304343685060219,0.143235794996492
-0.903964177788662,-0.877128280004305
0.494275475973858,-0.436082631390106
0.752204379508483,-0.814755679085056
1.01013328304311,-1.19342872678001
-0.634467517237456,-0.532931374945944
-0.233693762707329,0.103192632307729
0.167079991822799,0.739316639561403
-0.874972566171707,-0.421242804237985
0.0486279913412262,-0.431159827128241
