-0.214810029136241,-0.894155051783891
-0.0416765366432974,0.115732659098293
0.953990500987769,-0.602821911284357
0.861642011153442,0.0986564385885118
0.769293521319116,0.80013478846138
0.507615259287932,0.0535641831441498
0.398973213129526,-0.125139798188501
0.29033116697112,-0.303843779521151
0.401788975004859,-0.711309923590658
-0.179378705389555,-0.433371326253126
