0.0787069883726548,-0.701494137030209
-0.0845152385403973,0.0724185043481211
0.255163308168108,0.496442965173781
0.131291607345102,-0.0389029804286749
0.00741990652209568,-0.574248926031131
-0.77795000946782,-0.0927017763420213
0.417682521564519,-0.65492556389317
1.61331505259686,-1.21714935144432
-0.843554416391564,0.0345540832917095
-0.290599681101341,0.948056579463885
