-0.937948088789956,-0.564602440525799
0.710951681390527,0.0489972241901426
-0.285935159977672,-0.099344503451668
-0.172827265923363,0.0401194349622698
-0.0597193718690534,0.179583373376208
0.86289147073709,-0.597828656103769
-0.144251543017222,-0.479741841697031
-1.15139455677153,-0.361655027290292
-0.655507269826313,-0.242237363304661
0.730908776326862,0.236625972711869
