-0.125776766555492,0.213096617300162
-0.119842672368001,0.215656783907057
-0.113962381924884,0.218178012174131
-0.108135728504721,0.220660409869167
-0.102362545386096,0.22310408475995
-0.096642665847588,0.225509144614264
-0.0909759231677799,0.227875697199891
-0.0853621506252527,0.230203850284617
-0.0798011814985879,0.232493711636226
-0.0742928490663669,0.234745389022501
-0.0688369866071712,0.236958990211225
-0.0634334273995822,0.239134622970184
-0.0580820047221813,0.241272395067162
-0.0527825518535501,0.243372414269941
-0.0475349020722698,0.245434788346306
-0.0423388886569221,0.247459625064042
-0.0371943448860883,0.249447032190931
-0.0321011040383498,0.251397117494759
-0.0270589993922882,0.253309988743308
-0.0220678642264848,0.255185753704363
-0.0171275318195211,0.257024520145708
-0.0122378354499786,0.258826395835127
-0.00739860839643868,0.260591488540403
-0.00260968393748277,0.262319906029321
0.00212910464830764,0.264011756069665
0.00681792408235114,0.265667146429218
0.0114569410860663,0.267286184875765
0.0160463223808716,0.268868979177089
0.0205862346881857,0.270415637100975
0.0250768447294271,0.271926266415206
0.0295183192260143,0.273400974887567
0.033910824899366,0.274839870285841
0.0382545284709006,0.276243060377812
0.0425495966620367,0.277610652931264
0.046796196194193,0.278942755713982
0.0509944937887879,0.280239476493749
0.05514465616724,0.281500923038349
0.0592468500509678,0.282727203115565
0.0633012421613899,0.283918424493183
0.0673079992199249,0.285074694938986
0.0712672879479914,0.286196122220758
0.0751792750670078,0.287282814106283
0.0790441272983927,0.288334878363345
0.0828620113635647,0.289352422759727
0.0866330939839424,0.290335555063215
0.0903575418809443,0.291284383041591
0.0940355217759889,0.292199014462639
0.0976672003904949,0.293079557094145
0.101252744445881,0.293926118703891
0.104792320663565,0.294738807059661
0.108286095764966,0.29551772992924
0.111734236471503,0.296262995080411
0.115136909504594,0.296974710280959
0.118494281585657,0.297652983298668
0.121806519436112,0.29829792190132
0.125073789777377,0.298909633856701
0.128296259330869,0.299488226932594
0.131474094818009,0.300033808896784
0.134607462960214,0.300546487517053
0.137696530478903,0.301026370561187
0.140741464095495,0.301473565796969
0.143742430531408,0.301888180992182
0.14669959650806,0.302270323914612
0.149613128746871,0.302620102332042
0.152483193969258,0.302937624012255
0.155309958896641,0.303222996723037
0.158093590250438,0.30347632823217
0.160834254752067,0.303697726307439
0.163532119122947,0.303887298716628
0.166187350084496,0.304045153227521
0.168800114358134,0.304171397607901
0.171370578665278,0.304266139625552
0.173898909727348,0.30432948704826
0.176385274265761,0.304361547643807
0.178829839001937,0.304362429179977
0.181232770657294,0.304332239424555
0.18359423595325,0.304271086145324
0.185914401611224,0.304179077110069
0.188193434352634,0.304056320086572
0.1904315008989,0.303902922842619
0.192628767971439,0.303718993145994
0.194785402291671,0.303504638764479
0.196901570581013,0.30325996746586
0.198977439560885,0.302985087017919
0.201013175952705,0.302680105188442
0.203008946477891,0.302345129745212
0.204964917857862,0.301980268456013
0.206881256814036,0.301585629088628
0.208758130067833,0.301161319410843
0.210595704340671,0.30070744719044
0.212394146353967,0.300224120195204
0.214153622829142,0.299711446192919
0.215874300487613,0.299169532951368
0.217556346050798,0.298598488238337
0.219199926240117,0.297998419821607
0.220805207776988,0.297369435468965
0.22237235738283,0.296711642948193
0.223901541779061,0.296025150027075
0.2253929276871,0.295310064473396
0.226846681828364,0.294566494054939
0.228262970924274,0.293794546539489
0.229641961696247,0.292994329694829
0.230983820865702,0.292165951288743
0.232288715154057,0.291309519089015
0.233556811282731,0.29042514086343
0.234788275973143,0.289512924379771
0.235983275946711,0.288572977405821
0.237141977924854,0.287605407709366
0.23826454862899,0.286610323058189
0.239351154780537,0.285587831220074
0.240401963100915,0.284538039962805
0.241417140311542,0.283461057054166
0.242396853133837,0.28235699026194
0.243341268289218,0.281225947353913
0.244250552499102,0.280068036097867
0.245124872484911,0.278883364261586
0.245964394968061,0.277672039612856
0.246769286669971,0.276434169919459
0.24753971431206,0.27516986294918
0.248275844615746,0.273879226469802
0.248977844302448,0.272562368249109
0.249645880093585,0.271219396054887
0.250280118710575,0.269850417654917
0.250880726874836,0.268455540816985
0.251447871307787,0.267034873308874
0.251981718730848,0.265588522898369
0.252482435865435,0.264116597353252
0.252950189432968,0.262619204441309
0.253385146154866,0.261096451930323
0.253787472752546,0.259548447588079
0.254157335947428,0.257975299182359
0.25449490246093,0.256377114480948
0.254800339014471,0.25475400125163
0.255073812329469,0.25310606726219
0.255315489127342,0.251433420280409
0.25552553612951,0.249736168074074
0.25570412005739,0.248014418410968
0.255851407632402,0.246268279058875
0.255967565575964,0.244497857785578
0.256052760609495,0.242703262358862
0.256107159454412,0.24088460054651
0.256130928832135,0.239041980116307
0.256124235464082,0.237175508836037
0.256087246071672,0.235285294473483
0.256020127376323,0.23337144479643
0.255923046099454,0.231434067572661
0.255796168962483,0.22947327056996
0.255639662686829,0.227489161556112
0.255453693993911,0.2254818482989
0.255238429605147,0.223451438566108
0.254994036241955,0.221398040125521
0.254720680625755,0.219321760744921
0.254418529477964,0.217222708192094
0.254087749520002,0.215100990234823
0.253728507473286,0.212956714640892
0.253340970059236,0.210789989178084
0.252925303999269,0.208600921614185
0.252481676014805,0.206389619716978
0.252010252827263,0.204156191254246
0.251511201158059,0.201900743993775
0.250984687728614,0.199623385703347
0.250430879260346,0.197324224150747
0.249849942474673,0.195003367103758
0.249242044093014,0.192660922330165
0.248607350836787,0.190296997597752
0.247946029427411,0.187911700674302
0.247258246586305,0.1855051393276
0.246544169034887,0.183077421325429
0.245803963494575,0.180628654435574
0.245037796686789,0.178158946425818
0.244245835332946,0.175668405063946
0.243428246154465,0.17315713811774
0.242585195872766,0.170625253354986
0.241716851209265,0.168072858543468
0.240823378885383,0.165500061450968
0.239904945622537,0.162906969845271
0.238961718142147,0.160293691494162
0.237993863165629,0.157660334165424
0.237001547414404,0.15500700562684
0.23598493760989,0.152333813646196
0.234944200473505,0.149640865991274
0.233879502726668,0.14692827042986
0.232791011090798,0.144196134729736
0.231678892287312,0.141444566658687
0.23054331303763,0.138673673984496
0.22938444006317,0.135883564474949
0.22820244008535,0.133074345897828
0.22699747982559,0.130246126020917
0.225769726005307,0.127399012612001
0.224519345345921,0.124533113438864
0.223246504568849,0.121648536269289
0.221951370395511,0.118745388871061
0.220634109547325,0.115823779011963
0.21929488874571,0.112883814459779
0.217933874712083,0.109925602982294
0.216551234167864,0.106949252347291
0.215147133834472,0.103954870322554
0.213721740433324,0.100942564675867
0.212275220685839,0.0979124431750145
0.210807741313437,0.09486461358778
0.209319469037534,0.0917991836819476
0.207810570579551,0.0887162612253011
0.206281212660905,0.0856159539856247
0.204731562003015,0.0824983697307021
0.2031617853273,0.0793636162283175
0.201572049355178,0.0762118012462546
0.199962520808068,0.0730430325522976
0.198333366407388,0.0698574179142301
0.196684752874557,0.0666550650998366
0.195016846930994,0.0634360818769006
0.193329815298116,0.0602005760132063
0.191623824697343,0.0569486552765374
0.189899041850093,0.0536804274346783
0.188155633477784,0.0503960002554125
0.186393766301836,0.0470954815065242
0.184613607043667,0.0437789789557972
0.182815322424695,0.0404466003710157
0.180999079166339,0.0370984535199634
0.179165043990017,0.0337346461704245
0.177313383617148,0.0303552860901827
0.175444264769151,0.0269604810470222
0.173557854167443,0.0235503388087266
0.171654318533445,0.0201249671430804
0.169733824588574,0.0166844738178671
0.167796539054248,0.0132289666008709
0.165842628651887,0.00975855325987553
0.163872260102908,0.00627334156266519
0.161885600128731,0.00277343927702363
0.159882815450775,-0.000741045829264875
0.157864072790456,-0.00427000598841683
0.155829538869195,-0.00781333343264785
0.153779380408409,-0.0113709203941743
0.151713764129518,-0.0149426591052119
0.149632856753939,-0.0185284417979771
0.147536825003092,-0.0221281607046855
0.145425835598394,-0.0257417080575536
0.143300055261265,-0.029368976088797
0.141159650713123,-0.0330098570306321
0.139004788675386,-0.0366642431152747
0.136835635869474,-0.040332026574941
0.134652359016804,-0.0440130996418469
0.132455124838796,-0.0477073545482086
0.130244100056867,-0.051414683526242
0.128019451392436,-0.0551349788081633
0.125781345566923,-0.0588681326261883
0.123529949301745,-0.0626140372125333
0.121265429318321,-0.0663725847994142
0.118987952338069,-0.0701436676190472
0.116697685082409,-0.073927177903648
0.114394794272758,-0.077723007885433
0.112079446630535,-0.0815310497966181
0.10975180887716,-0.0853511958694194
0.107412047734049,-0.0891833383360527
0.105060329922622,-0.0930273694287344
0.102696822164298,-0.0968831813796804
0.100321691180495,-0.100750666421107
0.0979351036926318,-0.104629716785229
0.0955372264221263,-0.108520224704264
0.0931282260903976,-0.112422082410428
0.090708269418864,-0.116335182135936
0.0882775231289443,-0.120259416113004
0.0858361539420569,-0.12419467657385
0.0833843285796204,-0.128140855750687
0.0809222137630533,-0.132097845875734
0.0784499762137743,-0.136065539181205
0.0759677826532018,-0.140043827899317
0.0734757998027545,-0.144032604262285
0.0709741943838507,-0.148031760502327
0.0684631331179093,-0.152041188851657
0.0659427827263486,-0.156060781542493
0.0634133099305873,-0.160090430807049
0.0608748814520439,-0.164130028877542
0.058327664012137,-0.168179467986189
0.055771824332285,-0.172238640365204
0.0532075291339067,-0.176307438246805
0.0506349451384204,-0.180385753863207
0.0480542390672449,-0.184473479446626
0.0454655776417985,-0.188570507229278
0.0428691275835,-0.19267672944338
0.0402650556137678,-0.196792038321147
0.0376535284540206,-0.200916326094795
0.0350347128256767,-0.205049484996541
0.032408775450155,-0.2091914072586
0.0297758830488738,-0.213341985113189
0.0271362023432517,-0.217501110792524
0.0244899000547073,-0.22166867652882
0.0218371429046592,-0.225844574554293
0.0191780976145258,-0.230028697101161
0.0165129309057259,-0.234220936401638
0.0138418094996778,-0.238421184687941
0.0111649001178003,-0.242629334192286
0.00848236948151165,-0.246845277146889
0.00579438431223073,-0.251068905783965
0.00310111133137583,-0.255300112335732
0.000402717260365726,-0.259538789034404
-0.00230063117938124,-0.263784828112199
-0.00500876726644627,-0.268038121801332
-0.00772152427941107,-0.272298562334018
-0.0104387354968568,-0.276566041942475
-0.0131602341973652,-0.280840452858919
-0.0158858536595174,-0.285121687315564
-0.0186154271618952,-0.289409637544628
-0.0213487879830797,-0.293704195778326
-0.0240857694016526,-0.298005254248875
-0.0268262046961952,-0.30231270518849
-0.029569927145289,-0.306626440829387
-0.0323167700275154,-0.310946353403783
-0.035066566621456,-0.315272335143894
-0.0378191502056919,-0.319604278281935
-0.040574354058805,-0.323942075050123
-0.0433320114593763,-0.328285617680673
-0.0460919556859876,-0.332634798405802
-0.0488540200172201,-0.336989509457726
-0.0516180377316554,-0.341349643068661
-0.0543838421078748,-0.345715091470823
-0.05715126642446,-0.350085746896428
-0.059920143959992,-0.354461501577691
-0.0626903079930528,-0.35884224774683
-0.0654615918022234,-0.363227877636059
-0.0682338286660854,-0.367618283477596
-0.0710068518632202,-0.372013357503656
-0.0737804946722094,-0.376412991946455
-0.0765545903716342,-0.380817079038209
-0.0793289722400764,-0.385225511011135
-0.082103473556117,-0.389638180097447
-0.0848779275983378,-0.394054978529363
-0.08765216764532,-0.398475798539099
-0.0904260269756452,-0.40290053235887
-0.0931993388678947,-0.407329072220892
-0.0959719366006503,-0.411761310357382
-0.0987436534524929,-0.416197139000556
-0.101514322702004,-0.420636450382629
-0.104283777627766,-0.425079136735817
-0.107051851508359,-0.429525090292338
-0.109818377622365,-0.433974203284406
-0.112583189248366,-0.438426367944238
-0.115346119664943,-0.442881476504049
-0.118107002150677,-0.447339421196057
-0.12086566998415,-0.451800094252476
-0.123621956443943,-0.456263387905524
-0.126375694808638,-0.460729194387415
-0.129126718356816,-0.465197405930367
-0.131874860367059,-0.469667914766594
-0.134619954117948,-0.474140613128314
-0.137361832888064,-0.478615393247742
-0.140100329955989,-0.483092147357094
-0.142835278600305,-0.487570767688586
-0.145566512099592,-0.492051146474435
-0.148293863732433,-0.496533175946855
-0.151017166777408,-0.501016748338065
-0.1537362545131,-0.505501755880278
-0.156450960218089,-0.509988090805712
-0.159161117170957,-0.514475645346583
-0.161866558650286,-0.518964311735106
-0.164567117934657,-0.523453982203498
-0.167262628302651,-0.527944548983974
-0.169952923032849,-0.532435904308752
-0.172637835403835,-0.536927940410045
-0.175317198694187,-0.541420549520072
-0.177990846182489,-0.545913623871047
-0.180658611147322,-0.550407055695187
-0.183320326867266,-0.554900737224709
-0.185975826620904,-0.559394560691826
-0.188624943686818,-0.563888418328758
-0.191267511343587,-0.568382202367718
-0.193903362869794,-0.572875805040923
-0.19653233154402,-0.577369118580589
-0.199154250644848,-0.581862035218933
-0.201768953450857,-0.586354447188169
-0.20437627324063,-0.590846246720515
-0.206976043292748,-0.595337326048186
-0.209568096885792,-0.599827577403398
-0.212152267298344,-0.604316893018368
-0.214728387808986,-0.608805165125311
-0.217296291696299,-0.613292285956444
-0.219855812238863,-0.617778147743982
-0.222406782715262,-0.622262642720142
-0.224949036404075,-0.626745663117139
-0.227482406583886,-0.63122710116719
-0.230006726533274,-0.635706849102511
-0.232521829530821,-0.640184799155317
-0.23502754885511,-0.644660843557825
-0.237523717784721,-0.649134874542251
-0.240010169598236,-0.653606784340811
-0.242486737574236,-0.65807646518572
-0.244953254991302,-0.662543809309196
-0.247409555128017,-0.667008708943453
-0.249855471262962,-0.671471056320709
-0.252290836674717,-0.675930743673178
-0.254715484641865,-0.680387663233078
-0.257129248442987,-0.684841707232623
-0.259531961356664,-0.689292767904031
-0.261923456661478,-0.693740737479518
-0.26430356763601,-0.698185508191298
-0.266672127558842,-0.702626972271589
-0.269028969708555,-0.707065021952606
-0.271373927363731,-0.711499549466565
-0.27370683380295,-0.715930447045684
-0.276027522304795,-0.720357606922176
-0.278335826147847,-0.724780921328259
-0.278335826147847,-0.724780921328259
-0.280619251766757,-0.729156997872813
-0.282865495698694,-0.733442838349723
-0.285074676376021,-0.737638926268715
-0.287246912231099,-0.741745745139514
-0.289382321696289,-0.745763778471844
-0.291481023203953,-0.74969350977543
-0.293543135186452,-0.753535422559996
-0.295568776076149,-0.757290000335268
-0.297558064305403,-0.76095772661097
-0.299511118306578,-0.764539084896827
-0.301428056512034,-0.768034558702564
-0.303308997354134,-0.771444631537906
-0.305154059265237,-0.774769786912578
-0.306963360677707,-0.778010508336303
-0.308737020023903,-0.781167279318807
-0.310475155736189,-0.784240583369816
-0.312177886246926,-0.787230903999053
-0.313845329988474,-0.790138724716243
-0.315477605393195,-0.792964529031111
-0.317074830893452,-0.795708800453383
-0.318637124921605,-0.798372022492782
-0.320164605910016,-0.800954678659034
-0.321657392291046,-0.803457252461862
-0.323115602497057,-0.805880227410993
-0.324539354960411,-0.808224087016151
-0.325928768113469,-0.810489314787061
-0.327283960388592,-0.812676394233446
-0.328605050218142,-0.814785808865034
-0.32989215603448,-0.816818042191547
-0.331145396269968,-0.818773577722711
-0.332364889356968,-0.82065289896825
-0.333550753727841,-0.82245648943789
-0.334703107814948,-0.824184832641355
-0.335822070050651,-0.82583841208837
-0.336907758867311,-0.827417711288659
-0.33796029269729,-0.828923213751948
-0.33897978997295,-0.830355402987962
-0.339966369126652,-0.831714762506424
-0.340920148590757,-0.83300177581706
-0.341841246797627,-0.834216926429595
-0.342729782179623,-0.835360697853753
-0.343585873169108,-0.83643357359926
-0.344409638198441,-0.837436037175839
-0.345201195699986,-0.838368572093216
-0.345960664106103,-0.839231661861116
-0.346688161849154,-0.840025789989263
-0.347383807361501,-0.840751439987382
-0.348047719075504,-0.841409095365199
-0.348680015423526,-0.841999239632437
-0.349280814837927,-0.842522356298821
-0.349850235751071,-0.842978928874076
-0.350388396595317,-0.843369440867928
-0.350895415803027,-0.843694375790101
-0.351371411806563,-0.843954217150319
-0.351816503038287,-0.844149448458307
-0.35223080793056,-0.844280553223791
-0.352614444915743,-0.844348014956495
-0.352967532426198,-0.844352317166143
-0.353290188894286,-0.844293943362461
-0.35358253275237,-0.844173377055173
-0.353844682432809,-0.843991101754005
-0.354076756367967,-0.84374760096868
-0.354278872990204,-0.843443358208924
-0.354451150731882,-0.843078856984461
-0.354593708025363,-0.842654580805017
-0.354706663303007,-0.842171013180315
-0.354790134997176,-0.841628637620082
-0.354844241540233,-0.841027937634041
-0.354869101364538,-0.840369396731918
-0.354864832902453,-0.839653498423436
-0.354831554586339,-0.838880726218322
-0.354769384848559,-0.838051563626299
-0.354678442121472,-0.837166494157093
-0.354558844837442,-0.836226001320428
-0.354410711428829,-0.835230568626029
-0.354234160327995,-0.834180679583622
-0.354029309967301,-0.83307681770293
-0.353796278779109,-0.831919466493678
-0.353535185195781,-0.830709109465591
-0.353246147649677,-0.829446230128395
-0.35292928457316,-0.828131311991813
-0.352584714398591,-0.826764838565571
-0.352212555558331,-0.825347293359393
-0.351812926484743,-0.823879159883005
-0.351385945610186,-0.82236092164613
-0.350931731367024,-0.820793062158494
-0.350450402187616,-0.819176064929822
-0.349942076504326,-0.817510413469838
-0.349406872749514,-0.815796591288267
-0.348844909355542,-0.814035081894834
-0.348256304754772,-0.812226368799263
-0.347641177379564,-0.81037093551128
-0.346999645662281,-0.808469265540609
-0.346331828035284,-0.806521842396976
-0.345637842930934,-0.804529149590103
-0.344917808781593,-0.802491670629718
-0.344171844019622,-0.800409889025544
-0.343400067077383,-0.798284288287306
-0.342602596387238,-0.796115351924729
-0.341779550381548,-0.793903563447538
-0.340931047492674,-0.791649406365457
-0.340057206152977,-0.789353364188211
-0.339158144794821,-0.787015920425526
-0.338233981850565,-0.784637558587125
-0.337284835752572,-0.782218762182734
-0.336310824933202,-0.779760014722078
-0.335312067824818,-0.77726179971488
-0.33428868285978,-0.774724600670867
-0.333240788470452,-0.772148901099763
-0.332168503089193,-0.769535184511292
-0.331071945148365,-0.766883934415179
-0.32995123308033,-0.764195634321149
-0.32880648531745,-0.761470767738928
-0.327637820292086,-0.758709818178239
-0.326445356436599,-0.755913269148807
-0.325229212183351,-0.753081604160358
-0.323989505964703,-0.750215306722616
-0.322726356213017,-0.747314860345306
-0.321439881360655,-0.744380748538152
-0.320130199839977,-0.74141345481088
-0.318797430083346,-0.738413462673214
-0.317441690523123,-0.735381255634879
-0.316063099591669,-0.732317317205599
-0.314661775721346,-0.729222130895101
-0.313237837344516,-0.726096180213107
-0.311791402893539,-0.722939948669344
-0.310322590800777,-0.719753919773535
-0.308831519498593,-0.716538577035406
-0.307318307419347,-0.713294403964682
-0.305783072995401,-0.710021884071087
-0.304225934659116,-0.706721500864346
-0.302647010842855,-0.703393737854184
-0.301046419978977,-0.700039078550326
-0.299424280499845,-0.696658006462496
-0.297780710837821,-0.693251005100418
-0.296115829425266,-0.689818557973819
-0.294429754694541,-0.686361148592423
-0.292722605078008,-0.682879260465954
-0.290994499008028,-0.679373377104138
-0.289245554916964,-0.675843982016699
-0.287475891237175,-0.672291558713361
-0.285685626401025,-0.668716590703851
-0.283874878840874,-0.665119561497891
-0.282043766989084,-0.661500954605208
-0.280192409278016,-0.657861253535526
-0.278320924140032,-0.65420094179857
-0.276429430007493,-0.650520502904064
-0.274518045312762,-0.646820420361734
-0.272586888488198,-0.643101177681304
-0.270636077966165,-0.639363258372499
-0.268665732179023,-0.635607145945043
-0.266675969559134,-0.631833323908662
-0.264666908538859,-0.628042275773081
-0.26263866755056,-0.624234485048023
-0.260591365026598,-0.620410435243215
-0.258525119399336,-0.61657060986838
-0.256440049101134,-0.612715492433243
-0.254336272564353,-0.60884556644753
-0.252213908221356,-0.604961315420965
-0.250073074504504,-0.601063222863272
-0.247913889846159,-0.597151772284177
-0.245736472678681,-0.593227447193405
-0.243540941434432,-0.589290731100679
-0.241327414545775,-0.585342107515726
-0.239096010445069,-0.581382059948269
-0.236846847564678,-0.577411071908034
-0.234580044336962,-0.573429626904745
-0.232295719194283,-0.569438208448127
-0.229993990569002,-0.565437300047905
-0.227674976893481,-0.561427385213804
-0.225338796600082,-0.557408947455547
-0.222985568121165,-0.553382470282862
-0.220615409889093,-0.549348437205471
-0.218228440336227,-0.5453073317331
-0.215824777894928,-0.541259637375474
-0.213404540997558,-0.537205837642317
-0.210967848076478,-0.533146416043354
-0.20851481756405,-0.52908185608831
-0.206045567892636,-0.525012641286909
-0.203560217494596,-0.520939255148878
-0.201058884802293,-0.516862181183939
-0.198541688248087,-0.512781902901819
-0.196008746264341,-0.508698903812241
-0.193460177283416,-0.504613667424931
-0.190896099737674,-0.500526677249614
-0.188316632059475,-0.496438416796013
-0.185721892681181,-0.492349369573855
-0.183112000035154,-0.488260019092863
-0.180487072553756,-0.484170848862763
-0.177847228669348,-0.480082342393279
-0.175192586814291,-0.475994983194137
-0.172523265420947,-0.47190925477506
-0.169839382921677,-0.467825640645774
-0.167141057748843,-0.463744624316004
-0.164428408334806,-0.459666689295473
-0.161701553111928,-0.455592319093908
-0.158960610512571,-0.451521997221033
-0.156205698969096,-0.447456207186572
-0.153436936913864,-0.44339543250025
-0.150654442779236,-0.439340156671793
-0.147858334997575,-0.435290863210925
-0.145048732001242,-0.431248035627371
-0.142225752222599,-0.427212157430855
-0.139389514094006,-0.423183712131102
-0.136540136047825,-0.419163183237838
-0.133677736516419,-0.415151054260786
-0.130802433932148,-0.411147808709672
-0.127914346727373,-0.407153930094221
-0.125013593334457,-0.403169901924156
-0.122100292185761,-0.399196207709204
-0.119174561713646,-0.395233330959089
-0.116236520350475,-0.391281755183535
-0.113286286528607,-0.387341963892268
-0.110323978680405,-0.383414440595011
-0.107349715238231,-0.379499668801491
-0.104363614634446,-0.375598132021432
-0.101365795301411,-0.371710313764558
-0.0983563756714874,-0.367836697540594
-0.0953354741770374,-0.363977766859265
-0.0923032092504225,-0.360134005230297
-0.0892596993240037,-0.356305896163413
-0.086205062830143,-0.352493923168338
-0.0831394182012015,-0.348698569754798
-0.080062883869541,-0.344920319432516
-0.0769755782675227,-0.341159655711219
-0.0738776198275083,-0.33741706210063
-0.0707691269818592,-0.333693022110474
-0.0676502181629372,-0.329988019250477
-0.0645210118031033,-0.326302537030362
-0.0613816263347194,-0.322637058959856
-0.0582321801901467,-0.318992068548681
-0.055072791801747,-0.315368049306564
-0.0519035796018816,-0.311765484743229
-0.0487246620229121,-0.308184858368401
-0.0455361574971998,-0.304626653691805
-0.0423381844571065,-0.301091354223165
-0.0391308613349935,-0.297579443472206
-0.0359143065632224,-0.294091404948654
-0.0326886385741546,-0.290627722162232
-0.0294539758001517,-0.287188878622665
-0.0262104366735751,-0.283775357839679
-0.0229581396267864,-0.280387643322999
-0.0196972030921469,-0.277026218582348
-0.0164277455020185,-0.273691567127451
-0.0131498852887622,-0.270384172468035
-0.00986374088473996,-0.267104518113822
-0.00656943072231289,-0.263853087574539
-0.00326707323384282,-0.260630364359909
4.32131483090042e-05,-0.257436831979658
0.00336130999178091,-0.254272973943511
0.00668709886421154,-0.251139273761192
0.0100204613332392,-0.248036214942426
0.0133612789665027,-0.244964280996937
0.0167094333316402,-0.241923955434451
0.0200648059962905,-0.238915721764693
0.0234272785280918,-0.235940063497386
0.0267967324946829,-0.232997464142256
0.030173049463702,-0.230088407209029
0.0335561110027878,-0.227213376207427
0.0369457986795788,-0.224372854647177
0.0403419940617134,-0.221567326038003
0.0437445787168302,-0.21879727388963
0.0471534342125677,-0.216063181711782
0.0505684421165642,-0.213365533014185
0.0539894839964586,-0.210704811306563
0.0574164414198889,-0.208081500098641
0.0608491959544941,-0.205496082900144
0.0642876291679123,-0.202949043220796
0.0677316226277822,-0.200440864570323
0.0711810579017422,-0.197972030458449
0.074635816557431,-0.195543024394898
0.0780957801624868,-0.193154329889397
0.0815608302845484,-0.190806430451668
0.085030848491254,-0.188499809591438
0.0885057163502425,-0.186234950818431
0.0919853154291519,-0.184012337642372
0.0954695272956212,-0.181832453572986
0.0989582335172885,-0.179695782119997
0.102451315661793,-0.17760280679313
0.105948655296772,-0.17555401110211
0.109450133989865,-0.173549878556662
0.112955633308709,-0.17159089266651
0.116465034820945,-0.16967753694138
0.11997822009421,-0.167810294890995
0.123495070696142,-0.165989650025082
0.127015468194381,-0.164216085853364
0.130539294156565,-0.162490085885567
0.134066430150331,-0.160812133631415
0.137596757743319,-0.159182712600633
0.141130158503167,-0.157602306302946
0.144666513997514,-0.156071398248078
0.148205705793998,-0.154590471945755
0.151747615460258,-0.153160010905701
0.155292124563932,-0.151780498637641
0.158839114672659,-0.1504524186513
0.162388467354077,-0.149176254456402
0.165940064175824,-0.147952489562672
0.16949378670554,-0.146781607479836
0.173049516510862,-0.145664091717617
0.17660713515943,-0.144600425785741
0.180166524218881,-0.143591093193933
0.183727565256854,-0.142636577451916
0.187290139840988,-0.141737362069417
0.190854129538921,-0.14089393055616
0.194419415918292,-0.140106766421869
0.197985880546739,-0.139376353176269
0.201553404991901,-0.138703174329086
0.205121870821416,-0.138087713390044
0.208691159602922,-0.137530453868867
0.212261152904059,-0.137031879275281
0.215831732292464,-0.13659247311901
0.219402779335777,-0.136212718909779
0.222974175601635,-0.135893100157313
0.226545802657678,-0.135634100371336
0.230117542071543,-0.135436203061575
0.233689275410869,-0.135299891737752
0.237260884243295,-0.135225649909593
0.240832250136459,-0.135213961086823
0.244403254658,-0.135265308779167
0.247973779375556,-0.135380176496349
0.251543705856765,-0.135559047748094
0.255112915669267,-0.135802406044127
0.2586812903807,-0.136110734894173
0.262248711558701,-0.136484517807956
0.265815060770911,-0.136924238295201
0.269380219584966,-0.137430379865634
0.272944069568506,-0.138003426028978
0.27650649228917,-0.138643860294959
0.280067369314595,-0.139352166173302
0.28362658221242,-0.14012882717373
0.287184012550284,-0.14097432680597
0.290739541895825,-0.141889148579746
0.294293051816682,-0.142873776004781
0.297844423880493,-0.143928692590803
0.301393539654897,-0.145054381847534
0.304940280707531,-0.1462513272847
0.308484528606036,-0.147520012412026
0.312026164918048,-0.148860920739237
0.315565071211208,-0.150274535776057
0.319101129053152,-0.15176134103221
0.322634220011521,-0.153321820017423
0.326164225653951,-0.154956456241419
0.329691027548082,-0.156665733213924
0.333214507261552,-0.158450134444662
0.336734546362001,-0.160310143443357
0.340251026417065,-0.162246243719736
0.343763828994383,-0.164258918783522
0.347272835661595,-0.16634865214444
0.350777927986339,-0.168515927312216
0.354278987536253,-0.170761227796573
0.357775895878976,-0.173085037107237
0.361268534582145,-0.175487838753933
0.364756785213401,-0.177970116246385
0.368240529340381,-0.180532353094317
0.371719648530723,-0.183175032807456
0.375194024352066,-0.185898638895525
0.37866353837205,-0.18870365486825
0.382128072158311,-0.191590564235355
0.385587507278489,-0.194559850506564
0.389041725300223,-0.197611997191604
0.39249060779115,-0.200747487800198
0.395934036318909,-0.203966805842071
0.399371892451139,-0.207270434826949
0.402804057755478,-0.210658858264555
0.406230413799564,-0.214132559664615
0.409650842151037,-0.217692022536853
0.413065224377535,-0.221337730390995
0.416473442046696,-0.225070166736764
0.419875376726158,-0.228889815083887
0.423270909983561,-0.232797158942087
0.426659923386542,-0.236792681821089
0.430042298502741,-0.240876867230618
0.433417916899795,-0.2450501986804
0.436786660145344,-0.249313159680158
0.440148409807025,-0.253666233739618
0.443503047452477,-0.258109904368504
0.446850454649339,-0.262644655076541
0.45019051296525,-0.267270969373454
0.453523103967847,-0.271989330768968
0.456848109224769,-0.276800222772806
0.460165410303655,-0.281704128894696
0.463474888772143,-0.28670153264436
0.466776426197871,-0.291792917531524
0.470069904148479,-0.296978767065913
0.473355204191605,-0.302259564757251
0.476632207894887,-0.307635794115263
0.479900796825963,-0.313107938649674
0.483160852552473,-0.318676481870208
0.486412256642055,-0.324341907286592
0.489654890662346,-0.330104698408548
0.492888636180987,-0.335965338745803
0.496113374765614,-0.34192431180808
0.499328987983867,-0.347982101105105
0.502535357403385,-0.354139190146603
0.505732364591805,-0.360396062442298
0.508919891116766,-0.366753201501914
0.512097818545908,-0.373211090835178
0.515266028446867,-0.379770213951813
0.518424402387283,-0.386431054361544
0.518424402387283,-0.386431054361544
0.52156057802565,-0.3931117778465
0.524662386561853,-0.399730332337719
0.527729999875614,-0.406286874568293
0.530763589846658,-0.412781561271314
0.533763328354708,-0.419214549179873
0.536729387279486,-0.425585995027063
0.539661938500717,-0.431896055545975
0.542561153898123,-0.438144887469701
0.545427205351427,-0.444332647531333
0.548260264740354,-0.450459492463961
0.551060503944626,-0.456525579000679
0.553828094843966,-0.462531063874578
0.556563209318099,-0.46847610381875
0.559266019246747,-0.474360855566285
0.561936696509633,-0.480185475850277
0.564575412986482,-0.485950121403817
0.567182340557015,-0.491654948959996
0.569757651100957,-0.497300115251907
0.572301516498031,-0.502885777012641
0.57481410862796,-0.508412090975289
0.577295599370467,-0.513879213872945
0.579746160605276,-0.519287302438698
0.58216596421211,-0.524636513405642
0.584555182070692,-0.529927003506867
0.586913986060746,-0.535158929475467
0.589242548061995,-0.540332448044531
0.591541039954161,-0.545447715947153
0.59380963361697,-0.550504889916423
0.596048500930143,-0.555504126685434
0.598257813773405,-0.560445582987277
0.600437744026477,-0.565329415555045
0.602588463569085,-0.570155781121828
0.604710144280951,-0.574924836420719
0.606802958041798,-0.579636738184809
0.608867076731349,-0.58429164314719
0.610902672229329,-0.588889708040954
0.61290991641546,-0.593431089599193
0.614888981169465,-0.597915944554998
0.616840038371068,-0.602344429641461
0.618763259899993,-0.606716701591674
0.620658817635962,-0.611032917138728
0.622526883458698,-0.615293233015716
0.624367629247926,-0.619497805955729
0.626181226883368,-0.623646792691858
0.627967848244748,-0.627740349957197
0.629727665211788,-0.631778634484835
0.631460849664213,-0.635761803007866
0.633167573481746,-0.63969001225938
0.63484800854411,-0.64356341897247
0.636502326731027,-0.647382179880227
0.638130699922223,-0.651146451715743
0.639733299997419,-0.654856391212111
0.641310298836339,-0.65851215510242
0.642861868318707,-0.662113900119764
0.644388180324245,-0.665661782997234
0.645889406732678,-0.669155960467922
0.647365719423727,-0.67259658926492
0.648817290277118,-0.675983826121318
0.650244291172572,-0.67931782777021
0.651646893989813,-0.682598750944687
0.653025270608566,-0.68582675237784
0.654379592908551,-0.689001988802761
0.655710032769494,-0.692124616952542
0.657016762071118,-0.695194793560276
0.658299952693146,-0.698212675359053
0.6595597765153,-0.701178419081965
0.660796405417305,-0.704092181462104
0.662010011278883,-0.706954119232561
0.663200765979759,-0.70976438912643
0.664368841399655,-0.7125231478768
0.665514409418294,-0.715230552216765
0.6666376419154,-0.717886758879416
0.667738710770697,-0.720491924597844
0.668817787863907,-0.723046206105141
0.669875045074753,-0.725549760134399
0.67091065428296,-0.728002743418711
0.671924787368251,-0.730405312691166
0.672917616210347,-0.732757624684858
0.673889312688974,-0.735059836132878
0.674840048683855,-0.737312103768318
0.675769996074712,-0.739514584324269
0.676679326741269,-0.741667434533824
0.677568212563249,-0.743770811130073
0.678436825420376,-0.745824870846109
0.679285337192372,-0.747829770415024
0.680113919758962,-0.749785666569909
0.680922744999868,-0.751692716043856
0.681711984794814,-0.753551075569957
0.682481811023523,-0.755360901881304
0.683232395565718,-0.757122351710987
0.683963910301123,-0.7588355817921
0.684676527109461,-0.760500748857733
0.685370417870456,-0.762118009640979
0.686045754463829,-0.763687520874929
0.686702708769306,-0.765209439292675
0.687341452666609,-0.766683921627309
0.687962158035462,-0.768111124611923
0.688564996755587,-0.769491204979607
0.689150140706708,-0.770824319463455
0.689717761768549,-0.772110624796557
0.690268031820832,-0.773350277712006
0.690801122743282,-0.774543434942893
0.691317206415621,-0.77569025322231
0.691816454717572,-0.776790889283349
0.69229903952886,-0.777845499859102
0.692765132729206,-0.778854241682659
0.693214906198335,-0.779817271487114
0.69364853181597,-0.780734746005557
0.694066181461834,-0.781606821971081
0.694468027015651,-0.782433656116777
0.694854240357143,-0.783215405175737
0.695224993366034,-0.783952225881052
0.695580457922048,-0.784644274965816
0.695920805904908,-0.785291709163118
0.696246209194336,-0.785894685206051
0.696556839670057,-0.786453359827708
0.696852869211793,-0.786967889761178
0.697134469699268,-0.787438431739555
0.697401813012205,-0.78786514249593
0.697655071030328,-0.788248178763394
0.69789441563336,-0.78858769727504
0.698120018701023,-0.78888385476396
0.698332052113042,-0.789136807963244
0.69853068774914,-0.789346713605985
0.69871609748904,-0.789513728425274
0.698888453212465,-0.789638009154203
0.699047926799139,-0.789719712525865
0.699194690128785,-0.78975899527335
0.699328915081125,-0.789756014129751
0.699450773535885,-0.789710925828159
0.699560437372786,-0.789623887101666
0.699658078471552,-0.789495054683363
0.699743868711907,-0.789324585306344
0.699817979973574,-0.789112635703697
0.699880584136275,-0.788859362608518
0.699931853079735,-0.788564922753896
0.699971958683677,-0.788229472872923
0.700001072827823,-0.787853169698691
0.700019367391898,-0.787436169964293
0.700027014255625,-0.786978630402819
0.700024185298726,-0.786480707747362
0.700011052400926,-0.785942558731013
0.699987787441946,-0.785364340086863
0.699954562301512,-0.784746208548006
0.699911548859346,-0.784088320847532
0.699858918995171,-0.783390833718533
0.699796844588711,-0.7826539038941
0.699725497519689,-0.781877688107327
0.699645049667828,-0.781062343091304
0.699555672912852,-0.780208025579123
0.699457539134484,-0.779314892303877
0.699350820212447,-0.778383099998656
0.699235688026465,-0.777412805396552
0.69911231445626,-0.776404165230657
0.698980871381556,-0.775357336234064
0.698841530682077,-0.774272475139863
0.698694464237546,-0.773149738681147
0.698539843927685,-0.771989283591006
0.698377841632219,-0.770791266602534
0.698208629230871,-0.769555844448821
0.698032378603364,-0.76828317386296
0.69784926162942,-0.766973411578042
0.697659450188765,-0.765626714327158
0.69746311616112,-0.764243238843402
0.69726043142621,-0.762823141859864
0.697051567863757,-0.761366580109636
0.696836697353484,-0.75987371032581
0.696615991775116,-0.758344689241477
0.696389623008375,-0.75677967358973
0.696157762932985,-0.75517882010366
0.695920583428669,-0.753542285516359
0.69567825637515,-0.751870226560919
0.695430953652152,-0.750162799970431
0.695178847139398,-0.748420162477987
0.694922108716611,-0.746642470816679
0.694660910263514,-0.7448298817196
0.694395423659832,-0.742982551919839
0.694125820785286,-0.741100638150489
0.693852273519601,-0.739184297144642
0.693574953742499,-0.73723368563539
0.693294033333705,-0.735248960355825
0.693009684172941,-0.733230278039037
0.69272207813993,-0.731177795418119
0.692431387114397,-0.729091669226163
0.692137782976064,-0.72697205619626
0.691841437604654,-0.724819113061503
0.691542522879891,-0.722632996554982
0.691241210681498,-0.72041386340979
0.690937672889199,-0.718161870359019
0.690632081382717,-0.715877174135759
0.690324608041774,-0.713559931473103
0.690015424746095,-0.711210299104143
0.689704703375403,-0.708828433761971
0.689392615809421,-0.706414492179677
0.689079333927872,-0.703968631090355
0.688765029610479,-0.701491007227095
0.688449874736967,-0.698981777322989
0.688134041187058,-0.696441098111129
0.687817700840475,-0.693869126324608
0.687501025576942,-0.691266018696516
0.687184187276182,-0.688631931959945
0.686867357817918,-0.685967022847987
0.686550709081875,-0.683271448093735
0.686234412947774,-0.680545364430279
0.68591864129534,-0.677788928590711
0.685603566004295,-0.675002297308124
0.685289358954363,-0.672185627315608
0.684976192025268,-0.669339075346256
0.684664237096732,-0.666462798133159
0.684353666048479,-0.663556952409409
0.684044650760232,-0.660621694908098
0.683737363111714,-0.657657182362318
0.683431974982649,-0.65466357150516
0.683128658252761,-0.651641019069716
0.682827584801771,-0.648589681789079
0.682528926509405,-0.645509716396338
0.682232855255384,-0.642401279624587
0.681939542919433,-0.639264528206917
0.681649161381274,-0.63609961887642
0.681361882520631,-0.632906708366188
0.681077878217227,-0.629685953409312
0.680797320350786,-0.626437510738884
0.680520380801031,-0.623161537087995
0.680247231447685,-0.619858189189739
0.679978044170471,-0.616527623777206
0.679712990849113,-0.613169997583488
0.679452243363333,-0.609785467341676
0.679195973592857,-0.606374189784863
0.678944353417406,-0.602936321646141
0.678697554716703,-0.599472019658601
0.678455749370473,-0.595981440555334
0.678219109258439,-0.592464741069433
0.677987806260323,-0.58892207793399
0.67776201225585,-0.585353607882095
0.677541899124742,-0.581759487646841
0.677327638746723,-0.57813987396132
0.677119403001515,-0.574494923558623
0.676917363768844,-0.570824793171843
0.67672169292843,-0.567129639534069
0.676532562359999,-0.563409619378396
0.676350143943273,-0.559664889437914
0.676174609557976,-0.555895606445715
0.676006131083831,-0.552101927134891
0.67584488040056,-0.548284008238533
0.675691029387889,-0.544442006489734
0.675544749925539,-0.540576078621585
0.675406213893234,-0.536686381367177
0.675275593170698,-0.532773071459603
0.675153059637653,-0.528836305631955
0.675038785173823,-0.524876240617323
0.674932941658932,-0.5208930331488
0.674835700972702,-0.516886839959478
0.674747234994857,-0.512857817782448
0.67466771560512,-0.508806123350803
0.674597314683215,-0.504731913397632
0.674536204108865,-0.50063534465603
0.674484555761793,-0.496516573859087
0.674442541521722,-0.492375757739895
0.674410333268377,-0.488213053031545
0.674388102881479,-0.48402861646713
0.674376022240752,-0.479822604779742
0.67437426322592,-0.475595174702471
0.674382997716707,-0.471346482968411
0.674402397592834,-0.467076686310651
0.674432634734026,-0.462785941462285
0.674473881020006,-0.458474405156405
0.674526308330497,-0.4541422341261
0.674590088545222,-0.449789585104465
0.674665393543906,-0.44541661482459
0.67475239520627,-0.441023480019566
0.674851265412039,-0.436610337422487
0.674962176040936,-0.432177343766443
0.675085298972683,-0.427724655784526
0.675220806087005,-0.423252430209829
0.675368869263624,-0.418760823775442
0.675529660382265,-0.414249993214457
0.67570335132265,-0.409720095259967
0.675890113964502,-0.405171286645063
0.676090120187545,-0.400603724102837
0.676303541871502,-0.39601756436638
0.676530550896096,-0.391412964168785
0.676771319141052,-0.386790080243142
0.677026018486091,-0.382149069322544
0.677294820810938,-0.377490088140083
0.677577897995315,-0.37281329342885
0.677875421918946,-0.368118841921937
0.678187564461555,-0.363406890352436
0.678514497502864,-0.358677595453438
0.678856392922597,-0.353931113958036
0.679213422600477,-0.34916760259932
0.679585758416228,-0.344387218110383
0.679973572249572,-0.339590117224317
0.680377035980234,-0.334776456674213
0.680796321487936,-0.329946393193163
0.681231600652401,-0.325100083514259
0.681683045353354,-0.320237684370592
0.682150827470517,-0.315359352495255
0.682635118883614,-0.310465244621338
0.683136091472367,-0.305555517481934
0.683653917116501,-0.300630327810135
0.684188767695738,-0.295689832339032
0.684740815089802,-0.290734187801717
0.685310231178416,-0.285763550931282
0.685897187841304,-0.280778078460818
0.686501856958188,-0.275777927123417
0.687124410408792,-0.270763253652172
0.68776502007284,-0.265734214780173
0.688423857830054,-0.260690967240513
0.689101095560159,-0.255633667766282
0.689796905142876,-0.250562473090574
0.69051145845793,-0.24547753994648
0.691244927385044,-0.240379025067091
0.691997483803941,-0.235267085185499
0.692769299594345,-0.230141877034796
0.693560546635978,-0.225003557348074
0.694371396808565,-0.219852282858424
0.695202021991828,-0.214688210298939
0.69605259406549,-0.20951149640271
0.696923284909276,-0.204322297902828
0.697814266402908,-0.199120771532385
0.698725710426109,-0.193907074024474
0.699657788858603,-0.188681362112186
0.700610673580114,-0.183443792528613
0.701584536470364,-0.178194522006846
0.702579549409077,-0.172933707279977
0.703595884275976,-0.167661505081099
0.704633712950784,-0.162378072143301
0.705693207313226,-0.157083565199678
0.706774539243023,-0.151778140983319
0.707877880619899,-0.146461956227318
0.709003403323579,-0.141135167664765
0.710151279233784,-0.135797932028753
0.711321680230238,-0.130450406052373
0.712514778192665,-0.125092746468717
0.713730745000788,-0.119725110010876
0.71496975253433,-0.114347653411943
0.716231972673014,-0.108960533405009
0.717517577296564,-0.103563906723166
0.718826738284704,-0.0981579300995062
0.720159627517155,-0.0927427602671205
0.721516416873643,-0.0873185539591008
0.722897278233889,-0.0818854679085392
0.724302383477617,-0.0764436588485272
0.725731904484552,-0.0709932835121568
0.727186013134415,-0.0655344986325193
0.72866488130693,-0.060067460942707
0.730168680881821,-0.0545923271758111
0.73169758373881,-0.0491092540649239
0.733251761757622,-0.0436183983431366
0.734831386817979,-0.0381199167435416
0.736436630799605,-0.0326139659992299
0.738067665582223,-0.0271007028432939
0.739724663045556,-0.0215802840088248
0.741407795069328,-0.0160528662289149
0.743117233533262,-0.0105186062366554
0.744853150317081,-0.00497766076513863
0.746615717300509,0.000569813452544282
0.748405106363268,0.00612365968330102
0.750221489385083,0.0116837211940404
0.752065038245676,0.01724984125167
0.75393592482477,0.0228218631230988
0.75583432100209,0.0283996300752344
0.757760398657359,0.0339829853749855
0.759714329670299,0.0395717722892601
0.761696285920633,0.0451658340849667
0.763706439288086,0.0507650140290132
0.765744961652381,0.0563691553883083
0.767812024893241,0.0619781014297597
0.769907800890389,0.0675916954202762
0.772032461523548,0.0732097806267655
0.774186178672442,0.0788322003161365
0.776369124216795,0.0844587977552969
0.778581470036328,0.0900894162111553
0.780823388010767,0.0957238989506195
0.783095050019833,0.101362089240598
0.785396627943251,0.107003830348
0.787728293660743,0.112648965539732
0.790090219052034,0.118297338082703
0.792482575996845,0.123948791243822
0.794905536374901,0.129603168289996
0.797359272065925,0.135260312488135
0.79984395494964,0.140920067105145
0.80235975690577,0.146582275407936
0.804906849814037,0.152246780663415
0.807485405554165,0.157913426138491
0.810095596005878,0.163582055100072
0.812737593048898,0.169252510815067
0.81541156856295,0.174924636550383
0.818117694427755,0.180598275572929
0.820856142523038,0.186273271149614
0.823627084728523,0.191949466547344
0.826430692923931,0.197626705033029
0.829267138988987,0.203304829873578
0.832136594803413,0.208983684335897
0.835039232246934,0.214663111686896
0.837975223199272,0.220342955193482
0.840944739540151,0.226023058122564
0.843947953149293,0.231703263741051
0.846985035906423,0.237383415315849
