0.389811708761177,0.510056348395659
0.173692228322523,-0.147352089422221
0.0627760652603946,-0.622658547549254
-0.0136392247988222,-0.457511700864821
-0.0900545148580389,-0.292364854180387
-0.85955604326467,-0.448225232418184
-0.558921823464766,-0.329797735807485
-0.258287603664862,-0.211370239196786
0.334206305502399,-0.0370055254513519
0.57074300880429,-0.384309890273023
