0.44823610298896,-0.530500025646818
0.395180569041609,-0.526787158840399
0.389548593894107,-0.524394474359332
0.351670565076203,-0.516921330011147
0.40132254629342,-0.496300809266086
0.37297734104737,-0.517204984721572
0.367561025805059,-0.514804919821713
0.347182189739111,-0.471761511212679
0.356888129594755,-0.509999876170731
0.395617944609579,-0.48946143389499
0.321850946158878,-0.456858418647028
0.341274572751141,-0.502781122765213
0.336174650938707,-0.500372180635392
0.28549153163448,-0.477911644944742
0.313331283746327,-0.459823202972172
0.289005658264935,-0.482789882902313
0.339298810954327,-0.460832445520414
0.311448875750452,-0.488310577623759
0.347417479127173,-0.453798711267259
0.268316603140922,-0.487445259399459
0.343163282106139,-0.483369012855032
0.246032458829155,-0.435269244604561
0.243430123702087,-0.519714470368131
0.296947322803364,-0.436900223476286
0.289904860329565,-0.495072100568695
0.235211502778214,-0.443461680317928
0.27011807018899,-0.466551774961581
0.228523102057921,-0.454400972664232
0.281275395501877,-0.476857402965697
0.257574168108881,-0.492667930836277
0.26436166865173,-0.4307617359873
0.219182137216126,-0.405611719672529
0.289635563872185,-0.412793208488406
0.277977314290731,-0.437832828953266
0.263718054402042,-0.413176229811033
0.271772910674594,-0.419435579052119
0.254123571476489,-0.427260793286369
0.221103199019289,-0.437524043291622
0.171974130238891,-0.457003984067074
0.213585649891034,-0.432692158306164
0.220412879842032,-0.475903862878486
0.18833904878132,-0.425552024200625
0.221848511803576,-0.381010465182853
0.156289789500728,-0.387134503191743
0.154625203098335,-0.407966943486772
0.233151623014113,-0.407072483210283
0.234306035762184,-0.395635312121235
0.221517500338674,-0.429051053004029
0.181970766522366,-0.410997885180378
0.178676915974765,-0.408593843291357
0.200253487801452,-0.356571756837786
0.144365235357985,-0.378183356104503
0.122381789854551,-0.4195194713934
0.165928303438782,-0.398993953493539
0.162846664980407,-0.396598416050021
0.183297097147135,-0.420107175345703
0.116080230707401,-0.351687887165647
0.153851200065219,-0.389423617546104
0.171619345286072,-0.421371454286473
0.127257257124541,-0.369775643761767
0.12845973874342,-0.364585047759775
0.142430466807871,-0.3798875146986
0.139676067217215,-0.377509386258144
0.177936570731681,-0.34639773565563
0.112541364256761,-0.408615611465124
0.129054507321409,-0.368022654980232
0.175444370758643,-0.396839504184081
0.171365777839089,-0.392416658753123
0.166661414927533,-0.329414702009621
0.116650902932217,-0.356227734967202
0.114284262642484,-0.353877947975252
0.11195509727106,-0.351531397251162
0.0945188169361163,-0.311918790926186
0.107408245092752,-0.346848297059653
0.0865349417886601,-0.340364118066839
0.0792573993653792,-0.349499847272473
0.100863115022684,-0.339849746613184
0.0786056440507745,-0.342918769229315
0.0535922093552453,-0.382025893962394
0.0946424856471604,-0.33288427069425
0.121385019679291,-0.280937199222706
0.136838133502757,-0.343723468925185
0.0703407679045422,-0.314342059996743
0.107033555588867,-0.290078486845711
0.107349692680555,-0.291266399184083
0.0392489009503708,-0.321720713535638
0.0385185160622973,-0.282899023526312
0.0778637338366838,-0.31220603068669
0.0823477277732976,-0.335449532665496
0.0397093170864393,-0.320253719778023
0.0728772393881629,-0.305392593461928
0.0370324949812079,-0.34287407429685
0.100372052285771,-0.345595770691275
0.0584014433457789,-0.321174415049038
0.107893053496171,-0.325755152093484
0.0652134097147926,-0.294133272529983
0.1040219351098,-0.269204581189709
0.0821745181648809,-0.319974589890601
0.0950080981859562,-0.293090858351193
0.0583326970611238,-0.283002381922732
0.0570479265491878,-0.280792419686262
0.0557930614324579,-0.278588033342424
0.0582747237394496,-0.312134680633749
0.071879048091492,-0.226492132799673
0.0356845077809552,-0.254431456462814
0.0499590376110099,-0.267652298977328
0.0665829684471764,-0.278449648645754
0.0219781080688596,-0.229219990353036
0.0562365600029627,-0.291086106920848
0.0312982095991097,-0.262530443908412
0.00459269346145295,-0.256123895038714
0.0393233073863542,-0.29398265570003
0.0272431842642037,-0.26097044850125
0.0461941000135192,-0.252954783212236
0.0412325496406054,-0.248353036688711
0.0403978797403351,-0.246241062327271
0.0210579117034609,-0.276505898019528
0.0388066652931622,-0.242037423832727
0.00572588165389193,-0.229697161299228
0.0366116087918682,-0.23578383836086
0.0359301144795731,-0.233713434928654
0.00319207703455421,-0.210260623453037
0.0346409933516056,-0.229594254331513
0.0588832707785694,-0.2279212081651
0.0765985979133877,-0.17968736969633
0.0624366001511954,-0.23483009157633
0.0609369737245358,-0.230044681505072
0.0634184585491208,-0.178478773778358
0.00156658895687104,-0.208677963237463
-0.0101246707176984,-0.163155850436609
0.0362925633132692,-0.24645860735642
0.0716152102215636,-0.242894111693776
0.0634614401665394,-0.234006476635901
0.0279309945866356,-0.199675447866693
-0.0103296001283276,-0.150828564622544
0.0380141765237414,-0.193290548525926
0.0271729030250848,-0.193911327718936
0.0269604620269652,-0.192007150152283
0.0267677548773826,-0.190111692349053
0.0100007492389446,-0.237409374039621
0.0263056710438873,-0.184478368652647
0.0261895338124833,-0.182618521035854
0.023115976658341,-0.162879675531428
0.0260126761337349,-0.178926154904924
0.0583965306049703,-0.172923716423867
0.0738336684166235,-0.139821903428808
0.0445545305199272,-0.180045030510909
0.0258740045797621,-0.171652786225371
0.00507714563602246,-0.20160449110584
-0.00713410712777311,-0.177121587537361
0.00832732141333901,-0.176406919844154
0.012535331147834,-0.115283486126346
0.0675347181777079,-0.202892873177414
0.0261752210459782,-0.161029915754714
0.0485954968644824,-0.132679814474986
0.0203155796915801,-0.151185208117252
0.0266934367791893,-0.154146281045649
0.00781844788800613,-0.14021360503911
0.0533719399160373,-0.13529076565869
0.0516706710391005,-0.11900125298544
0.0274479140964145,-0.14742672861149
0.0269141166562234,-0.193622049042401
0.0281597116663596,-0.142497558139833
0.0577818187887884,-0.16349203760837
0.0452209688904859,-0.113566402095636
0.0350808908331674,-0.181347900845622
0.00397413039341357,-0.0909640167097878
0.0296050972980853,-0.134498587566081
0.0299309039483303,-0.13293189850265
0.0564975599534075,-0.166192342427513
0.0434907656746329,-0.17211964377457
0.0313486773757449,-0.126777929529128
0.032525658281347,-0.122282926614877
0.0329383714408004,-0.120807929641092
0.0563810164636573,-0.151958749051538
0.0337929577605044,-0.117893380369616
0.034234357825561,-0.116453974298473
0.0744312608006477,-0.0716055598701859
-0.0119815481478852,-0.0992818223084037
0.0273860143715034,-0.129579782133403
0.0225176397767561,-0.132943916987883
0.0807891474646223,-0.14866108852
0.0687274461810631,-0.0964600760371478
-0.0108755487245958,-0.107553855721305
0.0385875869997586,-0.104048536985393
0.0391092344896905,-0.102732519619212
0.0396376057103266,-0.101429243246536
0.04017246411407,-0.100138780980637
0.0407135731533237,-0.0988612059347916
0.0072834221120225,-0.0566743089981394
0.0418135969479743,-0.0963450099563552
0.0423720386081773,-0.0951065352503127
0.0503769140921929,-0.099343546868335
0.00735325740709788,-0.0976026266863273
0.0446564842242443,-0.0902851642903796
0.00993812807667999,-0.0920074893775406
0.0919336308586528,-0.111205899712414
0.0424925736416087,-0.083085911737748
-0.00123895708827887,-0.133896743397907
0.0613291906144817,-0.107112377963105
0.048209169338445,-0.0834587339033513
0.0488129497771625,-0.0823692568320338
0.0559905012341383,-0.101765155686132
0.0418765953501477,-0.0393335412277886
0.0857375272390895,-0.0955951652613867
0.073231216401044,-0.117724135712736
0.0328964302326704,-0.111064838742698
0.0258034829018355,-0.0826205034719248
0.0929354264964655,-0.117337315165214
0.0431987083477991,-0.121423040985023
0.0178986947785756,-0.0285224222852752
0.0555808539544148,-0.071324032632796
0.0831871170009887,-0.0831777210685852
0.0292563500624928,-0.0829309631009997
0.0580614802903385,-0.0677461144956969
0.0616534247956913,-0.0190141734520604
0.0215694903281818,-0.0561773766375915
0.0415040730995591,-0.0559314079928113
0.0124876392583982,-0.0661128850478593
0.0378588074375549,-0.020271982683092
0.0395773266548267,-0.0214643906314744
0.0787657895706951,-0.0116766597579937
0.0647678894288398,-0.0591650649319405
0.0653616070430345,-0.0584788164373381
0.0659516402936671,-0.0578085259203047
0.112170374658964,-0.0669853561228209
0.0801005376769939,-0.0980815393074204
0.0688382619275067,-0.0546990019632687
0.0643114115705358,-0.0260559319251221
0.0705108834988612,-0.0530294625694231
0.0215553018258116,-0.095279350830538
0.0715972923327527,-0.051999394436586
0.079735962160596,-0.0175998678712571
0.0848410384632795,-0.0197934325212582
0.0731791663111334,-0.0505801916974042
0.0736927809742174,-0.0501409897601267
0.106208266540329,-0.0731815507227578
0.0325122304075201,-0.0554095714825483
0.0870441334958407,-0.0681902042813837
0.115414336263051,-0.00570777883124295
0.0327499926052858,-0.032654625879985
0.0775214554901548,-0.0472474841374883
0.116105176143605,-0.0608010919041641
0.0386107733368038,-0.0541534968993587
0.0452163312141659,-0.0580415099196472
0.0476167308702617,-0.0299595755079931
0.0796255037150248,-0.046009953385381
0.080016336461556,-0.0458161702296021
0.0731695623254412,-0.00590571962576743
0.124344046967598,-0.0599486240721527
0.125894077273044,-0.0235479654208268
0.106664682904984,-0.0225378751039271
0.0903337399795214,-0.0949681043890491
0.0821316246534996,-0.0450356737724599
0.0505396251778974,-0.0448588341610299
0.120042430799153,-0.0824733162881823
0.0830309544943799,-0.044894417233926
0.0677214867870132,-0.0884857078932807
0.0835675361063961,-0.0448938057627219
0.0838162257850421,-0.044921787233288
0.123006637424631,-0.0464576114824154
0.0846747908732832,-0.0452240004664048
0.0468775874703456,-0.0221412533175283
0.0859430827726959,-0.0895827689307132
0.116066269891887,-0.0164026614785249
0.118030440216269,-0.0930077039734151
0.0534925166347339,-0.0371458767337517
0.0499962799797964,-0.0322222902627028
0.128047385741621,-0.0268529757420049
0.0856889897431511,-0.046757013777762
0.0857452521137488,-0.0470371211672589
0.0401700466909937,-0.0887155859946203
0.0441688080342551,-0.0210108338543093
0.126842721706386,-0.0525489602697862
0.0855829954636644,-0.0500007411957875
0.126558252564694,-0.0594532110350167
0.121292211596562,-0.0268997096481159
0.0852258740883364,-0.0514481896008365
0.0850690291119609,-0.0519719955989374
0.0848928876306241,-0.0525165850507043
0.110617248204105,-0.0803449622672694
0.0818378749587633,-0.0957115524487126
0.0344662446329225,-0.0928796451879251
0.0837144534836264,-0.055553843079125
0.0834175654729854,-0.0562246686316457
0.0824002412218342,-0.0583652092218167
0.0820181245730513,-0.059121654440324
0.0333351814158851,-0.0776427666448219
0.0811879591423047,-0.0606993810896591
0.103569085077969,-0.0486626856269666
0.0930867255649381,-0.0930832705300002
0.0738180469423071,-0.0280338644853625
0.0781529743576386,-0.065956514891971
0.0496050161052766,-0.0379429421795111
0.0769535086626889,-0.0678854937981558
0.0736897186868962,-0.112862612827551
0.101447828033961,-0.0610644484894851
0.0414100529520875,-0.0385938853759037
0.0546715555795774,-0.0614335632228503
0.0228674295987215,-0.11382366008211
0.117156665542823,-0.0472091862789737
0.028549334714749,-0.100135237784644
0.0703275235653404,-0.0776791256641498
0.0694624923025772,-0.0788812163983969
0.0685708315593469,-0.0801063570978102
0.104848330270531,-0.107604282368203
0.0261448352965556,-0.0742330585186976
0.0843877781522585,-0.0623513377987478
0.0858004363375032,-0.0401480498458599
0.0423929056962165,-0.135866840180209
0.0626484013447262,-0.0879453449061317
0.0771101318872543,-0.0734093200847903
0.0384398878802684,-0.116533231856951
0.0772417628428826,-0.0589948150083672
0.0569373650602546,-0.0951251128887358
0.0988680696238676,-0.142406180279074
0.0544483300182304,-0.0981639995600531
0.0602988343802492,-0.0665392847880614
0.00762438637357454,-0.124384584048791
0.0975710556845688,-0.0536626565986516
0.003634555785402,-0.149406182457863
0.0476976327607939,-0.106183782863229
-0.0505834983224081,0.00718052958361623
0.0732166983498183,-0.0619762842704589
-0.0313250424511384,0.0152888707282694
0.160939874328534,-0.16402143749369
0.119942614625065,-0.0519708415595623
0.127258597594604,-0.236802289923015
0.139549314725208,-0.208464470004386
-0.0611032314073235,-0.0249542487671461
0.135808017555636,-0.0120949764863058
0.0264305225185161,-0.129917407526006
-0.0730404914033518,-0.0710995376720289
0.146599034922061,-0.0774063705464104
0.126077824983575,-0.241818468686097
-0.0118441279676113,-0.100020244756978
-0.0320646413227252,-0.0925274673753955
-0.114354996252066,-0.199101681018169
0.101894374599275,-0.247590049556384
0.126677408400535,-0.30800552029859
-0.0255171930481689,-0.140553189367483
0.10519052813153,-0.247526511886074
0.0962164538401239,-0.0551139264544932
-0.0320998050912849,-0.14437920164951
0.0694009216791231,-0.0299907503319708
0.100740485259871,-0.282279875236802
0.0783786974774912,-0.278285352524543
-0.164550435450906,-0.0381594359127002
-0.0256807264564489,-0.182519853098468
-0.0688123785401504,-0.283919130825703
0.0504954936273185,-0.101829205402256
0.0400407010393306,-0.122501893793333
-0.043376232601081,-0.221315217911029
-0.0414677367534521,-0.197130865715146
-0.00529301837510039,-0.151561776738271
0.00137361567473945,-0.169359133747132
-0.0551578256828975,-0.209681925714268
-0.0448674619991732,-0.221598972764882
-0.0899678663747219,-0.17870818352699
-0.0873900922122247,-0.244940660982203
-0.0710427084628705,-0.22337227297701
-0.0356548004024053,-0.198645268034073
-0.0605794020011642,-0.195494040455594
-0.0998822718650391,-0.211983070990809
-0.0894035589124778,-0.238355524484772
-0.0922940504358547,-0.226275412204218
-0.0488559440685658,-0.270630685350689
-0.0629995019683057,-0.228178236937632
-0.1024059357928,-0.248413369040051
-0.104995200637883,-0.250361031207233
-0.107580736016014,-0.252287488238201
-0.0872680038161526,-0.237350472920041
-0.148487226258037,-0.273748876676419
-0.169702485604745,-0.291946328740254
-0.112687371179615,-0.219018755644033
-0.116480739984421,-0.304598974240878
-0.130600456181297,-0.320120762367785
-0.14085475289776,-0.275420699035766
-0.168183083972249,-0.230749168339191
-0.100085936604093,-0.231603852864716
-0.197047867649933,-0.245418507078337
-0.153486238023779,-0.283385082527385
-0.156001514204838,-0.284916549641
-0.205159835824655,-0.314974284814691
-0.171016290943747,-0.293678981252551
-0.173505969849166,-0.295068713123101
-0.159281023265349,-0.327288872477262
-0.155109691404096,-0.306064620890924
-0.152005580777694,-0.340954401640904
-0.156395640793742,-0.254342267854547
-0.188367627666988,-0.302986851316222
-0.194606792785599,-0.311771272110442
-0.233574937223783,-0.290993488225446
-0.230860332517307,-0.355157732719042
-0.166842432035197,-0.357718326949952
-0.222002020997899,-0.332115123756626
-0.20554133256992,-0.311322968144958
-0.210415630896089,-0.313528228249594
-0.164398290387053,-0.270666099082525
-0.257479330243613,-0.272992385702043
-0.224952306572963,-0.319678369386583
-0.229769209669971,-0.321574313221791
-0.267932427679157,-0.282750471174019
-0.215284946355504,-0.349906946576202
-0.262085634541888,-0.335079477237565
-0.239976609013144,-0.351053212621366
-0.260026791151602,-0.369013620981237
-0.224322846596355,-0.320092328927608
-0.288999450409823,-0.358322468572657
-0.273157694097501,-0.361494076871338
-0.258371516312025,-0.331355199342137
-0.260731999045781,-0.332048220458727
-0.270157399561213,-0.309566558979811
-0.314046619680737,-0.313576166371064
-0.299203337284698,-0.330015391125973
-0.24066385585547,-0.325766810367635
-0.254448047369316,-0.3028455410687
-0.281817859713545,-0.337454164467325
-0.293202959577234,-0.348011965064509
-0.286465005114585,-0.33845412313156
-0.281755169109515,-0.35110781924334
-0.245027997995096,-0.370136366151452
-0.309216515567129,-0.353252659917748
-0.320746574023353,-0.359923697868898
-0.269461978840887,-0.351708094103236
-0.321608533061285,-0.340484010380491
-0.343460651288444,-0.353166706002263
-0.323140937956899,-0.343871716481113
-0.329919104230294,-0.344384782420436
-0.362780238613074,-0.296099386983777
-0.36718798814062,-0.294854876845847
-0.313203200737527,-0.345285860465498
-0.322356462706113,-0.348588898247695
-0.343382764922632,-0.344944005454007
-0.342058780293477,-0.384640380576508
-0.39567741877053,-0.356867103843787
-0.350068430059729,-0.344992409991503
-0.317374736059875,-0.31128083684944
-0.40353873018641,-0.298646063031152
-0.369046496197024,-0.336575890238673
-0.379473990316863,-0.350890907353863
-0.363347856711163,-0.344632423716037
-0.365549217937373,-0.344513697350089
-0.374320845764725,-0.343872521775525
-0.339713596743538,-0.343856439699814
-0.387377184032484,-0.342416526206493
-0.408587256837482,-0.356626401678828
-0.3521252358532,-0.380220058670078
-0.378045444830187,-0.343341230036601
-0.432568751798245,-0.352851192011297
-0.451137466501693,-0.302177067405665
-0.451193049159934,-0.300401149096289
-0.393246346892832,-0.352483948483898
-0.4151531199668,-0.362543547570295
-0.443532681866149,-0.364841213938197
-0.413128391930481,-0.337758261623536
-0.414678093307928,-0.305722747742818
-0.417373697936289,-0.336759399882961
-0.421605767964252,-0.335697859075463
-0.433829924729015,-0.288903844095328
-0.390438207981526,-0.363054963381759
-0.409338230997427,-0.345009812810153
-0.407083177535033,-0.280228545165976
-0.399926517392463,-0.376421352266219
-0.405045721497182,-0.299120193020586
-0.45086177527288,-0.326540027731761
-0.414000511024825,-0.339804927459938
-0.435591485263156,-0.317391403700941
-0.465249743508075,-0.320851190811541
-0.448515936969943,-0.300759722153384
-0.486263244148493,-0.327576512325386
-0.482608562270344,-0.277712648564388
-0.440853794352498,-0.294030171492967
-0.475429712011908,-0.316345527810607
-0.523802468105294,-0.288806049172805
-0.48149902213538,-0.313467743946043
-0.483515699315416,-0.312479668029771
-0.503456377047437,-0.29120467810139
-0.489546496532424,-0.309429579067175
-0.507830150462049,-0.328481443104858
-0.456597778626027,-0.321147216553305
-0.453606713300797,-0.349757442690913
-0.553359545186498,-0.349889296535829
-0.470614504888052,-0.337507716373222
-0.546868434672007,-0.336344191033936
-0.513382688048639,-0.295961282283402
-0.542312073461411,-0.282240130530239
-0.517310993410321,-0.293522632695808
-0.48326497185365,-0.306423747812277
-0.507799678861152,-0.282268384553066
-0.563958754248319,-0.294215998038225
-0.532898304431053,-0.283226147087801
-0.507372942366966,-0.30374063706267
-0.536763781037628,-0.280518218644168
-0.540616767767917,-0.277757433292992
-0.553011786000081,-0.324538547912568
-0.54637288467064,-0.273517876902677
-0.550194757360867,-0.270626405958825
-0.552101041616846,-0.269161265339765
-0.554004228695332,-0.267683243448375
-0.526155591113535,-0.287708154868457
-0.557801323965612,-0.264688722325882
-0.532396921249761,-0.23875154283863
-0.563473817076014,-0.26010137158265
-0.518099748721028,-0.305674799273948
-0.56128130523059,-0.228689520931272
-0.61659312679972,-0.222048865472942
-0.589039612287779,-0.210698684492665
-0.617260235424088,-0.225928315905263
-0.549802616925739,-0.27074039258204
-0.595097157285497,-0.231992037440736
-0.5610401265703,-0.217623007101658
-0.632001661350674,-0.17980353392039
-0.575948776272537,-0.226292286994229
-0.606048848306598,-0.221237808360195
-0.581907296281994,-0.26614473596751
-0.592287658691771,-0.161970479585108
-0.664549055458787,-0.222471556803393
-0.620482913279527,-0.206246628564965
-0.667060448098055,-0.217830396099549
-0.666399310231556,-0.18560166094795
-0.61370916125505,-0.217087514871243
-0.618269244427265,-0.22391226334913
-0.616412713116787,-0.16204251653321
-0.632956204098462,-0.192533196636672
-0.645356446559889,-0.198522517580568
-0.675855822018414,-0.146002008558328
-0.67269640077997,-0.139204503576523
-0.60078420307202,-0.170294184564713
-0.644491305205097,-0.131548071063125
-0.696144790573345,-0.149805350601612
-0.630213624844772,-0.12305045509515
-0.654002368619816,-0.167772661319386
-0.615110871146249,-0.146702410119375
-0.659197993282442,-0.161342329901035
-0.69097067417771,-0.173400847510931
-0.635781168184006,-0.123125589031838
-0.694958391173683,-0.193578473009891
-0.628569543947975,-0.158779973546873
-0.679719386834391,-0.13469392552023
-0.681410754970108,-0.132407712273813
-0.683099253552537,-0.130111614346063
-0.635534077102032,-0.12058401172533
-0.686467654703316,-0.125489930923844
-0.689824615578308,-0.120829208208128
-0.700615380074504,-0.103167144972232
-0.698167132535198,-0.109008789524056
-0.717649609553596,-0.0819973677127334
-0.753317348325844,-0.0856717635679793
-0.706567240904128,-0.117587251838433
-0.722098253237066,-0.127933024742629
-0.705640018436601,-0.118483480304748
-0.721149995569429,-0.0746689143946974
-0.724388360527686,-0.0696183812285381
-0.728080863573697,-0.0257945848889564
-0.68698603856239,-0.0723846607589619
-0.749705314013831,-0.0793507562820458
-0.734067761919647,-0.0749479607223183
-0.716651372008948,-0.0496424255930104
-0.774519201499958,-0.0547810293448317
-0.738823393881863,-0.0464600613503383
-0.724767560899729,-0.0890587544543872
-0.772042159277597,-0.0828197400378124
-0.737565246049192,-0.0428737429133479
-0.719844297081332,-0.0681047486314187
-0.751466857602557,-0.0253008404036237
-0.757731941607153,-0.0183287392575263
-0.7561629649756,-0.0172314196824589
-0.80487759573822,0.0145927444289624
-0.738700912888035,0.0261423038281402
-0.729500620978923,-0.00823785508764961
-0.799317194328444,-0.0265548211822848
-0.753634890183588,0.030162746795216
-0.777755341082366,0.021356170044043
-0.779277451915996,0.0241691854972179
-0.775284448974784,0.0699448666536162
-0.783827736832648,0.0326521407965547
-0.809541733669471,0.0663981091537168
-0.788354016763337,0.0412000854999024
-0.786384439667309,0.071766351823932
-0.7522974076848,0.0701409070919782
-0.821899780268019,0.0560389698452618
-0.794351863115853,0.0526964974979214
-0.794441863924924,0.0720184346571763
-0.797334903103132,0.0584864482321337
-0.806729774193601,0.0702952933876943
-0.806220793807994,0.0760192839209185
-0.815543387955458,0.083234719331165
-0.813553629277562,0.0908117726038868
-0.815012371750536,0.0937896027932637
-0.771259069527097,0.120160456735179
-0.820821364954209,0.105763977749401
-0.855330696178077,0.0971296443220915
-0.810935659328511,0.115864282463972
-0.812550244459025,0.0684591285801426
-0.855521548848834,0.162807631073365
-0.869979864915232,0.109051501850595
-0.812633682285013,0.0864806418596465
-0.805989630128307,0.171597029200528
-0.882106770278039,0.178224094640135
-0.884761940783822,0.138849764436014
-0.842517911847436,0.13233590445134
-0.868662878634339,0.172880824408932
-0.834732105500502,0.195198997270624
-0.849197312219713,0.197834572555433
-0.850464542650923,0.170954075813346
-0.852085343242704,0.175002980037359
-0.853564509219318,0.178825120050858
-0.84401594524445,0.150159370854036
-0.882362505489958,0.201039534120529
-0.887654413297899,0.19094128190121
-0.827820793217179,0.160730763746844
-0.884244772198157,0.192616088054484
-0.858486790006399,0.193306264445232
-0.858359373457987,0.218640598745076
-0.907874733611659,0.164864544755775
-0.859775071343095,0.198367601667709
-0.860382961817734,0.201631328026444
-0.824363978988258,0.201292008918256
-0.860686344502943,0.20445108606805
-0.818004129542376,0.208328670490678
-0.860687581081169,0.206837917651949
-0.869030698699168,0.193948719048282
-0.905598112124613,0.218431363480558
-0.856444783505014,0.198457473074795
-0.852446755485197,0.217176743273848
-0.822753026784632,0.174893441370304
-0.859854431882937,0.2208724110855
-0.835563062126572,0.256888142591434
-0.884358103961531,0.197156235137558
-0.872212393693813,0.248789766731351
-0.888429025060305,0.228250092353511
-0.850326528723448,0.218355469264406
-0.894206193266318,0.239277924851999
-0.866458397998981,0.206624809120274
-0.843576549928534,0.208809683870095
-0.86237145363246,0.176577700694065
-0.832985763724797,0.202686600203256
-0.828915762096533,0.200081530223074
-0.851642801985586,0.238070261657427
-0.798564279196223,0.159610767514825
-0.84803794764732,0.18763741319242
-0.787367118754468,0.192531923927423
-0.804623982962782,0.183322748311845
-0.823908486871775,0.145632041040665
-0.775121086456108,0.20143749890327
-0.795100338128616,0.176510502218285
-0.804438657302006,0.187373829032747
-0.822018313173667,0.153202182489163
-0.789051866012887,0.172166542166176
-0.743541017694589,0.198413416938137
-0.782755566486508,0.167643618423047
-0.768998778866484,0.143939084371962
-0.778421517837055,0.164534364424923
-0.776213801231928,0.162952772848319
-0.764771794191119,0.154791527500127
-0.78983238290953,0.148729926523104
-0.713320926080316,0.142552111579485
-0.724896498135107,0.107081134993869
-0.708575874756401,0.178704957837832
-0.731179615688035,0.180614514759702
-0.741142287204276,0.100731737279889
-0.769449536607033,0.149610967269535
-0.725500041539725,0.165388505120017
-0.663205710429111,0.153828143364678
-0.679034264216972,0.113780469424666
-0.706187624088925,0.0513530328795542
-0.656917887841551,0.0543772037107014
-0.677763259318998,0.125817789963339
-0.650237379094583,0.0799479338418972
-0.6753989587936,0.0822839296740882
-0.646082856185535,0.0463494320064897
-0.608422810694186,0.0566072319548111
-0.603095524990785,0.0333016630132704
-0.574972181673541,0.0396186702781798
-0.531567803386371,0.0249856768687885
-0.572915585492122,0.0214634455034723
-0.520892077029626,-0.0185086855468745
-0.521889677848553,0.027052499346417
-0.497643907696311,-0.0314426730563313
-0.502411848014214,-0.0104390790765419
-0.448849190100461,-0.0106681745879755
-0.438086485940164,-0.0137803087332045
-0.398138037529816,-0.0266178526579171
-0.441187058051066,-0.0290804438974065
-0.440267187847413,0.025299983599528
-0.401772795336803,-0.0235032882832368
-0.39251610028593,-0.0256789386067855
-0.353277533173887,-0.00466680953558956
-0.330073481417935,0.0155717743447356
-0.316004579529465,-0.038900400194247
-0.283979580471521,-0.0365434888739387
-0.334510347940207,-0.0713684856792805
-0.198792672481805,-0.0298746910198768
-0.216677974151682,-0.0326897150353491
-0.250153735623648,-0.0716734412207744
-0.224151297988117,-0.038956430689304
-0.219839693336075,-0.0745337210742498
-0.145762339034583,-0.0742751701588953
-0.184248853624447,-0.0603925578252935
-0.169672965708395,-0.0128175061511494
-0.126782930132183,-0.0038748336889772
-0.0970239810850929,0.017120464890856
-0.0849081021837605,-0.000453639759521784
-0.0772098039861178,-0.0305722850105811
-0.0991380853538976,-0.0549728574931505
-0.0576163289265597,-0.018578094959191
-0.0750247712984616,-0.0309811180985822
-0.0174138561682871,-0.0401349116859858
-0.063645560431759,-0.043346663398076
-0.0058181058763024,-0.04553228479734
0.0405648058934453,-0.0194341466199607
0.016110766702624,0.00648801659039995
0.0495137565068295,0.0104592730774593
0.00723997407242523,0.0395940858888566
0.0449573008431456,0.0187367334528096
0.0630269048578647,0.00440892507050716
0.0875653958334092,0.0296733678310385
0.0313124110790341,0.0644962208535754
0.101653075441875,0.0976090918889582
0.287493874129665,0.161846892554096
0.310453680960184,0.14461890907923
0.320928167942424,0.209638070723575
0.285968140816891,0.225894178005063
0.37900054970525,0.193327083001286
0.361237240138147,0.237578880657255
0.347051520130487,0.282824651385489
0.36428361172073,0.25252367803888
0.39332883770971,0.224915459416956
0.432954615234232,0.328162919787124
0.476579065356381,0.302129480298538
0.465441671429538,0.412099585785492
0.483254878672409,0.38977411453058
0.530679902656943,0.404481413962792
0.514822771607422,0.431210166656915
0.515670735434858,0.420879186016024
0.572148676442664,0.491372303177606
0.572093338999752,0.451590720541845
0.584302874645626,0.545096295442017
0.62219229597859,0.497145251958585
