0.683393423292683,-0.242107033486911
0.682582064572787,-0.238562238414542
0.681759379837493,-0.235071807788034
0.680925365058488,-0.231635406492736
0.680080016207462,-0.228252699413998
0.679223329256101,-0.22492335143717
0.678355300176095,-0.221647027447601
0.677475924939131,-0.21842339233064
0.676585199516898,-0.215252110971638
0.675683119881084,-0.212132848255944
0.674769682003377,-0.209065269068908
0.673844881855465,-0.206049038295878
0.672908715409037,-0.203083820822206
0.671961178635781,-0.200169281533239
0.671002267507384,-0.197305085314329
0.670031977995535,-0.194490897050825
0.669050306071922,-0.191726381628075
0.668057247708234,-0.18901120393143
0.667052798876158,-0.18634502884624
0.666036955547382,-0.183727521257854
0.665009713693596,-0.181158346051621
0.663971069286487,-0.178637168112892
0.662921018297742,-0.176163652327015
0.661859556699051,-0.173737463579341
0.660786680462102,-0.171358266755218
0.659702385558583,-0.169025726739998
0.658606667960181,-0.166739508419028
0.657499523638586,-0.16449927667766
0.656380948565485,-0.162304696401242
0.655250938712566,-0.160155432475124
0.654109490051518,-0.158051149784655
0.652956598554029,-0.155991513215186
0.651792260191787,-0.153976187652065
0.65061647093648,-0.152004837980643
0.649429226759796,-0.150077129086269
0.648230523633424,-0.148192725854293
0.647020357529052,-0.146351293170064
0.645798724418368,-0.144552495918932
0.644565620273059,-0.142795998986246
0.643321041064815,-0.141081467257356
0.642064982765324,-0.139408565617612
0.640797441346273,-0.137776958952363
0.63951841277935,-0.13618631214696
0.638227893036245,-0.13463629008675
0.636925878088645,-0.133126557657085
0.635612363908238,-0.131656779743313
0.634287346466713,-0.130226621230785
0.632950821735757,-0.128835747004849
0.63160278568706,-0.127483821950856
0.630243234292308,-0.126170510954155
0.628872163523191,-0.124895478900096
0.627489569351396,-0.123658390674028
0.626095447748612,-0.122458911161301
0.624689794686526,-0.121296705247265
0.623272606136827,-0.120171437817268
0.621843878071204,-0.119082773756662
0.620403606461344,-0.118030377950794
0.618951787278935,-0.117013915285016
0.617488416495666,-0.116033050644676
0.616013490083225,-0.115087448915124
0.6145270040133,-0.11417677498171
0.613028954257579,-0.113300693729784
0.61151933678775,-0.112458870044694
0.609998147575502,-0.111650968811791
0.608465382592523,-0.110876654916424
0.606921037810501,-0.110135593243942
0.605365109201123,-0.109427448679696
0.603797592736079,-0.108751886109035
0.602218484387057,-0.108108570417309
0.600627780125744,-0.107497166489866
0.599025475923829,-0.106917339212058
0.597411567753,-0.106368753469233
0.595786051584945,-0.105851074146741
0.594148923391352,-0.105363966129931
0.59250017914391,-0.104907094304153
0.590839814814307,-0.104480123554758
0.58916782637423,-0.104082718767093
0.587484209795369,-0.10371454482651
0.585788961049411,-0.103375266618357
0.584082076108044,-0.103064549027985
0.582363550942957,-0.102782056940742
0.580633381525838,-0.102527455241979
0.578891563828375,-0.102300408817045
0.577138093822255,-0.102100582551289
0.575372967479169,-0.101927641330061
0.573596180770802,-0.101781250038712
0.571807729668845,-0.101661073562589
0.570007610144984,-0.101566776787044
0.568195818170908,-0.101498024597425
0.566372349718306,-0.101454481879083
0.564537200758865,-0.101435813517366
0.562690367264273,-0.101441684397625
0.560831845206219,-0.101471759405209
0.558961630556392,-0.101525703425468
0.557079719286478,-0.10160318134375
0.555186107368166,-0.101703858045407
0.553280790773146,-0.101827398415787
0.551363765473103,-0.10197346734024
0.549435027439728,-0.102141729704116
0.547494572644707,-0.102331850392764
0.54554239705973,-0.102543494291534
0.543578496656484,-0.102776326285775
0.541602867406658,-0.103030011260838
0.539615505281939,-0.103304214102071
0.537616406254016,-0.103598599694824
0.535605566294578,-0.103912832924448
0.533582981375311,-0.10424657867629
0.531548647467905,-0.104599501835702
0.529502560544048,-0.104971267288033
0.527444716575428,-0.105361539918632
0.525375111533732,-0.105769984612848
0.52329374139065,-0.106196266256032
0.521200602117869,-0.106640049733534
0.519095689687078,-0.107100999930702
0.516979000069964,-0.107578781732886
0.514850529238216,-0.108073060025436
0.512710273163522,-0.108583499693702
0.510558227817571,-0.109109765623033
0.508394389172049,-0.109651522698779
0.506218753198647,-0.110208435806289
0.504031315869051,-0.110780169830912
0.50183207315495,-0.111366389658
0.499621021028032,-0.1119667601729
0.497398155459986,-0.112580946260964
0.495163472422499,-0.113208612807539
0.49291696788726,-0.113849424697977
0.490658637825956,-0.114503046817626
0.488388478210277,-0.115169144051836
0.48610648501191,-0.115847381285957
0.483812654202543,-0.116537423405339
0.481506981753865,-0.11723893529533
0.479189463637563,-0.117951581841281
0.476860095825327,-0.118675027928541
0.474518874288843,-0.11940893844246
0.472165794999801,-0.120152978268387
0.469800853929888,-0.120906812291672
0.467424047050793,-0.121670105397665
0.465035370334204,-0.122442522471715
0.462634819751809,-0.123223728399172
0.460222391275296,-0.124013388065385
0.457798080876353,-0.124811166355704
0.455361884526669,-0.125616728155479
0.452913798197932,-0.126429738350058
0.450453817861829,-0.127249861824793
0.44798193949005,-0.128076763465032
0.445498159054281,-0.128910108156126
0.443002472526213,-0.129749560783422
0.440494875877531,-0.130594786232272
0.437975365079926,-0.131445449388025
0.435443936105085,-0.13230121513603
0.432900584924695,-0.133161748361638
0.430345307510446,-0.134026713950197
0.427778099834026,-0.134895776787057
0.425198957867122,-0.135768601757568
0.422607877581423,-0.136644853747079
0.420004854948618,-0.13752419764094
0.417389885940393,-0.138406298324502
0.414762966528438,-0.139290820683112
0.41212409268444,-0.140177429602121
0.409473260380088,-0.141065789966879
0.40681046558707,-0.141955566662735
0.404135704277075,-0.142846424575038
0.401448972421789,-0.143738028589139
0.398750265992902,-0.144630043590386
0.396039580962102,-0.14552213446413
0.393316913301076,-0.14641396609572
0.390582258981514,-0.147305203370506
0.387835613975102,-0.148195511173837
0.38507697425353,-0.149084554391063
0.382306335788486,-0.149971997907534
0.379523694551657,-0.150857506608598
0.376729046514733,-0.151740745379606
0.3739223876494,-0.152621379105908
0.371103713927348,-0.153499072672852
0.368273021320264,-0.154373490965789
0.365430305799836,-0.155244298870068
0.362575563337754,-0.156111161271039
0.359708789905704,-0.156973743054051
0.356829981475376,-0.157831709104454
0.353939134018457,-0.158684724307598
0.351036243506636,-0.159532453548831
0.3481213059116,-0.160374561713505
0.345194317205038,-0.161210713686967
0.342255273358638,-0.162040574354569
0.339304170344088,-0.162863808601659
0.336341004133077,-0.163680081313588
0.333365770697293,-0.164489057375704
0.330378466008423,-0.165290401673357
0.327379086038156,-0.166083779091898
0.324367626758181,-0.166868854516674
0.321344084140184,-0.167645292833038
0.318308454155855,-0.168412758926336
0.315260732776882,-0.169170917681921
0.312200915974953,-0.16991943398514
0.309128999721755,-0.170657972721344
0.306044979988978,-0.171386198775882
0.302948852748309,-0.172103777034103
0.299840613971437,-0.172810372381359
0.29672025963005,-0.173505649702997
0.293587785695835,-0.174189273884367
0.290443188140482,-0.17486090981082
0.287286462935678,-0.175520222367705
0.284117606053111,-0.176166876440371
0.28093661346447,-0.176800536914168
0.277743481141443,-0.177420868674446
0.274538205055718,-0.178027536606554
0.271320781178983,-0.178620205595842
0.268091205482926,-0.179198540527659
0.264849473939237,-0.179762206287355
0.261595582519601,-0.18031086776028
0.258329527195709,-0.180844189831783
0.255051303939247,-0.181361837387214
0.251760908721905,-0.181863475311922
0.248458337515371,-0.182348768491257
0.245143586291332,-0.182817381810569
0.241816651021476,-0.183268980155207
0.238477527677493,-0.183703228410521
0.23512621223107,-0.184119791461861
0.231762700653895,-0.184518334194575
0.228386988917657,-0.184898521494015
0.224999072994043,-0.185260018245528
0.221598948854742,-0.185602489334465
0.218186612471443,-0.185925599646176
0.214762059815832,-0.18622901406601
0.211325286859599,-0.186512397479317
0.207876289574432,-0.186775414771445
0.204415063932018,-0.187017730827746
0.200941605904046,-0.187239010533568
0.197455911462205,-0.187438918774262
0.193957976578181,-0.187617120435175
0.190447797223665,-0.18777328040166
0.186925369370342,-0.187907063559064
0.183390688989903,-0.188018134792738
0.179843752054035,-0.18810615898803
0.176284554534426,-0.188170801030292
0.172713092402764,-0.188211725804871
0.169129361630738,-0.188228598197119
0.165533358190035,-0.188221083092384
0.161925078052345,-0.188188845376017
0.158304517189354,-0.188131549933366
0.154671671572752,-0.188048861649781
0.151026537174227,-0.187940445410612
0.147369109965465,-0.187805966101209
0.143699385918157,-0.187645088606921
0.14001736100399,-0.187457477813098
0.136323031194652,-0.187242798605089
0.132616392461831,-0.187000715868244
0.128897440777216,-0.186730894487912
0.125166172112494,-0.186432999349444
0.121422582439355,-0.186106695338188
0.117666667729485,-0.185751647339495
0.113898423954574,-0.185367520238714
0.110117847086309,-0.184953978921194
0.106324933096379,-0.184510688272286
0.102519677956471,-0.184037313177338
0.0987020776382745,-0.183533518521701
0.0948721281134772,-0.182998969190723
0.091029825353767,-0.182433330069756
0.0871751653308325,-0.181836266044147
0.0833081440163615,-0.181207441999247
0.0794287573820425,-0.180546522820406
0.0755370013995634,-0.179853173392972
0.0716328720406127,-0.179127058602296
0.0677163652768782,-0.178367843333728
0.0637874770800484,-0.177575192472616
0.0598462034218113,-0.176748770904311
0.0558925402738552,-0.175888243514161
0.0519264836078681,-0.174993275187517
0.0479480293955384,-0.174063530809729
0.043957173608554,-0.173098675266145
0.0399539122186035,-0.172098373442116
0.0359382411973745,-0.17106229022299
0.0319101565165558,-0.169990090494119
0.0278696541478352,-0.16888143914085
0.023816730062901,-0.167736001048535
0.0197513802334412,-0.166553441102522
0.0156736006311443,-0.16533342418816
0.0115833872276982,-0.164075615190801
0.0074807359947912,-0.162779678995793
0.0033656429041114,-0.161445280488485
-0.000761896072652826,-0.160072084554229
-0.00490188496381355,-0.158659756078372
-0.00905432779768239,-0.157207959946265
-0.0132192286025714,-0.155716361043257
-0.017396591406792,-0.154184624254698
-0.0215864202386565,-0.152612414465937
-0.0257887191264763,-0.150999396562325
-0.0300034920985636,-0.14934523542921
-0.0342307431832298,-0.147649595951942
-0.0384704764087872,-0.145912143015872
-0.0427226958035472,-0.144132541506347
-0.0469874053958219,-0.142310456308719
-0.0512646092139228,-0.140445552308337
-0.0555543112861621,-0.13853749439055
-0.0598565156408514,-0.136585947440708
-0.0641712263063027,-0.13459057634416
-0.0684984473108275,-0.132551045986257
-0.072838182682738,-0.130467021252347
-0.0771904364503456,-0.128338167027781
-0.0815552126419626,-0.126164148197907
-0.0859325152859004,-0.123944629648076
-0.0903223484104711,-0.121679276263637
-0.0947247160439864,-0.11936775292994
-0.0991396222147582,-0.117009724532334
-0.103567070951098,-0.114604855956169
-0.108007066281318,-0.112152812086795
-0.11245961223373,-0.109653257809561
-0.116924712836646,-0.107105858009816
-0.121402372118377,-0.104510277572911
-0.125892594107236,-0.101866181384195
-0.130395382831533,-0.0991732343290171
-0.134910742319582,-0.0964311012927276
-0.139438676599694,-0.093639447160676
-0.14397918970018,-0.0907979368182116
-0.148532285649353,-0.0879062351506843
-0.153097968475524,-0.0849640070434435
-0.157676242207005,-0.0819709173818389
-0.162267110872108,-0.0789266310512201
-0.166870578499145,-0.0758308129369367
-0.171486649116427,-0.0726831279243382
-0.176115326752267,-0.0694832408987744
-0.180756615434976,-0.0662308167455947
-0.185410519192866,-0.0629255203501488
-0.190077042054249,-0.0595670165977863
-0.194756188047436,-0.0561549703738569
-0.199447961200741,-0.05268904656371
-0.204152365542473,-0.0491689100526954
-0.208869405100945,-0.0455942257261625
-0.21359908390447,-0.0419646584694612
-0.218341405981358,-0.0382798731679407
-0.223096375359922,-0.034539534706951
-0.227863996068473,-0.0307433079718414
-0.232644272135324,-0.0268908578479617
-0.237437207588785,-0.0229818492206613
-0.24224280645717,-0.0190159469752902
-0.247061072768789,-0.0149928159971976
-0.251892010551955,-0.0109121211717332
-0.256735623834979,-0.00677352738424661
-0.261591916646173,-0.0025766995200877
-0.266460893013849,0.00167869753539443
-0.271342556966319,0.0059929988968497
-0.276236912531895,0.0103665396789289
-0.281143963738888,0.014799654996282
-0.28606371461561,0.0192926799635599
-0.290996169190374,0.0238459496954125
-0.29594133149149,0.0284597993064906
-0.300899205547271,0.0331345639114442
-0.305869795386029,0.0378705786249242
-0.310853105036075,0.0426681785615805
-0.315849138525721,0.0475276988360639
-0.32085789988328,0.0524494745630244
-0.325879393137062,0.0574338408571128
-0.330913622315379,0.0624811328329792
-0.335960591446545,0.0675916856052742
-0.341020304558869,0.0727658342886479
-0.346092765680665,0.0780039139977511
-0.351177978840243,0.0833062598472339
-0.356275948065917,0.0886732069517469
-0.361386677385997,0.0941050904259401
-0.366510170828795,0.0996022453844644
-0.371646432422624,0.10516500694197
-0.376795466195795,0.110793710213107
-0.381957276176619,0.116488690312526
-0.387131866393409,0.122250282354878
-0.392319240874477,0.128078821454813
-0.397519403648134,0.133974642726981
-0.402732358742692,0.139938081286032
-0.407958110186463,0.145969472246618
-0.413196662007759,0.152069150723388
-0.418448018234892,0.158237451830993
-0.423712182896173,0.164474710684083
-0.428989160019914,0.170781262397309
-0.434278953634428,0.17715744208532
-0.439581567768025,0.183603584862769
-0.444897006449018,0.190120025844304
-0.450225273705718,0.196707100144576
-0.455566373566438,0.203365142878236
-0.460920310059489,0.210094489159934
-0.466287087213183,0.21689547410432
-0.471666709055832,0.223768432826045
-0.477059179615748,0.23071370043976
-0.482464502921242,0.237731612060114
-0.487882683000626,0.244822502801758
-0.493313723882212,0.251986707779342
-0.498757629594313,0.259224562107517
-0.504214404165239,0.266536400900934
-0.509684051623302,0.273922559274242
-0.515166575996815,0.281383372342092
-0.520661981314089,0.288919175219134
-0.526170271603437,0.296530303020019
-0.531691450893169,0.304217090859397
-0.537225523211598,0.311979873851919
-0.542772492587035,0.319818987112235
-0.548332363047793,0.327734765754995
-0.553905138622182,0.33572754489485
-0.559490823338516,0.343797659646451
-0.565089421225105,0.351945445124446
-0.570700936310262,0.360171236443488
-0.576325372622299,0.368475368718226
-0.581962734189527,0.376858177063311
-0.581962734189527,0.376858177063311
-0.587556196939632,0.385221068808727
-0.59304922896884,0.393465561006696
-0.598442272558275,0.401592153355217
-0.603735769989059,0.409601345552295
-0.608930163542314,0.417493637295931
-0.614025895499162,0.425269528284128
-0.619023408140727,0.432929518214887
-0.623923143748131,0.440474106786211
-0.628725544602497,0.447903793696102
-0.633431052984946,0.455219078642563
-0.638040111176602,0.462420461323595
-0.642553161458588,0.4695084414372
-0.646970646112025,0.476483518681383
-0.651293007418036,0.483346192754143
-0.655520687657744,0.490096963353483
-0.659654129112271,0.496736330177407
-0.66369377406274,0.503264792923915
-0.667640064790273,0.509682851291011
-0.671493443575993,0.515991004976696
-0.675254352701024,0.522189753678973
-0.678923234446485,0.528279597095844
-0.682500531093502,0.53426103492531
-0.685986684923195,0.540134566865375
-0.689382138216688,0.545900692614041
-0.692687333255104,0.55155991186931
-0.695902712319564,0.557112724329183
-0.699028717691191,0.562559629691664
-0.702065791651109,0.567901127654754
-0.705014376480439,0.573137717916456
-0.707874914460303,0.578269900174772
-0.710647847871825,0.583298174127704
-0.713333618996127,0.588223039473255
-0.715932670114332,0.593044995909427
-0.718445443507562,0.597764543134221
-0.720872381456939,0.60238218084564
-0.723213926243587,0.606898408741687
-0.725470520148627,0.611313726520363
-0.727642605453183,0.615628633879671
-0.729730624438376,0.619843630517613
-0.73173501938533,0.623959216132192
-0.733656232575167,0.627975890421409
-0.73549470628901,0.631894153083266
-0.73725088280798,0.635714503815767
-0.738925204413201,0.639437442316913
-0.740518113385795,0.643063468284706
-0.742030052006885,0.646593081417149
-0.743461462557592,0.650026781412244
-0.744812787319041,0.653365067967993
-0.746084468572353,0.656608440782398
-0.747276948598651,0.659757399553462
-0.748390669679057,0.662812443979186
-0.749426074094694,0.665774073757574
-0.750383604126684,0.668642788586628
-0.751263702056151,0.671419088164348
-0.752066810164216,0.674103472188738
-0.752793370732002,0.6766964403578
-0.753443826040632,0.679198492369537
-0.754018618371228,0.68161012792195
-0.754518190004913,0.683931846713041
-0.754942983222809,0.686164148440814
-0.755293440306039,0.688307532803269
-0.755570003535725,0.69036249949841
-0.75577311519299,0.692329548224238
-0.755903217558957,0.694209178678757
-0.755960752914748,0.696001890559967
-0.755946163541485,0.697708183565872
-0.755859891720291,0.699328557394473
-0.755702379732289,0.700863511743773
-0.755474069858601,0.702313546311774
-0.75517540438035,0.703679160796477
-0.754806825578658,0.704960854895887
-0.754368775734648,0.706159128308004
-0.753861697129443,0.707274480730831
-0.753286032044164,0.70830741186237
-0.752642222759935,0.709258421400623
-0.751930711557878,0.710128009043593
-0.751151940719115,0.710916674489283
-0.75030635252477,0.711624917435692
-0.749394389255963,0.712253237580825
-0.74841649319382,0.712802134622684
-0.747373106619461,0.713272108259271
-0.746264671814009,0.713663658188587
-0.745091631058587,0.713977284108635
-0.743854426634318,0.714213485717418
-0.742553500822323,0.714372762712938
-0.741189295903726,0.714455614793197
-0.739762254159648,0.714462541656196
-0.738272817871214,0.714394042999939
-0.736721429319545,0.714250618522428
-0.735108530785763,0.714032767921664
-0.733434564550991,0.713740990895651
-0.731699972896352,0.71337578714239
-0.729905198102968,0.712937656359883
-0.728050682451962,0.712427098246133
-0.726136868224457,0.711844612499142
-0.724164197701574,0.711190698816912
-0.722133113164438,0.710465856897446
-0.720044056894168,0.709670586438745
-0.71789747117189,0.708805387138812
-0.715693798278724,0.707870758695649
-0.713433480495794,0.706867200807259
-0.711116960104223,0.705795213171643
-0.708744679385132,0.704655295486804
-0.706317080619644,0.703447947450744
-0.703834606088882,0.702173668761465
-0.701297698073969,0.70083295911697
-0.698706798856026,0.699426318215261
-0.696062350716177,0.697954245754339
-0.693364795935544,0.696417241432208
-0.690614576795249,0.694815804946869
-0.687812135576416,0.693150435996325
-0.684957914560166,0.691421634278577
-0.682052356027622,0.689629899491629
-0.679095902259907,0.687775731333482
-0.676088995538144,0.685859629502139
-0.673032078143454,0.683882093695602
-0.66992559235696,0.681843623611873
-0.666769980459786,0.679744718948953
-0.663565684733052,0.677585879404846
-0.660313147457883,0.675367604677555
-0.657012810915401,0.67309039446508
-0.653665117386727,0.670754748465424
-0.650270509152985,0.66836116637659
-0.646829428495297,0.665910147896579
-0.643342317694787,0.663402192723395
-0.639809619032575,0.660837800555038
-0.636231774789785,0.658217471089511
-0.632609227247539,0.655541704024818
-0.628942418686961,0.652810999058959
-0.625231791389171,0.650025855889937
-0.621477787635294,0.647186774215754
-0.617680849706451,0.644294253734414
-0.613841419883766,0.641348794143916
-0.60995994044836,0.638350895142265
-0.606036853681356,0.635301056427461
-0.602072601863877,0.632199777697509
-0.598067627277045,0.629047558650409
-0.594022372201983,0.625844898984164
-0.589937278919813,0.622592298396775
-0.585812789711658,0.619290256586247
-0.581649346858641,0.61593927325058
-0.577447392641883,0.612539848087776
-0.573207369342508,0.609092480795839
-0.568929719241639,0.60559767107277
-0.564614884620397,0.602055918616571
-0.560263307759905,0.598467723125246
-0.555875430941285,0.594833584296795
-0.551451696445661,0.591154001829221
-0.546992546554155,0.587429475420527
-0.542498423547889,0.583660504768714
-0.537969769707986,0.579847589571786
-0.533407027315569,0.575991229527743
-0.528810638651759,0.572091924334589
-0.52418104599768,0.568150173690325
-0.519518691634454,0.564166477292954
-0.514824017843204,0.560141334840479
-0.510097466905052,0.5560752460309
-0.50533948110112,0.551968710562221
-0.500550502712532,0.547822228132444
-0.49573097402041,0.543636298439571
-0.490881337305876,0.539411421181604
-0.486002034850053,0.535148096056545
-0.481093508934063,0.530846822762397
-0.476156201839029,0.526508100997162
-0.471190555846074,0.522132430458842
-0.46619701323632,0.517720310845439
-0.461176016290889,0.513272241854956
-0.456128007290905,0.508788723185395
-0.45105342851749,0.504270254534758
-0.445952722251765,0.499717335601047
-0.440826330774854,0.495130466082264
-0.43567469636788,0.490510145676413
-0.430498261311965,0.485856874081494
-0.425297467888231,0.48117115099551
-0.420072758377801,0.476453476116464
-0.414824575061797,0.471704349142358
-0.409553360221343,0.466924269771193
-0.40425955613756,0.462113737700973
-0.398943605091572,0.457273252629699
-0.3936059493645,0.452403314255373
-0.388247031237467,0.447504422275999
-0.382867292991596,0.442577076389577
-0.37746717690801,0.43762177629411
-0.37204712526783,0.432639021687601
-0.36660758035218,0.427629312268052
-0.361148984442182,0.422593147733465
-0.355671779818958,0.417531027781842
-0.350176408763631,0.412443452111186
-0.344663313557324,0.407330920419498
-0.339132936481159,0.40219393240478
-0.333585719816259,0.397032987765036
-0.328022105843746,0.391848586198268
-0.322442536844743,0.386641227402477
-0.316847455100372,0.381411411075666
-0.311237302891756,0.376159636915837
-0.305612522500018,0.370886404620992
-0.299973556206279,0.365592213889133
-0.294320846291663,0.360277564418264
-0.288654835037292,0.354942955906385
-0.282975964724289,0.3495888880515
-0.277284677633775,0.344215860551609
-0.271581416046875,0.338824373104717
-0.26586662224471,0.333414925408824
-0.260140738508402,0.327988017161934
-0.254404207119075,0.322544148062048
-0.248657470357851,0.317083817807169
-0.242900970505852,0.311607526095298
-0.237135149844201,0.306115772624438
-0.231360450654021,0.300609057092592
-0.225577315216433,0.295087879197761
-0.219786185812562,0.289552738637948
-0.213987504723528,0.284004135111155
-0.208181714230455,0.278442568315384
-0.202369256614465,0.272868537948637
-0.196550574156681,0.267282543708917
-0.190726109138226,0.261685085294226
-0.184896303840221,0.256076662402566
-0.17906160054379,0.25045777473194
-0.173222441530055,0.244828921980349
-0.167379269080138,0.239190603845796
-0.161532525475162,0.233543320026283
-0.15568265299625,0.227887570219812
-0.149830093924524,0.222223854124385
-0.143975290541107,0.216552671438006
-0.138118685127121,0.210874521858675
-0.132260719963689,0.205189905084396
-0.126401837331932,0.19949932081317
-0.120542479512976,0.193803268742999
-0.11468308878794,0.188102248571887
-0.108824107437948,0.182396759997834
-0.102965977744123,0.176687302718844
-0.0971091419875867,0.170974376432919
-0.0912540424494619,0.16525848083806
-0.0854011214108718,0.159540115632271
-0.0795508211529379,0.153819780513552
-0.0737035839567834,0.148097975179908
-0.0678598521035305,0.142375199329338
-0.0620200678743023,0.136651952659847
-0.0561846735502206,0.130928734869436
-0.0503541114124086,0.125206045656108
-0.0445288237419883,0.119484384717864
-0.0387092528200827,0.113764251752707
-0.0328958409278139,0.108046146458639
-0.0270890303463051,0.102330568533662
-0.021289263356678,0.0966180176757794
-0.0154969822400559,0.0909089935829925
-0.00971262927756078,0.0852039959533032
-0.00393664675031569,0.0795035244847145
0.00183052306055737,0.0738080788752281
0.00758843787393526,0.0681181588228466
0.0133366554086961,0.0624342640255718
0.0190747333837166,0.0567568941814064
0.0248022295178749,0.0510865489883524
0.030518701530048,0.0454237281444121
0.0362237071391136,0.0397689313475875
0.0419168040639489,0.0341226582958812
0.0475975500234318,0.0284854086872951
0.0532655027364392,0.0228576822198317
0.058920219921849,0.017239978591493
0.0645612592985384,0.0116327975002815
0.0701881785853851,0.00603663864419898
0.0758005355012661,0.000452001721248346
0.0813978877650595,-0.00512061357056895
0.0869797930956421,-0.01068070753325
0.0925458092118919,-0.016227780468793
0.0980954938326859,-0.0217613326791954
0.103628404676902,-0.0272808644664554
0.109144099463417,-0.0327858761325703
0.114642135911109,-0.0382758679795383
0.120122071738856,-0.0437503403093567
0.125583464665534,-0.0492087934240237
0.131025872410021,-0.0546507276255368
0.136448852691195,-0.060075643215894
0.141851963227932,-0.0654830404970927
0.147234761739112,-0.0708724197711312
0.15259680594361,-0.0762432813400067
0.157937653560305,-0.0815951255057175
0.163256862308073,-0.0869274525702608
0.168553989905793,-0.092239762835635
0.173828594072342,-0.0975315566038372
0.179080232526597,-0.102802334176866
0.184308462987435,-0.108051595856718
0.189512843173735,-0.113278841945392
0.194692930804373,-0.118483572744886
0.199848283598228,-0.123665288557196
0.204978459274176,-0.128823489684322
0.210083015551095,-0.13395767642826
0.215161510147862,-0.139067349091009
0.220213500783355,-0.144152007974566
0.225238545176452,-0.149211153380929
0.230236201046029,-0.154244285612097
0.235206026110965,-0.159250904970065
0.240147578090136,-0.164230511756833
0.24506041470242,-0.169182606274398
0.249944093666695,-0.174106688824758
0.254798172701838,-0.17900225970991
0.259622209526727,-0.183868819231853
0.264415761860239,-0.188705867692584
0.269178387421251,-0.193512905394102
0.27390964392864,-0.198289432638403
0.278609089101286,-0.203034949727485
0.283276280658064,-0.207748956963346
0.287910776317852,-0.212430954647985
0.292512133799528,-0.217080443083399
0.297079910821969,-0.221696922571585
0.301613665104053,-0.226279893414541
0.306112954364657,-0.230828855914266
0.310577336322658,-0.235343310372756
0.315006368696934,-0.23982275709201
0.319399609206363,-0.244266696374026
0.323756615569821,-0.248674628520801
0.328076945506187,-0.253046053834332
0.332360156734338,-0.257380472616619
0.336605806973151,-0.261677385169657
0.340813453941504,-0.265936291795447
0.344982655358273,-0.270156692795984
0.349112968942338,-0.274338088473267
0.353203952412574,-0.278479979129293
0.35725516348786,-0.282581865066061
0.361266159887073,-0.286643246585569
0.365236499329091,-0.290663623989813
0.36916573953279,-0.294642497580791
0.373053438217049,-0.298579367660502
0.376899153100744,-0.302473734530943
0.380702441902754,-0.306325098494113
0.384462862341955,-0.310132959852007
0.388179972137226,-0.313896818906626
0.391853329007443,-0.317616175959966
0.395482490671485,-0.321290531314024
0.399067014848227,-0.3249193852708
0.402606459256549,-0.32850223813229
0.406100381615327,-0.332038590200492
0.40954833964344,-0.335527941777405
0.412949891059763,-0.338969793165026
0.416304593583175,-0.342363644665352
0.419612004932554,-0.345708996580381
0.422871682826776,-0.349005349212112
0.426083184984719,-0.352252202862542
0.429246069125261,-0.355449057833668
0.432359892967279,-0.358595414427489
0.435424214229651,-0.361690772946003
0.438438590631254,-0.364734633691206
0.441402579890965,-0.367726496965097
0.444315739727662,-0.370665863069673
0.447177627860222,-0.373552232306934
0.449987802007523,-0.376385104978875
0.452745819888442,-0.379163981387495
0.455451239221857,-0.381888361834791
0.458103617726646,-0.384557746622762
0.460702513121684,-0.387171636053406
0.463247483125852,-0.389729530428719
0.465738085458024,-0.3922309300507
0.468173877837079,-0.394675335221347
0.470554417981895,-0.397062246242656
0.472879263611349,-0.399391163416627
0.475147972444318,-0.401661587045257
0.47736010219968,-0.403873017430543
0.479515210596312,-0.406024954874484
0.481612855353092,-0.408116899679076
0.483652594188897,-0.410148352146319
0.485633984822605,-0.412118812578209
0.487556584973093,-0.414027781276745
0.489419952359238,-0.415874758543924
0.491223644699919,-0.417659244681743
0.492967219714011,-0.419380739992202
0.494650235120394,-0.421038744777297
0.496272248637944,-0.422632759339026
0.497832817985539,-0.424162283979388
0.499331500882056,-0.425626819000379
0.500767855046373,-0.427025864703998
0.502141438197367,-0.428358921392242
0.503451808053916,-0.429625489367109
0.504698522334896,-0.430825068930597
0.505881138759187,-0.431957160384704
0.506999215045664,-0.433021264031427
0.508052308913206,-0.434016880172765
0.509039978080689,-0.434943509110714
0.509961780266992,-0.435800651147273
0.510817273190992,-0.43658780658444
0.511606014571566,-0.437304475724211
0.512327562127592,-0.437950158868586
0.512981473577947,-0.438524356319562
0.513567306641509,-0.439026568379136
0.514084619037154,-0.439456295349307
0.514532968483762,-0.439813037532072
0.514911912700208,-0.440096295229429
0.515221009405371,-0.440305568743375
0.515459816318127,-0.440440358375909
0.515627891157355,-0.440500164429028
0.515724791641932,-0.44048448720473
0.515750075490735,-0.440392827005012
0.515703300422642,-0.440224684131873
0.51558402415653,-0.439979558887311
0.515391804411276,-0.439656951573322
0.515126198905759,-0.439256362491906
0.514786765358855,-0.438777291945059
0.514373061489443,-0.438219240234779
0.513884645016398,-0.437581707663064
0.5133210736586,-0.436864194531912
0.5133210736586,-0.436864194531912
0.512707322715543,-0.436098123833649
0.512068762824603,-0.435315350331218
0.511405544711478,-0.43451602198254
0.510717819101865,-0.433700286745539
0.510005736721461,-0.432868292578138
0.509269448295963,-0.432020187438258
0.50850910455107,-0.431156119283823
0.507724856212479,-0.430276236072756
0.506916854005886,-0.429380685762978
0.50608524865699,-0.428469616312413
0.505230190891487,-0.427543175678983
0.504351831435076,-0.426601511820611
0.503450321013454,-0.42564477269522
0.502525810352317,-0.424673106260732
0.501578450177364,-0.423686660475069
0.500608391214291,-0.422685583296155
0.499615784188797,-0.421670022681913
0.498600779826579,-0.420640126590264
0.497563528853333,-0.419596042979132
0.496504181994758,-0.418537919806438
0.495422889976551,-0.417465905030107
0.49431980352441,-0.41638014660806
0.49319507336403,-0.41528079249822
0.492048850221112,-0.41416799065851
0.49088128482135,-0.413041889046852
0.489692527890443,-0.411902635621169
0.488482730154089,-0.410750378339384
0.487252042337985,-0.40958526515942
0.486000615167828,-0.408407444039198
0.484728599369315,-0.407217062936642
0.483436145668144,-0.406014269809674
0.482123404790013,-0.404799212616218
0.480790527460618,-0.403572039314194
0.479437664405657,-0.402332897861528
0.478064966350829,-0.40108193621614
0.476672584021829,-0.399819302335953
0.475260668144356,-0.398545144178891
0.473829369444106,-0.397259609702876
0.472378838646778,-0.39596284686583
0.470909226478068,-0.394655003625677
0.469420683663675,-0.393336227940338
0.467913360929294,-0.392006667767737
0.466387409000625,-0.390666471065796
0.464842978603364,-0.389315785792438
0.463280220463209,-0.387954759905586
0.461699285305857,-0.386583541363161
0.460100323857005,-0.385202278123087
0.458483486842352,-0.383811118143287
0.456848924987593,-0.382410209381683
0.455196789018428,-0.380999699796197
0.453527229660552,-0.379579737344753
0.451840397639665,-0.378150469985273
0.450136443681462,-0.376712045675679
0.448415518511641,-0.375264612373895
0.4466777728559,-0.373808318037843
0.444923357439937,-0.372343310625446
0.443152422989448,-0.370869738094625
0.441365120230131,-0.369387748403305
0.439561599887684,-0.367897489509408
0.437742012687803,-0.366399109370855
0.435906509356187,-0.364892755945571
0.434055240618532,-0.363378577191477
0.432188357200536,-0.361856721066496
0.430306009827897,-0.360327335528552
0.428408349226312,-0.358790568535566
0.426495526121478,-0.35724656804546
0.424567691239093,-0.355695482016159
0.422624995304854,-0.354137458405585
0.420667589044458,-0.352572645171659
0.418695623183604,-0.351001190272305
0.416709248447987,-0.349423241665446
0.414708615563307,-0.347838947309004
0.412693875255259,-0.346248455160901
0.410665178249542,-0.344651913179061
0.408622675271853,-0.343049469321406
0.40656651704789,-0.341441271545859
0.404496854303349,-0.339827467810342
0.402413837763929,-0.338208206072778
0.400317618155326,-0.33658363429109
0.398208346203238,-0.3349539004232
0.396086172633363,-0.333319152427031
0.393951248171397,-0.331679538260506
0.391803723543039,-0.330035205881547
0.389643749473985,-0.328386303248077
0.387471476689934,-0.326732978318019
0.385287055916582,-0.325075379049295
0.383090637879626,-0.323413653399827
0.380882373304765,-0.32174794932754
0.378662412917696,-0.320078414790354
0.376430907444116,-0.318405197746194
0.374188007609723,-0.316728446152981
0.371933864140213,-0.315048307968638
0.369668627761285,-0.313364931151088
0.367392449198635,-0.311678463658253
0.365105479177962,-0.309989053448057
0.362807868424962,-0.308296848478421
0.360499767665333,-0.306601996707269
0.358181327624773,-0.304904646092523
0.355852699028978,-0.303204944592105
0.353514032603647,-0.301503040163939
0.351165479074476,-0.299799080765947
0.348807189167164,-0.298093214356052
0.346439313607406,-0.296385588892176
0.344062003120902,-0.294676352332242
0.341675408433348,-0.292965652634173
0.339279680270441,-0.291253637755891
0.33687496935788,-0.289540455655319
0.334461426421361,-0.28782625429038
0.332039202186582,-0.286111181618996
0.32960844737924,-0.28439538559909
0.327169312725033,-0.282679014188584
0.324721948949658,-0.280962215345402
0.322266506778813,-0.279245137027466
0.319803136938194,-0.277527927192698
0.3173319901535,-0.275810733799021
0.314853217150428,-0.274093704804358
0.312366968654675,-0.272376988166632
0.309873395391938,-0.270660731843765
0.307372648087916,-0.26894508379368
0.304864877468304,-0.267230191974299
0.302350234258802,-0.265516204343545
0.299828869185106,-0.263803268859341
0.297300932972913,-0.26209153347961
0.294766576347922,-0.260381146162273
0.292225950035829,-0.258672254865255
0.289679204762332,-0.256965007546476
0.287126491253128,-0.255259552163861
0.284567960233915,-0.253556036675331
0.282003762430389,-0.25185460903881
0.27943404856825,-0.25015541721222
0.276858969373193,-0.248458609153483
0.274278675570916,-0.246764332820523
0.271693317887118,-0.245072736171262
0.269103047047494,-0.243383967163622
0.266508013777743,-0.241698173755527
0.263908368803562,-0.240015503904898
0.261304262850648,-0.238336105569659
0.258695846644699,-0.236660126707733
0.256083270911412,-0.234987715277041
0.253466686376485,-0.233319019235507
0.250846243765614,-0.231654186541053
0.248222093804499,-0.229993365151601
0.245594387218834,-0.228336703025075
0.24296327473432,-0.226684348119398
0.240328907076651,-0.225036448392491
0.237691434971527,-0.223393151802278
0.235051009144644,-0.22175460630668
0.232407780321701,-0.220120959863622
0.229761899228393,-0.218492360431025
0.227113516590419,-0.216868955966812
0.224462783133476,-0.215250894428906
0.221809849583262,-0.213638323775229
0.219154866665474,-0.212031391963704
0.216497985105808,-0.210430246952254
0.213839355629964,-0.208835036698801
0.211179128963638,-0.207245909161268
0.208517455832527,-0.205663012297578
0.205854486962329,-0.204086494065653
0.203190373078742,-0.202516502423416
0.200525264907462,-0.200953185328789
0.197859313174188,-0.199396690739696
0.195192668604616,-0.197847166614059
0.192525481924444,-0.1963047609098
0.189857903859369,-0.194769621584843
0.18719008513509,-0.193241896597109
0.184522176477302,-0.191721733904522
0.181854328611704,-0.190209281465004
0.179186692263994,-0.188704687236478
0.176519418159867,-0.187208099176867
0.173852657025023,-0.185719665244092
0.171186559585158,-0.184239533396078
0.168521276565969,-0.182767851590745
0.165856958693155,-0.181304767786018
0.163193756692412,-0.179850429939819
0.160531821289438,-0.17840498601007
0.15787130320993,-0.176968583954694
0.155212353179586,-0.175541371731614
0.152555121924104,-0.174123497298752
0.149899760169179,-0.172715108614031
0.147246418640511,-0.171316353635374
0.144595248063796,-0.169927380320703
0.141946399164732,-0.168548336627941
0.139300022669016,-0.167179370515011
0.136656269302345,-0.165820629939835
0.134015289790418,-0.164472262860336
0.131377234858931,-0.163134417234437
0.128742255233582,-0.16180724102006
0.126110501640068,-0.160490882175127
0.123482124804087,-0.159185488657563
0.120857275451335,-0.157891208425288
0.118236104307512,-0.156608189436227
0.115618762098313,-0.1553365796483
0.113005399549436,-0.154076527019433
0.110396167386579,-0.152828179507545
0.107791216335439,-0.151591685070562
0.105190697121714,-0.150367191666404
0.1025947604711,-0.149154847252995
0.100003557109296,-0.147954799788258
0.0974172377619988,-0.146767197230115
0.0948359531549056,-0.145592187536488
0.0922598540137138,-0.144429918665301
0.0896890910641212,-0.143280538574476
0.0871238150318247,-0.142144195221935
0.0845641766425222,-0.141021036565602
0.0820103266219107,-0.139911210563399
0.079462415695688,-0.138814865173249
0.0769205945895511,-0.137732148353074
0.0743850140291978,-0.136663208060797
0.0718558247403252,-0.13560819225434
0.0693331774486309,-0.134567248891627
0.0668172228798121,-0.13354052593058
0.0643081117595665,-0.132528171329121
0.0618059948135913,-0.131530333045173
0.0593110227675841,-0.13054715903666
0.056823346347242,-0.129578797261503
0.0543431162782627,-0.128625395677625
0.0518704832863434,-0.127687102242949
0.0494055980971818,-0.126764064915397
0.0469486114364749,-0.125856431652893
0.0444996740299205,-0.124964350413358
0.0420589366032157,-0.124087969154716
0.0396265498820581,-0.123227435834889
0.037202664592145,-0.1223828984118
0.034787431459174,-0.121554504843371
0.0323810012088422,-0.120742403087525
0.0299835245668474,-0.119946741102185
0.0275951522588866,-0.119167666845274
0.0252160350106575,-0.118405328274713
0.0228463235478574,-0.117659873348426
0.0204861685961837,-0.116931450024336
0.0181357208813338,-0.116220206260364
0.0157951311290052,-0.115526290014434
0.0134645500648952,-0.114849849244468
0.0111441284147013,-0.11419103190839
0.00883401690412078,-0.113549985964121
0.00653436625885126,-0.112926859369584
0.00424532720458992,-0.112321800082702
0.00196705046703434,-0.111734956061397
-0.000300313228118188,-0.111166475263593
-0.00255661315517013,-0.110616505647212
-0.00480169858842426,-0.110085195170176
-0.00703541880218295,-0.109572691790409
-0.00925762307074898,-0.109079143465832
-0.0114681606684248,-0.108604698154369
-0.0136668808695131,-0.108149503813942
-0.0158536329483164,-0.107713708402473
-0.0180282661791374,-0.107297459877886
-0.0201906298362785,-0.106900906198104
-0.0223405731940425,-0.106524195321048
-0.0244779455267318,-0.106167475204641
-0.0266025961086492,-0.105830893806806
-0.028714374214097,-0.105514599085467
-0.0308131291173782,-0.105218738998544
-0.0328987100927949,-0.104943461503962
-0.0349709664146502,-0.104688914559642
-0.0370297473572462,-0.104455246123507
-0.0390749021948859,-0.104242604153481
-0.0411062802018716,-0.104051136607485
-0.0431237306525062,-0.103880991443443
-0.0451271028210919,-0.103732316619276
-0.0471162459819316,-0.103605260092908
-0.0490910094093277,-0.103499969822261
-0.051051242377583,-0.103416593765258
-0.0529967941609998,-0.103355279879822
-0.054927514033881,-0.103316176123875
-0.056843251270529,-0.10329943045534
-0.0587438551452465,-0.103305190832139
-0.0606291749323359,-0.103333605212195
-0.0624990599061,-0.103384821553432
-0.0643533593408412,-0.10345898781377
-0.0661919225108624,-0.103556251951134
-0.0680145986904658,-0.103676761923446
-0.0698212371539543,-0.103820665688628
-0.0716116871756302,-0.103988111204603
-0.0733857980297965,-0.104179246429294
-0.0751434189907554,-0.104394219320623
-0.0768843993328097,-0.104633177836514
-0.0786085883302619,-0.104896269934888
-0.0803158352574146,-0.105183643573668
-0.0820059893885705,-0.105495446710777
-0.083678899998032,-0.105831827304139
-0.0853344163601019,-0.106192933311674
-0.0869723877490827,-0.106578912691306
-0.0885926634392768,-0.106989913400958
-0.0901950927049872,-0.107426083398552
-0.0917795248205161,-0.107887570642012
-0.0933458090601663,-0.108374523089258
-0.0948937946982403,-0.108887088698215
-0.0964233310090408,-0.109425415426805
-0.0979342672668703,-0.109989651232951
-0.0994264527460315,-0.110579944074574
-0.100899736720827,-0.111196441909599
-0.102353968465559,-0.111839292695947
-0.10378899725453,-0.112508644391541
-0.105204672362044,-0.113204644954304
-0.106600843062402,-0.113927442342158
-0.107977358629907,-0.114677184513027
-0.109334068338862,-0.115454019424832
-0.110670821463569,-0.116258095035497
-0.111987467278331,-0.117089559302943
-0.113283855057451,-0.117948560185095
-0.114559834075231,-0.118835245639874
-0.115815253605974,-0.119749763625203
-0.117049962923981,-0.120692262099004
-0.118263811303557,-0.121662889019201
-0.119456648019003,-0.122661792343716
-0.120628322344623,-0.123689120030472
-0.121778683554717,-0.124745020037391
-0.122907580923591,-0.125829640322396
-0.124014863725545,-0.126943128843409
-0.125100381234882,-0.128085633558354
-0.126163982725905,-0.129257302425152
-0.127205517472918,-0.130458283401728
-0.128224834750221,-0.131688724446002
-0.129221783832118,-0.132948773515899
-0.130196213992911,-0.134238578569339
-0.131147974506904,-0.135558287564247
-0.132076914648398,-0.136908048458545
-0.132982883691696,-0.138288009210156
-0.133865730911101,-0.139698317777001
-0.134725305580915,-0.141139122117004
-0.135561456975441,-0.142610570188088
-0.136374034368982,-0.144112809948175
-0.137162887035839,-0.145645989355188
-0.137927864250317,-0.147210256367049
-0.138668815286716,-0.148805758941681
-0.139385589419341,-0.150432645037007
-0.140078035922493,-0.152091062610949
-0.140746004070475,-0.15378115962143
-0.14138934313759,-0.155503084026373
-0.14200790239814,-0.1572569837837
-0.142601531126428,-0.159043006851334
-0.143170078596756,-0.160861301187198
-0.143713394083427,-0.162712014749214
-0.144231326860744,-0.164595295495305
-0.144723726203009,-0.166511291383394
-0.145190441384525,-0.168460150371403
-0.145631321679594,-0.170442020417254
-0.14604621636252,-0.172457049478872
-0.146434974707603,-0.174505385514177
-0.146797445989148,-0.176587176481094
-0.147133479481457,-0.178702570337544
-0.147442924458832,-0.18085171504145
-0.147725630195576,-0.183034758550735
-0.147981445965991,-0.185251848823321
-0.148210221044381,-0.187503133817132
-0.148411804705047,-0.189788761490089
-0.148586046222293,-0.192108879800116
-0.14873279487042,-0.194463636705135
-0.148851899923732,-0.196853180163069
-0.148943210656531,-0.19927765813184
-0.149006576343119,-0.201737218569371
-0.1490418462578,-0.204232009433585
-0.149048869674876,-0.206762178682404
-0.149027495868649,-0.209327874273751
-0.148977574113422,-0.211929244165549
-0.148898953683497,-0.21456643631572
-0.148791483853178,-0.217239598682187
-0.148655013896767,-0.219948879222873
-0.148489393088566,-0.2226944258957
-0.148294470702878,-0.225476386658591
-0.148070096014005,-0.228294909469468
-0.147816118296251,-0.231150142286255
-0.147532386823917,-0.234042233066873
-0.147218750871307,-0.236971329769247
-0.146875059712722,-0.239937580351297
-0.146501162622467,-0.242941132770947
-0.146096908874842,-0.24598213498612
-0.145662147744151,-0.249060734954738
-0.145196728504696,-0.252177080634724
-0.14470050043078,-0.255331319984
-0.144173312796705,-0.258523600960489
-0.143615014876775,-0.261754071522114
-0.143025455945291,-0.265022879626798
-0.142404485276557,-0.268330173232463
-0.141751952144874,-0.271676100297031
-0.141067705824546,-0.275060808778426
-0.140351595589874,-0.278484446634569
-0.139603470715163,-0.281947161823385
-0.138823180474713,-0.285449102302794
-0.138010574142828,-0.288990416030721
-0.137165500993811,-0.292571250965088
-0.136287810301963,-0.296191755063817
-0.135377351341589,-0.29985207628483
-0.134433973386989,-0.303552362586052
-0.133457525712467,-0.307292761925403
-0.132447857592325,-0.311073422260808
-0.131404818300866,-0.314894491550188
-0.130328257112393,-0.318756117751466
-0.129218023301208,-0.322658448822565
-0.128073966141613,-0.326601632721408
-0.126895934907912,-0.330585817405917
-0.125683778874407,-0.334611150834015
-0.1244373473154,-0.338677780963624
-0.123156489505194,-0.342785855752667
-0.121841054718092,-0.346935523159067
-0.120490892228396,-0.351126931140747
-0.119105851310409,-0.355360227655629
-0.117685781238433,-0.359635560661635
