-0.778084364801057,-0.918819206406608
-0.773208032460103,-0.918004709192049
-0.7683587306392,-0.91717583654233
-0.763536373007547,-0.916332700485141
-0.758740873234344,-0.915475413048177
-0.753972144988789,-0.914604086259129
-0.749230101940081,-0.91371883214569
-0.74451465775742,-0.912819762735551
-0.739825726110004,-0.911906990056406
-0.735163220667033,-0.910980626135946
-0.730527055097704,-0.910040783001865
-0.725917143071218,-0.909087572681853
-0.721333398256774,-0.908121107203604
-0.71677573432357,-0.90714149859481
-0.712244064940805,-0.906148858883164
-0.707738303777678,-0.905143300096357
-0.703258364503389,-0.904124934262082
-0.698804160787137,-0.903093873408032
-0.694375606298119,-0.902050229561898
-0.689972614705536,-0.900994114751373
-0.685595099678586,-0.89992564100415
-0.681242974886469,-0.898844920347921
-0.676916153998383,-0.897752064810378
-0.672614550683527,-0.896647186419213
-0.6683380786111,-0.895530397202119
-0.664086651450302,-0.894401809186788
-0.659860182870332,-0.893261534400912
-0.655658586540387,-0.892109684872185
-0.651481776129668,-0.890946372628298
-0.647329665307373,-0.889771709696943
-0.643202167742702,-0.888585808105813
-0.639099197104853,-0.8873887798826
-0.635020667063025,-0.886180737054997
-0.630966491286418,-0.884961791650697
-0.62693658344423,-0.88373205569739
-0.62293085720566,-0.882491641222769
-0.618949226239908,-0.881240660254528
-0.614991604216172,-0.879979224820359
-0.611057904803651,-0.878707446947952
-0.607148041671545,-0.877425438665002
-0.603261928489052,-0.876133311999201
-0.599399478925371,-0.87483117897824
-0.595560606649702,-0.873519151629812
-0.591745225331243,-0.872197341981609
-0.587953248639194,-0.870865862061325
-0.584184590242752,-0.86952482389665
-0.580439163811118,-0.868174339515278
-0.576716883013491,-0.8668145209449
-0.573017661519069,-0.86544548021321
-0.569341412997051,-0.8640673293479
-0.565688051116636,-0.862680180376661
-0.562057489547024,-0.861284145327186
-0.558449641957413,-0.859879336227168
-0.554864422017003,-0.858465865104299
-0.551301743394991,-0.857043843986271
-0.547761519760579,-0.855613384900777
-0.544243664782963,-0.854174599875508
-0.540748092131344,-0.852727600938159
-0.53727471547492,-0.851272500116419
-0.533823448482891,-0.849809409437982
-0.530394204824455,-0.848338440930541
-0.526986898168811,-0.846859706621788
-0.523601442185158,-0.845373318539415
-0.520237750542696,-0.843879388711113
-0.516895736910624,-0.842378029164577
-0.513575314958139,-0.840869351927498
-0.510276398354442,-0.839353469027568
-0.506998900768731,-0.83783049249248
-0.503742735870206,-0.836300534349926
-0.500507817328065,-0.834763706627599
-0.497294058811507,-0.83322012135319
-0.494101373989732,-0.831669890554393
-0.490929676531938,-0.830113126258899
-0.487778880107324,-0.828549940494401
-0.484648898385089,-0.826980445288591
-0.481539645034433,-0.825404752669161
-0.478451033724555,-0.823822974663805
-0.475382978124653,-0.822235223300214
-0.472335391903925,-0.82064161060608
-0.469308188731573,-0.819042248609096
-0.466301282276793,-0.817437249336955
-0.463314586208787,-0.815826724817348
-0.460348014196751,-0.814210787077968
-0.457401479909885,-0.812589548146508
-0.45447489701739,-0.810963120050659
-0.451568179188462,-0.809331614818115
-0.448681240092302,-0.807695144476566
-0.445813993398108,-0.806053821053706
-0.442966352775079,-0.804407756577228
-0.440138231892415,-0.802757063074823
-0.437329544419314,-0.801101852574183
-0.434540204024975,-0.799442237103002
-0.431770124378598,-0.797778328688971
-0.429019219149381,-0.796110239359784
-0.426287402006524,-0.794438081143131
-0.423574586619224,-0.792761966066705
-0.420880686656683,-0.7910820061582
-0.418205615788097,-0.789398313445307
-0.415549287682667,-0.787710999955718
-0.412911616009591,-0.786020177717126
-0.410292514438069,-0.784325958757224
-0.407691896637298,-0.782628455103703
-0.405109676276479,-0.780927778784256
-0.402545767024811,-0.779224041826575
-0.400000082551492,-0.777517356258353
-0.397472536525721,-0.775807834107282
-0.394963042616698,-0.774095587401054
-0.39247151449362,-0.772380728167361
-0.389997865825689,-0.770663368433897
-0.387542010282101,-0.768943620228354
-0.385103861532057,-0.767221595578423
-0.382683333244755,-0.765497406511797
-0.380280339089395,-0.763771165056169
-0.377894792735175,-0.76204298323923
-0.375526607851294,-0.760312973088673
-0.373175698106951,-0.758581246632191
-0.370841977171346,-0.756847915897476
-0.368525358713678,-0.75511309291222
-0.366225756403144,-0.753376889704115
-0.363943083908945,-0.751639418300854
-0.361677254900279,-0.749900790730129
-0.359428183046346,-0.748161119019634
-0.357195782016344,-0.746420515197058
-0.354979965479472,-0.744679091290096
-0.35278064710493,-0.74293695932644
-0.350597740561916,-0.741194231333782
-0.348431159519629,-0.739451019339813
-0.346280817647269,-0.737707435372228
-0.344146628614034,-0.735963591458717
-0.342028506089123,-0.734219599626974
-0.339926363741736,-0.732475571904691
-0.337840115241071,-0.730731620319559
-0.335769674256327,-0.728987856899272
-0.333714954456704,-0.727244393671522
-0.3316758695114,-0.725501342664
-0.329652333089614,-0.723758815904401
-0.327644258860546,-0.722016925420415
-0.325651560493394,-0.720275783239735
-0.323674151657357,-0.718535501390053
-0.321711946021635,-0.716796191899062
-0.319764857255426,-0.715057966794455
-0.317832799027929,-0.713320938103923
-0.315915685008344,-0.711585217855158
-0.314013428865869,-0.709850918075854
-0.312125944269704,-0.708118150793703
-0.310253144889046,-0.706387028036397
-0.308394944393096,-0.704657661831627
-0.306551256451053,-0.702930164207087
-0.304721994732114,-0.70120464719047
-0.302907072905481,-0.699481222809466
-0.30110640464035,-0.697760003091769
-0.299319903605922,-0.696041100065071
-0.297547483471395,-0.694324625757065
-0.295789057905968,-0.692610692195442
-0.294044540578841,-0.690899411407895
-0.292313845159212,-0.689190895422116
-0.290596885316281,-0.687485256265799
-0.288893574719246,-0.685782605966634
-0.287203827037306,-0.684083056552315
-0.28552755593966,-0.682386720050533
-0.283864675095508,-0.680693708488982
-0.282215098174048,-0.679004133895353
-0.28057873884448,-0.677318108297339
-0.278955510776001,-0.675635743722632
-0.277345327637813,-0.673957152198924
-0.275748103099112,-0.672282445753909
-0.274163750829099,-0.670611736415277
-0.272592184496972,-0.668945136210722
-0.271033317771931,-0.667282757167936
-0.269487064323173,-0.665624711314612
-0.2679533378199,-0.663971110678441
-0.266432051931308,-0.662322067287115
-0.264923120326598,-0.660677693168328
-0.263426456674968,-0.659038100349772
-0.261941974645618,-0.657403400859139
-0.260469587907746,-0.655773706724121
-0.259009210130551,-0.65414912997241
-0.257560754983232,-0.6525297826317
-0.256124136134989,-0.650915776729682
-0.25469926725502,-0.649307224294049
-0.253286062012525,-0.647704237352493
-0.251884434076702,-0.646106927932706
-0.25049429711675,-0.644515408062381
-0.249115564801869,-0.64292978976921
-0.247748150801257,-0.641350185080886
-0.246391968784113,-0.639776706025101
-0.245046932419636,-0.638209464629546
-0.243712955377026,-0.636648572921915
-0.242389951325482,-0.6350941429299
-0.241077833934201,-0.633546286681193
-0.239776516872384,-0.632005116203487
-0.238485913809229,-0.630470743524473
-0.237205938413936,-0.628943280671845
-0.235936504355703,-0.627422839673295
-0.234677525303729,-0.625909532556514
-0.233428914927214,-0.624403471349196
-0.232190586895356,-0.622904768079032
-0.230962454877354,-0.621413534773715
-0.229744432542408,-0.619929883460938
-0.228536433559716,-0.618453926168392
-0.227338371598477,-0.61698577492377
-0.226150160327891,-0.615525541754765
-0.224971713417156,-0.614073338689068
-0.223802944535471,-0.612629277754373
-0.222643767352036,-0.611193470978371
-0.221494095536049,-0.609766030388754
-0.220353842756709,-0.608347068013216
-0.219222922683216,-0.606936695879448
-0.218101248984768,-0.605535026015143
-0.216988735330564,-0.604142170447993
-0.215885295389804,-0.602758241205691
-0.214790842831686,-0.601383350315928
-0.213705291325409,-0.600017609806398
-0.212628554540173,-0.598661131704792
-0.211560546145176,-0.597314028038803
-0.210501179809617,-0.595976410836124
-0.209450369202696,-0.594648392124446
-0.208408027993611,-0.593330083931461
-0.207374069851561,-0.592021598284864
-0.206348408445746,-0.590723047212345
-0.205330957445364,-0.589434542741596
-0.204321630519614,-0.588156196900312
-0.203320341337696,-0.586888121716182
-0.202327003568808,-0.585630429216901
-0.201341530882149,-0.58438323143016
-0.200363836946919,-0.583146640383652
-0.199393835432316,-0.581920768105069
-0.198431440007539,-0.580705726622103
-0.197476564341788,-0.579501627962448
-0.196529122104261,-0.578308584153794
-0.195589026964158,-0.577126707223834
-0.194656192590676,-0.575956109200262
-0.193730532653016,-0.574796902110769
-0.192811960820377,-0.573649197983047
-0.191900390761956,-0.572513108844789
-0.190995736146954,-0.571388746723687
-0.19009791064457,-0.570276223647434
-0.189206827924002,-0.569175651643721
-0.188322401654449,-0.568087142740242
-0.18744454550511,-0.567010808964689
-0.186573173145185,-0.565946762344753
-0.185708198243872,-0.564895114908128
-0.18484953447037,-0.563855978682505
-0.183997095493879,-0.562829465695577
-0.183150794983597,-0.561815687975037
-0.182310546608724,-0.560814757548576
-0.181476264038457,-0.559826786443888
-0.180647860941997,-0.558851886688663
-0.179825250988543,-0.557890170310596
-0.179008347847293,-0.556941749337377
-0.178197065187446,-0.5560067357967
-0.177391316678201,-0.555085241716257
-0.176591015988758,-0.554177379123739
-0.175796076788315,-0.553283260046841
-0.175006412746071,-0.552402996513253
-0.174221937531226,-0.551536700550668
-0.173442564812978,-0.550684484186779
-0.172668208260527,-0.549846459449277
-0.171898781543071,-0.549022738365856
-0.171134198329809,-0.548213432964207
-0.17037437228994,-0.547418655272023
-0.169619217092664,-0.546638517316996
-0.168868646407179,-0.545873131126819
-0.168122573902684,-0.545122608729184
-0.167380913248379,-0.544387062151783
-0.166643578113462,-0.543666603422309
-0.165910482167133,-0.542961344568454
-0.16518153907859,-0.54227139761791
-0.164456662517032,-0.54159687459837
-0.163735766151658,-0.540937887537526
-0.163018763651668,-0.54029454846307
-0.16230556868626,-0.539666969402695
-0.161596094924634,-0.539055262384093
-0.160890256035987,-0.538459539434956
-0.16018796568952,-0.537879912582977
-0.159489137554432,-0.537316493855848
-0.158793685299921,-0.536769395281262
-0.158101522595186,-0.53623872888691
-0.157412563109426,-0.535724606700486
-0.156726720511841,-0.535227140749681
-0.156043908471629,-0.534746443062188
-0.15536404065799,-0.534282625665699
-0.154687030740122,-0.533835800587907
-0.154012792387224,-0.533406079856504
-0.153341239268495,-0.532993575499181
-0.152672285053135,-0.532598399543633
-0.152005843410342,-0.53222066401755
-0.151341828009316,-0.531860480948626
-0.150680152519254,-0.531517962364552
-0.150020730609358,-0.531193220293021
-0.149363475948824,-0.530886366761726
-0.148708302206853,-0.530597513798358
-0.148055123052643,-0.530326773430611
-0.147403852155393,-0.530074257686175
-0.146754403184303,-0.529840078592744
-0.146106689808571,-0.529624348178011
-0.145460625697397,-0.529427178469667
-0.144816124519979,-0.529248681495404
-0.144173099945516,-0.529088969282916
-0.143531465643207,-0.528948153859894
-0.142891135282252,-0.528826347254031
-0.142252022531849,-0.528723661493019
-0.141614041061198,-0.528640208604551
-0.140977104539497,-0.528576100616318
-0.140341126635945,-0.528531449556014
-0.139706021019741,-0.52850636745133
-0.139071701360085,-0.528500966329959
-0.138438081326175,-0.528515358219593
-0.137805074587211,-0.528549655147925
-0.137172594812391,-0.528603969142647
-0.136540555670914,-0.528678412231451
-0.135908870831979,-0.52877309644203
-0.135277453964786,-0.528888133802075
-0.134646218738533,-0.52902363633928
-0.13401507882242,-0.529179716081337
-0.133383947885644,-0.529356485055938
-0.132752739597407,-0.529554055290775
-0.132121367626905,-0.52977253881354
-0.131489745643339,-0.530012047651927
-0.130857787315907,-0.530272693833628
-0.130225406313809,-0.530554589386334
-0.129592516306242,-0.530857846337738
-0.128959030962408,-0.531182576715532
-0.128324863951503,-0.53152889254741
-0.127689928942728,-0.531896905861062
-0.127054139605281,-0.532286728684182
-0.126417409608361,-0.532698473044462
-0.125779652621168,-0.533132250969594
-0.1251407823129,-0.533588174487271
-0.124500712352757,-0.534066355625184
-0.123859356409937,-0.534566906411027
-0.123216628153639,-0.535089938872491
-0.122572441253062,-0.535635565037269
-0.121926709377406,-0.536203896933054
-0.121279346195869,-0.536795046587537
-0.120630265377651,-0.537409126028411
-0.11997938059195,-0.538046247283368
-0.119326605507965,-0.538706522380102
-0.118671853794895,-0.539390063346303
-0.11801503912194,-0.540096982209664
-0.117356075158298,-0.540827390997878
-0.116694875573169,-0.541581401738638
-0.11603135403575,-0.542359126459634
-0.115365424215242,-0.543160677188561
-0.114696999780844,-0.543986165953109
-0.114025994401754,-0.544835704780972
-0.113352321747171,-0.545709405699842
-0.112675895486294,-0.546607380737411
-0.111996629288323,-0.547529741921371
-0.111314436822456,-0.548476601279416
-0.110629231757893,-0.549448070839236
-0.109940927763832,-0.550444262628525
-0.109249438509472,-0.551465288674975
-0.108554677664012,-0.552511261006278
-0.107856558896652,-0.553582291650127
-0.10715499587659,-0.554678492634213
-0.106449902273026,-0.55579997598623
-0.105741191755157,-0.55694685373387
-0.105028777992184,-0.558119237904824
-0.104312574653306,-0.559317240526786
-0.103592495407721,-0.560540973627447
-0.102868453924628,-0.561790549234501
-0.102140363873226,-0.563066079375639
-0.101408138922715,-0.564367676078553
-0.100671692742293,-0.565695451370937
-0.0999309390011595,-0.567049517280482
-0.0991857913685133,-0.568429985834881
-0.0984361635135533,-0.569836969061826
-0.0976819691054788,-0.571270578989009
-0.0969231218134886,-0.572730927644123
-0.0961595353067817,-0.574218127054861
-0.0953911232545571,-0.575732289248913
-0.0946177993260139,-0.577273526253974
-0.0938394771903509,-0.578841950097735
-0.0930560705167674,-0.580437672807888
-0.0922674929744621,-0.582060806412127
-0.0914736582326342,-0.583711462938142
-0.0906744799604826,-0.585389754413627
-0.0898698718272064,-0.587095792866274
-0.0890597475020044,-0.588829690323775
-0.0882440206540759,-0.590591558813823
-0.0874226049526196,-0.59238151036411
-0.0865954140668347,-0.594199657002328
-0.0857623616659201,-0.59604611075617
-0.0849233614190748,-0.597920983653328
-0.0840783269954979,-0.599824387721494
-0.0832271720643883,-0.601756434988361
-0.082369810294945,-0.603717237481621
-0.0815061553563671,-0.605706907228966
-0.0806361209178534,-0.60772555625809
-0.0797596206486032,-0.609773296596683
-0.0788765682178152,-0.611850240272439
-0.0779868772946886,-0.613956499313049
-0.0770904615484223,-0.616092185746207
-0.0761872346482154,-0.618257411599604
-0.0752771102632667,-0.620452288900933
-0.0743600020627755,-0.622676929677886
-0.0734358237159405,-0.624931445958156
-0.0725044888919608,-0.627215949769435
-0.0715659112600355,-0.629530553139414
-0.0715659112600355,-0.629530553139414
-0.0706397955941874,-0.631836254569002
-0.0697457923585315,-0.634094086002873
-0.0688837337574054,-0.636304209634376
-0.0680534519951467,-0.638466787656856
-0.0672547792760929,-0.640581982263662
-0.0664875478045814,-0.64264995564814
-0.0657515897849498,-0.644670870003637
-0.0650467374215358,-0.646644887523502
-0.0643728229186766,-0.648572170401079
-0.06372967848071,-0.650452880829717
-0.0631171363119733,-0.652287181002763
-0.0625350286168042,-0.654075233113564
-0.0619831875995402,-0.655817199355467
-0.0614614454645188,-0.657513241921819
-0.0609696344160774,-0.659163523005967
-0.0605075866585538,-0.660768204801258
-0.0600751343962853,-0.66232744950104
-0.0596721098336095,-0.663841419298659
-0.0592983451748639,-0.665310276387462
-0.058953672624386,-0.666734182960798
-0.0586379243865135,-0.668113301212012
-0.0583509326655836,-0.669447793334451
-0.0580925296659342,-0.670737821521464
-0.0578625475919025,-0.671983547966397
-0.0576608186478263,-0.673185134862597
-0.0574871750380429,-0.674342744403411
-0.0573414489668899,-0.675456538782186
-0.0572234726387049,-0.67652668019227
-0.0571330782578254,-0.677553330827009
-0.0570700980285888,-0.678536652879751
-0.0570343641553328,-0.679476808543842
-0.0570257088423948,-0.680373960012631
-0.0570439642941124,-0.681228269479463
-0.057088962714823,-0.682039899137686
-0.0571605363088643,-0.682809011180647
-0.0572585172805737,-0.683535767801694
-0.0573827378342888,-0.684220331194172
-0.0575330301743471,-0.68486286355143
-0.0577092265050861,-0.685463527066814
-0.0579111590308433,-0.686022483933672
-0.0581386599559564,-0.686539896345351
-0.0583915614847627,-0.687015926495197
-0.0586696958215998,-0.687450736576558
-0.0589728951708053,-0.687844488782781
-0.0593009917367166,-0.688197345307213
-0.0596538177236713,-0.688509468343201
-0.060031205336007,-0.688781020084092
-0.0604329867780611,-0.689012162723234
-0.0608589942541711,-0.689203058453973
-0.0613090599686747,-0.689353869469657
-0.0617830161259093,-0.689464757963632
-0.0622806949302124,-0.689535886129245
-0.0628019285859216,-0.689567416159845
-0.0633465492973744,-0.689559510248777
-0.0639143892689083,-0.68951233058939
-0.0645052807048608,-0.689426039375029
-0.0651190558095695,-0.689300798799043
-0.0657555467873719,-0.689136771054778
-0.0664145858426056,-0.688934118335581
-0.067096005179608,-0.688693002834799
-0.0677996370027166,-0.688413586745781
-0.068525313516269,-0.688096032261871
-0.0692728669246028,-0.687740501576419
-0.0700421294320554,-0.68734715688277
-0.0708329332429644,-0.686916160374272
-0.0716451105616672,-0.686447674244273
-0.0724784935925015,-0.685941860686118
-0.0733329145398047,-0.685398881893156
-0.0742082056079144,-0.684818900058733
-0.0751041990011681,-0.684202077376196
-0.0760207269239033,-0.683548576038892
-0.0769576215804576,-0.68285855824017
-0.0779147151751684,-0.682132186173375
-0.0788918399123734,-0.681369622031854
-0.0798888279964099,-0.680571028008956
-0.0809055116316156,-0.679736566298027
-0.081941723022328,-0.678866399092414
-0.0829972943728845,-0.677960688585463
-0.0840720578876228,-0.677019596970523
-0.0851658457708803,-0.676043286440941
-0.0862784902269946,-0.675031919190063
-0.0874098234603032,-0.673985657411236
-0.0885596776751436,-0.672904663297808
-0.0897278850758534,-0.671789099043126
-0.09091427786677,-0.670639126840536
-0.092118688252231,-0.669454908883387
-0.093340948436574,-0.668236607365024
-0.0945808906241364,-0.666984384478796
-0.0958383470192557,-0.665698402418049
-0.0971131498262696,-0.66437882337613
-0.0984051312495155,-0.663025809546386
-0.0997141234933309,-0.661639523122165
-0.101039958762053,-0.660220126296814
-0.102382469260021,-0.658767781263679
-0.10374148719157,-0.657282650216108
-0.105116844761039,-0.655764895347448
-0.106508374172765,-0.654214678851046
-0.107915907631085,-0.652632162920249
-0.109339277340338,-0.651017509748403
-0.110778315504861,-0.649370881528858
-0.112232854328991,-0.647692440454958
-0.113702726017066,-0.645982348720052
-0.115187762773423,-0.644240768517487
-0.1166877968024,-0.642467862040609
-0.118202660308334,-0.640663791482766
-0.119732185495563,-0.638828719037305
-0.121276204568425,-0.636962806897572
-0.122834549731256,-0.635066217256916
-0.124407053188396,-0.633139112308683
-0.12599354714418,-0.63118165424622
-0.127593863802946,-0.629194005262874
-0.129207835369033,-0.627176327551993
-0.130835294046777,-0.625128783306923
-0.132476072040516,-0.623051534721012
-0.134130001554588,-0.620944743987606
-0.13579691479333,-0.618808573300054
-0.13747664396108,-0.616643184851701
-0.139169021262175,-0.614448740835895
-0.140873878900952,-0.612225403445983
-0.14259104908175,-0.609973334875312
-0.144320364008906,-0.60769269731723
-0.146061655886757,-0.605383652965082
-0.147814756919641,-0.603046364012217
-0.149579499311895,-0.600680992651982
-0.151355715267857,-0.598287701077724
-0.153143236991864,-0.595866651482789
-0.154941896688255,-0.593418006060525
-0.156751526561366,-0.590941927004278
-0.158571958815534,-0.588438576507398
-0.160403025655099,-0.585908116763228
-0.162244559284396,-0.583350709965118
-0.164096391907764,-0.580766518306415
-0.16595835572954,-0.578155703980465
-0.167830282954061,-0.575518429180615
-0.169712005785666,-0.572854856100213
-0.171603356428691,-0.570165146932605
-0.173504167087474,-0.56744946387114
-0.175414269966354,-0.564707969109163
-0.177333497269666,-0.561940824840022
-0.179261681201749,-0.559148193257065
-0.18119865396694,-0.556330236553637
-0.183144247769578,-0.553487116923087
-0.185098294813998,-0.55061899655876
-0.18706062730454,-0.547726037654006
-0.189031077445539,-0.54480840240217
-0.191009477441335,-0.541866252996599
-0.192995659496264,-0.538899751630642
-0.194989455814664,-0.535909060497644
-0.196990698600873,-0.532894341790953
-0.198999220059227,-0.529855757703916
-0.201014852394065,-0.52679347042988
-0.203037427809724,-0.523707642162192
-0.205066778510542,-0.5205984350942
-0.207102736700855,-0.51746601141925
-0.209145134585003,-0.514310533330689
-0.211193804367321,-0.511132163021865
-0.213248578252149,-0.507931062686125
-0.215309288443822,-0.504707394516815
-0.217375767146679,-0.501461320707284
-0.219447846565057,-0.498193003450877
-0.221525358903295,-0.494902604940943
-0.223608136365728,-0.491590287370827
-0.225696011156695,-0.488256212933878
-0.227788815480534,-0.484900543823442
-0.229886381541581,-0.481523442232867
-0.231988541544175,-0.478125070355498
-0.234095127692653,-0.474705590384685
-0.236205972191352,-0.471265164513774
-0.238320907244611,-0.467803954936111
-0.240439765056765,-0.464322123845044
-0.242562377832154,-0.46081983343392
-0.244688577775115,-0.457297245896086
-0.246818197089984,-0.45375452342489
-0.2489510679811,-0.450191828213678
-0.2510870226528,-0.446609322455796
-0.253225893309422,-0.443007168344594
-0.255367512155303,-0.439385528073418
-0.257511711394781,-0.435744563835613
-0.259658323232192,-0.432084437824529
-0.261807179871876,-0.428405312233511
-0.263958113518169,-0.424707349255908
-0.266110956375409,-0.420990711085065
-0.268265540647933,-0.417255559914331
-0.270421698540079,-0.413502057937052
-0.272579262256184,-0.409730367346575
-0.274738064000586,-0.405940650336247
-0.276897935977623,-0.402133069099417
-0.279058710391631,-0.398307785829429
-0.281220219446949,-0.394464962719633
-0.283382295347914,-0.390604761963374
-0.285544770298864,-0.386727345754
-0.287707476504136,-0.382832876284859
-0.289870246168067,-0.378921515749296
-0.292032911494995,-0.37499342634066
-0.294195304689258,-0.371048770252296
-0.296357257955193,-0.367087709677554
-0.298518603497138,-0.363110406809778
-0.30067917351943,-0.359117023842318
-0.302838800226406,-0.355107722968518
-0.304997315822405,-0.351082666381728
-0.307154552511764,-0.347042016275294
-0.30931034249882,-0.342985934842562
-0.311464517987911,-0.338914584276881
-0.313616911183374,-0.334828126771597
-0.315767354289547,-0.330726724520056
-0.317915679510768,-0.326610539715608
-0.320061719051373,-0.322479734551598
-0.322205305115701,-0.318334471221373
-0.324346269908089,-0.314174911918281
-0.326484445632874,-0.310001218835668
-0.328619664494395,-0.305813554166883
-0.330751758696987,-0.301612080105271
-0.332880560444991,-0.29739695884418
-0.335005901942741,-0.293168352576958
-0.337127615394577,-0.28892642349695
-0.339245533004835,-0.284671333797505
-0.341359486977854,-0.280403245671969
-0.34346930951797,-0.27612232131369
-0.345574832829522,-0.271828722916015
-0.347675889116846,-0.26752261267229
-0.34977231058428,-0.263204152775862
-0.351863929436163,-0.25887350542008
-0.353950577876831,-0.254530832798289
-0.356032088110621,-0.250176297103838
-0.358108292341872,-0.245810060530073
-0.360179022774921,-0.241432285270341
-0.362244111614105,-0.237043133517989
-0.364303391063762,-0.232642767466365
-0.36635669332823,-0.228231349308815
-0.368403850611846,-0.223809041238687
-0.370444695118947,-0.219376005449328
-0.372479059053871,-0.214932404134084
-0.374506774620956,-0.210478399486304
-0.376527674024539,-0.206014153699333
-0.378541589468957,-0.20153982896652
-0.380548353158549,-0.19705558748121
-0.382547797297652,-0.192561591436752
-0.384539754090602,-0.188058003026493
-0.386524055741739,-0.183544984443778
-0.388500534455398,-0.179022697881957
-0.390469022435919,-0.174491305534375
-0.392429351887637,-0.16995096959438
-0.394381355014892,-0.165401852255318
-0.39632486402202,-0.160844115710538
-0.398259711113358,-0.156277922153385
-0.400185728493246,-0.151703433777208
-0.402102748366019,-0.147120812775353
-0.404010602936015,-0.142530221341168
-0.405909124407573,-0.137931821667999
-0.407798144985029,-0.133325775949193
-0.409677496872721,-0.128712246378098
-0.411547012274986,-0.124091395148061
-0.413406523396163,-0.119463384452428
-0.415255862440588,-0.114828376484547
-0.4170948616126,-0.110186533437766
-0.418923353116535,-0.10553801750543
-0.420741169156731,-0.100882990880888
-0.422548141937526,-0.096221615757486
-0.424344103663258,-0.0915540543285712
-0.426128886538263,-0.0868804687874912
-0.427902322766879,-0.0822010213275924
-0.429664244553444,-0.0775158741422226
-0.431414484102295,-0.0728251894247283
-0.433152873617771,-0.0681291293684571
-0.434879245304207,-0.0634278561667556
-0.436593431365943,-0.0587215320129714
-0.438295264007315,-0.0540103191004511
-0.439984575432661,-0.0492943796225423
-0.441661197846318,-0.0445738757725916
-0.443324963452624,-0.0398489697439466
-0.444975704455917,-0.0351198237299538
-0.446613253060534,-0.0303865999239609
-0.448237441470813,-0.0256494605193145
-0.449848101891091,-0.020908567709362
-0.451445066525705,-0.0161640836874503
-0.453028167578994,-0.0114161706469268
-0.454597237255294,-0.00666499078113816
-0.456152107758943,-0.00191070628343196
-0.457692611294279,0.00284652065284513
-0.459218580065639,0.00760652783434573
-0.460729846277362,0.012369153067723
-0.462226242133783,0.0171342341596295
-0.463707599839241,0.0219016089167186
-0.465173751598074,0.0266711151456427
-0.466624529614619,0.0314425906530551
-0.468059766093213,0.0362158732456083
-0.469479293238194,0.0409908007299557
-0.470882943253899,0.0457672109127499
-0.472270548344666,0.0505449416006439
-0.473641940714833,0.0553238306002904
-0.474996952568737,0.0601037157183427
-0.476335416110715,0.0648844347614533
-0.477657163545106,0.0696658255362754
-0.478962027076246,0.0744477258494617
-0.480249838908473,0.0792299735076654
-0.481520431246125,0.0840124063175388
-0.482773636293539,0.0887948620857355
-0.484009286255053,0.093577178618908
-0.485227213335004,0.0983591937237095
-0.48642724973773,0.103140745206792
-0.487609227667568,0.10792167087481
-0.488772979328856,0.112701808534415
-0.489918336925931,0.117480995992261
-0.491045132663131,0.122259071055
-0.492153198744794,0.127035871529285
-0.493242367375256,0.13181123522177
-0.494312470758856,0.136584999939106
-0.49536334109993,0.141357003487947
-0.496394810602818,0.146127083674947
-0.497406711471855,0.150895078306756
-0.49839887591138,0.15566082519003
-0.49937113612573,0.16042416213142
-0.500323324319242,0.16518492693758
-0.501255272696254,0.169942957415162
-0.502166813461105,0.17469809137082
-0.50305777881813,0.179450166611205
-0.503928000971668,0.184199020942972
-0.504777312126056,0.188944492172773
-0.505605544485632,0.19368641810726
-0.506412530254734,0.198424636553088
-0.507198101637698,0.203158985316908
-0.507962090838862,0.207889302205373
-0.508704330062564,0.212615425025138
-0.509424651513142,0.217337191582853
-0.510122887394932,0.222054439685173
-0.510798869912273,0.226767007138751
-0.511452431269502,0.231474731750238
-0.512083403670956,0.236177451326289
-0.512691619320973,0.240875003673555
-0.513276910423891,0.24556722659869
-0.513839109184047,0.250253957908347
-0.514378047805778,0.254935035409179
-0.514893558493422,0.259610296907838
-0.515385473451317,0.264279580210978
-0.5158536248838,0.268942723125251
-0.516297844995209,0.273599563457311
-0.516717965989881,0.278249939013809
-0.517113820072154,0.2828936876014
-0.517485239446365,0.287530647026736
-0.517832056316852,0.292160655096469
-0.518154102887951,0.296783549617254
-0.518451211364002,0.301399168395742
-0.518723213949341,0.306007349238587
-0.518969942848306,0.310607929952441
-0.519191230265235,0.315200748343958
-0.519386908404464,0.31978564221979
-0.519556809470332,0.324362449386591
-0.519700765667176,0.328931007651012
-0.519818609199333,0.333491154819708
-0.519910172271141,0.33804272869933
-0.519975287086938,0.342585567096533
-0.520013785851061,0.347119507817968
-0.520025500767847,0.351644388670289
-0.520010264041634,0.356160047460148
-0.519967907876761,0.360666321994199
-0.519898264477563,0.365163050079094
-0.519801166048379,0.369650069521487
-0.519676444793546,0.374127218128029
-0.519523932917402,0.378594333705375
-0.519343462624284,0.383051254060177
-0.51913486611853,0.387497816999088
-0.518897975604477,0.39193386032876
-0.518632623286464,0.396359221855848
-0.518338641368826,0.400773739387002
-0.518015862055902,0.405177250728878
-0.51766411755203,0.409569593688127
-0.517283240061547,0.413950606071402
-0.51687306178879,0.418320125685357
-0.516433414938097,0.422677990336643
-0.515964131713806,0.427024037831915
-0.515465044320254,0.431358105977824
-0.514935984961778,0.435680032581025
-0.514376785842716,0.439989655448169
-0.513787279167406,0.44428681238591
-0.513167297140186,0.448571341200901
-0.512516671965391,0.452843079699794
-0.511835235847361,0.457101865689242
-0.511122820990433,0.461347536975899
-0.510379259598944,0.465579931366417
-0.509604383877232,0.469798886667448
-0.508798026029634,0.474004240685647
-0.507960018260488,0.478195831227666
-0.507090192774131,0.482373496100158
-0.506188381774901,0.486537073109775
-0.505254417467135,0.490686400063172
-0.504288132055172,0.494821314766999
-0.503289357743347,0.498941655027911
-0.502257926736,0.50304725865256
-0.501193671237467,0.5071379634476
-0.500096423452086,0.511213607219683
-0.498966015584195,0.515274027775462
-0.497802279838131,0.519319062921589
-0.496605048418231,0.523348550464719
-0.495374153528834,0.527362328211503
-0.494109427374276,0.531360233968595
-0.492810702158895,0.535342105542648
-0.491477810087029,0.539307780740314
-0.490110583363016,0.543257097368247
-0.488708854191192,0.547189893233099
-0.488708854191192,0.547189893233099
-0.487278287924293,0.551076389679918
-0.485824751234152,0.554887191437911
-0.484348378303753,0.558622711389966
-0.482849303316081,0.562283362418974
-0.481327660454119,0.565869557407822
-0.47978358390085,0.5693817092394
-0.478217207839259,0.572820230796597
-0.476628666452329,0.576185534962302
-0.475018093923046,0.579478034619405
-0.473385624434392,0.582698142650793
-0.471731392169351,0.585846271939358
-0.470055531310908,0.588922835367987
-0.468358176042046,0.591928245819569
-0.46663946054575,0.594862916176994
-0.464899519005002,0.597727259323152
-0.463138485602788,0.60052168814093
-0.461356494522091,0.603246615513218
-0.459553679945895,0.605902454322905
-0.457730176057183,0.608489617452881
-0.455886117038941,0.611008517786034
-0.454021637074151,0.613459568205254
-0.452136870345798,0.61584318159343
-0.450231951036866,0.61815977083345
-0.448307013330338,0.620409748808204
-0.446362191409198,0.622593528400581
-0.444397619456431,0.62471152249347
-0.44241343165502,0.62676414396976
-0.440409762187949,0.62875180571234
-0.438386745238202,0.6306749206041
-0.436344514988764,0.632533901527928
-0.434283205622617,0.634329161366714
-0.432202951322746,0.636061113003347
-0.430103886272136,0.637730169320715
-0.427986144653768,0.639336743201708
-0.425849860650629,0.640881247529216
-0.423695168445701,0.642364095186126
-0.421522202221969,0.643785699055329
-0.419331096162416,0.645146472019713
-0.417121984450026,0.646446826962167
-0.414895001267784,0.647687176765582
-0.412650280798673,0.648867934312845
-0.410387957225677,0.649989512486845
-0.40810816473178,0.651052324170472
-0.405811037499966,0.652056782246616
-0.40349670971322,0.653003299598164
-0.401165315554524,0.653892289108007
-0.398816989206862,0.654724163659033
-0.39645186485322,0.655499336134131
-0.39407007667658,0.656218219416191
-0.391671758859926,0.656881226388101
-0.389257045586243,0.657488769932752
-0.386826071038515,0.658041262933031
-0.384378969399725,0.658539118271828
-0.381915874852856,0.658982748832032
-0.379436921580894,0.659372567496532
-0.376942243766823,0.659708987148217
-0.374431975593625,0.659992420669978
-0.371906251244285,0.660223280944701
-0.369365204901787,0.660401980855277
-0.366808970749115,0.660528933284594
-0.364237682969252,0.660604551115543
-0.361651475745183,0.660629247231011
-0.359050483259892,0.660603434513888
-0.356434839696362,0.660527525847064
-0.353804679237578,0.660401934113427
-0.351160136066523,0.660227072195866
-0.348501344366181,0.66000335297727
-0.345828438319536,0.659731189340529
-0.343141552109573,0.659410994168532
-0.340440819919274,0.659043180344167
-0.337726375931624,0.658628160750324
-0.334998354329608,0.658166348269893
-0.332256889296208,0.657658155785761
-0.329502115014408,0.657103996180819
-0.326734165667194,0.656504282337954
-0.323953175437548,0.655859427140058
-0.321159278508454,0.655169843470017
-0.318352609062897,0.654435944210723
-0.31553330128386,0.653658142245063
-0.312701489354328,0.652836850455927
-0.309857307457284,0.651972481726204
-0.307000889775711,0.651065448938782
-0.304132370492595,0.650116164976552
-0.301251883790919,0.649125042722403
-0.298359563853667,0.648092495059222
-0.295455544863822,0.6470189348699
-0.292539961004369,0.645904775037326
-0.289612946458292,0.644750428444389
-0.286674635408575,0.643556307973977
-0.283725162038201,0.64232282650898
-0.280764660530154,0.641050396932287
-0.277793265067419,0.639739432126787
-0.274811109832979,0.63839034497537
-0.271818329009819,0.637003548360923
-0.268815056780921,0.635579455166337
-0.26580142732927,0.634118478274501
-0.262777574837851,0.632621030568303
-0.259743633489646,0.631087524930633
-0.25669973746764,0.62951837424438
-0.253646020954817,0.627913991392433
-0.250582618134161,0.626274789257681
-0.247509663188655,0.624601180723013
-0.244427290301284,0.622893578671319
-0.241335633655031,0.621152395985487
-0.238234827432881,0.619378045548406
-0.235125005817816,0.617570940242966
-0.232006302992822,0.615731492952055
-0.228878853140883,0.613860116558564
-0.225742790444981,0.61195722394538
-0.222598249088101,0.610023227995394
-0.219445363253227,0.608058541591493
-0.216284267123344,0.606063577616568
-0.213115094881434,0.604038748953507
-0.209937980710481,0.6019844684852
-0.20675305879347,0.599901149094535
-0.203560463313385,0.597789203664402
-0.200360328453209,0.595649045077689
-0.197152788395927,0.593481086217287
-0.193937977324521,0.591285739966083
-0.190716029421977,0.589063419206968
-0.187487078871279,0.58681453682283
-0.184251259855409,0.584539505696558
-0.181008706557352,0.582238738711041
-0.177759553160093,0.579912648749169
-0.174503933846614,0.577561648693831
-0.1712419827999,0.575186151427916
-0.167973834202934,0.572786569834312
-0.164699622238702,0.570363316795909
-0.161419481090185,0.567916805195597
-0.15813354494037,0.565447447916263
-0.154841947972238,0.562955657840798
-0.151544824368775,0.56044184785209
-0.148242308312965,0.557906430833029
-0.14493453398779,0.555349819666503
-0.141621635576236,0.552772427235402
-0.138303747261285,0.550174666422614
-0.134981003225923,0.54755695011103
-0.131653537653132,0.544919691183538
-0.128321484725898,0.542263302523026
-0.124984978627203,0.539588197012385
-0.121644153540031,0.536894787534504
-0.118299143647367,0.534183486972271
-0.114950083132195,0.531454708208575
-0.111597106177498,0.528708864126306
-0.108240346966261,0.525946367608353
-0.104879939681466,0.523167631537605
-0.101516018506099,0.52037306879695
-0.0981487176231431,0.517563092269279
-0.0947781712155822,0.51473811483748
-0.0914045134664002,0.511898549384442
-0.0880278785585811,0.509044808793055
-0.0846484006751088,0.506177305946207
-0.0812662139989673,0.503296453726788
-0.0778814527131405,0.500402665017686
-0.0744942510006121,0.497496352701792
-0.0711047430443664,0.494577929661993
-0.0677130630273871,0.49164780878118
-0.0643193451326581,0.48870640294224
-0.0609237235431633,0.485754125028064
-0.0575263324418869,0.48279138792154
-0.0541273060118126,0.479818604505558
-0.0507267784359243,0.476836187663006
-0.047324883897206,0.473844550276774
-0.0439217565786416,0.470844105229751
-0.0405175306632151,0.467835265404825
-0.0371123403339103,0.464818443684887
-0.0337063197737111,0.461794052952824
-0.0302996031656016,0.458762506091528
-0.0268923246925656,0.455724215983885
-0.0234846185375871,0.452679595512786
-0.0200766188836499,0.449629057561119
-0.016668459913738,0.446573015011774
-0.0132602758108354,0.44351188074764
-0.00985220075792592,0.440446067651605
-0.00644436893799344,0.43737598860656
-0.00303691453402209,0.434302056495392
0.000370028271004394,0.431224684200992
0.00377632529410202,0.428144284606248
0.00718184235228693,0.42506127059405
0.0105864452625751,0.421976055047286
0.0139899998419826,0.418889050848846
0.0173923719075257,0.415800670881618
0.0207934272762203,0.412711328028492
0.0241930317650824,0.409621435172357
0.0275910511911282,0.406531405196102
0.0309873513713739,0.403441650982617
0.0343817981228353,0.400352585414789
0.0377742572625286,0.397264621375509
0.0411645946074699,0.394178171747666
0.0445526759746754,0.391093649414147
0.0479383671811609,0.388011467257844
0.0513215340439426,0.384932038161644
0.0547020423800366,0.381855775008438
0.058079758006459,0.378783090681113
0.0614545467402259,0.37571439806256
0.0648262743983532,0.372650110035666
0.0681948067978572,0.369590639483322
0.0715600097557538,0.366536399288417
0.0749217490890592,0.363487802333838
0.0782798906147893,0.360445261502477
0.0816343001499605,0.357409189677222
0.0849848435115885,0.354379999740961
0.0883313865166896,0.351358104576584
0.0916737949822798,0.34834391706698
0.0950119347253752,0.345337850095039
0.0983456715629918,0.342340316543648
0.101674871312146,0.339351729295698
0.104999399789853,0.336372501234078
0.10831912281313,0.333403045241676
0.111633906198993,0.330443774201382
0.114943615764457,0.327495100996085
0.118248117326539,0.324557438508673
0.121547276702255,0.321631199622037
0.12484095970862,0.318716797219065
0.128129032162652,0.315814644182646
0.131411359881365,0.312925153395669
0.134687808681777,0.310048737741024
0.137958244380903,0.3071858101016
0.141222532795759,0.304336783360285
0.144480539743361,0.301502070399968
0.147732131040726,0.29868208410354
0.15097717250487,0.295877237353889
0.154215529952808,0.293087943033904
0.157447069201556,0.290314614026474
0.160671656068131,0.287557663214488
0.16388915636955,0.284817503480836
0.167099435922826,0.282094547708406
0.170302360544978,0.279389208780088
0.173497796053021,0.276701899578771
0.176685608263971,0.274033032987344
0.179865662994844,0.271383021888695
0.183037826062657,0.268752279165715
0.186201963284424,0.266141217701291
0.189357940477163,0.263550250378314
0.19250562345789,0.260979790079673
0.19564487804362,0.258430249688256
0.19877557005137,0.255902042086952
0.201897565298155,0.253395580158651
0.205010729600992,0.250911276786242
0.208114928776897,0.248449544852614
0.211210028642886,0.246010797240656
0.214295895015975,0.243595446833257
0.21737239371318,0.241203906513306
0.220439390551517,0.238836589163693
0.223496751348003,0.236493907667306
0.226544341919652,0.234176274907034
0.229582028083483,0.231884103765768
0.232609675656509,0.229617807126395
0.235627150455748,0.227377797871804
0.238634318298216,0.225164488884886
0.241631045000928,0.222978293048529
0.244617196380901,0.220819623245623
0.247592638255151,0.218688892359055
0.250557236440694,0.216586513271716
0.253510856754546,0.214512898866494
0.256453365013723,0.212468462026279
0.259384627035241,0.21045361563396
0.262304508636116,0.208468772572426
0.265212875633364,0.206514345724565
0.268109593844002,0.204590747973268
0.270994529085046,0.202698392201423
0.27386754717351,0.200837691291919
0.276728513926413,0.199009058127645
0.279577295160769,0.197212905591491
0.282413756693595,0.195449646566345
0.285237764341906,0.193719693935097
0.28804918392272,0.192023460580636
0.290847881253051,0.190361359385851
0.293633722149917,0.188733803233631
0.296406572430333,0.187141205006865
0.299166297911315,0.185583977588442
0.301912764409879,0.184062533861252
0.304645837743041,0.182577286708183
0.307365383727818,0.181128649012124
0.310071268181226,0.179717033655965
0.312763356920279,0.178342853522595
0.315441515761996,0.177006521494903
0.318105610523391,0.175708450455778
0.320755507021482,0.174449053288108
0.323391071073283,0.173228742874785
0.32601216849581,0.172047932098695
0.328618665106082,0.170907033842729
0.331210426721112,0.169806460989775
0.333787319157917,0.168746626422723
0.336349208233513,0.167727943024461
0.338895959764917,0.16675082367788
0.341427439569145,0.165815681265867
0.343943513463211,0.164922928671312
0.346444047264134,0.164072978777105
0.348928906788928,0.163266244466133
0.351397957854609,0.162503138621287
0.353851066278195,0.161784074125456
0.3562880978767,0.161109463861528
0.358708918467141,0.160479720712393
0.361113393866535,0.15989525756094
0.363501389891896,0.159356487290057
0.365872772360241,0.158863822782635
0.368227407088587,0.158417676921561
0.370565159893949,0.158018462589726
0.372885896593343,0.157666592670018
0.375189483003786,0.157362480045327
0.377475784942294,0.157106537598541
0.379744668225882,0.15689917821255
0.381995998671567,0.156740814770242
0.384229642096364,0.156631860154508
0.386445464317291,0.156572727248235
0.388643331151362,0.156563828934313
0.390823108415594,0.156605578095632
0.392984661927004,0.15669838761508
0.395127857502606,0.156842670375546
0.397252560959418,0.15703883925992
0.399358638114455,0.15728730715109
0.401445954784733,0.157588486931946
0.403514376787269,0.157942791485377
0.405563769939079,0.158350633694272
0.407594000057177,0.15881242644152
0.409604932958582,0.15932858261001
0.411596434460309,0.159899515082631
0.413568370379373,0.160525636742272
0.415520606532791,0.161207360471823
0.417453008737579,0.161945099154173
0.419365442810753,0.16273926567221
0.42125777456933,0.163590272908824
0.423129869830324,0.164498533746904
0.424981594410753,0.165464461069339
0.426812814127632,0.166488467759018
0.428623394797978,0.16757096669883
0.430413202238806,0.168712370771665
0.432182102267133,0.169913092860411
0.433929960699974,0.171173545847957
0.435656643354346,0.172494142617193
0.437362016047265,0.173875296051008
0.439045944595747,0.175317419032291
0.440708294816808,0.17682092444393
0.442348932527463,0.178386225168816
0.44396772354473,0.180013734089837
0.445564533685624,0.181703864089882
0.447139228767162,0.183457028051841
0.448691674606359,0.185273638858602
0.450221737020231,0.187154109393054
0.451729281825794,0.189098852538088
0.453214174840066,0.191108281176591
0.45467628188006,0.193182808191453
0.456115468762795,0.195322846465563
0.457531601305285,0.19752880888181
0.458924545324548,0.199801108323083
0.460294166637598,0.202140157672272
0.461640331061452,0.204546369812265
0.462962904413126,0.207020157625952
0.464261752509637,0.209561933996221
0.465536741168,0.212172111805962
0.466787736205231,0.214851103938064
0.468014603438346,0.217599323275417
0.469217208684362,0.220417182700908
0.470395417760295,0.223305095097427
0.47154909648316,0.226263473347864
0.472678110669974,0.229292730335107
0.473782326137752,0.232393278942045
0.474861608703512,0.235565532051568
0.475915824184268,0.238809902546565
0.476944838397038,0.242126803309925
0.477948517158836,0.245516647224536
0.47892672628668,0.248979847173289
0.479879331597585,0.252516816039072
0.480806198908567,0.256127966704774
0.481707194036643,0.259813712053285
0.482582182798828,0.263574464967493
0.483431031012139,0.267410638330287
0.484253604493591,0.271322645024557
0.485049769060201,0.275310897933192
0.485819390528984,0.279375809939081
0.486562334716958,0.283517793925113
0.487278467441138,0.287737262774177
0.487967654518539,0.292034629369163
0.488629761766179,0.296410306592958
0.489264655001072,0.300864707328453
0.489872200040236,0.305398244458537
0.490452262700686,0.310011330866098
0.491004708799439,0.314704379434026
0.49152940415351,0.31947780304521
0.492026214579915,0.324332014582539
0.492495005895671,0.329267426928902
0.492935643917794,0.334284452967188
0.4933479944633,0.339383505580286
0.493731923349204,0.344564997651086
0.494087296392523,0.349829342062477
0.494413979410274,0.355176951697347
0.494711838219471,0.360608239438585
0.494980738637131,0.366123618169082
0.495220546480271,0.371723500771725
0.495431127565906,0.377408300129405
0.495612347711052,0.383178429125009
0.495764072732726,0.389034300641428
0.495886168447943,0.39497632756155
0.49597850067372,0.401004922768265
0.496040935227073,0.407120499144461
0.496073337925017,0.413323469573028
0.496075574584569,0.419614246936855
0.496047511022745,0.42599324411883
