0.709020338234285,-0.685999662430413
0.68164221363398,0.579031893095403
-0.541016266838939,0.961320309572725
-0.640050710667113,0.678099975081516
-0.739085154495288,0.394879640590307
0.871567228647182,-0.200877210217881
-0.32985303507868,-0.23439738164197
-1.53127329880454,-0.26791755306606
0.73073690389515,-0.915157004128502
-0.709719469194065,0.507097947746329
