0.551467562434357,0.419833759000508
0.55265636940982,0.399070138756269
0.550682020599878,0.379693882233108
0.500089115237383,0.35257181990565
0.489917369955664,0.344623008774505
0.514965931947679,0.331722666602109
0.50602680074613,0.323081426420113
0.460619156948044,0.328460442826419
0.500488962980633,0.327021227351214
0.484673553664987,0.288346492786408
0.463744624089435,0.24734503495991
0.475761991318053,0.304916766233835
0.453237574870655,0.272365314944755
0.444580693707572,0.264099752610464
0.398996579694827,0.2434085818488
0.424755156273695,0.270621482943535
0.38242116002556,0.218628676045992
0.410358506220149,0.231566514353056
0.401904505921944,0.22356469040266
0.412258513317789,0.226237134089621
0.390112854794485,0.194192858305513
0.330580467969079,0.169110765866949
0.412950691633708,0.222877767781118
0.388024014672313,0.172992389916807
0.313631957746363,0.150794644671836
0.312018772819767,0.186612907242015
0.349912818125776,0.12953729942102
0.350616093815491,0.110976537705691
0.319610203093591,0.146396940826703
0.286546410619505,0.130974238809767
0.334816330903691,0.113126511593462
0.295721978566972,0.124243281962237
0.242633235621838,0.122740461201396
0.322564725285141,0.137363256090841
0.318159884129155,0.120094124145461
0.283789956511141,0.063105907569339
0.305007060049642,0.0758034048715323
0.28721793221605,0.102327744000841
0.275688258738142,0.0912380952512078
0.282408965404716,0.0558589916702635
0.181895846592735,0.0241720687557987
0.218782608699497,0.0536435125621704
0.163985043534832,0.0723805873825141
0.203893536617482,0.0401135700684889
0.196511626780061,0.0334213529421625
0.189171524353677,0.0267774339879169
0.181873271794816,0.0201816597745557
0.174616911559963,0.0136338768708825
0.168138053145146,-0.00909184164527895
0.151813306620937,0.0229198874867387
0.154907961230653,0.0035224778088335
0.185781934682335,0.00575608305883192
0.138964981222778,-0.0183905380940416
0.131960866518151,-0.0246535951947135
0.134511102919901,0.00834896509815752
0.118079248123588,-0.0370391109533161
0.14216289894156,-0.0245423004512624
0.104366727458511,-0.0492381849962405
0.104674049406164,-0.0659458366621824
0.0908236441747988,-0.0612520447730584
0.049332398833869,-0.0645066332199673
0.0919638518420913,-0.115110733778753
0.033262250380656,-0.10584767668762
0.102281602363807,-0.0457169463349542
0.0427265119965123,-0.127994524544196
0.058182783717289,-0.135215784992584
0.0508508010516464,-0.0560411514365964
0.0383524778911791,-0.107479890210704
0.0319856639084907,-0.113055298217319
0.0256616762924772,-0.118586090400569
0.0171461150793727,-0.173474767007879
0.0433141079081812,-0.131377112590223
0.0536589263813298,-0.138725967008671
0.0215675935860725,-0.187673197893732
-0.0123514462322635,-0.18893324416825
0.00330676752496639,-0.196333301058195
0.0261132938523177,-0.113899111955539
-0.0375549180814335,-0.155887062166964
-0.0344049468257912,-0.190069192170513
-0.0081616416200406,-0.163579358234691
-0.0806687879512117,-0.219483636928311
-0.0468702643385372,-0.181531411332595
-0.0537094369772832,-0.190589696408569
-0.0578871512674576,-0.226575909811305
-0.0640301035370041,-0.196298407559092
-0.0735132830186306,-0.178358160214417
-0.122690083925632,-0.161472403603709
-0.0922375200007815,-0.18351034282763
-0.0863006116186327,-0.215398198934238
-0.124740551222192,-0.253173856951762
-0.0489016598546412,-0.175735276613944
-0.0584194628426244,-0.25465283660204
-0.0617360587367703,-0.23316493336106
-0.0931890911582375,-0.242872094400141
-0.118395259720196,-0.242804538637819
-0.135785060334139,-0.266641219830671
-0.128742486740965,-0.251613335708197
-0.110895114120094,-0.242774383736924
-0.18805380008648,-0.218615524371507
-0.104341455641409,-0.277286899222046
-0.148908419351604,-0.268748320300162
-0.157341038115627,-0.297887913530823
-0.166552065718495,-0.277456526824402
-0.135057945890507,-0.302865807182107
-0.148879333461259,-0.301211055172277
-0.173121354771959,-0.289274816209842
-0.177830919912122,-0.293262685059706
-0.182496045339184,-0.297211768471671
-0.175778867909303,-0.278445441268208
-0.215863477772999,-0.323229814612509
-0.205112538677065,-0.303382112808879
-0.231740678822828,-0.282390800983944
-0.205153590801013,-0.316380774054892
-0.209551186363288,-0.320100366894591
-0.233265791706788,-0.30277300438191
-0.182531508856692,-0.369600470514878
-0.183877872901076,-0.339729986054744
-0.226693774962591,-0.334603158370116
-0.230867261417542,-0.338135728424162
-0.226253176204723,-0.38150579808619
-0.231261209296229,-0.367981440590775
-0.260443931863973,-0.359408718642782
-0.239224011310128,-0.332143738913696
-0.260202920224802,-0.340044045062631
-0.254962761160973,-0.358560689305955
-0.211160237358265,-0.405678674704156
-0.256081222207137,-0.363098082963609
-0.278305154853375,-0.408963298108418
-0.270122915146485,-0.371454810617289
-0.274835779991405,-0.377924738541083
-0.27743091943057,-0.377688797838713
-0.281016754797748,-0.380753060100052
-0.284557089039703,-0.383782372703405
-0.288051879699951,-0.386776889079967
-0.267458303342056,-0.418241765370871
-0.286457208949922,-0.382379056213081
-0.317771225923089,-0.440665197490875
-0.301574757394164,-0.398410060942243
-0.351327045817023,-0.390192853773739
-0.308061830882417,-0.404021858723748
-0.262728528890463,-0.431774965055416
-0.351988496745626,-0.437808654003442
-0.317448529145318,-0.412187022410886
-0.333088792883881,-0.385254011454287
-0.316585320266812,-0.450636765994965
-0.326421514089208,-0.420052828864596
-0.312808594438968,-0.41988196147167
-0.332173097232553,-0.425132436008896
-0.334979639388997,-0.427623420727183
-0.337739958659974,-0.430082064117824
-0.340454012589,-0.432508519612014
-0.34312175871959,-0.434902940640951
-0.32275789886728,-0.436309650642236
-0.343713814209654,-0.47537859852032
-0.373816496741809,-0.415235509747378
-0.353328816127896,-0.444163348728095
-0.362625000623307,-0.457956231149141
-0.358153394172827,-0.448605335191255
-0.400414722279854,-0.459565868516148
-0.399073240680796,-0.416723141259778
-0.365040617645285,-0.4550364951124
-0.322712465116644,-0.430470290097034
-0.401092769975828,-0.477696639913088
-0.371507249848181,-0.461193153653947
-0.362504059847685,-0.485792171916408
-0.375584110080556,-0.465147137664489
-0.358605764603293,-0.484065955699763
-0.421743834461951,-0.513922383661547
-0.381347209445088,-0.470855499778496
-0.363357402201027,-0.467469036223005
-0.352548172626567,-0.50225528840342
-0.343597696235233,-0.474294190853391
-0.370116893314654,-0.484807501053651
-0.351507013301462,-0.435607787105554
-0.391601317439637,-0.481486003648462
-0.393144939462301,-0.483157626870261
-0.394641192274407,-0.484801051406719
-0.400269270196494,-0.457379806312255
-0.381971846831644,-0.463188492371351
-0.414028755179166,-0.457746358880101
-0.446086252549319,-0.520563673174463
-0.38265450565268,-0.445640532449156
-0.40262157816217,-0.4940780183803
-0.403785057718792,-0.49552834819287
-0.439357993892121,-0.460692325591918
-0.447772705878916,-0.506386802625949
-0.420447075505791,-0.471622379295484
-0.407961462756063,-0.50106148939742
-0.432168943633043,-0.463074744088947
-0.442431540712198,-0.463177002196566
-0.42056669379798,-0.495451258174504
-0.444760731532694,-0.463863783455767
-0.412104380140539,-0.507386022639951
-0.41278886053097,-0.508573544498668
-0.378373163762855,-0.511324953430788
-0.424826138617973,-0.49672340577225
-0.381141045688008,-0.555979651952346
-0.431257356194042,-0.498466962910036
-0.408805218523772,-0.517198713554814
-0.41588345492358,-0.515169870342949
-0.452357362325426,-0.478534515248603
-0.416528333927392,-0.517170878331941
-0.370283279149854,-0.493747070101947
-0.386834110321748,-0.478884847297205
-0.434729777686049,-0.479409890393689
-0.392864203119971,-0.507392672657508
-0.405012781323051,-0.516613861691804
-0.400106947701039,-0.490658676058672
-0.411853295612786,-0.496280283164285
-0.417165530257245,-0.524218805814319
-0.451666487029294,-0.495680884436662
-0.391684877050017,-0.515143741089593
-0.397277017760307,-0.495849207499113
-0.416313981484626,-0.527186291165359
-0.453088468826779,-0.483663028239868
-0.413686368284816,-0.525442341948802
-0.415161151654529,-0.529176501020765
-0.414678711800266,-0.529795883718401
-0.441909511298838,-0.515525719013868
-0.366819813387635,-0.510106109393642
-0.407196218640095,-0.564070939610841
-0.395198361437974,-0.579647260918263
-0.382278804325385,-0.499927355163103
-0.410750386656328,-0.533060703919224
-0.439147511430907,-0.532341167054373
-0.44768726037034,-0.486487051746347
-0.408119801102163,-0.534409783861696
-0.453424026490426,-0.519999178032322
-0.361450817717908,-0.529570843209029
-0.405043405126412,-0.535575500555284
-0.395010971364124,-0.555460025302746
-0.420679893588467,-0.504885636182502
-0.451344824532737,-0.503940784962239
-0.428979766652325,-0.548717050971334
-0.398922275198855,-0.537122139445925
-0.369228485155568,-0.583008127315593
-0.396125001421062,-0.537605697270566
-0.394651447176203,-0.537819140393754
-0.3567037584714,-0.507715315408083
-0.344993357315153,-0.510403551002156
-0.38993060553996,-0.538347967781148
-0.407928745068735,-0.561598705094632
-0.367450878477985,-0.547855442223651
-0.3545771597517,-0.566834774131971
-0.334910298898251,-0.572504444979166
-0.381059392418241,-0.538866879358029
-0.379134296126336,-0.538917672443857
-0.375394121754831,-0.546890042083498
-0.325713265023966,-0.498063127979222
-0.38051848512412,-0.534642830471201
-0.370929650184016,-0.538949328395225
-0.350159912384017,-0.581548472596344
-0.378589366961239,-0.572164691185171
-0.364245503132263,-0.538797274220711
-0.359234588019658,-0.496243022265789
-0.332828527994841,-0.54610952562824
-0.314179353335743,-0.509710584887521
-0.36366090693613,-0.545142339260353
-0.352091075631958,-0.538221275305497
-0.329330487251349,-0.521106417059689
-0.348978115357348,-0.584625534971444
-0.344188041598008,-0.537688881754399
-0.327933591721893,-0.50476487157225
-0.338664320661557,-0.537258678989455
-0.380143487711118,-0.539426872325466
-0.342110107537972,-0.523576329227558
-0.329995342756458,-0.53650353286965
-0.332947587916919,-0.506415074531981
-0.340515382007449,-0.530261973073692
-0.360077352379126,-0.570903873585559
-0.36458471886188,-0.546964720965935
-0.30728257290975,-0.522620632228488
-0.311272956352728,-0.534612999217892
-0.344449555969188,-0.560268062504919
-0.290685085569984,-0.556650447742803
-0.326213915624926,-0.58061930676129
-0.318416451533713,-0.507545516413208
-0.294255450903611,-0.532669961925196
-0.339197854141848,-0.552675686590069
-0.287086847515242,-0.531803832066643
-0.28342489002182,-0.531352327660408
-0.253491836510323,-0.536676000004692
-0.318118188124103,-0.525942808115991
-0.292253938316787,-0.57960744124697
-0.268258364068571,-0.529426960250327
-0.264336846302943,-0.528916548107505
-0.281117273123788,-0.482130037231792
-0.293346128136554,-0.546533385757128
-0.252259886636747,-0.527317997881455
-0.237657005815266,-0.507548865563243
-0.278548116932855,-0.503083786097108
-0.239713425830397,-0.525621699014159
-0.246197236056449,-0.480630541356748
-0.19549881265532,-0.507745237352715
-0.273712032398427,-0.527313055345266
-0.256377052525994,-0.557477134331221
-0.1751536038202,-0.522776323216469
-0.192533079043522,-0.505434475801771
-0.208606073614772,-0.521306805117085
-0.157651270476632,-0.55695264875314
-0.187884619307643,-0.483020366871643
-0.199028468350893,-0.520574858580445
-0.232783412465695,-0.53346520614082
-0.151909613040325,-0.556433828710963
-0.157591147726813,-0.529799063863556
-0.174921744847381,-0.5165349054595
-0.161056459600427,-0.507029490195553
-0.153797111129981,-0.560907623236786
-0.185528838083604,-0.511469644640759
-0.12453965743817,-0.545343812208659
-0.144106628837126,-0.547076289003975
-0.144477985277355,-0.519149616148315
-0.140982673928694,-0.547384905184871
-0.148491706991255,-0.527461568199409
-0.141530059627347,-0.507020268654602
-0.0875348481124755,-0.492880537130334
-0.101123741522169,-0.485546122130857
-0.111139819404345,-0.507442858176821
-0.071244340259267,-0.496582682945592
-0.100468066552482,-0.4909179460321
-0.0939957481495408,-0.505015232002978
-0.0882652385703295,-0.52829052662082
-0.0530052100723124,-0.518600625508702
-0.0763699482869348,-0.502534045372476
-0.0703874327340698,-0.501695796850857
-0.0643512219543981,-0.500852210892172
-0.0582612734914353,-0.500003440927619
-0.00244850589554703,-0.491183712303147
0.00215817136626337,-0.486103178862847
-0.0396685774379495,-0.497427561310714
0.0138955536421606,-0.513509291316309
-0.0270039799502796,-0.495687201108702
-0.0650506050246824,-0.523281397491402
0.0149330837738678,-0.472527214766235
0.0129375381917951,-0.463916560439176
-0.00102653625665275,-0.492156547129975
0.00465610514558144,-0.442718837802124
0.0428827581369694,-0.536448542828792
0.0341808943495231,-0.516356333108
0.0605302025951182,-0.480704580634162
-0.00153622352474478,-0.479926494231735
0.00270587056531302,-0.536609362421024
0.0465208713352602,-0.485843296552974
0.0487344888452786,-0.472258100479136
0.0424631157669275,-0.445956367735018
0.0421572872648918,-0.495792060380546
0.0630179704997835,-0.495181761291468
0.107690804044648,-0.501701326635179
0.0958025565819545,-0.458675486419674
0.07290053649123,-0.431048008558418
0.131571096747904,-0.488532033745517
0.111576370370616,-0.477548176156218
0.10274813907297,-0.474791970048789
0.100289030281739,-0.500805349165582
0.114376973402725,-0.42735114576134
0.145150574353987,-0.440094362542953
0.103340457331462,-0.44795222611448
0.123563213643786,-0.520314546777496
0.165244633706769,-0.471023779243068
0.173131743806368,-0.470090011986079
0.168522402435364,-0.483658701129299
0.161528537768653,-0.512460121262483
0.235697133579102,-0.464316198103739
0.205232420807388,-0.466356803818207
0.213395861490724,-0.465424734147243
0.221614695660261,-0.464493464287073
0.229888965772485,-0.463563147668893
0.229822702353313,-0.458970203518618
0.222321318788456,-0.50568888402124
0.252065283680136,-0.484095666807246
0.26331970987639,-0.444266256058792
0.239268848290712,-0.431471949462729
0.28070111880541,-0.458009858188627
0.289364629298019,-0.457090510337884
0.284757324802968,-0.458730043864327
0.305591326740029,-0.440372725899219
0.306846762623469,-0.440026602785855
0.324576851778965,-0.453436460162507
0.366020447606812,-0.485005214793299
0.342518465716531,-0.451625587848124
0.351573296957285,-0.450724726893447
0.360684200987999,-0.449827120648707
0.369851220265158,-0.448932922545103
0.357533146293119,-0.495322365018313
0.388353774384751,-0.447155364486083
0.389127913248097,-0.488364337905731
0.385218069244109,-0.476751273327066
0.371007688405805,-0.43748223663835
0.378640410792901,-0.426491411553768
0.441502244197339,-0.469974427996072
0.475691806939753,-0.403789603881256
0.502585044153708,-0.465163165715159
0.417888139995343,-0.424290855699375
0.486383158833798,-0.417055399306038
0.53378025250018,-0.437227564055344
0.494148275995352,-0.437688299235887
0.504105366653655,-0.436857925383797
0.487070902650406,-0.402093394257145
0.494387118681404,-0.391598746315228
0.534317321016815,-0.434401675206804
0.572309398859508,-0.454437579808281
0.562968435400541,-0.407419429265259
0.589300789185816,-0.459186234354931
0.605712867422561,-0.414828753317247
0.550303122388146,-0.394075046780591
0.566452582100513,-0.433476259447859
0.551544174907172,-0.439357436732515
0.623238858424817,-0.451659024741768
0.611719170564362,-0.414563971105824
0.620074893145215,-0.42576963576944
0.628917773273624,-0.424647818250784
0.626995982090484,-0.392535107009038
0.646200188325676,-0.422308928652664
0.654641072948222,-0.421092251015627
0.662949308767716,-0.419844347781556
0.716591930936222,-0.374253110403564
0.642206196499834,-0.415763612671839
0.687084871902401,-0.415915256709277
0.668345226545035,-0.394496966928572
0.702524375550206,-0.413143350398168
0.712375625924967,-0.45066522787937
0.75842923850302,-0.378237250258908
0.724720820347961,-0.408760666961391
0.780459633630723,-0.41889759904761
0.709513856142878,-0.388586194332844
0.745237577489343,-0.426589829612913
0.784107853477226,-0.357418785897256
0.785381167211532,-0.41124044957836
0.815115976080349,-0.362419679467547
0.772232672899894,-0.399859603862775
0.77839152181684,-0.395792147350003
0.787546275610314,-0.385652806442374
0.759456902142373,-0.40324230912235
0.76553788782846,-0.352797669144151
0.770328900997677,-0.340601914187322
0.850738957400944,-0.350005625268526
0.7844009248362,-0.356847671940625
0.84716614993586,-0.393145259065868
0.803935057550197,-0.383027084598407
0.829518277908287,-0.37907531994311
0.806022466440064,-0.353238051498315
0.809243143710179,-0.373512776268258
0.844464386446798,-0.373026182958404
0.849219366489104,-0.370958528638195
0.853861943211898,-0.368865565357355
0.858392791464631,-0.366747490337097
0.909295397100983,-0.33921067008936
0.883694231295871,-0.397237079389267
0.82562387540295,-0.328078863179815
0.830048908959695,-0.309389529035934
0.925364275462116,-0.385026252652591
0.883269374679004,-0.353522738075731
0.873819983003443,-0.317125587948016
0.890698334498428,-0.348922534101609
0.869149536317233,-0.335686292888584
0.897704675017852,-0.344228983133499
0.897664779402758,-0.385010496793078
0.904293795032887,-0.339443662941108
0.871677048014571,-0.335514157097573
0.910471093339143,-0.334568151294145
0.951321274314715,-0.323052825758049
0.952141350640952,-0.309452350071488
0.889015992353765,-0.351481784492614
0.948164689655828,-0.364713753792887
0.924148048725069,-0.321995138676684
0.947074621549668,-0.305415822016302
0.890208483141406,-0.357051502117742
0.931170045388586,-0.314195745554708
0.983281170473943,-0.322164837327283
0.935369217085103,-0.308892943180489
0.937326179657967,-0.30621117156915
0.939188959846503,-0.303509415969942
0.940958232500163,-0.300787873604078
0.931218507860954,-0.265014201870261
0.983514421481766,-0.267581179739818
0.913596403068613,-0.325032402398063
0.898210578843218,-0.285374224024972
0.992315682042687,-0.24736138741584
0.949648001758985,-0.284054141697084
0.950781617453145,-0.281199614158608
0.985850672932987,-0.262514676279624
0.952785197473118,-0.275436129312025
0.91464480651904,-0.263601334428703
0.954441741331636,-0.269601386247357
0.939165654076943,-0.292596732739643
0.944255915812686,-0.274069184725694
0.963308574355824,-0.213639368935529
0.922790968838087,-0.220904045022274
0.930390678514634,-0.229441257513919
0.923028338539078,-0.204699318750785
0.960450100259363,-0.223591523549966
0.911538428958665,-0.26270767246009
0.989710684666084,-0.2756896571052
0.957707876048772,-0.239414019592499
0.957590719846325,-0.236307065327211
0.991481722087421,-0.246894702365448
0.94071688879061,-0.190028527936304
0.956774034651808,-0.226895487343718
0.934298125140301,-0.253145192059424
0.955848645860664,-0.220547478243833
0.955273696415006,-0.217351978224265
0.915646569536778,-0.236265183210732
0.953902661670773,-0.210918973351943
0.975719438808807,-0.23431774445755
0.952241278118996,-0.204431276843463
0.985449693222058,-0.239511616952851
0.936769523246132,-0.196080322672302
0.930270330469679,-0.223230633812274
0.948069059775245,-0.191298119996857
0.897933505480258,-0.215187699343231
0.976228437391706,-0.141886122787218
0.944217883939977,-0.181316421479187
0.985956683104665,-0.130092153014638
0.981796479673216,-0.141555780871724
0.939768086093287,-0.171227641698448
0.955779110088973,-0.194588600926546
0.894875005479046,-0.175144530933346
0.88960494793698,-0.12443558180573
0.898664290478156,-0.206321840424139
0.91571926486785,-0.127662818881809
0.899890545606041,-0.16879499475444
0.881395991861688,-0.123037552991266
0.925113931089157,-0.14384121664174
0.878048072625224,-0.190134261630603
0.920845993220494,-0.136893381105583
0.883930273728497,-0.125759360054015
0.908503196041504,-0.126751314420751
0.880609000909198,-0.100356082750082
0.906507759713999,-0.152226977081796
0.902952944947998,-0.122787881571035
0.886139433281449,-0.137995942396751
0.927502082988352,-0.0696278791875992
0.892813948463116,-0.099267816147295
0.898860062482221,-0.105188865146983
0.87556351980775,-0.0518671296272547
0.917904336336867,-0.0950626173624124
0.890577120682418,-0.0944775302714753
0.892599846250249,-0.115763273187523
0.92826734289071,-0.0788684962138939
0.852687956847864,-0.0793918059212314
0.833659837650656,-0.106580537015257
0.825949792345905,-0.0287819251152725
0.872689115363355,-0.0728720660230726
0.898987543903749,-0.0960665104672237
0.836926639247691,-0.0745288285753262
0.86783036442325,-0.0680011814342179
0.88341853481853,-0.0747459182584982
0.856522444488716,-0.0547066429577864
0.859189146942039,-0.0899117152260956
0.868893011941157,-0.0011611690135814
0.834166168859701,-0.0501223966409345
0.858768952144469,-0.0213440293562229
0.789614133304485,-0.0234441374251669
0.835736636556038,-0.0327519722164112
0.849306611092121,0.0168892513991915
0.80954010943158,-0.00119322331144656
0.827459527713187,-0.0637549730449992
0.869379221514476,0.00692417617013726
0.827513247480184,-0.017422917609621
0.770332871111502,0.00522566258471399
0.775645090702481,-0.0467093656510323
0.818831160589447,0.00503689766806028
0.788179587271833,0.00884382544780918
0.822075228985974,0.00609550548209349
0.794165602284417,0.00780549147603425
0.766562944621558,-0.0370981667321591
0.78618120832147,0.0152060549305743
0.782144578659766,0.0189080113955223
0.788779395008783,0.0398902535604796
0.792510503445544,-0.0184705229856292
0.798539932042838,0.0323776948156387
0.779186993159303,-0.000110455041415408
0.729411773768059,0.0626242723637031
0.762581045062352,0.0794327356390453
0.703788883597965,0.0767759714318778
0.748874237168167,0.0485378236192055
0.744603404198741,0.052240361891977
0.740309922886825,0.0559419787039952
0.699773294217471,0.0125666406138142
0.731657714633324,0.063341659060918
0.684664059920365,0.0299021161425661
0.772846946076462,0.0436113956941231
0.752693656851096,0.0291767381587553
0.728323251752605,0.0494226306116031
0.704499267998804,0.106769738454479
0.683375843964448,0.093976368536085
0.688676294659226,0.128885966241718
0.672447567891924,0.0861659412401085
0.655867515452532,0.0620201999407085
0.68179637884754,0.0880959503978611
0.666907300141397,0.13157479260605
0.705618270510813,0.0652760738883855
0.688664273536261,0.0950763459879303
0.66908472446971,0.114881596523683
0.644835604039202,0.151845557256045
0.645228135272298,0.152483696660097
0.655328142657441,0.12583531637536
0.624978047665233,0.0898473127829546
0.606030162596179,0.118383174717647
0.661876823323447,0.149881530607822
0.636861063923351,0.14037123342163
0.632226477227052,0.143991568811543
0.627586113424545,0.147606052210367
0.622940647365281,0.151214486396888
0.57474111886101,0.107386313348165
0.613637107874289,0.158412418248172
0.608980384141462,0.162001521470506
0.560653233572147,0.194677426941242
0.595031549701304,0.144828016330875
0.642200562611753,0.145598627444281
0.590336209115155,0.176287581176152
0.634280070198629,0.179171937481734
0.56571841925414,0.151541832329537
0.533842115437922,0.161697573991201
0.527480863945323,0.153152339014077
0.581481357023649,0.180250528420096
0.523883567048948,0.190234010286799
0.595307279836842,0.169682986505196
0.507318106477178,0.229055348597195
0.498865123284093,0.251217567018076
0.555437226244455,0.245394689760752
0.539219100767606,0.214907054267309
0.491872353060986,0.218453906473817
0.541987623421053,0.19689485398972
0.539152060032757,0.257009229584205
0.520815418391443,0.228670412051956
0.516238858875332,0.232085281300624
0.511673393489295,0.235489368027868
0.54905717812861,0.272076774404215
0.455164664392069,0.195120768437166
0.490455465756895,0.254649079176915
0.448206193630312,0.251347113698705
0.445487653203142,0.260331287227536
0.522831460753586,0.301183576815212
0.49992177610207,0.210076400667115
0.516997020523361,0.262439378508496
0.433152053800412,0.298600909193636
0.466777383662299,0.268893807955026
0.462378493770866,0.272166270346518
0.464068372721793,0.248473706349259
0.415995818700221,0.234226618019001
0.494235833804979,0.288114715319343
0.415734913803435,0.271008394327091
0.477513109627807,0.296767581714375
0.392066829322404,0.30745832518467
0.460124810968441,0.265264497321715
0.447909812540658,0.267778883033106
0.423733121239166,0.301003052405005
0.41955652280794,0.304135148082042
0.415405865194717,0.307252122370959
0.449841640919077,0.322287546229262
0.407185071820085,0.313439917899581
0.355087944525333,0.283096381679761
0.379438787275222,0.327541728825769
0.41209557371464,0.343784659477953
0.365498720692631,0.285453360643802
0.387134292160145,0.328630976944109
0.37920374324621,0.333127016750222
0.35158583397687,0.337001837836782
0.375474500931929,0.337546800246613
0.373048550663421,0.302722328362283
0.367867002840536,0.34340455704297
0.380564339885534,0.336111915238918
0.32343988232828,0.349421079385592
0.348778552406995,0.393498255602479
0.399648577372599,0.346593857191411
0.349467560042671,0.357736005544486
0.352064799490292,0.379917046786985
0.342369675734249,0.36333926590386
0.338879552865855,0.366112395975572
0.335429542653942,0.368866263013683
0.295726374348276,0.358687514169029
0.308373320614697,0.352693668114085
0.353470145206364,0.329948430446207
0.322044125360116,0.379685156405848
0.367624062746053,0.352252030851848
0.315609638737818,0.384973897148775
0.3208490204618,0.350213027413336
0.356040282072776,0.408837304792346
0.315389408984193,0.426827406410552
0.282875864442958,0.407430013736883
0.323952485829262,0.366533324878602
0.286438864884755,0.396587170895774
0.2945367181391,0.40282386279932
0.291719144310294,0.405287339139606
0.288951805879738,0.40772859412809
0.309278883115657,0.43659507999937
0.265047721398387,0.414729478800729
0.28095795147208,0.414917058770594
0.297366278316004,0.401412577760297
0.267714340964498,0.45859729001973
0.24996778850997,0.465576214711564
0.271043715370741,0.424178614615085
0.240722154772478,0.453462081974176
0.225722764502057,0.410554513029962
0.26729859768681,0.385243881412285
0.228867508868562,0.449282220558241
0.251344411608946,0.457924679549391
0.296834663498547,0.417868711840896
0.237413831307714,0.486337241955417
0.204467167889289,0.429554885331208
0.252057082305036,0.443605637588564
0.250246997610771,0.445638954750755
0.248499295604878,0.447646500579302
0.24681465113681,0.449628077852992
0.293549323156815,0.453721135050868
0.243637234211951,0.453512537850945
0.245511386654424,0.473539544905937
0.240720145631804,0.457290756974909
0.284110285357135,0.498785984803039
0.23806878419198,0.460961157455175
0.239768651738239,0.439148351122923
0.235688548688088,0.464522161522036
0.245720840715027,0.444287507764392
0.23542137622194,0.517902611643653
0.265530753158844,0.448997369966347
0.231763050670547,0.471309669336714
0.22485453258577,0.447102824961906
0.243972095267931,0.523973492701054
0.197546538685142,0.502476831892133
0.228986841944061,0.477640658261285
0.198230941493845,0.492160119046862
0.178208096777094,0.466214501317734
0.227684888200328,0.482081716416363
0.184832464667998,0.435308972280553
0.185983528689133,0.473876200741365
0.211354384632708,0.450358983018196
0.21734153363036,0.498267804026424
0.203519609182905,0.451516871117645
0.193376575846792,0.512945164242839
0.21224196653178,0.45277991145152
0.25388295416637,0.491878255441193
0.227985855159774,0.493768290117765
0.219963976010281,0.465172770740121
0.277270408354744,0.532517426158641
0.276628140727396,0.484934197098057
0.210489580116511,0.517307101172361
0.198681972097521,0.483674547421988
0.266541137472125,0.54428855141038
0.206592941190482,0.451566121824653
0.203597213668171,0.549343259528554
0.234979704044074,0.502888138245408
0.195552735240435,0.550735305532073
0.23749229153582,0.504551740603168
0.275150098314628,0.516874397964666
0.240365085091071,0.506079913347352
0.220427890467489,0.458073411055096
0.27708670773036,0.520631655044759
0.230321245499641,0.472644147444344
0.27636418648797,0.462294570074873
0.200170698755532,0.518500749489162
0.251198690093953,0.509836076201374
0.24406073099499,0.506164672320108
0.287719033713422,0.489166098196745
0.257894961332867,0.511238445277899
0.260321101666251,0.511634110924876
0.297527690441304,0.4906443174973
0.243055450705904,0.502646082804374
0.268191120319956,0.512602974633221
0.279575695839413,0.496174745535389
0.273937545961569,0.513065133866164
0.2868501495105,0.544706764810932
0.265149635659458,0.486763831414839
0.288850736177885,0.478409302002874
0.251494330303986,0.482803694725523
0.262362637917243,0.477279058987787
0.277363131844271,0.544639709177835
0.285310832446072,0.518409918931467
0.276392671402165,0.469163613249794
0.304899842309579,0.513280168245167
0.308869087474723,0.513111764795409
0.360834246515196,0.507144930553068
0.297821231348905,0.465632971141159
0.272810483287156,0.494783883020542
0.325835541140421,0.512044355022684
0.330352897055383,0.511678067480012
0.328360944709943,0.502108926580638
0.352012388310941,0.490094181099423
0.302586031708478,0.519337642612545
0.379202214163129,0.510217476939325
0.328823561191181,0.506358237146858
0.330104690651345,0.463130934627093
0.402585918767937,0.481632076177626
0.327266843152495,0.518671008577917
0.376114183648483,0.506550231350299
0.392919029545741,0.503306249954381
0.387560961088204,0.504954396016922
0.393462617446762,0.504093070087485
0.42884698863563,0.47017856991535
0.364387410824,0.545807280619094
0.428100365720737,0.479679799675968
0.418273440292836,0.500220442789755
0.470847726440047,0.489038491063172
0.437741564696881,0.459351325988039
0.41625964138641,0.474411255124001
0.396791106445065,0.517595568914673
0.452047026735924,0.494403389021638
0.504085069746729,0.444662396379846
0.444821385867032,0.482317731985615
0.473815602247703,0.490383012998015
0.464720734250771,0.482973731808963
0.484428651678612,0.484079289679328
0.501754949577855,0.530012246289204
0.495776280560941,0.486216782817756
0.510948727896096,0.438801219417593
0.472625381815898,0.52434287170166
0.48537679639842,0.437057324261456
0.54290913817719,0.489604049925019
0.530704644602241,0.479509534040305
0.537442238789142,0.478201971213545
0.496968137524345,0.521547139940428
0.550671869742255,0.47561932511123
0.557164536808636,0.474343889991293
0.572593828045392,0.517810571769134
0.569907149871465,0.471823916002909
0.562601590323633,0.447213008247998
0.585270045453502,0.509226725093293
0.558724260825256,0.427236336682703
0.594430315919745,0.466902627210753
0.600362516624517,0.465695999463396
0.606215911306539,0.464498497651931
0.579619725211654,0.441004397771852
0.65735894441923,0.44422903493515
0.623306410716934,0.460958988610976
0.629855245564658,0.485824336466106
0.670905840709611,0.479224908670581
0.63969900132559,0.457495279794178
0.645009578050703,0.456356733712612
0.65765676147913,0.453056392679242
0.606258290621177,0.417184976503491
0.693806793700121,0.487596538889517
0.644241801726561,0.446655239929443
0.682989789444116,0.449643486228578
0.646916262918118,0.461742858113245
0.630407194139703,0.408523525476756
0.684774410863786,0.447511455697232
0.689409769593204,0.446436043442092
0.664339160230266,0.458095964053228
0.698460456788149,0.444303448785569
0.702876415553845,0.443245914539805
0.707219871298468,0.442193987786118
0.692829924185757,0.471277179404091
0.715690534324834,0.440106253066212
0.680400168963129,0.442741309245365
0.723874967067916,0.438038837248327
0.727860634958436,0.437012309122165
0.731775690728388,0.435990332954935
0.69785228783408,0.462666427342174
0.731249782498537,0.416757189425169
0.743100336815667,0.432949956984938
0.754688780015715,0.389639808471876
0.704334657453271,0.406226708792618
0.776915250883366,0.463460106602833
0.733615952241645,0.460470770006799
0.778752548489442,0.441623891085282
0.780926617152643,0.406758910538378
0.770028271909049,0.387045657126501
0.77027103716431,0.424998710658442
0.773363329193982,0.424017636067532
0.815304017135076,0.419228269328461
0.745301765068563,0.404709077477023
0.782242374866466,0.421087298428762
0.768457516882678,0.401298070694427
0.816078227757781,0.389016079936384
0.797347981386901,0.370854940267191
0.817513092570125,0.428124745768092
0.783292506966512,0.394017488956083
0.822133600486497,0.387863452729356
0.800679914933273,0.414302436371916
0.851048889694342,0.391398939662006
0.801713262573786,0.427175959768807
0.824431964491828,0.451716106078363
0.834616237544927,0.422250665115197
0.794079555961222,0.392250677474514
0.792135418582632,0.41997146715208
0.842525400745351,0.423945056818785
0.85093132571487,0.438357191586419
0.819838266652662,0.405607011929024
0.814965006439761,0.434739016586494
0.823421788796993,0.403667357659519
0.828587340975737,0.355273017907753
0.824730922917316,0.366503679589719
0.828348632255836,0.400746715983149
0.844274895683634,0.408309420623793
0.855945079424769,0.418501345271097
0.818721035144875,0.381556071216914
0.841615869963892,0.439885571746185
0.809148177340685,0.360064869431011
0.844042380414977,0.361560968794616
0.837796002469173,0.393855175028401
0.838916123517189,0.392859322085414
0.811374989612392,0.361793371500585
0.847439805203293,0.397722475773539
0.818176807711282,0.371398514172825
0.816266807248249,0.378526642327353
0.887575056450598,0.373452632695321
0.890192880700826,0.371628370115991
0.805100833732948,0.432467268069852
0.86656486405204,0.416733756146037
0.891297235557596,0.381390804448941
0.847065663587656,0.382686715813381
0.854989245627756,0.409198329902682
0.848046140407634,0.380596338930402
0.893587874823906,0.389455225364915
0.882499476248059,0.413843739327225
0.849122779269428,0.377419266755925
0.852959696512773,0.349852886293483
0.88397756658393,0.376866464584588
0.799751791098485,0.343182627351296
0.82098782695659,0.360314830343693
0.84988731706288,0.372001733385724
0.871900482472026,0.41824458980319
0.82818260514337,0.330522236050676
0.840211288045565,0.337911701930064
0.849594763825103,0.367544868520367
0.847209685396529,0.342030670122969
0.850273391033606,0.41199237464478
0.848861144841314,0.364123175540641
0.848520342350888,0.36296661689939
0.84813193369602,0.361801767897151
0.850106961757668,0.410604623604504
0.852187253018344,0.365962141002422
0.853154775610859,0.333127639699045
0.846108540433813,0.357055949834486
0.845486828207997,0.35584701019444
0.844819400718243,0.354628724660261
0.830964006468806,0.393269060839114
0.854278629180345,0.337839207628398
0.842545978166191,0.350916033471017
0.808605809956243,0.348055971171744
0.818647769986378,0.315756941135705
0.804870727684949,0.379682972552333
0.838893853506749,0.345824263421255
0.803334916656431,0.358268224110759
0.873542731596113,0.382581799532334
0.835017183653231,0.297436792503469
0.867213680467223,0.29616195656483
0.83335919488458,0.339216282830294
0.831540645720408,0.32401144616846
0.818436197518265,0.339840399625699
0.829536458756445,0.335113307261892
0.794104679453422,0.333853134050004
0.861363042328524,0.340990248653809
0.823402457470755,0.361677692598776
0.838511130544783,0.330929794703295
0.807506082478638,0.280179400834749
0.853486385489129,0.361365009182214
0.836595730585738,0.321235376612581
0.81757600080006,0.323624069554709
0.805260549990855,0.283584933285239
0.814198066690049,0.320619598304624
0.768479224386044,0.332075575239098
0.766324933243178,0.359088791835211
0.808850543187076,0.31600805259083
0.789561125638207,0.302278608201084
0.829712750348263,0.284024252342886
0.803173836480568,0.311266478138061
0.817946319279074,0.358655620026871
0.799210687786496,0.308030844685352
0.797176455622792,0.306390125047167
0.795107538448087,0.304733902238173
0.833210696328301,0.258159735986218
0.790866909666013,0.301374243418999
0.788695828358812,0.299670455564436
0.786491322640946,0.297950460850303
0.801433337889737,0.276074995114662
0.772119540804925,0.31522763820144
0.762384069504365,0.321316434425861
0.778864093131479,0.303479010716263
0.803558912645697,0.28550724737483
0.796024282341903,0.277540561828829
0.770150371724327,0.285441928319359
0.767689816124167,0.283585945529792
0.745854771584519,0.301471332403766
0.762677255894202,0.279820433550604
0.735599936878648,0.301290474272104
0.710173723121596,0.290530998733343
0.76363112721453,0.263823537371653
0.752295163518051,0.272070298170675
0.75788641518543,0.267017841247423
0.710682487048442,0.248212846948377
0.707091941620376,0.294706652108735
0.77344683872724,0.271065666850998
0.748317589197555,0.302134665336836
0.727664069179518,0.29637945364531
0.739798183872418,0.231489927391498
0.730173684719657,0.255654175153888
0.727287398979673,0.253512868144984
0.763025175448972,0.283251894303384
0.72143756022384,0.24916879122854
0.7107010858184,0.253270712486015
0.670039513602723,0.195298704953094
0.68647738302958,0.289461694710818
0.679493195688397,0.235787603943877
0.750981134464834,0.200465332175686
0.703292596555454,0.235632190892396
0.670513940422564,0.276383478679029
0.697054196867934,0.230947176326326
0.667511639157351,0.22521618490334
0.654484778789291,0.244803849335434
0.687527065403285,0.223752803066328
0.684307406999839,0.221309481247995
0.687579671503826,0.252046393108019
0.677804059220605,0.216353985980684
0.630249438681137,0.187733926156686
0.625521750585518,0.25069426071504
0.627514168093227,0.187257988467221
0.664550063975125,0.206162663102142
0.698203746391005,0.178683196851765
0.645054447880109,0.171674858608509
0.654403107542523,0.198268338593298
0.650983143818104,0.195588181248202
0.64754488288705,0.192883372778381
0.617195926264216,0.202780830216726
0.667946574407272,0.178112449345805
0.637123468354913,0.184619281398659
0.63963594405025,0.149037732709178
0.581684494452353,0.162511999558847
0.626548724366077,0.176126996697544
0.593670864278459,0.149110823862493
0.619417914009806,0.170336353866818
0.605013351404366,0.211324126131393
0.581281191343915,0.191945193138873
0.608606529931509,0.16145319163194
0.604973284227374,0.158438847734541
0.601325838267695,0.155397565723937
0.552032323410818,0.109259358879962
0.59398960618204,0.149233483674353
0.5451064538034,0.152604106149186
0.560272161826031,0.154313240926494
0.596023957782352,0.0998031678708289
0.538110230147442,0.159950319832465
0.554891898255313,0.127167028612128
0.593971418576183,0.0967585870389702
0.579213599825519,0.115663506994807
0.571793622459805,0.167562316088431
0.560356848769299,0.120115234389258
0.583623301888881,0.0972144612986217
0.552760210825515,0.113329486687708
0.59730263287073,0.139707921945791
0.57661866968319,0.0778657670022404
0.505255443004094,0.118191921998478
0.545953804228509,0.0558755373243263
0.56872371472329,0.0625540365060987
0.573539215962853,0.0972948743871819
0.574302220760375,0.0849890523550552
0.515916488098868,0.0443058655076803
0.474706460729512,0.091354481400366
0.514240155857864,0.0776085391969823
0.487566983854874,0.0313120752721642
0.506446420219288,0.0700960562595614
0.502540385294914,0.0662926346167017
0.51799436554969,0.0334142809830175
0.494711556986417,0.0585905513717309
0.498603753580627,0.0919405043419084
0.486862485065479,0.0507603086998198
0.500591378704581,0.0864165123743484
0.514314115449394,-0.00541293307022971
0.477520246846697,0.0237309482705193
0.516726108464121,0.0487687519244467
0.463615954532847,0.0143996625427779
0.430133729075535,0.00356727045522895
0.434650252719206,0.0541038808213264
0.455314185270743,0.0181295961922574
0.441799880709814,0.0362719104029615
0.412215605299886,-0.0232040691784426
0.403758836551006,-0.0382939491595313
0.453751479104888,-0.0312760849395351
0.45466332093978,0.00598232899626292
0.43156394132696,-0.00775807367004741
0.465458739883837,-0.00408677359319826
0.423643683730665,-0.0166642573484066
0.371948860318278,0.00416403538858076
0.415725873327972,-0.0257112668514374
0.408602907834673,-0.0550183679017694
0.421331640506565,-0.0393631956461586
0.354469272308393,-0.0672991276906526
0.379723169635048,-0.0700939453399204
0.357283126648838,-0.0272109952087302
0.413643855718918,-0.00419240382200135
0.388069208402858,-0.058505122494361
0.342908340940718,-0.0445640657528504
0.330353601421164,-0.109615649563648
0.332521680730902,-0.0529369508325631
0.349566962600428,-0.0549131357290472
0.34927002633909,-0.0775367325945543
0.324081872137217,-0.0670058662310141
0.365130965095942,-0.0713525036087642
0.398194415165273,-0.119044957643234
0.352774033156681,-0.103325957866945
0.398135818800762,-0.124750108478546
0.344991701526624,-0.113703731780676
0.366966612582033,-0.162114683060414
0.337237029096883,-0.124236405294336
0.36289759502512,-0.0862686456218694
0.329512537068131,-0.13492538578545
0.332510432622646,-0.0917324922786323
0.367537372258858,-0.103785132570894
0.315704745915228,-0.118155897170468
0.279953569579587,-0.106905853523892
0.274706755542858,-0.147000482866377
0.275255806610294,-0.189087739160603
0.286720546068786,-0.199922482939108
0.272024581376275,-0.213124488146324
0.279485443979261,-0.138203321671586
0.301721778359721,-0.208682752415878
0.253793791686903,-0.18398836921922
0.328862687615804,-0.163070942823609
0.287203496329089,-0.254915429029179
0.304993825405327,-0.258552181531301
0.272795330826772,-0.220217081544159
0.269105639354273,-0.226233166205798
0.235830043599425,-0.210043745198985
0.304980784866469,-0.209694867096183
0.25811713234766,-0.244535583942256
0.229933675816467,-0.293549168125703
0.250861752019827,-0.256950758114754
0.247256094609135,-0.263222941672032
0.253388718908805,-0.268613908913018
0.240090421044619,-0.275897381339601
0.265516819091114,-0.325920363841356
0.192200717526315,-0.244847647930932
0.278834824269575,-0.283675621933867
0.225950463145412,-0.301771476708128
0.222457184802313,-0.308350446769996
0.246745787136672,-0.281140221073985
0.246891616455606,-0.313723903820656
0.215505557470514,-0.375617459457002
0.208660370459249,-0.335113389562129
0.166497466193891,-0.347460776612615
0.176162810596932,-0.357097301308042
0.234770988931278,-0.403095116646824
0.177603148806442,-0.318151792777893
0.181693148323689,-0.365340054584766
0.183836566187785,-0.344310970711692
0.231095945117582,-0.424741484692951
0.181978528331363,-0.390821767176446
0.17873492348185,-0.397993353488772
0.175512730336277,-0.405211757121852
0.194999557337603,-0.397365596541273
0.141919062154659,-0.405577836584658
0.140048281050957,-0.38519961365009
0.148455866531248,-0.478438433980348
0.15537556843863,-0.409720706182106
0.143184159926374,-0.498511426858123
0.122443987704671,-0.486047012857718
0.179353323039794,-0.432666049948523
0.166871103343585,-0.44253390342399
0.18303511936865,-0.498565485190955
0.177785077287829,-0.458684338614445
0.129340908846951,-0.476190012880252
0.0966593605674755,-0.521995172250458
0.10223801200663,-0.527352285159966
0.159544890004418,-0.531234298829242
0.144020271617409,-0.575173283411267
0.124316817995724,-0.535258137562517
0.0943491937095907,-0.55851664200359
0.1406005459276,-0.555080165286336
0.159721050788211,-0.520228874675641
0.119238461385075,-0.54820112618062
0.159737183256219,-0.602406467590422
0.130809056024184,-0.548028194720169
0.0718822633812095,-0.628524137674511
0.129161664958517,-0.554757385904326
0.101307541352538,-0.656734244642229
0.0977586979019151,-0.618448422145228
0.0952639834007468,-0.627049135168873
0.120988722149333,-0.626073564644198
0.0903665227176172,-0.644406494331212
0.116105218846949,-0.67832246557678
0.0924524604951313,-0.658027867143898
0.0832549797421995,-0.670835004695198
0.12485219388721,-0.712061161911666
0.0786740598757514,-0.688717711777066
0.0684008717445072,-0.680660915935363
0.0742241684371511,-0.706813020937416
0.0495901211346002,-0.764596390411013
0.06990782662707,-0.725122339553774
0.103376444432573,-0.688825431076083
0.0704843453074033,-0.775234201745604
0.0636892345918907,-0.752990663846662
0.084978832479899,-0.795306090109826
0.0597177971060453,-0.771841163379714
0.0852238519798461,-0.785605316692251
0.0187457975630086,-0.831711533473894
0.014875826430889,-0.802308965153264
0.0959210344110064,-0.798264612968894
0.0620075625424808,-0.86625693094355
0.0453838892110382,-0.858782426150698
0.0363140698452771,-0.795466264165754
0.0020135849946625,-0.831106800065844
0.0109182657822638,-0.819067595968222
0.0373972103379023,-0.894327335989052
0.0248278558182391,-0.857409402535973
0.0195487796595185,-0.895343639678788
0.0374864817304987,-0.899768849913074
0.0360453892070737,-0.910003661018243
0.0346443022425412,-0.92029566885342
0.033283535986985,-0.930645049340794
0.0363075751582036,-0.898903192618296
