0.987340795357733,-0.766485974808434
-0.338605838707109,-0.298297387882468
0.0867180965135776,-0.905909867900241
-0.360359231868267,0.190538674103566
-0.807436560250112,1.28698721610737
-0.424756088335319,0.287120475230457
-0.0413350953725646,-0.377592223700392
0.342085897590189,-1.04230492263124
0.0533197622555657,-0.184242151271173
-0.918464069121921,-0.054438882687782
