-0.669286443906112,-0.779370688530863
-0.667741288016396,-0.945578510787367
0.336074337273792,-0.407800255997964
-0.365913593816057,-0.118354518057775
-1.06790152490591,0.171091219882415
-0.514443220040725,-0.141739923656096
-0.0477235302486929,0.442537701767432
0.418996159543339,1.02681532719096
0.130928471947055,-0.896378580449729
0.474195345007673,-0.71798479942732
