0.428408468374433,0.633996605590764
0.417081225798166,0.610675476045883
0.395509196962619,0.680183076301899
0.417163820469846,0.641484507513588
0.375938625781863,0.631155595555232
0.44293753766079,0.617746979845281
0.406809936223502,0.647406220916893
0.358581047023564,0.696812977048932
0.426862159488076,0.612591553180717
0.397313342018705,0.65180317321472
0.403984570399907,0.662922970881955
0.432084502232143,0.687646868892638
0.435661624033985,0.612026186919474
0.385926923065363,0.655365528607823
0.38329985799596,0.655855587934602
0.380758129266966,0.656188504150118
0.378300497114801,0.65636581160304
0.330623133346893,0.673497256614041
0.385007847097442,0.64209320704586
0.371419782483465,0.655979424872925
0.381736780104269,0.684630608793727
0.333509259947564,0.659916953935063
0.400895278524358,0.679461328619087
0.363347636060017,0.653378803708996
0.370662185258902,0.620902447202673
0.379057379452592,0.636109190665571
0.397881100285186,0.623291246073222
0.356462345127416,0.648484838973101
0.366959596677098,0.646886382948771
0.329365576523438,0.6891979632001
0.352029519945953,0.643368431125806
0.366012189482367,0.66586004198154
0.349403870046489,0.639291967650312
0.358521562938995,0.656875226852151
0.391995779319528,0.656696080704784
0.345545505030508,0.626270294282234
0.355538290974972,0.600255152967963
0.343920909864209,0.626860975446689
0.342999742216196,0.624003080335614
0.346032690568546,0.600842193915687
0.341322913199962,0.617927868232464
0.340564772304578,0.614713619937723
0.293921886549659,0.648169229691058
0.318750104771095,0.650945774732809
0.338688065347383,0.653227337367307
0.330615468151502,0.647601126883961
0.339158035868507,0.598708437837393
0.376428266875468,0.551547713076245
0.336640515540326,0.589059765877834
0.33759683378115,0.53543335221762
0.30774924881168,0.536878704218122
0.335631252164082,0.576459941173543
0.343222283147054,0.59956813538091
0.28787474526489,0.584242528456428
0.318903913036409,0.58692045577472
0.319764852458067,0.52047114658082
0.349646902871178,0.54224086022781
0.293909071957549,0.525472340884925
0.288024659674442,0.518026863998921
0.353030749395426,0.564141352296308
0.29311527793514,0.537687098699776
0.328323768326412,0.488475474065403
0.372361973620268,0.553485647090756
0.379061390658366,0.561474454213021
0.303021691561026,0.556615509694282
0.308368364193952,0.529028422110851
0.335243249815498,0.500739117510576
0.3040948683768,0.480287928924956
0.286621724535708,0.524022137076981
0.349594244379304,0.456813423316913
0.326413557687586,0.431462140381164
0.336363974671875,0.471375269152604
0.375091710554597,0.502162378990691
0.300160276898761,0.444132207337052
0.370231125360432,0.417294760464992
0.379511777241122,0.408130266857061
0.337851444935092,0.440269289865366
0.338179311037162,0.433855916131757
0.312588619736454,0.430321093669896
0.363315542153549,0.381001484126225
0.341319089663764,0.428153536137221
0.342736415951594,0.3769287066072
0.365171310610294,0.41095744711718
0.310924037944252,0.387230684640813
0.292323725558134,0.408473529798955
0.303708564917138,0.37850679626242
0.341306739891377,0.373598112837225
0.322769040907278,0.344368299191046
0.341990351667879,0.359654738188454
0.3096027623068,0.378832851751815
0.338795545261486,0.313421311740371
0.34296462368911,0.338416502263392
0.302685654684269,0.339763960255605
0.343565577365799,0.324060129746544
0.345783720135897,0.303723637045794
0.390865507482028,0.319393404318343
0.341935569185323,0.312269492746698
0.344606306820338,0.294928504704571
0.319123506753705,0.24559367544405
0.328467792530579,0.239840378438246
0.317994289044131,0.280728109931604
0.310365457969643,0.302814696721586
0.366826796493239,0.249408499803308
0.345615684625281,0.250367988961111
0.328831563745039,0.234988867233315
0.37506836324654,0.227885773175503
0.345799574988655,0.22778910530525
0.341295743143488,0.185968901363701
0.382675729269253,0.225401699152185
0.393838827269214,0.16061711881934
0.315320423728839,0.224553740785217
0.327939826694694,0.148367193926354
0.345358390553727,0.182241223495483
0.384567362217488,0.218377393793148
0.394672262375329,0.15937938629275
0.344666368522033,0.159355080169663
0.344357587966966,0.151719972137965
0.377890439676691,0.146284342259531
0.367014785505366,0.133535996567831
0.375897159694256,0.110277630298667
0.342698872662017,0.121188488026875
0.342172096746703,0.113565525746369
0.341598002468595,0.105949595662106
0.340975350064113,0.0983422321227538
0.340302899769675,0.0907449694769815
0.339579411821699,0.083159342073457
0.338794151219204,0.113935574978251
0.302561348081607,0.102770925563714
0.337090324420733,0.0604876148030538
0.352791184103717,0.0851362069921614
0.327397806524079,0.0846620651999347
0.334097266649002,0.0379758412649395
0.334848612710147,0.0648339331495915
0.297867668095821,0.0522674947572244
0.330566764889809,0.0156654488731574
0.306195015465835,0.0374808410354243
0.327897986876229,0.00092419034217528
0.325573458330651,-0.0163414129897093
0.29339821408822,0.0340379786688897
0.368077745578891,0.0289389706466905
0.352588058829732,0.0184762775726389
0.278668458940138,-0.0705022602942484
0.285524139625811,-0.0250135264307561
0.316415859520501,-0.0496431672837614
0.314487101074858,-0.0567161988376039
0.304414415542514,-0.0782228617925505
0.295981429280566,-0.0896948607134964
0.286188956490449,-0.0914313012704661
0.30396989949986,-0.0998567127324174
0.33465983159656,-0.125710120615501
0.301278667247209,-0.0982119194293881
0.298793043290208,-0.104956474151903
0.260026004081234,-0.109903779169548
0.328969486537048,-0.11361804313346
0.257180367333882,-0.126535524124024
0.287993037124058,-0.131388722992368
0.27788103518419,-0.0886858145465701
0.236969375557045,-0.126109732814372
0.296795583516042,-0.193262382065999
0.275761505764963,-0.156873771017402
0.304159269233498,-0.150282205476169
0.269084122866434,-0.169230407750767
0.263441177247426,-0.182938258129827
0.283599500171941,-0.197215921504865
0.258338132314335,-0.187248480906838
0.272051718699624,-0.170312684510968
0.297330448636397,-0.216481002100107
0.217103947307561,-0.195785267883681
0.242595564593082,-0.210243289508778
0.244057081473433,-0.264143290896331
0.194652048268736,-0.259282278851394
0.235938901006433,-0.202574911489572
0.26751708610501,-0.197359242280005
0.17978167522339,-0.250161007993237
0.228436754355016,-0.29059853569925
0.19534159946495,-0.296359917985467
0.233774361763653,-0.261461053291541
0.203162602684994,-0.214947257861113
0.19567447081041,-0.261975241344429
0.209582382699112,-0.31486094139153
0.18491410584532,-0.271236850024928
0.179353846623427,-0.275722083388004
0.176286776961095,-0.24938553697558
0.167866975883038,-0.28439373641647
0.16193788483738,-0.288577087384523
0.196244359775657,-0.307260260872483
0.149702192577227,-0.296631166484928
0.165342939985604,-0.345999595752158
0.0995490812626413,-0.285952306731813
0.130386282311191,-0.307907712816257
0.118604763487055,-0.352317410179179
0.163083298111469,-0.311302416741714
0.104084511222465,-0.339376189264848
0.12783968855995,-0.348450665476517
0.103939765401237,-0.324174559921363
0.0593367217154507,-0.279180883551542
0.0906237062107961,-0.3489013816934
0.108305472211589,-0.364015935716218
0.03640974713596,-0.362062421500958
0.0438851900748174,-0.38025862571498
0.0970985751174067,-0.341513893260572
0.0293830817340878,-0.333454067728122
0.0374410009767439,-0.343867847801955
0.0786524104439424,-0.312148419837257
0.022400140322391,-0.348474717124086
0.00843125429321701,-0.350635057236051
0.0265359884103819,-0.383510049165191
-0.02492164793877,-0.352177285549361
-0.0381089739780388,-0.349789758313016
-0.0236427743349982,-0.339223001504202
-0.0183047484041678,-0.361927030692624
-0.0333447537814701,-0.373131220652428
-0.0680570892959652,-0.368369198749133
-0.0392664904570115,-0.371245304257487
-0.0217164142105996,-0.355166893703118
-0.0512811498182466,-0.334253284796088
-0.00855718468016059,-0.415100510039068
-0.0576583440630208,-0.376736146668125
-0.0529438108504352,-0.338308847206356
-0.107802680923115,-0.416276418412463
-0.0844002830502529,-0.397869120190548
-0.1238129508711,-0.393644626433627
-0.106395852602678,-0.354685138909496
-0.0846770827060718,-0.388467833279759
-0.0387155966844464,-0.378732325952096
-0.0949340304181246,-0.35318937313315
-0.0959386336643287,-0.393941541148679
-0.099366500050886,-0.395702535711724
-0.0590013199944349,-0.418865765912123
-0.0576292184597585,-0.427683656886953
-0.108686902421536,-0.400783285986701
-0.0772954908709873,-0.371494639478676
-0.0910716398868947,-0.377582695737791
-0.119804357852866,-0.42046155117798
-0.136684666475398,-0.424162972992886
-0.0769905171177781,-0.367687178907146
-0.0797938974708939,-0.405784961701168
-0.12495111427142,-0.41135317373067
-0.0786413308345548,-0.37543022886232
-0.128225957877843,-0.414013067452598
-0.114482908784392,-0.424247743442306
-0.131949665684476,-0.424358690979864
-0.139306867044806,-0.384197202145632
-0.136318039160386,-0.439928213139865
-0.179649163602551,-0.419747263528816
-0.180710289433358,-0.463393531428214
-0.135062711387676,-0.421924324949675
-0.183392293708452,-0.461843441191118
-0.175534701580535,-0.447378596721286
-0.115138241744847,-0.461037978417122
-0.132116537454538,-0.455085652076725
-0.109942261140846,-0.435236962516078
-0.135401865032694,-0.426813779717412
-0.134980137567457,-0.427445500359008
-0.134424576845165,-0.428022689197954
-0.160925984306897,-0.40914719742716
-0.132916171346429,-0.429010183115222
-0.131965434428495,-0.429418844017203
-0.170354137260104,-0.471826301932441
-0.129676161901766,-0.430061883267016
-0.12833973415148,-0.430294617438509
-0.12687685064892,-0.430467065190166
-0.136180581518663,-0.417222587128587
-0.15576614646863,-0.388570477112331
-0.11000261639171,-0.450926060775087
-0.106874671381763,-0.411118873137513
-0.110964781496042,-0.392897018560923
-0.0927585141158325,-0.472777062861374
-0.103963151736721,-0.432793796028887
-0.110747847057083,-0.429577685509041
-0.108194288600502,-0.429170561514562
-0.0978037433068587,-0.381147937878368
-0.0659379326226193,-0.47551046288772
-0.137667610780985,-0.468681195172211
-0.130786196011954,-0.401673026007882
-0.0491494509316971,-0.379692763487871
-0.090475579730597,-0.425260391129661
-0.0491922847142977,-0.419466736500641
-0.099567634978802,-0.439250808433955
-0.085122757517718,-0.39152006336429
-0.104115085982864,-0.380727603932474
-0.0301141160709304,-0.452677675619452
-0.0574114415148302,-0.459738975794641
-0.0648332610781747,-0.417344545053592
-0.0607527797475361,-0.415903508814302
-0.0612245861938253,-0.404437258166649
-0.0522893866650131,-0.412780564639854
-0.0638275988770529,-0.429595839049041
-0.043429779215859,-0.409330977616454
-0.0820809269162303,-0.429795171138209
-0.0341823888341098,-0.405548171038746
-0.0409101453896654,-0.371336870979112
-0.0223501420350467,-0.40358776418885
-0.018657858752884,-0.412508905095971
-0.0145579850089701,-0.396956592398989
-0.0325452861833338,-0.418138632862184
-0.00419783443365163,-0.39213466692623
-0.114051554427391,-0.307895484865475
0.0065163733381179,-0.386953215077744
0.0120036138495356,-0.38422561154218
0.0135671885700114,-0.37958790103561
0.0187406156335748,-0.340058709160694
0.129512490794582,-0.265382874919962
-0.0916256793307249,-0.44625598433627
-0.110291651515647,-0.23101915619398
0.0466825721324688,-0.365891912215636
-0.0613148874791758,-0.243618928214892
0.058596306317237,-0.367440369871152
0.0032795693793128,-0.439187114651997
-0.0389976973534218,-0.447554832835283
-0.0865572157101435,-0.286157154296599
0.00397695119896467,-0.440761614839085
-0.0229763845528185,-0.238451805629999
-0.0235022754877078,-0.488962528981329
-0.0305514300488316,-0.261371972951839
0.264018116834551,-0.471714631831513
0.22215928742975,-0.442669264929302
0.265900041627777,-0.458962504387157
0.280802740727209,-0.248159482464884
0.232043719161857,-0.175249771783898
0.00864997633183352,-0.461002872943338
0.073810744891022,-0.357892713492522
0.306721716935892,-0.389979729533624
0.260150816078349,-0.186494804815203
0.166400118538073,-0.261311594707439
0.13660591884576,-0.26522397611179
0.0929740344415104,-0.164938256472181
0.0422435945786896,-0.324872495748913
0.176626767148207,-0.245644354953836
0.211572334970495,-0.255760464979566
0.219215426230397,-0.249787806833623
0.272115590764341,-0.285777124054819
0.234658596934326,-0.237488170678499
0.241655452753571,-0.270656467604402
0.250304059022058,-0.224710627451261
0.301043045052207,-0.263750458143229
0.266143381059557,-0.211448600446556
0.302897380769714,-0.193781674008774
0.276270203971342,-0.178698814091347
0.317964465694269,-0.180311297755306
0.298369879247712,-0.183444788283323
0.306534492147674,-0.17613075677948
0.314740192530296,-0.168689849714085
0.28604830078181,-0.194432021214449
0.294367786517467,-0.18841844586459
0.344878500490546,-0.10413103492955
0.346587796298546,-0.171550347584718
0.394908167261377,-0.0916969599060988
0.38172294486232,-0.16638665581001
0.401598700196755,-0.0851051029228068
0.406283232056021,-0.117834309471157
0.390266534366613,-0.0958766413077283
0.415983219405389,-0.0414754447593914
0.407413246827927,-0.078230967715846
0.454326227534321,-0.072552882234067
0.424673720615667,-0.0600383316456252
0.397654377293974,-0.0254134329244604
0.455215423602765,-0.0397432129340936
0.417892719755177,0.00713730141710291
0.420473373600113,-0.0117825925965225
0.499093627620419,-0.0620665603781555
0.477053395597075,-0.00211288151138384
0.48708931006096,-0.0351887304881156
0.446757709358529,0.0166396209543474
0.503527581249912,0.0287735292521328
0.558500005046376,0.0825030288845758
0.521263030449595,0.0500920175614324
0.547051321043026,0.0243207686629647
0.523180261182369,0.0292077011515285
0.551509159857381,0.0990814226016041
0.567102355961324,0.103002340084197
0.558417671752178,0.121740354223554
0.574789394343646,0.117612055689618
0.583746057778503,0.129393860895136
0.552462307767813,0.190451821897821
0.601680415958511,0.153417840543256
0.616405478084757,0.17241152712942
0.634546083075472,0.157333782418451
0.61666776158965,0.221418635142884
0.603332536209134,0.205887888327199
0.616039003042129,0.23961415946699
0.655575858074566,0.229231923732482
0.627310828549944,0.217993344983373
0.684086945127694,0.232777720815031
0.682523366396012,0.269284614829216
0.691498811458266,0.28295886644957
0.657404263357671,0.304971695497316
0.748063265289822,0.324979191324661
0.718389218500786,0.324963194309333
0.727337198369362,0.339294568222719
0.784085845837604,0.384513804168708
0.696680171201563,0.329293218521227
0.770620875415586,0.412477001763954
0.744174290869936,0.385425266779263
0.813164724482243,0.375835744639996
0.748878383660136,0.45309823047274
0.777356082231299,0.418363863759656
0.790349870742813,0.463140471881872
0.807314995206,0.475860694739168
0.840853662098013,0.446090522415962
0.835711620881079,0.485746064958427
0.798482190957428,0.490940064467574
0.882296157527439,0.571066054428135
0.845094441216785,0.546780577129539
0.852506867710084,0.561586652808109
0.881400398803984,0.589260181611331
0.908082512267271,0.572325690886769
0.882080134147306,0.619676766862534
0.887591539589208,0.64324591207996
0.858128181675142,0.63754221593007
0.889044421301295,0.642300379326426
0.862426081351777,0.67671155304291
0.898070736524452,0.711375450881799
0.902376408795408,0.677588219055746
0.902048900401269,0.66677659119745
0.867555185702699,0.707327358290436
0.912549660455938,0.709618893682897
0.897084548481489,0.707078117041714
0.905353080673645,0.69651991405218
0.919663519058442,0.738484041146174
0.92137211049154,0.747418145142407
0.928697355574761,0.791810187424476
0.925676332653093,0.793762268161145
0.909589444247799,0.820688802206224
0.886024230696274,0.768577399891423
0.925110428191603,0.787084306334278
0.904568916881892,0.757021602661877
0.924432271612839,0.800678758000028
0.923642164273377,0.807002699935691
0.922556276716603,0.813015644603498
0.902497668115435,0.815697683458972
0.886975121848375,0.813554696712267
0.917560726362997,0.829222434976931
0.91673156675132,0.794541152105447
0.867086908158531,0.81324549181236
0.935452238361536,0.799294382909615
0.920366584008322,0.833365938961468
0.856357913335871,0.882988319364242
0.91445871245428,0.803785759336538
0.908429293672742,0.879356932165881
0.853467823921895,0.889258791565831
0.936171691159516,0.90968940899533
0.932071580884149,0.888572190572445
0.851198150927104,0.85217782816887
0.873276303486982,0.868198060923835
0.867958325693089,0.869696632995133
0.862407116836866,0.870941905759724
0.856626356280371,0.871937273215321
0.850619723385661,0.872686129359639
0.844390897514796,0.873191868190393
0.790439126991944,0.869630544785829
0.78325459774908,0.905570283953195
0.828883926555397,0.875932007971882
0.806350061441672,0.891118003276996
0.764073306852296,0.834879984166111
0.806340423615525,0.888101081546833
0.794876779499202,0.870209851033898
0.787002866853162,0.868892835273864
0.778939875489485,0.867363248179695
0.733539036957355,0.888799972344193
0.723831077597381,0.83896103976011
0.725448703504453,0.852302862001942
0.739835291298971,0.837554268892156
0.693375782765347,0.867903392808281
0.686724775023826,0.890285639344135
0.760044431073427,0.81145427830406
0.734817523388217,0.822841868989896
0.67296639377667,0.881788508058306
0.661887369683248,0.853612804968407
0.677374326190737,0.864533234525579
0.664072671596472,0.848788085719399
0.65776104845841,0.790241915100311
0.626556735297717,0.832144678807076
0.686110058905623,0.863843409284679
0.646333956543861,0.795510094416588
0.616505280342401,0.8121256372419
0.605668042973123,0.807350139742528
0.622484478147639,0.828729730784831
0.595336814520278,0.771607783080884
0.56502359745298,0.838471985457054
0.607740615919018,0.833663998026207
0.524654493709425,0.734921861388851
0.538270808820111,0.775706151737629
0.526676642184258,0.76996533054737
0.516554277915558,0.751538203038473
0.479859106266295,0.782543852636964
0.491348367900108,0.752010478606127
0.479402616220053,0.745792711827939
0.505174635924457,0.733256297831412
0.452943850630058,0.683771844608499
0.481962858820486,0.69773864566401
0.405747596785414,0.703323897378621
0.467235708097852,0.694922371426354
0.40171985312823,0.730258123559821
0.420351222880427,0.671710394605219
0.376189268523412,0.718432304893649
0.368790971030711,0.685256277428678
0.356223812084192,0.678083726520687
0.361613628419765,0.715233340894587
0.330967460847224,0.663511584425768
0.286912854717937,0.685117295412529
0.294686951488331,0.607444957628987
0.331961979941352,0.688894289344135
0.296903266888285,0.58781873804636
0.26178781588691,0.652188634586047
0.214961847891483,0.63305900748899
0.241675214422633,0.610481533924754
0.268090594135106,0.647206773593455
0.216028843793453,0.594862791943674
0.231354825726592,0.543181247172907
0.177505390414486,0.580669372749668
0.158092804398,0.540121424840068
0.164748362399223,0.563178730554952
0.13540674924327,0.563852870160406
0.124625784663115,0.533771566476009
0.133890978998633,0.552111863681033
0.113680460133574,0.531080245808925
0.100974295271436,0.523016325955698
0.0683293796933183,0.539683037856838
0.075660693926692,0.506865085833184
0.0739147286784776,0.480400988688493
0.0864047073472168,0.454685474239677
0.0379923032892724,0.482630634574976
0.0378208189388407,0.513793473512729
0.0523533599578718,0.419936311074243
-0.0395638071831933,0.480379280297143
-0.0115139297787633,0.450446410795765
-0.0261495808522062,0.416275992544322
-0.0358929801749467,0.434470409964335
-0.0118674041571379,0.473629471634519
-0.0903272286319956,0.419683486304161
-0.0719111874506304,0.410727912488489
-0.12901928714517,0.37104426241276
-0.0955134875313522,0.395086846658793
-0.0721251579813514,0.437259155852832
-0.118753576417081,0.379627270797795
-0.167818114061837,0.413377647334653
-0.141602019211357,0.364376336887211
-0.146366978621485,0.347580391504689
-0.164029381017716,0.349361196908758
-0.147296874679877,0.297566365957461
-0.173147247592361,0.304849062835877
-0.240302518267966,0.375675203300783
-0.197091801723303,0.352954651880214
-0.199069531514173,0.324111380719895
-0.274886001740251,0.281533158126918
-0.238784168242473,0.299057090935736
-0.275476116987826,0.298816747328473
-0.2589524087595,0.285439029425614
-0.288018660213868,0.280007220411668
-0.271550240170429,0.296527203373292
-0.288102496907793,0.265742540588915
-0.253365678457368,0.231630612720453
-0.306758114697817,0.253138213623442
-0.33381238638673,0.265916638308586
-0.33244846574107,0.23496164835011
-0.344690562317078,0.227842273198049
-0.360116798711475,0.192092947551068
-0.396167129653714,0.228681598006312
-0.358667867524393,0.218151899369068
-0.366689199197957,0.212768706187974
-0.368360259642889,0.216414745862294
-0.33806018464373,0.166367358036208
-0.38959910332458,0.197454765218357
-0.396838776528573,0.192639977745422
-0.402388893679094,0.15237303119123
-0.459162667838671,0.207164916034649
-0.4173154005571,0.179112709845431
-0.411202168886488,0.127124745700174
-0.473632207759617,0.163307167955121
-0.432625296394086,0.163659461881101
-0.441581280050261,0.163342949104022
-0.421067715327862,0.151827371916284
-0.440281748204632,0.161274678809817
-0.41847290509183,0.197591011771323
-0.459572132835673,0.185382022641532
-0.515275658012371,0.122164531571611
-0.436471914739669,0.120900008374993
-0.428322679200188,0.168389829280261
-0.52562600060523,0.157248589154404
-0.482344210528212,0.13839104992472
-0.460482035424111,0.0923441533694424
-0.444374658786197,0.126758598728141
-0.506527864377787,0.106290009891604
-0.490724432170474,0.162459013061606
-0.485597844818297,0.142204233093294
-0.497828342110407,0.130823787888864
-0.499431037195454,0.130331169528217
-0.500744493930637,0.130067199536331
-0.517277649044623,0.131778863796853
-0.502488974903181,0.1302387806497
-0.48233844117373,0.0897373071149632
-0.498842547232207,0.101458218438951
-0.502844424686574,0.132295865028329
-0.509656550836685,0.102217304766758
-0.501530950867882,0.134906659726468
-0.515955351778833,0.156416751741027
-0.469590058617515,0.0942947516127446
-0.532253448484476,0.102067185842386
-0.457345161316025,0.130684690230278
