0.819757814945771,-0.904839504056004
-0.117249496300334,0.705628621168537
-0.774751767465915,-0.399215816489469
0.250438113922723,0.0137320238811902
1.27562799531136,0.42667986425185
-0.0344713337875096,0.626678129259184
-0.616828889607651,0.794620250687935
-1.19918644542779,0.962562372116687
-0.908811051529449,0.451314163539104
-0.674181410759503,-0.418022754763824
