-0.9520831645859,-0.105465685130903
-0.654595022754438,-0.938484151152731
-0.310159638403987,0.0445805328457747
-0.33297871728571,0.567776346729995
-0.355797796167433,1.09097216061422
0.435482688087377,-0.40465428599935
0.522885706673208,0.146889196745561
0.61028872525904,0.698432679490473
0.841001856243296,-0.148642007817185
0.423369086189453,0.910232024619244
