-0.14155405298656,-0.228717526084678
-0.140524638260578,-0.221144133949571
-0.13948302173402,-0.213656866532334
-0.138429315617171,-0.206255296432672
-0.137363632120315,-0.198938996250288
-0.136286083453737,-0.191707538584887
-0.13519678182772,-0.184560496036173
-0.134095839452551,-0.177497441203849
-0.132983368538513,-0.17051794668762
-0.13185948129589,-0.163621585087191
-0.130724289934968,-0.156807929002264
-0.12957790666603,-0.150076551032545
-0.128420443699362,-0.143427023777737
-0.127252013245247,-0.136858919837544
-0.126072727513971,-0.130371811811671
-0.124882698715817,-0.123965272299822
-0.12368203906107,-0.1176388739017
-0.122470860760015,-0.111392189217009
-0.121249276022936,-0.105224790845455
-0.120017397060118,-0.0991362513867402
-0.118775336081845,-0.0931261434405696
-0.117523205298402,-0.0871940396066472
-0.116261116920073,-0.0813395124846768
-0.114989183157143,-0.0755621346743628
-0.113707516219896,-0.0698614787754091
-0.112416228318616,-0.0642371173875199
-0.111115431663589,-0.0586886231103992
-0.109805238465098,-0.0532155685437511
-0.108485760933429,-0.0478175262872798
-0.107157111278865,-0.0424940689406893
-0.105819401711692,-0.0372447691036836
-0.104472744442193,-0.032069199375967
-0.103117251680653,-0.0269669323572434
-0.101753035637357,-0.021937540647217
-0.10038020852259,-0.0169805968455919
-0.0989988825466345,-0.0120956735520721
-0.0976091699197767,-0.00728234336636174
-0.0962111828523005,-0.00254017888816498
-0.0948050335544905,0.00213124728281425
-0.0933908342366312,0.00673236254687171
-0.0919686971090072,0.0112635943043034
-0.0905387343819028,0.0157253699554051
-0.0891010582656026,0.0201181169004729
-0.087655780970391,0.0244422625398026
-0.0862030147065527,0.0286982342736902
-0.0847428716843721,0.0328864595024315
-0.0832754641141336,0.0370073656263224
-0.0818009042061219,0.0410613800456589
-0.0803193041706213,0.0450489301607369
-0.0788307762179165,0.0489704433718523
-0.0773354325582918,0.0528263470793009
-0.0758333854020318,0.0566170686833788
-0.074324746959421,0.0603430355843818
-0.0728096294407439,0.0640046751826058
-0.071288145056285,0.0676024148783467
-0.0697604060163287,0.0711366820719005
-0.0682265245311597,0.0746079041635631
-0.0666866128110624,0.0780165085536302
-0.0651407830663212,0.081362922642398
-0.0635891475072207,0.0846475738301622
-0.0620318183440455,0.0878708895172189
-0.0604689077870799,0.0910332971038638
-0.0589005280466085,0.0941352239903929
-0.0573267913329158,0.0971770975771022
-0.0557478098562863,0.100159345264287
-0.0541636958270045,0.103082394452245
-0.0525745614553549,0.10594667254127
-0.0509805189516219,0.108752606931659
-0.0493816805260902,0.111500625023707
-0.0477781583890441,0.114191154217711
-0.0461700647507683,0.116824621913967
-0.0445575118215471,0.11940145551277
-0.0429406118116651,0.121922082414416
-0.0413194769314068,0.124386930019201
-0.0396942193910567,0.126796425727422
-0.0380649514008993,0.129150996939374
-0.0364317851712191,0.131451071055352
-0.0347948329123006,0.133697075475654
-0.0331542068344283,0.135889437600574
-0.0315100191478866,0.138028584830409
-0.0298623820629602,0.140114944565454
-0.0282114077899334,0.142148944206006
-0.0265572085390909,0.144131011152361
-0.024899896520717,0.146061572804813
-0.0232395839450963,0.14794105656366
-0.0215763830225133,0.149769889829197
-0.0199104059632525,0.15154850000172
-0.0182417649775984,0.153277314481525
-0.0165705722758355,0.154956760668908
-0.0148969400682483,0.156587265964165
-0.0132209805651212,0.158169257767591
-0.0115428059767389,0.159703163479483
-0.00986252851338573,0.161189410500137
-0.00818026038534628,0.162628426229848
-0.006496113802905,0.164020638068912
-0.00481020097634641,0.165366473417625
-0.00312263411595503,0.166666359676284
-0.00143352543201533,0.167920724245183
0.000257012865188172,0.16912999452462
0.001948868565371,0.170294597914889
0.00364192945824861,0.171414961816288
0.00533608333353653,0.17249151362911
0.00703121798095026,0.173524680753654
0.00872722119020533,0.174514890590214
0.0104239807510172,0.175462570539086
0.0121213844531013,0.176368148000567
0.0138193200861733,0.177232050374952
0.0155176754399486,0.178054705062537
0.0172163383041427,0.178836539463618
0.0189151964684711,0.179577980978491
0.0206141377226493,0.180279457007452
0.0223130498563928,0.180941394950797
0.0240118206594172,0.181564222208822
0.0257103379214378,0.182148366181822
0.0274084894321702,0.182694254270093
0.02910616298133,0.183202313873932
0.0308032463586326,0.183672972393635
0.0324996273537934,0.184106657229497
0.0341951937565281,0.184503795781813
0.0358898333565521,0.184864815450881
0.0375834339435809,0.185190143636996
0.03927588330733,0.185480207740454
0.0409670692375149,0.18573543516155
0.0426568795238511,0.185956253300581
0.0443452019560542,0.186143089557843
0.0460319243238395,0.186296371333631
0.0477169344169226,0.186416526028242
0.0494001200250191,0.186503981041971
0.0510813689378443,0.186559163775114
0.0527605689451139,0.186582501627968
0.0544376078365433,0.186574422000827
0.056112373401848,0.186535352293989
0.0577847534307435,0.186465719907748
0.0594546357129453,0.186365952242402
0.0611219080381689,0.186236476698245
0.0627864581961298,0.186077720675573
0.0644481739765436,0.185890111574683
0.0661069431691256,0.185674076795871
0.0677626535635915,0.185430043739431
0.0694151929496566,0.185158439805662
0.0710644491170366,0.184859692394857
0.0727103098554469,0.184534228907313
0.074352662954603,0.184182476743327
0.0759913962042204,0.183804863303193
0.0776263973940145,0.183401815987208
0.0792575543137011,0.182973762195668
0.0808847547529954,0.182521129328868
0.082507886501613,0.182044344787105
0.0841268373492694,0.181543835970674
0.0857414950856802,0.181020030279872
0.0873517475005607,0.180473355114994
0.0889574823836266,0.179904237876336
0.0905585875245932,0.179313105964194
0.0921549507131762,0.178700386778864
0.093746459739091,0.178066507720643
0.0953330023920531,0.177411896189824
0.096914466461778,0.176736979586706
0.0984907397379812,0.176042185311583
0.100061710010378,0.175327940764752
0.101627265068685,0.174594673346508
0.103187292702616,0.173842810457148
0.104741680701887,0.173072779496967
0.106290316856214,0.172285007866261
0.107833088955313,0.171479922965326
0.109369884788898,0.170657952194458
0.110900592146686,0.169819522953953
0.112425098818391,0.168965062644107
0.11394329259373,0.168094998665216
0.115455061262418,0.167209758417575
0.11696029261417,0.166309769301481
0.118458874438701,0.165395458717229
0.119950694525729,0.164467254065116
0.121435640664966,0.163525582745437
0.122913600646131,0.162570872158488
0.124384462258936,0.161603549704565
0.1258481132931,0.160624042783964
0.127304441538336,0.159632778796981
0.12875333478436,0.158630185143912
0.130194680820888,0.157616689225053
0.131628367437636,0.156592718440699
0.133054282424318,0.155558700191147
0.134472313570651,0.154515061876692
0.135882348666349,0.153462230897631
0.137284275501129,0.152400634654259
0.138677981864705,0.151330700546872
0.140063355546794,0.150252855975767
0.141440284337111,0.149167528341238
0.142808656025371,0.148075145043582
0.14416835840129,0.146976133483095
0.145519279254583,0.145870921060073
0.146861306374966,0.144759935174811
0.148194327552154,0.143643603227606
0.149518230575863,0.142522352618754
0.150832903235808,0.14139661074855
0.152138233321705,0.14026680501729
0.15343410862327,0.13913336282527
0.154720416930217,0.137996711572786
0.155997046032262,0.136857278660135
0.157263883719122,0.135715491487611
0.15852081778051,0.134571777455511
0.159767736006144,0.133426563964131
0.161004526185738,0.132280278413767
0.162231076109007,0.131133348204714
0.163447273565668,0.129986200737269
0.164653006345436,0.128839263411727
0.165848162238026,0.127692963628384
0.167032629033154,0.126547728787537
0.168206294520535,0.12540398628948
0.169369046489885,0.124262163534511
0.170520772730919,0.123122687922925
0.171661361033353,0.121985986855017
0.172790699186902,0.120852487731085
0.173908674981283,0.119722617951422
0.175015176206209,0.118596804916327
0.176110090651397,0.117475476026094
0.177193306106563,0.116359058681019
0.178264710361421,0.115247980281399
0.179324191205688,0.114142668227529
0.180371636429079,0.113043549919705
0.181406933821308,0.111951052758223
0.182429971172093,0.110865604143379
0.183440636271148,0.109787631475468
0.184438816908189,0.108717562154788
0.185424400872931,0.107655823581633
0.18639727595509,0.1066028431563
0.187357329944381,0.105559048279084
0.18830445063052,0.104524866350282
0.189238525803222,0.103500724770189
0.190159443252203,0.102487050939101
0.191067090767179,0.101484272257315
0.191961356137864,0.100492816125125
0.192842127153974,0.0995131099428284
0.193709291605226,0.0985455811107206
0.194562737281333,0.0975906570290975
0.195402351972013,0.0966487650982552
0.196228023466979,0.0957203327184894
0.197039639555949,0.0948057872900962
0.197837088028637,0.0939055562133713
0.198620256674758,0.0930200668886108
0.199389033284029,0.0921497467161105
0.200143305646165,0.0912950230961663
0.200882961550881,0.0904563234290741
0.201607888787893,0.08963407511513
0.202317975146916,0.0888287055546296
0.203013108417666,0.0880406421478691
0.203693176389859,0.0872703122951442
0.204358066853209,0.086518143396751
0.205007667597432,0.0857845628529852
0.205641866412245,0.0850699980641428
0.206260551087361,0.0843748764305197
0.206863609412498,0.083699625352412
0.207450929177369,0.0830446722301153
0.208022398171692,0.0824104444639257
0.208577904185181,0.0817973694541391
0.209117335007551,0.0812058746010513
0.209640578428519,0.0806363873049583
0.2101475222378,0.080089334966156
0.210638054225109,0.0795651449849403
0.211112062180162,0.0790642447616071
0.211569433892674,0.0785870616964523
0.212010057152361,0.0781340231897719
0.212433819748938,0.0777055566418617
0.212840609472121,0.0773020894530176
0.213230314111625,0.0769240490235356
0.213602821457167,0.0765718627537116
0.21395801929846,0.0762459580438414
0.214295795425221,0.0759467622942211
0.214616037627166,0.0756747029051464
0.214918633694009,0.0754302072769133
0.215203471415467,0.0752137028098178
0.215470438581255,0.0750256169041557
0.215719422981087,0.0748663769602229
0.215950312404681,0.0747364103783153
0.216162994641751,0.074636144558729
0.216357357482013,0.0745660069017596
0.216533288715182,0.0745264248077033
0.216690676130974,0.0745178256768558
0.216829407519104,0.0745406369095132
0.216949370669288,0.0745952859059712
0.217050453371241,0.0746822000665258
0.217132543414679,0.074801806791473
0.217195528589318,0.0749545334811086
0.217239296684872,0.0751408075357285
0.217263735491057,0.0753610563556288
0.21726873279759,0.0756157073411051
0.217254176394184,0.0759051878924536
0.217219954070557,0.07622992540997
0.217165953616423,0.0765903472939503
0.217092062821497,0.0769868809446904
0.216998169475496,0.0774199537624862
0.216884161368135,0.0778899931476336
0.216749926289129,0.0783974265004286
0.216595352028194,0.078942681221167
0.216420326375045,0.0795261847101448
0.216224737119398,0.0801483643676578
0.216008472050968,0.0808096475940019
0.215771418959471,0.0815104617894732
0.215513465634622,0.0822512343543675
0.215234499866137,0.0830323926889806
0.214934409443732,0.0838543641936085
0.214613082157121,0.0847175762685472
0.214270405796021,0.0856224563140925
0.213906268150146,0.0865694317305403
0.213520557009213,0.0875589299181866
0.213113160162936,0.0885913782773272
0.212683965401032,0.0896672042082582
0.212232860513215,0.0907868351112752
0.211759733289202,0.0919506983866744
0.211264471518708,0.0931592214347515
0.210746962991448,0.0944128316558026
0.210207095497138,0.0957119564501235
0.209644756825493,0.09705702321801
0.209059834766229,0.0984484593597582
0.208452217109061,0.0998866922756641
0.207821791643705,0.101372149366023
0.207168446159877,0.102905258031132
0.206492068447291,0.104486445671286
0.205792546295663,0.106116139686781
0.20506976749471,0.107794767477913
0.204323619834145,0.109522756444978
0.203553991103686,0.111300533988272
0.202760769093046,0.113128527508091
0.201943841591943,0.11500716440473
0.201103096390091,0.116936872078487
0.200238421277205,0.118918077929655
0.199349704043002,0.120951209358533
0.198436832477197,0.123036693765414
0.197499694369505,0.125174958550596
0.196538177509642,0.127366431114374
0.195552169687323,0.129611538857044
0.194541558692264,0.131910709178903
0.193506232314181,0.134264369480245
0.192446078342788,0.136672947161367
0.191360984567801,0.139136869622564
0.190250838778936,0.141656564264134
0.189115528765909,0.144232458486371
0.187954942318434,0.146864979689571
0.186768967226228,0.149554555274031
0.185557491279005,0.152301612640045
0.184320402266482,0.155106579187912
0.183057587978374,0.157969882317925
0.181768936204395,0.160891949430381
0.180454334734263,0.163873207925576
0.179113671357692,0.166914085203807
0.177746833864398,0.170015008665367
0.176353710044096,0.173176405710555
0.174934187686502,0.176398703739665
0.173488154581331,0.179682330152993
0.172015498518299,0.183027712350836
0.170516107287121,0.186435277733489
0.168989868677514,0.189905453701249
0.167436670479191,0.19343866765441
0.165856400481869,0.19703534699327
0.164248946475264,0.200695919118123
0.16261419624909,0.204420811429266
0.160952037593064,0.208210451326996
0.1592623582969,0.212065266211606
0.157545046150315,0.215985683483394
0.155799988943024,0.219972130542656
0.154027074464742,0.224025034789687
0.152226190505184,0.228144823624784
0.150397224854067,0.232331924448241
0.148540065301106,0.236586764660356
0.146654599636016,0.240909771661424
0.144740715648513,0.24530137285174
0.142798301128312,0.249761995631602
0.14082724386513,0.254292067401304
0.13882743164868,0.258892015561143
0.136798752268679,0.263562267511415
0.134741093514842,0.268303250652415
0.132654343176886,0.273115392384439
0.130538389044524,0.277999120107784
0.128393118907474,0.282954861222745
0.126218420555449,0.287983043129618
0.124014181778167,0.293084093228699
0.121780290365342,0.298258438920284
0.119516634106689,0.303506507604669
0.117223100791925,0.30882872668215
0.114899578210765,0.314225523553022
0.112545954152924,0.319697325617582
0.110162116408118,0.325244560276126
0.107747952766062,0.330867654928948
0.105303351016472,0.336567036976346
0.102828198949063,0.342343133818616
0.100322384353552,0.348196372856052
0.0977857950196519,0.354127181488952
0.0952183187370801,0.36013598711761
0.0926198432955516,0.366223217142324
0.089990256484782,0.372389298963388
0.0873294460944865,0.378634659981099
0.084637299914381,0.384959727595752
0.0819137057341807,0.391364929207644
0.0791585513436013,0.39785069221707
0.0763717245323581,0.404417444024327
0.0735531130901668,0.41106561202971
0.0707026048067427,0.417795623633515
0.0678200874718015,0.424607906236037
0.0649054488750585,0.431502887237575
0.0619585768062295,0.438480994038421
0.0589793590550296,0.445542654038874
0.0589793590550296,0.445542654038874
0.0559941704199846,0.452593517487414
0.0530294122366142,0.459539228017444
0.0500850121001255,0.46638020310664
0.0471608976057253,0.473116860232678
0.0442569963486206,0.479749616873235
0.0413732359240184,0.486278890505985
0.0385095439271256,0.492705098608606
0.0356658479531493,0.499028658658774
0.0328420755972963,0.505249988134165
0.0300381544547737,0.511369504512455
0.0272540121207884,0.51738762527132
0.0244895761905474,0.523304767888436
0.0217447742592576,0.529121349841481
0.019019533922126,0.534837788608128
0.0163137827743596,0.540454501666056
0.0136274484111653,0.545971906492939
0.0109604584277501,0.551390420566455
0.00831274041932093,0.556710461364279
0.00568422198108481,0.561932446364088
0.00307483070824865,0.567056793043557
0.000484494196019467,0.572083918880364
-0.00208685996039582,0.577014241352183
-0.00463930416579022,0.581848177936691
-0.00717291082495678,0.586586146111565
-0.00968775234268854,0.591228563354481
-0.0121839011237785,0.595775847143114
-0.0146614295730198,0.60022841495514
-0.0171204100952053,0.604586684268237
-0.0195609150951282,0.60885107256008
-0.0219830169775815,0.613021997308346
-0.0243867881473582,0.61709987599071
-0.0267723010092513,0.621085126084848
-0.0291396279680539,0.624978165068438
-0.031488841428559,0.628779410419154
-0.0338200137955597,0.632489279614673
-0.0361332174738489,0.636108190132672
-0.0384285248682198,0.639636559450826
-0.0407060083834654,0.643074805046812
-0.0429657404243786,0.646423344398306
-0.0452077933957526,0.649682594982984
-0.0474322397023803,0.652852974278521
-0.0496391517490549,0.655934899762596
-0.0518286019405692,0.658928788912882
-0.0540006626817165,0.661835059207057
-0.0561554063772897,0.664654128122797
-0.0582929054320818,0.667386413137778
-0.0604132322508859,0.670032331729676
-0.062516459238495,0.672592301376168
-0.0646026587997022,0.675066739554929
-0.0666719033393004,0.677456063743635
-0.0687242652620828,0.679760691419963
-0.0707598169728424,0.681981040061589
-0.0727786308763722,0.68411752714619
-0.0747807793774651,0.68617057015144
-0.0767663348809144,0.688140586555017
-0.078735369791513,0.690027993834597
-0.0806879565140539,0.691833209467855
-0.0826241674533301,0.693556650932468
-0.0845440750141348,0.695198735706112
-0.086447751601261,0.696759881266464
-0.0883352696195016,0.698240505091199
-0.0902067014736498,0.699641024657994
-0.0920621195684985,0.700961857444524
-0.0939015963088408,0.702203420928466
-0.0957252040994697,0.703366132587497
-0.0975330153451783,0.704450409899291
-0.0993251024507596,0.705456670341526
-0.101101537821007,0.706385331391878
-0.102862393860712,0.707236810528022
-0.10460774297467,0.708011525227635
-0.106337657567673,0.708709892968393
-0.108052210044513,0.709332331227973
-0.109751472809984,0.70987925748405
-0.111435518268879,0.7103510892143
-0.113104418825992,0.7107482438964
-0.114758246886114,0.711071139008026
-0.116397074854039,0.711320192026854
-0.11802097513456,0.71149582043056
-0.119630020132471,0.71159844169682
-0.121224282252564,0.711628473303312
-0.122803833899631,0.711586332727709
-0.124368747478467,0.71147243744769
-0.125919095393865,0.711287204940929
-0.127454950050617,0.711031052685104
-0.128976383853516,0.710704398157891
-0.130483469207355,0.710307658836964
-0.131976278516928,0.709841252200001
-0.133454884187027,0.709305595724679
-0.134919358622446,0.708701106888672
-0.136369774227977,0.708028203169658
-0.137806203408414,0.707287302045311
-0.13922871856855,0.70647882099331
-0.140637392113177,0.705603177491329
-0.142032296447088,0.704660789017044
-0.143413503975078,0.703652073048133
-0.144781087101938,0.702577447062271
-0.146135118232462,0.701437328537134
-0.147475669771443,0.700232134950399
-0.148802814123674,0.698962283779741
-0.150116623693947,0.697628192502837
-0.151417170887057,0.696230278597364
-0.152704528107795,0.694768959540996
-0.153978767760955,0.69324465281141
-0.155239962251331,0.691657775886283
-0.156488183983714,0.690008746243291
-0.157723505362899,0.68829798136011
-0.158945998793678,0.686525898714415
-0.160155736680843,0.684692915783884
-0.16135279142919,0.682799450046191
-0.162537235443509,0.680845918979015
-0.163709141128595,0.67883274006003
-0.16486858088924,0.676760330766912
-0.166015627130237,0.674629108577339
-0.167150352256379,0.672439490968986
-0.168272828672461,0.670191895419529
-0.169383128783273,0.667886739406644
-0.17048132499361,0.665524440408008
-0.171567489708265,0.663105415901297
-0.17264169533203,0.660630083364187
-0.173704014269699,0.658098860274354
-0.174754518926064,0.655512164109474
-0.175793281705919,0.652870412347223
-0.176820375014057,0.650174022465278
-0.17783587125527,0.647423411941315
-0.178839842834353,0.64461899825301
-0.179832362156097,0.641761198878039
-0.180813501625296,0.638850431294078
-0.181783333646742,0.635887112978804
-0.18274193062523,0.632871661409892
-0.183689364965552,0.629804494065018
-0.184625709072501,0.62668602842186
-0.185551035350869,0.623516681958093
-0.186465416205451,0.620296872151393
-0.187368924041039,0.617027016479436
-0.188261631262426,0.613707532419899
-0.189143610274406,0.610338837450458
-0.19001493348177,0.606921349048788
-0.190875673289313,0.603455484692567
-0.191725902101827,0.59994166185947
-0.192565692324105,0.596380298027173
-0.193395116360941,0.592771810673352
-0.194214246617127,0.589116617275685
-0.195023155497456,0.585415135311846
-0.195821915406722,0.581667782259512
-0.196610598749718,0.57787497559636
-0.197389277931235,0.574037132800065
-0.198158025356069,0.570154671348303
-0.198916913429011,0.566228008718751
-0.199666014554855,0.562257562389085
-0.200405401138393,0.558243749836981
-0.20113514558442,0.554186988540115
-0.201855320297727,0.550087695976163
-0.202565997683107,0.545946289622802
-0.203267250145355,0.541763186957708
-0.203959150089262,0.537538805458556
-0.204641769919622,0.533273562603023
-0.205315182041229,0.528967875868786
-0.205979458858874,0.52462216273352
-0.206634672777351,0.520236840674901
-0.207280896201453,0.515812327170606
-0.207918201535973,0.511349039698311
-0.208546661185705,0.506847395735692
-0.20916634755544,0.502307812760425
-0.209777333049973,0.497730708250186
-0.210379690074096,0.493116499682652
-0.210973491032602,0.488465604535498
-0.211558808330285,0.483778440286401
-0.212135714371936,0.479055424413038
-0.212704281562351,0.474296974393083
-0.21326458230632,0.469503507704214
-0.213816689008638,0.464675441824105
-0.214360674074097,0.459813194230435
-0.214896609907491,0.454917182400879
-0.215424568913613,0.449987823813112
-0.215944623497255,0.445025535944811
-0.216456846063211,0.440030736273653
-0.216961309016273,0.435003842277314
-0.217458084761235,0.429945271433468
-0.217947245702889,0.424855441219794
-0.21842886424603,0.419734769113967
-0.218903012795449,0.414583672593662
-0.21936976375594,0.409402569136557
-0.219829189532296,0.404191876220327
-0.22028136252931,0.398952011322649
-0.220726355151775,0.393683391921199
-0.221164239804483,0.388386435493652
-0.221595088892229,0.383061559517686
-0.222018974819805,0.377709181470976
-0.222435969992004,0.372329718831198
-0.222846146813619,0.366923589076029
-0.223249577689443,0.361491209683145
-0.223646335024269,0.356032998130221
-0.224036491222891,0.350549371894935
-0.2244201186901,0.345040748454962
-0.224797289830691,0.339507545287978
-0.225168077049457,0.33395017987166
-0.22553255275119,0.328369069683683
-0.225890789340683,0.322764632201724
-0.226242859222729,0.31713728490346
-0.226588834802122,0.311487445266565
-0.226928788483655,0.305815530768717
-0.22726279267212,0.300121958887592
-0.227590919772311,0.294407147100865
-0.22791324218902,0.288671512886213
-0.228229832327041,0.282915473721312
-0.228540762591167,0.277139447083839
-0.22884610538619,0.271343850451468
-0.229145933116904,0.265529101301878
-0.229440318188102,0.259695617112742
-0.229729333004577,0.253843815361739
-0.230013049971121,0.247974113526544
-0.230291541492529,0.242086929084833
-0.230564879973592,0.236182679514282
-0.230833137819105,0.230261782292568
-0.231096387433859,0.224324654897366
-0.231354701222648,0.218371714806354
-0.231608151590266,0.212403379497206
-0.231856810941505,0.2064200664476
-0.232100751681157,0.20042219313521
-0.232340046214017,0.194410177037715
-0.232574766944878,0.188384435632789
-0.232804986278531,0.182345386398108
-0.233030776619771,0.17629344681135
-0.23325221037339,0.17022903435019
-0.233469359944181,0.164152566492304
-0.233682297736938,0.158064460715369
-0.233891096156454,0.15196513449706
-0.23409582760752,0.145855005315055
-0.234296564494932,0.139734490647027
-0.23449337922348,0.133604007970656
-0.23468634419796,0.127463974763615
-0.234875531823163,0.121314808503582
-0.235061014503883,0.115156926668233
-0.235242864644912,0.108990746735243
-0.235421154651044,0.10281668618229
-0.235595956927072,0.0966351624870483
-0.235767343877789,0.0904465931271949
-0.235935387907987,0.0842513955804063
-0.23610016142246,0.0780499873243579
-0.236261736826002,0.0718427858367267
-0.236420186523404,0.0656302085951881
-0.23657558291946,0.0594126730774188
-0.236727998418963,0.0531905967610946
-0.236877505426707,0.046964397123892
-0.237024176347483,0.0407344916434868
-0.237168083586085,0.0345012977975556
-0.237309299547307,0.0282652330637741
-0.237447896635941,0.0220267149198188
-0.23758394725678,0.0157861608433656
-0.237717523814617,0.00954398831209113
-0.237848698714246,0.00330061480367091
-0.237977544360459,-0.00294354220421833
-0.238104133158049,-0.00918806523390089
-0.23822853751181,-0.0154325368077001
-0.238350829826534,-0.0216765394479404
-0.238471082507014,-0.027919655676945
-0.238589367958045,-0.0341614680170383
-0.238705758584417,-0.0404015589905437
-0.238820326790926,-0.0466395111197854
-0.238933144982363,-0.0528749069270867
-0.239044285563521,-0.0591073289347722
-0.239153820939194,-0.065336359665165
-0.239261823514175,-0.0715615816405895
-0.239368365693257,-0.077782577383369
-0.239473519881233,-0.083998929415828
-0.239577358482895,-0.0902102202602896
-0.239679953903037,-0.0964160324390783
-0.239781378546452,-0.102615948474517
-0.239881704817934,-0.108809550888931
-0.239981005122274,-0.114996422204643
-0.240079351864266,-0.121176144943977
-0.240176817448703,-0.127348301629257
-0.240273474280378,-0.133512474782807
-0.240369394764085,-0.139668246926951
-0.240464651304615,-0.145815200584012
-0.240559316306763,-0.151952918276314
-0.240653462175321,-0.158080982526182
-0.240747161315082,-0.164198975855938
-0.24084048613084,-0.170306480787908
-0.240933509027387,-0.176403079844414
-0.241026302409516,-0.18248835554778
-0.241118938682021,-0.188561890420331
-0.241211490249694,-0.19462326698439
-0.241304029517328,-0.200672067762281
-0.241396628889717,-0.206707875276328
-0.241489360771654,-0.212730272048855
-0.241582297567931,-0.218738840602185
-0.241675511683342,-0.224733163458642
-0.24176907552268,-0.230712823140551
-0.241863061490737,-0.236677402170235
-0.241957541992307,-0.242626483070017
-0.242052589432183,-0.248559648362222
-0.242148276215157,-0.254476480569174
-0.242244674746024,-0.260376562213196
-0.242341857429575,-0.266259475816613
-0.242439896670604,-0.272124803901747
-0.242538864873904,-0.277972128990923
-0.242638834444268,-0.283801033606465
-0.24273987778649,-0.289611100270697
-0.242842067305361,-0.295401911505942
-0.242945475405675,-0.301173049834524
-0.243050174492225,-0.306924097778767
-0.243156236969805,-0.312654637860996
-0.243263735243207,-0.318364252603532
-0.243372741717224,-0.324052524528702
-0.243483328796649,-0.329719036158827
-0.243595568886276,-0.335363370016234
-0.243709534390897,-0.340985108623244
-0.243825297715305,-0.346583834502182
-0.243942931264294,-0.352159130175371
-0.244062507442656,-0.357710578165137
-0.244184098655185,-0.363237760993802
-0.244307777306673,-0.36874026118369
-0.244433615801914,-0.374217661257125
-0.2445616865457,-0.379669543736431
-0.244692061942825,-0.385095491143932
-0.244824814398082,-0.390495086001951
-0.244960016316263,-0.395867910832813
-0.245097740102162,-0.401213548158841
-0.245238058160572,-0.406531580502359
-0.245381042896286,-0.411821590385692
-0.245526766714096,-0.417083160331162
-0.245675302018797,-0.422315872861093
-0.24582672121518,-0.42751931049781
-0.245981096708039,-0.432693055763637
-0.246138500902168,-0.437836691180896
-0.246299006202358,-0.442949799271913
-0.246462685013403,-0.44803196255901
-0.246629609740097,-0.453082763564512
-0.246799852787231,-0.458101784810742
-0.2469734865596,-0.463088608820025
-0.247150583461996,-0.468042818114683
-0.247331215899212,-0.472963995217042
-0.247515456276042,-0.477851722649425
-0.247703376997277,-0.482705582934155
-0.247895050467713,-0.487525158593556
-0.24809054909214,-0.492310032149953
-0.248289945275353,-0.49705978612567
-0.248493311422144,-0.501774003043029
-0.248700719937307,-0.506452265424355
-0.248912243225635,-0.511094155791971
-0.24912795369192,-0.515699256668202
-0.249347923740955,-0.520267150575372
-0.249572225777535,-0.524797420035803
-0.24980093220645,-0.529289647571821
-0.250034115432496,-0.533743415705748
-0.250271847860464,-0.53815830695991
-0.250514201895149,-0.542533903856628
-0.250761249941341,-0.546869788918228
-0.251013064403836,-0.551165544667034
-0.251269717687426,-0.555420753625368
-0.251531282196903,-0.559634998315555
-0.251797830337062,-0.563807861259919
-0.252069434512695,-0.567938924980783
-0.252346167128594,-0.572027772000472
-0.252628100589554,-0.576073984841309
-0.252915307300366,-0.580077146025618
-0.253207859665825,-0.584036838075722
-0.253505830090723,-0.587952643513947
-0.253809290979854,-0.591824144862615
-0.254118314738009,-0.595650924644051
-0.254432973769983,-0.599432565380577
-0.254753340480568,-0.603168649594519
-0.255079487274557,-0.6068587598082
-0.255411486556744,-0.610502478543943
-0.255749410731921,-0.614099388324073
-0.256093332204882,-0.617649071670913
-0.256443323380419,-0.621151111106788
-0.256799456663326,-0.62460508915402
-0.257161804458395,-0.628010588334935
-0.25753043917042,-0.631367191171855
-0.257905433204194,-0.634674480187105
-0.258286858964509,-0.637932037903008
-0.258674788856159,-0.641139446841889
-0.259069295283937,-0.64429628952607
-0.259470450652635,-0.647402148477877
-0.259878327367048,-0.650456606219632
-0.260292997831967,-0.65345924527366
-0.260714534452186,-0.656409648162284
-0.261143009632498,-0.659307397407829
-0.261578495777696,-0.662152075532618
-0.262021065292573,-0.664943265058974
-0.262470790581921,-0.667680548509223
-0.262927744050536,-0.670363508405687
-0.263391998103208,-0.67299172727069
-0.263863625144731,-0.675564787626557
-0.264342697579898,-0.678082271995611
-0.264829287813503,-0.680543762900175
-0.265323468250338,-0.682948842862575
-0.265825311295196,-0.685297094405133
-0.266334889352871,-0.687588100050174
-0.266852274828154,-0.689821442320021
-0.267377540125841,-0.691996703736998
-0.267910757650722,-0.694113466823429
-0.268451999807593,-0.696171314101638
-0.269001339001244,-0.698169828093949
-0.26955884763647,-0.700108591322685
-0.270124598118064,-0.70198718631017
-0.270698662850819,-0.703805195578729
-0.270698662850819,-0.703805195578729
-0.271283232061258,-0.705560373486477
-0.271880327628618,-0.707251044058412
-0.272489769436757,-0.708877644317181
-0.273111377369536,-0.710440611285432
-0.273744971310814,-0.71194038198581
-0.274390371144449,-0.713377393440963
-0.275047396754302,-0.714752082673535
-0.275715868024232,-0.716064886706177
-0.276395604838099,-0.717316242561532
-0.277086427079761,-0.718506587262249
-0.277788154633078,-0.719636357830973
-0.278500607381911,-0.720705991290352
-0.279223605210117,-0.721715924663032
-0.279956968001556,-0.72266659497166
-0.280700515640089,-0.723558439238883
-0.281454068009574,-0.724391894487347
-0.282217444993871,-0.725167397739699
-0.282990466476839,-0.725885386018585
-0.283772952342337,-0.726546296346653
-0.284564722474226,-0.72715056574655
-0.285365596756364,-0.727698631240921
-0.286175395072611,-0.728190929852414
-0.286993937306826,-0.728627898603675
-0.287821043342869,-0.729009974517351
-0.2886565330646,-0.729337594616088
-0.289500226355877,-0.729611195922534
-0.29035194310056,-0.729831215459335
-0.291211503182508,-0.729998090249138
-0.292078726485582,-0.730112257314589
-0.292953432893639,-0.730174153678335
-0.293835442290541,-0.730184216363024
-0.294724574560145,-0.730142882391301
-0.295620649586312,-0.730050588785813
-0.296523487252902,-0.729907772569207
-0.297432907443772,-0.72971487076413
-0.298348730042784,-0.729472320393228
-0.299270774933796,-0.729180558479149
-0.300198862000667,-0.728840022044538
-0.301132811127258,-0.728451148112042
-0.302072442197427,-0.728014373704309
-0.303017575095035,-0.727530135843985
-0.303968029703939,-0.726998871553716
-0.304923625908001,-0.726421017856149
-0.305884183591079,-0.725797011773932
-0.306849522637033,-0.725127290329711
-0.307819462929721,-0.724412290546131
-0.308793824353005,-0.723652449445841
-0.309772426790742,-0.722848204051487
-0.310755090126793,-0.721999991385715
-0.311741634245016,-0.721108248471173
-0.312731879029272,-0.720173412330506
-0.31372564436342,-0.719195919986362
-0.314722750131319,-0.718176208461388
-0.315723016216828,-0.717114714778229
-0.316726262503807,-0.716011875959533
-0.317732308876116,-0.714868129027947
-0.318740975217613,-0.713683911006117
-0.319752081412159,-0.71245965891669
-0.320765447343612,-0.711195809782312
-0.321780892895833,-0.70989280062563
-0.32279823795268,-0.708551068469292
-0.323817302398013,-0.707171050335943
-0.324837906115692,-0.70575318324823
-0.325859868989575,-0.704297904228801
-0.326883010903522,-0.702805650300302
-0.327907151741394,-0.701276858485378
-0.328932111387048,-0.699711965806678
-0.329957709724345,-0.698111409286848
-0.330983766637143,-0.696475625948535
-0.332010102009303,-0.694805052814385
-0.333036535724684,-0.693100126907044
-0.334062887667145,-0.691361285249161
-0.335088977720546,-0.689588964863381
-0.336114625768746,-0.687783602772351
-0.337139651695605,-0.685945635998718
-0.338163875384981,-0.684075501565128
-0.339187116720734,-0.682173636494229
-0.340209195586725,-0.680240477808666
-0.341229931866811,-0.678276462531087
-0.342249145444854,-0.676282027684139
-0.343266656204711,-0.674257610290467
-0.344282284030243,-0.67220364737272
-0.345295848805309,-0.670120575953542
-0.346307170413768,-0.668008833055582
-0.34731606873948,-0.665868855701486
-0.348322363666304,-0.6637010809139
-0.349325875078099,-0.661505945715471
-0.350326422858726,-0.659283887128847
-0.351323826892043,-0.657035342176673
-0.35231790706191,-0.654760747881596
-0.353308483252187,-0.652460541266263
-0.354295375346732,-0.650135159353322
-0.355278403229406,-0.647785039165418
-0.356257386784066,-0.645410617725197
-0.357232145894574,-0.643012332055308
-0.358202500444789,-0.640590619178396
-0.359168270318569,-0.638145916117109
-0.360129275399775,-0.635678659894092
-0.361085335572265,-0.633189287531994
-0.3620362707199,-0.630678236053459
-0.362981900726538,-0.628145942481136
-0.363922045476039,-0.625592843837671
-0.364856524852262,-0.62301937714571
-0.365785158739068,-0.6204259794279
-0.366707767020315,-0.617813087706888
-0.367624169579862,-0.615181139005321
-0.36853418630157,-0.612530570345845
-0.369437637069297,-0.609861818751107
-0.370334341766903,-0.607175321243754
-0.371224120278248,-0.604471514846432
-0.37210679248719,-0.601750836581788
-0.37298217827759,-0.599013723472469
-0.373850097533307,-0.596260612541122
-0.374710370138199,-0.593491940810393
-0.375562815976127,-0.590708145302929
-0.37640725493095,-0.587909663041376
-0.377243506886528,-0.585096931048382
-0.378071391726719,-0.582270386346593
-0.378890729335384,-0.579430465958655
-0.379701339596381,-0.576577606907217
-0.380503042393571,-0.573712246214923
-0.381295657610812,-0.570834820904421
-0.382079005131963,-0.567945767998357
-0.382852904840886,-0.565045524519379
-0.383617176621438,-0.562134527490133
-0.384371640357479,-0.559213213933266
-0.385116115932869,-0.556282020871424
-0.385850423231468,-0.553341385327254
-0.386574382137133,-0.550391744323403
-0.387287812533726,-0.547433534882517
-0.387990534305105,-0.544467194027243
-0.38868236733513,-0.541493158780228
-0.38936313150766,-0.53851186616412
-0.390032646706555,-0.535523753201562
-0.390690732815673,-0.532529256915204
-0.391337209718876,-0.529528814327692
-0.391971897300021,-0.526522862461673
-0.392594615442968,-0.523511838339792
-0.393205184031578,-0.520496178984697
-0.393803422949708,-0.517476321419035
-0.39438915208122,-0.514452702665452
-0.394962191309971,-0.511425759746595
-0.395522360519822,-0.50839592968511
-0.396069479594632,-0.505363649503645
-0.39660336841826,-0.502329356224846
-0.397123846874565,-0.49929348687136
-0.397630734847408,-0.496256478465832
-0.398123852220648,-0.493218768030912
-0.398603018878144,-0.490180792589244
-0.399068054703755,-0.487142989163475
-0.399518779581341,-0.484105794776253
-0.399955013394762,-0.481069646450224
-0.400376576027876,-0.478034981208034
-0.400783287364543,-0.475002236072331
-0.401174967288623,-0.47197184806576
-0.401551435683975,-0.46894425421097
-0.401912512434459,-0.465919891530606
-0.402258017423933,-0.462899197047315
-0.402587770536257,-0.459882607783744
-0.402901591655292,-0.45687056076254
-0.403199300664896,-0.453863493006349
-0.403480717448928,-0.450861841537817
-0.403745661891248,-0.447866043379593
-0.403993953875716,-0.444876535554322
-0.40422541328619,-0.441893755084651
-0.404439860006531,-0.438918138993227
-0.404637113920597,-0.435950124302696
-0.404816994912249,-0.432990148035706
-0.404979322865345,-0.430038647214902
-0.405123917663746,-0.427096058862932
-0.405250599191309,-0.424162820002442
-0.405359187331896,-0.42123936765608
-0.405449501969365,-0.418326138846491
-0.405521362987575,-0.415423570596322
-0.405574590270387,-0.412532099928221
-0.405609003701659,-0.409652163864833
-0.405624423165251,-0.406784199428806
-0.405620668545023,-0.403928643642786
-0.405597559724833,-0.40108593352942
-0.405554916588542,-0.398256506111355
-0.405492559020009,-0.395440798411237
-0.405410306903092,-0.392639247451713
-0.405307980121652,-0.38985229025543
-0.405185398559548,-0.387080363845034
-0.40504238210064,-0.384323905243173
-0.404878750628786,-0.381583351472492
-0.404694324027847,-0.378859139555639
-0.404488922181681,-0.37615170651526
-0.404262364974148,-0.373461489374002
-0.404014472289108,-0.370788925154512
-0.40374506401042,-0.368134450879436
-0.403453960021943,-0.365498503571421
-0.403140980207537,-0.362881520253114
-0.402805944451061,-0.360283937947162
-0.402448672636375,-0.35770619367621
-0.402068984647338,-0.355148724462907
-0.40166670036781,-0.352611967329898
-0.401241639681649,-0.35009635929983
-0.400793622472716,-0.347602337395351
-0.400322468624869,-0.345130338639106
-0.399827998021969,-0.342680800053742
-0.399310030547875,-0.340254158661907
-0.398768386086445,-0.337850851486246
-0.39820288452154,-0.335471315549407
-0.397613345737019,-0.333115987874036
-0.396999589616741,-0.33078530548278
-0.396361436044566,-0.328479705398286
-0.395698704904354,-0.3261996246432
-0.395011216079962,-0.323945500240169
-0.394298789455252,-0.32171776921184
-0.393561244914083,-0.319516868580859
-0.392798402340313,-0.317343235369873
-0.392010081617803,-0.315197306601529
-0.391196102630411,-0.313079519298474
-0.390356285261998,-0.310990310483354
-0.389490449396422,-0.308930117178816
-0.388598414917543,-0.306899376407506
-0.387680001709221,-0.304898525192072
-0.386735029655315,-0.30292800055516
-0.385763318639684,-0.300988239519417
-0.384764688546187,-0.299079679107489
-0.383738959258685,-0.297202756342023
-0.382685950661037,-0.295357908245667
-0.381605482637101,-0.293545571841065
-0.380497375070738,-0.291766184150866
-0.379361447845807,-0.290020182197716
-0.378197520846167,-0.288308003004262
-0.377005413955678,-0.28663008359315
-0.375784947058199,-0.284986860987027
-0.374535940037589,-0.28337877220854
-0.373258212777709,-0.281806254280336
-0.371951585162417,-0.28026974422506
-0.370615877075573,-0.278769679065361
-0.369250908401036,-0.277306495823884
-0.367856499022666,-0.275880631523276
-0.366432468824322,-0.274492523186185
-0.364978637689863,-0.273142607835256
-0.36349482550315,-0.271831322493137
-0.361980852148041,-0.270559104182473
-0.360436537508396,-0.269326389925913
-0.358861701468074,-0.268133616746102
-0.357256163910935,-0.266981221665687
-0.355619744720838,-0.265869641707315
-0.353952263781642,-0.264799313893633
-0.352253540977207,-0.263770675247287
-0.350523396191393,-0.262784162790925
-0.348761649308059,-0.261840213547192
-0.346968120211064,-0.260939264538735
-0.345142628784267,-0.260081752788202
-0.343284994911529,-0.259268115318238
-0.341395038476708,-0.258498789151491
-0.339472579363665,-0.257774211310607
-0.337517437456257,-0.257094818818233
-0.335529432638346,-0.256461048697016
-0.333508384793789,-0.255873337969602
-0.331454113806448,-0.255332123658639
-0.32936643956018,-0.254837842786772
-0.327245181938846,-0.254390932376648
-0.325090160826305,-0.253991829450915
-0.322901196106416,-0.253640971032218
-0.320678107663039,-0.253338794143206
-0.318420715380033,-0.253085735806523
-0.316128839141258,-0.252882233044818
-0.313802298830573,-0.252728722880736
-0.311440914331837,-0.252625642336924
-0.309044505528911,-0.25257342843603
-0.306612892305652,-0.252572518200699
-0.304145894545922,-0.252623348653579
-0.301643332133579,-0.252726356817316
-0.299105024952482,-0.252881979714558
-0.296530792886491,-0.253090654367949
-0.293920455819466,-0.253352817800138
-0.291273833635266,-0.253668907033771
-0.28859074621775,-0.254039359091495
-0.285871013450778,-0.254464610995956
-0.283114455218209,-0.254945099769802
-0.280320891403903,-0.255481262435678
-0.277490141891719,-0.256073536016232
-0.274622026565516,-0.25672235753411
-0.271716365309154,-0.257428164011958
-0.268772978006493,-0.258191392472425
-0.265791684541391,-0.259012479938156
-0.262772304797708,-0.259891863431798
-0.259714658659304,-0.260829979975998
-0.256618566010038,-0.261827266593402
-0.25348384673377,-0.262884160306657
-0.250310320714358,-0.26400109813841
-0.247097807835663,-0.265178517111308
-0.243846127981543,-0.266416854247997
-0.240555101035859,-0.267716546571124
-0.237224546882469,-0.269078031103336
-0.233854285405233,-0.270501744867279
-0.23044413648801,-0.2719881248856
-0.226993920014661,-0.273537608180946
-0.223503455869043,-0.275150631775963
-0.219972563935018,-0.276827632693299
-0.216401064096443,-0.2785690479556
-0.21278877623718,-0.280375314585512
-0.209135520241086,-0.282246869605682
-0.205441115992021,-0.284184150038758
-0.201705383373846,-0.286187592907385
-0.197928142270418,-0.28825763523421
-0.194109212565599,-0.290394714041881
-0.190248414143246,-0.292599266353043
-0.18634556688722,-0.294871729190344
-0.182400490681381,-0.297212539576431
-0.178413005409586,-0.299622134533949
-0.174382930955696,-0.302100951085546
-0.170310087203571,-0.304649426253868
-0.166194294037069,-0.307267997061562
-0.16203537134005,-0.309957100531275
-0.157833138996374,-0.312717173685653
-0.1535874168899,-0.315548653547344
-0.149298024904487,-0.318451977138993
-0.144964782923995,-0.321427581483248
-0.140587510832284,-0.324475903602755
-0.136166028513211,-0.327597380520161
-0.131700155850639,-0.330792449258113
-0.127189712728424,-0.334061546839257
-0.122634519030428,-0.33740511028624
-0.118034394640508,-0.340823576621709
-0.113389159442526,-0.344317382868311
-0.10869863332034,-0.347886966048691
-0.10396263615781,-0.351532763185498
-0.0991809878387942,-0.355255211301377
-0.0943535082471534,-0.359054747418975
-0.0894800172667464,-0.36293180856094
-0.0845603347814329,-0.366886831749917
-0.079594280675072,-0.370920254008553
-0.0745816748315236,-0.375032512359496
-0.0695223371346465,-0.379224043825391
-0.0644160874683008,-0.383495285428886
-0.0592627457163453,-0.387846674192627
-0.0540621317626399,-0.392278647139261
-0.0488140654910437,-0.396791641291435
-0.0435183667854165,-0.401386093671795
-0.0381748555296172,-0.406062441302988
-0.0327833516075058,-0.41082112120766
-0.0273436749029411,-0.415662570408459
-0.0218556452997832,-0.420587225928032
-0.0163190826818909,-0.425595524789024
-0.0107338069331243,-0.430687904014082
-0.00509963793734214,-0.435864800625854
0.000583604421595593,-0.441126651646986
0.00631610025983001,-0.446473894100124
0.0120980296935012,-0.451906965007916
0.0179295728387501,-0.457426301393008
0.0238109098117168,-0.463032340278047
0.0297422207285425,-0.468725518685679
0.0357236857053672,-0.474506273638551
0.041755484858332,-0.48037504215931
0.047837798303577,-0.486332261270603
0.0539708061572432,-0.492378367995075
0.0601546885354707,-0.498513799355375
0.0663896255544006,-0.504738992374149
0.0726757973301729,-0.511054384074043
0.0790133839789289,-0.517460411477704
0.0854025656168083,-0.523957511607778
0.0918435223599526,-0.530546121486914
0.0983364343245013,-0.537226678137756
0.104881481626596,-0.543999618582953
0.111478844382377,-0.550865379845149
0.118128702707984,-0.557824398946994
0.124831236719559,-0.564877112911132
0.131586626533242,-0.572023958760211
0.138395052265173,-0.579265373516877
0.145256694031493,-0.586601794203778
0.152171731948343,-0.594033657843559
0.159140346131863,-0.601561401458868
0.166162716698193,-0.609185462072351
0.173239023763475,-0.616906276706655
0.180369447443849,-0.624724282384427
0.187554167855455,-0.632639916128313
0.194793365114434,-0.64065361496096
0.202087219336927,-0.648765815905015
0.209435910639074,-0.656976955983124
0.216839619137016,-0.665287472217934
0.224298524946893,-0.673697801632092
0.231812808184847,-0.682208381248245
0.239382648967016,-0.690819648089039
0.247008227409543,-0.699532039177121
0.254689723628567,-0.708345991535137
0.262427317740229,-0.717261942185735
0.27022118986067,-0.726280328151561
0.278071520106031,-0.735401586455262
0.285978488592451,-0.744626154119484
0.293942275436072,-0.753954468166875
0.301963060753034,-0.76338696562008
0.310041024659478,-0.772924083501747
0.318176347271544,-0.782566258834522
0.326369208705372,-0.792313928641052
0.334619789077104,-0.802167529943984
0.34292826850288,-0.812127499765964
0.351294827098841,-0.822194275129639
0.359719644981126,-0.832368293057657
0.368202902265877,-0.842649990572662
0.376744779069235,-0.853039804697303
0.385345455507339,-0.863538172454226
0.394005111696331,-0.874145530866077
