0.905871926395965,0.346711123406938
0.884118082363017,0.33859144708917
0.862656802351402,0.330608321547778
0.841486451047856,0.322761046982679
0.820605393139116,0.315048923593791
0.800011993311916,0.307471251581031
0.779704616252994,0.300027331144317
0.853164438177296,0.398182410437975
0.739941389186922,0.285537945798693
0.720482268553245,0.278491081289619
0.701302629434788,0.271575169156259
0.682400836518287,0.264789509598531
0.663775254490478,0.258133402816353
0.645424248038097,0.251606149009641
0.627346181847878,0.245207048378313
0.60953942060656,0.238935401122287
0.592002329000876,0.232790507441479
0.574733271717563,0.226771667535807
0.557730613443357,0.220878181605188
0.540992718864994,0.21510934984954
0.524517952669209,0.209464472468779
0.508304679542739,0.203942849662824
0.492351264172318,0.198543781631591
0.59385576739357,0.291688626692374
0.359780372678609,0.0822066991981678
0.446033811464716,0.183074908185401
0.431103473985854,0.178159061252232
0.416424817696722,0.173362270093372
0.401996207284054,0.168683834908738
0.387816007434588,0.164123055898248
0.373882582835058,0.159679233261819
0.360194298172201,0.155351667199368
0.346749518132752,0.151139657910813
0.447425181630083,0.250349120542222
0.320583930671023,0.14305951045506
0.307859852622214,0.139189972687696
0.295372737943757,0.135433192493897
0.283120951322388,0.131788470073581
0.271102857444842,0.128255105626664
0.259316820997855,0.124832399353064
0.247761206668164,0.121519651452698
0.329227010200957,0.211618613833015
0.225334703107609,0.115221231571339
0.214460543250217,0.112234159990181
0.203810264257064,0.109354247581925
0.193382230814885,0.106580794546491
0.183174807610415,0.103913101083795
0.173186359330392,0.101350467393754
0.16341525066155,0.0988921936762866
0.153859846290626,0.0965375801313091
0.144518510904356,0.094285926958739
0.251919460156211,0.196642346910803
0.126471505832717,0.0900887025304906
0.117762565520821,0.0881417316746469
0.109261152940522,0.08629492199088
0.100965632778556,0.0845475736791072
0.0928743697216572,0.0828989869392459
0.084985728456563,0.0813484619712132
0.0772980736700086,0.0798952989749267
0.0698097700487302,0.0785387981503034
0.0625191822794633,0.0772782596972609
0.0554246750489438,0.0761129838157165
0.142504508694009,0.190717813895164
0.0418173609510907,0.0740654205667908
0.0353012834572285,0.0731817335992443
0.0289747452490572,0.0723905100028651
0.0228361110133124,0.0716910499775706
0.118432659205861,0.186303606929017
0.0111160132060461,0.0705646214399046
0.00553127900799605,0.0701362533273678
0.000127907529316046,0.0697968495855849
-0.00509573654325829,0.0695457104144733
-0.0101412885229911,0.0693821360139502
0.0763603298129191,0.162251121627313
-0.0197046574569885,0.0693148823243389
-0.0242257450377815,0.0694098034350854
-0.0285752817787897,0.0695894901160897
-0.0327549029932771,0.0698532425672691
-0.036766243994508,0.070200360988541
-0.0406109400957465,0.0706301455798227
-0.0442906266102568,0.0711418965410315
-0.047806938851303,0.0717349140720848
-0.0511615121321494,0.0724084983728998
0.0485065971810664,0.179871761131618
-0.0573919830662993,0.0739945680834844
-0.0602711513461311,0.0749056538930885
0.0361503622595728,0.193610211469615
-0.165954789962173,-0.0249023896222072
-0.0679840111958241,0.0781027175381566
-0.0702522005266682,0.0793206748249889
-0.0723717334034258,0.0806136004809214
-0.0743442451393611,0.0819807947058716
-0.0761713710477382,0.0834215576997568
-0.0778547464418213,0.0849351896624942
-0.0793960066348746,0.0865209907940013
-0.0807967869401622,0.0881782612941952
-0.0820587226709484,0.0899063013629934
-0.0831834491404972,0.0917044112003132
-0.084172601662073,0.0935718910060719
-0.0850278155489398,0.0955080409801867
-0.0857507261143617,0.0975121613225751
-0.086342968671603,0.0995835522331543
-0.0868061785339279,0.101721513911842
-0.0871419910146005,0.103925346558555
-0.187075760627598,0.0157685106560389
-0.0874379650840455,0.108527825555726
-0.0874013972993463,0.110925072306019
0.0160572754779307,0.210993500502265
-0.183275180946185,0.0142781673855064
-0.0865730984267316,0.118492443962737
-0.195889731782427,0.0119363737532504
-0.0854384227121995,0.123843386571254
-0.19256808301954,0.00918289514730199
-0.0838530287485684,0.129432620248896
-0.0828954007065011,0.132314846738432
-0.0818299990419516,0.135254546595002
-0.080658459068184,0.138251020018522
-0.0793824160984625,0.14130356720891
-0.0780035054460513,0.144411488366084
-0.0765233624242146,0.14757408368996
-0.0749436223462165,0.150790653380456
0.0183682222366524,0.258391340511865
-0.0714918922747927,0.157382916660978
-0.0696231729078955,0.160757210650838
-0.0676613977378935,0.164182679806987
-0.065608202078051,0.167658624329343
-0.0634652212416322,0.171184344417822
-0.0612340905419012,0.174759140272343
-0.0589164452921221,0.178382312092822
-0.0565139208055592,0.182053160079177
-0.0540281523954766,0.185770984431325
-0.0514607753751385,0.189535085349184
0.0433033416410982,0.287931107945487
-0.0460877367567525,0.197199317681702
-0.043285345785233,0.201098049496196
-0.0404078874565145,0.20504025867607
-0.0374569970838615,0.20902524542124
-0.0344343099805379,0.213052309931625
-0.0313414614598081,0.217120752407142
-0.0281800868349361,0.221229873047708
-0.0249518214191862,0.22537897205324
-0.0216583005258224,0.229567349623656
-0.018301159468109,0.233794305958873
-0.0148820335593101,0.238059141258808
-0.01140255811269,0.242361155723379
-0.00786436844151275,0.246699649552503
-0.00426909985904255,0.251073922946097
-0.000618387678543574,0.255483276104079
0.00308613278672003,0.259927009226365
0.00684282622348405,0.264404422512874
0.0106500573184843,0.268914816163522
0.0145061907584567,0.273457490378228
0.114437884729276,0.3877180733187
0.022358623420261,0.282636881299478
0.0263516520155647,0.287272198405858
0.0303870417027837,0.291936996875964
0.0344631571686541,0.296630576909713
0.0387075174477322,0.252731176115918
0.0427310241832916,0.306101282467812
0.193126464736444,0.430262815491988
0.0853332935516654,0.295597788285226
0.0280235361853468,0.295346190388414
0.0443342258222586,0.312964598601673
0.0639989209177904,0.330232737721031
-0.0211579648134544,0.217590286987352
0.111987486566645,0.373513658502245
0.0771044607350576,0.344995407229409
0.0468537515306543,0.387681911967933
0.0487168477103381,0.366919994482732
0.105746515769848,0.39268620218186
0.186519040049497,0.444127200548104
0.149302434561203,0.388196933034556
0.103885294895584,0.37507111323775
0.110251159153405,0.387032729752083
0.112933086582527,0.385238892805983
0.099198045263508,0.383325368888542
0.103093295219432,0.383082976757254
0.12657309702952,0.400604952873669
0.122325475379664,0.386030386070062
0.135692907283821,0.410917089061387
0.140255847458069,0.416091486597776
0.0710293569920056,0.362763824960857
0.17784284456192,0.455550290138605
0.153937184410041,0.431679599376071
0.176757742378555,0.439072848263452
0.163035486269735,0.442118776701715
0.0401261581257828,0.376165547332151
0.172100453652333,0.452589104272011
0.248975526266372,0.527890010725749
0.150501028597939,0.479341900920984
0.167890318595927,0.431054187011577
0.161125681755861,0.470443769420124
0.219965693740192,0.447237146375863
0.214637170175741,0.457151055759383
0.228640747698122,0.473193189396611
0.207765328289504,0.49466994898649
0.166944672649657,0.535550298953467
0.216467385694924,0.505212051770127
0.195348342244224,0.471504763433992
0.183730509894,0.496632872878387
0.343152389313924,0.614378723108033
0.11685068642989,0.426609141616194
0.235376020137549,0.528316392076642
0.201723082071263,0.485814898361015
0.234538717289222,0.529422558046835
0.24651904287258,0.540987761970267
0.229898343146563,0.515010211807226
0.216715813014594,0.531155588009325
0.256320678072923,0.55106353060447
0.259295389311433,0.553859746426521
0.262125845168146,0.556379927729084
0.264813242562467,0.558627165917269
0.267358778413797,0.56060455239619
0.269763649641542,0.562315178570958
0.272029053165103,0.563762135846684
0.274156185903884,0.56494851562848
0.276146244777289,0.565877409321459
0.187752946823528,0.456667153187168
0.279719928605584,0.566975104061411
0.28130594739928,0.567150087918607
0.282759680005214,0.567079951307433
0.284082323342787,0.566767785633
0.285275074331405,0.56621668230042
0.286339129890469,0.565429732714804
0.287275686939385,0.564410028281266
0.288085942397553,0.563160660404915
0.28877109318438,0.561684720490865
0.289332336219266,0.559985299944227
0.289770868421617,0.558065490170113
0.290087886710835,0.555928382573635
0.290284588006323,0.553577068559903
0.191420407623905,0.45378824107771
0.290321827293725,0.54824418690113
0.290164759124446,0.545268802066312
0.390914022737972,0.653341612714983
0.387843485210358,0.630586965011417
0.405483357537224,0.632957672496566
0.288393162480201,0.531379768810103
0.287670416924375,0.527426094042376
0.28683812664945,0.523286035503403
0.285897488574829,0.518962684598295
0.284849699619916,0.514459132732163
0.397279647236006,0.625754107644788
0.373454390566788,0.60862537196395
0.281075396667454,0.499898185418752
0.371397764585354,0.606399589717732
0.278045383820078,0.48934655816508
0.27637982489088,0.48382672004016
0.274615493517213,0.478148320789999
0.27275358661848,0.472314451819711
0.270795301114085,0.466328204534406
0.268741833923431,0.460192670339196
0.266594381965922,0.453910940639193
0.26435414216096,0.447486106839509
0.37558343213158,0.535460535570151
0.154341962927487,0.334622261501657
0.257088664855394,0.427383894893487
0.254489242854657,0.420417558746196
0.251803017603484,0.413323575524782
0.249031186021279,0.406105036634359
0.151641715813322,0.30008956306287
0.243235491541386,0.391306657466927
0.240214022482505,0.383733000000143
0.237111734770205,0.376047152484796
0.136935840763626,0.26240050668671
0.230669491062963,0.360351252928859
0.332915517744465,0.448977559744569
0.223918335774886,0.34424369004001
0.220429908586543,0.336043263358524
0.216867844261201,0.327749195059145
0.331155712323085,0.433818085262542
0.209527591877135,0.310892499227157
0.205751797657218,0.302336054504772
0.201907153977915,0.293698333784942
0.197994857758631,0.284982428472778
0.194016105918768,0.276191429973392
0.18997209537773,0.267328429691897
0.18586402305492,0.258396519033403
0.181693085869742,0.249398789403024
0.177460480741599,0.24033833220587
0.275935862254121,0.334138705062299
0.168815054334031,0.222041600731686
0.278026985233765,0.307366833159863
0.159937319187443,0.203531055851745
0.155414328135525,0.194203331897396
0.150836850657062,0.184831428806944
0.261745045570793,0.291971285796978
0.258112432870889,0.265601096819674
0.136789468856437,0.156481558770081
0.132006014865828,0.146963853186332
0.127174059045691,0.137417425492038
0.122294798315429,0.127845367092311
0.117369429594445,0.118250769392264
0.112399149802143,0.108636723797007
0.107385155857927,0.099006321711652
0.102328644681199,0.089362654541312
0.0972308131913636,0.079708813691098
0.0920928583078231,0.070047890566122
0.0869159769499813,0.0603829765714959
0.171812648198359,0.164326104300568
0.0764502224890072,0.0410535415937399
0.0711637432246815,0.0313952034208338
0.065843125163668,0.0217452399987246
-0.0453890817008953,-0.0836909886852212
0.162327166295274,0.0951873614358425
0.0496884073945335,-0.00712348771170312
0.0442432033408018,-0.0167090380795064
0.038769845087399,-0.0262707566709538
0.0332695295537285,-0.0358055520809334
-0.0857223240480823,-0.138955914770008
0.0221928143231974,-0.0547820077360421
0.0166188084651437,-0.0642174851709477
-0.0884761134290194,-0.171862410348204
0.00540548486047635,-0.0829674822299021
-0.000231439047330445,-0.0922758190437274
-0.00588694179958157,-0.101535592840302
0.0857652472522027,-0.00133532466650374
-0.0172488961598033,-0.119897085761254
-0.0229529539289672,-0.128992622075407
-0.0286708028649621,-0.138027229751862
-0.0344012460483844,-0.146997817385509
-0.0401430865598309,-0.155901293571234
-0.0458951274798983,-0.164734566903926
0.0434954236834614,-0.0775042576390021
-0.0574250228682821,-0.182178139389764
-0.0632004834977918,-0.190782255732686
-0.0689813568583089,-0.199303803602129
-0.0747664460304301,-0.207739691592979
0.0330708494692347,-0.118392366488372
-0.0863444841318712,-0.224342122318457
-0.0921350392223844,-0.23250248224286
0.0152743631749745,-0.145316382032189
-0.103713236885979,-0.248526034189438
-0.109498485620255,-0.256383043401389
-0.11527957173031,-0.264132752898966
-0.121055298296743,-0.271772071277056
-0.12682446840015,-0.279297907130548
-0.132585885121127,-0.286707169054329
-0.138338351540272,-0.29399676564329
-0.14408067073818,-0.301163605492316
-0.149811645795449,-0.308204597196298
-0.256462722470984,-0.422661587512263
-0.0554830721204225,-0.230409053279669
-0.166924536929384,-0.328541569386852
-0.272754169178389,-0.429620254969747
-0.178254466793082,-0.341413634361611
-0.183892241699043,-0.347634617687973
-0.189510294028541,-0.353708113033506
-0.195107426862173,-0.3596310289931
-0.200682443280534,-0.365400274161642
-0.206234146364223,-0.371012757134021
-0.211761339193836,-0.376465386505125
-0.217262824849968,-0.381755070869842
-0.222737406413218,-0.38687871882306
-0.347764611531085,-0.4889484824783
-0.11595341214437,-0.299493957370032
-0.238987757351634,-0.401222530162605
-0.244342753349317,-0.40565111841871
-0.249664860657101,-0.409898213237757
-0.254952882355581,-0.413960723214635
-0.260205621525354,-0.417835556944232
-0.265421881247018,-0.421519623021436
-0.270600464601168,-0.425009830041134
-0.275740174668402,-0.428303086598216
-0.280839814529315,-0.43139630128757
-0.285898187264505,-0.434286382704083
-0.290914095954569,-0.436970239442644
-0.295886343680102,-0.439444780098141
-0.300813733521702,-0.441706913265462
-0.412567513864668,-0.538205259428138
-0.310529151875488,-0.44558159151513
-0.315314786548867,-0.447187953787254
-0.320050775660699,-0.448569542950754
-0.20817281114875,-0.337540084926049
-0.32936902952211,-0.450646036331439
-0.333948900432882,-0.4513347577384
-0.338474338104494,-0.451786340416291
-0.462616190532895,-0.546356176886635
-0.347357126052622,-0.451965723964415
-0.351712082490333,-0.451687342024425
-0.356007818011269,-0.451159455734917
-0.360243135696029,-0.45037897369078
-0.364416838625208,-0.449342804486903
-0.368527729879404,-0.448047856718173
-0.372574612539212,-0.446491038979478
-0.492784592424984,-0.536643666507433
-0.264485282793366,-0.322809914407542
-0.384319239758281,-0.440218451892488
-0.388098118846508,-0.437583240222817
-0.39180700474333,-0.434670701557623
-0.395444700529346,-0.431477744491793
-0.39901000928515,-0.428001277620216
-0.402501734091341,-0.42423820953778
-0.405918678028514,-0.420185448839374
-0.409259644177267,-0.415839904119885
-0.412523435618196,-0.411198483974202
-0.415708855431897,-0.406258096997213
-0.418814706698968,-0.401015651783805
-0.421839792500005,-0.395468056928868
-0.424782915915604,-0.38961222102729
-0.426223367691551,-0.386567746619913
-0.428975207773053,-0.380426484190053
-0.431512437148928,-0.374336517030744
-0.433837661463433,-0.368297456703031
-0.435953486360821,-0.362308914767961
-0.43786251748535,-0.356370502786579
-0.439567360481273,-0.350481832319932
-0.441070620992847,-0.344642514929066
-0.342312893888411,-0.233658035099828
-0.443482817139968,-0.333110385618862
-0.444396964064026,-0.327416796821616
-0.445119951080755,-0.321771007344337
-0.445654383834412,-0.316172628748069
-0.446002867969252,-0.310621272593859
-0.446168009129529,-0.305116550442754
-0.446152412959501,-0.2996580738558
-0.445958685103421,-0.294245454394042
-0.445589431205545,-0.288878303618528
-0.445047256910129,-0.283556233090303
-0.444334767861428,-0.278278854370413
-0.443454569703697,-0.273045779019905
-0.442409268081192,-0.267856618599825
-0.441201468638169,-0.262710984671219
-0.439833777018881,-0.257608488795133
-0.438308798867586,-0.252548742532614
-0.436629139828538,-0.247531357444708
-0.434797405545993,-0.24255594509246
-0.432816201664205,-0.237622117036918
-0.430688133827431,-0.232729484839127
-0.428415807679926,-0.227877660060133
-0.426001828865945,-0.223066254260983
-0.423448803029744,-0.218294879002723
-0.420759335815577,-0.213563145846399
-0.309628097392793,-0.108374284743128
-0.41498149983037,-0.204217052083745
-0.411898342347841,-0.199601914599507
-0.408689166064368,-0.19502486546139
-0.405356576624207,-0.19048551623044
-0.401903179671613,-0.185983478467703
-0.398331580850841,-0.181518363734226
-0.394644385806148,-0.177089783591055
-0.390844200181788,-0.172697349599235
-0.386933629622016,-0.168340673319814
-0.382915279771089,-0.164019366313837
-0.378791756273261,-0.159733040142351
-0.374565664772788,-0.155481306366402
-0.370239610913925,-0.151263776547035
-0.365816200340928,-0.147080062245298
-0.361298038698052,-0.142929775022236
-0.459904434842073,-0.25332485161591
-0.351987884779684,-0.134727928056324
-0.347201103792703,-0.130675591435565
-0.342329994312864,-0.126655128137667
-0.337377161984424,-0.122666149723676
-0.332345212451637,-0.118708267754636
-0.327236751358758,-0.114781093791596
-0.4415225328972,-0.221753225965424
-0.435755743657353,-0.211876713685677
-0.311478355162128,-0.103179935548931
-0.306089904271437,-0.0993717092203477
-0.300637970041932,-0.0955922487029947
-0.411449162740971,-0.18527569408103
-0.389139869558074,-0.179221171137081
-0.283927323763085,-0.0844225776287769
-0.278247512620876,-0.0807542959668054
-0.27251724636113,-0.0771128379212948
-0.266739130628101,-0.0734978150532912
-0.260915771066046,-0.0699088389238409
-0.255049773319219,-0.0663455210939901
-0.249143743031876,-0.062807473124785
-0.243200285848272,-0.0592943065772719
-0.237222007412663,-0.0558056330124968
-0.231211513369304,-0.052341063991506
-0.225171409362451,-0.0489002110753457
-0.219104301036359,-0.0454826858250621
-0.213012794035282,-0.0420880998017015
-0.206899494003478,-0.03871606456631
-0.2007670065852,-0.0353661916799338
-0.0778646246735874,0.0794728869832403
-0.188454892166247,-0.0287313791984122
-0.0706073026986129,0.0681391739715989
-0.176097295932466,-0.0221805548455064
-0.169907956245654,-0.0189356671199
-0.266845666440012,-0.119332567975744
-0.157521221953462,-0.0125049983756109
-0.151329038636594,-0.00931844047902067
-0.145141118731551,-0.00615054898086163
-0.138960067882589,-0.00300093544217996
-0.132788491733963,0.000130788575978133
-0.126628995929928,0.00324501151256645
-0.120484186114741,0.00634212180653879
-0.114356667932655,0.00942250789684893
-0.108249047027928,0.0124865582224507
-0.102163929044813,0.0155346612222978
-0.0961039196275666,0.0185672053353442
-0.0900716244204442,0.0215845790005435
-0.0840696490677009,0.0245871706568497
-0.0781005992135921,0.0275753687432164
-0.0721670805023732,0.0305495616985975
-0.0662716985782998,0.0335101379619468
-0.0604170590856269,0.036457485972218
-0.0546057676686101,0.0393919941683651
-0.0488404299715048,0.0423140509893417
-0.0431236516385663,0.0452240448741017
-0.03745803831405,0.0481223642615988
-0.140493035493811,-0.0648149311277939
-0.0262907292673055,0.0538855333006197
-0.020794244833588,0.056751159830051
-0.0153593479853143,0.0596066656180347
-0.00998864436673969,0.0624524391035246
0.0920746852220898,0.180284197051076
0.000549760604290753,0.0681163429228379
0.0057122506682358,0.0709352501345689
0.0108001249254603,0.0737459787996212
0.0158107777317087,0.0765489173569487
0.0207416034427258,0.0793444542455051
0.0255899964142562,0.0821329779042442
-0.073715433168416,-0.0170386757804861
0.0350290615618352,0.0876905392880856
0.039614522449373,0.0904603538910956
0.0441071280204026,0.0932247090201035
0.0485042726306685,0.095983993114063
0.0528033506359155,0.0987385946119281
0.057001756391888,0.101488901952652
0.0610968842543308,0.10423530357519
0.0650861285789883,0.106978187918494
0.0689668837216054,0.109717943421519
0.0727365440379266,0.112454958523218
0.0763925038836964,0.115189621662546
0.0799321576146596,0.117922321278456
0.0833528995865607,0.120653445809901
0.0866521241551444,0.123383383695836
0.0898272256761553,0.126112523375215
0.092875598505338,0.128841253286991
0.0957946369984372,0.131569961870118
0.0985817355111974,0.134299037563549
0.101234288399363,0.13702886880624
0.103749690018679,0.139759844037143
0.203114775153412,0.245124526647721
0.108358616873741,0.1452267802194
0.110446930820976,0.147963518048663
0.014676209717785,0.040235250435075
0.229651409483943,0.270566688505277
0.115816007010432,0.156191471756432
0.117298391708649,0.158941331195528
0.118622779983974,0.161695442134467
0.119786566192151,0.164454193012202
0.120787144688924,0.167217972267688
0.121621909830039,0.169987168339878
0.122288255971239,0.172762169667726
0.12278357746827,0.175543364690185
0.123105268676875,0.178331141846211
0.123250723952801,0.181125889574755
0.12321733765179,0.183927996314773
0.123002504129588,0.186737850505217
0.12260361774194,0.189555840585043
0.12201807284459,0.192382354993203
0.0153586132009735,0.103778255112367
0.120276584943763,0.198062510550341
0.119115430651775,0.200916928577228
0.117757195273063,0.203781424688264
0.116199273163373,0.206656387322403
0.0140413020137207,0.110123068399395
-0.00367223246303312,0.112474772943878
0.208501416904398,0.308883404226039
0.107918604529716,0.218268671869072
0.105323164101301,0.221201793703036
0.102512403076375,0.224147712693827
0.0994837158106828,0.227106817280397
0.0962344966599686,0.230079495901701
0.0927621399799771,0.233066136996693
0.0890640401264531,0.236067129004327
0.0851375914551411,0.239082860363556
0.0809801883217858,0.242113719513333
0.178024320830433,0.364912351009598
0.0719620960919236,0.248222374940351
0.067096195706906,0.251300948095499
0.0619889182828235,0.254396202797011
-0.0456579333277889,0.161069851083799
-0.0671537904100047,0.164978151582337
0.0451927673336332,0.263785940569271
0.0390939253107375,0.266951805845778
0.0327406780275001,0.270136294863418
0.0261304198396656,0.273339796061145
0.0192605451029785,0.276562697877913
0.0121284481731836,0.279805388752676
0.00473152340602542,0.283068257124387
0.0937110214165935,0.382050875198251
-0.0108672322174023,0.28965608011447
-0.0190742743621825,0.292981811610749
-0.0275565669213476,0.296329274359791
0.0573550511049307,0.414388713110203
-0.0453573258598534,0.303090947371983
-0.0546810035277051,0.306505934513039
-0.064290354186963,0.309944206662674
-0.0741879834818826,0.313406152259842
-0.0843764970567192,0.316892159743496
-0.0948585005557283,0.32040261755259
-0.105636599623165,0.323937914126078
-0.116713399903285,0.327498437902914
