-0.613011887286979,-0.316935806524402
-0.613338994106932,-0.319257627134222
-0.613658456059758,-0.32155665049442
-0.61397023007886,-0.323832879381276
-0.614274273097639,-0.326086316571071
-0.614570542049499,-0.328316964840086
-0.614858993867842,-0.3305248269646
-0.615139585486069,-0.332709905720895
-0.615412273837583,-0.334872203885251
-0.615677015855787,-0.337011724233948
-0.615933768474082,-0.339128469543267
-0.616182488625872,-0.341222442589489
-0.616423133244558,-0.343293646148893
-0.616655659263543,-0.345342082997761
-0.616880023616229,-0.347367755912372
-0.617096183236019,-0.349370667669008
-0.617304095056314,-0.351350821043949
-0.617503716010518,-0.353308218813476
-0.617695003032031,-0.355242863753868
-0.617877913054258,-0.357154758641406
-0.6180524030106,-0.359043906252371
-0.618218429834459,-0.360910309363044
-0.618375950459237,-0.362753970749705
-0.618524921818338,-0.364574893188634
-0.618665300845163,-0.366373079456111
-0.618797044473116,-0.368148532328419
-0.618920109635597,-0.369901254581835
-0.619034453266009,-0.371631248992643
-0.619140032297755,-0.373338518337121
-0.619236803664237,-0.37502306539155
-0.619324724298858,-0.376684892932212
-0.619403751135019,-0.378324003735385
-0.619473841106123,-0.379940400577352
-0.619534951145572,-0.381534086234391
-0.619587038186769,-0.383105063482785
-0.619630059163117,-0.384653335098813
-0.619663971008016,-0.386178903858755
-0.61968873065487,-0.387681772538893
-0.619704295037081,-0.389161943915507
-0.619710621088051,-0.390619420764877
-0.619707665741183,-0.392054205863284
-0.619695385929879,-0.393466301987008
-0.619673738587541,-0.39485571191233
-0.619642680647571,-0.39622243841553
-0.619602169043373,-0.397566484272889
-0.619552160708348,-0.398887852260687
-0.619492612575899,-0.400186545155205
-0.619423481579427,-0.401462565732723
-0.619344724652336,-0.402715916769522
-0.619256298728027,-0.403946601041883
-0.619158160739903,-0.405154621326084
-0.619050267621366,-0.406339980398409
-0.618932576305819,-0.407502681035136
-0.618805043726663,-0.408642726012546
-0.618667626817302,-0.40976011810692
-0.618520282511137,-0.410854860094538
-0.618362967741571,-0.411926954751681
-0.618195639442007,-0.412976404854629
-0.618018254545845,-0.414003213179663
-0.61783076998649,-0.415007382503063
-0.617633142697343,-0.41598891560111
-0.617425329611806,-0.416947815250084
-0.617207287663282,-0.417884084226266
-0.616978973785173,-0.418797725305936
-0.616740344910882,-0.419688741265375
-0.616491357973811,-0.420557134880863
-0.616231969907361,-0.42140290892868
-0.615962137644936,-0.422226066185108
-0.615681818119938,-0.423026609426426
-0.615390968265769,-0.423804541428916
-0.615089545015831,-0.424559864968857
-0.614777505303527,-0.425292582822531
-0.614454806062259,-0.426002697766217
-0.614121404225429,-0.426690212576196
-0.61377725672644,-0.427355130028749
-0.613422320498694,-0.427997452900156
-0.613056552475594,-0.428617183966698
-0.612679909590541,-0.429214326004655
-0.612292348776939,-0.429788881790308
-0.611893826968188,-0.430340854099937
-0.611484301097693,-0.430870245709822
-0.611063728098854,-0.431377059396245
-0.610632064905075,-0.431861297935485
-0.610189268449757,-0.432322964103823
-0.609735295666303,-0.43276206067754
-0.609270103488116,-0.433178590432916
-0.608793648848597,-0.433572556146232
-0.60830588868115,-0.433943960593768
-0.607806779919175,-0.434292806551804
-0.607296279496076,-0.434619096796622
-0.606774344345256,-0.434922834104501
-0.606240931400115,-0.435204021251722
-0.605695997594057,-0.435462661014566
-0.605139499860484,-0.435698756169313
-0.604571395132798,-0.435912309492244
-0.603991640344402,-0.436103323759639
-0.603400192428697,-0.436271801747778
-0.602797008319087,-0.436417746232942
-0.602182044948974,-0.436541159991412
-0.601555259251759,-0.436642045799468
-0.600916608160846,-0.436720406433391
-0.600266048609636,-0.43677624466946
-0.599603537531532,-0.436809563283958
-0.598929031859936,-0.436820365053163
-0.598242488528251,-0.436808652753357
-0.597543864469878,-0.43677442916082
-0.596833116618221,-0.436717697051832
-0.596110201906681,-0.436638459202674
-0.595375077268661,-0.436536718389628
-0.594627699637563,-0.436412477388972
-0.59386802594679,-0.436265738976987
-0.593096013129743,-0.436096505929955
-0.592311618119826,-0.435904781024155
-0.59151479785044,-0.435690567035868
-0.590705509254988,-0.435453866741375
-0.589883709266872,-0.435194682916956
-0.589049354819495,-0.434913018338891
-0.588202402846258,-0.434608875783461
-0.587342810280564,-0.434282258026947
-0.586470534055816,-0.433933167845629
-0.585585531105416,-0.433561608015787
-0.584687758362765,-0.433167581313703
-0.583777172761267,-0.432751090515655
-0.582853731234324,-0.432312138397926
-0.581917390715337,-0.431850727736795
-0.580968108137711,-0.431366861308544
-0.580005840434845,-0.430860541889451
-0.579030544540144,-0.430331772255799
-0.578042177387009,-0.429780555183867
-0.577040695908844,-0.429206893449937
-0.576026057039048,-0.428610789830287
-0.574998217711026,-0.4279922471012
-0.57395713485818,-0.427351268038955
-0.572902765413913,-0.426687855419833
-0.571835066311625,-0.426002012020114
-0.57075399448472,-0.425293740616079
-0.5696595068666,-0.424563043984009
-0.568551560390667,-0.423809924900184
-0.567430111990324,-0.423034386140884
-0.566295118598972,-0.42223643048239
-0.565146537150015,-0.421416060700983
-0.563984324576855,-0.420573279572943
-0.562808437812894,-0.419708089874549
-0.561618833791533,-0.418820494382084
-0.560415469446177,-0.417910495871827
-0.559198301710226,-0.41697809712006
-0.557967287517084,-0.416023300903061
-0.556722383800152,-0.415046109997113
-0.555463547492833,-0.414046527178495
-0.55419073552853,-0.413024555223487
-0.552903904840643,-0.411980196908372
-0.551603012362577,-0.410913455009428
-0.550288015027733,-0.409824332302936
-0.548958869769514,-0.408712831565178
-0.547615533521321,-0.407578955572432
-0.546257963216557,-0.406422707100981
-0.544886115788625,-0.405244088927104
-0.543499948170927,-0.404043103827082
-0.542099417296865,-0.402819754577195
-0.540684480099842,-0.401574043953724
-0.539255093513259,-0.400305974732949
-0.53781121447052,-0.399015549691151
-0.536352799905025,-0.397702771604611
-0.534879806750179,-0.396367643249608
-0.533392191939383,-0.395010167402424
-0.531889912406039,-0.393630346839339
-0.53037292508355,-0.392228184336633
-0.528841186905318,-0.390803682670587
-0.527294654804746,-0.389356844617481
-0.525733285715235,-0.387887672953596
-0.524157036570189,-0.386396170455212
-0.522565864303009,-0.38488233989861
-0.520959725847097,-0.383346184060071
-0.519338578135857,-0.381787705715874
-0.51770237810269,-0.380206907642301
-0.516051082680999,-0.378603792615631
-0.514384648804185,-0.376978363412146
-0.512703033405653,-0.375330622808125
-0.511006193418803,-0.37366057357985
-0.509294085777037,-0.3719682185036
-0.50756666741376,-0.370253560355657
-0.505823895262372,-0.368516601912301
-0.504065726256276,-0.366757345949812
-0.502292117328874,-0.36497579524447
-0.500503025413569,-0.363171952572557
-0.498698407443763,-0.361345820710353
-0.496878220352858,-0.359497402434138
-0.495042421074256,-0.357626700520193
-0.493190966541361,-0.355733717744798
-0.491323813687574,-0.353818456884233
-0.489440919446298,-0.35188092071478
-0.487542240750935,-0.349921112012719
-0.485627734534887,-0.34793903355433
-0.483697357731556,-0.345934688115894
-0.481751067274346,-0.343908078473691
-0.479788820096657,-0.341859207404001
-0.477810573131893,-0.339788077683106
-0.475816283313457,-0.337694692087286
-0.473805907574749,-0.335579053392821
-0.471779402849173,-0.333441164375991
-0.469736726070131,-0.331281027813078
-0.467677834171025,-0.329098646480361
-0.465602684085257,-0.326894023154122
-0.463511232746231,-0.324667160610641
-0.461403437087347,-0.322418061626197
-0.45927925404201,-0.320146728977072
-0.45713864054362,-0.317853165439547
-0.45498155352558,-0.315537373789901
-0.452807949921293,-0.313199356804416
-0.45061778666416,-0.310839117259371
-0.448411020687585,-0.308456657931047
-0.446187608924969,-0.306051981595725
-0.443947508309715,-0.303625091029685
-0.441690675775225,-0.301175989009208
-0.439417068254901,-0.298704678310573
-0.437126642682146,-0.296211161710063
-0.434819355990363,-0.293695441983957
-0.432495165112953,-0.291157521908535
-0.430154026983318,-0.288597404260079
-0.427795898534862,-0.286015091814868
-0.425420736700986,-0.283410587349183
-0.423028498415093,-0.280783893639305
-0.420619140610585,-0.278135013461514
-0.418192620220864,-0.275463949592091
-0.415748894179333,-0.272770704807316
-0.413287919419394,-0.270055281883469
-0.41080965287445,-0.267317683596832
-0.408314051477902,-0.264557912723684
-0.405801072163153,-0.261775972040306
-0.403270671863606,-0.258971864322979
-0.400722807512662,-0.256145592347983
-0.398157436043724,-0.253297158891599
-0.395574514390195,-0.250426566730107
-0.392973999485476,-0.247533818639787
-0.39035584826297,-0.24461891739692
-0.38772001765608,-0.241681865777787
-0.385066464598207,-0.238722666558669
-0.382395146022754,-0.235741322515844
-0.379706018863123,-0.232737836425595
-0.376999040052718,-0.229712211064201
-0.374274166524939,-0.226664449207944
-0.371531355213189,-0.223594553633103
-0.368770563050871,-0.220502527115959
-0.365991746971387,-0.217388372432792
-0.363194863908139,-0.214252092359884
-0.360379870794529,-0.211093689673514
-0.357546724563961,-0.207913167149963
-0.354695382149836,-0.204710527565512
-0.351825800485556,-0.201485773696441
-0.348937936504525,-0.19823890831903
-0.346031747140143,-0.194969934209561
-0.343107189325814,-0.191678854144313
-0.34016421999494,-0.188365670899567
-0.337202796080923,-0.185030387251603
-0.334222874517166,-0.181673005976703
-0.33122441223707,-0.178293529851146
-0.328207366174039,-0.174891961651213
-0.325171693261474,-0.171468304153184
-0.322117350432778,-0.168022560133341
-0.319044294621354,-0.164554732367963
-0.315952482760602,-0.161064823633331
-0.312841871783927,-0.157552836705726
-0.309712418624729,-0.154018774361427
-0.306564080216412,-0.150462639376716
-0.303396813492378,-0.146884434527873
-0.300210575386029,-0.143284162591179
-0.297005322830768,-0.139661826342913
-0.293781012759996,-0.136017428559357
-0.290537602107116,-0.132350972016791
-0.287275047805531,-0.128662459491495
-0.283993306788642,-0.124951893759751
-0.280692335989853,-0.121219277597837
-0.277372092342565,-0.117464613782036
-0.27403253278018,-0.113687905088627
-0.270673614236102,-0.109889154293892
-0.267295293643732,-0.106068364174109
-0.263897527936473,-0.102225537505561
-0.260480274047727,-0.0983606770645268
-0.257043488910896,-0.0944737856272877
-0.253587129459383,-0.090564865970124
-0.25011115262659,-0.0866339208693163
-0.246615515345919,-0.082680953101145
-0.243100174550773,-0.0787059654418907
-0.239565087174554,-0.0747089606678336
-0.236010210150665,-0.0706899415552547
-0.232435500412506,-0.0666489108804339
-0.228840914893482,-0.0625858714196523
-0.225226410526995,-0.0585008259491899
-0.221591944246445,-0.0543937772453275
-0.217937472985237,-0.0502647280843454
-0.214262953676772,-0.0461136812425243
-0.210568343254453,-0.0419406394961444
-0.206853598651682,-0.0377456056214866
-0.203118676801861,-0.033528582394831
-0.199363534638392,-0.0292895725924585
-0.195588129094678,-0.0250285789906491
-0.191792417104122,-0.0207456043656839
-0.187976355600125,-0.0164406514938427
-0.184139901516091,-0.0121137231514066
-0.18028301178542,-0.00776482211465578
-0.176405643341516,-0.00339395115987096
-0.17250775311778,0.000998886936667734
-0.168589298047617,0.00541368939867939
-0.164650235064426,0.00985045344988393
-0.160690521101611,0.0143091763140004
-0.156710113092575,0.0187898552147487
-0.152708967970719,0.023292487375848
-0.148687042669446,0.0278170700210182
-0.144644294122158,0.0323636003739783
-0.140580679262257,0.0369320756584483
-0.136496155023147,0.0415224930981473
-0.132390678338228,0.0461348499167952
-0.128264206140905,0.0507691433381111
-0.124116695364577,0.0554253705858149
-0.119948102942649,0.0601035288836256
-0.115758385808523,0.0648036154552632
-0.1115475008956,0.0695256275244469
-0.107315405137283,0.0742695623148965
-0.103062055466975,0.079035417050331
-0.0987874088180771,0.0838231889544705
-0.0944914221239927,0.088632875251034
-0.0901740523181236,0.0934644731637414
-0.0858352563338723,0.0983179799163119
-0.081474991104641,0.103193392732465
-0.0770932135638322,0.108090708835921
-0.072689880644848,0.113009925450398
-0.068264949281091,0.117951039799616
-0.0638183764059631,0.122914049107296
-0.0593501189528672,0.127898950597155
-0.0548601338552051,0.132905741492914
-0.0503483780463796,0.137934419018293
-0.0458148084597925,0.14298498039701
-0.0412593820288467,0.148057422852786
-0.0366820556869439,0.153151743609339
-0.032082786367487,0.158267939890389
-0.0274615310038779,0.163406008919657
-0.0228182465295194,0.16856594792086
-0.0181528898778132,0.17374775411772
-0.0134654179821622,0.178951424733954
-0.00875578777596836,0.184176956993284
-0.00402395619263429,0.189424348119427
0.000730119834438006,0.194693595336105
0.00550648337184584,0.199984695867035
0.0103051774861873,0.205297646935939
0.0151262452440596,0.210632445766535
0.0199697297120609,0.215989089582543
0.0248356739567884,0.221367575607682
0.0297241210448402,0.226767901065672
0.0346351140428135,0.232190063180232
0.0395686960173065,0.237634059175082
0.0445249100349164,0.243099886273941
0.0495037991622413,0.248587541700529
0.0545054064658785,0.254097022678565
0.0595297750124259,0.25962832643177
0.064576947868481,0.265181450183861
0.0696469681006418,0.27075639115856
0.0747398787755056,0.276353146579585
0.0798557229596704,0.281971713670655
0.0849945437197334,0.287612089655491
0.0901563841222929,0.293274271757812
0.0953412872339459,0.298958257201337
0.100549296121291,0.304664043209787
0.105780453850924,0.310391627006879
0.111034803489445,0.316141005816334
0.116312388103451,0.321912176861872
0.121613250759538,0.327705137367212
0.126937434524306,0.333519884556072
0.132284982464351,0.339356415652175
0.137655937646271,0.345214727879237
0.143050343136664,0.351094818460979
0.148468242002128,0.35699668462112
0.15390967730926,0.362920323583381
0.159374692124657,0.36886573257148
0.164863329514919,0.374832908809136
0.170375632546642,0.38082184952007
0.175911644286423,0.386832551928002
0.181471407800862,0.392865013256649
0.187054966156554,0.398919230729733
0.192662362420099,0.404995201570971
0.198293639658093,0.411092923004085
0.203948840937135,0.417212392252793
0.209628009323821,0.423353606540816
0.21533118788475,0.429516563091871
0.22105841968652,0.43570125912968
0.226809747795727,0.44190769187796
0.232585215278971,0.448135858560434
0.238384865202847,0.454385756400818
0.244208740633955,0.460657382622833
0.250056884638891,0.466950734450199
0.255929340284254,0.473265809106635
0.26182615063664,0.47960260381586
0.267747358762649,0.485961115801594
0.273693007728877,0.492341342287557
0.279663140601922,0.498743280497467
0.285657800448381,0.505166927655045
0.291677030334853,0.511612280984011
0.297720873327935,0.518079337708082
0.303789372494225,0.52456809505098
0.309882570900321,0.531078550236423
0.316000511612819,0.537610700488131
0.316000511612819,0.537610700488131
0.322089072123555,0.54412272798997
0.328094329394022,0.550572973517999
0.334016625695305,0.556961672184228
0.339856303298487,0.563289059100667
0.345613704474654,0.569555369379325
0.35128917149489,0.575760838132212
0.356883046630279,0.581905700471338
0.362395672151907,0.587990191508714
0.367827390330859,0.594014546356348
0.373178543438217,0.599979000126249
0.378449473745068,0.60588378793043
0.383640523522497,0.611729144880898
0.388752035041586,0.617515306089665
0.393784350573422,0.623242506668738
0.398737812389088,0.62891098173013
0.40361276275967,0.634520966385848
0.408409543956253,0.640072695747903
0.413128498249919,0.645566404928305
0.417769967911755,0.651002329039064
0.422334295212845,0.656380703192188
0.426821822424274,0.661701762499689
0.431232891817125,0.666965742073576
0.435567845662485,0.672172877025858
0.439827026231437,0.677323402468546
0.444010775795066,0.682417553513649
0.448119436624456,0.687455565273178
0.452153350990693,0.69243767285914
0.456112861164861,0.697364111383548
0.459998309418045,0.70223511595841
0.463810038021328,0.707050921695736
0.467548389245797,0.711811763707537
0.471213705362534,0.71651787710582
0.474806328642626,0.721169497002598
0.478326601357157,0.725766858509879
0.481774865777211,0.730310196739673
0.485151464173873,0.73479974680399
0.488456738818227,0.739235743814839
0.491691031981359,0.743618422884232
0.494854685934352,0.747948019124176
0.497948042948292,0.752224767646682
0.500971445294263,0.756448903563761
0.50392523524335,0.760620661987421
0.506809755066637,0.764740278029672
0.509625347035208,0.768807986802525
0.51237235342015,0.772824023417989
0.515051116492546,0.776788622988073
0.51766197852348,0.780702020624788
0.520205281784038,0.784564451440144
0.522681368545304,0.788376150546149
0.525090581078363,0.792137353054815
0.527433261654299,0.79584829407815
0.529709752544197,0.799509208728165
0.531920396019141,0.80312033211687
0.534065534350217,0.806681899356273
0.536145509808509,0.810194145558385
0.538160664665101,0.813657305835216
0.540111341191078,0.817071615298776
0.541997881657524,0.820437309061073
0.543820628335526,0.823754622234119
0.545579923496166,0.827023789929923
0.547276109410529,0.830245047260494
0.548909528349701,0.833418629337843
0.550480522584766,0.836544771273979
0.551989434386808,0.839623708180912
0.553436606026912,0.842655675170652
0.554822379776163,0.845640907355208
0.556147097905646,0.84857963984659
0.557411102686444,0.851472107756809
0.558614736389643,0.854318546197874
0.559758341286327,0.857119190281795
0.56084225964758,0.859874275120581
0.561866833744489,0.862584035826242
0.562832405848137,0.865248707510789
0.563739318229608,0.86786852528623
0.564587913159987,0.870443724264576
0.56537853291036,0.872974539557837
0.56611151975181,0.875461206278022
0.566787215955422,0.877903959537141
0.567405963792281,0.880303034447203
0.567968105533472,0.88265866612022
0.568473983450078,0.884971089668199
0.568923939813186,0.887240540203152
0.569318316893878,0.889467252837088
0.569657456963241,0.891651462682017
0.569941702292359,0.893793404849948
0.570171395152315,0.895893314452892
0.570346877814195,0.897951426602858
0.570468492549084,0.899967976411856
0.570536581628066,0.901943198991895
0.570551487322226,0.903877329454986
0.570513551902648,0.905770602913138
0.570423117640417,0.907623254478362
0.570280526806618,0.909435519262666
0.570086121672334,0.911207632378061
0.569840244508652,0.912939828936556
0.569543237586655,0.914632344050162
0.569195443177429,0.916285412830888
0.568797203552057,0.917899270390743
0.568348860981624,0.919474151841738
0.567850757737215,0.921010292295882
0.567303236089916,0.922507926865186
0.566706638310809,0.923967290661659
0.56606130667098,0.92538861879731
0.565367583441513,0.92677214638415
0.564625810893494,0.928118108534189
0.563836331298006,0.929426740359435
0.562999486926135,0.930698276971899
0.562115620048965,0.931932953483592
0.56118507293758,0.933131005006521
0.560208187863066,0.934292666652698
0.559185307096506,0.935418173534132
0.558116772908986,0.936507760762833
0.557002927571591,0.93756166345081
0.555844113355403,0.938580116710074
0.55464067253151,0.939563355652634
0.553392947370994,0.940511615390501
0.552101280144941,0.941425131035683
0.550766013124435,0.94230413770019
0.549387488580561,0.943148870496033
0.547966048784403,0.943959564535221
0.546502036007047,0.944736454929765
0.544995792519576,0.945479776791672
0.543447660593076,0.946189765232955
0.54185798249863,0.946866655365622
0.540227100507325,0.947510682301683
0.538555356890243,0.948122081153147
0.536843093918471,0.948701087032025
0.535090653863092,0.949247935050328
0.533298378995191,0.949762860320063
0.531466611585853,0.950246097953241
0.529595693906162,0.950697883061872
0.527685968227203,0.951118450757966
0.525737776820061,0.951508036153532
0.52375146195582,0.95186687436058
0.521727365905565,0.952195200491121
0.519665830940381,0.952493249657163
0.517567199331351,0.952761256970717
0.515431813349562,0.952999457543792
0.513260015266096,0.953208086488398
0.51105214735204,0.953387378916546
0.508808551878478,0.953537569940244
0.506529571116493,0.953658894671502
0.504215547337172,0.953751588222331
0.501866822811598,0.95381588570474
0.499483739810857,0.953852022230739
0.497066640606031,0.953860232912338
0.494615867468208,0.953840752861546
0.49213176266847,0.953793817190373
0.489614668477903,0.95371966101083
0.487064927167592,0.953618519434924
0.48448288100862,0.953490627574668
0.481868872272073,0.95333622054207
0.479223243229035,0.953155533449141
0.47654633615059,0.952948801407889
0.473838493307824,0.952716259530325
0.471100056971821,0.952458142928459
0.468331369413666,0.952174686714301
0.465532772904443,0.951866125999859
0.462704609715237,0.951532695897144
0.459847222117133,0.951174631518166
0.456960952381214,0.950792167974934
0.454046142778567,0.950385540379459
0.451103135580274,0.94995498384375
0.448132273057422,0.949500733479817
0.445133897481095,0.949023024399669
0.442108351122376,0.948522091715317
0.439055976252352,0.94799817053877
0.435977115142106,0.947451495982038
0.432872110062724,0.946882303157131
0.429741303285289,0.946290827176058
0.426585037080886,0.94567730315083
0.423403653720601,0.945041966193457
0.420197495475517,0.944385051415947
0.41696690461672,0.943706793930311
0.413712223415293,0.943007428848558
0.410433794142322,0.942287191282699
0.407131959068891,0.941546316344743
0.403807060466085,0.9407850391467
0.400459440604988,0.940003594800579
0.397089441756686,0.939202218418391
0.393697406192262,0.938381145112146
0.390283676182801,0.937540609993852
0.386848593999388,0.93668084817552
0.383392501913108,0.93580209476916
0.379915742195045,0.934904584886782
0.376418657116284,0.933988553640394
0.372901588947909,0.933054236142008
0.369364879961006,0.932101867503632
0.365808872426658,0.931131682837277
0.36223390861595,0.930143917254953
0.358640330799967,0.929138805868668
0.355028481249793,0.928116583790434
0.351398702236514,0.927077486132259
0.347751336031214,0.926021748006154
0.344086724904977,0.924949604524128
0.340405211128888,0.923861290798191
0.336707136974032,0.922757041940354
0.332992844711493,0.921637093062624
0.329262676612356,0.920501679277014
0.325516974947706,0.919351035695531
0.321756081988627,0.918185397430187
0.317980340006203,0.917004999592991
0.31419009127152,0.915810077295952
0.310385678055662,0.914600865651081
0.306567442629714,0.913377599770386
0.30273572726476,0.912140514765879
0.298890874231885,0.910889845749569
0.295033225802174,0.909625827833465
0.29116312424671,0.908348696129578
0.28728091183658,0.907058685749917
0.283386930842867,0.905756031806491
0.279481523536656,0.904440969411312
0.275565032189032,0.903113733676388
0.271637799071079,0.901774559713729
0.267700166453882,0.900423682635345
0.263752476608526,0.899061337553247
0.259795071806094,0.897687759579443
0.255828294317673,0.896303183825943
0.251852486414346,0.894907845404758
0.247867990367198,0.893501979427897
0.243875148447314,0.892085821007369
0.239874302925778,0.890659605255185
0.235865796073675,0.889223567283355
0.23184997016209,0.887777942203888
0.227827167462107,0.886322965128794
0.22379773024481,0.884858871170082
0.219762000781285,0.883385895439764
0.215720321342617,0.881904273049847
0.211673034199888,0.880414239112343
0.207620481624186,0.87891602873926
0.203563005886593,0.87740987704261
0.199500949258195,0.875896019134401
0.195434654010076,0.874374690126643
0.19136446241332,0.872846125131346
0.187290716739014,0.87131055926052
0.18321375925824,0.869768227626175
0.179133932242084,0.86821936534032
0.17505157796163,0.866664207514966
0.170967038687964,0.865102989262121
0.166880656692169,0.863535945693797
0.16279277424533,0.861963311922001
0.158703733618532,0.860385323058746
0.154613877082859,0.858802214216039
0.150523546909397,0.857214220505892
0.146433085369229,0.855621577040313
0.14234283473344,0.854024518931313
0.138253137273116,0.852423281290901
0.13416433525934,0.850818099231088
0.130076770963197,0.849209207863882
0.125990786655772,0.847596842301294
0.12190672460815,0.845981237655333
0.117824927091415,0.84436262903801
0.113745736376651,0.842741251561334
0.109669494734944,0.841117340337314
0.105596544437378,0.839491130477962
0.101527227755037,0.837862857095285
0.0974618869590064,0.836232755301295
0.093400864320371,0.834601060208002
0.0893445021102147,0.832968006927413
0.0852931425996228,0.831333830571541
0.0812471280596794,0.829698766252394
0.0772068007614696,0.828063049081982
0.0731725029760775,0.826426914172315
0.0691445769745882,0.824790596635402
0.065123365028086,0.823154331583255
0.0611092094076558,0.821518354127881
0.0571024523843819,0.819882899381292
0.0531034362293493,0.818248202455496
0.0491125032136422,0.816614498462505
0.0451299956083457,0.814982022514326
0.0411562556845439,0.813351009722971
0.037191625713322,0.81172169520045
0.0332364479657641,0.810094314058771
0.0292910647129552,0.808469101409944
0.0253558182259797,0.80684629236598
0.0214310507759224,0.805226122038889
0.0175171046338677,0.803608825540679
0.0136143220709005,0.801994637983361
0.00972304535810516,0.800383794478944
0.00584361676656657,0.798776530139439
0.00197637856736906,0.797173080076856
-0.0018783269684024,0.795573679403203
-0.00572015756966351,0.79397856323049
-0.00954877096532943,0.792387966670729
-0.0133638248843157,0.790802124835927
-0.0171649770555374,0.789221272838096
-0.0209518852079104,0.787645645789245
-0.0247242070703495,0.786075478801383
-0.0284816003717706,0.784511006986521
-0.0322237228410887,0.782952465456668
-0.0359502322072194,0.781400089323834
-0.0396607861990778,0.779854113700029
-0.0433550425455796,0.778314773697263
-0.0470326589756399,0.776782304427545
-0.0506932932181744,0.775256941002885
-0.0543366030020981,0.773738918535293
-0.0579622460563266,0.772228472136779
-0.0615698801097752,0.770725836919353
-0.0651591628913594,0.769231247995024
-0.0687297521299944,0.767744940475802
-0.0722813055545957,0.766267149473697
-0.0758134808940785,0.764798110100719
-0.0793259358773585,0.763338057468877
-0.0828183282333506,0.761887226690181
-0.0862903156909707,0.760445852876642
-0.0897415559791337,0.759014171140268
-0.0931717068267554,0.757592416593071
-0.0965804259627508,0.756180824347058
-0.0999673711160356,0.754779629514241
-0.103332200015525,0.753389067206629
-0.106674570390134,0.752009372536232
-0.109994139968779,0.750640780615059
-0.113290566480374,0.749283526555121
-0.116563507653836,0.747937845468427
-0.119812621218079,0.746603972466987
-0.123037564902019,0.74528214266281
-0.126237996434571,0.743972591167907
-0.129413573544651,0.742675553094288
-0.132563953961173,0.741391263553962
-0.135688795413054,0.740119957658938
-0.138787755629209,0.738861870521228
-0.141860492338553,0.737617237252839
-0.144906663270002,0.736386292965783
-0.14792592615247,0.73516927277207
-0.150917938714873,0.733966411783708
-0.153882358686127,0.732777945112707
-0.156818843795147,0.731604107871079
-0.159727051770849,0.730445135170831
-0.162606640342147,0.729301262123974
-0.165457267237957,0.728172723842518
-0.168278590187195,0.727059755438473
-0.171070266918775,0.725962592023848
-0.173831955161614,0.724881468710654
-0.176563312644627,0.723816620610899
-0.179263997096728,0.722768282836594
-0.181933666246834,0.721736690499749
-0.184571977823859,0.720722078712373
-0.18717858955672,0.719724682586476
-0.189753159174331,0.718744737234068
-0.192295344405608,0.717782477767158
-0.194804802979466,0.716838139297757
-0.19728119262482,0.715911956937875
-0.199724171070587,0.71500416579952
-0.202133396045681,0.714115000994703
-0.204508525279018,0.713244697635434
-0.206849216499512,0.712393490833723
-0.209155127436081,0.711561615701578
-0.211425915817638,0.710749307351011
-0.213661239373099,0.70995680089403
-0.21586075583138,0.709184331442646
-0.218024122921396,0.708432134108869
-0.220150998372062,0.707700444004707
-0.222241039912294,0.706989496242172
-0.224293905271007,0.706299525933272
-0.226309252177116,0.705630768190018
-0.228286738359537,0.704983458124419
-0.230226021547186,0.704357830848485
-0.232126759468977,0.703754121474226
-0.233988609853826,0.703172565113652
-0.235811230430648,0.702613396878772
-0.237594278928359,0.702076851881596
-0.239337413075875,0.701563165234134
-0.241040290602109,0.701072572048397
-0.242702569235979,0.700605307436393
-0.244323906706398,0.700161606510132
-0.245903960742283,0.699741704381625
-0.24744238907255,0.69934583616288
-0.248938849426112,0.698974236965909
-0.250392999531886,0.698627141902719
-0.251804497118787,0.698304786085323
-0.253172999915731,0.698007404625728
-0.254498165651632,0.697735232635945
-0.255779652055407,0.697488505227984
-0.25701711685597,0.697267457513855
-0.258210217782238,0.697072324605567
-0.259358612563124,0.69690334161513
-0.260461958927545,0.696760743654554
-0.261519914604417,0.696644765835848
-0.262532137322653,0.696555643271023
-0.263498284811171,0.696493611072088
-0.264418014798885,0.696458904351053
-0.26529098501471,0.696451758219928
-0.266116853187562,0.696472407790723
-0.266895277046357,0.696521088175447
-0.267625914320009,0.69659803448611
-0.268308422737434,0.696703481834723
-0.268942460027548,0.696837665333294
-0.269527683919266,0.697000820093833
-0.270063752141502,0.697193181228351
-0.270550322423174,0.697414983848857
-0.270987052493195,0.697666463067361
-0.271373600080482,0.697947853995872
-0.271709622913949,0.698259391746402
-0.271994778722512,0.698601311430958
-0.272228725235087,0.698973848161552
-0.272411120180588,0.699377237050192
-0.272541621287932,0.699811713208889
-0.272619886286033,0.700277511749652
-0.272645572903807,0.700774867784492
-0.272645572903807,0.700774867784492
-0.272644374130185,0.701285305789426
-0.272642255223612,0.701790162144399
-0.27263928231728,0.702289389817312
-0.272635521544378,0.702782941776066
-0.272631039038097,0.70327077098856
-0.272625900931628,0.703752830422696
-0.272620173358159,0.704229073046374
-0.272613922450882,0.704699451827495
-0.272607214342986,0.70516391973396
-0.272600115167663,0.705622429733668
-0.272592691058102,0.706074934794521
-0.272585008147493,0.706521387884419
-0.272577132569027,0.706961741971262
-0.272569130455894,0.707395950022952
-0.272561067941284,0.707823965007388
-0.272553011158387,0.708245739892472
-0.272545026240394,0.708661227646104
-0.272537179320495,0.709070381236183
-0.27252953653188,0.709473153630613
-0.27252216400774,0.709869497797292
-0.272515127881263,0.710259366704121
-0.272508494285642,0.710642713319
-0.272502329354066,0.711019490609832
-0.272496699219725,0.711389651544515
-0.272491670015809,0.711753149090951
-0.27248730787551,0.712109936217039
-0.272483678932016,0.712459965890682
-0.272480849318519,0.712803191079779
-0.272478885168208,0.71313956475223
-0.272477852614273,0.713469039875937
-0.272477817789906,0.7137915694188
-0.272478846828296,0.714107106348719
-0.272481005862633,0.714415603633596
-0.272484361026108,0.71471701424133
-0.27248897845191,0.715011291139823
-0.272494924273231,0.715298387296974
-0.27250226462326,0.715578255680685
-0.272511065635188,0.715850849258856
-0.272521393442205,0.716116120999387
-0.272533314177501,0.71637402387018
-0.272546893974266,0.716624510839134
-0.27256219896569,0.716867534874151
-0.272579295284964,0.71710304894313
-0.272598249065279,0.717331006013973
-0.272619126439823,0.71755135905458
-0.272641993541788,0.717764061032851
-0.272666916504364,0.717969064916687
-0.272693961460741,0.71816632367399
-0.272723194544109,0.718355790272659
-0.272754681887658,0.718537417680594
-0.272788489624579,0.718711158865697
-0.272824683888062,0.718876966795868
-0.272863330811297,0.719034794439008
-0.272904496527474,0.719184594763016
-0.272948247169784,0.719326320735795
-0.272994648871417,0.719459925325244
-0.273043767765563,0.719585361499264
-0.273095669985413,0.719702582225755
-0.273150421664155,0.719811540472619
-0.273208088934982,0.719912189207755
-0.273268737931083,0.720004481399064
-0.273332434785648,0.720088370014447
-0.273399245631867,0.720163808021804
-0.273469236602931,0.720230748389037
-0.273542473832031,0.720289144084044
-0.273619023452355,0.720338948074728
-0.273698951597095,0.720380113328989
-0.27378232439944,0.720412592814727
-0.273869207992582,0.720436339499842
-0.273959668509709,0.720451306352236
-0.274053772084013,0.720457446339809
-0.274151584848684,0.720454712430462
-0.274253172936912,0.720443057592095
-0.274358602481886,0.720422434792608
-0.274467939616798,0.720392796999902
-0.274581250474838,0.720354097181879
-0.274698601189195,0.720306288306438
-0.274820057893061,0.720249323341479
-0.274945686719624,0.720183155254904
-0.275075553802076,0.720107737014614
-0.275209725273607,0.720023021588508
-0.275348267267407,0.719928961944488
-0.275491245916667,0.719825511050453
-0.275638727354575,0.719712621874305
-0.275790777714324,0.719590247383944
-0.275947463129102,0.71945834054727
-0.2761088497321,0.719316854332184
-0.276275003656509,0.719165741706587
-0.276445991035519,0.71900495563838
-0.276621878002319,0.718834449095462
-0.276802730690101,0.718654175045735
-0.276988615232054,0.718464086457099
-0.277179597761369,0.718264136297455
-0.277375744411235,0.718054277534702
-0.277577121314843,0.717834463136742
-0.277783794605384,0.717604646071476
-0.277995830416048,0.717364779306804
-0.278213294880024,0.717114815810626
-0.278436254130503,0.716854708550843
-0.278664774300675,0.716584410495356
-0.278898921523731,0.716303874612065
-0.279138761932861,0.71601305386887
-0.279384361661254,0.715711901233673
-0.279635786842102,0.715400369674374
-0.279893103608594,0.715078412158874
-0.280156378093921,0.714745981655073
-0.280425676431273,0.714403031130871
-0.28070106475384,0.714049513554169
-0.280982609194812,0.713685381892869
-0.28127037588738,0.713310589114869
-0.281564430964734,0.712925088188072
-0.281864840560064,0.712528832080377
-0.28217167080656,0.712121773759685
-0.282484987837412,0.711703866193897
-0.282804857785812,0.711275062350913
-0.283131346784949,0.710835315198634
-0.283464520968013,0.710384577704961
-0.283804446468194,0.709922802837793
-0.284151189418683,0.709449943565032
-0.28450481595267,0.708965952854578
-0.284865392203346,0.708470783674332
-0.285232984303899,0.707964388992193
-0.285607658387522,0.707446721776064
-0.285989480587403,0.706917734993844
-0.286378517036734,0.706377381613435
-0.286774833868704,0.705825614602735
-0.287178497216503,0.705262386929647
-0.287589573213323,0.704687651562071
-0.288008127992353,0.704101361467907
-0.288434227686783,0.703503469615056
-0.288867938429803,0.702893928971418
-0.289309326354604,0.702272692504894
-0.289758457594377,0.701639713183385
-0.290215398282311,0.700994943974791
-0.290680214551596,0.700338337847013
-0.291152972535423,0.699669847767951
-0.291633738366982,0.698989426705506
-0.292122578179463,0.698297027627578
-0.292619558106057,0.697592603502069
-0.293124744279953,0.696876107296878
-0.293638202834343,0.696147491979906
-0.294159999902415,0.695406710519054
-0.294690201617361,0.694653715882223
-0.295228874112371,0.693888461037312
-0.295776083520635,0.693110898952223
-0.296331895975342,0.692320982594856
-0.296896377609684,0.691518664933111
-0.297469594556851,0.69070389893489
-0.298051612950033,0.689876637568092
-0.298642498922419,0.689036833800619
-0.299242318607201,0.688184440600371
-0.299851138137569,0.687319410935248
-0.300469023646712,0.686441697773152
-0.301096041267821,0.685551254081982
-0.301732257134087,0.684648032829639
-0.302377737378699,0.683731986984024
-0.303032548134848,0.682803069513038
-0.303696755535724,0.68186123338458
-0.304370425714516,0.680906431566552
-0.305053624804417,0.679938617026854
-0.305746418938615,0.678957742733387
-0.306448874250301,0.677963761654051
-0.307161056872665,0.676956626756747
-0.307883032938898,0.675936291009375
-0.308614868582189,0.674902707379836
-0.309356629935729,0.673855828836031
-0.310108383132708,0.67279560834586
-0.310870194306316,0.671721998877224
-0.311642129589745,0.670634953398023
-0.312424255116182,0.669534424876158
-0.31321663701882,0.668420366279529
-0.314019341430848,0.667292730576037
-0.314832434485457,0.666151470733583
-0.315655982315837,0.664996539720067
-0.316490051055177,0.66382789050339
-0.317334706836669,0.662645476051452
-0.318190015793502,0.661449249332154
-0.319056044058867,0.660239163313396
-0.319932857765953,0.659015170963079
-0.320820523047952,0.657777225249104
-0.321719106038054,0.656525279139372
-0.322628672869448,0.655259285601781
-0.323549289675324,0.653979197604235
-0.324481022588874,0.652684968114632
-0.325423937743288,0.651376550100874
-0.326378101271755,0.65005389653086
-0.327343579307466,0.648716960372492
-0.32832043798361,0.647365694593671
-0.32930874343338,0.646000052162297
-0.330308561789963,0.644619986046269
-0.331319959186552,0.643225449213489
-0.332343001756335,0.641816394631859
-0.333377755632504,0.640392775269277
-0.334424286948248,0.638954544093645
-0.335482661836758,0.637501654072863
-0.336552946431224,0.636034058174832
-0.337635206864836,0.634551709367452
-0.338729509270784,0.633054560618624
-0.33983591978226,0.631542564896248
-0.340954504532452,0.630015675168226
-0.342085329654551,0.628473844402458
-0.343228461281748,0.626917025566843
-0.344383965547232,0.625345171629284
-0.345551908584194,0.62375823555768
-0.346732356525824,0.622156170319932
-0.347925375505312,0.62053892888394
-0.349131031655849,0.618906464217606
-0.350349391110625,0.617258729288829
-0.35158052000283,0.615595677065511
-0.352824484465654,0.613917260515551
-0.354081350632288,0.612223432606851
-0.355351184635921,0.610514146307311
-0.356634052609744,0.608789354584831
-0.357930020686948,0.607049010407313
-0.359239155000722,0.605293066742656
-0.360561521684257,0.603521476558762
-0.361897186870742,0.60173419282353
-0.363246216693369,0.599931168504862
-0.364608677285327,0.598112356570658
-0.365984634779807,0.596277709988818
-0.367374155309999,0.594427181727244
-0.368777305009092,0.592560724753835
-0.370194150010278,0.590678292036493
-0.371624756446747,0.588779836543117
-0.373069190451689,0.586865311241609
-0.374527518158293,0.58493466909987
-0.375999805699751,0.582987863085798
-0.377486119209252,0.581024846167296
-0.378986524819988,0.579045571312264
-0.380501088665147,0.577049991488602
-0.38202987687792,0.575038059664211
-0.383572955591498,0.573009728806991
-0.38513039093907,0.570964951884844
-0.386702249053828,0.568903681865669
-0.38828859606896,0.566825871717367
-0.389889498117659,0.564731474407839
-0.391505021333112,0.562620442904986
-0.393135231848512,0.560492730176708
-0.394780195797048,0.558348289190904
-0.39643997931191,0.556187072915477
-0.398114648526288,0.554009034318327
-0.399804269573374,0.551814126367354
-0.401508908586357,0.549602302030459
-0.403228631698427,0.547373514275542
-0.404963505042774,0.545127716070504
-0.406713594752589,0.542864860383246
-0.408478966961063,0.540584900181668
-0.410259687801384,0.53828778843367
-0.412055823406744,0.535973478107154
-0.413867439910333,0.533641922170019
-0.41569460344534,0.531293073590167
-0.417537380144957,0.528926885335498
-0.419395836142374,0.526543310373913
-0.42127003757078,0.524142301673311
-0.423160050563366,0.521723812201595
-0.425065941253322,0.519287794926663
-0.426987775773838,0.516834202816418
-0.428925620258105,0.514362988838759
-0.430879540839313,0.511874105961587
-0.432849603650652,0.509367507152802
-0.434835874825312,0.506843145380306
-0.436838420496484,0.504300973611998
-0.438857306797358,0.50174094481578
-0.440892599861124,0.499163011959552
-0.442944365820972,0.496567128011214
-0.445012670810092,0.493953245938667
-0.447097580961676,0.491321318709811
-0.449199162408912,0.488671299292548
-0.451317481284992,0.486003140654778
-0.453452603723104,0.483316795764401
-0.455604595856441,0.480612217589318
-0.457773523818192,0.477889359097429
-0.459959453741547,0.475148173256636
-0.462162451759696,0.472388613034838
-0.464382584005829,0.469610631399936
-0.466619916613138,0.466814181319831
-0.468874515714812,0.463999215762423
-0.471146447444041,0.461165687695614
-0.473435777934016,0.458313550087302
-0.475742573317926,0.45544275590539
-0.478066899728963,0.452553258117778
-0.480408823300316,0.449645009692366
-0.482768410165175,0.446717963597054
-0.485145726456731,0.443772072799744
-0.487540838308174,0.440807290268336
-0.489953811852695,0.437823568970731
-0.492384713223483,0.434820861874828
-0.494833608553728,0.431799121948529
-0.497300563976622,0.428758302159735
-0.499785645625354,0.425698355476345
-0.502288919633114,0.422619234866261
-0.504810452133093,0.419520893297382
-0.50735030925848,0.416403283737611
-0.509908557142467,0.413266359154846
-0.512485261918244,0.410110072516989
-0.515080489718999,0.40693437679194
-0.517694306677925,0.4037392249476
-0.520326778928211,0.40052456995187
-0.522977972603047,0.39729036477265
-0.525647953835623,0.39403656237784
-0.528336788759131,0.390763115735341
-0.531044543506759,0.387469977813054
-0.533771284211699,0.384157101578879
-0.53651707700714,0.380824440000718
-0.539281988026273,0.377471946046469
-0.542066083402288,0.374099572684035
-0.544869429268375,0.370707272881315
-0.547692091757725,0.367294999606211
-0.550534137003527,0.363862705826622
-0.553395631138972,0.360410344510449
-0.55627664029725,0.356937868625594
-0.559177230611552,0.353445231139956
-0.562097468215067,0.349932385021435
-0.565037419240986,0.346399283237934
-0.5679971498225,0.342845878757352
-0.570976726092797,0.339272124547589
-0.57397621418507,0.335677973576547
-0.576995680232507,0.332063378812126
-0.580035190368299,0.328428293222226
-0.583094810725636,0.324772669774748
-0.586174607437709,0.321096461437593
-0.589274646637707,0.317399621178661
-0.592394994458822,0.313682101965853
-0.595535717034243,0.30994385676707
-0.59869688049716,0.306184838550211
-0.601878550980764,0.302405000283178
-0.605080794618245,0.298604294933871
-0.608303677542793,0.29478267547019
-0.611547265887599,0.290940094860037
-0.614811625785852,0.287076506071312
-0.618096823370743,0.283191862071915
-0.621402924775462,0.279286115829747
-0.6247299961332,0.275359220312708
-0.628078103577145,0.2714111284887
-0.631447313240491,0.267441793325622
-0.634837691256424,0.263451167791376
-0.638249303758138,0.259439204853861
-0.64168221687882,0.255405857480979
-0.645136496751663,0.251351078640629
-0.648612209509856,0.247274821300714
-0.652109421286589,0.243177038429132
-0.655628198215052,0.239057682993786
-0.659168606428436,0.234916707962574
-0.662730712059931,0.230754066303398
-0.666314581242727,0.226569710984159
-0.669920280110015,0.222363594972757
-0.673547874794984,0.218135671237092
-0.677197431430825,0.213885892745066
-0.680869016150729,0.209614212464578
-0.684562695087885,0.20532058336353
-0.688278534375483,0.201004958409821
-0.692016600146714,0.196667290571353
-0.695776958534768,0.192307532816026
-0.699559675672836,0.187925638111741
-0.703364817694107,0.183521559426398
-0.707192450731772,0.179095249727897
-0.711042640919021,0.17464666198414
-0.714915454389044,0.170175749163027
-0.718810957275032,0.165682464232458
-0.722729215710174,0.161166760160334
-0.726670295827662,0.156628589914556
-0.730634263760685,0.152067906463024
-0.734621185642433,0.147484662773639
-0.738631127606097,0.142878811814302
-0.742664155784867,0.138250306552912
-0.746720336311932,0.133599099957371
-0.750799735320485,0.128925144995578
-0.754902418943714,0.124228394635436
-0.75902845331481,0.119508801844843
-0.763177904566962,0.114766319591702
-0.767350838833363,0.110000900843912
-0.7715473222472,0.105212498569374
-0.775767420941666,0.100401065735988
-0.78001120104995,0.0955665553116555
-0.784278728705242,0.0907089202642765
-0.788570070040732,0.085828113561752
-0.792885291189611,0.0809240881719822
-0.79722445828507,0.0759967970628679
-0.801587637460297,0.0710461932023093
-0.805974894848484,0.0660722295582076
-0.810386296582821,0.0610748590984628
-0.814821908796498,0.0560540347909759
-0.819281797622704,0.051009709603647
-0.823766029194631,0.0459418365043772
-0.828274669645469,0.0408503684610666
-0.832807785108408,0.0357352584416163
-0.837365441716638,0.0305964594139263
-0.841947705603349,0.0254339243458976
-0.846554642901732,0.0202476062054305
-0.851186319744977,0.0150374579604259
-0.855842802266274,0.00980343257878391
-0.860524156598813,0.00454548302840564
-0.865230448875784,-0.000736437722808861
-0.869961745230379,-0.00604237670695853
-0.874718111795786,-0.0113723809561432
-0.879499614705197,-0.016726497502462
-0.884306320091801,-0.0221047733780146
-0.889138294088789,-0.0275072556149002
-0.893995602829351,-0.0329339912452185
