-0.828893551429299,-0.25331144037099
-0.826933279886017,-0.249161451193519
-0.824938814676315,-0.245011371465462
-0.822910406162006,-0.240861387039994
-0.820848304704901,-0.236711683770292
-0.818752760666814,-0.232562447509531
-0.816624024409556,-0.228413864110888
-0.814462346294939,-0.224266119427538
-0.812267976684776,-0.220119399312657
-0.810041165940879,-0.215973889619422
-0.80778216442506,-0.211829776201009
-0.80549122249913,-0.207687244910593
-0.803168590524903,-0.20354648160135
-0.800814518864191,-0.199407672126457
-0.798429257878805,-0.195271002339089
-0.796013057930558,-0.191136658092423
-0.793566169381262,-0.187004825239634
-0.79108884259273,-0.182875689633899
-0.788581327926772,-0.178749437128393
-0.786043875745203,-0.174626253576292
-0.783476736409833,-0.170506324830773
-0.780880160282475,-0.166389836745012
-0.778254397724942,-0.162276975172184
-0.775599699099044,-0.158167925965465
-0.772916314766596,-0.154062874978032
-0.770204495089408,-0.149962008063061
-0.767464490429293,-0.145865511073727
-0.764696551148063,-0.141773569863206
-0.761900927607531,-0.137686370284675
-0.759077870169508,-0.133604098191309
-0.756227629195807,-0.129526939436285
-0.753350455048239,-0.125455079872779
-0.750446598088618,-0.121388705353965
-0.747516308678755,-0.117328001733022
-0.744559837180462,-0.113273154863124
-0.741577433955552,-0.109224350597447
-0.738569349365837,-0.105181774789168
-0.735535833773129,-0.101145613291462
-0.732477137539239,-0.0971160519575057
-0.729393511025982,-0.093093276640475
-0.726285204595168,-0.0890774731935458
-0.72315246860861,-0.0850688274698941
-0.719995553428119,-0.0810675253226959
-0.716814709415509,-0.0770737526051272
-0.713610186932591,-0.0730876951703641
-0.710382236341178,-0.0691095388715824
-0.707131108003081,-0.0651394695619582
-0.703857052280113,-0.0611776730946676
-0.700560319534086,-0.0572243353228865
-0.697241160126812,-0.0532796420997908
-0.693899824420104,-0.0493437792785567
-0.690536562775774,-0.0454169327123601
-0.687151625555633,-0.0414992882543771
-0.683745263121495,-0.0375910317577835
-0.68031772583517,-0.0336923490757555
-0.676869264058472,-0.029803426061469
-0.673400128153212,-0.0259244485681
-0.669910568481204,-0.0220556024488246
-0.666400835404258,-0.0181970735568187
-0.662871179284187,-0.0143490477452582
-0.659321850482804,-0.0105117108673194
-0.65575309936192,-0.00668524877617807
-0.652165176283348,-0.00286984732501025
-0.648558331608899,0.000934307633008016
-0.644932815700387,0.00472703024470073
-0.641288878919623,0.00850813465689191
-0.637626771628419,0.0122774350164056
-0.633946744188588,0.0160347454700657
-0.630249046961942,0.0197798801646962
-0.626533930310293,0.0235126532471212
-0.622801644595454,0.0272328788641647
-0.619052440179235,0.0309403711626506
-0.61528656742345,0.034634944289403
-0.611504276689911,0.0383164123912458
-0.60770581834043,0.0419845896150031
-0.603891442736818,0.0456392901074988
-0.60006140024089,0.0492803280155569
-0.596215941214455,0.0529075174860015
-0.592355316019328,0.0565206726656566
-0.588479775017319,0.0601196077013461
-0.584589568570241,0.063704136739894
-0.580684947039907,0.0672740739281243
-0.576766160788128,0.0708292334128611
-0.572833460176717,0.0743694293409284
-0.568887095567485,0.07789447585915
-0.564927317322246,0.0814041871143501
-0.56095437580281,0.0848983772533526
-0.556968521370991,0.0883768604229816
-0.552970004388601,0.0918394507700609
-0.548959075217452,0.0952859624414148
-0.544935984219355,0.098716209583867
-0.540900981756123,0.102130006344242
-0.536854318189569,0.105527166869363
-0.532796243881505,0.108907505306054
-0.528727009193742,0.11227083580114
-0.524646864488092,0.115616972501444
-0.52055606012637,0.118945729553791
-0.516454846470385,0.122256921105004
-0.51234347388195,0.125550361301908
-0.508222192722878,0.128825864291326
-0.504091253354982,0.132083244220082
-0.499950906140072,0.135322315235001
-0.495801401439961,0.138542891482906
-0.491642989616462,0.141744787110622
-0.487475921031386,0.144927816264972
-0.483300446046546,0.14809179309278
-0.479116815023754,0.151236531740871
-0.474925278324822,0.154361846356068
-0.470726086311563,0.157467551085196
-0.466519489345788,0.160553460075078
-0.46230573778931,0.163619387472538
-0.45808508200394,0.166665147424401
-0.453857772351492,0.16969055407749
-0.449624059193777,0.17269542157863
-0.445384192892607,0.175679564074644
-0.441138423809795,0.178642795712356
-0.436887002307153,0.181584930638591
-0.432630178746492,0.184505783000172
-0.428368203489626,0.187405166943923
-0.424101326898367,0.190282896616669
-0.419829799334526,0.193138786165233
-0.415553871159915,0.19597264973644
-0.411273792736348,0.198784301477113
-0.406989814425636,0.201573555534076
-0.402702186589591,0.204340226054154
-0.398411159590026,0.20708412718417
-0.394116983788752,0.209805073070949
-0.389819909547582,0.212502877861313
-0.385520187228328,0.215177355702089
-0.381218067192803,0.217828320740098
-0.376913799802818,0.220455587122166
-0.372607635420185,0.223058968995117
-0.368299824406718,0.225638280505773
-0.363990617124228,0.22819333580096
-0.359680263934526,0.230723949027502
-0.355369015199426,0.233229934332221
-0.35105712128074,0.235711105861943
-0.346744832540279,0.238167277763492
-0.342432399339856,0.240598264183691
-0.338120072041284,0.243003879269364
-0.333808101006374,0.245383937167335
-0.329496736596938,0.247738252024429
-0.325186229174789,0.250066637987469
-0.320876829101739,0.25236890920328
-0.3165687867396,0.254644879818685
-0.312262352450184,0.256894363980508
-0.307957776595304,0.259117175835574
-0.303655309536771,0.261313129530706
-0.299355201636398,0.263482039212728
-0.295057703255998,0.265623719028464
-0.290763064757381,0.267737983124739
-0.286471536502361,0.269824645648376
-0.282183368852749,0.2718835207462
-0.277898812170358,0.273914422565034
-0.273618116817,0.275917165251702
-0.269341533154487,0.277891562953029
-0.265069311544632,0.279837429815838
-0.260801702349246,0.281754579986953
-0.256538955930142,0.283642827613198
-0.252281322649131,0.285501986841398
-0.248029052868027,0.287331871818376
-0.243782396948641,0.289132296690957
-0.239541605252785,0.290903075605964
-0.235306928142272,0.292644022710221
-0.231078615978914,0.294354952150552
-0.226856919124523,0.296035678073782
-0.222642087940911,0.297686014626734
-0.218434372789891,0.299305775956232
-0.214234024033274,0.300894776209101
-0.210041292032873,0.302452829532164
-0.205856427150499,0.303979750072245
-0.201679679747966,0.305475351976169
-0.197511300187086,0.306939449390758
-0.193351538829669,0.308371856462839
-0.18920064603753,0.309772387339233
-0.185058872172479,0.311140856166766
-0.18092646759633,0.312477077092261
-0.176803682670893,0.313780864262542
-0.172690767757982,0.315052031824434
-0.168587973219409,0.31629039392476
-0.164495549416986,0.317495764710344
-0.160413746712525,0.318667958328011
-0.156342815467837,0.319806788924583
-0.152283006044736,0.320912070646886
-0.148234568805034,0.321983617641744
-0.144197754110543,0.323021244055979
-0.140172812323074,0.324024764036417
-0.136159993804441,0.324993991729881
-0.132159548916455,0.325928741283196
-0.128171728020929,0.326828826843185
-0.124196781479674,0.327694062556672
-0.120234959654503,0.328524262570481
-0.116286512907228,0.329319241031437
-0.112351691599662,0.330078812086362
-0.108430746093616,0.330802789882082
-0.104523926750902,0.331490988565421
-0.100631483933334,0.332143222283201
-0.0967536680027222,0.332759305182248
-0.0928907293208797,0.333339051409385
-0.0890429182496187,0.333882275111437
-0.0852104851507513,0.334388790435227
-0.0813936803860897,0.334858411527579
-0.0775927543174461,0.335290952535317
-0.0738079573066324,0.335686227605265
-0.0700395397154613,0.336044050884248
-0.0662877519057445,0.336364236519089
-0.0625528442392947,0.336646598656612
-0.0588350670779235,0.336890951443641
-0.0551346707834436,0.337097109027001
-0.0514519057176668,0.337264885553515
-0.0477870222424056,0.337394095170007
-0.0441402707194718,0.337484552023302
-0.0405119015106781,0.337536070260222
-0.0369021649778363,0.337548464027593
-0.0333113114827588,0.337521547472238
-0.0297395913872576,0.337455134740982
-0.026187255053145,0.337349039980647
-0.0226545528422331,0.337203077338059
-0.0191417351163343,0.337017060960041
-0.0156490522372605,0.336790804993417
-0.0121767545668242,0.336524123585012
-0.00872509246683728,0.336216830881649
-0.00529431629911215,0.335868741030152
-0.00188467642546084,0.335479668177345
0.00150357679230426,0.335049426470052
0.00487019299237125,0.334577830055098
0.00821492181292766,0.334064693079306
0.0115375128921616,0.3335098296895
0.0148377158682604,0.332913054032504
0.0181152803794124,0.332274180255143
0.0213699560638051,0.331593022504239
0.0246014925596265,0.330869394926618
0.0278096395050642,0.330103111669104
0.0309941465383063,0.329293986878519
0.0341547632975403,0.328441834701688
0.0372912394209542,0.327546469285436
0.0404033245467357,0.326607704776586
0.0434907683130728,0.325625355321962
0.0465533203581531,0.324599235068389
0.0495907303201645,0.323529158162689
0.0526027478372948,0.322414938751688
0.0555891225477319,0.321256390982209
0.0585496040896635,0.320053329001076
0.0614839421012775,0.318805566955114
0.0643918862207616,0.317512918991145
0.0672731860863037,0.316175199255995
0.0701275913360916,0.314792221896487
0.0729548516083131,0.313363801059445
0.0757547165411559,0.311889750891693
0.0785269357728082,0.310369885540056
0.0812712589414573,0.308804019151357
0.0839874356852913,0.307191965872419
0.086675215642498,0.305533539850068
0.0893343484512652,0.303828555231128
0.0919645837497806,0.302076826162421
0.0945656711762322,0.300278166790773
0.0971373603688076,0.298432391263006
0.0996794009656949,0.296539313725946
0.102191542605082,0.294598748326416
0.104673534925156,0.292610509211241
0.107125127564105,0.290574410527243
0.109546070160117,0.288490266421248
0.11193611235138,0.286357891040078
0.114295003776082,0.284177098530559
0.11662249407241,0.281947703039514
0.118918332878552,0.279669518713768
0.121182269832696,0.277342359700143
0.123414054573031,0.274966040145465
0.125613436737742,0.272540374196556
0.12778016596502,0.270065176000242
0.12991399189305,0.267540259703346
0.132014664160022,0.264965439452693
0.134081932404122,0.262340529395105
0.13611554626354,0.259665343677407
0.138115255376461,0.256939696446424
0.140080809381076,0.254163401848979
0.14201195791557,0.251336274031896
0.143908450618132,0.248458127141999
0.14577003712695,0.245528775326112
0.147596467080212,0.242548032731059
0.149387490116105,0.239515713503665
0.151142855872818,0.236431631790752
0.152862313988537,0.233295601739146
0.154545614101451,0.23010743749567
0.156192505849748,0.226866953207148
0.157802738871616,0.223573963020404
0.159376062805241,0.220228281082263
0.160912227288813,0.216829721539547
0.162410981960519,0.213378098539082
0.163872076458546,0.20987322622769
0.165295260421083,0.206314918752197
0.166680283486317,0.202702990259426
0.168026895292437,0.199037254896201
0.169334845477629,0.195317526809346
0.170603883680082,0.191543620145685
0.171833759537984,0.187715349052043
0.173024222689522,0.183832527675242
0.174175022772885,0.179894970162108
0.175285909426259,0.175902490659464
0.176356632287833,0.171854903314133
0.177386940995795,0.167752022272941
0.178376585188333,0.163593661682711
0.179325314503633,0.159379635690268
0.180232878579885,0.155109758442434
0.181099027055276,0.150783844086034
0.181923509567993,0.146401706767893
0.182706075756225,0.141963160634833
0.18344647525816,0.13746801983368
0.184144457711984,0.132916098511257
0.184799772755887,0.128307210814387
0.185412170028055,0.123641170889896
0.185981399166677,0.118917792884607
0.18650720980994,0.114136890945345
0.186989351596032,0.109298279218932
0.187427574163142,0.104401771852193
0.187821627149456,0.0994471829919523
0.188171260193163,0.094434326785034
0.188476222932451,0.0893630173782614
0.188736265005506,0.0842330689184591
0.188951136050518,0.0790442955524507
0.189120585705674,0.0737965114270606
0.189244363609161,0.0684895306891124
0.189322219399168,0.0631231674854304
0.189353902713883,0.0576972359628384
0.189339163191492,0.0522115502681606
0.189277750470185,0.0466659245482206
0.189169414188148,0.041060172949843
0.18901390398357,0.0353941096198511
0.188810969494638,0.0296675487050696
0.18856036035954,0.0238803043523219
0.188261826216465,0.0180321907084326
0.187915116703599,0.012123021920225
0.187519981459131,0.00615261213452371
0.187076170121249,0.000120775498152273
0.18658343232814,-0.00597267384206489
0.186041517717991,-0.0121279217393042
0.185450175928992,-0.0183451540467413
0.18480915659933,-0.0246245566175525
0.184118209367192,-0.0309663153049134
0.183377083870766,-0.0373706159620005
0.18258552974824,-0.0438376444419894
0.181743296637803,-0.0503675865980564
0.180850134177641,-0.0569606282833771
0.179905792005943,-0.063616955351128
0.178910019760896,-0.0703367536544847
0.177862567080689,-0.0771202090466235
0.176763183603508,-0.0839675073807202
0.175611618967543,-0.0908788345099509
0.17440762281098,-0.0978543762874914
0.173150944772007,-0.104894318566518
0.171841334488813,-0.111998847200207
0.170478541599585,-0.119168148041733
0.16906231574251,-0.126402406944274
0.167592406555778,-0.133701809761004
0.166068563677575,-0.1410665423451
0.164490536746089,-0.148496790549739
0.162858075399509,-0.155992740228095
0.161170929276021,-0.163554577233346
0.159428848013814,-0.171182487418666
0.157631581251076,-0.178876656637233
0.155778878625994,-0.186637270742221
0.153870489776757,-0.194464515586807
0.151906164341551,-0.202358577024167
0.149885651958565,-0.210319640907478
0.147808702265987,-0.218347893089914
0.145675064902005,-0.226443519424652
0.143484489504806,-0.234606705764868
0.141236725712577,-0.242837637963739
0.138931523163508,-0.251136501874438
0.136568631495785,-0.259503483350145
0.134147800347597,-0.267938768244033
0.131668779357132,-0.276442542409279
0.129131318162576,-0.285014991699059
0.126535166402118,-0.29365630196655
0.123880073713947,-0.302366659064926
0.121165789736248,-0.311146248847364
0.118392064107212,-0.31999525716704
0.115558646465024,-0.328913869877131
0.112665286447873,-0.337902272830811
0.109711733693947,-0.346960651881257
0.106697737841434,-0.356089192881645
0.103623048528522,-0.365288081685152
0.100487415393397,-0.374557504144952
0.0972905880742491,-0.383897646114222
0.0940323162092648,-0.393308693446138
0.090712349436632,-0.402790831993877
0.087330437394539,-0.412344247610613
0.0838863297211731,-0.421969126149524
0.0803797760547226,-0.431665653463784
0.0768105260333748,-0.44143401540657
0.073178329295318,-0.451274397831059
0.0694829354787395,-0.461186986590425
0.0657240942218277,-0.471171967537846
0.0619015551627699,-0.481229526526497
0.0580150679397543,-0.491359849409553
0.0540643821909684,-0.501563122040192
0.0500492475546003,-0.511839530271588
0.0459694136688375,-0.522189259956919
0.0418246301718681,-0.53261249694936
0.0376146467018796,-0.543109427102086
0.0376146467018796,-0.543109427102086
0.0333903390610707,-0.553563115916339
0.0292026985682157,-0.56385699428284
0.0250516481363664,-0.57399179613899
0.0209371106785747,-0.58396825542219
0.0168590091078925,-0.593787106069841
0.0128172663373717,-0.603449082019343
0.00881180528006418,-0.612954917208097
0.00484254884902177,-0.622305345573505
0.000909419957296376,-0.631501101052967
-0.00298765848206013,-0.640542917583883
-0.00684876355599587,-0.649431529103654
-0.010673972351459,-0.658167669549682
-0.0144633619553975,-0.666752072859366
-0.0182170094547597,-0.675185472970108
-0.0219349919364936,-0.683468603819309
-0.0256173864875473,-0.691602199344369
-0.029264270194869,-0.699586993482689
-0.0328757201454068,-0.70742372017167
-0.0364518134261088,-0.715113113348712
-0.0399926271239231,-0.722655906951217
-0.0434982383257979,-0.730052834916584
-0.0469687241186812,-0.737304631182216
-0.0504041615895213,-0.744412029685511
-0.0538046278252662,-0.751375764363873
-0.057170199912864,-0.758196569154701
-0.0605009549392629,-0.764875177995395
-0.0637969699914109,-0.771412324823358
-0.0670583221562563,-0.777808743575989
-0.0702850885207471,-0.784065168190688
-0.0734773461718315,-0.790182332604858
-0.0766351721964575,-0.796160970755899
-0.0797586436815734,-0.802001816581212
-0.0828478377141272,-0.807705604018197
-0.085902831381067,-0.813273067004254
-0.0889237017693409,-0.818704939476786
-0.0919105259658972,-0.824001955373193
-0.0948633810576839,-0.829164848630874
-0.097782344131649,-0.834194353187232
-0.100667492274741,-0.839091202979667
-0.103518902573908,-0.84385613194558
-0.106336652116097,-0.848489874022371
-0.109120817988258,-0.852993163147441
-0.111871477277337,-0.857366733258192
-0.114588707070284,-0.861611318292023
-0.117272584454047,-0.865727652186336
-0.119923186515572,-0.869716468878531
-0.12254059034181,-0.873578502306009
-0.125124873019707,-0.877314486406172
-0.127676111636212,-0.880925155116419
-0.130194383278273,-0.884411242374151
-0.132679765032839,-0.88777348211677
-0.135132333986856,-0.891012608281675
-0.137552167227274,-0.894129354806269
-0.13993934184104,-0.897124455627951
-0.142293934915103,-0.899998644684121
-0.144616023536411,-0.902752655912183
-0.146905684791911,-0.905387223249535
-0.149162995768553,-0.907903080633578
-0.151388033553283,-0.910300962001714
-0.153580875233051,-0.912581601291344
-0.155741597894804,-0.914745732439867
-0.157870278625491,-0.916794089384684
-0.159966994512059,-0.918727406063198
-0.162031822641457,-0.920546416412807
-0.164064840100633,-0.922251854370914
-0.166066123976534,-0.923844453874918
-0.16803575135611,-0.92532494886222
-0.169973799326308,-0.926694073270223
-0.171880344974076,-0.927952561036325
-0.173755465386363,-0.929101146097928
-0.175599237650116,-0.930140562392432
-0.177411738852284,-0.931071543857239
-0.179193046079815,-0.93189482442975
-0.180943236419657,-0.932611138047364
-0.182662386958758,-0.933221218647483
-0.184350574784065,-0.933725800167507
-0.186007876982529,-0.934125616544838
-0.187634370641095,-0.934421401716875
-0.189230132846714,-0.934613889621021
-0.190795240686331,-0.934703814194675
-0.192329771246897,-0.934691909375238
-0.193833801615359,-0.934578909100112
-0.195307408878664,-0.934365547306696
-0.196750670123762,-0.934052557932392
-0.1981636624376,-0.9336406749146
-0.199546462907126,-0.933130632190722
-0.200899148619289,-0.932523163698157
-0.202221796661037,-0.931819003374307
-0.203514484119317,-0.931018885156573
-0.204777288081078,-0.930123542982355
-0.206010285633269,-0.929133710789054
-0.207213553862836,-0.928050122514071
-0.208387169856729,-0.926873512094807
-0.209531210701895,-0.925604613468662
-0.210645753485282,-0.924244160573036
-0.211730875293839,-0.922792887345333
-0.212786653214514,-0.92125152772295
-0.213813164334255,-0.91962081564329
-0.214810485740009,-0.917901485043753
-0.215778694518726,-0.91609426986174
-0.216717867757353,-0.914199904034652
-0.217628082542838,-0.91221912149989
-0.21850941596213,-0.910152656194853
-0.219361945102177,-0.908001242056944
-0.220185747049926,-0.905765613023563
-0.220980898892326,-0.90344650303211
-0.221747477716325,-0.901044646019987
-0.222485560608871,-0.898560775924593
-0.223195224656912,-0.895995626683331
-0.223876546947397,-0.893349932233601
-0.224529604567273,-0.890624426512802
-0.225154474603488,-0.887819843458338
-0.225751234142992,-0.884936917007607
-0.226319960272731,-0.881976381098011
-0.226860730079654,-0.87893896966695
-0.227373620650709,-0.875825416651826
-0.227858709072844,-0.872636455990039
-0.228316072433008,-0.869372821618989
-0.228745787818148,-0.866035247476078
-0.229147932315213,-0.862624467498707
-0.22952258301115,-0.859141215624276
-0.229869816992908,-0.855586225790186
-0.230189711347435,-0.851960231933837
-0.230482343161679,-0.848263967992631
-0.230747789522588,-0.844498167903969
-0.230986127517111,-0.84066356560525
-0.231197434232194,-0.836760895033876
-0.231381786754788,-0.832790890127248
-0.231539262171839,-0.828754284822766
-0.231669937570296,-0.824651813057831
-0.231773890037107,-0.820484208769844
-0.231851196659219,-0.816252205896206
-0.231901934523582,-0.811956538374317
-0.231926180717143,-0.807597940141578
-0.231924012326851,-0.80317714513539
-0.231895506439653,-0.798694887293154
-0.231840740142498,-0.794151900552271
-0.231759790522333,-0.78954891885014
-0.231652734666107,-0.784886676124164
-0.231519649660769,-0.780165906311743
-0.231360612593265,-0.775387343350277
-0.231175700550545,-0.770551721177167
-0.230964990619556,-0.765659773729815
-0.230728559887246,-0.760712234945621
-0.230466485440564,-0.755709838761985
-0.230178844366458,-0.750653319116309
-0.229865713751876,-0.745543409945992
-0.229527170683765,-0.740380845188437
-0.229163292249075,-0.735166358781044
-0.228774155534753,-0.729900684661213
-0.228359837627747,-0.724584556766345
-0.227920415615006,-0.719218709033842
-0.227455966583477,-0.713803875401104
-0.226966567620109,-0.708340789805531
-0.22645229581185,-0.702830186184524
-0.225913228245648,-0.697272798475484
-0.225349442008451,-0.691669360615813
-0.224761014187207,-0.68602060654291
-0.224148021868865,-0.680327270194176
-0.223510542140371,-0.674590085507013
-0.222848652088676,-0.668809786418821
-0.222162428800726,-0.662987106867001
-0.22145194936347,-0.657122780788953
-0.220717290863856,-0.651217542122078
-0.219958530388832,-0.645272124803778
-0.219175745025346,-0.639287262771453
-0.218369011860346,-0.633263689962502
-0.217538407980781,-0.627202140314329
-0.216684010473598,-0.621103347764333
-0.215805896425746,-0.614968046249914
-0.214904142924173,-0.608796969708474
-0.213978827055826,-0.602590852077414
-0.213030025907655,-0.596350427294135
-0.212057816566607,-0.590076429296035
-0.21106227611963,-0.583769592020518
-0.210043481653672,-0.577430649404984
-0.209001510255683,-0.571060335386833
-0.207936439012608,-0.564659383903465
-0.206848345011398,-0.558228528892283
-0.205737305338999,-0.551768504290686
-0.20460339708236,-0.545280044036077
-0.20344669732843,-0.538763882065853
-0.202267283164155,-0.532220752317418
-0.201065231676485,-0.525651388728172
-0.199840619952368,-0.519056525235516
-0.198593525078751,-0.512436895776849
-0.197324024142583,-0.505793234289574
-0.196032194230812,-0.49912627471109
-0.194718112430385,-0.492436750978799
-0.193381855828252,-0.485725397030101
-0.19202350151136,-0.478992946802398
-0.190643126566658,-0.472240134233089
-0.189240808081093,-0.465467693259576
-0.187816623141613,-0.45867635781926
-0.186370648835167,-0.45186686184954
-0.184902962248703,-0.445039939287819
-0.183413640469169,-0.438196324071497
-0.181902760583513,-0.431336750137974
-0.180370399678684,-0.424461951424651
-0.178816634841628,-0.417572661868929
-0.177241543159295,-0.410669615408209
-0.175645201718633,-0.403753545979892
-0.174027687606589,-0.396825187521378
-0.172389077910113,-0.389885273970069
-0.170729449716151,-0.382934539263364
-0.169048880111652,-0.375973717338665
-0.167347446183564,-0.369003542133372
-0.165625225018836,-0.362024747584887
-0.163882293704415,-0.35503806763061
-0.162118729327249,-0.348044236207941
-0.160334608974288,-0.341043987254282
-0.158530009732478,-0.334038054707034
-0.156705008688768,-0.327027172503596
-0.154859682930106,-0.32001207458137
-0.15299410954344,-0.312993494877757
-0.151108365615718,-0.305972167330158
-0.149202528233889,-0.298948825875972
-0.147276674484901,-0.291924204452602
-0.145330881455701,-0.284899036997447
-0.143365226233238,-0.277874057447908
-0.141379785904459,-0.270849999741387
-0.139374637556314,-0.263827597815284
-0.13734985827575,-0.256807585607
-0.135305525149715,-0.249790697053935
-0.133241715265157,-0.242777666093491
-0.131158505709025,-0.235769226663068
-0.129055973568267,-0.228766112700066
-0.12693419592983,-0.221769058141888
-0.124793249880664,-0.214778796925932
-0.122633212507715,-0.207796062989601
-0.120454160897932,-0.200821590270295
-0.118256172138264,-0.193856112705415
-0.116039323315658,-0.186900364232361
-0.113803691517062,-0.179955078788535
-0.111549353829425,-0.173020990311336
-0.109276387339695,-0.166098832738166
-0.10698486913482,-0.159189340006426
-0.104674876301747,-0.152293246053516
-0.102346485927426,-0.145411284816838
-0.0999997750988039,-0.138544190233791
-0.097634820902829,-0.131692696241777
-0.0952517004264498,-0.124857536778196
-0.092850490756614,-0.11803944578045
-0.09043126898027,-0.111239157185939
-0.0879941121843658,-0.104457404932063
-0.0855390974558496,-0.097694922956224
-0.0830663018816693,-0.0909524451958221
-0.0805758025487734,-0.0842307055882584
-0.0780676765441096,-0.0775304380709334
-0.0755420009546265,-0.0708523765812483
-0.0729988528672718,-0.0641972550566034
-0.0704383093689938,-0.0575658074343998
-0.0678604475467406,-0.0509587676520379
-0.0652653444874604,-0.0443768696469189
-0.0626530772781011,-0.0378208473564431
-0.0600237230056111,-0.0312914347180119
-0.0573773587569382,-0.0247893656690253
-0.0547140616190309,-0.0183153741468849
-0.052033908678837,-0.0118701940889908
-0.049336977023305,-0.00545455943274414
-0.0466233437393826,0.000930795884454633
-0.0438930859140181,0.00728513792520424
-0.0411462806341596,0.0136077327521045
-0.0383830049867554,0.0198978464277541
-0.0356033360587533,0.0261547450147527
-0.0328073509371017,0.0323776945756991
-0.0299951267087486,0.0385659611731932
-0.0271667404606421,0.0447188108698334
-0.0243222692797303,0.0508355097282197
-0.0214617902529615,0.0569153238109507
-0.0185853804672836,0.0629575191806261
-0.015693117009645,0.0689613618998447
-0.0127850769669934,0.0749261180312062
-0.0098613374262774,0.0808510536373093
-0.00692197547444472,0.0867354347807538
-0.00396706819844381,0.0925785275241384
-0.000996692685222456,0.0983795979300628
0.0019890739782709,0.104137912061126
0.0049901547050884,0.109852735979927
0.00800647240828165,0.115523335749065
0.0110379500009028,0.12114897743114
0.0140845103960035,0.126728927088751
0.0171460765066358,0.132262450784496
0.0202225712458514,0.137748814580976
0.0233139175267025,0.143187284540789
0.0264200382622406,0.148577126726535
0.0295408563655178,0.153917607200813
0.0326762947495859,0.159207992026221
0.0358262763274968,0.16444754726536
0.0389907240123023,0.169635538980829
0.0421695607170545,0.174771233235226
0.045362709354805,0.179853896091151
0.048570092838606,0.184882793611204
0.051791634081509,0.189857191857983
0.0550272559965661,0.194776356894088
0.0582768814968291,0.199639554782117
0.0615404334953501,0.204446051584671
0.0648178349051806,0.209195113364349
0.0681090086393728,0.213886006183749
0.0714138776109784,0.21851799610547
0.0747323647330494,0.223090349192113
0.0780643929186375,0.227602331506276
0.0814098850807948,0.232053209110559
0.0847687641325729,0.23644224806756
0.088140952987024,0.240768714439879
0.0915263745571997,0.245031874290116
0.0949249517561522,0.249230993680869
0.098336607496933,0.253365338674737
0.101761264692594,0.257434175334321
0.105198846256188,0.261436769722219
0.108649275100765,0.26537238790103
0.112112474139379,0.269240295933353
0.11558836628508,0.273039759881789
0.119076874450921,0.276770045808935
0.122577921549954,0.280430419777392
0.12609143049523,0.284020147849759
0.129617324199802,0.287538496088634
0.133155525576721,0.290984730556617
0.136705957539039,0.294358117316307
0.140268542999808,0.297657922430304
0.14384320487208,0.300883411961206
0.147429866068906,0.304033851971613
0.15102844950334,0.307108508524124
0.154638878088431,0.310106647681339
0.158261074737234,0.313027535505856
0.161894962362798,0.315870438060275
0.165540463878177,0.318634621407195
0.169197502196422,0.321319351609215
0.172866000230584,0.323923894728935
0.176545880893717,0.326447516828954
0.180237067098871,0.32888948397187
0.183939481759098,0.331249062220284
0.187653047787451,0.333525517636794
0.191377688096982,0.335718116283999
0.195113325600741,0.3378261242245
0.198859883211782,0.339848807520894
0.202617283843155,0.341785432235783
0.206385450407914,0.343635264431763
0.210164305819109,0.345397570171435
0.213953772989792,0.347071615517398
0.217753774833016,0.348656666532252
0.221564234261832,0.350151989278595
0.225385074189293,0.351556849819026
0.229216217528449,0.352870514216146
0.233057587192354,0.354092248532553
0.236909106094058,0.355221318830846
0.240770697146615,0.356256991173625
0.244642283263074,0.357198531623488
0.248523787356489,0.358045206243036
0.252415132339912,0.358796281094867
0.256316241126394,0.35945102224158
0.260227036628986,0.360008695745775
0.264147441760742,0.360468567670052
0.268077379434713,0.360829904077008
0.27201677256395,0.361091971029244
0.275965544061506,0.361254034589358
0.279923616840433,0.361315360819951
0.283890913813782,0.36127521578362
0.287867357894605,0.361132865542966
0.291852871995954,0.360887576160588
0.295847379030881,0.360538613699084
0.299850801912438,0.360085244221054
0.303863063553677,0.359526733789098
0.307884086867649,0.358862348465814
0.311913794767408,0.358091354313802
0.315952110166003,0.357213017395661
0.319998955976488,0.35622660377399
0.324054255111913,0.355131379511389
0.328117930485332,0.353926610670455
0.332189905009796,0.352611563313791
0.336270101598356,0.351185503503993
0.340358443164066,0.349647697303661
0.344454852619975,0.347997410775395
0.348559252879137,0.346233909981794
0.352671566854604,0.344356460985457
0.356791717459426,0.342364329848983
0.360919627606657,0.340256782634972
0.365055220209347,0.338033085406022
0.36919841818055,0.335692504224733
0.373349144433316,0.333234305153705
0.377507321880697,0.330657754255535
0.381672873435746,0.327962117592825
0.385845722011515,0.325146661228172
0.390025790521054,0.322210651224176
0.394213001877417,0.319153353643437
0.398407278993654,0.315974034548553
0.402608544782818,0.312671960002124
0.406816722157961,0.309246396066749
0.411031734032135,0.305696608805028
0.415253503318391,0.302021864279558
0.419481952929782,0.298221428552941
0.423717005779358,0.294294567687774
0.427958584780173,0.290240547746658
0.432206612845277,0.286058634792191
0.436461012887724,0.281748094886972
0.440721707820564,0.277308194093601
0.44498862055685,0.272738198474678
0.449261674009633,0.268037374092801
0.453540791091966,0.263204987010569
0.453540791091966,0.263204987010569
0.457774186557787,0.258328374892339
0.461910507940454,0.253495200220522
0.465950327322151,0.248705216284798
0.469894216785061,0.243958176374845
0.473742748411365,0.239253833780345
0.477496494283248,0.234591941790976
0.481156026482892,0.229972253696418
0.484721917092479,0.225394522786351
0.488194738194193,0.220858502350455
0.491575061870216,0.216363945678409
0.49486346020273,0.211910606059893
0.49806050527392,0.207498236784587
0.501166769165967,0.203126591142171
0.504182823961054,0.198795422422324
0.507109241741364,0.194504483914725
0.50994659458908,0.190253528909056
0.512695454586385,0.186042310694995
0.515356393815461,0.181870582562221
0.517929984358491,0.177738097800416
0.520416798297658,0.173644609699258
0.522817407715145,0.169589871548427
0.525132384693135,0.165573636637604
0.527362301313809,0.161595658256466
0.529507729659352,0.157655689694696
0.531569241811946,0.153753484241971
0.533547409853773,0.149888795187972
0.535442805867016,0.146061375822378
0.537256001933859,0.14227097943487
0.538987570136484,0.138517359315127
0.540638082557073,0.134800268752828
0.54220811127781,0.131119461037654
0.543698228380878,0.127474689459283
0.545109005948458,0.123865707307397
0.546441016062734,0.120292267871673
0.547694830805889,0.116754124441793
0.548871022260106,0.113251030307436
0.549970162507566,0.109782738758282
0.550992823630454,0.10634900308401
0.551939577710951,0.1029495765743
0.552810996831241,0.0995842125188313
0.553607653073506,0.0962526642072845
0.554330118519929,0.0929546849293387
0.554978965252693,0.0896900279746739
0.555554765353981,0.0864584466329697
0.556058090905975,0.0832596941939058
0.556489513990859,0.0800935239471619
0.556849606690814,0.0769596891824177
0.557138941088024,0.073857943189353
0.557358089264672,0.0707880392576475
0.55750762330294,0.0677497306769807
0.557588115285011,0.0647427707370327
0.557600137293068,0.0617669127274829
0.557544261409294,0.0588219099380111
0.557421059715872,0.055907515658297
0.557231104294983,0.0530234831780204
0.556974967228811,0.050169565786861
0.55665322059954,0.0473455167744984
0.556266436489351,0.0445510894306123
0.555815186980427,0.0417860370448825
0.555300044154951,0.0390501129069888
0.554721580095107,0.0363430703066107
0.554080366883075,0.0336646625334281
0.553376976601041,0.0310146428771206
0.552611981331185,0.028392764627368
0.551785953155692,0.02579878107385
0.550899464156744,0.0232324455062461
0.549953086416523,0.0206935112142363
0.548947392017212,0.0181817314875002
0.547882953040995,0.0156968596157175
0.546760341570053,0.0132386488885679
0.54558012968657,0.0108068525957312
0.544342889472729,0.00840122402688698
0.543049193010712,0.00602151647171505
0.541699612382702,0.00366748321989507
0.540294719670882,0.00133887756110677
0.538835086957435,-0.000964547214970059
0.537321286324543,-0.00324303781865583
0.535753889854389,-0.00549684096027075
0.534133469629156,-0.00772620335013517
0.532460597731026,-0.00993137169856933
0.530735846242184,-0.0121125927158935
0.52895978724481,-0.014270113112428
0.527132992821088,-0.0164041795984931
0.525256035053202,-0.0185150388844092
0.523329486023333,-0.0206029376804964
0.521353917813664,-0.0226681226970751
0.519329902506379,-0.0247108406444655
0.51725801218366,-0.026731338232988
0.515138818927689,-0.0287298621729628
0.51297289482065,-0.0307066591747103
0.510760811944725,-0.0326619759485507
0.508503142382097,-0.0345960592048043
0.506200458214949,-0.0365091556537913
0.503853331525464,-0.0384015120058322
0.501462334395824,-0.0402733749712471
0.499028038908212,-0.0421249912603563
0.496551017144812,-0.0439566075834802
0.494031841187805,-0.045768470650939
0.491471083119374,-0.0475608271730531
0.488869315021703,-0.0493339238601426
0.486227108976975,-0.0510880074225279
0.48354503706737,-0.0528233245705293
0.480823671375074,-0.054540122014467
0.478063583982268,-0.0562386464646614
0.475265346971135,-0.0579191446314328
0.472429532423858,-0.0595818632251013
0.46955671242262,-0.0612270489559874
0.466647459049604,-0.0628549485344112
0.463702344386992,-0.0644658086706932
0.460721940516967,-0.0660598760751536
0.457706819521712,-0.0676373974581126
0.454657553483409,-0.0691986195298905
0.451574714484242,-0.0707437890008077
0.448458874606393,-0.0722731525811844
0.445310605932046,-0.0737869569813409
0.442130480543382,-0.0752854489115975
0.438919070522584,-0.0767688750822745
0.435676947951836,-0.0782374822036922
0.43240468491332,-0.0796915169861708
0.42910285348922,-0.0811312261400307
0.425772025761716,-0.0825568563755922
0.422412773812993,-0.0839686544031754
0.419025669725234,-0.0853668669331007
0.41561128558062,-0.0867517406756885
0.412170193461336,-0.0881235223412589
0.408702965449562,-0.0894824586401324
0.405210173627484,-0.090828796282629
0.401692390077282,-0.0921627819790693
0.398150186881141,-0.0934846624397733
0.394584136121241,-0.0947946843750615
0.390994809879768,-0.0960930944952541
0.387382780238903,-0.0973801395106714
0.383748619280829,-0.0986560661316337
0.380092899087728,-0.0999211210684612
0.376416191741784,-0.101175551031474
0.37271906932518,-0.102419602730993
0.369002103920098,-0.103653522877338
0.365265867608721,-0.10487755818083
0.361510932473231,-0.106091955351788
0.357737870595812,-0.107296961100533
0.353947254058646,-0.108492822137386
0.350139654943917,-0.109679785172666
0.346315645333806,-0.110858096916694
0.342475797310497,-0.11202800407979
0.338620682956172,-0.113189753372275
0.334750874353014,-0.114343591504468
0.330866943583206,-0.11548976518669
0.326969462728932,-0.116628521129262
0.323059003872372,-0.117760106042503
0.319136139095711,-0.118884766636734
0.315201440481131,-0.120002749622275
0.311255480110815,-0.121114301709447
0.307298830066945,-0.122219669608569
0.303332062431705,-0.123319100029962
0.299355749287277,-0.124412839683947
0.295370462715844,-0.125501135280843
0.291376774799589,-0.126584233530972
0.287375257620695,-0.127662381144652
0.283366483261343,-0.128735824832205
0.279351023803718,-0.12980481130395
0.275329451330002,-0.130869587270209
0.271302337922377,-0.131930399441301
0.267270255663027,-0.132987494527546
0.263233776634134,-0.134041119239266
0.259193472917881,-0.135091520286779
0.25514991659645,-0.136138944380407
0.251103679752026,-0.13718363823047
0.247055334466789,-0.138225848547288
0.243005452822924,-0.139265822041181
0.238954606902613,-0.14030380542247
0.234903368788038,-0.141340045401475
0.230852310561383,-0.142374788688516
0.22680200430483,-0.143408281993913
0.222753022100562,-0.144440772027987
0.218705936030761,-0.145472505501059
0.214661318177612,-0.146503729123447
0.210619740623296,-0.147534689605474
0.206581775449995,-0.148565633657458
0.202547994739894,-0.14959680798972
0.198518970575175,-0.150628459312581
0.19449527503802,-0.151660834336361
0.190477480210612,-0.152694179771379
0.186466158175134,-0.153728742327957
0.182461881013769,-0.154764768716415
0.1784652208087,-0.155802505647073
0.174476749642108,-0.156842199830251
0.170497039596179,-0.157884097976269
0.166526662753093,-0.158928446795448
0.162566191195033,-0.159975492998109
0.158616197004184,-0.16102548329457
0.154677252262726,-0.162078664395154
0.150749929052844,-0.163135283010179
0.146834799456719,-0.164195585849966
0.142932435556535,-0.165259819624836
0.139043409434474,-0.166328231045109
0.13516829317272,-0.167401066821105
0.131307658853454,-0.168478573663144
0.12746207855886,-0.169560998281547
0.123632124371121,-0.170648587386634
0.119818368372419,-0.171741587688725
0.116021382644937,-0.172840245898141
0.112241739270858,-0.173944808725202
0.108480010332364,-0.175055522880227
0.104736767911639,-0.176172635073538
0.101012584090865,-0.177296392015455
0.0973080309522255,-0.178427040416298
0.0936236805779022,-0.179564826986387
0.0899601050500786,-0.180709998436042
0.0863178764509371,-0.181862801475584
0.0826975668626608,-0.183023482815334
0.0790997483674323,-0.184192289165611
0.0755249930474346,-0.185369467236735
0.0719738729848501,-0.186555263739028
0.0684469602618619,-0.187749925382808
0.0649448269606526,-0.188953698878398
0.0614680451634052,-0.190166830936116
0.0580171869523022,-0.191389568266283
0.0545928244095267,-0.19262215757922
0.0511955296172611,-0.193864845585246
0.0478258746576884,-0.195117878994683
0.0444844316129914,-0.19638150451785
0.0411717725653529,-0.197655968865067
0.0378884695969555,-0.198941518746655
0.0346350947899822,-0.200238400872934
0.0314122202266156,-0.201546861954225
0.0282204179890386,-0.202867148700847
0.0250602601594339,-0.204199507823122
0.0219323188199844,-0.205544186031369
0.0188371660528726,-0.206901430035908
0.0157753739402817,-0.20827148654706
0.012747514564394,-0.209654602275146
0.00975416000739278,-0.211051023930484
0.00679588235146034,-0.212460998223397
0.00387325367877993,-0.213884771864203
0.000986846071533931,-0.215322591563224
-0.00186276838809465,-0.21677470403078
-0.0046750176179232,-0.21824135597719
-0.00744932953576868,-0.219722794112776
-0.0101851320594486,-0.221219265147857
-0.01288185310678,-0.222731015792753
-0.0155389205955802,-0.224258292757786
-0.0181557624436662,-0.225801342753275
-0.0207318065688557,-0.227360412489541
-0.0232664808889654,-0.228935748676903
-0.0257592133218128,-0.230527598025683
-0.028209431785215,-0.2321362072462
-0.0306165641969893,-0.233761823048775
-0.0329800384749529,-0.235404692143728
-0.035299282536923,-0.23706506124138
-0.0375737243007168,-0.238743177052049
-0.0398027916841517,-0.240439286286058
-0.0419859126050446,-0.242153635653726
-0.044122514981213,-0.243886471865374
-0.046212026730474,-0.245638041631321
-0.0482538757706448,-0.247408591661889
-0.0502474900195427,-0.249198368667396
-0.0521922973949849,-0.251007619358165
-0.0540877258147885,-0.252836590444514
-0.0559332031967709,-0.254685528636764
-0.0577281574587492,-0.256554680645236
-0.0594720165185407,-0.25844429318025
-0.0611642082939625,-0.260354612952126
-0.062804160702832,-0.262285886671184
-0.0643913016629662,-0.264238361047745
-0.0659250590921825,-0.266212282792128
-0.0674048609082981,-0.268207898614655
-0.0688301350291302,-0.270225455225646
-0.0702003093724959,-0.27226519933542
-0.0715148118562126,-0.274327377654298
-0.0727730703980974,-0.276412236892601
-0.0739745129159676,-0.278520023760648
-0.0751185673276403,-0.280650984968761
-0.076204661550933,-0.282805367227258
-0.0772322235036625,-0.284983417246461
-0.0782006811036463,-0.28718538173669
-0.0791094622687017,-0.289411507408265
-0.0799579949166457,-0.291662040971506
-0.0807457069652955,-0.293937229136734
-0.0814720263324686,-0.296237318614269
-0.0821363809359819,-0.298562556114431
-0.0827381986936528,-0.300913188347541
-0.0832769075232985,-0.303289462023919
-0.0837519353427363,-0.305691623853884
-0.0841627100697832,-0.308119920547758
-0.0845086596222566,-0.310574598815861
-0.0847892119179737,-0.313055905368513
-0.0850037948747516,-0.315564086916034
-0.0851518364104076,-0.318099390168744
-0.0852327644427591,-0.320662061836964
-0.085246006889623,-0.323252348631015
-0.0851909916688167,-0.325870497261216
-0.0850671466981574,-0.328516754437887
-0.0848738998954622,-0.33119136687135
-0.0846106791785486,-0.333894581271923
-0.0842769124652335,-0.336626644349929
-0.0838720276733344,-0.339387802815686
-0.0833954527206684,-0.342178303379515
-0.0828466155250526,-0.344998392751737
-0.0822249440043044,-0.347848317642671
-0.081529866076241,-0.350728324762639
-0.0807608096586795,-0.353638660821959
-0.0799172026694372,-0.356579572530954
-0.0789984730263313,-0.359551306599942
-0.0780040486471791,-0.362554109739244
-0.0769333574497977,-0.365588228659181
-0.0757858273520044,-0.368653910070072
-0.0745608862716163,-0.371751400682238
-0.0732579621264509,-0.374880947206
-0.0718764828343251,-0.378042796351677
-0.0704158763130563,-0.38123719482959
-0.0688755704804616,-0.38446438935006
-0.0672549932543585,-0.387724626623405
-0.0655535725525637,-0.391018153359948
-0.063770736292895,-0.394345216270007
-0.0619059123931693,-0.397706062063904
-0.0599585287712039,-0.401100937451958
-0.0579280133448159,-0.404530089144491
-0.0558137940318227,-0.407993763851821
-0.0536152987500413,-0.41149220828427
-0.0513319554172893,-0.415025669152157
-0.0489631919513835,-0.418594393165804
-0.0465084362701414,-0.42219862703553
-0.04396711629138,-0.425838617471656
-0.0413386599329168,-0.429514611184501
-0.0386224951125687,-0.433226854884387
-0.0358180497481532,-0.436975595281632
-0.0329247517574873,-0.440761079086559
-0.0299420290583884,-0.444583553009487
-0.0268693095686736,-0.448443263760736
-0.0237060212061603,-0.452340458050627
-0.0204515918886654,-0.45627538258948
-0.0171054495340064,-0.460248284087615
-0.0136670220600004,-0.464259409255352
-0.0101357373844647,-0.468309004803012
-0.00651102342521633,-0.472397317440916
-0.00279230810007275,-0.476524593879382
0.001020980673149,-0.480691080828732
0.00492941497663149,-0.484897024999286
0.00893356689255778,-0.489142673101365
0.0130340085031104,-0.493428271845287
0.0172313118904724,-0.497754067941375
0.0215260491368261,-0.502120308099947
0.0259187923243548,-0.506527239031326
0.030410113535241,-0.510975107445829
0.0350005848516675,-0.515464160053779
0.0396907783558171,-0.519994643565494
0.0444812661298727,-0.524566804691297
0.0493726202560168,-0.529180890141505
0.0543654128164325,-0.533837146626442
0.0594602158933023,-0.538535820856425
0.0646576015688093,-0.543277159541776
0.0699581419251358,-0.548061409392815
0.0753624090444652,-0.552888817119863
0.0808709750089797,-0.557759629433238
0.0864844119008625,-0.562674093043263
0.092203291802296,-0.567632454660257
0.0980281867954635,-0.57263496099454
0.103959668962547,-0.577681858756433
0.10999831038573,-0.582773394656255
0.116144683147195,-0.587909815404328
0.122399359329125,-0.593091367710972
0.128762911013702,-0.598318298286506
0.13523591028311,-0.603590853841251
0.141818929219531,-0.608909281085528
0.148512539905148,-0.614273826729657
0.155317314422144,-0.619684737483957
0.162233824852701,-0.62514226005875
0.169262643279002,-0.630646641164355
0.176404341783231,-0.636198127511093
0.183659492447569,-0.641796965809284
0.1910286673542,-0.647443402769248
0.198512438585306,-0.653137685101307
0.20611137822307,-0.658880059515779
0.213826058349675,-0.664670772722985
0.221657051047304,-0.670510071433246
0.22960492839814,-0.676398202356882
0.237670262484365,-0.682335412204213
0.245853625388161,-0.68832194768556
0.254155589191713,-0.694358055511242
0.262576725977202,-0.70044398239158
0.271117607826812,-0.706579975036894
0.279778806822725,-0.712766280157505
0.288560895047124,-0.719003144463733
0.297464444582191,-0.725290814665898
0.306490027510111,-0.73162953747432
0.315638215913064,-0.73801955959932
0.324909581873234,-0.744461127751218
0.334304697472804,-0.750954488640334
0.343824134793958,-0.757499888976989
0.353468465918876,-0.764097575471503
0.363238262929742,-0.770747794834196
0.37313409790874,-0.777450793775388
0.383156542938051,-0.784206819005401
0.393306170099859,-0.791016117234553
0.403583551476346,-0.797878935173165
0.413989259149695,-0.804795519531558
0.42452386520209,-0.811766117020052
0.435187941715711,-0.818790974348967
0.445982060772744,-0.825870338228623
