0.919417058254893,-0.28910387979969
0.912934329847845,-0.287062938839697
0.906508788275547,-0.285047014770431
0.90014017103021,-0.283055975853859
0.893828215604043,-0.281089690351946
0.887572659489253,-0.279148026526658
0.88137324017805,-0.277230852639962
0.875229695162641,-0.275338036953824
0.869141761935237,-0.27346944773021
0.863109177988045,-0.271624953231086
0.857131680813274,-0.269804421718417
0.851209007903133,-0.268007721454171
0.845340896749831,-0.266234720700314
0.839527084845576,-0.26448528771881
0.833767309682577,-0.262759290771628
0.828061308753043,-0.261056598120732
0.822408819549182,-0.259377078028089
0.816809579563204,-0.257720598755664
0.811263326287316,-0.256087028565425
0.805769797213728,-0.254476235719337
0.800328729834648,-0.252888088479367
0.794939861642285,-0.251322455107479
0.789602930128847,-0.249779203865641
0.784317672786544,-0.248258203015819
0.779083827107584,-0.246759320819979
0.773901130584176,-0.245282425540087
0.768769320708527,-0.243827385438108
0.763688134972848,-0.24239406877601
0.758657310869347,-0.240982343815757
0.753676585890233,-0.239592078819318
0.748745697527713,-0.238223142048656
0.743864383273997,-0.236875401765739
0.739032380621294,-0.235548726232534
0.734249427061813,-0.234242983711004
0.729515260087761,-0.232958042463118
0.724829617191348,-0.231693770750841
0.720192235864782,-0.230450036836139
0.715602853600273,-0.229226708980978
0.711061207890027,-0.228023655447325
0.706567036226256,-0.226840744497145
0.702120076101167,-0.225677844392405
0.697720065006969,-0.224534823395071
0.69336674043587,-0.223411549767108
0.689059839880079,-0.222307891770484
0.684799100831806,-0.221223717667163
0.680584260783258,-0.220158895719113
0.676415057226644,-0.2191132941883
0.672291227654174,-0.218086781336688
0.668212509558055,-0.217079225426246
0.664178640430497,-0.216090494718938
0.660189357763707,-0.215120457476731
0.656244399049896,-0.214168981961591
0.652343501781271,-0.213235936435483
0.648486403450042,-0.212321189160376
0.644672841548416,-0.211424608398233
0.640902553568603,-0.210546062411022
0.637175277002812,-0.209685419460708
0.63349074934325,-0.208842547809259
0.629848708082127,-0.208017315718638
0.626248890711652,-0.207209591450814
0.622691034724032,-0.206419243267752
0.619174877611478,-0.205646139431418
0.615700156866197,-0.204890148203778
0.612266609980398,-0.204151137846799
0.60887397444629,-0.203428976622446
0.605521987756082,-0.202723532792686
0.602210387401982,-0.202034674619484
0.598938910876199,-0.201362270364807
0.595707295670942,-0.200706188290621
0.592515279278419,-0.200066296658893
0.589362599190839,-0.199442463731587
0.586248992900411,-0.198834557770671
0.583174197899344,-0.198242447038111
0.580137951679846,-0.197665999795871
0.577139991734125,-0.19710508430592
0.574180055554392,-0.196559568830222
0.571257880632853,-0.196029321630744
0.568373204461719,-0.195514210969453
0.565525764533197,-0.195014105108313
0.562715298339496,-0.194528872309292
0.559941543372826,-0.194058380834355
0.557204237125395,-0.193602498945469
0.55450311708941,-0.193161094904599
0.551837920757082,-0.192734036973712
0.549208385620619,-0.192321193414774
0.54661424917223,-0.19192243248975
0.544055248904123,-0.191537622460608
0.541531122308506,-0.191166631589313
0.53904160687759,-0.190809328137832
0.536586440103582,-0.19046558036813
0.53416535947869,-0.190135256542173
0.531778102495125,-0.189818224921929
0.529424406645094,-0.189514353769362
0.527104009420806,-0.189223511346438
0.52481664831447,-0.188945565915125
0.522562060818294,-0.188680385737389
0.520339984424488,-0.188427839075194
0.51815015662526,-0.188187794190508
0.515992314912818,-0.187960119345296
0.513866196779372,-0.187744682801525
0.51177153971713,-0.187541352821161
0.5097080812183,-0.187349997666169
0.507675558775092,-0.187170485598517
0.505673709879714,-0.18700268488017
0.503702272024375,-0.186846463773094
0.501760982701283,-0.186701690539255
0.499849579402648,-0.18656823344062
0.497967799620677,-0.186445960739154
0.49611538084758,-0.186334740696824
0.494292060575566,-0.186234441575596
0.492497576296842,-0.186144931637436
0.490731665503618,-0.18606607914431
0.488994065688103,-0.185997752358184
0.487284514342505,-0.185939819541024
0.485602748959032,-0.185892148954797
0.483948507029894,-0.185854608861468
0.482321526047299,-0.185827067523004
0.480721543503456,-0.185809393201371
0.479148296890574,-0.185801454158534
0.47760152370086,-0.185803118656461
0.476080961426526,-0.185814254957117
0.474586347559777,-0.185834731322468
0.473117419592824,-0.18586441601448
0.471673915017875,-0.18590317729512
0.470255571327139,-0.185950883426353
0.468862126012824,-0.186007402670146
0.467493316567139,-0.186072603288465
0.466148880482294,-0.186146353543276
0.464828555250496,-0.186228521696545
0.463532078363954,-0.186318976010238
0.462259187314877,-0.186417584746322
0.461009619595474,-0.186524216166761
0.459783112697953,-0.186638738533524
0.458579404114523,-0.186761020108575
0.457398231337393,-0.186890929153881
0.456239331858771,-0.187028333931408
0.455102443170867,-0.187173102703121
0.453987302765889,-0.187325103730988
0.452893648136044,-0.187484205276975
0.451821216773543,-0.187650275603046
0.450769746170595,-0.187823182971169
0.449738973819407,-0.18800279564331
0.448728637212188,-0.188188981881434
0.447738473841147,-0.188381609947508
0.446768221198493,-0.188580548103499
0.445817616776434,-0.188785664611371
0.444886398067179,-0.188996827733091
0.443974302562937,-0.189213905730626
0.443081067755917,-0.189436766865941
0.442206431138327,-0.189665279401003
0.441350130202376,-0.189899311597778
0.440511902440273,-0.190138731718231
0.439691485344226,-0.190383408024329
0.438888616406444,-0.190633208778038
0.438103033119135,-0.190888002241325
0.437334472974509,-0.191147656676154
0.436582673464774,-0.191412040344493
0.435847372082139,-0.191681021508308
0.435128306318812,-0.191954468429564
0.434425213667003,-0.192232249370228
0.433737831618919,-0.192514232592266
0.433065897666771,-0.192800286357643
0.432409149302765,-0.193090278928327
0.431767324019111,-0.193384078566283
0.431140159308018,-0.193681553533478
0.430527392661695,-0.193982572091876
0.429928761572349,-0.194287002503446
0.42934400353219,-0.194594713030152
0.428772856033427,-0.194905571933961
0.428215056568268,-0.195219447476838
0.427670342628922,-0.195536207920751
0.427138451707597,-0.195855721527665
0.426619121296503,-0.196177856559547
0.426112088887848,-0.196502481278361
0.42561709197384,-0.196829463946075
0.425133868046688,-0.197158672824655
0.424662154598602,-0.197489976176067
0.42420168912179,-0.197823242262276
0.42375220910846,-0.19815833934525
0.423313452050821,-0.198495135686953
0.422885155441082,-0.198833499549353
0.422467056771451,-0.199173299194415
0.422058893534138,-0.199514402884106
0.42166040322135,-0.199856678880391
0.421271323325298,-0.200199995445237
0.420891391338188,-0.200544220840609
0.420520344752231,-0.200889223328475
0.420157921059634,-0.2012348711708
0.419803857752607,-0.20158103262955
0.419457892323358,-0.201927575966691
0.419119762264096,-0.202274369444189
0.418789205067029,-0.202621281324011
0.418465958224367,-0.202968179868123
0.418149759228317,-0.203314933338491
0.417840345571089,-0.20366140999708
0.417537454744892,-0.204007478105857
0.417240824241933,-0.204353005926789
0.416950191554422,-0.204697861721841
0.416665294174568,-0.205041913752979
0.416385869594578,-0.205385030282169
0.416111655306663,-0.205727079571378
0.41584238880303,-0.206067929882572
0.415577807575888,-0.206407449477717
0.415317649117446,-0.206745506618779
0.415061650919913,-0.207081969567723
0.414809550475496,-0.207416706586517
0.414561085276406,-0.207749585937126
0.414315992814851,-0.208080475881517
0.414074010583039,-0.208409244681655
0.413834876073179,-0.208735760599507
0.41359832677748,-0.209059891897039
0.41336410018815,-0.209381506836216
0.413131933797399,-0.209700473679006
0.412901565097434,-0.210016660687373
0.412672731580465,-0.210329936123285
0.4124451707387,-0.210640168248708
0.412218620064349,-0.210947225325606
0.411992817049618,-0.211250975615948
0.411767499186719,-0.211551287381698
0.411542403967858,-0.211848028884823
0.411317268885245,-0.212141068387289
0.411091831431088,-0.212430274151062
0.410865829097597,-0.212715514438108
0.41063899937698,-0.212996657510393
0.410411079761445,-0.213273571629884
0.410181807743201,-0.213546125058547
0.409950920814457,-0.213814186058347
0.409718156467422,-0.214077622891251
0.409483252194304,-0.214336303819225
0.409245945487313,-0.214590097104234
0.409005973838656,-0.214838871008246
0.408763074740542,-0.215082493793227
0.408516985685181,-0.215320833721141
0.40826744416478,-0.215553759053957
0.408014187671549,-0.215781138053638
0.407756953697696,-0.216002838982153
0.40749547973543,-0.216218730101466
0.40722950327696,-0.216428679673545
0.406958761814494,-0.216632555960354
0.406682992840241,-0.216830227223861
0.40640193384641,-0.217021561726031
0.406115322325209,-0.21720642772883
0.405822895768847,-0.217384693494225
0.405524391669533,-0.217556227284182
0.405219547519476,-0.217720897360666
0.404908100810884,-0.217878571985645
0.404589789035966,-0.218029119421083
0.40426434968693,-0.218172407928948
0.403931520255985,-0.218308305771205
0.403591038235341,-0.21843668120982
0.403242641117205,-0.21855740250676
0.402886066393787,-0.21867033792399
0.402521051557295,-0.218775355723477
0.402147334099937,-0.218872324167187
0.401764651513923,-0.218961111517086
0.401372741291461,-0.219041586035141
0.400971340924761,-0.219113615983316
0.400560187906029,-0.219177069623579
0.400139019727476,-0.219231815217895
0.39970757388131,-0.21927772102823
0.39926558785974,-0.219314655316552
0.398812799154973,-0.219342486344825
0.39834894525922,-0.219361082375016
0.397873763664689,-0.219370311669092
0.397386991863589,-0.219370042489017
0.396888367348127,-0.219360143096759
0.396377627610513,-0.219340481754283
0.395854510142956,-0.219310926723555
0.395318752437664,-0.219271346266543
0.394770091986846,-0.219221608645211
0.39420826628271,-0.219161582121526
0.393633012817466,-0.219091134957453
0.393044069083322,-0.21901013541496
0.392441172572487,-0.218918451756013
0.391824060777169,-0.218815952242576
0.391192471189578,-0.218702505136617
0.390546141301921,-0.218577978700102
0.389884808606408,-0.218442241194996
0.389208210595246,-0.218295160883267
0.388516084760646,-0.218136606026879
0.387808168594816,-0.217966444887799
0.387084199589963,-0.217784545727993
0.386343915238298,-0.217590776809428
0.385587053032029,-0.217385006394069
0.384813350463364,-0.217167102743883
0.384022545024512,-0.216936934120835
0.383214374207682,-0.216694368786892
0.382388575505082,-0.21643927500402
0.381544886408921,-0.216171521034185
0.380683044411409,-0.215890975139353
0.379802787004753,-0.215597505581491
0.378903851681162,-0.215290980622563
0.377985975932846,-0.214971268524538
0.377048897252012,-0.214638237549379
0.376092353130869,-0.214291755959055
0.375116081061627,-0.21393169201553
0.374119818536493,-0.213557913980772
0.373103303047677,-0.213170290116745
0.372066272087387,-0.212768688685417
0.371008463147832,-0.212352977948753
0.36992961372122,-0.211923026168719
0.368829461299761,-0.211478701607282
0.367707743375662,-0.211019872526408
0.366564197441134,-0.210546407188062
0.365398560988383,-0.210058173854211
0.36421057150962,-0.209555040786821
0.362999966497053,-0.209036876247859
0.36176648344289,-0.20850354849929
0.36050985983934,-0.20795492580308
0.359229833178612,-0.207390876421195
0.357926140952915,-0.206811268615602
0.356598520654456,-0.206215970648267
0.355246709775446,-0.205604850781156
0.353870445808093,-0.204977777276235
0.352469466244604,-0.20433461839547
0.35104350857719,-0.203675242400827
0.349592310298059,-0.202999517554272
0.348115608899419,-0.202307312117772
0.346613141873479,-0.201598494353292
0.345084646712448,-0.200872932522799
0.343529860908534,-0.200130494888259
0.341948521953947,-0.199371049711638
0.340340367340895,-0.198594465254902
0.338705134561586,-0.197800609780017
0.33704256110823,-0.196989351548949
0.335352384473034,-0.196160558823665
0.333634342148209,-0.19531409986613
0.331888171625961,-0.19444984293831
0.330113610398501,-0.193567656302173
0.328310395958037,-0.192667408219683
0.326478265796777,-0.191748966952808
0.32461695740693,-0.190812200763512
0.322726208280706,-0.189856977913763
0.320805755910312,-0.188883166665526
0.318855337787957,-0.187890635280767
0.31687469140585,-0.186879252021453
0.3148635542562,-0.18584888514955
0.312821663831215,-0.184799402927024
0.310748757623105,-0.18373067361584
0.308644573124077,-0.182642565477966
0.306508847826341,-0.181534946775366
0.304341319222104,-0.180407685770008
0.302141724803577,-0.179260650723858
0.299909802062968,-0.17809370989888
0.297645288492484,-0.176906731557043
0.295347921584336,-0.175699583960311
0.293017438830731,-0.174472135370651
0.290653577723878,-0.17322425405003
0.288256075755987,-0.171955808260412
0.285824670419266,-0.170666666263764
0.283359099205923,-0.169356696322053
0.280859099608167,-0.168025766697245
0.278324409118207,-0.166673745651305
0.275754765228251,-0.165300501446199
0.273149905430509,-0.163905902343895
0.270509567217188,-0.162489816606357
0.267833488080499,-0.161052112495553
0.265121405512648,-0.159592658273447
0.262373057005846,-0.158111322202007
0.259588180052301,-0.156607972543198
0.256766512144221,-0.155082477558987
0.253907790773815,-0.15353470551134
0.251011753433292,-0.151964524662222
0.24807813761486,-0.1503718032736
0.245106680810729,-0.148756409607441
0.242097120513106,-0.147118211925709
0.239049194214201,-0.145457078490371
0.235962639406223,-0.143772877563394
0.23283719358138,-0.142065477406744
0.22967259423188,-0.140334746282386
0.226468578849933,-0.138580552452287
0.223224884927746,-0.136802764178412
0.21994124995753,-0.135001249722729
0.216617411431492,-0.133175877347202
0.213253106841842,-0.131326515313799
0.209848073680787,-0.129453031884485
0.206402049440537,-0.127555295321227
0.2029147716133,-0.12563317388599
0.199385977691285,-0.12368653584074
0.195815405166701,-0.121715249447445
0.192202791531756,-0.119719182968069
0.188547874278659,-0.11769820466458
0.18485039089962,-0.115652182798942
0.181110078886845,-0.113580985633123
0.177326675732545,-0.111484481429088
0.173499918928928,-0.109362538448804
0.169629545968202,-0.107215024954237
0.165715294342577,-0.105041809207351
0.16175690154426,-0.102842759470115
0.157754105065461,-0.100617744004494
0.153706642398389,-0.0983666310724543
0.149614251035252,-0.0960892889359614
0.145476668468258,-0.0937855858569819
0.141293632189617,-0.0914553900974818
0.137064879691537,-0.0890985699194273
0.132790148466227,-0.0867149935847844
0.128469176005896,-0.0843045293555194
0.124101699802751,-0.0818670454935982
0.119687457349003,-0.0794024102609872
0.115226186136859,-0.0769104919196522
0.115226186136859,-0.0769104919196522
0.110764017862824,-0.0744229370709527
0.106347178380816,-0.0719713549294495
0.101975546419162,-0.0695555576769109
0.0976490007061911,-0.0671753574951055
0.0933674199702322,-0.0648305665658015
0.0891306829396139,-0.0625209970707673
0.0849386683426645,-0.0602464611917712
0.0807912549077126,-0.0580067711105818
0.076688321363087,-0.0558017390089674
0.072629746437116,-0.0536311770686962
0.0686154088581283,-0.0514948974715368
0.0646451873544524,-0.0493927123992576
0.0607189606544169,-0.0473244340336268
0.0568366074863504,-0.0452898745564128
0.0529980065785815,-0.0432888461493842
0.0492030366594387,-0.0413211609943091
0.0454515764572505,-0.0393866312729561
0.0417435047003456,-0.0374850691670935
0.0380787001170525,-0.0356162868584896
0.0344570414356998,-0.033780096528913
0.0308784073846161,-0.0319763103601318
0.0273426766921299,-0.0302047405339146
0.0238497280865697,-0.0284651992320297
0.0203994402962643,-0.0267574986362454
0.016991692049542,-0.0250814509283303
0.0136263620747316,-0.0234368682900526
0.0103033291001615,-0.0218235629031807
0.00702247185416034,-0.020241346949483
0.00378366906505667,-0.018690032610728
0.000586799461179073,-0.0171694320686839
-0.00256825822914389,-0.0156793575051191
-0.00568162527758364,-0.0142196211018021
-0.00875342295581161,-0.0127900350405012
-0.0117837725354993,-0.0113904115029849
-0.014772795288318,-0.0100205626710214
-0.0177206124859393,-0.00868030072637914
-0.0206273454000345,-0.00736943785082656
-0.0234931153022751,-0.006087786226132
-0.0263180434643325,-0.00483515803406386
-0.0291022511578782,-0.0036113654563905
-0.0318458596545835,-0.00241622067488032
-0.03454899022612,-0.00124953587130171
-0.037211764144159,-0.000111123227423002
-0.039834302680372,0.000999205074987347
-0.0424167271064304,0.00208163685416103
-0.0449591586940057,0.00313635992832962
-0.0474617187147692,0.00416356211572474
-0.0499245284403925,0.00516343123457804
-0.0523477091425468,0.00613615510312109
-0.0547313820929038,0.00708192153958554
-0.0570756685631347,0.00800091836220301
-0.0593806898249111,0.00889333338920509
-0.0616465671499043,0.00975935443882343
-0.0638734218097859,0.0105991693292896
-0.0660613750762271,0.0114129658788353
-0.0682105482208996,0.0122009319056921
-0.0703210625154746,0.0129632552280916
-0.0723930392316237,0.0137001236642655
-0.0744265996410181,0.0144117250324453
-0.0764218650153295,0.0150982471508627
-0.0783789566262293,0.0157598778377493
-0.0802979957453887,0.0163968049113367
-0.0821791036444794,0.0170092161898566
-0.0840224015951727,0.0175972994915404
-0.08582801086914,0.01816124263462
-0.0875960527380528,0.0187012334373268
-0.0893266484735824,0.0192174597178926
-0.0910199193474005,0.0197101092945489
-0.0926759866311783,0.0201793699855273
-0.0942949715965874,0.0206254296090595
-0.095876995515299,0.021048475983377
-0.0974221796589848,0.0214486969267116
-0.098930645299316,0.0218262802572948
-0.100402513707964,0.0221814137933582
-0.101837906156601,0.0225142853531334
-0.103236943916897,0.0228250827548522
-0.104599748260525,0.023113993816746
-0.105926440459155,0.0233812063570466
-0.107217141784459,0.0236269081939854
-0.108471973508109,0.0238512871457942
-0.109691056901776,0.0240545310307046
-0.110874513237131,0.0242368276669482
-0.112022463785846,0.0243983648727565
-0.113135029819592,0.0245393304663613
-0.114212332610041,0.0246599122659941
-0.115254493428864,0.0247602980898866
-0.116261633547733,0.0248406757562704
-0.117233874238319,0.024901233083377
-0.118171336772293,0.0249421578894382
-0.119074142421326,0.0249636379926855
-0.119942412457092,0.0249658612113505
-0.120776268151259,0.0249490153636649
-0.121575830775501,0.0249132882678603
-0.122341221601489,0.0248588677421683
-0.123072561900893,0.0247859416048205
-0.123769972945387,0.0246946976740486
-0.124433576006639,0.0245853237680841
-0.125063492356324,0.0244580077051587
-0.12565984326611,0.024312937303504
-0.126222750007671,0.0241503003813516
-0.126752333852678,0.0239702847569331
-0.127248716072802,0.0237730782484802
-0.127712017939714,0.0235588686742245
-0.128142360725086,0.0233278438523975
-0.128539865700589,0.023080191601231
-0.128904654137895,0.0228160997389565
-0.129236847308676,0.0225357560838056
-0.129536566484602,0.02223934845401
-0.129803932937344,0.0219270646678013
-0.130039067938576,0.0215990925434111
-0.130242092759967,0.0212556198990709
-0.13041312867319,0.0208968345530126
-0.130552296949915,0.0205229243234676
-0.130659718861815,0.0201340770286675
-0.13073551568056,0.019730480486844
-0.130779808677823,0.0193123225162288
-0.130792719125274,0.0188797909350534
-0.130774368294584,0.0184330735615494
-0.130724877457427,0.0179723582139485
-0.130644367885472,0.0174978327104823
-0.130532960850391,0.0170096848693824
-0.130390777623856,0.0165081025088804
-0.130217939477538,0.0159932734472079
-0.130014567683108,0.0154653855025966
-0.129780783512239,0.0149246264932781
-0.1295167082366,0.014371184237484
-0.129222463127865,0.0138052465534458
-0.128898169457704,0.0132270012593954
-0.128543948497789,0.0126366361735641
-0.12815992151979,0.0120343391141838
-0.127746209795381,0.0114202978994859
-0.127302934596231,0.0107947003477021
-0.126830217194013,0.0101577342770641
-0.126328178860397,0.00950958750580334
-0.125796940867056,0.00885044785215159
-0.12523662448566,0.00818050313434041
-0.124647350987882,0.00749994117060144
-0.124029241645392,0.00680894977916629
-0.123382417729863,0.00610771677826654
-0.122707000512964,0.00539642998613388
-0.122003111266369,0.00467527722099989
-0.121270871261748,0.00394444630109616
-0.120510401770772,0.00320412504465437
-0.119721824065114,0.00245450126990608
-0.118905259416444,0.00169576279508296
-0.118060829096435,0.00092809743841657
-0.117188654376756,0.000151693018138579
-0.116288856529081,-0.000633262647519384
-0.11536155682508,-0.00142658174032576
-0.114406876536425,-0.00222807644204889
-0.113424936934787,-0.00303755893445719
-0.112415859291837,-0.00385484139931897
-0.111379764879248,-0.00467973601840268
-0.11031677496869,-0.00551205497347669
-0.109227010831835,-0.00635161044630936
-0.108110593740355,-0.00719821461866909
-0.10696764496592,-0.00805167967232424
-0.105798285780202,-0.00891181778904322
-0.104602637454873,-0.00977844115059438
-0.103380821261604,-0.0106513619387461
-0.102132958472067,-0.0115303923352668
-0.100859170357932,-0.0124153445219249
-0.0995595781908721,-0.0133060306804887
-0.0982343032425578,-0.0142022629927265
-0.0968834667846607,-0.0151038536404069
-0.0955071900888523,-0.0160106148052982
-0.094105594426804,-0.0169223586691686
-0.0926788010701872,-0.0178388974137867
-0.0912269312906734,-0.0187600432209209
-0.089750106359934,-0.0196856082723394
-0.0882484475496403,-0.0206154047498107
-0.086722076131464,-0.0215492448351032
-0.0851711133770763,-0.0224869407099851
-0.0835956805581487,-0.023428304556225
-0.0819958989463527,-0.0243731485555913
-0.0803718898133597,-0.0253212848898522
-0.0787237744308411,-0.0262725257407761
-0.0770516740704684,-0.0272266832901315
-0.0753557100039128,-0.0281835697196868
-0.0736360035028461,-0.0291429972112102
-0.0718926758389395,-0.0301047779464702
-0.0701258482838644,-0.0310687241072353
-0.0683356421092923,-0.0320346478752736
-0.0665221785868948,-0.0330023614323537
-0.0646855789883431,-0.033971676960244
-0.0628259645853086,-0.0349424066407127
-0.0609434566494628,-0.0359143626555283
-0.0590381764524773,-0.0368873571864591
-0.0571102452660234,-0.0378612024152737
-0.0551597843617725,-0.0388357105237402
-0.053186915011396,-0.0398106936936271
-0.0511917584865655,-0.0407859641067028
-0.0491744360589523,-0.0417613339447357
-0.0471350690002277,-0.0427366153894942
-0.0450737785820635,-0.0437116206227466
-0.0429906860761308,-0.0446861618262613
-0.0408859127541012,-0.0456600511818067
-0.038759579887646,-0.0466331008711511
-0.0366118087484368,-0.0476051230760631
-0.0344427206081449,-0.0485759299783108
-0.0322524367384418,-0.0495453337596629
-0.030041078410999,-0.0505131466018874
-0.0278087668974877,-0.051479180686753
-0.0255556234695796,-0.052443248196028
-0.0232817693989459,-0.0534051613114807
-0.0209873259572582,-0.0543647322148795
-0.0186724144161878,-0.0553217730879929
-0.0163371560474063,-0.0562760961125891
-0.0139816721225849,-0.0572275134704366
-0.0116060839133953,-0.0581758373433038
-0.00921051269150872,-0.059120879912959
-0.00679507972859673,-0.0600624533611706
-0.00435990629633061,-0.0610003698697071
-0.00190511366638199,-0.0619344416203366
0.000569176889577902,-0.0628644807948278
0.00306284409987743,-0.0637902995749489
0.00557576669284537,-0.0647117101424684
0.00810782339681013,-0.0656285246791545
0.0106588929401004,-0.0665405553667758
0.0132288540510446,-0.0674476143871005
0.0158175854579715,-0.0683495139218971
0.0184249658892094,-0.0692460661529339
0.0210508740730871,-0.0701370832619793
0.0236951887379331,-0.0710223774308017
0.0263577886120759,-0.0719017608411695
0.0290385524238441,-0.0727750456748511
0.0317373589015665,-0.0736420441136148
0.0344540867735712,-0.074502568339229
0.0371886147681873,-0.0753564305334622
0.0399408216137428,-0.0762034428780826
0.0427105860385668,-0.0770434175548587
0.0454977867709875,-0.0778761667455588
0.0483023025393337,-0.0787015026319514
0.0511240120719338,-0.0795192373958048
0.0539627940971165,-0.0803291832188874
0.0568185273432102,-0.0811311522829676
0.0596910905385437,-0.0819249567698137
0.0625803624114453,-0.0827104088611942
0.0654862216902438,-0.0834873207388774
0.0684085471032676,-0.0842555045846316
0.0713472173788455,-0.0850147725802254
0.0743021112453058,-0.0857649369074271
0.0772731074309773,-0.086505809748005
0.0802600846641883,-0.0872372032837275
0.0832629216732676,-0.087958929696363
0.0862814971865436,-0.0886708011676799
0.0893156899323451,-0.0893726298794466
0.0923653786390004,-0.0900642280134315
0.0954304420348383,-0.0907454077514029
0.0985107588481871,-0.0914159812751292
0.101606207807376,-0.0920757607663788
0.104716667640732,-0.0927245584069201
0.107842017076586,-0.0933621863785214
0.110982134843265,-0.0939884568629512
0.114136899669098,-0.0946031820419779
0.117306190282413,-0.0952061740973697
0.120489885411539,-0.0957972452108951
0.123687863784805,-0.0963762075643225
0.126900004130539,-0.0969428733394203
0.130126185177069,-0.0974970547179567
0.133366285652726,-0.0980385638817003
0.136620184285835,-0.0985672130124195
0.139887759804728,-0.0990828142918824
0.143168890937731,-0.0995851799018577
0.146463456413174,-0.100074122024114
0.149771334959385,-0.100549452840418
0.153092405304693,-0.101010984532541
0.156426546177426,-0.101458529282249
0.159773636305913,-0.101891899271311
0.163133554418483,-0.102310906681496
0.166506179243463,-0.102715363694572
0.169891389509183,-0.103105082492307
0.173289063943971,-0.10347987525647
0.176699081276156,-0.103839554168828
0.180121320234066,-0.104183931411152
0.18355565954603,-0.104512819165208
0.187001977940376,-0.104826029612765
0.190460154145434,-0.105123374935592
0.19393006688953,-0.105404667315457
0.197411594900995,-0.105669718934128
0.200904616908157,-0.105918341973374
0.204409011639344,-0.106150348614964
0.207924657822884,-0.106365551040664
0.211451434187107,-0.106563761432245
0.214989219460341,-0.106744791971474
0.218537892370915,-0.106908454840119
0.222097331647156,-0.10705456221995
0.225667416017394,-0.107182926292734
0.229248024209958,-0.107293359240239
0.232839034953175,-0.107385673244235
0.236440326975375,-0.10745968048649
0.240051779004885,-0.107515193148771
0.243673269770035,-0.107552023412848
0.247304677999153,-0.107569983460489
0.250945882420568,-0.107568885473461
0.254596761762608,-0.107548541633534
0.258257194753601,-0.107508764122476
0.261927060121877,-0.107449365122055
0.265606236595764,-0.10737015681404
0.26929460290359,-0.107270951380199
0.272992037773685,-0.1071515610023
0.276698419934376,-0.107011797862112
0.280413628113992,-0.106851474141403
0.284137541040862,-0.106670402021941
0.287870037443314,-0.106468393685496
0.291610996049677,-0.106245261313835
0.295360295588279,-0.106000817088726
0.29911781478745,-0.105734873191938
0.302883432375517,-0.10544724180524
0.306657027080809,-0.1051377351104
0.310438477631655,-0.104806165289186
0.314227662756383,-0.104452344523366
0.318024461183323,-0.10407608499471
0.321828751640801,-0.103677198884985
0.325640412857148,-0.103255498375959
0.329459323560691,-0.102810795649402
0.333285362479759,-0.102342902887081
0.337118408342681,-0.101851632270765
0.340958339877785,-0.101336795982222
0.3448050358134,-0.100798206203221
0.348658374877854,-0.100235675115529
0.352518235799477,-0.0996490149009167
0.356384497306595,-0.0990380377411506
0.360257038127539,-0.0984025558179998
0.364135736990637,-0.0977423813132324
0.368020472624217,-0.0970573264086171
0.371911123756608,-0.0963472032859219
0.375807569116138,-0.0956118241269155
0.379709687431136,-0.0948510011133661
0.38361735742993,-0.0940645464270422
0.38753045784085,-0.0932522722497121
0.391448867392223,-0.0924139907631442
0.395372464812379,-0.0915495141491069
0.399301128829645,-0.0906586545893686
0.403234738172351,-0.0897412242656976
0.407173171568824,-0.0887970353598624
0.411116307747394,-0.0878259000536312
0.415064025436389,-0.0868276305287726
0.419016203364138,-0.0858020389670548
0.422972720258969,-0.0847489375502463
0.426933454849211,-0.0836681384601154
0.430898285863192,-0.0825594538784306
0.434867092029241,-0.0814226959869602
0.438839752075686,-0.0802576769674726
0.442816144730856,-0.0790642090017361
0.44679614872308,-0.0778421042715192
0.450779642780686,-0.0765911749585901
0.454766505632003,-0.0753112332447175
0.458756616005359,-0.0740020913116694
0.462749852629084,-0.0726635613412145
0.466746094231504,-0.0712954555151211
0.47074521954095,-0.0698975860151575
0.474747107285749,-0.068469765023092
0.47875163619423,-0.0670118047206932
0.482758684994722,-0.0655235172897294
0.486768132415553,-0.0640047149119689
0.490779857185053,-0.0624552097691802
0.494793738031548,-0.0608748140431317
0.498809653683369,-0.0592633399155915
0.502827482868843,-0.0576205995683284
0.506847104316299,-0.0559464051831104
0.510868396754066,-0.0542405689417062
0.514891238910472,-0.052502903025884
0.518915509513846,-0.0507332196174122
0.522941087292517,-0.0489313308980591
0.526967850974812,-0.0470970490495934
0.530995679289061,-0.045230186253783
0.535024450963592,-0.0433305546923968
0.539054044726733,-0.0413979665472027
0.543084339306814,-0.0394322339999695
0.547115213432163,-0.0374331692324652
0.551146545831108,-0.0354005844264585
0.555178215231978,-0.0333342917637176
0.559210100363102,-0.031234103426011
0.563242079952807,-0.0290998315951069
0.567274032729424,-0.0269312884527739
0.571305837421279,-0.0247282861807802
0.575337372756702,-0.0224906369608943
0.579368517464022,-0.0202181529748845
0.583399150271567,-0.0179106464045193
0.587429149907665,-0.0155679294315669
0.591458395100645,-0.0131898142377959
0.595486764578836,-0.0107761130049744
0.599514137070565,-0.00832663791487111
0.603540391304163,-0.00584120114925414
0.607565406007957,-0.0033196148898921
0.611589059910276,-0.000761691318553121
0.615611231739448,0.00183275738299416
0.619631800223803,0.0044639190329816
0.623650644091668,0.0071319814496406
0.627667642071372,0.00983713245120298
0.631682672891244,0.0125795598559001
0.635695615279612,0.015359451481964
0.639706347964805,0.0181769951476258
0.643714749675152,0.0210323786711175
0.64772069913898,0.0239257898706704
0.651724075084619,0.0268574165645165
0.655724756240397,0.029827446570887
0.659722621334644,0.0328360677080139
0.659722621334644,0.0328360677080139
0.663668260758774,0.0358340278149709
0.667512662038783,0.0387721847372431
0.671256299604869,0.0416508913026789
0.674899647887231,0.0444705003391269
0.678443181316066,0.0472313646744354
0.681887374321573,0.0499338371364529
0.685232701333948,0.052578270553028
0.688479636783391,0.055165017752009
0.691628655100099,0.0576944315612444
0.694680230714269,0.0601668648085826
0.697634838056101,0.0625826703218721
0.700492951555791,0.0649422009289614
0.703255045643539,0.0672458094576988
0.705921594749541,0.069493848735933
0.708493073303996,0.0716866715915122
0.710969955737101,0.0738246308522851
0.713352716479056,0.0759080793460999
0.715641829960056,0.0779373699008052
0.717837770610301,0.0799128553442494
0.719941012859989,0.0818348885042811
0.721952031139317,0.0837038222087486
0.723871299878484,0.0855200092855003
0.725699293507687,0.0872838025623848
0.727436486457124,0.0889955548672506
0.729083353156993,0.0906556190279459
0.730640368037492,0.0922643478723194
0.73210800552882,0.0938220942282194
0.733486740061173,0.0953292109234945
0.734777046064751,0.096786050785993
0.73597939796975,0.0981929666435634
0.737094270206369,0.0995503113240543
0.738122137204806,0.100858437655314
0.739063473395259,0.102117698465191
0.739918753207926,0.103328446581534
0.740688451073004,0.10449103483219
0.741373041420692,0.10560581604501
0.741972998681187,0.106673143047841
0.742488797284688,0.107693368668531
0.742920911661392,0.108666845734929
0.743269816241498,0.109593927074884
0.743535985455203,0.110474965516243
0.743719893732705,0.111310313886856
0.743822015504203,0.112100325014571
0.743842825199893,0.112845351727236
0.743782797249975,0.1135457468527
0.743642406084646,0.114201863218811
0.743422126134104,0.114814053653417
0.743122431828547,0.115382670984368
0.742743797598173,0.115908068039511
0.742286697873179,0.116390597646695
0.741751607083765,0.116830612633769
0.741138999660127,0.117228465828581
0.740449350032464,0.117584510058979
0.739683132630973,0.117899098152811
0.738840821885853,0.118172582937928
0.737922892227302,0.118405317242175
0.736929818085517,0.118597653893403
0.735862073890696,0.11874994571946
0.734720134073038,0.118862545548194
0.73350447306274,0.118935806207453
0.732215565290001,0.118970080525086
0.730853885185017,0.118965721328942
0.729419907177988,0.118923081446868
0.727914105699111,0.118842513706714
0.726336955178584,0.118724370936328
0.724688930046605,0.118569005963558
0.722970504733372,0.118376771616253
0.721182153669082,0.118148020722261
0.719324351283935,0.11788310610943
0.717397572008127,0.11758238060561
0.715402290271857,0.117246197038648
0.713338980505323,0.116874908236393
0.711208117138722,0.116468867026694
0.709010174602253,0.116028426237398
0.706745627326113,0.115553938696355
0.704414949740501,0.115045757231413
0.702018616275615,0.11450423467042
0.699557101361651,0.113929723841224
0.697030879428809,0.113322577571675
0.694440424907286,0.11268314868962
0.691786212227281,0.112011790022909
0.68906871581899,0.111308854399389
0.686288410112612,0.110574694646909
0.683445769538346,0.109809663593317
0.680541268526389,0.109014114066462
0.677575381506938,0.108188398894193
0.674548582910192,0.107332870904358
0.67146134716635,0.106447882924804
0.668314148705607,0.105533787783382
0.665107461958164,0.104590938307938
0.661841761354217,0.103619687326322
0.658517521323965,0.102620387666383
0.655135216297605,0.101593392155967
0.651695320705336,0.100539053622925
0.648198308977355,0.0994577248951043
0.644644655543861,0.0983497588003533
0.641034834835051,0.0972155081665207
0.637369321281123,0.0960553258214549
0.633648589312275,0.0948695645930043
0.629873113358706,0.0936585773090174
0.626043367850613,0.0924227167973427
0.622159827218194,0.0911623358858285
0.618222965891646,0.0898777874023235
0.614233258301169,0.0885694241746759
0.61019117887696,0.0872375990307344
0.606097202049216,0.0858826647983472
0.601951802248136,0.0845049743053629
0.597755453903919,0.08310488037963
0.59350863144676,0.0816827358489968
0.58921180930686,0.0802388935413119
0.584865461914414,0.0787737062844236
0.580470063699623,0.0772875269061805
0.576026089092683,0.0757807082344311
0.571534012523792,0.0742536030970236
0.566994308423148,0.0727065643218067
0.56240745122095,0.0711399447366287
0.557773915347396,0.0695540971693382
0.553094175232682,0.0679493744477835
0.548368705307007,0.0663261293998131
0.54359798000057,0.0646847148532755
0.538782473743568,0.0630254836360192
0.533922660966198,0.0613487885758925
0.52901901609866,0.0596549825007439
0.52407201357115,0.057944418238422
0.519082127813868,0.0562174486167751
0.514049833257009,0.0544744264636518
0.508975604330774,0.0527157046069003
0.503859915465359,0.0509416358743693
0.498703241090964,0.0491525730939072
0.493506055637784,0.0473488690933623
0.488268833536019,0.0455308767005832
0.482992049215867,0.0436989487434184
0.477676177107525,0.0418534380497162
0.472321691641191,0.0399946974473251
0.466929067247063,0.0381230797640937
0.46149877835534,0.0362389378278702
0.456031299396219,0.0343426244665034
0.450527104799898,0.0324344925078414
0.444986668996575,0.0305148947797328
0.439410466416448,0.028584184110026
0.433798971489715,0.0266427133265697
0.428152658646574,0.024690835257212
0.422472002317223,0.0227289027298016
0.416757476931859,0.0207572685721868
0.411009556920682,0.0187762856122162
0.405228716713888,0.0167863066777381
0.399415430741675,0.0147876845966011
0.393570173434243,0.0127807721966536
0.387693419221788,0.010765922305744
0.381785642534508,0.00874348775172084
0.375847317802601,0.00671382136243246
0.369878919456267,0.00467727596572743
0.363880921925701,0.00263420438945419
0.357853799641103,0.000584959461461074
0.35179802703267,-0.00147010599040336
0.3457140785306,-0.00353063913829063
0.339602428565091,-0.00559628715435232
0.333463551566341,-0.00766669721074004
0.327297921964548,-0.00974151647960527
0.32110601418991,-0.0118203921330995
0.314888302672625,-0.0139029713433744
0.308645261842891,-0.0159889012825815
0.302377366130906,-0.0180778291228722
0.296085089966867,-0.0201694020363982
0.289768907780973,-0.022263267195311
0.283429294003422,-0.0243590717717622
0.277066723064411,-0.0264564629379032
0.270681669394139,-0.0285550878658856
0.264274607422803,-0.0306545937278611
0.257846011580601,-0.0327546276959811
0.251396356297732,-0.0348548369423971
0.244926116004393,-0.0369548686392608
0.238435765130783,-0.0390543699587236
0.231925778107098,-0.0411529880729371
0.225396629363538,-0.0432503701540529
0.2188487933303,-0.0453461633742225
0.212282744437582,-0.0474400149055975
0.205698957115582,-0.0495315719203293
0.199097905794497,-0.0516204815905696
0.192480064904527,-0.0537063910884698
0.185845908875869,-0.0557889475861816
0.17919591213872,-0.0578677982558565
0.172530549123279,-0.059942590269646
0.165850294259743,-0.0620129707997017
0.159155621978311,-0.0640785870181751
0.152447006709181,-0.0661390860972177
0.14572492288255,-0.0681941152089812
0.138989844928617,-0.070243321525617
0.132242247277579,-0.0722863522192768
0.125482604359634,-0.0743228544621119
0.11871139060498,-0.0763524754262741
0.111929080443816,-0.0783748622839148
0.105136148306339,-0.0803896622071856
0.0983330686227475,-0.082396522368238
0.0915203158232385,-0.0843950899392236
0.0846983643380108,-0.086385012092294
0.077867688597262,-0.0883659359996005
0.0710287630311899,-0.090337508833295
0.0641820620699927,-0.0922993777655288
0.0573280601438684,-0.0942511899684535
0.0504672316830146,-0.0961925926142206
0.0436000511176299,-0.0981232328749817
0.0367269928779114,-0.100042757922888
0.0298485313940578,-0.101950814930092
0.0229651410962665,-0.103847051068745
0.0160772964147358,-0.105731113510997
0.00918547177966339,-0.107602649429002
0.00229014162124755,-0.109461305994909
-0.00460821963031424,-0.111306730380872
-0.0115091375448236,-0.11313856975904
-0.0184121376920829,-0.114956471301567
-0.0253167456418938,-0.116760082180603
-0.0322224869640589,-0.118549049568301
-0.0391288872283796,-0.12032302063681
-0.0460354720046588,-0.122081642558284
-0.0529417668626976,-0.123824562504874
-0.0598472973722989,-0.12555142764873
-0.066751589103264,-0.127261885162006
-0.0736541676253957,-0.128955582216851
-0.0805545585084954,-0.130632165985419
-0.0874522873223658,-0.13229128363986
-0.0943468796368081,-0.133932582352326
-0.101237861021625,-0.135555709294968
-0.108124757046619,-0.137160311639938
-0.115007093281591,-0.138746036559388
-0.121884395296343,-0.140312531225469
-0.128756188660679,-0.141859442810333
-0.135621998944399,-0.143386418486131
-0.142481351717306,-0.144893105425014
-0.149333772549201,-0.146379150799135
-0.156178787009888,-0.147844201780645
-0.163015920669167,-0.149287905541695
-0.169844699096842,-0.150709909254437
-0.176664647862713,-0.152109860091022
-0.183475292536584,-0.153487405223603
-0.190276158688255,-0.15484219182433
-0.19706677188753,-0.156173867065355
-0.20384665770421,-0.15748207811883
-0.210615341708098,-0.158766472156906
-0.217372349468994,-0.160026696351735
-0.224117206556703,-0.161262397875468
-0.230849438541024,-0.162473223900257
-0.237568570991761,-0.163658821598253
-0.244274129478716,-0.164818838141609
-0.250965639571691,-0.165952920702474
-0.257642626840486,-0.167060716453002
-0.264304616854906,-0.168141872565344
-0.270951135184752,-0.16919603621165
-0.277581707399825,-0.170222854564073
-0.284195859069929,-0.171221974794765
-0.290793115764864,-0.172193044075876
-0.297373003054433,-0.173135709579558
-0.303935046508439,-0.174049618477963
-0.310478771696682,-0.174934417943243
-0.317003704188966,-0.175789755147549
-0.323509369555091,-0.176615277263032
-0.329995293364862,-0.177410631461844
-0.336461001188078,-0.178175464916137
-0.342906018594543,-0.178909424798061
-0.349329871154058,-0.17961215827977
-0.355732084436426,-0.180283312533414
-0.362112184011448,-0.180922534731144
-0.368469695448927,-0.181529472045113
-0.374804144318664,-0.182103771647472
-0.381115056190463,-0.182645080710372
-0.387401956634124,-0.183153046405965
-0.39366437121945,-0.183627315906402
-0.399901825516242,-0.184067536383836
-0.406113845094304,-0.184473355010417
-0.412299955523436,-0.184844418958297
-0.418459682373442,-0.185180375399628
-0.424592551214122,-0.185480871506561
-0.43069808761528,-0.185745554451248
-0.436775817146717,-0.185974071405841
-0.442825265378235,-0.18616606954249
-0.448845957879637,-0.186321196033347
-0.454837420220723,-0.186439098050565
-0.460799177971298,-0.186519422766294
-0.466730756701161,-0.186561817352686
-0.472631681980116,-0.186565928981893
-0.478501479377965,-0.186531404826065
-0.48433967446451,-0.186457892057356
-0.490145792809552,-0.186345037847916
-0.495919359982893,-0.186192489369896
-0.501659901554337,-0.185999893795449
-0.507366943093684,-0.185766898296726
-0.513040010170738,-0.185493150045878
-0.518678628355299,-0.185178296215057
-0.52428232321717,-0.184821983976414
-0.529850620326153,-0.184423860502102
-0.53538304525205,-0.183983572964271
-0.540879123564664,-0.183500768535074
-0.546338380833795,-0.182975094386661
-0.551760342629247,-0.182406197691184
-0.557144534520822,-0.181793725620795
-0.56249048207832,-0.181137325347646
-0.567797710871546,-0.180436644043887
-0.573065746470299,-0.179691328881671
-0.578294114444383,-0.178901027033148
-0.583482340363599,-0.178065385670472
-0.588629949797751,-0.177184051965792
-0.593736468316639,-0.176256673091261
-0.598801421490065,-0.17528289621903
-0.603824334887833,-0.17426236852125
-0.608804734079743,-0.173194737170074
-0.613742144635599,-0.172079649337653
-0.618636092125201,-0.170916752196138
-0.623486102118352,-0.169705692917681
-0.628291700184854,-0.168446118674434
-0.633052411894509,-0.167137676638547
-0.63776776281712,-0.165780013982173
-0.642437278522488,-0.164372777877463
-0.647060484580415,-0.162915615496569
-0.651636906560703,-0.161408174011642
-0.656166070033155,-0.159850100594833
-0.660647500567572,-0.158241042418295
-0.665080723733757,-0.156580646654178
-0.669465265101511,-0.154868560474635
-0.673800650240638,-0.153104431051817
-0.678086404720937,-0.151287905557875
-0.682322054112212,-0.149418631164961
-0.686507123984265,-0.147496255045227
-0.690641139906898,-0.145520424370824
-0.694723627449913,-0.143490786313903
-0.698754112183111,-0.141406988046617
-0.702732119676296,-0.139268676741116
-0.706657175499269,-0.137075499569553
-0.710528805221831,-0.134827103704078
-0.714346534413786,-0.132523136316844
-0.718109888644935,-0.130163244580002
-0.721818393485081,-0.127747075665703
-0.725471574504024,-0.125274276746099
-0.729068957271568,-0.122744494993341
-0.732610067357515,-0.120157377579582
-0.736094430331665,-0.117512571676972
-0.739521571763823,-0.114809724457664
-0.742891017223789,-0.112048483093808
-0.746202292281365,-0.109228494757556
-0.749454922506355,-0.106349406621061
-0.752648433468558,-0.103410865856472
-0.755782350737779,-0.100412519635943
-0.758856199883819,-0.0973540151316238
-0.761869506476479,-0.0942349995156667
-0.764821796085563,-0.0910551199602233
-0.767712594280871,-0.0878140236374449
-0.770541426632207,-0.0845113577194832
-0.773307818709371,-0.0811467693784896
-0.776011296082167,-0.0777199057866158
-0.778651384320396,-0.0742304141160132
-0.78122760899386,-0.0706779415388335
-0.783739495672362,-0.0670621352272281
-0.786186569925703,-0.0633826423533487
-0.788568357323685,-0.0596391100893466
-0.790884383436111,-0.0558311856073737
-0.793134173832782,-0.0519585160795811
-0.795317254083501,-0.0480207486781209
-0.79743314975807,-0.044017530575144
-0.79948138642629,-0.0399485089428026
-0.801461489657964,-0.0358133309532477
-0.803372985022894,-0.0316116437786313
-0.805215398090882,-0.0273430945911045
-0.80698825443173,-0.0230073305628193
-0.808691079615239,-0.0186039988659268
-0.810323399211213,-0.014132746672579
-0.811884738789453,-0.00959322115492697
-0.81337462391976,-0.00498506948512272
-0.814792580171938,-0.000307938835317323
-0.816138133115789,0.00443852362233715
-0.817410808321113,0.00925467071568968
-0.818610131357714,0.0141408552725883
-0.819735627795393,0.0190974301208817
-0.820786823203953,0.0241247480884182
-0.821763243153196,0.0292231620030465
-0.822664413212922,0.0343930246926146
-0.823489858952936,0.0396346889849715
-0.824239105943038,0.0449485077079652
-0.824911679753031,0.0503348336894445
-0.825507105952716,0.0557940197572574
-0.826024910111897,0.061326418739253
-0.826464617800374,0.0669323834632791
-0.82682575458795,0.0726122667571847
-0.827107846044427,0.0783664214488178
-0.827310417739608,0.0841952003660272
-0.827432995243293,0.0900989563366611
-0.827475104125285,0.0960780421885682
-0.827436269955387,0.102132810749597
-0.8273160183034,0.108263614847595
-0.827113874739126,0.114470807310412
-0.826829364832368,0.120754740965896
-0.826462014152927,0.127115768641895
-0.826011348270605,0.133554243166258
-0.825476892755206,0.140070517366833
-0.824858173176529,0.146664944071469
-0.824154715104378,0.153337876108014
-0.823366044108555,0.160089666304317
-0.822491685758862,0.166920667488226
-0.8215311656251,0.173831232487589
-0.820484009277073,0.180821714130255
-0.819349742284581,0.187892465244073
