0.308196558485092,-0.842530701389058
0.308405672046418,-0.83470099019886
0.308617606327435,-0.826887790531526
0.308832281864609,-0.819091138708256
0.309049619194407,-0.811311071050245
0.309269538853294,-0.803547623878692
0.309491961377738,-0.795800833514793
0.309716807304205,-0.788070736279746
0.309943997169162,-0.780357368494748
0.310173451509074,-0.772660766480996
0.310405090860409,-0.764980966559688
0.310638835759634,-0.75731800505202
0.310874606743213,-0.74967191827919
0.311112324347615,-0.742042742562395
0.311351909109305,-0.734430514222833
0.311593281564751,-0.7268352695817
0.311836362250418,-0.719257044960194
0.312081071702773,-0.711695876679512
0.312327330458282,-0.704151801060852
0.312575059053413,-0.69662485442541
0.312824178024631,-0.689115073094384
0.313074607908404,-0.681622493388971
0.313326269241197,-0.674147151630368
0.313579082559477,-0.666689084139772
0.313832968399711,-0.659248327238381
0.314087847298365,-0.651824917247393
0.314343639791906,-0.644418890488003
0.3146002664168,-0.63703028328141
0.314857647709513,-0.629659131948811
0.315115704206513,-0.622305472811402
0.315374356444265,-0.614969342190382
0.315633524959237,-0.607650776406947
0.315893130287894,-0.600349811782295
0.316153092966704,-0.593066484637622
0.316413333532132,-0.585800831294127
0.316673772520646,-0.578552888073006
0.316934330468711,-0.571322691295456
0.317194927912794,-0.564110277282675
0.317455485389363,-0.556915682355861
0.317715923434882,-0.549738942836209
0.317976162585819,-0.542580095044918
0.318236123378641,-0.535439175303185
0.318495726349813,-0.528316219932207
0.318754892035803,-0.521211265253181
0.319013540973076,-0.514124347587305
0.3192715936981,-0.507055503255775
0.31952897074734,-0.500004768579789
0.319785592657264,-0.492972179880544
0.320041379964338,-0.485957773479238
0.320296253205028,-0.478961585697067
0.320550132915801,-0.471983652855229
0.320802939633123,-0.465024011274921
0.321054593893461,-0.458082697277341
0.321305016233282,-0.451159747183685
0.321554127189051,-0.444255197315151
0.321801847297235,-0.437369083992936
0.322048097094302,-0.430501443538237
0.322292797116717,-0.423652312272252
0.322535867900947,-0.416821726516177
0.322777229983458,-0.41000972259121
0.323016803900718,-0.403216336818549
0.323254510189191,-0.39644160551939
0.323490269385346,-0.389685565014931
0.323724002025648,-0.382948251626369
0.323955628646564,-0.376229701674901
0.324185069784561,-0.369529951481724
0.324412245976104,-0.362849037368036
0.324637077757661,-0.356186995655034
0.324859485665698,-0.349543862663915
0.325079390236682,-0.342919674715876
0.325296712007078,-0.336314468132115
0.325511371513354,-0.329728279233829
0.325723289291976,-0.323161144342215
0.32593238587941,-0.31661309977847
0.326138581812124,-0.310084181863791
0.326341797626583,-0.303574426919376
0.326541953859254,-0.297083871266423
0.326738971046604,-0.290612551226127
0.326932769725099,-0.284160503119687
0.327123270431205,-0.2777277632683
0.327310393701389,-0.271314367993163
0.327494060072118,-0.264920353615472
0.327674190079858,-0.258545756456427
0.327850704261076,-0.252190612837222
0.328023523152238,-0.245854959079057
0.32819256728981,-0.239538831503128
0.32835775721026,-0.233242266430632
0.328519013450053,-0.226965300182767
0.328676256545656,-0.22070796908073
0.328829407033536,-0.214470309445717
0.328978385450159,-0.208252357598927
0.329123112331992,-0.202054149861557
0.329263508215501,-0.195875722554803
0.329399493637153,-0.189717111999863
0.329530989133414,-0.183578354517935
0.32965791524075,-0.177459486430215
0.329780192495629,-0.1713605440579
0.329897741434517,-0.165281563722189
0.330010482593879,-0.159222581744278
0.330118336510184,-0.153183634445364
0.330221223719896,-0.147164758146645
0.330319064759484,-0.141165989169318
0.330411780165413,-0.13518736383458
0.330499290474149,-0.129228918463628
0.33058151622216,-0.12329068937766
0.330658377945911,-0.117372712897873
0.33072979618187,-0.111475025345463
0.330795691466502,-0.105597663041629
0.330855984336275,-0.0997406623075679
0.330910595327655,-0.0939040594644764
0.330959444977108,-0.0880878908335517
0.331002453821101,-0.0822921927359913
0.3310395423961,-0.0765170014929925
0.331070631238572,-0.0707623534257524
0.331095640884983,-0.0650282848554681
0.3311144918718,-0.0593148321033371
0.33112710473549,-0.0536220314905565
0.331133400012518,-0.0479499193383237
0.331133298239352,-0.0422985319678355
0.331126719952458,-0.0366679057002897
0.331113585688302,-0.0310580768568832
0.331093815983351,-0.0254690817588132
0.331067331374071,-0.0199009567272772
0.331034052396929,-0.0143537380834721
0.330993899588392,-0.00882746214859545
0.330946793484926,-0.0033221652438444
0.330892654622997,0.00216211630958404
0.330831403539072,0.00762534619049238
0.330762960769618,0.0130674880776835
0.3306872468511,0.01848850564996
0.330604182319986,0.0238883625861248
0.330513687712742,0.0292670225649808
0.330415683565834,0.0346244492653305
0.33031009041573,0.0399606063659766
0.330196828798895,0.0452754575457223
0.330075819251795,0.05056896648337
0.329946982310899,0.0558410968577225
0.329810238512671,0.0610918123475826
0.329665508393579,0.0663210766317532
0.329512712490089,0.0715288533890368
0.329351771338668,0.0767151062982365
0.329182605475782,0.0818797990381548
0.329005135437897,0.0870228952875945
0.32881928176148,0.0921443587253585
0.328624964982998,0.0972441530302494
0.328422105638917,0.10232224188107
0.328210624265704,0.107378588956623
0.327990441399824,0.112413157935712
0.327761477577745,0.117425912497138
0.327523653335934,0.122416816319705
0.327276889210856,0.127385833082216
0.327021105738978,0.132332926463473
0.326756223456767,0.137258060142279
0.326482162900689,0.142161197797437
0.32619884460721,0.14704230310775
0.325906189112798,0.15190133975202
0.325604116953919,0.15673827140905
0.325292548667038,0.161553061757643
0.324971404788624,0.166345674476602
0.324640605855141,0.171116073244729
0.324300072403057,0.175864221740827
0.323949724968839,0.1805900836437
0.323589484088952,0.185293622632149
0.323219270299863,0.189974802384977
0.32283900413804,0.194633586580988
0.322448606139947,0.199269938898984
0.322047996842052,0.203883823017768
0.321637096780822,0.208475202616142
0.321215826492722,0.213044041372909
0.320784106514219,0.217590302966873
0.320341857381781,0.222113951076835
0.319888999631872,0.226614949381599
0.31942545380096,0.231093261559967
0.318951140425512,0.235548851290743
0.318465980041993,0.239981682252728
0.317969893186871,0.244391718124726
0.317462800396612,0.24877892258554
0.316944622207682,0.253143259313971
0.316415279156548,0.257484691988824
0.315874691779676,0.2618031842889
0.315322780613533,0.266098699893003
0.314759466194585,0.270371202479935
0.314184669059299,0.274620655728499
0.313598309744142,0.278847023317498
0.31300030878558,0.283050268925734
0.312390586720079,0.287230356232011
0.311769064084105,0.291387248915131
0.311135661414127,0.295520910653896
0.310490299246609,0.29963130512711
0.309832898118019,0.303718396013576
0.309163378564822,0.307782146992096
0.308481661123486,0.311822521741472
0.307787666330477,0.315839483940508
0.307081314722262,0.319832997268007
0.306362526835306,0.323803025402771
0.305631223206077,0.327749532023602
0.304887324371041,0.331672480809305
0.304130750866664,0.335571835438681
0.303361423229414,0.339447559590533
0.302579261995756,0.343299616943664
0.301784187702156,0.347127971176877
0.300976120885083,0.350932585968974
0.300154982081001,0.354713424998759
0.299320691826378,0.358470451945034
0.298473170657681,0.362203630486601
0.297612339111374,0.365912924302265
0.296738117723926,0.369598297070826
0.295850427031802,0.373259712471089
0.29494918757147,0.376897134181855
0.294034319879395,0.380510525881928
0.293105744492044,0.384099851250111
0.292163381945883,0.387665073965206
0.29120715277738,0.391206157706015
0.290236977523,0.394723066151343
0.289252776719211,0.398215762979991
0.288254470902478,0.401684211870762
0.287241980609268,0.405128376502459
0.286215226376048,0.408548220553885
0.285174128739284,0.411943707703842
0.284118608235443,0.415314801631134
0.283048585400991,0.418661466014562
0.281963980772395,0.421983664532931
0.280864714886121,0.425281360865042
0.279750708278635,0.428554518689698
0.278621881486405,0.431803101685703
0.277478155045896,0.435027073531858
0.276319449493576,0.438226397906967
0.27514568536591,0.441401038489832
0.273956783199366,0.444550958959257
0.27275266353041,0.447676122994044
0.271533246895507,0.450776494272995
0.270298453831126,0.453852036474913
0.269048204873731,0.456902713278602
0.267782420559791,0.459928488362864
0.26650102142577,0.462929325406502
0.265203928008137,0.465905188088318
0.263891060843357,0.468856040087115
0.262562340467897,0.471781845081697
0.261217687418223,0.474682566750865
0.259857022230801,0.477558168773423
0.258480265442099,0.480408614828173
0.257087337588583,0.483233868593918
0.25567815920672,0.486033893749461
0.254252650832975,0.488808653973605
0.252810733003815,0.491558112945152
0.251352326255708,0.494282234342905
0.249877351125119,0.496980981845667
0.248385728148514,0.499654319132241
0.246877377862361,0.502302209881429
0.245352220803126,0.504924617772035
0.243810177507276,0.50752150648286
0.242251168511276,0.510092839692709
0.240675114351594,0.512638581080382
0.239081935564695,0.515158694324684
0.237471552687047,0.517653143104417
0.235843886255116,0.520121891098384
0.234198856805369,0.522564901985387
0.232536384874271,0.52498213944423
0.23085639099829,0.527373567153715
0.229158795713892,0.529739148792644
0.227443519557544,0.532078848039822
0.225710483065711,0.534392628574049
0.223959606774861,0.53668045407413
0.22219081122146,0.538942288218867
0.220404016941974,0.541178094687062
0.218599144472871,0.543387837157519
0.216776114350616,0.54557147930904
0.214934847111676,0.547728984820428
0.213075263292517,0.549860317370485
0.211197283429607,0.551965440638016
0.209300828059411,0.554044318301821
0.207385817718397,0.556096914040704
0.20545217294303,0.558123191533469
0.203499814269776,0.560123114458916
0.201528662235104,0.562096646495851
0.199538637375479,0.564043751323074
0.197529660227367,0.565964392619389
0.195501651327235,0.567858534063598
0.193454531211551,0.569726139334505
0.191388220416779,0.571567172110913
0.189302639479386,0.573381596071623
0.18719770893584,0.575169374895438
0.185073349322607,0.576930472261162
0.182929481176153,0.578664851847598
0.180766025032944,0.580372477333547
0.178582901429448,0.582053312397813
0.17638003090213,0.583707320719198
0.174157333987458,0.585334465976506
0.171914731221897,0.586934711848539
0.169652143141915,0.588508022014099
0.167369490283977,0.590054360151991
0.16506669318455,0.591573689941015
0.162743672380102,0.593065975059975
0.160400348407097,0.594531179187675
0.158036641802003,0.595969266002915
0.155652473101287,0.597380199184501
0.153247762841414,0.598763942411233
0.150822431558851,0.600120459361915
0.148376399790066,0.60144971371535
0.145909588071523,0.602751669150341
0.14342191693969,0.604026289345689
0.140913306931034,0.605273537980198
0.138383678582021,0.606493378732672
0.135832952429116,0.607685775281911
0.133261049008788,0.60885069130672
0.130667888857502,0.609988090485901
0.128053392511725,0.611097936498257
0.125417480507923,0.61218019302259
0.122760073382563,0.613234823737703
0.120081091672112,0.6142617923224
0.117380455913035,0.615261062455482
0.1146580866418,0.616232597815753
0.111913904394872,0.617176362082015
0.109147829708719,0.618092318933072
0.106359783119807,0.618980432047725
0.103549685164602,0.619840665104778
0.100717456379572,0.620672981783034
0.0978630173011814,0.621477345761294
0.0949862884658981,0.622253720718362
0.0920871904101881,0.623002070333042
0.0891656436705182,0.623722358284134
0.0862215687833546,0.624414548250443
0.0832548862851642,0.625078603910771
0.080265516712413,0.625714488943921
0.0772533806015681,0.626322167028695
0.0742183984890954,0.626901601843896
0.0711604909114619,0.627452757068328
0.0680795784051338,0.627975596380792
0.0649755815065779,0.628470083460092
0.0618484207522603,0.62893618198503
0.0586980166786479,0.62937385563441
0.0555242898222069,0.629783068087033
0.0523271607194042,0.630163783021702
0.0491065499067058,0.630515964117222
0.0458623779205786,0.630839575052393
0.0425945652974889,0.631134579506019
0.0393030325739034,0.631400941156903
0.0359877002862884,0.631638623683848
0.0326484889711105,0.631847590765656
0.0292853191648362,0.632027806081129
0.0258981114039321,0.632179233309072
0.0224867862248645,0.632301836128286
0.0190512641641001,0.632395578217574
0.0155914657581053,0.632460423255739
0.0121073115433467,0.632496334921585
0.0085987220562907,0.632503276893912
0.00506561783340394,0.632481212851525
0.00150791941115271,0.632430106473226
-0.00207445267399616,0.632349921437818
-0.00568157788557654,0.632240621424104
-0.00931353568712154,0.632102170110886
-0.012970405542165,0.631934531176967
-0.0166522669142401,0.63173766830115
-0.0203591992668807,0.631511545162238
-0.0240912820636199,0.631256125439033
-0.0278485947679915,0.630971372810338
-0.0316312168435287,0.630657250954957
-0.0354392277537653,0.630313723551691
-0.0392727069622344,0.629940754279343
-0.04313173393247,0.629538306816717
-0.0470163881280051,0.629106344842615
-0.0509267490123738,0.62864483203584
-0.0548628960491088,0.628153732075194
-0.0588249087017443,0.627633008639481
-0.0628128664338133,0.627082625407503
-0.0668268487088496,0.626502546058062
-0.0708669349903865,0.625892734269962
-0.0749332047419577,0.625253153722006
-0.0790257374270964,0.624583768092996
-0.0831446125093365,0.623884541061734
-0.087289909452211,0.623155436307025
-0.0914617077192539,0.622396417507669
-0.0956600867739981,0.621607448342471
-0.0998851260799778,0.620788492490233
-0.104136905100726,0.619939513629758
-0.108415503299776,0.619060475439848
-0.112721000140662,0.618151341599306
-0.117053475086917,0.617212075786936
-0.121413007602074,0.616242641681539
-0.125799677149668,0.615243002961919
-0.130213563193231,0.614213123306878
-0.134654745196297,0.613152966395219
-0.1391233026224,0.612062495905745
-0.143619314935073,0.610941675517259
-0.148142861597849,0.609790468908563
-0.152694022074263,0.60860883975846
-0.157272875827847,0.607396751745753
-0.161879502322135,0.606154168549245
-0.16651398102066,0.604881053847738
-0.171176391386957,0.603577371320035
-0.175866812884558,0.602243084644939
-0.180585324976997,0.600878157501254
-0.185332007127807,0.59948255356778
-0.190106938800523,0.598056236523322
-0.194910199458677,0.596599170046682
-0.199741868565803,0.595111317816662
-0.204602025585434,0.593592643512066
-0.209490749981104,0.592043110811697
-0.214408121216347,0.590462683394356
-0.219354218754695,0.588851324938847
-0.219354218754695,0.588851324938847
-0.224299921393041,0.58721632988358
-0.229216076380993,0.585565067212914
-0.234102715861163,0.583897612424579
-0.238959871976161,0.582214041016303
-0.243787576868597,0.580514428485814
-0.248585862681083,0.578798850330842
-0.253354761556229,0.577067382049116
-0.258094305636646,0.575320099138363
-0.262804527064945,0.573557077096313
-0.267485457983736,0.571778391420695
-0.27213713053563,0.569984117609237
-0.276759576863237,0.568174331159667
-0.281352829109169,0.566349107569716
-0.285916919416037,0.564508522337111
-0.290451879926449,0.56265265095958
-0.294957742783019,0.560781568934855
-0.299434540128356,0.558895351760661
-0.303882304105071,0.556994074934729
-0.308301066855775,0.555077813954787
-0.312690860523078,0.553146644318564
-0.317051717249591,0.551200641523788
-0.321383669177925,0.549239881068189
-0.325686748450691,0.547264438449495
-0.329960987210499,0.545274389165434
-0.33420641759996,0.543269808713737
-0.338423071761685,0.54125077259213
-0.342610981838284,0.539217356298343
-0.346770179972368,0.537169635330106
-0.350900698306548,0.535107685185145
-0.355002568983435,0.533031581361191
-0.359075824145639,0.530941399355972
-0.363120495935771,0.528837214667216
-0.367136616496442,0.526719102792653
-0.371124217970262,0.524587139230011
-0.375083332499842,0.522441399477018
-0.379013992227793,0.520281959031405
-0.382916229296726,0.518108893390899
-0.38679007584925,0.515922278053229
-0.390635564027978,0.513722188516123
-0.39445272597552,0.511508700277312
-0.398241593834486,0.509281888834522
-0.402002199747487,0.507041829685484
-0.405734575857134,0.504788598327925
-0.409438754306037,0.502522270259575
-0.413114767236808,0.500242920978162
-0.416762646792057,0.497950625981415
-0.420382425114394,0.495645460767063
-0.423974134346431,0.493327500832834
-0.427537806630778,0.490996821676458
-0.431073474110045,0.488653498795662
-0.434581168926844,0.486297607688176
-0.438060923223786,0.483929223851728
-0.44151276914348,0.481548422784048
-0.444936738828539,0.479155279982863
-0.448332864421571,0.476749870945903
-0.451701178065189,0.474332271170896
-0.455041711902002,0.471902556155572
-0.458354498074622,0.469460801397658
-0.461639568725659,0.467007082394883
-0.464896955997724,0.464541474644977
-0.468126692033428,0.462064053645669
-0.471328808975381,0.459574894894685
-0.474503338966194,0.457074073889756
-0.477650314148479,0.454561666128611
-0.480769766664844,0.452037747108977
-0.483861728657902,0.449502392328584
-0.486926232270263,0.446955677285161
-0.489963309644537,0.444397677476436
-0.492972992923336,0.441828468400137
-0.49595531424927,0.439248125553994
-0.498910305764949,0.436656724435736
-0.501837999612986,0.434054340543091
-0.504738427935989,0.431441049373787
-0.50761162287657,0.428816926425554
-0.51045761657734,0.426182047196121
-0.51327644118091,0.423536487183215
-0.516068128829889,0.420880321884567
-0.518832711666889,0.418213626797903
-0.521570221834521,0.415536477420954
-0.524280691475395,0.412848949251449
-0.526964152732122,0.410151117787114
-0.529620637747312,0.407443058525681
-0.532250178663577,0.404724846964876
-0.534852807623527,0.401996558602429
-0.537428556769773,0.39925826893607
-0.539977458244925,0.396510053463525
-0.542499544191594,0.393751987682525
-0.544994846752391,0.390984147090797
-0.547463398069927,0.388206607186071
-0.549905230286812,0.385419443466076
-0.552320375545658,0.382622731428539
-0.554708865989074,0.379816546571191
-0.557070733759671,0.377000964391759
-0.559406011000061,0.374176060387972
-0.561714729852854,0.371341910057559
-0.56399692246066,0.368498588898249
-0.56625262096609,0.365646172407771
-0.568481857511756,0.362784736083852
-0.570684664240267,0.359914355424223
-0.572861073294235,0.357035105926612
-0.57501111681627,0.354147063088747
-0.577134826948983,0.351250302408357
-0.579232235834985,0.348344899383171
-0.581303375616885,0.345430929510917
-0.583348278437297,0.342508468289326
-0.585366976438828,0.339577591216124
-0.587359501764091,0.336638373789041
-0.589325886555696,0.333690891505805
-0.591266162956255,0.330735219864147
-0.593180363108376,0.327771434361793
-0.595068519154672,0.324799610496472
-0.596930663237753,0.321819823765915
-0.59876682750023,0.318832149667849
-0.600577044084714,0.315836663700002
-0.602361345133814,0.312833441360104
-0.604119762790142,0.309822558145885
-0.605852329196309,0.306804089555071
-0.607559076494925,0.303778111085392
-0.609240036828602,0.300744698234577
-0.610895242339949,0.297703926500354
-0.612524725171577,0.294655871380452
-0.614128517466098,0.291600608372601
-0.615706651366121,0.288538212974528
-0.617259159014258,0.285468760683962
-0.618786072553119,0.282392326998632
-0.620287424125316,0.279308987416268
-0.621763245873458,0.276218817434596
-0.623213569940156,0.273121892551348
-0.624638428468022,0.27001828826425
-0.626037853599665,0.266908080071032
-0.627411877477697,0.263791343469422
-0.628760532244728,0.26066815395715
-0.63008385004337,0.257538587031944
-0.631381863016232,0.254402718191532
-0.632654603305925,0.251260622933644
-0.633902103055061,0.248112376756009
-0.635124394406249,0.244958055156354
-0.636321509502101,0.241797733632409
-0.637493480485227,0.238631487681902
-0.638640339498239,0.235459392802562
-0.639762118683746,0.232281524492118
-0.640858850184359,0.229097958248299
-0.641930566142689,0.225908769568833
-0.642977298701348,0.22271403395145
-0.643999080002945,0.219513826893877
-0.644995942190091,0.216308223893844
-0.645967917405397,0.213097300449079
-0.646915037791474,0.209881132057311
-0.647837335490932,0.206659794216269
-0.648734842646382,0.203433362423681
-0.649607591400436,0.200201912177276
-0.650455613895702,0.196965518974784
-0.651278942274793,0.193724258313932
-0.652077608680319,0.19047820569245
-0.652851645254891,0.187227436608066
-0.653601084141119,0.183972026558508
-0.654325957481614,0.180712051041507
-0.655026297418987,0.17744758555479
-0.655702136095848,0.174178705596086
-0.656353505654809,0.170905486663123
-0.65698043823848,0.167628004253632
-0.657582965989471,0.16434633386534
-0.658161121050394,0.161060550995975
-0.658714935563859,0.157770731143268
-0.659244441672477,0.154476949804946
-0.659749671518858,0.151179282478739
-0.660230657245613,0.147877804662374
-0.660687430995353,0.144572591853581
-0.661120024910689,0.141263719550089
-0.661528471134232,0.137951263249626
-0.661912801808591,0.134635298449921
-0.662273049076379,0.131315900648703
-0.662609245080204,0.1279931453437
-0.662921421962679,0.124667108032641
-0.663209611866414,0.121337864213255
-0.66347384693402,0.118005489383271
-0.663714159308107,0.114670059040417
-0.663930581131286,0.111331648682422
-0.664123144546168,0.107990333807015
-0.664291881695363,0.104646189911925
-0.664436824721483,0.10129929249488
-0.664558005767137,0.0979497170536087
-0.664655456974937,0.0945975390858404
-0.664729210487494,0.0912428340893038
-0.664779298447418,0.0878856775617274
-0.664805752997319,0.0845261450008399
-0.664808606279809,0.0811643119043702
-0.664787890437498,0.077800253770047
-0.664743637612997,0.0744340460955991
-0.664675879948916,0.0710657643787549
-0.664584649587867,0.0676954841172435
-0.66446997867246,0.0643232808087936
-0.664331899345306,0.0609492299511337
-0.664170443749016,0.0575734070419928
-0.663985644026199,0.0541958875790994
-0.663777532319467,0.0508167470601825
-0.663546140771432,0.0474360609829706
-0.663291501524702,0.0440539048451925
-0.663013646721889,0.040670354144577
-0.662712608505604,0.0372854843788528
-0.662388419018458,0.0338993710457486
-0.662041110403061,0.0305120896429933
-0.661670714802024,0.0271237156683153
-0.661277264357957,0.0237343246194437
-0.660860791213472,0.020343991994107
-0.660421327511179,0.0169527932900341
-0.659958905393688,0.0135608040049535
-0.659473557003611,0.0101680996365943
-0.658965314483558,0.00677475568268483
-0.65843420997614,0.00338084764095418
-0.657880275623968,-1.3548990869236e-05
-0.657303543569652,-0.0034083587150564
-0.656704045955803,-0.00680350603387879
-0.656081814925032,-0.0101989154496075
-0.655436882619949,-0.013594511464514
-0.654769281183165,-0.0169902185808692
-0.654079042757291,-0.0203859613009448
-0.653366199484938,-0.0237816641270117
-0.652630783508716,-0.0271772515613415
-0.651872826971236,-0.0305726481062051
-0.651092362015109,-0.0339677782638742
-0.650289420782946,-0.0373625665366195
-0.649464035417356,-0.0407569374267128
-0.648616238060952,-0.044150815436425
-0.647746060856343,-0.0475441250680276
-0.64685353594614,-0.0509367908237917
-0.645938695472954,-0.0543287372059887
-0.645001571579396,-0.0577198887168897
-0.644042196408077,-0.0611101698587662
-0.643060602101606,-0.0644995051338892
-0.642056820802596,-0.0678878190445303
-0.641030884653656,-0.0712750360929603
-0.639982825797397,-0.0746610807814509
-0.638912676376431,-0.078045877612273
-0.637820468533367,-0.0814293510876982
-0.636706234410816,-0.0848114257099975
-0.63557000615139,-0.0881920259814423
-0.634411815897698,-0.0915710764043038
-0.633231695792353,-0.0949485014808535
-0.632029677977963,-0.0983242257133622
-0.63080579459714,-0.101698173604102
-0.629560077792495,-0.105070269655343
-0.628292559706639,-0.108440438369357
-0.627003272482181,-0.111808604248416
-0.625692248261734,-0.11517469179479
-0.624359519187907,-0.118538625510751
-0.623005117403311,-0.12190032989857
-0.621629075050557,-0.125259729460518
-0.620231424272256,-0.128616748698867
-0.618812197211019,-0.131971312115888
-0.617371426009455,-0.135323344213853
-0.615909142810177,-0.138672769495031
-0.614425379755793,-0.142019512461696
-0.612920168988917,-0.145363497616117
-0.611393542652157,-0.148704649460566
-0.609845532888125,-0.152042892497315
-0.608276171839431,-0.155378151228635
-0.606685491648686,-0.158710350156797
-0.605073524458501,-0.162039413784072
-0.603440302411487,-0.165365266612732
-0.601785857650254,-0.168687833145047
-0.600110222317413,-0.172007037883289
-0.598413428555574,-0.17532280532973
-0.59669550850735,-0.178635059986641
-0.594956494315349,-0.181943726356292
-0.593196418122183,-0.185248728940956
-0.591415312070462,-0.188549992242903
-0.589613208302798,-0.191847440764404
-0.5877901389618,-0.195140999007731
-0.585946136190081,-0.198430591475156
-0.584081232130249,-0.201716142668949
-0.582195458924917,-0.204997577091382
-0.580288848716695,-0.208274819244726
-0.578361433648193,-0.211547793631252
-0.576413245862022,-0.214816424753231
-0.574444317500793,-0.218080637112936
-0.572454680707117,-0.221340355212636
-0.570444367623605,-0.224595503554604
-0.568413410392866,-0.22784600664111
-0.566361841157512,-0.231091788974426
-0.564289692060154,-0.234332775056823
-0.562196995243402,-0.237568889390573
-0.560083782849867,-0.240800056477946
-0.55795008702216,-0.244026200821214
-0.55579593990289,-0.247247246922648
-0.553621373634671,-0.25046311928452
-0.55142642036011,-0.2536737424091
-0.549211112221821,-0.25687904079866
-0.546975481362412,-0.260078938955472
-0.544719559924496,-0.263273361381806
-0.542443380050682,-0.266462232579933
-0.540146973883581,-0.269645477052126
-0.537830373565805,-0.272823019300655
-0.535493611239963,-0.275994783827791
-0.533136719048667,-0.279160695135807
-0.530759729134527,-0.282320677726972
-0.528362673640153,-0.285474656103558
-0.525945584708158,-0.288622554767838
-0.523508494481151,-0.291764298222081
-0.521051435101743,-0.294899810968559
-0.518574438712544,-0.298029017509543
-0.516077537456167,-0.301151842347306
-0.51356076347522,-0.304268209984117
-0.511024148912315,-0.307378044922248
-0.508467725910063,-0.310481271663971
-0.505891526611075,-0.313577814711556
-0.50329558315796,-0.316667598567275
-0.50067992769333,-0.3197505477334
-0.498044592359795,-0.322826586712201
-0.495389609299967,-0.32589564000595
-0.492715010656456,-0.328957632116918
-0.490020828571872,-0.332012487547376
-0.487307095188826,-0.335060130799596
-0.48457384264993,-0.338100486375848
-0.481821103097793,-0.341133478778405
-0.479048908675027,-0.344159032509536
-0.476257291524242,-0.347177072071515
-0.473446283788049,-0.350187521966611
-0.470615917609059,-0.353190306697097
-0.467766225129881,-0.356185350765243
-0.464897238493128,-0.359172578673321
-0.46200898984141,-0.362151914923601
-0.459101511317337,-0.365123284018356
-0.45617483506352,-0.368086610459856
-0.45322899322257,-0.371041818750373
-0.450264017937098,-0.373988833392177
-0.447279941349714,-0.376927578887542
-0.444276795603029,-0.379857979738736
-0.441254612839654,-0.382779960448033
-0.438213425202199,-0.385693445517702
-0.435153264833275,-0.388598359450016
-0.432074163875493,-0.391494626747245
-0.428976154471464,-0.394382171911661
-0.425859268763798,-0.397260919445535
-0.422723538895106,-0.400130793851139
-0.419568997007999,-0.402991719630743
-0.416395675245087,-0.405843621286619
-0.413203605748982,-0.408686423321038
-0.409992820662293,-0.411520050236272
-0.406763352127632,-0.414344426534591
-0.403515232287609,-0.417159476718268
-0.400248493284835,-0.419965125289572
-0.396963167261921,-0.422761296750776
-0.393659286361477,-0.425547915604151
-0.390336882726115,-0.428324906351967
-0.386995988498444,-0.431092193496497
-0.383636635821076,-0.433849701540012
-0.380258856836621,-0.436597354984782
-0.37686268368769,-0.439335078333079
-0.373448148516894,-0.442062796087175
-0.370015283466843,-0.44478043274934
-0.366564120680149,-0.447487912821846
-0.363094692299421,-0.450185160806964
-0.359607030467271,-0.452872101206966
-0.356101167326309,-0.455548658524122
-0.352577135019146,-0.458214757260704
-0.349034965688392,-0.460870321918984
-0.34547469147666,-0.463515277001231
-0.341896344526558,-0.466149547009719
-0.338299956980698,-0.468773056446717
-0.33468556098169,-0.471385729814498
-0.331053188672146,-0.473987491615332
-0.327402872194676,-0.476578266351491
-0.323734643691891,-0.479157978525245
-0.320048535306401,-0.481726552638868
-0.316344579180817,-0.484283913194628
-0.31262280745775,-0.486829984694799
-0.30888325227981,-0.48936469164165
-0.305125945789609,-0.491887958537454
-0.301350920129756,-0.494399709884482
-0.297558207442864,-0.496899870185004
-0.293747839871541,-0.499388363941293
-0.2899198495584,-0.501865115655619
-0.286074268646051,-0.504330049830253
-0.282211129277104,-0.506783090967468
-0.27833046359417,-0.509224163569533
-0.274432303739861,-0.511653192138721
-0.270516681856786,-0.514070101177303
-0.266583630087556,-0.51647481518755
-0.262633180574783,-0.518867258671733
-0.258665365461076,-0.521247356132124
-0.254680216889047,-0.523615032070993
-0.250677767001306,-0.525970210990612
-0.246658047940464,-0.528312817393253
-0.242621091849131,-0.530642775781187
-0.238566930869919,-0.532960010656684
-0.234495597145438,-0.535264446522016
-0.2304071228183,-0.537556007879454
-0.226301540031113,-0.539834619231271
-0.222178880926489,-0.542100205079736
-0.21803917764704,-0.544352689927121
-0.213882462335375,-0.546591998275697
-0.209708767134106,-0.548818054627737
-0.205518124185843,-0.55103078348551
-0.201310565633196,-0.553230109351288
-0.197086123618777,-0.555415956727343
-0.192844830285196,-0.557588250115946
-0.188586717775064,-0.559746914019367
-0.184311818230992,-0.561891872939879
-0.184311818230992,-0.561891872939879
-0.180040487400488,-0.564018667051656
-0.175793021125024,-0.56612286795337
-0.171569361688149,-0.568204447284044
-0.167369451373415,-0.570263376682699
-0.163193232464374,-0.572299627788355
-0.159040647244576,-0.574313172240033
-0.154911637997574,-0.576303981676755
-0.150806147006918,-0.578272027737542
-0.14672411655616,-0.580217282061414
-0.142665488928851,-0.582139716287393
-0.138630206408542,-0.584039302054499
-0.134618211278785,-0.585916011001754
-0.130629445823131,-0.587769814768179
-0.126663852325131,-0.589600684992794
-0.122721373068337,-0.591408593314621
-0.118801950336299,-0.593193511372681
-0.11490552641257,-0.594955410805994
-0.1110320435807,-0.596694263253583
-0.107181444124241,-0.598410040354467
-0.103353670326745,-0.600102713747668
-0.0995486644717612,-0.601772255072208
-0.0957663688428426,-0.603418635967105
-0.09200672572354,-0.605041828071383
-0.0882696773974048,-0.606641803024062
-0.0845551661479882,-0.608218532464163
-0.0808631342588416,-0.609771988030707
-0.0771935240135163,-0.611302141362715
-0.0735462776955636,-0.612808964099208
-0.0699213375885348,-0.614292427879208
-0.0663186459759812,-0.615752504341734
-0.062738145141454,-0.617189165125809
-0.0591797773685047,-0.618602381870453
-0.0556434849406846,-0.619992126214687
-0.0521292101415448,-0.621358369797532
-0.0486368952546368,-0.62270108425801
-0.0451664825635119,-0.624020241235141
-0.0417179143517213,-0.625315812367946
-0.0382911329028164,-0.626587769295447
-0.0348860805003484,-0.627836083656664
-0.0315026994278687,-0.629060727090618
-0.0281409319689287,-0.630261671236331
-0.0248007204070795,-0.631438887732824
-0.0214820070258725,-0.632592348219117
-0.0181847341088591,-0.633722024334231
-0.0149088439395905,-0.634827887717188
-0.011654278801618,-0.635909910007009
-0.00842098097849289,-0.636968062842714
-0.0052088927537666,-0.638002317863325
-0.00201795641099038,-0.639012646707863
0.00115188576628453,-0.639999021015348
0.00430069149450673,-0.640961412424802
0.00742851849012496,-0.641899792575246
0.0105354244695879,-0.642814133105701
0.0136214671493443,-0.643704405655187
0.0166867042458427,-0.644570581862727
0.0197311934755319,-0.64541263336734
0.0227549925548606,-0.646230531808048
0.0257581592002775,-0.647024248823872
0.0287407511282312,-0.647793756053833
0.0317028260551705,-0.648539025136952
0.0346444416975441,-0.64926002771225
0.0375656557718005,-0.649956735418748
0.0404665259943886,-0.650629119895467
0.0433471100817571,-0.651277152781429
0.0462074657503545,-0.651900805715653
0.0490476507166296,-0.652500050337162
0.0518677226970312,-0.653074858284975
0.0546677394080078,-0.653625201198115
0.0574477585660082,-0.654151050715603
0.0602078378874811,-0.654652378476458
0.0629480350888752,-0.655129156119702
0.0656684078866391,-0.655581355284357
0.0683690139972216,-0.656008947609444
0.0710499111370712,-0.656411904733983
0.0737111570226369,-0.656790198296995
0.0763528093703671,-0.657143799937501
0.0789749258967107,-0.657472681294524
0.0815775643181162,-0.657776814007082
0.0841607823510325,-0.658056169714198
0.0867246377119082,-0.658310720054893
0.0892691881171919,-0.658540436668187
0.0917944912833325,-0.658745291193102
0.0943006049267784,-0.658925255268658
0.0967875867639786,-0.659080300533877
0.0992554945113816,-0.65921039862778
0.101704385885436,-0.659315521189388
0.104134318602591,-0.659395639857721
0.106545350379295,-0.659450726271801
0.108937538931996,-0.659480752070649
0.111310941977144,-0.659485688893285
0.113665617231186,-0.659465508378732
0.116001622410573,-0.659420182166009
0.118319015231751,-0.659349681894138
0.120617853411171,-0.65925397920214
0.122898194665281,-0.659133045729036
0.125160096710529,-0.658986853113848
0.127403617263364,-0.658815372995595
0.129628814040235,-0.658618577013299
0.13183574475759,-0.658396436805981
0.134024467131879,-0.658148924012663
0.13619503887955,-0.657876010272364
0.138347517717051,-0.657577667224107
0.140481961360832,-0.657253866506912
0.14259842752734,-0.6569045797598
0.144696973933026,-0.656529778621792
0.146777658294336,-0.65612943473191
0.148840538327721,-0.655703519729174
0.150885671749629,-0.655252005252605
0.152913116276508,-0.654774862941225
0.154922929624807,-0.654272064434053
0.156915169510975,-0.653743581370113
0.15888989365146,-0.653189385388424
0.160847159762712,-0.652609448128007
0.162787025561179,-0.652003741227883
0.164709548763309,-0.651372236327075
0.166614787085551,-0.650714905064602
0.168502798244355,-0.650031719079485
0.170373639956168,-0.649322650010746
0.17222736993744,-0.648587669497405
0.174064045904618,-0.647826749178485
0.175883725574153,-0.647039860693005
0.177686466662492,-0.646226975679987
0.179472326886084,-0.645388065778451
0.181241363961377,-0.644523102627419
0.182993635604822,-0.643632057865912
0.184729199532865,-0.642714903132951
0.186448113461957,-0.641771610067557
0.188150435108545,-0.64080215030875
0.189836222189078,-0.639806495495553
0.191505532420006,-0.638784617266985
0.193158423517776,-0.637736487262068
0.194794953198837,-0.636662077119824
0.196415179179639,-0.635561358479272
0.198019159176629,-0.634434302979435
0.199606950906256,-0.633280882259332
0.20117861208497,-0.632101067957986
0.202734200429219,-0.630894831714417
0.204273773655451,-0.629662145167645
0.205797389480115,-0.628402979956693
0.207305105619661,-0.627117307720582
0.208796979790536,-0.625805100098331
0.210273069709189,-0.624466328728963
0.211733433092069,-0.623100965251498
0.213178127655625,-0.621708981304958
0.214607211116305,-0.620290348528363
0.216020741190558,-0.618845038560734
0.217418775594833,-0.617373023041092
0.218801372045578,-0.615874273608459
0.220168588259243,-0.614348761901856
0.221520481952275,-0.612796459560303
0.222857110841124,-0.611217338222821
0.224178532642238,-0.609611369528433
0.225484805072066,-0.607978525116157
0.226775985847057,-0.606318776625016
0.228052132683658,-0.604632095694031
0.22931330329832,-0.602918453962223
0.230559555407491,-0.601177823068612
0.231790946727619,-0.59941017465222
0.233007534975152,-0.597615480352068
0.234209377866541,-0.595793711807176
0.235396533118233,-0.593944840656567
0.236569058446677,-0.59206883853926
0.237727011568322,-0.590165677094277
0.238870450199617,-0.588235327960638
0.23999943205701,-0.586277762777366
0.241114014856949,-0.584292953183481
0.242214256315884,-0.582280870818004
0.243300214150264,-0.580241487319955
0.244371946076536,-0.578174774328357
0.24542950981115,-0.57608070348223
0.246472963070555,-0.573959246420594
0.247502363571198,-0.571810374782473
0.248517769029529,-0.569634060206885
0.249519237161997,-0.567430274332852
0.25050682568505,-0.565198988799395
0.251480592315136,-0.562940175245536
0.252440594768705,-0.560653805310295
0.253386890762206,-0.558339850632693
0.254319538012086,-0.555998282851751
0.255238594234794,-0.553629073606491
0.25614411714678,-0.551232194535933
0.257036164464492,-0.548807617279099
0.257914793904379,-0.546355313475009
0.258780063182889,-0.543875254762684
0.259632030016471,-0.541367412781146
0.260470752121574,-0.538831759169415
0.261296287214646,-0.536268265566513
0.262108693012136,-0.533676903611461
0.262908027230493,-0.531057644943279
0.263694347586166,-0.528410461200988
0.264467711795602,-0.52573532402361
0.265228177575252,-0.523032205050166
0.265975802641563,-0.520301075919677
0.266710644710985,-0.517541908271163
0.267432761499965,-0.514754673743646
0.268142210724953,-0.511939343976147
0.268839050102398,-0.509095890607687
0.269523337348747,-0.506224285277286
0.27019513018045,-0.503324499623967
0.270854486313956,-0.500396505286749
0.271501463465712,-0.497440273904654
0.272136119352169,-0.494455777116703
0.272758511689774,-0.491442986561917
0.273368698194976,-0.488401873879317
0.273966736584224,-0.485332410707924
0.274552684573966,-0.48223456868676
0.275126599880652,-0.479108319454844
0.27568854022073,-0.475953634651198
0.276238563310649,-0.472770485914843
0.276776726866856,-0.469558844884801
0.277303088605802,-0.466318683200092
0.277817706243935,-0.463049972499737
0.278320637497703,-0.459752684422757
0.278811940083555,-0.456426790608174
0.279291671717939,-0.453072262695008
0.279759890117306,-0.44968907232228
0.280216652998102,-0.446277191129011
0.280662018076778,-0.442836590754223
0.28109604306978,-0.439367242836937
0.28151878569356,-0.435869119016173
0.281930303664564,-0.432342190930952
0.282330654699241,-0.428786430220296
0.282719896514042,-0.425201808523225
0.283098086825413,-0.421588297478761
0.283465283349803,-0.417945868725924
0.283821543803663,-0.414274493903736
0.284166925903439,-0.410574144651218
0.284501487365581,-0.40684479260739
0.284825285906538,-0.403086409411274
0.285138379242757,-0.399298966701891
0.285440825090689,-0.395482436118262
0.285732681166781,-0.391636789299407
0.286014005187482,-0.387761997884348
0.286284854869242,-0.383858033512106
0.286545287928508,-0.379924867821702
0.286795362081729,-0.375962472452157
0.287035135045354,-0.371970819042491
0.287264664535832,-0.367949879231727
0.287484008269612,-0.363899624658884
0.287693223963141,-0.359820026962985
0.28789236933287,-0.355711057783049
0.288081502095245,-0.351572688758099
0.288260679966717,-0.347404891527155
0.288429960663734,-0.343207637729237
0.288589401902744,-0.338980899003368
0.288739061400197,-0.334724646988569
0.28887899687254,-0.330438853323859
0.289009266036224,-0.32612348964826
0.289129926607695,-0.321778527600794
0.289241036303403,-0.317403938820481
0.289342652839798,-0.312999694946343
0.289434833933326,-0.308565767617399
0.289517637300438,-0.304102128472672
0.289591120657581,-0.299608749151183
0.289655341721205,-0.295085601291952
0.289710358207758,-0.290532656534
0.289756227833689,-0.285949886516349
0.289793008315446,-0.281337262878019
0.289820757369479,-0.276694757258032
0.289839532712236,-0.272022341295408
0.289849392060165,-0.267319986629169
0.289850393129715,-0.262587664898336
0.289842593637336,-0.257825347741929
0.289826051299475,-0.25303300679897
0.289800823832582,-0.248210613708479
0.289766968953104,-0.243358140109479
0.289724544377492,-0.238475557640989
0.289673607822193,-0.233562837942031
0.289614217003656,-0.228619952651625
0.28954642963833,-0.223646873408794
0.289470303442663,-0.218643571852557
0.289385896133105,-0.213610019621936
0.289293265426103,-0.208546188355952
0.289192469038108,-0.203452049693627
0.289083564685566,-0.19832757527398
0.288966610084928,-0.193172736736033
0.288841662952641,-0.187987505718807
0.288708781005154,-0.182771853861323
0.288568021958917,-0.177525752802602
0.288419443530377,-0.172249174181666
0.288263103435984,-0.166942089637534
0.288099059392186,-0.161604470809229
0.287927369115432,-0.156236289335771
0.287748090322171,-0.150837516856181
0.28756128072885,-0.14540812500948
0.28736699805192,-0.13994808543469
0.287165300007828,-0.134457369770831
0.286956244313023,-0.128935949656924
0.286739888683955,-0.123383796731991
0.286516290837071,-0.117800882635052
0.28628550848882,-0.112187179005128
0.286047599355652,-0.106542657481241
0.285802621154014,-0.100867289702411
0.285550631600356,-0.0951610473076603
0.285291688411126,-0.0894239019360086
0.285025849302773,-0.0836558252264777
0.284753171991745,-0.0778567888180882
0.284473714194491,-0.0720267643498614
0.284187533627461,-0.0661657234608181
0.283894688007102,-0.0602736377899798
0.283595235049863,-0.0543504789763668
0.283289232472193,-0.0483962186590008
0.282976737990541,-0.0424108284769024
0.282657809321355,-0.036394280069093
0.282332504181085,-0.0303465450745932
0.282000880286178,-0.0242675951324243
0.281662995353083,-0.0181574018816071
0.28131890709825,-0.0120159369611632
0.280968673238127,-0.00584317201011281
0.280612351489162,0.000360921332522329
0.280249999567804,0.00659637142772176
0.279881675190502,0.0128632066364639
0.279507436073705,0.0191614553197283
0.279127339933861,0.0254911458384934
0.278741444487419,0.0318523065537387
0.278349807450828,0.0382449658264425
0.277952486540536,0.0446691520175845
0.277549539472992,0.051124893488143
0.277141023964645,0.0576122185990975
0.276726997731943,0.0641311557114267
0.276307518491336,0.0706817331861099
0.275882643959271,0.0772639793841254
0.275452431852198,0.083877922666453
0.275016939886565,0.0905235913940709
0.274576225778821,0.0972010139279587
0.274130347245414,0.103910218629095
0.273679362002794,0.110651233858459
0.273223327767408,0.117424087977029
0.272762302255707,0.124228809345785
0.272296343184138,0.131065426325705
0.271825508269149,0.13793396727777
0.271349855227191,0.144834460562956
0.270869441774711,0.151766934542244
0.270384325628158,0.158731417576612
0.269894564503981,0.165727938027039
0.269400216118628,0.172756524254505
0.268901338188549,0.179817204619988
0.268397988430192,0.186910007484467
0.267890224560005,0.194034961208922
0.267378104294437,0.201192094154331
0.266861685349937,0.208381434681673
0.266341025442954,0.215603011151927
0.265816182289937,0.222856851926073
0.265287213607333,0.230142985365088
0.264754177111592,0.237461439829953
0.264217130519163,0.244812243681645
0.263676131546493,0.252195425281145
0.263131237910033,0.25961101298943
0.26258250732623,0.267059035167481
0.262029997511533,0.274539520176275
0.261473766182391,0.282052496376793
0.260913871055253,0.289597992130012
0.260350369846567,0.297176035796912
0.259783320272782,0.304786655738472
0.259212780050346,0.312429880315671
0.258638806895709,0.320105737889487
0.258061458525319,0.327814256820901
0.257480792655625,0.335555465470889
0.256896867003075,0.343329392200433
0.256309739284118,0.35113606537051
0.255719467215203,0.3589755133421
0.255126108512779,0.366847764476182
0.254529720893293,0.374752847133734
0.253930362073196,0.382690789675736
0.253328089768935,0.390661620463166
0.252722961696959,0.398665367857003
0.252115035573718,0.406702060218228
0.251504369115659,0.414771725907817
0.250891020039231,0.422874393286751
0.250275046060883,0.431010090716009
0.249656504897064,0.439178846556568
0.249035454264223,0.447380689169409
0.248411951878808,0.455615646915511
0.247786055457267,0.463883748155851
0.24715782271605,0.47218502125141
0.246527311371605,0.480519494563166
0.245894579140381,0.488887196452099
0.245259683738827,0.497288155279186
0.24462268288339,0.505722399405408
0.243983634290521,0.514189957191742
0.243342595676667,0.522690856999169
0.242699624758278,0.531225127188667
0.242054779251802,0.539792796121214
0.241408116873687,0.548393892157791
0.240759695340383,0.557028443659376
0.240109572368338,0.565696478986947
0.239457805674001,0.574398026501485
0.23880445297382,0.583133114563967
0.238149571984245,0.591901771535374
0.237493220421723,0.600704025776683
0.236835456002704,0.609539905648874
0.236176336443636,0.618409439512926
0.235515919460968,0.627312655729817
0.234854262771149,0.636249582660527
0.234191424090627,0.645220248666035
0.233527461135851,0.654224682107319
0.23286243162327,0.66326291134536
0.232196393269332,0.672334964741134
0.231529403790486,0.681440870655623
