-0.947325592682814,-0.529703779321771
-0.935373122947498,-0.525000656248536
-0.923503027988374,-0.520335082158323
-0.911715033023463,-0.515706982178572
-0.900008863270788,-0.511116281436725
-0.888384243948367,-0.506562905060223
-0.876840900274224,-0.502046778176506
-0.865378557466378,-0.497567825913015
-0.853996940742851,-0.493125973397193
-0.842695775321664,-0.488721145756479
-0.831474786420837,-0.484353268118314
-0.820333699258391,-0.48002226561014
-0.809272239052348,-0.475728063359397
-0.79829013102073,-0.471470586493526
-0.787387100381555,-0.467249760139969
-0.776562872352846,-0.463065509426166
-0.765817172152624,-0.458917759479559
-0.75514972499891,-0.454806435427588
-0.744560256109724,-0.450731462397694
-0.734048490703087,-0.446692765517318
-0.723614153997021,-0.442690269913901
-0.713256971209547,-0.438723900714885
-0.702976667558685,-0.434793583047709
-0.692772968262457,-0.430899242039816
-0.682645598538884,-0.427040802818646
-0.672594283605986,-0.42321819051164
-0.662618748681785,-0.419431330246238
-0.652718718984301,-0.415680147149883
-0.642893919731556,-0.411964566350015
-0.633144076141571,-0.408284512974074
-0.623468913432366,-0.404639912149503
-0.613868156821963,-0.401030689003741
-0.604341531528382,-0.39745676866423
-0.594888762769645,-0.393918076258411
-0.585509575763773,-0.390414536913724
-0.576203695728785,-0.386946075757611
-0.566970847882705,-0.383512617917513
-0.557810757443553,-0.380114088520871
-0.548723149629348,-0.376750412695125
-0.539707749658113,-0.373421515567716
-0.53076428274787,-0.370127322266087
-0.521892474116637,-0.366867757917677
-0.513092048982437,-0.363642747649927
-0.50436273256329,-0.360452216590278
-0.495704250077219,-0.357296089866173
-0.487116326742242,-0.35417429260505
-0.478598687776383,-0.351086749934352
-0.470151058397661,-0.348033386981519
-0.461773163824097,-0.345014128873993
-0.453464729273713,-0.342028900739214
-0.445225479964529,-0.339077627704623
-0.437055141114567,-0.336160234897661
-0.428953437941848,-0.333276647445769
-0.420920095664392,-0.330426790476389
-0.41295483950022,-0.327610589116961
-0.405057394667355,-0.324827968494925
-0.397227486383815,-0.322078853737724
-0.389464839867623,-0.319363169972798
-0.3817691803368,-0.316680842327588
-0.374140233009367,-0.314031795929535
-0.366577723103344,-0.311415955906079
-0.359081375836752,-0.308833247384663
-0.351650916427613,-0.306283595492727
-0.344286070093947,-0.303766925357711
-0.336986562053776,-0.301283162107057
-0.329752117525121,-0.298832230868206
-0.322582461726001,-0.296414056768599
-0.31547731987444,-0.294028564935676
-0.308436417188457,-0.291675680496879
-0.301459478886073,-0.289355328579649
-0.294546230185311,-0.287067434311426
-0.287696396304189,-0.284811922819652
-0.28090970246073,-0.282588719231767
-0.274185873872954,-0.280397748675213
-0.267524635758883,-0.278238936277431
-0.260925713336538,-0.276112207165861
-0.254388831823939,-0.274017486467944
-0.247913716439108,-0.271954699311122
-0.241500092400065,-0.269923770822835
-0.235147684924831,-0.267924626130524
-0.228856219231428,-0.265957190361631
-0.222625420537877,-0.264021388643596
-0.216455014062197,-0.262117146103861
-0.210344725022412,-0.260244387869865
-0.204294278636541,-0.258403039069051
-0.198303400122605,-0.256593024828859
-0.192371814698626,-0.25481427027673
-0.186499247582624,-0.253066700540105
-0.180685423992621,-0.251350240746425
-0.174930069146638,-0.249664816023131
-0.169232908262694,-0.248010351497664
-0.163593666558813,-0.246386772297465
-0.158012069253013,-0.244794003549975
-0.152487841563318,-0.243231970382636
-0.147020708707746,-0.241700597922886
-0.14161039590432,-0.240199811298169
-0.136256628371061,-0.238729535635925
-0.130959131325989,-0.237289696063594
-0.125717629987125,-0.235880217708618
-0.120531849572491,-0.234501025698438
-0.115401515300108,-0.233152045160494
-0.110326352387996,-0.231833201222228
-0.105306086054176,-0.230544419011081
-0.10034044151667,-0.229285623654493
-0.0954291439934978,-0.228056740279906
-0.0905719187026814,-0.226857694014761
-0.0857684908622415,-0.225688409986497
-0.081018585690199,-0.224548813322558
-0.0763219284045749,-0.223438829150383
-0.0716782442233903,-0.222358382597413
-0.067087258364666,-0.221307398791089
-0.0625486960464232,-0.220285802858853
-0.058062282486683,-0.219293519928146
-0.0536277429034661,-0.218330475126407
-0.0492448025147936,-0.217396593581079
-0.0449131865386865,-0.216491800419602
-0.0406326201931658,-0.215616020769417
-0.0364028286962526,-0.214769179757966
-0.0322235372659678,-0.213951202512688
-0.0280944711203324,-0.213162014161026
-0.0240153554773674,-0.21240153983042
-0.0199859155550939,-0.21166970464831
-0.0160058765715327,-0.210966433742139
-0.0120749637447049,-0.210291652239347
-0.00819290229263159,-0.209645285267374
-0.00435941743333364,-0.209027257953663
-0.000574234384832104,-0.208437495425653
0.00316292163485205,-0.207875922810787
0.00685232540769778,-0.207342465236504
0.0104942517156841,-0.206837047830246
0.0140889753407901,-0.206359595719453
0.0176367710649946,-0.205910034031568
0.0211379136702768,-0.20548828789403
0.0245926779386156,-0.20509428243428
0.02800133865199,-0.204727942779761
0.031364170592379,-0.204389194057912
0.0346814485417616,-0.204077961396174
0.0379534472821168,-0.203794169921989
0.0411804415954237,-0.203537744762798
0.0443627062636613,-0.203308611046041
0.0475005160688084,-0.20310669389916
0.0505941457928441,-0.202931918449595
0.0536438702177475,-0.202784209824787
0.0566499641254975,-0.202663493152177
0.059612702298073,-0.202569693559208
0.0625323595174533,-0.202502736173318
0.0654092105656173,-0.202462546121949
0.0682435302245438,-0.202449048532543
0.071035593276212,-0.20246216853254
0.0737856745026008,-0.202501831249381
0.0764940486856893,-0.202567961810507
0.0791609906074564,-0.20266048534336
0.0817867750498812,-0.202779326975379
0.0843716767949425,-0.202924411834007
0.0869159706246196,-0.203095665046683
0.0894199313208914,-0.20329301174085
0.0918838336657367,-0.203516377043947
0.0943079524411347,-0.203765686083417
0.0966925624290644,-0.204040863986699
0.0990379384115048,-0.204341835881235
0.101344355170435,-0.204668526894466
0.103612087487833,-0.205020862153833
0.10584141014568,-0.205398766786776
0.108032597925953,-0.205802165920737
0.110185925610632,-0.206230984683157
0.112301667981695,-0.206685148201477
0.114380099821122,-0.207164581603137
0.116421495910892,-0.207669210015579
0.118426131032983,-0.208198958566243
0.120394279969375,-0.208753752382571
0.122326217502047,-0.209333516592004
0.124222218412977,-0.209938176321982
0.126082557484145,-0.210567656699946
0.12790750949753,-0.211221882853338
0.129697349235111,-0.211900779909598
0.131452351478866,-0.212604272996168
0.133172791010775,-0.213332287240488
0.134858942612816,-0.214084747769999
0.13651108106697,-0.214861579712143
0.138129481155214,-0.215662708194359
0.139714417659527,-0.21648805834409
0.14126616536189,-0.217337555288777
0.14278499904428,-0.218211124155859
0.144271193488677,-0.219108690072778
0.145725023477059,-0.220030178166976
0.147146763791406,-0.220975513565892
0.148536689213697,-0.221944621396969
0.149895074525911,-0.222937426787646
0.151222194510026,-0.223953854865366
0.152518323948022,-0.224993830757568
0.153783737621878,-0.226057279591694
0.155018710313573,-0.227144126495186
0.156223516805085,-0.228254296595483
0.157398431878394,-0.229387715020026
0.158543730315478,-0.230544306896258
0.159659686898318,-0.231723997351618
0.160746576408891,-0.232926711513548
0.161804673629177,-0.234152374509489
0.162834253341155,-0.235400911466881
0.163835590326803,-0.236672247513166
0.164808959368101,-0.237966307775785
0.165754635247028,-0.239283017382178
0.166672892745563,-0.240622301459787
0.167564006645684,-0.241984085136052
0.168428251729371,-0.243368293538414
0.169265902778603,-0.244774851794315
0.170077234575358,-0.246203685031196
0.170862521901617,-0.247654718376497
0.171622039539357,-0.249127876957659
0.172356062270558,-0.250623085902123
0.173064864877198,-0.252140270337331
0.173748722141258,-0.253679355390723
0.174407908844715,-0.25524026618974
0.175042699769549,-0.256822927861823
0.175653369697738,-0.258427265534414
0.176240193411263,-0.260053204334952
0.176803445692101,-0.26170066939088
0.177343401322232,-0.263369585829638
0.177860335083635,-0.265059878778666
0.178354521758288,-0.266771473365407
0.178826236128172,-0.268504294717301
0.179275752975264,-0.270258267961789
0.179703347081543,-0.272033318226311
0.18010929322899,-0.27382937063831
0.180493866199583,-0.275646350325225
0.1808573407753,-0.277484182414498
0.181199991738121,-0.27934279203357
0.181522093870025,-0.281222104309882
0.18182392195299,-0.283122044370874
0.182105750768997,-0.285042537343988
0.182367855100023,-0.286983508356665
0.182610509728048,-0.288944882536345
0.182833989435051,-0.29092658501047
0.18303856900301,-0.29292854090648
0.183224523213905,-0.294950675351817
0.183392126849716,-0.296992913473922
0.18354165469242,-0.299055180400235
0.183673381523997,-0.301137401258197
0.183787582126425,-0.30323950117525
0.183884531281685,-0.305361405278834
0.183964503771754,-0.307503038696391
0.184027774378612,-0.309664326555361
0.184074617884238,-0.311845193983185
0.184105309070611,-0.314045566107304
0.184120122719709,-0.31626536805516
0.184119333613512,-0.318504524954193
0.184103216534,-0.320762961931843
0.18407204626315,-0.323040604115553
0.184026097582942,-0.325337376632764
0.183965645275354,-0.327653204610915
0.183890964122367,-0.329988013177448
0.183802328905958,-0.332341727459804
0.183700014408107,-0.334714272585425
0.183584295410793,-0.33710557368175
0.183455446695995,-0.339515555876221
0.183313743045692,-0.341944144296279
0.183159459241863,-0.344391264069365
0.182992870066486,-0.346856840322919
0.182814250301541,-0.349340798184384
0.182623874729007,-0.351843062781199
0.182422018130863,-0.354363559240806
0.182208955289088,-0.356902212690645
0.181984960985661,-0.359458948258159
0.181750310002561,-0.362033691070787
0.181505277121766,-0.36462636625597
0.181250137125256,-0.36723689894115
0.18098516479501,-0.369865214253768
0.180710634913007,-0.372511237321264
0.180426822261226,-0.375174893271079
0.180134001621646,-0.377856107230655
0.179832447776246,-0.380554804327433
0.179522435507004,-0.383270909688853
0.179204239595901,-0.386004348442356
0.178878134824914,-0.388755045715383
0.178544395976023,-0.391522926635376
0.178203297831207,-0.394307916329775
0.177855115172445,-0.397109939926021
0.177500122781716,-0.399928922551556
0.177138595440999,-0.402764789333819
0.176770807932272,-0.405617465400253
0.176397035037516,-0.408486875878298
0.176017551538708,-0.411372945895395
0.175632632217828,-0.414275600578985
0.175242551856855,-0.417194765056509
0.174847585237768,-0.420130364455408
0.174448007142546,-0.423082323903123
0.174044092353168,-0.426050568527095
0.173636115651613,-0.429035023454764
0.17322435181986,-0.432035613813573
0.172809075639887,-0.435052264730961
0.172390561893675,-0.43808490133437
0.171969085363201,-0.441133448751241
0.171544920830446,-0.444197832109015
0.171118343077387,-0.447277976535133
0.170689626886004,-0.450373807157034
0.170259047038276,-0.453485249102162
0.169826878316182,-0.456612227497956
0.169393395501701,-0.459754667471858
0.168958873376812,-0.462912494151309
0.168523586723494,-0.466085632663749
0.168087810323726,-0.469274008136619
0.167651818959486,-0.472477545697361
0.167215887412755,-0.475696170473415
0.16678029046551,-0.478929807592223
0.166345302899732,-0.482178382181225
0.165911199497398,-0.485441819367862
0.165478255040489,-0.488720044279576
0.165046744310982,-0.492012982043807
0.164616942090857,-0.495320557787996
0.164189123162093,-0.498642696639584
0.163763562306669,-0.501979323726013
0.163340534306565,-0.505330364174723
0.162920313943758,-0.508695743113154
0.162503176000228,-0.512075385668749
0.162089395257954,-0.515469216968948
0.161679246498915,-0.518877162141192
0.161273004505089,-0.522299146312922
0.160870944058457,-0.525735094611579
0.160473339940997,-0.529184932164604
0.160080466934688,-0.532648584099437
0.159692599821509,-0.536125975543521
0.159310013383438,-0.539617031624295
0.158932982402456,-0.543121677469202
0.158561781660541,-0.546639838205681
0.158196685939671,-0.550171438961173
0.157837970021827,-0.553716404863121
0.157485908688987,-0.557274661038964
0.157140776723129,-0.560846132616143
0.156802848906234,-0.564430744722101
0.156472400020279,-0.568028422484277
0.156149704847245,-0.571639091030112
0.155835038169109,-0.575262675487048
0.155528674767852,-0.578899100982526
0.155230889425452,-0.582548292643986
0.154941956923887,-0.586210175598869
0.154662152045138,-0.589884674974617
0.154391749571182,-0.59357171589867
0.154131024284,-0.597271223498469
0.153880250965569,-0.600983122901456
0.15363970439787,-0.604707339235071
0.15340965936288,-0.608443797626755
0.15319039064258,-0.61219242320395
0.152982173018947,-0.615953141094095
0.152785281273962,-0.619725876424633
0.152599990189603,-0.623510554323004
0.152426574547848,-0.627307099916649
0.152265309130678,-0.631115438333009
0.15211646872007,-0.634935494699526
0.151980328098005,-0.638767194143639
0.151857162046461,-0.64261046179279
0.151747245347417,-0.64646522277442
0.151650852782851,-0.65033140221597
0.151568259134744,-0.65420892524488
0.151499739185074,-0.658097716988593
0.15144556771582,-0.661997702574548
0.151406019508961,-0.665908807130188
0.151381369346476,-0.669830955782952
0.151371892010343,-0.673764073660281
0.151377862282543,-0.677708085889618
0.151399554945054,-0.681662917598402
0.151437244779856,-0.685628493914074
0.151491206568926,-0.689604739964076
0.151561715094244,-0.693591580875849
0.151649045137789,-0.697588941776834
0.15175347148154,-0.70159674779447
0.151875268907477,-0.705614924056201
0.152014712197577,-0.709643395689465
0.152172076133821,-0.713682087821705
0.152347635498186,-0.717730925580362
0.152541665072653,-0.721789834092876
0.152754439639199,-0.725858738486688
0.152986233979805,-0.729937563889239
0.153237322876449,-0.734026235427971
0.15350798111111,-0.738124678230324
0.153798483465767,-0.742232817423738
0.154109104722399,-0.746350578135657
0.154440119662985,-0.750477885493519
0.154791803069504,-0.754614664624767
0.155164429723935,-0.75876084065684
0.155558274408258,-0.762916338717181
0.15597361190445,-0.767081083933229
0.156410716994491,-0.771255001432427
0.156869864460361,-0.775438016342214
0.157351329084038,-0.779630053790032
0.157855385647501,-0.783831038903323
0.158382308932728,-0.788040896809526
0.1589323737217,-0.792259552636082
0.159505854796395,-0.796486931510434
0.160103026938792,-0.800722958560022
0.160724164930871,-0.804967558912286
0.161369543554609,-0.809220657694668
0.162039437591987,-0.813482180034608
0.162734121824982,-0.817752051059548
0.163453871035575,-0.822030195896929
0.164198960005744,-0.826316539674191
0.164969663517468,-0.830611007518776
0.165766256352726,-0.834913524558124
0.166589013293497,-0.839224015919677
0.16743820912176,-0.843542406730875
0.168314118619494,-0.84786862211916
0.168314118619494,-0.84786862211916
0.169188449008109,-0.852163083092663
0.170032800747563,-0.856386409654051
0.170847288477659,-0.860538825422569
0.171632026838198,-0.864620554017465
0.172387130468984,-0.868631819057982
0.173112714009818,-0.872572844163366
0.173808892100504,-0.876443852952863
0.174475779380842,-0.880245069045717
0.175113490490637,-0.883976716061175
0.175722140069689,-0.887639017618481
0.176301842757802,-0.891232197336881
0.176852713194778,-0.894756478835621
0.177374866020419,-0.898212085733945
0.177868415874527,-0.9015992416511
0.178333477396906,-0.904918170206329
0.178770165227357,-0.90816909501888
0.179178594005683,-0.911352239707998
0.179558878371686,-0.914467827892926
0.179911132965168,-0.917516083192912
0.180235472425932,-0.9204972292272
0.180532011393781,-0.923411489615036
0.180800864508516,-0.926259087975664
0.18104214640994,-0.929040247928332
0.181255971737855,-0.931755193092283
0.181442455132065,-0.934404147086764
0.18160171123237,-0.936987333531019
0.181733854678574,-0.939504976044294
0.181839000110479,-0.941957298245835
0.181917262167887,-0.944344523754887
0.1819687554906,-0.946666876190694
0.181993594718422,-0.948924579172503
0.181991894491154,-0.95111785631956
0.181963769448599,-0.953246931251108
0.181909334230559,-0.955312027586394
0.181828703476836,-0.957313368944663
0.181721991827234,-0.959251178945161
0.181589313921553,-0.961125681207132
0.181430784399598,-0.962937099349823
0.181246517901169,-0.964685656992478
0.18103662906607,-0.966371577754344
0.180801232534102,-0.967995085254664
0.180540442945069,-0.969556403112685
0.180254374938772,-0.971055754947652
0.179943143155014,-0.972493364378811
0.179606862233597,-0.973869455025407
0.179245646814324,-0.975184250506685
0.178859611536997,-0.97643797444189
0.178448871041419,-0.977630850450268
0.178013539967391,-0.978763102151065
0.177553732954716,-0.979834953163526
0.177069564643197,-0.980846627106895
0.176561149672636,-0.981798347600419
0.176028602682835,-0.982690338263344
0.175472038313597,-0.983522822714913
0.174891571204724,-0.984296024574372
0.174287315996018,-0.985010167460968
0.173659387327282,-0.985665474993946
0.173007899838318,-0.98626217079255
0.172332968168929,-0.986800478476025
0.171634706958917,-0.987280621663619
0.170913230848084,-0.987702823974576
0.170168654476233,-0.988067309028141
0.169401092483165,-0.988374300443559
0.168610659508685,-0.988624021840077
0.167797470192593,-0.988816696836939
0.166961639174692,-0.988952549053391
0.166103281094784,-0.989031802108677
0.165222510592673,-0.989054679622045
0.16431944230816,-0.989021405212738
0.163394190881048,-0.988932202500003
0.162446870951139,-0.988787295103084
0.161477597158235,-0.988586906641228
0.160486484142139,-0.988331260733679
0.159473646542653,-0.988020580999682
0.15843919899958,-0.987655091058484
0.157383256152721,-0.98723501452933
0.156305932641881,-0.986760575031464
0.155207343106859,-0.986231996184133
0.15408760218746,-0.985649501606581
0.152946824523485,-0.985013314918055
0.151785124754738,-0.984323659737799
0.150602617521019,-0.983580759685059
0.149399417462132,-0.98278483837908
0.148175639217879,-0.981936119439108
0.146931397428062,-0.981034826484388
0.145666806732484,-0.980081183134165
0.144381981770947,-0.979075413007684
0.143077037183253,-0.978017739724192
0.141752087609205,-0.976908386902934
0.140407247688606,-0.975747578163154
0.139042632061257,-0.974535537124099
0.137658355366961,-0.973272487405013
0.136254532245521,-0.971958652625142
0.134831277336738,-0.970594256403732
0.133388705280415,-0.969179522360027
0.131926930716355,-0.967714674113274
0.130446068284359,-0.966199935282717
0.128946232624231,-0.964635529487602
0.127427538375772,-0.963021680347174
0.125890100178786,-0.961358611480679
0.124334032673074,-0.959646546507362
0.122759450498438,-0.957885709046468
0.121166468294682,-0.956076322717243
0.119555200701607,-0.954218611138933
0.117925762359016,-0.952312797930782
0.116278267906711,-0.950359106712035
0.114612831984495,-0.948357761101939
0.112929569232169,-0.946308984719739
0.111228594289537,-0.94421300118468
0.109510021796401,-0.942070034116007
0.107773966392563,-0.939880307132966
0.106020542717826,-0.937644043854803
0.104249865411991,-0.935361467900762
0.102462049114862,-0.933032802890089
0.10065720846624,-0.930658272442029
0.0988354581059284,-0.928238100175828
0.0969969126737291,-0.925772509710731
0.0951416868094445,-0.923261724665984
0.093269895152877,-0.920705968660831
0.091381652343829,-0.918105465314519
0.089477073022103,-0.915460438246292
0.0875562718275011,-0.912771111075396
0.0856193633998259,-0.910037707421076
0.0836664623788798,-0.907260450902579
0.081697683404465,-0.904439565139148
0.079713141116384,-0.90157527375003
0.0777129501544391,-0.89866780035447
0.0756972251584327,-0.895717368571713
0.0736660807681674,-0.892724202021005
0.0716196316234451,-0.88968852432159
0.0695579923640686,-0.886610559092715
0.06748127762984,-0.883490529953625
0.0653896020605619,-0.880328660523566
0.0632830802960366,-0.877125174421781
0.0611618269760664,-0.873880295267518
0.0590259567404538,-0.87059424668002
0.056875584229001,-0.867267252278535
0.0547108240815105,-0.863899535682306
0.0525317909377847,-0.86049132051058
0.050338599437626,-0.857042830382602
0.0481313642208366,-0.853554288917617
0.045910199927219,-0.85002591973487
0.0436752211965756,-0.846457946453607
0.0414265426687088,-0.842850592693074
0.0391642789834208,-0.839204082072516
0.0368885447805142,-0.835518638211177
0.0345994546997911,-0.831794484728304
0.0322971233810542,-0.828031845243142
0.0299816654641057,-0.824230943374936
0.027653195588748,-0.820392002742931
0.0253118283947834,-0.816515246966373
0.0229576785220145,-0.812600899664508
0.0205908606102434,-0.808649184456581
0.0182114892992726,-0.804660324961836
0.0158196792289045,-0.800634544799521
0.0134155450389415,-0.796572067588879
0.0109992013691859,-0.792473116949156
0.00857076285944015,-0.788337916499598
0.00613034414950653,-0.78416668985945
0.00367805987918751,-0.779959660647957
0.00121402468828545,-0.775717052484365
-0.00126164678339738,-0.771439088987919
-0.00374883989605847,-0.767125993777864
-0.00624744000989548,-0.762777990473447
-0.00875733248510605,-0.758395302693912
-0.0112784026818878,-0.753978154058504
-0.0138105359604384,-0.749526768186469
-0.0163536176809553,-0.745041368697053
-0.0189075332036363,-0.740522179209501
-0.0214721678886791,-0.735969423343057
-0.0240474070962811,-0.731383324716968
-0.02663313618664,-0.72676410695048
-0.0292292405199535,-0.722111993662836
-0.0318356054564192,-0.717427208473283
-0.0344521163562346,-0.712709975001066
-0.0370786585795974,-0.707960516865431
-0.0397151174867053,-0.703179057685623
-0.0423613784377559,-0.698365821080886
-0.0450173267929467,-0.693521030670467
-0.0476828479124755,-0.688644910073611
-0.0503578271565398,-0.683737682909564
-0.0530421498853372,-0.67879957279757
-0.0557357014590654,-0.673830803356875
-0.058438367237922,-0.668831598206725
-0.0611500325821047,-0.663802180966364
-0.063870582851811,-0.658742775255039
-0.0665999034072386,-0.653653604691994
-0.0693378796085851,-0.648534892896475
-0.0720843968160481,-0.643386863487728
-0.0748393403898253,-0.638209740084997
-0.0776025956901142,-0.633003746307528
-0.0803740480771125,-0.627769105774567
-0.0831535829110178,-0.622506042105359
-0.0859410855520278,-0.617214778919149
-0.08873644136034,-0.611895539835182
-0.0915395356961521,-0.606548548472705
-0.0943502539196618,-0.601174028450962
-0.0971684813910666,-0.595772203389199
-0.0999941034705642,-0.590343296906661
-0.102827005518352,-0.584887532622593
-0.105667072894628,-0.579405134156241
-0.10851419095959,-0.573896325126851
-0.111368245073434,-0.568361329153667
-0.11422912059636,-0.562800369855935
-0.117096702888564,-0.557213670852901
-0.119970877310245,-0.551601455763809
-0.122851529221599,-0.545963948207906
-0.125738543982824,-0.540301371804436
-0.128631806954119,-0.534613950172645
-0.13153120349568,-0.528901906931778
-0.134436618967705,-0.523165465701081
-0.137347938730392,-0.517404850099799
-0.140265048143939,-0.511620283747177
-0.143187832568543,-0.505811990262462
-0.146116177364401,-0.499980193264897
-0.149049967891712,-0.494125116373729
-0.151989089510673,-0.488246983208203
-0.154933427581481,-0.482346017387564
-0.157882867464335,-0.476422442531058
-0.160837294519431,-0.47047648225793
-0.163796594106969,-0.464508360187426
-0.166760651587144,-0.45851829993879
-0.169729352320155,-0.452506525131269
-0.172702581666199,-0.446473259384107
-0.175680224985474,-0.44041872631655
-0.178662167638178,-0.434343149547844
-0.181648294984508,-0.428246752697233
-0.184638492384661,-0.422129759383963
-0.187632645198837,-0.41599239322728
-0.190630638787231,-0.409834877846429
-0.193632358510042,-0.403657436860654
-0.196637689727468,-0.397460293889203
-0.199646517799705,-0.39124367255132
-0.202658728086952,-0.385007796466249
-0.205674205949407,-0.378752889253238
-0.208692836747266,-0.372479174531531
-0.211714505840727,-0.366186875920373
-0.214739098589989,-0.359876217039011
-0.217766500355248,-0.353547421506688
-0.220796596496703,-0.347200712942651
-0.22382927237455,-0.340836314966145
-0.226864413348988,-0.334454451196416
-0.229901904780215,-0.328055345252708
-0.232941632028427,-0.321639220754268
-0.235983480453823,-0.31520630132034
-0.239027335416599,-0.30875681057017
-0.242073082276955,-0.302290972123003
-0.245120606395086,-0.295809009598085
-0.248169793131192,-0.289311146614661
-0.251220527845469,-0.282797606791976
-0.254272695898116,-0.276268613749277
-0.257326182649329,-0.269724391105807
-0.260380873459307,-0.263165162480813
-0.263436653688246,-0.25659115149354
-0.266493408696346,-0.250002581763233
-0.269551023843802,-0.243399676909138
-0.272609384490814,-0.2367826605505
-0.275668375997578,-0.230151756306565
-0.278727883724293,-0.223507187796577
-0.281787793031155,-0.216849178639783
-0.284847989278362,-0.210177952455427
-0.287908357826113,-0.203493732862755
-0.290968784034604,-0.196796743481013
-0.294029153264034,-0.190087207929445
-0.2970893508746,-0.183365349827297
-0.300149262226499,-0.176631392793815
-0.303208772679929,-0.169885560448244
-0.306267767595088,-0.163128076409829
-0.309326132332173,-0.156359164297816
-0.312383752251383,-0.149579047731449
-0.315440512712914,-0.142787950329975
-0.318496299076964,-0.135986095712639
-0.321550996703732,-0.129173707498686
-0.324604490953414,-0.122351009307361
-0.327656667186208,-0.11551822475791
-0.330707410762312,-0.108675577469579
-0.333756607041923,-0.101823291061612
-0.336804141385239,-0.0949615891532557
-0.339849899152458,-0.0880906953637542
-0.342893765703777,-0.0812108333123538
-0.345935626399394,-0.0743222266182993
-0.348975366599507,-0.0674250989008367
-0.352012871664312,-0.0605196737792106
-0.355048026954009,-0.0536061748726672
-0.358080717828794,-0.0466848258004512
-0.361110829648865,-0.0397558501818084
-0.364138247774419,-0.0328194716359838
-0.367162857565655,-0.0258759137822234
-0.37018454438277,-0.0189254002397719
-0.373203193585961,-0.0119681546278752
-0.376218690535427,-0.00500440056577819
-0.379230920591364,0.00196563832727317
-0.38223976911397,0.00894173843203414
-0.385245121463444,0.0159236761292588
-0.388246862999982,0.0229112277997022
-0.391244879083782,0.0299041698241185
-0.394239055075042,0.0369022785832629
-0.39722927633396,0.0439053304578892
-0.400215428220733,0.0509131018287531
-0.403197396095559,0.0579253690766081
-0.406175065318635,0.0649419085822098
-0.409148321250158,0.0719624967263122
-0.412117049250328,0.0789869098896702
-0.415081134679341,0.0860149244530381
-0.418040462897395,0.0930463167971711
-0.420994919264687,0.100080863302823
-0.423944389141415,0.107118340350749
-0.426888757887777,0.114158524321704
-0.429827910863971,0.121201191596442
-0.432761733430193,0.128246118555718
-0.435690110946642,0.135293081580286
-0.438612928773515,0.142341857050902
-0.44153007227101,0.149392221348319
-0.444441426799325,0.156443950853292
-0.447346877718657,0.163496821946577
-0.450246310389203,0.170550611008927
-0.453139610171162,0.177605094421097
-0.456026662424731,0.184660048563842
-0.458907352510107,0.191715249817917
-0.461781565787488,0.198770474564075
-0.464649187617073,0.205825499183073
-0.467510103359058,0.212880100055663
-0.470364198373641,0.219934053562602
-0.473211358021019,0.226987136084643
-0.476051467661391,0.234039124002541
-0.478884412654954,0.241089793697051
-0.481710078361906,0.248138921548928
-0.484528350142443,0.255186283938925
-0.487339113356765,0.262231657247799
-0.490142253365068,0.269274817856302
-0.49293765552755,0.276315542145191
-0.495725205204409,0.283353606495218
-0.498504787755842,0.290388787287141
-0.501276288542047,0.297420860901711
-0.504039592923222,0.304449603719686
-0.506794586259564,0.311474792121818
-0.50954115391127,0.318496202488863
-0.512279181238539,0.325513611201575
-0.515008553601569,0.332526794640709
-0.517729156360555,0.33953552918702
-0.520440874875698,0.346539591221261
-0.523143594507193,0.353538757124189
-0.525837200615239,0.360532803276557
-0.528521578560033,0.367521506059119
-0.531196613701772,0.374504641852632
-0.533862191400655,0.381481987037848
-0.53651819701688,0.388453317995524
-0.539164515910643,0.395418411106413
-0.541801033442142,0.40237704275127
-0.544427634971575,0.409328989310849
-0.54704420585914,0.416274027165907
-0.549650631465033,0.423211932697195
-0.552246797149454,0.430142482285471
-0.554832588272599,0.437065452311488
-0.557407890194666,0.443980619156001
-0.559972588275853,0.450887759199764
-0.562526567876357,0.457786648823532
-0.565069714356376,0.46467706440806
-0.567601913076108,0.471558782334102
-0.570123049395749,0.478431578982413
-0.572633008675499,0.485295230733748
-0.575131676275554,0.49214951396886
-0.577618937556112,0.498994205068506
-0.58009467787737,0.505829080413439
-0.582558782599527,0.512653916384415
-0.58501113708278,0.519468489362186
-0.587451626687326,0.526272575727509
-0.589880136773364,0.533065951861138
-0.59229655270109,0.539848394143828
-0.594700759830703,0.546619678956332
-0.597092643522399,0.553379582679407
-0.599472089136378,0.560127881693805
-0.601838982032835,0.566864352380283
-0.60419320757197,0.573588771119594
-0.606534651113979,0.580300914292494
-0.60886319801906,0.587000558279737
-0.611178733647411,0.593687479462077
-0.613481143359229,0.600361454220269
-0.615770312514713,0.607022258935068
-0.618046126474059,0.613669669987228
-0.620308470597465,0.620303463757504
-0.622557230245129,0.626923416626651
-0.624792290777249,0.633529304975423
-0.627013537554021,0.640120905184575
-0.629220855935645,0.646697993634862
-0.631414131282317,0.653260346707037
-0.633593248954235,0.659807740781856
-0.635758094311596,0.666339952240074
-0.637908552714599,0.672856757462444
-0.640044509523441,0.679357932829722
-0.642165850098319,0.685843254722662
-0.644272459799431,0.69231249952202
-0.646364223986975,0.698765443608548
-0.648441028021149,0.705201863363003
-0.650502757262149,0.711621535166138
-0.652549297070174,0.718024235398709
-0.654580532805422,0.724409740441469
-0.656596349828089,0.730777826675174
-0.658596633498373,0.737128270480578
-0.658596633498373,0.737128270480578
-0.660551774070885,0.743411351293245
-0.662432471466478,0.749577826559079
-0.664239075544717,0.755628189674348
-0.665971936165165,0.76156293403532
-0.667631403187388,0.767382553038263
-0.669217826470949,0.773087540079445
-0.670731555875413,0.778678388555134
-0.672172941260344,0.784155591861598
-0.673542332485306,0.789519643395103
-0.674840079409864,0.79477103655192
-0.676066531893582,0.799910264728314
-0.677222039796024,0.804937821320555
-0.678306952976754,0.80985419972491
-0.679321621295338,0.814659893337646
-0.680266394611339,0.819355395555033
-0.681141622784321,0.823941199773337
-0.681947655673849,0.828417799388826
-0.682684843139487,0.832785687797769
-0.683353535040799,0.837045358396433
-0.68395408123735,0.841197304581086
-0.684486831588704,0.845242019747997
-0.684952135954425,0.849179997293432
-0.685350344194078,0.85301173061366
-0.685681806167227,0.856737713104948
-0.685946871733435,0.860358438163565
-0.686145890752268,0.863874399185779
-0.68627921308329,0.867286089567856
-0.686347188586065,0.870594002706066
-0.686350167120158,0.873798631996676
-0.686288498545131,0.876900470835953
-0.686162532720551,0.879900012620167
-0.685972619505981,0.882797750745584
-0.685719108760986,0.885594178608473
-0.68540235034513,0.8882897896051
-0.685022694117976,0.890885077131735
-0.684580489939091,0.893380534584646
-0.684076087668037,0.895776655360099
-0.683509837164378,0.898073932854363
-0.68288208828768,0.900272860463706
-0.682193190897508,0.902373931584396
-0.681443494853423,0.9043776396127
-0.680633350014992,0.906284477944886
-0.679763106241779,0.908094939977222
-0.678833113393348,0.909809519105977
-0.677843721329262,0.911428708727418
-0.676795279909087,0.912953002237813
-0.675688138992387,0.914382893033429
-0.674522648438726,0.915718874510535
-0.673299158107668,0.916961440065399
-0.672018017858778,0.918111083094288
-0.670679577551619,0.91916829699347
-0.669284187045757,0.920133575159213
-0.667832196200756,0.921007410987785
-0.666323954876179,0.921790297875454
-0.664759812931591,0.922482729218488
-0.663140120226557,0.923085198413155
-0.661465226620641,0.923598198855722
-0.659735481973406,0.924022223942457
-0.657951236144418,0.924357767069629
-0.656112838993241,0.924605321633504
-0.654220640379438,0.924765381030352
-0.652274990162575,0.92483843865644
-0.650276238202215,0.924824987908035
-0.648224734357923,0.924725522181406
-0.646120828489263,0.924540534872821
-0.6439648704558,0.924270519378546
-0.641757210117097,0.923915969094851
-0.63949819733272,0.923477377418003
-0.637188181962231,0.922955237744271
-0.634827513865197,0.922350043469921
-0.63241654290118,0.921662287991221
-0.629955618929745,0.920892464704441
-0.627445091810457,0.920041067005847
-0.62488531140288,0.919108588291707
-0.622276627566578,0.918095521958289
-0.619619390161115,0.917002361401862
-0.616913949046056,0.915829600018693
-0.614160654080965,0.914577731205049
-0.611359855125406,0.913247248357199
-0.608511902038944,0.911838644871411
-0.605617144681143,0.910352414143953
-0.602675932911567,0.908789049571091
-0.599688616589781,0.907149044549095
-0.596655545575348,0.905432892474232
-0.593577069727834,0.90364108674277
-0.590453538906801,0.901774120750977
-0.587285302971816,0.89983248789512
-0.584072711782442,0.897816681571469
-0.580816115198243,0.89572719517629
-0.577515863078783,0.893564522105851
-0.574172305283627,0.89132915575642
-0.57078579167234,0.889021589524265
-0.567356672104485,0.886642316805655
-0.563885296439627,0.884191830996856
-0.56037201453733,0.881670625494137
-0.556817176257159,0.879079193693766
-0.553221131458677,0.87641802899201
-0.549584230001449,0.873687624785138
-0.54590682174504,0.870888474469416
-0.542189256549013,0.868021071441114
-0.538431884272933,0.865085909096499
-0.534635054776364,0.862083480831839
-0.53079911791887,0.859014280043401
-0.526924423560017,0.855878800127454
-0.523011321559368,0.852677534480266
-0.519060161776487,0.849410976498103
-0.515071294070938,0.846079619577236
-0.511045068302287,0.84268395711393
-0.506981834330097,0.839224482504454
-0.502881942013932,0.835701689145076
-0.498745741213358,0.832116070432064
-0.494573581787937,0.828468119761685
-0.490365813597236,0.824758330530209
-0.486122786500816,0.820987196133901
-0.481844850358244,0.81715520996903
-0.477532355029084,0.813262865431865
-0.473185650372899,0.809310655918673
-0.468805086249254,0.805299074825721
-0.464391012517713,0.801228615549278
-0.459943779037841,0.797099771485612
-0.455463735669202,0.79291303603099
-0.45095123227136,0.788668902581681
-0.446406618703879,0.784367864533951
-0.441830244826325,0.780010415284071
-0.43722246049826,0.775597048228306
-0.43258361557925,0.771128256762924
-0.427914059928858,0.766604534284195
-0.423214143406649,0.762026374188385
-0.418484215872188,0.757394269871763
-0.413724627185038,0.752708714730596
-0.408935727204765,0.747970202161152
-0.404117865790931,0.743179225559699
-0.399271392803102,0.738336278322506
-0.394396658100841,0.733441853845839
-0.389494011543714,0.728496445525966
-0.384563802991284,0.723500546759157
-0.379606382303116,0.718454650941678
-0.374622099338773,0.713359251469797
-0.369611303957821,0.708214841739783
-0.364574346019824,0.703021915147903
-0.359511575384345,0.697780965090425
-0.35442334191095,0.692492484963616
-0.349309995459202,0.687156968163745
-0.344171885888666,0.68177490808708
-0.339009363058906,0.676346798129889
-0.333822776829486,0.670873131688438
-0.328612477059971,0.665354402158997
-0.323378813609925,0.659791102937833
-0.318122136338912,0.654183727421214
-0.312842795106497,0.648532769005408
-0.307541139772243,0.642838721086682
-0.302217520195716,0.637102077061305
-0.296872286236479,0.631323330325545
-0.291505787754097,0.625502974275669
-0.286118374608134,0.619641502307945
-0.280710396658155,0.613739407818641
-0.275282203763723,0.607797184204026
-0.269834145784403,0.601815324860366
-0.264366572579759,0.59579432318393
-0.258879834009356,0.589734672570985
-0.253374279932758,0.5836368664178
-0.247850260209528,0.577501398120642
-0.242308124699233,0.57132876107578
-0.236748223261435,0.56511944867948
-0.231170905755699,0.558873954328012
-0.22557652204159,0.552592771417642
-0.219965421978671,0.54627639334464
-0.214337955426507,0.539925313505271
-0.208694472244662,0.533540025295806
-0.203035322292701,0.52712102211251
-0.197360855430188,0.520668797351653
-0.191671421516687,0.514183844409502
-0.185967370411762,0.507666656682325
-0.180249051974978,0.501117727566389
-0.1745168160659,0.494537550457964
-0.16877101254409,0.487926618753316
-0.163011991269114,0.481285425848714
-0.157240102100537,0.474614465140424
-0.151455694897921,0.467914230024716
-0.145659119520832,0.461185213897857
-0.139850725828834,0.454427910156116
-0.134030863681491,0.447642812195759
-0.128199882938367,0.440830413413054
-0.122358133459027,0.433991207204271
-0.116505965103035,0.427125686965675
-0.110643727729956,0.420234346093537
-0.104771771199353,0.413317677984122
-0.0988904453707909,0.406376176033699
-0.0930001001038344,0.399410333638537
-0.0871010852580472,0.392420644194902
-0.0811937506929938,0.385407601099063
-0.0752784462682388,0.378371697747287
-0.0693555218433461,0.371313427535844
-0.0634253272778801,0.364233283860999
-0.0574882124314051,0.357131760119021
-0.0515445271634856,0.350009349706179
-0.0455946213336857,0.34286654601874
-0.0396388448015696,0.335703842452971
-0.0336775474267017,0.328521732405141
-0.0277110790686466,0.321320709271518
-0.0217397895869679,0.314101266448369
-0.0157640288412308,0.306863897331963
-0.00978414669099878,0.299609095318567
-0.00380049299583682,0.292337353804449
0.00218658238469141,0.285049166185877
0.00817672959102098,0.277745025859118
0.0141695987635883,0.270425426220442
0.0201648400428284,0.263090860666115
0.0261621035691775,0.255741822592405
0.0321610394830708,0.248378805395581
0.0381612979249445,0.24100230247191
0.0441625290352339,0.23361280721766
0.0501643829543751,0.226210813029099
0.0561665098228033,0.218796813302495
0.0621685597809548,0.211371301434116
0.0681701829692646,0.203934770820229
0.0741710295281692,0.196487714857103
0.0801707495981035,0.189030626941005
0.0861689933195039,0.181564000468203
0.0921654108328054,0.174088328834966
0.0981596522784444,0.16660410543756
0.104151367796856,0.159111823672254
0.110140207528477,0.151611976935316
0.116125821613741,0.144105058623013
0.122107860193086,0.136591562131614
0.128085973406946,0.129071980857386
0.134059811395758,0.121546808196598
0.140029024299956,0.114016537545517
0.145993262259978,0.10648166230041
0.151952175416258,0.0989426758575464
0.157905413909232,0.0914000716131933
0.163852627879336,0.0838543429636191
0.169793467467006,0.076305983305091
0.175727582812677,0.0687554860338775
0.181654624056785,0.061203344546246
0.187574241339766,0.0536500522384649
0.193486084802055,0.0460961025068015
0.199389804584088,0.0385419887475242
0.205285050826301,0.0309882043569002
0.211171473669129,0.0234352427311982
0.217048723253009,0.0158835972666853
0.222916449718375,0.00833376135963007
0.228774303205665,0.000786228406299661
0.234621933855312,-0.00675850819703722
0.240458991807753,-0.0142999550541135
0.246285127203424,-0.0218376187686607
0.252099990182761,-0.0293710059444115
0.257903230886198,-0.0368996231850973
0.263694499454173,-0.0444229770944511
0.26947344602712,-0.0519405742762041
0.275239720745475,-0.0594519213340893
0.280992973749674,-0.0669565248718381
0.286732855180153,-0.0744538914931832
0.292459015177346,-0.0819435278018562
0.298171103881691,-0.0894249404015899
0.303868771433623,-0.0968976358961155
0.309551667973577,-0.104361120889166
0.315219443641989,-0.111814901984473
0.320871748579295,-0.119258485785769
0.32650823292593,-0.126691378896786
0.332128546822331,-0.134113087921256
0.337732340408932,-0.141523119462911
0.343319263826171,-0.148920980125483
0.348888967214481,-0.156306176512705
0.3544411007143,-0.163678215228308
0.359975314466062,-0.171036602876025
0.365491258610203,-0.178380846059588
0.37098858328716,-0.185710451382728
0.376466938637367,-0.193024925449179
0.381925974801261,-0.200323774862672
0.387365341919278,-0.207606506226939
0.392784690131852,-0.214872626145713
0.398183669579419,-0.222121641222725
0.403561930402417,-0.229353058061708
0.408919122741279,-0.236566383266393
0.414254896736441,-0.243761123440514
0.419568902528341,-0.250936785187802
0.424860790257412,-0.258092875111988
0.430130210064091,-0.265228899816806
0.435376812088814,-0.272344365905988
0.440600246472016,-0.279438779983265
0.445800163354132,-0.286511648652369
0.4509762128756,-0.293562478517034
0.456128045176853,-0.30059077618099
0.461255310398329,-0.307596048247971
0.466357658680463,-0.314577801321708
0.47143474016369,-0.321535542005933
0.476486204988446,-0.328468776904378
0.481511703295167,-0.335377012620776
0.486510885224288,-0.342259755758859
0.491483400916246,-0.349116512922358
0.496428900511475,-0.355946790715006
0.501347034150412,-0.362750095740536
0.506237451973493,-0.369525934602678
0.511099804121152,-0.376273813905166
0.515933740733826,-0.382993240251731
0.520738911951951,-0.389683720246106
0.525514967915962,-0.396344760492023
0.530261558766295,-0.402975867593213
0.534978334643385,-0.409576548153409
0.539664945687668,-0.416146308776344
0.544321042039581,-0.422684656065748
0.548946273839558,-0.429191096625355
0.553540291228035,-0.435665137058896
0.558102744345448,-0.442106283970104
0.562633283332233,-0.44851404396271
0.567131558328826,-0.454887923640448
0.571597219475661,-0.461227429607048
0.576029916913176,-0.467532068466243
0.580429300781805,-0.473801346821766
0.584795021221984,-0.480034771277347
0.589126728374149,-0.486231848436721
0.593424072378736,-0.492392084903617
0.59768670337618,-0.49851498728177
0.601914271506918,-0.50460006217491
0.606106426911384,-0.51064681618677
0.610262819730014,-0.516654755921082
0.614383100103245,-0.522623387981579
0.618466918171511,-0.528552218971991
0.622513924075249,-0.534440755496052
0.626523767954894,-0.540288504157494
0.630496099950882,-0.546094971560048
0.634430570203649,-0.551859664307448
0.63832682885363,-0.557582089003424
0.642184526041262,-0.563261752251709
0.646003311906978,-0.568898160656035
0.649782836591217,-0.574490820820135
0.653522750234412,-0.58003923934774
0.657222702977001,-0.585542922842583
0.660882344959417,-0.591001377908395
0.664501326322099,-0.596414111148909
0.66807929720548,-0.601780629167857
0.671615907749997,-0.607100438568971
0.675110808096085,-0.612373045955984
0.67856364838418,-0.617597957932626
0.681974078754718,-0.622774681102631
0.685341749348134,-0.627902722069731
0.688666310304865,-0.632981587437657
0.691947411765345,-0.638010783810142
0.695184703870011,-0.642989817790918
0.698377836759299,-0.647918195983717
0.701526460573643,-0.652795424992272
0.70463022545348,-0.657621011420313
0.707688781539245,-0.662394461871574
0.710701778971374,-0.667115282949787
0.713668867890303,-0.671782981258683
0.716589698436468,-0.676397063401995
0.719463920750303,-0.680957035983455
0.722291184972246,-0.685462405606795
0.725071141242731,-0.689912678875748
0.727803439702194,-0.694307362394044
0.730487730491072,-0.698645962765417
0.733123663749799,-0.702927986593599
0.735710889618811,-0.707152940482321
0.738249058238545,-0.711320331035316
0.740737819749435,-0.715429664856316
0.743176824291917,-0.719480448549054
0.745565722006428,-0.72347218871726
0.747904163033403,-0.727404391964668
0.750191797513277,-0.731276564895008
0.752428275586487,-0.735088214112015
0.754613247393467,-0.738838846219419
0.756746363074654,-0.742527967820954
0.758827272770484,-0.74615508552035
0.760855626621392,-0.74971970592134
0.762831074767813,-0.753221335627656
0.764753267350184,-0.756659481243031
0.76662185450894,-0.760033649371196
0.768436486384517,-0.763343346615884
0.770196813117351,-0.766588079580826
0.771902484847876,-0.769767354869755
0.77355315171653,-0.772880679086403
0.775148463863748,-0.775927558834502
0.776688071429965,-0.778907500717785
0.778171624555617,-0.781820011339982
0.779598773381139,-0.784664597304827
0.780969168046968,-0.787440765216052
0.78228245869354,-0.790148021677389
0.783538295461289,-0.792785873292569
0.784736328490652,-0.795353826665325
0.785876207922064,-0.797851388399389
0.786957583895961,-0.800278065098494
0.787980106552779,-0.80263336336637
0.788943426032953,-0.804916789806751
0.789847192476919,-0.807127851023369
0.790691056025114,-0.809266053619956
0.791474666817971,-0.811330904200243
0.792197674995928,-0.813321909367963
0.79285973069942,-0.815238575726848
0.793460484068882,-0.817080409880631
0.79399958524475,-0.818846918433043
0.794476684367461,-0.820537607987816
0.794891431577449,-0.822151985148683
0.795243477015151,-0.823689556519375
0.795532470821001,-0.825149828703626
0.795758063135437,-0.826532308305166
0.795919904098893,-0.827836501927728
0.796017643851805,-0.829061916175045
0.796050932534609,-0.830208057650848
