0.691807305760584,-0.590088457302222
0.683165666026085,-0.586989500595829
0.674595330505556,-0.58386957148436
0.66609604991187,-0.580728891055017
0.657667574957904,-0.577567680395002
0.649309656356531,-0.574386160591515
0.641022044820625,-0.571184552731759
0.632804491063063,-0.567963077902933
0.624656745796718,-0.56472195719224
0.616578559734465,-0.561461411686881
0.608569683589179,-0.558181662474057
0.600629868073733,-0.55488293064097
0.592758863901004,-0.55156543727482
0.584956421783866,-0.54822940346281
0.577222292435192,-0.544875050292139
0.569556226567859,-0.541502598850011
0.56195797489474,-0.538112270223625
0.55442728812871,-0.534704285500183
0.546963916982643,-0.531278865766888
0.539567612169416,-0.527836232110938
0.532238124401901,-0.524376605619537
0.524975204392975,-0.520900207379886
0.51777860285551,-0.517407258479185
0.510648070502383,-0.513897980004636
0.503583358046467,-0.510372593043441
0.496584216200638,-0.5068313186828
0.48965039567777,-0.503274378009915
0.482781647190737,-0.499701992111988
0.475977721452415,-0.496114382076219
0.469238369175677,-0.49251176898981
0.462563341073399,-0.488894373939961
0.455952387858455,-0.485262418013876
0.449405260243721,-0.481616122298754
0.442921708942069,-0.477955707881797
0.436501484666376,-0.474281395850206
0.430144338129515,-0.470593407291183
0.423850020044363,-0.466891963291929
0.417618281123792,-0.463177284939646
0.411448872080678,-0.459449593321534
0.405341543627895,-0.455709109524794
0.399296046478318,-0.451956054636629
0.393312131344823,-0.448190649744239
0.387389548940282,-0.444413115934826
0.381528049977571,-0.440623674295591
0.375727385169565,-0.436822545913735
0.369987305229138,-0.43300995187646
0.364307560869166,-0.429186113270966
0.358687902802521,-0.425351251184456
0.35312808174208,-0.421505586704131
0.347627848400717,-0.417649340917191
0.342186953491306,-0.413782734910839
0.336805147726723,-0.409905989772274
0.331482181819841,-0.4060193265887
0.326217806483536,-0.402122966447317
0.321011772430682,-0.398217130435325
0.315863830374153,-0.394302039639928
0.310773731026825,-0.390377915148325
0.305741225101572,-0.386444978047719
0.300766063311269,-0.38250344942531
0.29584799636879,-0.3785535503683
0.29098677498701,-0.37459550196389
0.286182149878803,-0.370629525299282
0.281433871757045,-0.366655841461676
0.27674169133461,-0.362674671538274
0.272105359324372,-0.358686236616277
0.267524626439207,-0.354690757782888
0.262999243391988,-0.350688456125305
0.258528960895591,-0.346679552730733
0.25411352966289,-0.34266426868637
0.24975270040676,-0.33864282507942
0.245446223840075,-0.334615442997082
0.241193850675711,-0.330582343526559
0.236995331626541,-0.326543747755052
0.23285041740544,-0.322499876769762
0.228758858725284,-0.31845095165789
0.224720406298946,-0.314397193506637
0.220734810839302,-0.310338823403206
0.216801823059225,-0.306276062434797
0.212921193671591,-0.302209131688611
0.209092673389275,-0.29813825225185
0.20531601292515,-0.294063645211715
0.201590962992092,-0.289985531655408
0.197917274302975,-0.285904132670129
0.194294697570674,-0.28181966934308
0.190722983508064,-0.277732362761462
0.187201882828018,-0.273642434012477
0.183731146243413,-0.269550104183326
0.180310524467121,-0.26545559436121
0.176939768212019,-0.261359125633331
0.173618628190981,-0.257260919086889
0.170346855116881,-0.253161195809087
0.167124199702594,-0.249060176887125
0.163950412660995,-0.244958083408204
0.160825244704958,-0.240855136459527
0.157748446547358,-0.236751557128293
0.15471976890107,-0.232647566501706
0.151738962478967,-0.228543385666965
0.148805777993926,-0.224439235711273
0.145919966158821,-0.220335337721829
0.143081277686525,-0.216231912785837
0.140289463289915,-0.212129181990497
0.137544273681864,-0.20802736642301
0.134845459575247,-0.203926687170578
0.132192771682939,-0.199827365320402
0.129585960717814,-0.195729621959683
0.127024777392747,-0.191633678175623
0.124508972420613,-0.187539755055422
0.122038296514287,-0.183448073686283
0.119612500386643,-0.179358855155406
0.117231334750555,-0.175272320549993
0.114894550318898,-0.171188690957245
0.112601897804548,-0.167108187464363
0.110353127920378,-0.163031031158549
0.108147991379263,-0.158957443127004
0.105986238894079,-0.15488764445693
0.103867621177698,-0.150821856235527
0.101791888942997,-0.146760299549996
0.0997587929028503,-0.14270319548754
0.0977680837701317,-0.13865076513536
0.0958195122577162,-0.134603229580656
0.0939128290784785,-0.13056080991063
0.0920477849452933,-0.126523727212483
0.0902241305710351,-0.122492202573418
0.0884416166685786,-0.118466457080634
0.0866999939507985,-0.114446711821333
0.0849990131305695,-0.110433187882717
0.0833384249207661,-0.106426106351987
0.081717980034263,-0.102425688316344
0.0801374291839349,-0.0984321548629894
0.0785965230826564,-0.0944457270791246
0.0770950124433022,-0.0904666260519508
0.0756326479787468,-0.0864950728686694
0.0742091804018651,-0.0825312886164817
0.0728243604255316,-0.078575494382589
0.0714779387626208,-0.0746279112541924
0.0701696661260075,-0.0706887603184934
0.0688992932285664,-0.0667582626626933
0.0676665707831721,-0.0628366393739933
0.0664712495026992,-0.0589241115395947
0.0653130801000224,-0.0550209002466989
0.0641918132880163,-0.0511272265825072
0.0631071997795556,-0.0472433116342208
0.0620589902875149,-0.043369376489041
0.0610469355247688,-0.0395056422341692
0.0600707862041921,-0.0356523299568066
0.0591302930386594,-0.0318096607441546
0.0582252067410452,-0.0279778556834144
0.0573552780242243,-0.0241571358617873
0.0565202576010713,-0.0203477223664748
0.0557198961844609,-0.0165498362846779
0.0549539444872676,-0.012763698703598
0.0542221532223662,-0.00898953071043651
0.0535242731026313,-0.00522755339239467
0.0528600548409375,-0.0014779878366738
0.0522292491501595,0.00225894486952492
0.0516316067431719,0.00598302363900009
0.0510668783328494,0.00969402738455041
0.0505348146320667,0.0133917350189746
0.0500351663536982,0.0170759254550713
0.0495676842106188,0.0207463776056394
0.0491321189157031,0.0244028703834773
0.0487282211818257,0.028045182701384
0.0483557417218612,0.031673093472158
0.0480144312486843,0.0352863816085982
0.0477040404751697,0.0388848260235031
0.047424320114192,0.0424682056296714
0.0471750208786259,0.0460362993399019
0.0469558934813459,0.0495888860669934
0.0467666886352267,0.0531257447237443
0.0466071570531431,0.0566466542229535
0.0464770494479696,0.0601513934774198
0.0463761165325808,0.0636397413999417
0.0463041090198515,0.067111476903318
0.0462607776226562,0.0705663789003474
0.0462458730538697,0.0740042263038285
0.0462591460263665,0.0774247980265602
0.0463003472530214,0.080827872981341
0.0463692274467089,0.0842132300809697
0.0464655373203037,0.087580648238245
0.0465890275866804,0.0909299063659656
0.0467394489587138,0.0942607833769301
0.0469165521492785,0.0975730581839373
0.047120087871249,0.100866509699786
0.0473498068375,0.104140916837275
0.0476054597609063,0.107396058509202
0.0478867973543423,0.110631713628367
0.0481935703306829,0.113847661107568
0.0485255294028026,0.117043679859604
0.0488824252835761,0.120219548797274
0.0492640086858779,0.123375046833376
0.0496700303225829,0.126509952880709
0.0501002409065655,0.129624045852072
0.0505543911507006,0.132717104660263
0.0510322317678626,0.135788908218081
0.0515335134709263,0.138839235438325
0.0520579869727663,0.141867865233793
0.0526054029862573,0.144874576517285
0.0531755122242738,0.147859148201598
0.0537680653996906,0.150821359199533
0.0543828132253823,0.153760988423886
0.0550195064142235,0.156677814787457
0.0556778956790889,0.159571617203046
0.0563577317328532,0.162442174583449
0.0570587652883909,0.165289265841467
0.0577807470585767,0.168112669889897
0.0585234277562853,0.170912165641539
0.0592865580943913,0.173687532009191
0.0600698887857694,0.176438547905652
0.0608731705432942,0.179164992243721
0.0616961540798404,0.181866643936196
0.0625385901082826,0.184543281895876
0.0634002293414954,0.18719468503556
0.0642808224923535,0.189820632268046
0.0651801202737316,0.192420902506133
0.0660978733985043,0.19499527466262
0.0670338325795462,0.197543527650306
0.067987748529732,0.200065440381988
0.0689593719619364,0.202560791770467
0.0699484535890338,0.20502936072854
0.0709547441238992,0.207470926169007
0.071977994279407,0.209885267004666
0.073017954768432,0.212272162148315
0.0740743763038487,0.214631390512754
0.0751470095985318,0.216962731010781
0.0762356053653559,0.219265962555194
0.0773399143171959,0.221540864058794
0.0784596871669261,0.223787214434377
0.0795946746274214,0.226004792594743
0.0807446274115563,0.228193377452691
0.0819092962322055,0.23035274792102
0.0830884318022436,0.232482682912527
0.0842817848345454,0.234582961340012
0.0854891060419853,0.236653362116274
0.0867101461374382,0.23869366415411
0.0879446558337786,0.240703646366321
0.0891923858438812,0.242683087665704
0.0904530868806205,0.244631766965058
0.0917265096568714,0.246549463177182
0.0930124048855084,0.248435955214875
0.0943105232794061,0.250291021990935
0.0956206155514393,0.252114442418161
0.0969424324144826,0.253905995409352
0.0982757245814104,0.255665459877306
0.0996202427650977,0.257392614734823
0.100975737678419,0.2590872388947
0.102341960034249,0.260749111269737
0.103718660545462,0.262378010772732
0.105105589924933,0.263973716316484
0.106502498885537,0.265536006813792
0.107909138140148,0.267064661177454
0.109325258401641,0.268559458320269
0.11075061038289,0.270020177155036
0.112184944796771,0.271446596594553
0.113628012356157,0.272838495551619
0.115079563773924,0.274195652939033
0.116539349762946,0.275517847669594
0.118007121036098,0.2768048586561
0.119482628306254,0.27805646481135
0.120965622286289,0.279272445048143
0.122455853689078,0.280452578279276
0.123953073227495,0.28159664341755
0.125457031614416,0.282704419375763
0.126967479562713,0.283775685066713
0.128484167785264,0.2848102194032
0.130006846994941,0.285807801298021
0.13153526790462,0.286768209663976
0.133069181227174,0.287691223413863
0.13460833767548,0.288576621460481
0.136152487962412,0.289424182716628
0.137701382800843,0.290233686095104
0.139254772903649,0.291004910508707
0.140812408983705,0.291737634870236
0.142374041753885,0.292431638092489
0.143939421927064,0.293086699088266
0.145508300216116,0.293702596770364
0.147080427333916,0.294279110051583
0.148655553993339,0.294816017844721
0.150233430907259,0.295313099062577
0.151813808788551,0.295770132617949
0.15339643835009,0.296186897423638
0.15498107030475,0.29656317239244
0.156567455365406,0.296898736437154
0.158155344244933,0.297193368470581
0.159744487656205,0.297446847405517
0.161334636312096,0.297658952154763
0.162925540925482,0.297829461631116
0.164516952209238,0.297958154747375
0.166108620876237,0.298044810416339
0.167700297639355,0.298089207550807
0.169291733211466,0.298091125063577
0.170882678305444,0.298050341867449
0.172472883634165,0.29796663687522
0.174062099910503,0.297839788999689
0.175650077847333,0.297669577153656
0.177236568157529,0.297455780249919
0.178821321553966,0.297198177201276
0.180404088749518,0.296896546920526
0.181984620457061,0.296550668320469
0.183562667389469,0.296160320313902
0.185137980259617,0.295725281813625
0.186710309780378,0.295245331732435
0.188279406664629,0.294720248983133
0.189845021625243,0.294149812478515
0.191406905375095,0.293533801131382
0.19296480862706,0.292871993854532
0.194518482094013,0.292164169560764
0.196067676488827,0.291410107162876
0.197612142524379,0.290609585573666
0.199151630913541,0.289762383705935
0.20068589236919,0.28886828047248
0.2022146776042,0.2879270547861
0.203737737331445,0.286938485559593
0.205254822263799,0.28590235170576
0.206765683114139,0.284818432137397
0.208270070595338,0.283686505767304
0.20976773542027,0.28250635150828
0.211258428301812,0.281277748273124
0.212741899952836,0.280000474974633
0.214217901086218,0.278674310525607
0.215686182414833,0.277299033838844
0.217146494651555,0.275874423827143
0.218598588509259,0.274400259403303
0.220042214700819,0.272876319480123
0.221477123939111,0.271302382970401
0.222903066937008,0.269678228786936
0.224319794407385,0.268003635842526
0.225727057063118,0.266278383049971
0.22712460561708,0.264502249322069
0.228512190782147,0.262675013571618
0.229889563271192,0.260796454711418
0.231256473797092,0.258866351654267
0.232612673072719,0.256884483312963
0.233957911810949,0.254850628600307
0.235291940724657,0.252764566429095
0.236614510526718,0.250626075712127
0.237925371930005,0.248434935362202
0.239224275647393,0.246190924292119
0.240510972391758,0.243893821414675
0.241785212875974,0.24154340564267
0.243046747812915,0.239139455888902
0.244295327915456,0.236681751066171
0.245530703896471,0.234170070087274
0.246752626468837,0.231604191865011
0.247960846345426,0.22898389531218
0.249155114239114,0.22630895934158
0.250335180862775,0.223579162866009
0.251500796929285,0.220794284798267
0.252651713151516,0.217954104051152
0.253787680242346,0.215058399537463
0.254908448914647,0.212106950169998
0.256013769881294,0.209099534861556
0.257103393855163,0.206035932524936
0.258177071549128,0.202915922072936
0.259234553676063,0.199739282418356
0.260275590948844,0.196505792473994
0.261299934080344,0.193215231152648
0.262307333783438,0.189867377367118
0.263297540771002,0.186462010030201
0.26427030575591,0.182998908054698
0.265225379451036,0.179477850353405
0.266162512569254,0.175898615839123
0.267081455823441,0.17226098342465
0.26798195992647,0.168564732022784
0.268863775591216,0.164809640546325
0.269726653530554,0.16099548790807
0.270570344457357,0.157122053020819
0.271394599084502,0.153189114797371
0.272199168124862,0.149196452150523
0.272983802291313,0.145143843993075
0.273748252296728,0.141031069237826
0.274492268853983,0.136857906797574
0.275215602675952,0.132624135585117
0.27591800447551,0.128329534513255
0.276599224965531,0.123973882494787
0.27725901485889,0.11955695844251
0.277897124868463,0.115078541269224
0.278513305707122,0.110538409887727
0.279107308087744,0.105936343210818
0.279678882723202,0.101272120151297
0.280227780326371,0.09654551962196
0.280753751610127,0.0917563205356078
0.281256547287343,0.0869043018050382
0.281735918070894,0.0819892423430503
0.282191614673656,0.0770109210624425
0.282623387808501,0.0719691168760138
0.283030988188307,0.0668636086965626
0.283414166525945,0.0616941754368879
0.283772673534293,0.0564605960097881
0.284106259926224,0.0511626493280622
0.284414676414612,0.0458001143045086
0.284697673712333,0.0403727698519264
0.284955002532261,0.0348803948831137
0.28518641358727,0.0293227683108699
0.285391657590236,0.0236996690479931
0.285570485254033,0.0180108760072825
0.285722647291536,0.0122561681015362
0.285847894415619,0.00643532424355364
0.285945977339157,0.000548123346132839
0.286016646775025,-0.00540565567792695
0.286059653436097,-0.0114262339158275
0.286059653436097,-0.0114262339158275
0.28609852645201,-0.0174502222530705
0.286156892082501,-0.0234141921129249
0.286234646735598,-0.0293183053892427
0.286331686819325,-0.0351627239758755
0.28644790874171,-0.0409476097666753
0.286583208910777,-0.0466731246554937
0.286737483734553,-0.0523394305361827
0.286910629621065,-0.057946689302594
0.287102542978338,-0.0634950628485794
0.287313120214398,-0.0689847130679907
0.287542257737271,-0.0744158018546798
0.287789851954984,-0.0797884911024984
0.288055799275562,-0.0851029427052984
0.288339996107032,-0.0903593185569315
0.288642338857419,-0.0955577805512495
0.28896272393475,-0.100698490582104
0.289301047747051,-0.105781610543348
0.289657206702348,-0.110807302328832
0.290031097208666,-0.115775727832408
0.290422615674033,-0.120687048947928
0.290831658506473,-0.125541427569243
0.291258122114014,-0.130339025590207
0.29170190290468,-0.135080004904669
0.292162897286499,-0.139764527406483
0.292641001667496,-0.144392754989501
0.293136112455698,-0.148964849547572
0.293648126059129,-0.153480972974551
0.294176938885818,-0.157941287164288
0.294722447343789,-0.162345954010635
0.295284547841068,-0.166695135407444
0.295863136785682,-0.170988993248567
0.296458110585657,-0.175227689427856
0.297069365649019,-0.179411385839162
0.297696798383793,-0.183540244376337
0.298340305198007,-0.187614426933234
0.298999782499685,-0.191634095403703
0.299675126696855,-0.195599411681597
0.300366234197541,-0.199510537660768
0.301073001409771,-0.203367635235067
0.30179532474157,-0.207170866298346
0.302533100600965,-0.210920392744457
0.30328622539598,-0.214616376467251
0.304054595534643,-0.218258979360582
0.30483810742498,-0.221848363318299
0.305636657475017,-0.225384690234256
0.306450142092779,-0.228868122002303
0.307278457686292,-0.232298820516294
0.308121500663584,-0.235676947670078
0.30897916743268,-0.23900266535751
0.309851354401605,-0.242276135472439
0.310737957978386,-0.245497519908718
0.311638874571049,-0.2486669805602
0.312554000587621,-0.251784679320734
0.313483232436127,-0.254850778084174
0.314426466524592,-0.257865438744372
0.315383599261045,-0.260828823195178
0.316354527053509,-0.263741093330445
0.317339146310012,-0.266602411044025
0.31833735343858,-0.269412938229769
0.319349044847238,-0.272172836781529
0.320374116944013,-0.274882268593158
0.321412466136931,-0.277541395558506
0.322463988834017,-0.280150379571426
0.323528581443298,-0.282709382525769
0.3246061403728,-0.285218566315388
0.325696562030549,-0.287678092834133
0.326799742824571,-0.290088123975858
0.327915579162893,-0.292448821634413
0.329043967453539,-0.294760347703651
0.330184804104537,-0.297022864077423
0.331337985523912,-0.299236532649581
0.33250340811969,-0.301401515313977
0.333680968299898,-0.303517973964462
0.334870562472561,-0.305586070494889
0.336072087045706,-0.30760596679911
0.337285438427359,-0.309577824770975
0.338510513025545,-0.311501806304338
0.339747207248291,-0.313378073293049
0.340995417503623,-0.315206787630961
0.342255040199567,-0.316988111211925
0.343525971744148,-0.318722205929793
0.344808108545394,-0.320409233678417
0.34610134701133,-0.322049356351649
0.347405583549982,-0.323642735843341
0.348720714569376,-0.325189534047344
0.350046636477539,-0.32668991285751
0.351383245682496,-0.328144034167691
0.352730438592273,-0.329552059871738
0.354088111614897,-0.330914151863505
0.355456161158394,-0.332230472036842
0.356834483630789,-0.333501182285601
0.358222975440109,-0.334726444503634
0.359621532994379,-0.335906420584792
0.361030052701627,-0.337041272422929
0.362448430969877,-0.338131161911895
0.363876564207156,-0.339176250945542
0.365314348821491,-0.340176701417722
0.366761681220906,-0.341132675222287
0.368218457813428,-0.342044334253089
0.369684575007084,-0.342911840403979
0.371159929209899,-0.343735355568809
0.3726444168299,-0.344515041641432
0.374137934275112,-0.345251060515698
0.375640377953561,-0.34594357408546
0.377151644273274,-0.34659274424457
0.378671629642277,-0.347198732886878
0.380200230468595,-0.347761701906238
0.381737343160255,-0.348281813196501
0.383282864125283,-0.348759228651519
0.384836689771705,-0.349194110165143
0.386398716507546,-0.349586619631225
0.387968840740834,-0.349936918943618
0.389546958879594,-0.350245169996172
0.391132967331852,-0.35051153468274
0.392726762505634,-0.350736174897174
0.394328240808967,-0.350919252533325
0.395937298649875,-0.351060929485045
0.397553832436387,-0.351161367646186
0.399177738576526,-0.3512207289106
0.400808913478321,-0.351239175172139
0.402447253549796,-0.351216868324654
0.404092655198977,-0.351153970261997
0.405745014833892,-0.35105064287802
0.407404228862565,-0.350907048066575
0.409070193693023,-0.350723347721513
0.410742805733292,-0.350499703736687
0.412421961391398,-0.350236278005948
0.414107557075367,-0.349933232423148
0.415799489193226,-0.349590728882139
0.417497654152999,-0.349208929276773
0.419201948362714,-0.348787995500901
0.420912268230396,-0.348328089448375
0.422628510164071,-0.347829373013048
0.424350570571766,-0.34729200808877
0.426078345861507,-0.346716156569394
0.427811732441319,-0.346101980348771
0.429550626719229,-0.345449641320754
0.431294925103263,-0.344759301379193
0.433044524001446,-0.344031122417942
0.434799319821805,-0.343265266330851
0.436559208972367,-0.342461895011773
0.438324087861156,-0.341621170354559
0.440093852896199,-0.340743254253061
0.441868400485523,-0.339828308601131
0.443647627037152,-0.338876495292621
0.445431428959114,-0.337887976221382
0.447219702659434,-0.336862913281267
0.449012344546139,-0.335801468366127
0.450809251027254,-0.334703803369814
0.452610318510806,-0.333570080186179
0.45441544340482,-0.332400460709075
0.456224522117323,-0.331195106832353
0.458037451056341,-0.329954180449866
0.4598541266299,-0.328677843455465
0.461674445246025,-0.327366257743001
0.463498303312743,-0.326019585206327
0.465325597238081,-0.324637987739294
0.467156223430063,-0.323221627235755
0.468990078296716,-0.32177066558956
0.470827058246067,-0.320285264694563
0.472667059686141,-0.318765586444614
0.474509979024965,-0.317211792733565
0.476355712670563,-0.315624045455268
0.478204157030964,-0.314002506503576
0.480055208514191,-0.31234733777234
0.481908763528273,-0.310658701155411
0.483764718481234,-0.308936758546641
0.4856229697811,-0.307181671839883
0.487483413835899,-0.305393602928988
0.489345947053655,-0.303572713707808
0.491210465842395,-0.301719166070194
0.493076866610146,-0.299833121909999
0.494945045764932,-0.297914743121074
0.496814899714781,-0.295964191597272
0.498686324867717,-0.293981629232443
0.500559217631768,-0.29196721792044
0.50243347441496,-0.289921119555114
0.504308991625317,-0.287843496030318
0.506185665670867,-0.285734509239902
0.508063392959636,-0.28359432107772
0.509942069899649,-0.281423093437623
0.511821592898933,-0.279220988213462
0.513701858365514,-0.276988167299089
0.515582762707417,-0.274724792588357
0.517464202332669,-0.272431025975116
0.519346073649297,-0.270107029353219
0.521228273065325,-0.267752964616518
0.52311069698878,-0.265368993658864
0.524993241827688,-0.26295527837411
0.526875803990076,-0.260511980656106
0.528758279883969,-0.258039262398705
0.530640565917393,-0.255537285495759
0.532522558498374,-0.253006211841119
0.534404154034939,-0.250446203328637
0.536285248935113,-0.247857421852166
0.538165739606924,-0.245240029305556
0.540045522458395,-0.24259418758266
0.541924493897555,-0.239920058577329
0.543802550332428,-0.237217804183415
0.545679588171041,-0.234487586294771
0.54755550382142,-0.231729566805247
0.549430193691591,-0.228943907608696
0.55130355418958,-0.22613077059897
0.553175481723413,-0.223290317669919
0.555045872701116,-0.220422710715397
0.556914623530715,-0.217528111629255
0.558781630620237,-0.214606682305344
0.560646790377707,-0.211658584637517
0.562509999211152,-0.208683980519625
0.564371153528597,-0.205683031845521
0.566230149738069,-0.202655900509055
0.568086884247593,-0.19960274840408
0.569941253465196,-0.196523737424447
0.571793153798904,-0.193419029464009
0.573642481656743,-0.190288786416617
0.575489133446738,-0.187133170176123
0.577333005576917,-0.183952342636378
0.579173994455304,-0.180746465691235
0.581011996489927,-0.177515701234546
0.582846908088811,-0.174260211160161
0.584678625659982,-0.170980157361934
0.586507045611466,-0.167675701733715
0.58833206435129,-0.164347006169357
0.590153578287479,-0.160994232562711
0.59197148382806,-0.15761754280763
0.593785677381058,-0.154217098797964
0.5955960553545,-0.150793062427567
0.597402514156412,-0.147345595590289
0.599204950194819,-0.143874860179982
0.601003259877749,-0.140381018090499
0.602797339613226,-0.13686423121569
0.604587085809277,-0.133324661449408
0.606372394873928,-0.129762470685506
0.608153163215205,-0.126177820817833
0.609929287241134,-0.122570873740243
0.611700663359742,-0.118941791346587
0.613467187979054,-0.115290735530716
0.615228757507096,-0.111617868186483
0.616985268351895,-0.10792335120774
0.618736616921476,-0.104207346488338
0.620482699623866,-0.100470015922129
0.62222341286709,-0.0967115214029655
0.623958653059175,-0.0929320248246981
0.625688316608147,-0.0891316880811795
0.627412299922032,-0.0853106730662609
0.629130499408855,-0.0814691416737946
0.630842811476644,-0.0776072557976321
0.632549132533423,-0.0737251773316255
0.63424935898722,-0.0698230681696262
0.635943387246059,-0.0659010902054864
0.637631113717968,-0.0619594053330577
0.639312434810973,-0.057998175446192
0.640987246933098,-0.0540175624387409
0.642655446492371,-0.0500177282045565
0.644316929896818,-0.0459988346374904
0.645971593554464,-0.0419610436313946
0.647619333873336,-0.0379045170801205
0.649260047261459,-0.0338294168775205
0.65089363012686,-0.0297359049174459
0.652519978877565,-0.0256241430937488
0.6541389899216,-0.0214942933002808
0.655750559666991,-0.0173465174308939
0.657354584521763,-0.0131809773794397
0.658950960893944,-0.00899783503977029
0.660539585191559,-0.00479725230573706
0.662120353822635,-0.000579391071192287
0.663693163195196,0.00365558677001265
0.66525790971727,0.00790751932402557
0.666814489796882,0.0121762446969949
0.668362799842059,0.0164616009950688
0.669902736260826,0.0207634263243955
0.67143419546121,0.025081558791123
0.672957073851237,0.0294158365013998
0.674471267838932,0.0337660975613737
0.675976673832322,0.0381321800771933
0.677473188239433,0.0425139221550064
0.678960707468291,0.0469111619009617
0.680439127926922,0.0513237374212068
0.681908346023352,0.0557514868218905
0.683368258165607,0.0601942482091604
0.684818760761714,0.0646518596891652
0.686259750219698,0.0691241593680527
0.687691122947585,0.0736109853519715
0.689112775353401,0.0781121757470693
0.690524603845173,0.0826275686594948
0.691926504830926,0.0871570021953957
0.693318374718687,0.0917003144609207
0.694700109916482,0.0962573435622175
0.696071606832336,0.100827927605435
0.697432761874277,0.10541190469672
0.698783471450329,0.110009112942223
0.700123631968519,0.11461939044809
0.701453139836873,0.11924257532047
0.702771891463417,0.123878505665511
0.704079783256177,0.128527019589362
0.70537671162318,0.13318795519817
0.70666257297245,0.137861150598084
0.707937263712015,0.142546443895252
0.709200680249901,0.147243673195822
0.710452718994133,0.151952676605943
0.711693276352737,0.156673292231762
0.71292224873374,0.161405358179428
0.714139532545168,0.166148712555089
0.715345024195046,0.170903193464892
0.716538620091401,0.175668639014988
0.717720216642259,0.180444887311523
0.718889710255647,0.185231776460645
0.720046997339588,0.190029144568504
0.721191974302112,0.194836829741246
0.722324537551242,0.199654670085021
0.723444583495005,0.204482503705977
0.724552008541428,0.209320168710261
0.725646709098536,0.214167503204022
0.726728581574355,0.219024345293408
0.727797522376912,0.223890533084567
0.728853427914232,0.228765904683648
0.729896194594342,0.233650298196799
0.730925718825268,0.238543551730167
0.731941897015035,0.243445503389902
0.73294462557167,0.248355991282151
0.733933800903199,0.253274853513062
0.734909319417648,0.258201928188784
0.735871077523043,0.263137053415464
0.736818971627409,0.268080067299252
0.737752898138774,0.273030807946295
0.738672753465164,0.277989113462741
0.739578434014603,0.282954821954739
0.740469836195119,0.287927771528437
0.741346856414737,0.292907800289983
0.742209391081484,0.297894746345525
0.743057336603385,0.302888447801211
0.743890589388466,0.30788874276319
0.744709045844755,0.31289546933761
0.745512602380276,0.317908465630619
0.746301155403056,0.322927569748365
0.74707460132112,0.327952619796996
0.747832836542496,0.33298345388266
0.748575757475208,0.338019910111507
0.749303260527284,0.343061826589683
0.750015242106749,0.348109041423338
0.750711598621629,0.353161392718619
0.75139222647995,0.358218718581674
0.752057022089738,0.363280857118653
0.75270588185902,0.368347646435702
0.753338702195821,0.37341892463897
0.753955379508168,0.378494529834605
0.754555810204086,0.383574300128756
0.755139890691602,0.388658073627571
0.755707517378742,0.393745688437198
0.756258586673531,0.398836982663784
0.756792994983997,0.403931794413479
0.757310638718164,0.40902996179243
0.757811414284059,0.414131322906787
0.758295218089708,0.419235715862696
0.758761946543138,0.424342978766305
0.759211496052373,0.429452949723765
0.759643763025441,0.434565466841221
0.760058643870367,0.439680368224823
0.760456034995177,0.44479749198072
0.760835832807898,0.449916676215058
0.761197933716556,0.455037759033986
0.761542234129175,0.460160578543653
0.761868630453784,0.465284972850206
0.762177019098407,0.470410780059794
0.762467296471071,0.475537838278565
0.762739358979802,0.480665985612668
0.762993103032626,0.485795060168249
0.763228425037568,0.490924900051459
0.763445221402656,0.496055343368444
0.763643388535915,0.501186228225353
0.763822822845371,0.506317392728334
0.76398342073905,0.511448674983535
0.764125078624978,0.516579913097105
0.764247692911182,0.521710945175192
0.764351160005688,0.526841609323944
0.76443537631652,0.531971743649508
0.764500238251707,0.537101186258035
0.764545642219273,0.54222977525567
0.764571484627244,0.547357348748564
0.764577661883648,0.552483744842863
0.764564070396509,0.557608801644716
0.764530606573854,0.562732357260272
0.764477166823709,0.567854249795678
0.7644036475541,0.572974317357083
0.764309945173053,0.578092398050635
0.764195956088595,0.583208329982481
0.76406157670875,0.588321951258771
0.763906703441546,0.593433099985653
0.763731232695008,0.598541614269274
0.763535060877163,0.603647332215783
0.763318084396036,0.608750091931328
0.763080199659654,0.613849731522057
0.762821303076042,0.618946089094119
0.762541291053227,0.624039002753661
0.762240059999234,0.629128310606832
0.761917506322091,0.63421385075978
0.761573526429822,0.639295461318654
0.761208016730455,0.6443729803896
0.760820873632014,0.649446246078769
0.760820873632014,0.649446246078769
0.760407062271825,0.654480079294803
0.759961748287331,0.65943965827346
0.759485128836732,0.664325357111552
0.758977401078232,0.669137549905896
0.758438762170033,0.673876610753306
0.757869409270335,0.678542913750595
0.757269539537343,0.683136832994579
0.756639350129256,0.687658742582073
0.755979038204279,0.69210901660989
0.755288800920612,0.696488029174845
0.754568835436458,0.700796154373754
0.753819338910019,0.70503376630343
0.753040508499496,0.709201239060689
0.752232541363093,0.713298946742344
0.751395634659011,0.71732726344521
0.750529985545451,0.721286563266103
0.749635791180618,0.725177220301836
0.748713248722711,0.728999608649224
0.747762555329934,0.732754102405081
0.746783908160488,0.736441075666223
0.745777504372576,0.740060902529463
0.744743541124399,0.743613957091617
0.74368221557416,0.747100613449499
0.74259372488006,0.750521245699924
0.741478266200303,0.753876227939705
0.740336036693089,0.757165934265658
0.739167233516621,0.760390738774597
0.737972053829101,0.763551015563338
0.736750694788731,0.766647138728693
0.735503353553714,0.769679482367479
0.629547231427823,0.864599521452411
0.613821456530647,0.870982556045165
0.731607408262794,0.778397577092561
0.637470299511756,0.895932662748421
0.72888381499598,0.783897601051366
0.817597913227512,0.898621784844875
0.624867633918839,0.69396876593896
0.614702571380571,0.69997522864017
0.621111705686904,0.677146836859986
0.824458822317385,0.910635543925914
0.829062163136622,0.706429165535035
0.834488835837485,0.68549792091311
0.71701324476747,0.803466226804452
0.597395102181816,0.924219032122103
0.612342017984692,0.926396539682233
0.818194846526319,0.718376834847322
0.710514323075096,0.811833556474946
0.708833016388971,0.813781839190764
0.707129473514037,0.815673450219489
0.820186741240828,0.913885108053586
0.816338103187373,0.707413125810771
0.600305192453407,0.940920348641866
0.607573554948335,0.706133750846657
0.79607688618977,0.713600296875626
0.696452297158772,0.8258539603845
0.789823281084426,0.936427408757305
0.809611630421047,0.737143440557708
0.591540381364527,0.719561712411659
0.806504486648096,0.719148006558203
0.587086286106462,0.922852578312609
0.685024301873322,0.834088562211436
0.683049629940266,0.835277484118077
0.68105548203323,0.83641497169303
0.679042055310417,0.837501399033109
0.677009546930029,0.838537140235127
0.674958154050267,0.8395225693959
0.672888073829334,0.840458060612243
0.670799503425432,0.84134398798097
0.668692639996763,0.842180725598895
0.666567680701529,0.842968647562833
0.664424822697932,0.843708127969599
0.662264263144174,0.844399540916007
0.660086199198457,0.845043260498872
0.657890828018983,0.845639660815008
0.655678346763955,0.84618911596123
0.653448952591574,0.846692000034353
0.651202842660043,0.847148687131191
0.648940214127563,0.847559551348559
0.646661264152336,0.84792496678327
0.644366189892566,0.848245307532141
0.642055188506453,0.848520947691985
0.6397284571522,0.848752261359617
0.637386192988009,0.848939622631852
0.635028593172082,0.849083405605504
0.632655854862621,0.849183984377388
0.630268175217828,0.849241733044317
0.627865751395905,0.849257025703108
0.625448780555054,0.849230236450574
0.623017459853478,0.849161739383531
0.620571986449378,0.849051908598791
0.618112557500957,0.848901118193171
0.615639370166416,0.848709742263485
0.613152621603958,0.848478154906548
0.610652508971784,0.848206730219173
0.608139229428097,0.847895842298175
0.605612980131099,0.84754586524037
0.603073958238992,0.847157173142572
0.600522360909978,0.846730140101594
0.597958385302259,0.846265140214252
0.595382228574037,0.845762547577361
0.592794087883514,0.845222736287735
0.590194160388892,0.844646080442188
0.587582643248374,0.844032954137536
0.584959733620161,0.843383731470592
0.582325628662456,0.842698786538172
0.579680525533459,0.841978493437089
0.577024621391375,0.841223226264159
0.574358113394404,0.840433359116196
0.57168119870075,0.839609266090014
0.568994074468612,0.838751321282429
0.566296937856195,0.837859898790254
0.5635899860217,0.836935372710304
0.560873416123329,0.835978117139395
0.558147425319283,0.83498850617434
0.555412210767766,0.833966913911954
0.552667969626979,0.832913714449052
0.549914899055125,0.831829281882448
0.547153196210405,0.830713990308956
0.544383058251021,0.829568213825392
0.541604682335176,0.82839232652857
0.538818265621072,0.827186702515305
0.53602400526691,0.82595171588241
0.533222098430892,0.824687740726701
0.530412742271222,0.823395151144993
0.527596133946101,0.8220743212341
0.52477247061373,0.820725625090835
0.521941949432312,0.819349436812015
0.51910476756005,0.817946130494453
0.516261122155145,0.816516080234964
0.513411210375799,0.815059660130364
0.510555229380214,0.813577244277465
0.507693376326593,0.812069206773083
0.504825848373137,0.810535921714033
0.501952842678048,0.808977763197129
0.49907455639953,0.807395105319185
0.496191186695782,0.805788322177017
0.493302930725009,0.804157787867438
0.490409985645411,0.802503876487263
0.487512548615192,0.800826962133308
0.484610816792552,0.799127418902386
0.481704987335694,0.797405620891312
0.47879525740282,0.795661942196901
0.475881824152133,0.793896756915967
0.472964884741833,0.792110439145324
0.470044636330124,0.790303362981788
0.467121276075207,0.788475902522173
0.464195001135285,0.786628431863294
0.461266008668559,0.784761325101965
0.458334495833232,0.782874956335
0.455400659787506,0.780969699659215
0.452464697689582,0.779045929171423
0.449526806697663,0.77710401896844
0.446587183969951,0.77514434314708
0.443646026664648,0.773167275804157
0.440703531939955,0.771173191036487
0.437759896954076,0.769162462940883
0.434815318865212,0.767135465614161
0.431869994831565,0.765092573153134
0.428924122011338,0.763034159654618
0.425977897562732,0.760960599215427
0.423031518643949,0.758872265932376
0.420085182413192,0.756769533902279
0.417139086028662,0.75465277722195
0.414193426648562,0.752522369988205
0.411248401431094,0.750378686297858
0.40830420753446,0.748222100247723
0.405361042116861,0.746052985934615
0.4024191023365,0.743871717455349
0.39947858535158,0.74167866890674
0.396539688320301,0.739474214385601
0.393602608400866,0.737258727988747
0.390667542751478,0.735032583812994
0.387734688530338,0.732796155955155
0.384804242895648,0.730549818512045
0.381876403005611,0.728293945580478
0.378951366018428,0.726028911257271
0.376029329092302,0.723755089639236
0.373110489385435,0.721472854823188
0.370195044056028,0.719182580905942
0.367283190262284,0.716884641984313
0.364375125162405,0.714579412155115
0.361471045914592,0.712267265515163
0.358571149677049,0.709948576161271
0.355675633607977,0.707623718190254
0.352784694865578,0.705293065698926
0.349898530608054,0.702956992784103
0.347017337993607,0.700615873542598
0.34414131418044,0.698270082071226
0.341270656326754,0.695919992466802
0.338405561590752,0.693565978826141
0.335546227130635,0.691208415246056
0.332692850104606,0.688847675823363
0.329845627670866,0.686484134654876
0.327004756987619,0.684118165837409
0.324170435213065,0.681750143467778
0.321342859505407,0.679380441642797
0.318522227022847,0.67700943445928
0.315708734923587,0.674637496014042
0.312902580365829,0.672265000403898
0.310103960507776,0.669892321725662
0.307313072507628,0.667519834076148
0.304530113523589,0.665147911552172
0.301755280713861,0.662776928250547
0.298988771236645,0.660407258268089
0.296230782250143,0.658039275701612
0.293481510912558,0.655673354647931
0.290741154382092,0.65330986920386
0.288009909816947,0.650949193466213
0.285287974375324,0.648591701531806
0.282575545215426,0.646237767497453
0.279872819495456,0.643887765459968
0.277179994373614,0.641542069516166
0.274497267008104,0.639201053762862
0.271824834557126,0.63686509229687
0.269162894178884,0.634534559215005
0.266511643031579,0.632209828614082
0.263871278273414,0.629891274590914
0.26124199706259,0.627579271242316
0.25862399655731,0.625274192665104
0.256017473915775,0.622976412956092
0.253422626296188,0.620686306212094
0.250839650856751,0.618404246529924
0.248268744755665,0.616130608006398
0.245710105151134,0.61386576473833
0.243163929201358,0.611610090822535
0.240630414064541,0.609363960355826
0.238109756898883,0.60712774743502
0.235602154862588,0.604901826156929
0.233107805113857,0.60268657061837
0.230626904810893,0.600482354916156
0.228159651111896,0.598289553147102
0.225706241175071,0.596108539408023
0.223266872158617,0.593939687795732
0.220841741220739,0.591783372407046
0.218431045519637,0.589639967338778
0.216034982213514,0.587509846687743
0.213653748460571,0.585393384550755
0.211287541419012,0.583290955024629
0.208936558247037,0.58120293220618
0.20660099610285,0.579129690192222
0.204281052144652,0.57707160307957
0.201976923530645,0.575029044965039
0.199688807419031,0.573002389945442
0.197416900968012,0.570992012117595
0.195161401335791,0.568998285578312
0.192922505680569,0.567021584424408
0.190700411160549,0.565062282752697
0.188495314933932,0.563120754659993
0.186307414158921,0.561197374243113
0.184136905993718,0.559292515598869
0.181983987596525,0.557406552824077
0.179848856125543,0.55553986001555
0.177731708738976,0.553692811270105
0.175632742595024,0.551865780684555
0.173552154851891,0.550059142355715
0.171490142667778,0.548273270380399
0.169446903200887,0.546508538855422
0.16742263360942,0.544765321877599
0.16541753105158,0.543043993543744
0.163431792685568,0.541344927950672
0.161465615669587,0.539668499195197
0.159519197161838,0.538015081374135
0.157592734320524,0.536385048584298
0.155686424303847,0.534778774922503
0.153800464270008,0.533196634485563
0.151935051377211,0.531639001370294
0.150090382783656,0.530106249673509
0.148266655647547,0.528598753492024
0.146464067127084,0.527116886922653
0.144682814380471,0.52566102406221
0.142923094565909,0.52423153900751
0.1411851048416,0.522828805855369
0.139469042365746,0.521453198702599
0.137775104296551,0.520105091646016
0.136103487792214,0.518784858782435
0.134454390010939,0.51749287420867
0.132828008110928,0.516229512021535
0.131224539250383,0.514995146317845
0.129644180587505,0.513790151194415
0.128087129280497,0.51261490074806
0.126553582487561,0.511469769075593
0.1250437373669,0.51035513027383
0.123557791076714,0.509271358439584
0.122095940775206,0.508218827669672
0.120658383620579,0.507197912060907
0.119245316771034,0.506208985710103
0.117856937384773,0.505252422714076
0.116493442619999,0.50432859716964
0.115155029634913,0.503437883173609
0.113841895587718,0.502580654822798
0.112554237636616,0.501757286214022
0.111292252939808,0.500968151444096
0.110056138655497,0.500213624609833
0.108846091941885,0.499494079808048
0.107662309957174,0.498809891135556
0.106504989859566,0.498161432689172
0.105374328807263,0.49754907856571
0.104270523958467,0.496973202861985
0.10319377247138,0.496434179674811
0.102144271504205,0.495932383101003
0.101122218215143,0.495468187237376
0.100127809762396,0.495041966180743
0.0991612433041674,0.49465409402792
0.098222715998658,0.494304944875721
0.0973124250040702,0.493994892820961
0.0964305674786061,0.493724311960454
0.0955773405804678,0.493493576391016
0.0947529414678574,0.493303060209459
0.0939575672989769,0.4931531375126
0.0931914152320284,0.493044182397252
0.092454682425214,0.492976568960231
0.0917475660367357,0.49295067129835
0.0910702632247957,0.492966863508425
0.0904229711475959,0.493025519687269
0.0898058869633385,0.493127013931698
0.0892192078302256,0.493271720338527
0.0886631309064591,0.493460013004569
0.0881378533502412,0.493692266026639
0.087643572319774,0.493968853501552
0.0871804849732594,0.494290149526122
0.0867487884688997,0.494656528197164
0.0863486799648968,0.495068363611493
0.0859803566194528,0.495526029865923
0.0856440155907699,0.496029901057269
0.08533985403705,0.496580351282345
0.0850680691164952,0.497177754637966
0.0848288579873077,0.497822485220947
0.0846224178076894,0.498514917128101
0.0844489457358425,0.499255424456244
0.084308638929969,0.50004438130219
0.084201694548271,0.500882161762754
0.0841283097489506,0.501769139934751
0.0840886816902098,0.502705689914994
0.0840830075302508,0.503692185800299
0.0841114844272755,0.504729001687479
0.084174309539486,0.505816511673351
0.0842716800250845,0.506955089854727
0.084403793042273,0.508145110328424
0.0845708457492535,0.509386947191255
0.0847730353042282,0.510680974540034
0.0850105588653991,0.512027566471578
0.0852836135909682,0.513427097082699
0.0855923966391377,0.514879940470213
0.0859371051681096,0.516386470730935
0.086317936336086,0.517947061961678
0.086735087301269,0.519562088259258
0.0871887552218606,0.521231923720488
0.0876791372560629,0.522956942442184
0.088206430562078,0.524737518521161
0.0887708322981079,0.526574026054232
0.0893725396223547,0.528466839138212
0.0900117496930205,0.530416331869916
0.0906886596683074,0.532422878346159
0.0914034667064174,0.534486852663755
0.0921563679655526,0.536608628919518
0.0929475606039151,0.538788581210264
0.0937772417797069,0.541027083632806
0.0946456086511301,0.54332451028396
0.0955528583763869,0.545681235260539
0.0964991881136791,0.548097632659359
0.097484795021209,0.550574076577235
0.0985098762571786,0.553110941110979
0.0995746289797899,0.555708600357409
0.100679250347245,0.558367428413336
0.101823937517746,0.561087799375578
0.103008887649495,0.563870087340947
0.104234297900694,0.566714666406259
0.105500365429546,0.569621910668327
0.106807287394251,0.572592194223968
0.108155260953013,0.575625891169995
0.109544483264033,0.578723375603223
0.110975151485513,0.581885021620466
0.112447462775656,0.585111203318539
0.113961614292664,0.588402294794256
0.115517803194738,0.591758670144433
0.117116226640081,0.595180703465884
0.118757081786894,0.598668768855423
0.12044056579338,0.602223240409865
0.122166875817742,0.605844492226024
0.12393620901818,0.609532898400715
0.125748762552897,0.613288833030753
0.127604733580096,0.617112670212952
0.129504319257977,0.621004784044128
0.131447716744744,0.624965548621093
0.133435123198598,0.628995338040663
0.135466735777742,0.633094526399653
0.137542751640377,0.637263487794877
0.139663367944705,0.641502596323149
0.14182878184893,0.645812226081285
0.144039190511251,0.650192751166098
0.146294791089873,0.654644545674404
0.148595780742997,0.659167983703017
0.150942356628824,0.663763439348752
0.153334715905557,0.668431286708422
0.155773055731399,0.673171899878844
0.15825757326455,0.67798565295683
0.160788465663214,0.682872920039197
0.163365930085592,0.687834075222757
0.165990163689886,0.692869492604328
