-0.423062341479342,-0.862961348565904
-0.414500337790102,-0.862666262249459
-0.406040900054537,-0.862377775446772
-0.39768362708197,-0.862095849549404
-0.389428117681722,-0.861820445948916
-0.381273970663113,-0.861551526036866
-0.373220784835465,-0.861289051204815
-0.365268159008099,-0.861032982844321
-0.357415691990336,-0.860783282346947
-0.349662982591498,-0.86053991110425
-0.342009629620905,-0.860302830507791
-0.334455231887878,-0.860072001949128
-0.32699938820174,-0.859847386819824
-0.319641697371811,-0.859628946511437
-0.312381758207412,-0.859416642415527
-0.305219169517864,-0.859210435923653
-0.29815353011249,-0.859010288427376
-0.291184438800608,-0.858816161318255
-0.284311494391542,-0.858628015987851
-0.277534295694612,-0.858445813827722
-0.27085244151914,-0.858269516229429
-0.264265530674445,-0.858099084584532
-0.257773161969851,-0.85793448028459
-0.251374934214677,-0.857775664721164
-0.245070446218245,-0.857622599285812
-0.238859296789877,-0.857475245370095
-0.232741084738893,-0.857333564365573
-0.226715408874614,-0.857197517663805
-0.220781868006363,-0.857067066656352
-0.214940060943459,-0.856942172734772
-0.209189586495224,-0.856822797290627
-0.20353004347098,-0.856708901715475
-0.197961030680047,-0.856600447400876
-0.192482146931746,-0.856497395738391
-0.1870929910354,-0.856399708119578
-0.181793161800328,-0.856307345935999
-0.176582258035853,-0.856220270579212
-0.171459878551295,-0.856138443440778
-0.166425622155975,-0.856061825912256
-0.161479087659215,-0.855990379385206
-0.156619873870336,-0.855924065251188
-0.15184757959866,-0.855862844901762
-0.147161803653506,-0.855806679728487
-0.142562144844197,-0.855755531122923
-0.138048201980053,-0.855709360476631
-0.133619573870396,-0.855668129181169
-0.129275859324547,-0.855631798628099
-0.125016657151827,-0.855600330208978
-0.120841566161558,-0.855573685315369
-0.11675018516306,-0.855551825338829
-0.112742112965654,-0.855534711670919
-0.108816948378663,-0.855522305703199
-0.104974290211406,-0.855514568827228
-0.101213737273206,-0.855511462434567
-0.0975348883733825,-0.855512947916775
-0.093937342321258,-0.855518986665412
-0.0904206979261533,-0.855529540072038
-0.0869845539973895,-0.855544569528212
-0.0836285093442876,-0.855564036425495
-0.0803521627761691,-0.855587902155446
-0.0771551131023549,-0.855616128109625
-0.0740369591321664,-0.855648675679592
-0.0709972996749247,-0.855685506256906
-0.0680357335399509,-0.855726581233127
-0.0651518595365664,-0.855771861999817
-0.0623452764740921,-0.855821309948533
-0.0596155831618492,-0.855874886470835
-0.0569623784091591,-0.855932552958285
-0.0543852610253428,-0.855994270802441
-0.0518838298197216,-0.856060001394863
-0.0494576836016165,-0.856129706127111
-0.0471064211803488,-0.856203346390745
-0.0448296413652397,-0.856280883577325
-0.0426269429656105,-0.85636227907841
-0.040497924790782,-0.856447494285561
-0.0384421856500756,-0.856536490590336
-0.0364593243528125,-0.856629229384297
-0.0345489397083139,-0.856725672059002
-0.032710630525901,-0.856825780006012
-0.0309439956148947,-0.856929514616886
-0.0292486337846166,-0.857036837283184
-0.0276241438443875,-0.857147709396466
-0.0260701246035289,-0.857262092348292
-0.0245861748713617,-0.857379947530221
-0.0231718934572072,-0.857501236333813
-0.0218268791703866,-0.857625920150629
-0.020550730820221,-0.857753960372228
-0.0193430472160317,-0.857885318390169
-0.0182034271671398,-0.858019955596013
-0.0171314694828665,-0.85815783338132
-0.0161267729725329,-0.858298913137648
-0.0151889364454602,-0.858443156256558
-0.0143175587109697,-0.858590524129611
-0.0135122385783825,-0.858740978148365
-0.0127725748570198,-0.85889447970438
-0.0120981663562026,-0.859050990189216
-0.0114886118852524,-0.859210470994434
-0.0109435102534901,-0.859372883511592
-0.010462460270237,-0.859538189132251
-0.0100450607448143,-0.85970634924797
-0.00969091048654312,-0.859877325250309
-0.00939960830474466,-0.860051078530829
-0.00917075300874006,-0.860227570481088
-0.00900394340785061,-0.860406762492647
-0.00889877831139732,-0.860588615957065
-0.00885485652870146,-0.860773092265903
-0.00887177686908431,-0.86096015281072
-0.00894913814186684,-0.861149758983075
-0.00908653915637036,-0.86134187217453
-0.00928357872191603,-0.861536453776643
-0.00953985564782502,-0.861733465180973
-0.00985496874341847,-0.861932867779082
-0.0102285168180177,-0.862134622962529
-0.0106600986809436,-0.862338692122874
-0.0111493131415176,-0.862545036651676
-0.0116957590090609,-0.862753617940495
-0.0122990350928945,-0.862964397380892
-0.0129587402023397,-0.863177336364426
-0.0136744731467176,-0.863392396282656
-0.0144458327353494,-0.863609538527142
-0.0152724177775563,-0.863828724489445
-0.0161538270826595,-0.864049915561125
-0.0170896594599801,-0.86427307313374
-0.0180795137188394,-0.86449815859885
-0.0191229886685585,-0.864725133348017
-0.0202196831184585,-0.864953958772799
-0.0213691958778607,-0.865184596264756
-0.0225711257560862,-0.865417007215448
-0.0238250715624563,-0.865651153016434
-0.0251306321062921,-0.865886995059276
-0.0264874061969147,-0.866124494735531
-0.0278949926436454,-0.866363613436761
-0.0293529902558052,-0.866604312554525
-0.0308609978427155,-0.866846553480383
-0.0324186142136974,-0.867090297605894
-0.0340254381780721,-0.867335506322618
-0.0356810685451606,-0.867582141022117
-0.0373851041242843,-0.867830163095948
-0.0391371437247643,-0.868079533935671
-0.0409367861559218,-0.868330214932847
-0.0427836302270779,-0.868582167479036
-0.0446772747475538,-0.868835352965798
-0.0466173185266707,-0.86908973278469
-0.0486033603737499,-0.869345268327276
-0.0506349990981123,-0.869601920985112
-0.0527118335090793,-0.869859652149761
-0.054833462415972,-0.87011842321278
-0.0569994846281116,-0.87037819556573
-0.0592094989548193,-0.870638930600171
-0.0614631042054162,-0.870900589707664
-0.0637598991892236,-0.871163134279766
-0.0660994827155625,-0.871426525708039
-0.0684814535937543,-0.871690725384042
-0.07090541063312,-0.871955694699335
-0.0733709526429808,-0.872221395045477
-0.0758776784326579,-0.872487787814029
-0.0784251868114725,-0.872754834396551
-0.0810130765887458,-0.873022496184602
-0.083640946573799,-0.873290734569741
-0.0863083955759532,-0.873559510943529
-0.0890150224045295,-0.873828786697526
-0.0917604258688493,-0.874098523223291
-0.0945442047782336,-0.874368681912385
-0.0973659579420037,-0.874639224156366
-0.100225284169481,-0.874910111346795
-0.103121782269986,-0.875181304875232
-0.10605505105284,-0.875452766133236
-0.109024689327365,-0.875724456512367
-0.112030295902881,-0.875996337404185
-0.11507146958871,-0.87626837020025
-0.118147809194173,-0.876540516292122
-0.121258913528592,-0.87681273707136
-0.124404381401286,-0.877084993929524
-0.127583811621579,-0.877357248258175
-0.130796802998789,-0.877629461448871
-0.13404295434224,-0.877901594893172
-0.137321864461252,-0.87817360998264
-0.140633132165146,-0.878445468108832
-0.143976356263243,-0.87871713066331
-0.147351135564865,-0.878988559037632
-0.150757068879333,-0.879259714623359
-0.154193755015968,-0.879530558812051
-0.157660792784091,-0.879801052995266
-0.161157780993023,-0.880071158564566
-0.164684318452085,-0.88034083691151
-0.168240003970599,-0.880610049427658
-0.171824436357886,-0.880878757504568
-0.175437214423267,-0.881146922533802
-0.179077936976063,-0.88141450590692
-0.182746202825596,-0.88168146901548
-0.186441610781186,-0.881947773251043
-0.190163759652155,-0.882213380005168
-0.193912248247824,-0.882478250669416
-0.197686675377513,-0.882742346635346
-0.201486639850545,-0.883005629294518
-0.205311740476241,-0.883268060038492
-0.209161576063921,-0.883529600258827
-0.213035745422906,-0.883790211347084
-0.216933847362519,-0.884049854694821
-0.22085548069208,-0.884308491693599
-0.22480024422091,-0.884566083734979
-0.228767736758331,-0.884822592210519
-0.232757557113663,-0.88507797851178
-0.236769304096228,-0.88533220403032
-0.240802576515348,-0.885585230157701
-0.244856973180342,-0.885837018285481
-0.248932092900533,-0.886087529805221
-0.253027534485241,-0.886336726108481
-0.257142896743788,-0.886584568586819
-0.261277778485495,-0.886831018631797
-0.265431778519683,-0.887076037634973
-0.269604495655674,-0.887319586987908
-0.273795528702787,-0.887561628082162
-0.278004476470346,-0.887802122309294
-0.28223093776767,-0.888041031060864
-0.286474511404081,-0.888278315728431
-0.2907347961889,-0.888513937703557
-0.295011390931449,-0.8887478583778
-0.299303894441048,-0.88898003914272
-0.303611905527019,-0.889210441389877
-0.307935022998683,-0.889439026510831
-0.312272845665361,-0.889665755897142
-0.316624972336373,-0.889890590940369
-0.320991001821043,-0.890113493032072
-0.32537053292869,-0.890334423563812
-0.329763164468636,-0.890553343927148
-0.334168495250201,-0.890770215513639
-0.338586124082708,-0.890984999714846
-0.343015649775477,-0.891197657922328
-0.347456671137829,-0.891408151527645
-0.351908786979086,-0.891616441922357
-0.356371596108569,-0.891822490498024
-0.360844697335599,-0.892026258646206
-0.365327689469497,-0.892227707758462
-0.369820171319585,-0.892426799226351
-0.374321741695183,-0.892623494441436
-0.378831999405613,-0.892817754795273
-0.383350543260195,-0.893009541679425
-0.387876972068252,-0.893198816485449
-0.392410884639104,-0.893385540604907
-0.396951879782072,-0.893569675429358
-0.401499556306478,-0.893751182350362
-0.406053513021643,-0.893930022759478
-0.410613348736887,-0.894106158048267
-0.415178662261533,-0.894279549608288
-0.419749052404901,-0.894450158831101
-0.424324117976313,-0.894617947108265
-0.428903457785089,-0.894782875831342
-0.433486670640551,-0.89494490639189
-0.43807335535202,-0.895104000181469
-0.442663110728817,-0.895260118591639
-0.447255535580264,-0.89541322301396
-0.451850228715681,-0.895563274839992
-0.456446788944391,-0.895710235461294
-0.461044815075712,-0.895854066269426
-0.465643905918968,-0.895994728655948
-0.470243660283479,-0.896132184012421
-0.474843676978567,-0.896266393730403
-0.479443554813552,-0.896397319201454
-0.484042892597757,-0.896524921817135
-0.4886412891405,-0.896649162969005
-0.493238343251106,-0.896770004048624
-0.497833653738893,-0.896887406447551
-0.502426819413184,-0.897001331557348
-0.5070174390833,-0.897111740769572
-0.511605111558561,-0.897218595475785
-0.51618943564829,-0.897321857067545
-0.520770010161807,-0.897421486936413
-0.525346433908433,-0.897517446473949
-0.52991830569749,-0.897609697071712
-0.534485224338298,-0.897698200121262
-0.53904678864018,-0.89778291701416
-0.543602597412456,-0.897863809141964
-0.548152249464446,-0.897940837896234
-0.552695343605474,-0.898013964668531
-0.557231478644859,-0.898083150850414
-0.561760253391922,-0.898148357833443
-0.566281266655986,-0.898209547009178
-0.570794117246371,-0.898266679769179
-0.575298403972399,-0.898319717505005
-0.579793725643389,-0.898368621608216
-0.584279681068665,-0.898413353470372
-0.588755869057546,-0.898453874483033
-0.593221888419355,-0.898490146037759
-0.597677337963411,-0.898522129526109
-0.602121816499038,-0.898549786339643
-0.606554922835554,-0.898573077869922
-0.610976255782283,-0.898591965508504
-0.615385414148544,-0.89860641064695
-0.61978199674366,-0.898616374676819
-0.624165602376951,-0.898621818989672
-0.628535829857738,-0.898622704977068
-0.632892277995343,-0.898618994030566
-0.637234545599087,-0.898610647541727
-0.641562231478291,-0.898597626902111
-0.645874934442276,-0.898579893503277
-0.650172253300363,-0.898557408736785
-0.654453786861874,-0.898530133994195
-0.65871913393613,-0.898498030667067
-0.662967893332452,-0.89846106014696
-0.66719966386016,-0.898419183825435
-0.671414044328577,-0.898372363094051
-0.675610633547024,-0.898320559344368
-0.679789030324821,-0.898263733967945
-0.68394883347129,-0.898201848356343
-0.688089641795751,-0.898134863901121
-0.692211054107527,-0.89806274199384
-0.696312669215938,-0.897985444026058
-0.700394085930306,-0.897902931389337
-0.704454903059952,-0.897815165475234
-0.708494719414196,-0.897722107675311
-0.71251313380236,-0.897623719381128
-0.716509745033766,-0.897519961984243
-0.720484151917734,-0.897410796876217
-0.724435953263585,-0.89729618544861
-0.728364747880642,-0.897176089092981
-0.732270134578224,-0.897050469200891
-0.736151712165653,-0.896919287163898
-0.740009079452251,-0.896782504373563
-0.743841835247338,-0.896640082221446
-0.747649578360235,-0.896491982099106
-0.751431907600265,-0.896338165398104
-0.755188421776747,-0.896178593509999
-0.758918719699004,-0.89601322782635
-0.762622400176356,-0.895842029738718
-0.766299062018124,-0.895664960638663
-0.769948304033631,-0.895481981917744
-0.773569725032196,-0.89529305496752
-0.777162923823141,-0.895098141179553
-0.780727499215788,-0.894897201945402
-0.784263050019456,-0.894690198656626
-0.787769175043469,-0.894477092704785
-0.791245473097146,-0.894257845481439
-0.794691542989809,-0.894032418378148
-0.798106983530779,-0.893800772786472
-0.801491393529378,-0.893562870097971
-0.804844371794926,-0.893318671704204
-0.808165517136745,-0.893068138996731
-0.811454428364155,-0.892811233367111
-0.814710704286479,-0.892547916206906
-0.817933943713036,-0.892278148907674
-0.821123745453149,-0.892001892860976
-0.824279708316139,-0.891719109458371
-0.827401431111326,-0.891429760091418
-0.830488512648033,-0.891133806151678
-0.833540551735579,-0.890831209030711
-0.836557147183286,-0.890521930120077
-0.839537897800477,-0.890205930811334
-0.84248240239647,-0.889883172496044
-0.845390259780589,-0.889553616565765
-0.848261068762153,-0.889217224412058
-0.851094428150485,-0.888873957426482
-0.853889936754905,-0.888523777000598
-0.856647193384734,-0.888166644525964
-0.859365796849294,-0.887802521394142
-0.862045345957906,-0.88743136899669
-0.864685439519891,-0.887053148725168
-0.86728567634457,-0.886667821971137
-0.869845655241265,-0.886275350126156
-0.872364975019296,-0.885875694581784
-0.874843234487984,-0.885468816729583
-0.877280032456652,-0.88505467796111
-0.87967496773462,-0.884633239667927
-0.882027639131209,-0.884204463241594
-0.884337645455741,-0.883768310073668
-0.886604585517536,-0.883324741555712
-0.888828058125916,-0.882873719079284
-0.891007662090203,-0.882415204035944
-0.893142996219716,-0.881949157817253
-0.895233659323777,-0.881475541814769
-0.897279250211708,-0.880994317420053
-0.89927936769283,-0.880505446024665
-0.901233610576464,-0.880008889020164
-0.90314157767193,-0.87950460779811
-0.905002867788551,-0.878992563750063
-0.906817079735648,-0.878472718267583
-0.908583812322541,-0.877945032742229
-0.910302664358551,-0.877409468565562
-0.911973234653001,-0.876865987129141
-0.913595122015211,-0.876314549824525
-0.915167925254502,-0.875755118043276
-0.916691243180196,-0.875187653176952
-0.918164674601613,-0.874612116617113
-0.919587818328075,-0.87402846975532
-0.920960273168903,-0.873436673983132
-0.922281637933418,-0.872836690692108
-0.923551511430942,-0.872228481273809
-0.924769492470795,-0.871612007119795
-0.925935179862299,-0.870987229621624
-0.927048172414775,-0.870354110170858
-0.928108068937543,-0.869712610159056
-0.929114468239927,-0.869062690977777
-0.930066969131245,-0.868404314018581
-0.93096517042082,-0.867737440673029
-0.931808670917973,-0.86706203233268
-0.932597069432025,-0.866378050389094
-0.933329964772297,-0.86568545623383
-0.934006955748111,-0.864984211258449
-0.934627641168787,-0.86427427685451
-0.935191619843646,-0.863555614413573
-0.935191619843646,-0.863555614413573
-0.93570793774902,-0.862808224158504
-0.936186011058846,-0.862012309614664
-0.936625993878855,-0.861168137127355
-0.93702804031478,-0.860275973041881
-0.937392304472353,-0.859336083703545
-0.937718940457305,-0.858348735457647
-0.938008102375368,-0.857314194649493
-0.938259944332275,-0.856232727624385
-0.938474620433757,-0.855104600727624
-0.938652284785545,-0.853930080304515
-0.938793091493372,-0.852709432700359
-0.938897194662969,-0.85144292426046
-0.938964748400069,-0.85013082133012
-0.938995906810403,-0.848773390254642
-0.938990823999703,-0.847370897379329
-0.938949654073702,-0.845923609049484
-0.93887255113813,-0.844431791610409
-0.93875966929872,-0.842895711407407
-0.938611162661203,-0.841315634785781
-0.938427185331312,-0.839691828090834
-0.938207891414779,-0.838024557667868
-0.937953435017334,-0.836314089862187
-0.93766397024471,-0.834560691019092
-0.937339651202639,-0.832764627483887
-0.936980631996853,-0.830926165601875
-0.936587066733084,-0.829045571718357
-0.936159109517063,-0.827123112178638
-0.935696914454522,-0.82515905332802
-0.935200635651194,-0.823153661511805
-0.934670427212809,-0.821107203075296
-0.934106443245101,-0.819019944363797
-0.9335088378538,-0.816892151722609
-0.932877765144639,-0.814724091497036
-0.932213379223349,-0.81251603003238
-0.931515834195662,-0.810268233673945
-0.930785284167311,-0.807980968767033
-0.930021883244028,-0.805654501656946
-0.929225785531542,-0.803289098688987
-0.928397145135588,-0.80088502620846
-0.927536116161896,-0.798442550560666
-0.926642852716199,-0.79596193809091
-0.925717508904228,-0.793443455144493
-0.924760238831715,-0.790887368066718
-0.923771196604393,-0.788293943202888
-0.922750536327993,-0.785663446898306
-0.921698412108246,-0.782996145498274
-0.920614978050884,-0.780292305348096
-0.919500388261641,-0.777552192793074
-0.918354796846247,-0.774776074178511
-0.917178357910434,-0.771964215849709
-0.915971225559934,-0.769116884151972
-0.914733553900479,-0.766234345430602
-0.913465497037801,-0.763316866030902
-0.912167209077632,-0.760364712298174
-0.910838844125703,-0.757378150577722
-0.909480556287747,-0.754357447214848
-0.908092499669495,-0.751302868554855
-0.906674828376679,-0.748214680943046
-0.905227696515031,-0.745093150724723
-0.903751258190283,-0.74193854424519
-0.902245667508167,-0.738751127849749
-0.900711078574414,-0.735531167883702
-0.899147645494756,-0.732278930692353
-0.897555522374926,-0.728994682621004
-0.895934863320656,-0.725678690014959
-0.894285822437676,-0.722331219219519
-0.775344554247968,-0.817126420860566
-0.77231120810968,-0.615047834382137
-0.889169949873801,-0.712102601149862
-0.792647300160771,-0.805668800851871
-0.996355312389837,-0.796123540172756
-0.883804188657892,-0.701600267806558
-0.881960789934442,-0.698039907353836
-0.880090242228137,-0.694450199474143
-0.786180094966057,-0.571893723045376
-0.773275686866124,-0.574499806304025
-0.874317246269417,-0.683507654726258
-0.969485787247524,-0.563012974128256
-0.967012125675688,-0.55825048261688
-0.965307833566235,-0.785357964027519
-0.866249181645566,-0.668522889366505
-0.747000228266798,-0.783614947024397
-0.770687533027091,-0.551443661895475
-0.748105695485374,-0.540390996686391
-0.757655591488463,-0.562293041727951
-0.855582143576259,-0.64918155530421
-0.76132174228836,-0.549603305209565
-0.736075323081761,-0.536978903999566
-0.740766502614843,-0.532961686187843
-0.951649333711458,-0.521320411647606
-0.951904124781226,-0.729796108603087
-0.736455085924701,-0.522014184513842
-0.839596489689445,-0.621023977887961
-0.933466978108289,-0.709428226404878
-0.725106875384683,-0.512520205767404
-0.928927321630818,-0.727277748673132
-0.72430175265271,-0.501925767105305
-0.827453077323434,-0.600185480057082
-0.824953889408632,-0.595948648726487
-0.822431559260004,-0.591689394946791
-0.819886240983282,-0.587407985063298
-0.817318088684198,-0.583104685421311
-0.814727256468484,-0.578779762366131
-0.812113898441872,-0.574433482243063
-0.809478168710093,-0.570066111397408
-0.80682022137888,-0.56567791617447
-0.804140210553964,-0.56126916291955
-0.801438290341077,-0.556840117977953
-0.798714614845952,-0.552391047694981
-0.795969338174319,-0.547922218415936
-0.79320261443191,-0.543433896486122
-0.790414597724459,-0.53892634825084
-0.787605442157696,-0.534399840055395
-0.784775301837353,-0.529854638245087
-0.781924330869163,-0.525291009165221
-0.779052683358856,-0.5207092191611
-0.776160513412166,-0.516109534578025
-0.773247975134823,-0.5114922217613
-0.77031522263256,-0.506857547056227
-0.767362410011108,-0.502205776808109
-0.7643896913762,-0.49753717736225
-0.761397220833567,-0.49285201506395
-0.758385152488941,-0.488150556258515
-0.755353640448054,-0.483433067291246
-0.752302838816638,-0.478699814507445
-0.749232901700424,-0.473951064252417
-0.746143983205145,-0.469187082871462
-0.743036237436532,-0.464408136709886
-0.739909818500318,-0.459614492112989
-0.736764880502234,-0.454806415426075
-0.733601577548011,-0.449984172994447
-0.730420063743383,-0.445148031163407
-0.72722049319408,-0.440298256278258
-0.724003020005834,-0.435435114684303
-0.720767798284378,-0.430558872726845
-0.717514982135444,-0.425669796751186
-0.714244725664762,-0.420768153102629
-0.710957182978066,-0.415854208126477
-0.707652508181086,-0.410928228168033
-0.704330855379555,-0.405990479572599
-0.700992378679205,-0.401041228685479
-0.697637232185767,-0.396080741851974
-0.694265570004973,-0.391109285417389
-0.690877546242555,-0.386127125727024
-0.687473315004246,-0.381134529126185
-0.684053030395776,-0.376131761960172
-0.680616846522878,-0.371119090574289
-0.677164917491284,-0.366096781313838
-0.673697397406725,-0.361065100524123
-0.670214440374933,-0.356024314550446
-0.666716200501641,-0.35097468973811
-0.66320283189258,-0.345916492432418
-0.659674488653481,-0.340849988978672
-0.656131324890078,-0.335775445722175
-0.6525734947081,-0.33069312900823
-0.649001152213282,-0.32560330518214
-0.645414451511354,-0.320506240589207
-0.641813546708047,-0.315402201574735
-0.638198591909095,-0.310291454484025
-0.634569741220229,-0.305174265662381
-0.630927148747181,-0.300050901455106
-0.627270968595682,-0.294921628207502
-0.623601354871465,-0.289786712264873
-0.619918461680261,-0.28464641997252
-0.616222443127803,-0.279501017675746
-0.612513453319821,-0.274350771719855
-0.608791646362049,-0.269195948450149
-0.605057176360217,-0.264036814211931
-0.601310197420058,-0.258873635350504
-0.597550863647303,-0.25370667821117
-0.593779329147685,-0.248536209139232
-0.589995748026935,-0.243362494479993
-0.586200274390785,-0.238185800578756
-0.582393062344967,-0.233006393780823
-0.578574265995213,-0.227824540431498
-0.574744039447255,-0.222640506876082
-0.570902536806824,-0.21745455945988
-0.567049912179653,-0.212266964528193
-0.563186319671473,-0.207077988426324
-0.559311913388016,-0.201887897499576
-0.555426847435014,-0.196696958093252
-0.551531275918199,-0.191505436552655
-0.547625352943302,-0.186313599223087
-0.543709232616057,-0.181121712449851
-0.539783069042193,-0.17593004257825
-0.535847016327444,-0.170738855953587
-0.531901228577541,-0.165548418921164
-0.527945859898216,-0.160358997826284
-0.523981064395201,-0.155170859014251
-0.520006996174228,-0.149984268830365
-0.516023809341028,-0.144799493619932
-0.512031658001334,-0.139616799728253
-0.508030696260877,-0.13443645350063
-0.504021078225389,-0.129258721282368
-0.500002958000602,-0.124083869418768
-0.495976489692249,-0.118912164255133
-0.49194182740606,-0.113743872136767
-0.487899125247767,-0.108579259408971
-0.483848537323103,-0.103418592417049
-0.4797902177378,-0.098262137506303
-0.475724320597588,-0.0931101610220362
-0.471651000008201,-0.0879629293095516
-0.467570410075369,-0.0828207087141514
-0.463482704904826,-0.0776837655811388
-0.459388038602302,-0.0725523662558163
-0.45528656527353,-0.0674267770834869
-0.45117843902424,-0.0623072644094529
-0.447063813960167,-0.0571940945790178
-0.44294284418704,-0.0520875339374836
-0.438815683810592,-0.0469878488301537
-0.434682486936555,-0.0418953056023303
-0.430543407670661,-0.0368101705993167
-0.426398600118641,-0.0317327101664152
-0.422248218386228,-0.026663190648929
-0.418092416579152,-0.0216018783921605
-0.413931348803147,-0.0165490397414127
-0.409765169163944,-0.0115049410419881
-0.405594031767275,-0.00646984863918984
-0.401418090718872,-0.00144402887832026
-0.397237500124466,0.00357225189531737
-0.393052414089789,0.00857872733642087
-0.388862986720574,0.013575131099687
-0.384669372122552,0.0185611968398132
-0.380471724401455,0.0235366582114966
-0.376270197663014,0.0285012488694347
-0.372064946012963,0.0334547024683243
-0.367856123557032,0.0383967526628631
-0.363643884400953,0.0433271331077479
-0.359428382650459,0.0482455774576763
-0.355209772411281,0.0531518193673453
-0.350988207789151,0.0580455924914524
-0.346763842889801,0.0629266304846944
-0.342536831818962,0.067794667001769
-0.338307328682368,0.072649435697373
-0.334075487585748,0.0774906702262041
-0.329841462634836,0.082318104242959
-0.325605407935363,0.0871314714023355
-0.321367477593062,0.0919305053590304
-0.317127825713663,0.0967149397677412
-0.312886606402899,0.101484508283165
-0.308643973766501,0.106238944559999
-0.304400081910202,0.110977982252941
-0.300155084939734,0.115701355016687
-0.295909136960827,0.120408796505935
-0.291662392079215,0.125100040375383
-0.287415004400629,0.129774820279727
-0.2831671280308,0.134432869873664
-0.278918917075461,0.139073922811893
-0.274670525640344,0.143697712749109
-0.27042210783118,0.148303973340011
-0.266173817753701,0.152892438239296
-0.261925809513639,0.15746284110166
-0.257678237216726,0.162014915581802
-0.253431254968694,0.166548395334418
-0.249185016875275,0.171063014014206
-0.2449396770422,0.175558505275862
-0.240695389575202,0.180034602774084
-0.236452308580012,0.18449104016357
-0.232210588162362,0.188927551099016
-0.227970382427984,0.193343869235119
-0.22373184548261,0.197739728226578
-0.219495131431971,0.202114861728089
-0.215260394381801,0.20646900339435
-0.211027788437829,0.210801886880057
-0.206797467705789,0.215113245839908
-0.202569586291412,0.2194028139286
-0.19834429830043,0.22367032480083
-0.194121757838575,0.227915512111296
-0.189902119011578,0.232138109514695
-0.185685535925173,0.236337850665724
-0.181472162685089,0.240514469219081
-0.17726215339706,0.244667698829461
-0.173055662166817,0.248797273151564
-0.168852843100093,0.252902925840086
-0.164653850302617,0.256984390549724
-0.160458837880124,0.261041400935175
-0.156267959938345,0.265073690651138
-0.152081370583011,0.269080993352308
-0.147899223919854,0.273063042693383
-0.143721674054606,0.277019572329061
-0.139548875093,0.280950315914038
-0.135380981140766,0.284855007103012
-0.131218146303637,0.288733379550681
-0.127060524687345,0.292585166911741
-0.122908270397621,0.296410102840889
-0.118761537540198,0.300207920992824
-0.114620480220807,0.303978355022241
-0.11048525254518,0.307721138583839
-0.106356008619049,0.311436005332314
-0.102232902548145,0.315122688922364
-0.0981160884382015,0.318780923008686
-0.0940057203949495,0.322410441245977
-0.0899019525241207,0.326010977288935
-0.0858049389314472,0.329582264792256
-0.0817148337226607,0.333124037410639
-0.0776317910034934,0.336636028798779
-0.0735559648796766,0.340117972611376
-0.0694875094569428,0.343569602503124
-0.0654265788410233,0.346990652128723
-0.0613733271376504,0.350380855142869
-0.0573279084525556,0.353739945200259
-0.0532904768914712,0.35706765595559
-0.0492611865601284,0.360363721063561
-0.0452401915642598,0.363627874178868
-0.0412276460095966,0.366859848956208
-0.0372237040018712,0.370059379050278
-0.0332285196468151,0.373226198115776
-0.0292422470501605,0.3763600398074
-0.0252650403176388,0.379460637779845
-0.0212970535549823,0.38252772568781
-0.0173384408679225,0.385561037185992
-0.0133893563621916,0.388560305929087
-0.00944995414352116,0.391525265571794
-0.00552038831764332,0.394455649768809
-0.00160081299028961,0.39735119217483
0.00230861773280774,0.400211626444554
0.00620774974591723,0.403036686232678
0.0100964289433066,0.405826105193899
0.0139745012192444,0.408579616982915
0.0178418124679985,0.411296955254423
0.0216982085838372,0.41397785366312
0.0255435354610284,0.416622045863703
0.0293776389938406,0.41922926551087
0.0332003650765416,0.421799246259317
0.0370115596033998,0.424331721763742
0.040811068468683,0.426826425678843
0.0445987375666598,0.429283091659316
0.0483744127915979,0.431701453359859
0.0521379400377658,0.434081244435169
0.0558891651994313,0.436422198539943
0.0596279341708629,0.438724049328878
0.0633540928463284,0.440986530456672
0.0670674871200962,0.443209375578022
0.0707679628864342,0.445392318347625
0.0744553660396109,0.447535092420178
0.078129542473894,0.449637431450379
0.081790338083552,0.451699069092925
0.0854375987628527,0.453719739002513
0.0890711704060646,0.45569917483384
0.0926908989074556,0.457637110241604
0.096296630161294,0.459533278880501
0.0998882100618477,0.461387414405229
0.103465484503385,0.463199250470486
0.107028299380174,0.464968520730968
0.110576500586483,0.466694958841373
0.11410993401658,0.468378298456398
0.117628445564733,0.47001827323074
0.12113188112521,0.471614616819096
0.12462008659228,0.473167062876164
0.128092907860211,0.474675345056641
0.13155019082327,0.476139197015224
0.134991781375726,0.477558352406611
0.138417525411847,0.478932544885498
0.141827268825901,0.480261508106582
0.145220857512156,0.481544975724562
0.14859813736488,0.482782681394134
0.151958954278343,0.483974358769996
0.155303154146811,0.485119741506844
0.158630582864552,0.486218563259377
0.161941086325836,0.48727055768229
0.16523451042493,0.488275458430282
0.168510701056102,0.48923299915805
0.17176950411362,0.490142913520291
0.175010765491753,0.491004935171702
0.178234331084768,0.49181879776698
0.181440046786935,0.492584234960823
0.18462775849252,0.493300980407928
0.187797312095792,0.493968767762992
0.19094855349102,0.494587330680712
0.194081328572471,0.495156402815786
0.197195483234413,0.49567571782291
0.200290863371115,0.496145009356783
0.203367314876845,0.496564011072101
0.206424683645871,0.496932456623562
0.20946281557246,0.497250079665862
0.212481556550882,0.497516613853699
0.215480752475404,0.497731792841771
0.218460249240295,0.497895350284774
0.221419892739823,0.498007019837405
0.224359528868255,0.498066535154363
0.227279003519859,0.498073629890343
0.230178162588905,0.498028037700045
0.233056851969661,0.497929492238163
0.235914917556393,0.497777727159397
0.238752205243371,0.497572476118443
0.241568560924862,0.497313472769998
0.244363830495135,0.49700045076876
0.247137859848458,0.496633143769425
0.2498904948791,0.496211285426691
0.252621581481327,0.495734609395256
0.255330965549408,0.495202849329817
0.258018492977612,0.49461573888507
0.260684009660206,0.493973011715713
0.263327361491459,0.493274401476443
0.265948394365639,0.492519641821958
0.268546954177014,0.491708466406954
0.271122886819852,0.490840608886129
0.273676038188422,0.489915802914181
0.27620625417699,0.488933782145806
0.27620625417699,0.488933782145806
0.278711006248405,0.487907985081086
0.281187900269998,0.486852232004518
0.283636983742768,0.485766829247425
0.286058304167712,0.484652083141126
0.288451909045827,0.483508300016943
0.290817845878111,0.482335786206195
0.293156162165561,0.481134848040204
0.295466905409176,0.479905791850292
0.297750123109952,0.478648923967778
0.300005862768886,0.477364550723984
0.302234171886978,0.47605297845023
0.304435097965223,0.474714513477837
0.30660868850462,0.473349462138127
0.308754991006167,0.471958130762419
0.310874052970859,0.470540825682035
0.312965921899696,0.469097853228296
0.315030645293675,0.467629519732523
0.317068270653793,0.466136131526035
0.319078845481048,0.464617994940155
0.321062417276437,0.463075416306203
0.323019033540957,0.4615087019555
0.324948741775607,0.459918158219366
0.326851589481384,0.458304091429123
0.328727624159285,0.456666807916091
0.330576893310309,0.455006614011592
0.332399444435451,0.453323816046946
0.33419532503571,0.451618720353473
0.335964582612084,0.449891633262496
0.33770726466557,0.448142861105334
0.339423418697166,0.446372710213308
0.341113092207868,0.44458148691774
0.342776332698675,0.44276949754995
0.344413187670585,0.440937048441259
0.346023704624593,0.439084445922988
0.347607931061699,0.437211996326457
0.3491659144829,0.435320005982988
0.350697702389193,0.433408781223902
0.352203342281575,0.431478628380518
0.353682881661045,0.429529853784159
0.355136368028599,0.427562763766145
0.356563848885236,0.425577664657796
0.357965371731953,0.423574862790434
0.359340984069747,0.421554664495379
0.360690733399616,0.419517376103953
0.362014667222557,0.417463303947476
0.363312833039568,0.415392754357269
0.364585278351647,0.413306033664653
0.36583205065979,0.411203448200949
0.367053197464996,0.409085304297477
0.368248766268262,0.406951908285558
0.369418804570586,0.404803566496513
0.370563359872965,0.402640585261664
0.371682479676396,0.400463270912331
0.372776211481877,0.398271929779834
0.373844602790406,0.396066868195495
0.374887701102981,0.393848392490634
0.375905553920598,0.391616808996573
0.376898208744255,0.389372424044632
0.37786571307495,0.387115543966131
0.37880811441368,0.384846475092393
0.379725460261443,0.382565523754737
0.380617798119236,0.380272996284485
0.381485175488057,0.377969199012957
0.382327639868904,0.375654438271475
0.383145238762773,0.373329020391358
0.383938019670663,0.370993251703928
0.384706030093571,0.368647438540507
0.385449317532494,0.366291887232413
0.38616792948843,0.363926904110969
0.386861913462377,0.361552795507496
0.387531316955332,0.359169867753313
0.388176187468292,0.356778427179743
0.388796572502256,0.354378780118105
0.38939251955822,0.351971232899721
0.389964076137182,0.349556091855911
0.39051128974014,0.347133663317997
0.391034207868091,0.344704253617299
0.391532878022033,0.342268169085138
0.392007347702963,0.339825716052835
0.392457664411879,0.337377200851711
0.392883875649778,0.334922929813086
0.393286028917658,0.332463209268282
0.393664171716516,0.329998345548619
0.39401835154735,0.327528644985418
0.394348615911158,0.32505441391
0.394655012308936,0.322575958653686
0.394937588241683,0.320093585547796
0.395196391210396,0.317607600923652
0.395431468716073,0.315118311112575
0.39564286825971,0.312626022445884
0.395830637342306,0.310131041254902
0.395994823464858,0.307633673870948
0.396135474128364,0.305134226625344
0.396252636833821,0.302633005849411
0.396346359082226,0.300130317874469
0.396416688374578,0.297626469031839
0.396463672211873,0.295121765652843
0.39648735809511,0.2926165140688
0.396487793525285,0.290111020611033
0.396465026003397,0.287605591610861
0.396419103030442,0.285100533399605
0.396350072107419,0.282596152308587
0.396257980735324,0.280092754669126
0.396142876415157,0.277590646812545
0.396004806647912,0.275090135070164
0.39584381893459,0.272591525773304
0.395659960776186,0.270095125253285
0.395453279673699,0.267601239841428
0.395223823128125,0.265110175869055
0.394971638640464,0.262622239667486
0.394696773711711,0.260137737568041
0.394399275842865,0.257656975902043
0.394079192534923,0.255180261000811
0.393736571288882,0.252707899195667
0.393371459605741,0.250240196817931
0.392983904986496,0.247777460198924
0.392573954932146,0.245319995669967
0.392141656943687,0.242868109562381
0.391687058522118,0.240422108207486
0.391210207168435,0.237982297936605
0.390711150383637,0.235548985081056
0.390189935668721,0.233122475972162
0.389646610524683,0.230703076941243
0.389081222452523,0.22829109431962
0.388493818953237,0.225886834438614
0.387884447527824,0.223490603629545
0.387253155677279,0.221102708223734
0.386599990902602,0.218723454552504
0.385925000704789,0.216353148947173
0.385228232584838,0.213992097739063
0.384509734043746,0.211640607259495
0.383769552582512,0.20929898383979
0.383007735702132,0.206967533811268
0.382224330903605,0.204646563505251
0.381419385687927,0.202336379253058
0.380592947556096,0.200037287386012
0.37974506400911,0.197749594235433
0.378875782547966,0.195473606132642
0.377985150673662,0.193209629408959
0.377073215887195,0.190957970395706
0.376140025689563,0.188718935424203
0.375185627581764,0.186492830825771
0.374210069064794,0.184279962931731
0.373213397639652,0.182080638073404
0.372195660807334,0.17989516258211
0.371156906068839,0.177723842789172
0.370097180925164,0.175566985025908
0.369016532877306,0.173424895623641
0.367915009426264,0.171297880913691
0.366792658073033,0.169186247227378
0.365649526318613,0.167090300896025
0.364485661664001,0.165010348250951
0.363301111610194,0.162946695623477
0.362095923658189,0.160899649344925
0.360870145308984,0.158869515746615
0.359623824063578,0.156856601159868
0.358357007422966,0.154861211916005
0.357069742888147,0.152883654346346
0.355762077960118,0.150924234782213
0.354434060139877,0.148983259554926
0.353085736928422,0.147061034995807
0.351717155826749,0.145157867436175
0.350328364335857,0.143274063207352
0.348919409956742,0.14140992864066
0.347490340190403,0.139565770067417
0.346041202537837,0.137741893818946
0.344572044500041,0.135938606226568
0.343082913578013,0.134156213621602
0.341573857272751,0.132395022335371
0.340044923085252,0.130655338699194
0.338496158516513,0.128937469044393
0.336927611067533,0.127241719702289
0.335339328239308,0.125568397004202
0.333731357532836,0.123917807281453
0.332103746449115,0.122290256865363
0.330456542489142,0.120686052087253
0.328789793153915,0.119105499278444
0.327103545944431,0.117548904770256
0.325397848361687,0.11601657489401
0.323672747906683,0.114508815981028
0.321928292080414,0.113025934362631
0.320164528383878,0.111568236370138
0.318381504318073,0.11013602833487
0.316579267383996,0.10872961658815
0.314757865082646,0.107349307461297
0.312917344915018,0.105995407285632
0.311057754382112,0.104668222392477
0.309179140984924,0.103368059113151
0.307281552224453,0.102095223778977
0.305365035601694,0.100850022721274
0.303429638617647,0.0996327622713633
0.301475408773308,0.0984437487605664
0.299502393569676,0.0972832885202038
0.297510640507747,0.0961516878815962
0.295500197088519,0.0950492531760645
0.29347111081299,0.0939762907349297
0.291423429182158,0.0929331068895125
0.289357199697019,0.0919200079711338
0.287272469858571,0.0909373003111145
0.285169287167812,0.0899852902407753
0.283047699125739,0.089064284091437
0.28090775323335,0.0881745881944207
0.278749496991643,0.0873165088810471
0.276572977901614,0.086490352482637
0.274378243464262,0.0856964253305114
0.272165341180584,0.084935033755991
0.269934318551577,0.0842064840903967
0.267685223078239,0.0835110826650493
0.265418102261568,0.0828491358112696
0.263133003602561,0.0822209498603786
0.260829974602215,0.0816268311436971
0.258509062761529,0.0810670859925459
0.256170315581499,0.0805420207382459
0.253813780563123,0.0800519417121178
0.251439505207399,0.0795971552454826
0.249047537015324,0.0791779676696612
0.246637923487895,0.0787946853159742
0.244210712126111,0.0784476145157426
0.241765950430969,0.0781370616002873
0.239303685903466,0.0778633329009291
0.2368239660446,0.0776267347489888
0.234326838355368,0.0774275734757872
0.231812350336768,0.0772661554126453
0.229280549489798,0.0771427868908838
0.226731483315454,0.0770577742418236
0.224165199314735,0.0770114237967856
0.221581744988638,0.0770040418870906
0.21898116783816,0.0770359348440594
0.216363515364299,0.0771074089990129
0.213728835068053,0.0772187706832719
0.211077174450419,0.0773703262281573
0.208408581012394,0.07756238196499
0.205723102254977,0.0777952442250907
0.203020785679164,0.0780692193397803
0.200301678785954,0.0783846136403796
0.197565829076343,0.0787417334582096
0.194813284051329,0.079140885124591
0.19204409121191,0.0795823749708448
0.189258298059083,0.0800665093282916
0.186455952093847,0.0805935945282524
0.183637100817197,0.0811639369020482
0.180801791730132,0.0817778427809994
0.17795007233365,0.0824356184964274
0.175081990128747,0.0831375703796526
0.172197592616422,0.083884004761996
0.169296927297672,0.0846752279747785
0.166380041673495,0.085511546349321
0.163446983244887,0.0863932662169441
0.160497799512847,0.0873206939089688
0.157532537978372,0.0882941357567159
0.154551246142459,0.0893138980915064
0.151553971506107,0.090380287244661
0.148540761570312,0.0914936095475006
0.145511663836072,0.092654171331346
0.142466725804385,0.0938622789275181
0.139405994976249,0.0951182386673376
0.136329518852659,0.0964223568821255
0.133237344934616,0.0977749399032027
0.130129520723115,0.0991762940618898
0.127006093719154,0.100626725689508
0.123867111423731,0.102126541117378
0.120712621337843,0.10367604667682
0.117542670962488,0.105275548699156
0.114357307798664,0.106925353515706
0.111156579347368,0.108625767457791
0.107940533109597,0.110377096856732
0.104709216586349,0.11217964804385
0.101462677278621,0.114033727350466
0.0982009626874117,0.1159396411079
0.0949241203137179,0.117897695647473
0.0916321976585369,0.119908197300507
0.0883252422228667,0.121971452398322
0.0850033015077044,0.124087767272238
0.081666423014048,0.126257448253578
0.0783146542428946,0.12848080167366
0.0749480426952421,0.130758133863808
0.0715666358720875,0.13308975115534
0.0681704812744289,0.135475959879579
0.0647596264032635,0.137917066367844
0.0613341187595889,0.140413376951458
0.0578940058444026,0.14296519796174
0.0544393351587022,0.145572835730011
0.0509701542034851,0.148236596587593
0.0474865104797489,0.150956786865806
0.0439884514884911,0.153733712895971
0.0404760247307094,0.156567681009409
0.036949277707401,0.159458997537441
0.0334082579195637,0.162407968811387
0.0298530128681948,0.165414901162569
0.0262835900542922,0.168480100922307
0.0227000369788529,0.171603874421922
0.0191024011428749,0.174786527992734
0.0154907300473554,0.178028367966066
0.0118650711932921,0.181329700673237
0.00822547208168244,0.184690832445569
0.00457198021352412,0.188112069614382
0.000904643089814292,0.191593718510998
-0.00277649178844912,0.195136085466736
-0.0064713769202689,0.198739476812918
-0.0101799648046472,0.202404198880865
-0.0139022079405869,0.206130558001897
-0.01763805882709,0.209918860507336
-0.0213874699631594,0.213769412728502
-0.0251503938477973,0.217682520996716
-0.0289267829800064,0.221658491643299
-0.0327165898587888,0.225697630999572
-0.0365197669831476,0.229800245396856
-0.0403362668520846,0.233966641166471
-0.0441660419646028,0.238197124639738
-0.0480090448197042,0.242492002147978
-0.0518652279163917,0.246851580022513
-0.0557345437536675,0.251276164594662
-0.0596169448305343,0.255766062195747
-0.0635123836459942,0.260321579157088
-0.0674208126990502,0.264943021810007
-0.0713421844887043,0.269630696485824
-0.0752764515139594,0.27438490951586
-0.0792235662738175,0.279205967231436
-0.0831834812672815,0.284094175963873
-0.0871561489933536,0.289049842044492
-0.0911415219510365,0.294073271804613
-0.0951395526393323,0.299164771575557
-0.0991501935572441,0.304324647688645
-0.103173397203774,0.309553206475198
-0.107209116077924,0.314850754266538
-0.111257302678697,0.320217597393983
-0.115317909505096,0.325654042188857
-0.119390889056123,0.331160394982479
-0.12347619383078,0.33673696210617
-0.12757377632807,0.342384049891251
-0.131683589046996,0.348101964669043
-0.13580558448656,0.353891012770866
-0.139939715145764,0.359751500528043
-0.14408593352361,0.365683734271892
-0.148244192119103,0.371688020333736
-0.152414443431242,0.377764665044895
-0.156596639959033,0.383913974736691
-0.160790734201475,0.390136255740443
-0.164996678657574,0.396431814387472
-0.169214425826329,0.4028009570091
-0.173443928206745,0.409243989936648
-0.177685138297824,0.415761219501436
-0.181938008598568,0.422352952034785
-0.186202491607979,0.429019493868015
-0.190478539825061,0.435761151332449
-0.194766105748815,0.442578230759406
-0.199065141878244,0.449471038480207
-0.20337560071235,0.456439880826174
-0.207697434750137,0.463485064128627
-0.212030596490605,0.470606894718887
-0.216375038432759,0.477805678928274
-0.2207307130756,0.48508172308811
-0.225097572918132,0.492435333529716
-0.229475570459355,0.499866816584412
-0.233864658198273,0.50737647858352
-0.238264788633889,0.514964625858359
-0.242675914265204,0.522631564740252
-0.247097987591222,0.530377601560517
-0.251530961110944,0.538203042650478
-0.255974787323373,0.546108194341454
-0.260429418727513,0.554093362964766
-0.264894807822364,0.562158854851736
-0.26937090710693,0.570304976333683
-0.273857669080213,0.578532033741929
-0.278355046241215,0.586840333407795
-0.28286299108894,0.595230181662601
-0.287381456122389,0.603701884837669
-0.291910393840565,0.612255749264319
-0.296449756742471,0.620892081273872
-0.300999497327108,0.629611187197648
-0.30555956809348,0.63841337336697
-0.310129921540589,0.647298946113157
-0.314710510167437,0.65626821176753
-0.319301286473027,0.665321476661411
-0.323902202956362,0.67445904712612
-0.328513212116443,0.683681229492977
-0.333134266452274,0.692988330093305
-0.337765318462856,0.702380655258423
-0.342406320647192,0.711858511319653
-0.347057225504285,0.721422204608315
-0.351717985533137,0.73107204145573
-0.356388553232751,0.740808328193219
-0.361068881102129,0.750631371152103
-0.365758921640274,0.760541476663703
-0.370458627346188,0.770538951059339
-0.375167950718873,0.780624100670333
-0.379886844257332,0.790797231828005
-0.384615260460568,0.801058650863676
-0.389353151827582,0.811408664108667
-0.394100470857378,0.821847577894298
-0.398857170048958,0.832375698551892
-0.403623201901325,0.842993332412768
-0.40839851891348,0.853700785808247
-0.413183073584427,0.86449836506965
-0.417976818413167,0.875386376528299
-0.422779705898704,0.886365126515513
-0.427591688540039,0.897434921362614
-0.432412718836176,0.908596067400922
-0.437242749286117,0.919848870961759
