0.0369908271733237,0.0800843329476026
0.0320179672837433,0.0804207006392217
0.0271256533374113,0.0807340822725361
0.0223134410217717,0.0810245962696276
0.0175808860242687,0.0812923610525777
0.0129275440323464,0.0815374950434681
0.00835297073344906,0.0817601166643803
0.00385672181502079,0.0819603443373959
-0.000561647035494221,0.0821382964845967
-0.00490258013065185,0.0822940915280641
-0.00916652178300793,0.0824278478898799
-0.0133539163051183,0.0825396839921255
-0.0174652080095388,0.0826297182568827
-0.0215008412088253,0.082698069106233
-0.0254612602155336,0.0827448549622581
-0.0293469093422195,0.0827701942470395
-0.0331582329014389,0.0827742053826589
-0.0368956752057477,0.0827570067911978
-0.0405596805677017,0.0827187168947379
-0.0441506932998567,0.0826594541153609
-0.0476691577147685,0.0825793368751482
-0.0511155181249931,0.0824784835961816
-0.0544902188430862,0.0823570127005425
-0.0577937041816037,0.0822150426103127
-0.0610264184531015,0.0820526917475738
-0.0641888059701353,0.0818700785344074
-0.067281311045261,0.081667321392895
-0.0703043779910345,0.0814445387451182
-0.0732584511200116,0.0812018490131588
-0.0761439747447481,0.0809393706190983
-0.0789613931777999,0.0806572219850183
-0.0817111507317229,0.0803555215330004
-0.0843936917190728,0.0800343876851262
-0.0870094604524055,0.0796939388634774
-0.0895589012442769,0.0793342934901356
-0.0920424584072427,0.0789555699871823
-0.0944605762538589,0.0785578867766992
-0.0968136990966813,0.0781413622807679
-0.0991022712482657,0.0777061149214699
-0.101326737021168,0.077252263120887
-0.103487540727944,0.0767799253011007
-0.105585126681149,0.0762892198841927
-0.10761993919334,0.0757802652922445
-0.109592422577072,0.0752531799473377
-0.111503021144902,0.074708082271554
-0.113352179209384,0.074145090686975
-0.115140341083075,0.0735643236156822
-0.11686795107853,0.0729658994797573
-0.118535453508306,0.072349936701282
-0.120143292684958,0.0717165537023378
-0.121691912921042,0.0710658689050063
-0.123181758529115,0.0703980007313691
-0.124613273821731,0.0697130676035079
-0.125986903111446,0.0690111879435042
-0.127303090710817,0.0682924801734397
-0.1285622809324,0.067557062715396
-0.12976491808875,0.0668050539914547
-0.130911446492422,0.0660365724236974
-0.132002310455974,0.0652517364342057
-0.13303795429196,0.0644506644450612
-0.134018822312937,0.0636334748783456
-0.13494535883146,0.0628002861561404
-0.135818008160085,0.0619512167005272
-0.136637214611369,0.0610863849335877
-0.137403422497866,0.0602059092774035
-0.138117076132133,0.0593099081540562
-0.138778619826726,0.0583984999856273
-0.1393884978942,0.0574718031941986
-0.139947154647112,0.0565299362018516
-0.140455034398016,0.0555730174306679
-0.14091258145947,0.0546011653027292
-0.141320240144028,0.053614498240117
-0.141678454764247,0.052613134664913
-0.141987669632682,0.0515971929991987
-0.14224832906189,0.0505667916650558
-0.142460877364426,0.049522049084566
-0.142625758852846,0.0484630836798107
-0.142743417839705,0.0473900138728716
-0.142814298637561,0.0463029580858304
-0.142838845558968,0.0452020347407686
-0.142817502916482,0.0440873622597678
-0.14275071502266,0.0429590590649098
-0.142638926190056,0.0418172435782759
-0.142482580731228,0.0406620342219479
-0.14228212295873,0.0394935494180075
-0.142037997185119,0.0383119075885362
-0.14175064772295,0.0371172271556155
-0.14142051888478,0.0359096265413271
-0.141048054983163,0.0346892241677527
-0.140633700330657,0.0334561384569739
-0.140177899239816,0.0322104878310722
-0.139681096023197,0.0309523907121292
-0.139143734993356,0.0296819655222267
-0.138566260462848,0.0283993306834461
-0.137949116744229,0.0271046046178691
-0.137292748150054,0.0257979057475773
-0.136597598992881,0.0244793524946523
-0.135864113585265,0.0231490632811758
-0.135092736239761,0.0218071565292293
-0.134283911268925,0.0204537506608944
-0.133438082985314,0.0190889640982529
-0.132555695701483,0.0177129152633861
-0.131637193729987,0.0163257225783759
-0.130683021383383,0.0149275044653037
-0.129693622974227,0.0135183793462513
-0.128669442815075,0.0120984656433002
-0.127610925218481,0.010667881778532
-0.126518514497003,0.00922674617402826
-0.125392654963195,0.00777517725187073
-0.124233790929615,0.00631329343414097
-0.123042366708817,0.00484121314292055
-0.121818826613357,0.0033590548002911
-0.120563614955792,0.00186693682833426
-0.119277176048677,0.000364977649131612
-0.117959954204568,-0.00114670431523523
-0.116612393736021,-0.00266799064268468
-0.115234938955591,-0.00419876291113506
-0.113828034175835,-0.00573890269850481
-0.112392123709309,-0.00728829158271232
-0.110927651868567,-0.00884681114167597
-0.109435062966167,-0.0104143429533141
-0.107914801314663,-0.0119907685955452
-0.106367311226612,-0.0135759696462876
-0.10479303701457,-0.0151698276834597
-0.103192422991092,-0.0167722242849799
-0.101565913468735,-0.0183830410287665
-0.0999139527600535,-0.020002159492738
-0.098236985177604,-0.0216294612548128
-0.0965354550339423,-0.0232648278929092
-0.0948098066416242,-0.0249081409849456
-0.0930604843132055,-0.0265592821088405
-0.0912879323612422,-0.0282181328425122
-0.0894925950982901,-0.029884574763879
-0.0876749168369049,-0.0315584894508595
-0.0858353418896425,-0.0332397584813719
-0.0839743145690588,-0.0349282634333347
-0.0820922791877098,-0.0366238858846663
-0.080189680058151,-0.038326507413285
-0.0782669614929383,-0.0400360095971092
-0.0763245678046277,-0.0417522740140574
-0.0743629433057751,-0.0434751822420479
-0.0723825323089362,-0.0452046158589991
-0.0703837791266668,-0.0469404564428294
-0.0683671280715228,-0.0486825855714571
-0.0663330234560601,-0.0504308848228008
-0.0642819095928345,-0.0521852357747786
-0.0622142307944018,-0.0539455200053092
-0.0601304313733178,-0.0557116190923108
-0.0580309556421386,-0.0574834146137018
-0.0559162479134198,-0.0592607881474006
-0.0537867524997172,-0.0610436212713257
-0.0516429137135868,-0.0628317955633953
-0.0494851758675844,-0.0646251926015279
-0.0473139832742658,-0.0664236939636419
-0.0451297802461869,-0.0682271812276557
-0.0429330110959035,-0.0700355359714876
-0.0407241201359715,-0.0718486397730561
-0.0385035516789466,-0.0736663742102795
-0.0362717500373848,-0.0754886208610762
-0.0340291595238418,-0.0773152613033647
-0.0317762244508736,-0.0791461771150632
-0.029513389131036,-0.0809812498740902
-0.0272410978768847,-0.0828203611583641
-0.0249597950009756,-0.0846633925458033
-0.0226699248158647,-0.0865102256143261
-0.0203719316341077,-0.088360741941851
-0.0180662597682605,-0.0902148231062963
-0.0157533535308789,-0.0920723506855805
-0.0134336572345188,-0.0939332062576218
-0.0111076151917359,-0.0957972714003388
-0.00877567171508616,-0.0976644276916498
-0.00643827111712536,-0.0995345567094731
-0.00409585771040948,-0.101407540031727
-0.00174887580749422,-0.103283259236331
0.000602230279064586,-0.105161595901201
0.00295701623671099,-0.107042431604258
0.00531503775288919,-0.108925647923419
0.00767585051504337,-0.110811126436603
0.0100390102106177,-0.112698748721728
0.0124040725270563,-0.114588396356712
0.0147705931518034,-0.116479950919475
0.017138127772303,-0.118373293987933
0.0195062320759994,-0.120268307140007
0.0218744617503368,-0.122164871953613
0.0242423724827592,-0.124062870006671
0.0266095199607108,-0.125962182877098
0.0289754598716359,-0.127862692142814
0.0313397479029785,-0.129764279381737
0.0337019397421827,-0.131666826171784
0.0360615910766929,-0.133570214090875
0.0384182575939531,-0.135474324716928
0.0407714949814075,-0.13737903962786
0.0431208589265002,-0.139284240401592
0.0454659051166754,-0.14118980861604
0.0478061892393773,-0.143095625849124
0.0501412669820501,-0.145001573678761
0.0524706940321377,-0.14690753368287
0.0547940260770845,-0.14881338743937
0.0571108188043346,-0.150719016526179
0.0594206279013321,-0.152624302521216
0.0617230090555213,-0.154529127002397
0.0640175179543463,-0.156433371547643
0.0663037102852511,-0.158336917734872
0.0685811417356801,-0.160239647142001
0.0708493679930772,-0.162141441346949
0.0731079447448868,-0.164042181927635
0.0753564276785529,-0.165941750461978
0.0775943724815198,-0.167840028527894
0.0798213348412314,-0.169736897703303
0.0820368704451322,-0.171632239566124
0.0842405349806661,-0.173525935694274
0.0864318841352775,-0.175417867665672
0.0886104735964102,-0.177307917058236
0.0907758590515087,-0.179195965449885
0.0929275961880169,-0.181081894418537
0.0950652406933792,-0.182965585542111
0.0971883482550396,-0.184846920398525
0.0992964745604423,-0.186725780565696
0.101389175297031,-0.188602047621545
0.103466006152251,-0.190475603143989
0.105526522813546,-0.192346328710946
0.107570280968359,-0.194214105900335
0.109596836304136,-0.196078816290074
0.11160574450832,-0.197940341458082
0.113596561268355,-0.199798562982277
0.115568842271686,-0.201653362440577
0.117522143205756,-0.203504621410901
0.11945601975801,-0.205352221471167
0.121370027615893,-0.207196044199294
0.123263722466847,-0.2090359711732
0.125136659998318,-0.210871883970803
0.12698839589775,-0.212703664170022
0.128818485852586,-0.214531193348775
0.130626485550271,-0.216354353084981
0.132411950678249,-0.218173024956557
0.134174436923964,-0.219987090541423
0.13591349997486,-0.221796431417496
0.137628695518382,-0.223600929162696
0.139319579241974,-0.22540046535494
0.140985706833079,-0.227194921572147
0.142626633979142,-0.228984179392235
0.144241916367607,-0.230768120393123
0.145831109685919,-0.232546626152728
0.147393769621521,-0.234319578248971
0.148929451861857,-0.236086858259768
0.150437712094373,-0.237848347763038
0.151918106006511,-0.2396039283367
0.153370189285716,-0.241353481558671
0.154793517619432,-0.243096889006871
0.156187646695104,-0.244834032259218
0.157552132200175,-0.24656479289363
0.15888652982209,-0.248289052488026
0.160190395248293,-0.250006692620323
0.161463284166228,-0.251717594868441
0.162704752263339,-0.253421640810298
0.16391435522707,-0.255118712023811
0.165091648744866,-0.2568086900869
0.16623618850417,-0.258491456577483
0.167347530192427,-0.260166893073478
0.168425229497081,-0.261834881152804
0.169468842105576,-0.263495302393379
0.170477923705357,-0.265148038373121
0.171452029983866,-0.266792970669949
0.17239071662855,-0.268429980861782
0.173293539326851,-0.270058950526537
0.174160053766214,-0.271679761242133
0.174989815634083,-0.273292294586488
0.175782380617902,-0.274896432137521
0.176537304405116,-0.27649205547315
0.177254142683168,-0.278079046171294
0.177932451139503,-0.27965728580987
0.178571785461564,-0.281226655966798
0.179171701336797,-0.282787038219996
0.179731754452645,-0.284338314147382
0.180251500496552,-0.285880365326874
0.180730495155963,-0.287413073336391
0.181168294118321,-0.288936319753851
0.181564453071071,-0.290449986157174
0.181918527701657,-0.291953954124276
0.182230073697523,-0.293448105233076
0.182498646746113,-0.294932321061493
0.182723802534872,-0.296406483187446
0.182905096751243,-0.297870473188852
0.183042085082671,-0.29932417264363
0.1831343232166,-0.300767463129699
0.183181366840474,-0.302200226224976
0.183182771641738,-0.303622343507381
0.183138093307834,-0.305033696554831
0.183046887526208,-0.306434166945245
0.182908709984304,-0.307823636256541
0.182723116369566,-0.309201986066638
0.182489662369437,-0.310569097953454
0.182207903671363,-0.311924853494907
0.181877395962787,-0.313269134268917
0.181497694931154,-0.314601821853401
0.181068356263907,-0.315922797826277
0.180588935648491,-0.317231943765464
0.18005898877235,-0.318529141248881
0.179478071322929,-0.319814271854446
0.17884573898767,-0.321087217160077
0.178161547454019,-0.322347858743693
0.177425052409419,-0.323596078183211
0.176635809541315,-0.324831757056551
0.175793374537151,-0.326054776941631
0.174897303084371,-0.327265019416369
0.17394715087042,-0.328462366058683
0.17294247358274,-0.329646698446493
0.171882826908778,-0.330817898157715
0.170767766535976,-0.33197584677027
0.169596848151778,-0.333120425862074
0.16836962744363,-0.334251517011047
0.167085660098975,-0.335369001795107
0.165744501805257,-0.336472761792173
0.164345708249921,-0.337562678580161
0.162888835120411,-0.338638633736992
0.16137343810417,-0.339700508840584
0.159799072888643,-0.340748185468854
0.158165295161274,-0.341781545199722
0.156471660609508,-0.342800469611105
0.154717724920788,-0.343804840280922
0.152903043782558,-0.344794538787091
0.151027172882264,-0.345769446707532
0.149089667907348,-0.346729445620161
0.147090084545255,-0.347674417102898
0.14502797848343,-0.348604242733661
0.142902905409316,-0.349518804090369
0.140714421010357,-0.350417982750939
0.138462080973998,-0.35130166029329
0.136145440987683,-0.35216971829534
0.133764056738856,-0.353022038335009
0.131317483914961,-0.353858501990214
0.128805278203443,-0.354678990838874
0.126226995291745,-0.355483386458906
0.123582190867312,-0.35627157042823
0.120870420617587,-0.357043424324764
0.118091240230015,-0.357798829726426
0.115244205392041,-0.358537668211135
0.112328871791108,-0.359259821356809
0.10934479511466,-0.359965170741366
0.106291531050142,-0.360653597942725
0.103168635284998,-0.361324984538804
0.099975663506671,-0.361979212107522
0.0967121714026067,-0.362616162226797
0.0933777146602484,-0.363235716474547
0.0899718489670407,-0.363837756428691
0.0864941300104274,-0.364422163667147
0.082944113477853,-0.364988819767833
0.0793213550567612,-0.365537606308669
0.0756254104345967,-0.366068404867571
0.0718558352988031,-0.36658109702246
0.068012185336825,-0.367075564351252
0.0640940162361063,-0.367551688431867
0.0601008836840914,-0.368009350842223
0.0560323433682241,-0.368448433160238
0.0518879509759489,-0.368868816963831
0.0476672621947098,-0.369270383830919
0.0433698327119511,-0.369653015339422
0.0389952182151166,-0.370016593067258
0.034542974391651,-0.370360998592345
0.0300126569289979,-0.370686113492602
0.0254038215146019,-0.370991819345947
0.0207160238359068,-0.371277997730298
0.0159488195803572,-0.371544530223573
0.0111017644353967,-0.371791298403692
0.00617441408846992,-0.372018183848573
0.00116632422702075,-0.372225068136133
-0.00392294946150641,-0.372411832844292
-0.00909385128966769,-0.372578359550967
-0.0143468255700186,-0.372724529834077
-0.0196823166151155,-0.372850225271541
-0.0251007687375135,-0.372955327441277
-0.0306026262497692,-0.373039717921203
-0.0361883334644378,-0.373103278289238
-0.0418583346940756,-0.373145890123299
-0.0476130742512381,-0.373167435001306
-0.0534529964484816,-0.373167794501177
-0.0593785455983613,-0.37314685020083
-0.0653901660134337,-0.373104483678184
-0.0714883020062541,-0.373040576511157
-0.0776733978893788,-0.372955010277667
-0.0839458979753631,-0.372847666555633
-0.0903062465767636,-0.372718426922973
-0.0967548880061352,-0.372567172957605
-0.103292266576035,-0.372393786237449
-0.109918826599017,-0.372198148340421
-0.116635012387639,-0.371980140844442
-0.123441268254456,-0.371739645327428
-0.130338038512023,-0.371476543367299
-0.137325767472897,-0.371190716541973
-0.144404899449634,-0.370882046429368
-0.151575878754789,-0.370550414607403
-0.158839149700918,-0.370195702653996
-0.166195156600577,-0.369817792147065
-0.173644343766322,-0.369416564664529
-0.181187155510709,-0.368991901784306
-0.188824036146293,-0.368543685084315
-0.196555429985631,-0.368071796142474
-0.204381781341278,-0.367576116536701
-0.21230353452579,-0.367056527844915
-0.220321133851723,-0.366512911645035
-0.220321133851723,-0.366512911645035
-0.228352633807834,-0.365941328977497
-0.236315898041445,-0.365338050301062
-0.244211084602955,-0.364703271321135
-0.252038351542761,-0.364037187743117
-0.259797856911264,-0.363339995272411
-0.267489758758862,-0.362611889614421
-0.275114215135955,-0.361853066474549
-0.282671384092941,-0.361063721558198
-0.29016142368022,-0.360244050570771
-0.297584491948191,-0.35939424921767
-0.304940746947252,-0.3585145132043
-0.312230346727803,-0.357605038236063
-0.319453449340243,-0.356666020018361
-0.326610212834971,-0.355697654256597
-0.333700795262386,-0.354700136656175
-0.340725354672887,-0.353673662922497
-0.347684049116873,-0.352618428760966
-0.354577036644742,-0.351534629876986
-0.361404475306896,-0.350422461975958
-0.368166523153732,-0.349282120763287
-0.374863338235649,-0.348113801944374
-0.381495078603046,-0.346917701224622
-0.388061902306323,-0.345694014309436
-0.394563967395879,-0.344442936904216
-0.401001431922112,-0.343164664714368
-0.407374453935421,-0.341859393445292
-0.413683191486207,-0.340527318802393
-0.419927802624867,-0.339168636491072
-0.426108445401801,-0.337783542216734
-0.432225277867409,-0.336372231684781
-0.438278458072088,-0.334934900600615
-0.444268144066238,-0.33347174466964
-0.450194493900258,-0.331982959597259
-0.456057665624547,-0.330468741088873
-0.461857817289505,-0.328929284849888
-0.46759510694553,-0.327364786585704
-0.473269692643022,-0.325775442001726
-0.478881732432378,-0.324161446803356
-0.484431384364,-0.322522996695997
-0.489918806488285,-0.320860287385051
-0.495344156855632,-0.319173514575923
-0.500707593516441,-0.317462873974014
-0.506009274521111,-0.315728561284727
-0.511249357920041,-0.313970772213466
-0.51642800176363,-0.312189702465633
-0.521545364102276,-0.310385547746632
-0.52660160298638,-0.308558503761864
-0.531596876466339,-0.306708766216734
-0.536531342592554,-0.304836530816644
-0.541405159415423,-0.302941993266996
-0.546218484985345,-0.301025349273195
-0.55097147735272,-0.299086794540641
-0.555664294567946,-0.29712652477474
-0.560297094681422,-0.295144735680893
-0.564870035743548,-0.293141622964503
-0.569383275804723,-0.291117382330973
-0.573836972915345,-0.289072209485706
-0.578231285125813,-0.287006300134106
-0.582566370486528,-0.284919849981574
-0.586842387047887,-0.282813054733514
-0.591059492860291,-0.280686110095329
-0.595217845974137,-0.278539211772422
-0.599317604439825,-0.276372555470195
-0.603358926307754,-0.274186336894051
-0.607341969628324,-0.271980751749394
-0.611266892451932,-0.269755995741626
-0.615133852828979,-0.267512264576149
-0.618943008809863,-0.265249753958369
-0.622694518444984,-0.262968659593685
-0.62638853978474,-0.260669177187503
-0.630025230879531,-0.258351502445224
-0.633604749779755,-0.256015831072252
-0.637127254535812,-0.25366235877399
-0.6405929031981,-0.25129128125584
-0.64400185381702,-0.248902794223205
-0.647354264442969,-0.246497093381488
-0.650650293126347,-0.244074374436093
-0.653890097917553,-0.241634833092421
-0.657073836866986,-0.239178665055876
-0.660201668025045,-0.236706066031861
-0.663273749442129,-0.234217231725779
-0.666290239168638,-0.231712357843032
-0.66925129525497,-0.229191640089024
-0.672157075751524,-0.226655274169157
-0.675007738708699,-0.224103455788834
-0.677803442176895,-0.221536380653459
-0.680544344206511,-0.218954244468433
-0.683230602847945,-0.216357242939161
-0.685862376151597,-0.213745571771044
-0.688439822167865,-0.211119426669486
-0.690963098947149,-0.20847900333989
-0.693432364539849,-0.205824497487658
-0.695847776996362,-0.203156104818194
-0.698209494367088,-0.2004740210369
-0.700517674702426,-0.19777844184918
-0.702772476052775,-0.195069562960435
-0.704974056468534,-0.19234758007607
-0.707122574000103,-0.189612688901486
-0.709218186697879,-0.186865085142088
-0.711261052612264,-0.184104964503277
-0.713251329793654,-0.181332522690457
-0.71518917629245,-0.17854795540903
-0.717074750159051,-0.1757514583644
-0.718908209443855,-0.172943227261969
-0.720689712197262,-0.17012345780714
-0.722419416469671,-0.167292345705316
-0.72409748031148,-0.164450086661901
-0.725724061773089,-0.161596876382296
-0.727299318904898,-0.158732910571905
-0.728823409757304,-0.155858384936131
-0.730296492380707,-0.152973495180377
-0.731718724825506,-0.150078437010045
-0.733090265142101,-0.147173406130538
-0.73441127138089,-0.14425859824726
-0.735681901592272,-0.141334209065613
-0.736902313826646,-0.138400434291
-0.738072666134412,-0.135457469628824
-0.739193116565968,-0.132505510784488
-0.740263823171714,-0.129544753463395
-0.741284944002049,-0.126575393370947
-0.742256637107371,-0.123597626212549
-0.74317906053808,-0.120611647693601
-0.744052372344574,-0.117617653519508
-0.744876730577254,-0.114615839395672
-0.745652293286518,-0.111606401027497
-0.746379218522764,-0.108589534120384
-0.747057664336393,-0.105565434379738
-0.747687788777802,-0.10253429751096
-0.748269749897392,-0.0994963192194548
-0.748803705745561,-0.0964516952106237
-0.749289814372709,-0.0934006211898701
-0.749728233829234,-0.0903432928625971
-0.750119122165535,-0.0872799059342075
-0.750462637432012,-0.0842106561101041
-0.750758937679063,-0.0811357390956899
-0.751008180957088,-0.0780553505963678
-0.751210525316486,-0.0749696863175407
-0.751366128807655,-0.0718789419646114
-0.751475149480995,-0.0687833132429828
-0.751537745386905,-0.065682995858058
-0.751554074575785,-0.0625781855152398
-0.751524295098032,-0.0594690779199309
-0.751448565004045,-0.0563558687775345
-0.751327042344226,-0.0532387537934533
-0.751159885168972,-0.0501179286730903
-0.750947251528681,-0.0469935891218483
-0.750689299473754,-0.0438659308451302
-0.75038618705459,-0.040735149548339
-0.750038072321587,-0.0376014409368776
-0.749645113325144,-0.0344650007161488
-0.749207468115661,-0.0313260245915555
-0.748725294743537,-0.0281847082685008
-0.74819875125917,-0.0250412474523874
-0.74762799571296,-0.0218958378486181
-0.747013186155306,-0.018748675162596
-0.746354480636607,-0.015599955099724
-0.745652037207261,-0.0124498733654049
-0.744906013917669,-0.00929862566504161
-0.744116568818229,-0.00614640770403706
-0.74328385995934,-0.00299341518779421
-0.742408045391401,0.000160156178284188
-0.741489283164812,0.00331411068879518
-0.74052773132997,0.00646825263833579
-0.739523547937277,0.00962238632150321
-0.738476891037129,0.0127763160328945
-0.737387918679927,0.0159298460671067
-0.73625678891607,0.0190827807187371
-0.735083659795957,0.0222349242823826
-0.733868689369986,0.0253860810526405
-0.732612035688557,0.0285360553241077
-0.731313856802068,0.0316846513913814
-0.72997431076092,0.0348316735490587
-0.728593555615511,0.0379769260917367
-0.72717174941624,0.0411202133140125
-0.725709050213505,0.0442613395104833
-0.724205616057707,0.0474001089757459
-0.722661604999244,0.0505363260043976
-0.721077175088516,0.0536697948910357
-0.71945248437592,0.056800319930257
-0.717787690911858,0.0599277054166587
-0.716082952746726,0.0630517556448379
-0.714338427930925,0.0661722749093917
-0.712554274514854,0.0692890675049173
-0.710730650548911,0.0724019377260116
-0.708867714083497,0.0755106898672719
-0.706965623169009,0.0786151282232952
-0.705024535855846,0.0817150570886786
-0.703044610194409,0.0848102807580192
-0.701026004235096,0.0879006035259142
-0.698968876028305,0.0909858296869605
-0.696873383624437,0.0940657635357554
-0.69473968507389,0.097140209366896
-0.692567938427064,0.100208971474979
-0.690358301734356,0.103271854154602
-0.688110933046167,0.106328661700362
-0.685825990412895,0.109379198406856
-0.68350363188494,0.112423268568682
-0.6811440155127,0.115460676480435
-0.678747299346575,0.118491226436714
-0.676313641436964,0.121514722732115
-0.673843199834265,0.124530969661236
-0.671336132588878,0.127539771518673
-0.668792597751202,0.130540932599025
-0.666212753371636,0.133534257196886
-0.663596757500579,0.136519549606857
-0.66094476818843,0.139496614123531
-0.658256943485588,0.142465255041509
-0.655533441442453,0.145425276655385
-0.652774420109422,0.148376483259758
-0.649980037536896,0.151318679149224
-0.647150451775273,0.154251668618381
-0.644285820874953,0.157175255961825
-0.641386302886334,0.160089245474155
-0.638452055859815,0.162993441449966
-0.635483237845796,0.165887648183856
-0.632480006894676,0.168771669970422
-0.629442521056854,0.171645311104262
-0.626370938382729,0.174508375879971
-0.623265416922699,0.177360668592148
-0.620126114727164,0.18020199353539
-0.616953189846524,0.183032155004293
-0.613746800331176,0.185850957293454
-0.610507104231521,0.188658204697472
-0.607234259597956,0.191453701510942
-0.603928424480882,0.194237252028463
-0.600589756930698,0.19700866054463
-0.597218414997801,0.199767731354042
-0.593814556732592,0.202514268751295
-0.59037834018547,0.205248077030986
-0.586909923406833,0.207968960487713
-0.583409464447081,0.210676723416073
-0.579877121356612,0.213371170110662
-0.576313052185827,0.216052104866078
-0.572717414985123,0.218719331976918
-0.5690903678049,0.221372655737779
-0.565432068695557,0.224011880443258
-0.561742675707492,0.226636810387952
-0.558022346891107,0.229247249866458
-0.554271240296798,0.231843003173374
-0.550489513974965,0.234423874603297
-0.546677325976007,0.236989668450823
-0.542834834350324,0.23954018901055
-0.538962197148315,0.242075240577074
-0.535059572420377,0.244594627444994
-0.531127118216912,0.247098153908905
-0.527164992588317,0.249585624263406
-0.523173353584991,0.252056842803093
-0.519152359257334,0.254511613822563
-0.515102167655745,0.256949741616414
-0.511022936830623,0.259371030479242
-0.506914824832367,0.261775284705645
-0.502777989711375,0.26416230859022
-0.498612589518048,0.266531906427563
-0.494418782302784,0.268883882512272
-0.490196726115982,0.271218041138945
-0.485946579008041,0.273534186602177
-0.48166849902936,0.275832123196567
-0.477362644230339,0.278111655216711
-0.473029172661376,0.280372586957207
-0.468668242372871,0.282614722712651
-0.464280011415222,0.284837866777641
-0.459864637838829,0.287041823446773
-0.45542227969409,0.289226397014646
-0.450953095031405,0.291391391775855
-0.446457241901173,0.293536612024999
-0.441934878353793,0.295661862056673
-0.437386162439663,0.297766946165476
-0.432811252209184,0.299851668646005
-0.428210305712753,0.301915833792855
-0.423583481000771,0.303959245900626
-0.418930936123636,0.305981709263912
-0.414252829131747,0.307983028177313
-0.409549318075504,0.309963006935425
-0.404820561005305,0.311921449832844
-0.400066715971549,0.313858161164169
-0.395287941024635,0.315772945223996
-0.390484394214963,0.317665606306922
-0.385656233592932,0.319535948707545
-0.380803617208941,0.321383776720461
-0.375926703113388,0.323208894640267
-0.371025649356673,0.325011106761561
-0.366100613989195,0.326790217378941
-0.361151755061352,0.328546030787002
-0.356179230623545,0.330278351280341
-0.351183198726172,0.331986983153558
-0.346163817419632,0.333671730701247
-0.341121244754324,0.335332398218006
-0.336055638780647,0.336968789998433
-0.330967157549001,0.338580710337125
-0.325855959109784,0.340167963528678
-0.320722201513395,0.34173035386769
-0.315566042810234,0.343267685648757
-0.310387641050699,0.344779763166478
-0.30518715428519,0.346266390715448
-0.299964740564106,0.347727372590266
-0.294720557937845,0.349162513085528
-0.289454764456807,0.350571616495831
-0.284167518171392,0.351954487115773
-0.278858977131996,0.35331092923995
-0.273529299389022,0.354640747162959
-0.268178642992865,0.355943745179399
-0.262807165993928,0.357219727583865
-0.257415026442607,0.358468498670956
-0.252002382389303,0.359689862735267
-0.246569391884414,0.360883624071396
-0.241116212978339,0.362049586973941
-0.235643003721478,0.363187555737498
-0.230149922164229,0.364297334656664
-0.224637126356992,0.365378728026037
-0.219104774350165,0.366431540140214
-0.213553024194148,0.367455575293791
-0.20798203393934,0.368450637781366
-0.20239196163614,0.369416531897537
-0.196782965334946,0.370353061936899
-0.191155203086159,0.37126003219405
-0.185508832940176,0.372137246963588
-0.179844012947398,0.372984510540109
-0.174160901158222,0.37380162721821
-0.168459655623049,0.374588401292489
-0.162740434392277,0.375344637057543
-0.157003395516306,0.376070138807968
-0.151248697045534,0.376764710838362
-0.14547649703036,0.377428157443323
-0.139686953521184,0.378060282917446
-0.133880224568404,0.378660891555329
-0.12805646822242,0.37922978765157
-0.122215842533631,0.379766775500765
-0.116358505552435,0.380271659397512
-0.110484615329232,0.380744243636407
-0.104594329914422,0.381184332512048
-0.0986878073584017,0.381591730319031
-0.0927652057115719,0.381966241351955
-0.086826683024331,0.382307669905416
-0.0808723973470785,0.38261582027401
-0.074902506730213,0.382890496752336
-0.0689171692241339,0.38313150363499
-0.0629165428792399,0.383338645216569
-0.0569007857459306,0.383511725791671
-0.0508700558746045,0.383650549654893
-0.0448245113156612,0.383754921100831
-0.0387643101194991,0.383824644424083
-0.032689610336518,0.383859523919246
-0.0266005700171164,0.383859363880917
-0.0204973472116937,0.383823968603693
-0.0143800999706487,0.383753142382171
-0.00824898634438075,0.383646689510949
-0.00210416438328856,0.383504414284623
0.00405420786222838,0.383326120997791
0.0102259723417714,0.383111613945049
0.0164109710049411,0.382860697420994
0.0226090458013388,0.382573175720225
0.0288200386805649,0.382248853137338
0.035043791592221,0.381887533966929
0.0412801464859074,0.381489022503597
0.0475289453112256,0.381053123041938
0.0537900300177761,0.380579639876549
0.0600632425551602,0.380068377302028
0.0663484248729784,0.379519139612971
0.0726454189208321,0.378931731103976
0.0789540666483217,0.37830595606964
0.0852742100050488,0.377641618804559
0.0916056909406137,0.376938523603331
0.0979483514046179,0.376196474760554
0.104302033346662,0.375415276570823
0.110666578716347,0.374594733328737
0.117041829463273,0.373734649328892
0.123427627537043,0.372834828865886
0.129823814887256,0.371895076234315
0.136230233463514,0.370915195728777
0.142646725215418,0.369894991643868
0.149073132092568,0.368834268274187
0.155509296044565,0.367732829914329
0.161955059021011,0.366590480858892
0.168410262971506,0.365407025402474
0.174874749845652,0.364182267839671
0.181348361593048,0.36291601246508
0.187830940163297,0.361608063573299
0.194322327505999,0.360258225458924
0.200822365570755,0.358866302416553
0.207330896307166,0.357432098740782
0.213847761664832,0.35595541872621
0.220372803593356,0.354436066667432
0.226905864042337,0.352873846859047
0.233446784961377,0.351268563595651
0.239995408300077,0.349620021171841
0.246551576008037,0.347928023882214
0.253115130034859,0.346192376021368
0.259685912330143,0.3444128818839
0.266263764843491,0.342589345764406
0.272848529524502,0.340721571957484
0.27944004832278,0.338809364757731
0.286038163187923,0.336852528459744
0.292642716069533,0.334850867358119
0.299253548917212,0.332804185747456
0.30587050368056,0.330712287922349
0.312493422309177,0.328574978177397
0.319122146752665,0.326392060807196
0.325756518960625,0.324163340106344
0.332396380882658,0.321888620369438
0.332396380882658,0.321888620369438
0.33899326997898,0.319608785366038
0.345499076796418,0.317364653655017
0.351914172914486,0.315155931714941
0.358238929912701,0.312982326024374
0.364473719370579,0.310843543061882
0.370618912867635,0.308739289306031
0.376674881983386,0.306669271235384
0.382641998297347,0.304633195328508
0.388520633389034,0.302630768063968
0.394311158837963,0.300661695920329
0.400013946223649,0.298725685376156
0.405629367125609,0.296822442910014
0.411157793123358,0.294951675000469
0.416599595796412,0.293113088126086
0.421955146724288,0.29130638876543
0.4272248174865,0.289531283397066
0.432408979662564,0.28778747849956
0.437508004831997,0.286074680551477
0.442522264574314,0.284392596031381
0.447452130469031,0.282740931417839
0.452297974095665,0.281119393189415
0.457060167033729,0.279527687824674
0.461739080862742,0.277965521802183
0.466335087162217,0.276432601600505
0.470848557511672,0.274928633698207
0.475279863490621,0.273453324573853
0.479629376678582,0.272006380706009
0.483897468655069,0.27058750857324
0.488084510999599,0.269196414654111
0.492190875291686,0.267832805427188
0.496216933110848,0.266496387371035
0.5001630560366,0.265186866964218
0.504029615648457,0.263903950685302
0.507816983525936,0.262647345012852
0.511525531248553,0.261416756425433
0.515155630395822,0.260211891401612
0.518707652547261,0.259032456419952
0.522181969282384,0.25787815795902
0.525578952180708,0.25674870249738
0.528898972821749,0.255643796513597
0.532142402785021,0.254563146486237
0.535309613650042,0.253506458893866
0.538400976996327,0.252473440215047
0.541416864403392,0.251463796928347
0.544357647450752,0.250477235512331
0.547223697717923,0.249513462445564
0.550015386784422,0.24857218420661
0.552733086229764,0.247653107274036
0.555377167633465,0.246755938126407
0.55794800257504,0.245880383242288
0.560445962634006,0.245026149100243
0.562871419389878,0.244192942178839
0.565224744422173,0.24338046895664
0.567506309310405,0.242588435912212
0.569716485634091,0.24181654952412
0.571855644972747,0.241064516270929
0.573924158905888,0.240332042631204
0.575922399013031,0.239618835083511
0.57785073687369,0.238924600106414
0.579709544067383,0.23824904417848
0.581499192173624,0.237591873778273
0.583220052771929,0.236952795384358
0.584872497441815,0.236331515475301
0.586456897762798,0.235727740529667
0.587973625314392,0.235141177026021
0.589423051676114,0.234571531442928
0.59080554842748,0.234018510258954
0.592121487148005,0.233481819952664
0.593371239417206,0.232961167002622
0.594555176814597,0.232456257887395
0.595673670919696,0.231966799085547
0.596727093312017,0.231492497075644
0.597715815571077,0.231033058336251
0.598640209276392,0.230588189345933
0.599500646007476,0.230157596583255
0.600297497343847,0.229740986526783
0.601031134865019,0.229338065655081
0.601701930150509,0.228948540446716
0.602310254779833,0.228572117380252
0.602856480332506,0.228208502934254
0.603340978388044,0.227857403587287
0.603764120525963,0.227518525817918
0.604126278325779,0.227191576104711
0.604427823367008,0.226876260926231
0.604669127229165,0.226572286761043
0.604850561491766,0.226279360087714
0.604972497734327,0.225997187384807
0.605035307536365,0.225725475130888
0.605039362477394,0.225463929804523
0.60498503413693,0.225212257884277
0.60487269409449,0.224970165848714
0.604702713929589,0.2247373601764
0.604475465221744,0.224513547345901
0.604191319550468,0.224298433835781
0.60385064849528,0.224091726124606
0.603453823635694,0.223893130690941
0.603001216551227,0.223702354013351
0.602493198821393,0.223519102570402
0.60193014202571,0.223343082840658
0.601312417743692,0.223174001302685
0.600640397554856,0.223011564435048
0.599914453038717,0.222855478716312
0.599134955774791,0.222705450625043
0.598302277342595,0.222561186639805
0.597416789321644,0.222422393239165
0.596478863291453,0.222288776901686
0.595488870831538,0.222160044105935
0.594447183521416,0.222035901330477
0.593354172940602,0.221916055053876
0.592210210668612,0.221800211754699
0.591015668284962,0.221688077911509
0.589770917369168,0.221579360002874
0.588476329500745,0.221473764507357
0.587132276259209,0.221370997903523
0.585739129224076,0.221270766669939
0.584297259974863,0.22117277728517
0.582807040091084,0.22107673622778
0.581268841152255,0.220982349976334
0.579683034737893,0.220889325009399
0.578049992427513,0.220797367805539
0.576370085800631,0.22070618484332
0.574643686436763,0.220615482601306
0.572871165915425,0.220524967558063
0.571052895816132,0.220434346192157
0.569189247718401,0.220343324982151
0.567280593201746,0.220251610406612
0.565327303845684,0.220158908944105
0.563329751229732,0.220064927073196
0.561288306933404,0.219969371272448
0.559203342536216,0.219871948020428
0.557075229617684,0.2197723637957
0.554904339757325,0.21967032507683
0.552691044534654,0.219565538342384
0.550435715529186,0.219457710070926
0.548138724320437,0.219346546741021
0.545800442487924,0.219231754831235
0.543421241611163,0.219113040820133
0.541001493269668,0.218990111186281
0.538541569042956,0.218862672408243
0.536041840510542,0.218730430964584
0.533502679251944,0.218593093333871
0.530924456846675,0.218450365994667
0.528307544874252,0.218301955425539
0.525652314914192,0.218147568105052
0.522959138546009,0.21798691051177
0.520228387349219,0.217819689124259
0.517460432903339,0.217645610421084
0.514655646787885,0.217464380880811
0.511814400582371,0.217275706982005
0.508937065866314,0.21707929520323
0.50602401421923,0.216874852023053
0.503075617220634,0.216662083920037
0.500092246450043,0.21644069737275
0.497074273486971,0.216210398859755
0.494022069910936,0.215970894859618
0.490936007301452,0.215721891850904
0.487816457238037,0.215463096312179
0.484663791300204,0.215194214722007
0.48147838106747,0.214914953558955
0.478260598119352,0.214625019301586
0.475010814035365,0.214324118428467
0.471729400395024,0.214011957418162
0.468416728777846,0.213688242749237
0.465073170763347,0.213352680900257
0.461699097931041,0.213004978349787
0.458294881860445,0.212644841576392
0.454860894131075,0.212271977058638
0.451397506322447,0.21188609127509
0.447905090014077,0.211486890704313
0.444384016785479,0.211074081824873
0.440834658216171,0.210647371115333
0.437257385885667,0.210206465054261
0.433652571373485,0.209751070120221
0.430020586259139,0.209280892791777
0.426361802122145,0.208795639547496
0.42267659054202,0.208295016865943
0.418965323098278,0.207778731225683
0.415228371370436,0.20724648910528
0.41146610693801,0.206697996983301
0.407678901380516,0.206132961338311
0.403867126277469,0.205551088648874
0.400031153208385,0.204952085393556
0.39617135375278,0.204335658050922
0.39228809949017,0.203701513099538
0.38838176200007,0.203049357017968
0.384452712861997,0.202378896284778
0.380501323655466,0.201689837378533
0.376527965959993,0.200981886777799
0.372533011355094,0.20025475096114
0.368516831420285,0.199508136407121
0.364479797735081,0.198741749594309
0.360422281878998,0.197955297001268
0.356344655431553,0.197148485106563
0.352247289972261,0.196321020388759
0.348130557080637,0.195472609326423
0.343994828336199,0.194602958398118
0.33984047531846,0.193711774082411
0.335667869606938,0.192798762857867
0.331477382781148,0.191863631203049
0.327269386420606,0.190906085596525
0.323044252104828,0.189925832516859
0.318802351413329,0.188922578442617
0.314544055925626,0.187896029852363
0.310269737221234,0.186845893224662
0.305979766879669,0.185771875038081
0.301674516480447,0.184673681771184
0.297354357603083,0.183551019902537
0.293019661827094,0.182403595910704
0.288670800731995,0.181231116274251
0.284308145897303,0.180033287471743
0.279932068902532,0.178809815981746
0.275542941327199,0.177560408282824
0.27114113475082,0.176284770853543
0.26672702075291,0.174982610172468
0.262300970912986,0.173653632718164
0.257863356810562,0.172297544969197
0.253414550025156,0.170914053404131
0.248954922136282,0.169502864501532
0.244484844723456,0.168063684739965
0.240004689366196,0.166596220597996
0.235514827644015,0.165100178554189
0.23101563113643,0.16357526508711
0.226507471422957,0.162021186675324
0.221990720083112,0.160437649797396
0.21746574869641,0.158824360931892
0.212932928842367,0.157181026557376
0.2083926321005,0.155507353152415
0.203845230050323,0.153803047195572
0.199291094271353,0.152067815165413
0.194730596343106,0.150301363540505
0.190164107845098,0.14850339879941
0.185592000356843,0.146673627420696
0.181014645457858,0.144811755882927
0.17643241472766,0.142917490664669
0.171845679745763,0.140990538244486
0.167254812091683,0.139030605100944
0.162660183344937,0.137037397712608
0.15806216508504,0.135010622558044
0.153461128891508,0.132949986115816
0.148857446343857,0.130855194864489
0.144251489021602,0.12872595528263
0.13964362850426,0.126561973848803
0.135034236371346,0.124362957041573
0.130423684202376,0.122128611339506
0.125812343576866,0.119858643221167
0.121200586074332,0.117552759165121
0.116588783274289,0.115210665649933
0.111977306756254,0.112832069154169
0.107366528099742,0.110416676156393
0.102756818884269,0.107964193135172
0.0981485506893502,0.105474326569069
0.0935420950945027,0.102946782936651
0.0889378236792414,0.100381268716483
0.0843361080230825,0.0977774903871293
0.0797373197055416,0.0951351544271557
0.0751418303061349,0.0924539673151276
0.0705500114043777,0.0897336355296098
0.0659622345797862,0.0869738655491679
0.061378871411876,0.0841743638523668
0.0568002934801632,0.081334836917772
0.0522268723641633,0.0784549912239485
0.0476589796433924,0.0755345332494617
0.043096986897366,0.0725731694728766
0.0385412657056003,0.0695706063727586
0.0339921876476107,0.0665265504276729
0.0294501243029135,0.0634407081161848
0.024915447251024,0.0603127859168592
0.0203885280714586,0.0571424903082616
0.0158697383437326,0.0539295277689572
0.0113594496473622,0.0506736047775112
0.00685803356186288,0.0473744278124888
0.00236586166675085,0.0440317033524552
-0.00211669445845852,0.0406451378759756
-0.00658926323424894,0.0372144378616153
-0.011051473081105,0.0337393097879394
-0.0155029524195105,0.0302194601335133
-0.01994332966995,0.026654595376902
-0.0243722332529074,0.023044421996671
-0.028789291588867,0.0193886464713852
-0.0331941330983128,0.0156869752796102
-0.0375863862017294,0.0119391148999108
-0.0419656793196004,0.00814477181085257
-0.0463316408724106,0.00430365249100043
-0.0506838992806435,0.000415463418919917
-0.0550220829647839,-0.00352008892682405
-0.0593458203453156,-0.00750329806766596
-0.063654739842723,-0.0115344575250409
-0.06794846987749,-0.0156138608203833
-0.0722266388701011,-0.0197418014751283
-0.0764888752410402,-0.0239185730107103
-0.0807348074107918,-0.0281444689485646
-0.0849640637998397,-0.0324197828101254
-0.0891762728286684,-0.0367448081168279
-0.0933710629177618,-0.0411198383901066
-0.0975480624876044,-0.0455451671513965
-0.10170689995868,-0.0500210879221322
-0.105847203751473,-0.0545478942237486
-0.109968602286468,-0.0591258795776804
-0.114070723984148,-0.0637553375053626
-0.118153197264998,-0.0684365615282295
-0.122215650549503,-0.0731698451677165
-0.126257712258145,-0.0779554819452578
-0.130279010811411,-0.0827937653822886
-0.134279174629782,-0.0876849890002434
-0.138257832133745,-0.0926294463205572
-0.142214611743782,-0.0976274308646645
-0.146149141880379,-0.102679236154001
-0.150061050964019,-0.10778515571
-0.153949967415187,-0.112945483054097
-0.157815519654366,-0.118160511707727
-0.161657336102041,-0.123430535192324
-0.165475045178696,-0.128755847029324
-0.169268275304816,-0.134136740740161
-0.173036654900883,-0.13957350984627
-0.176779812387384,-0.145066447869085
-0.180497376184801,-0.150615848330042
-0.184188974713619,-0.156222004750576
-0.187854236394322,-0.16188521065212
-0.191492789647395,-0.16760575955611
-0.195104262893321,-0.173383944983981
-0.198688284552585,-0.179220060457167
-0.20224448304567,-0.185114399497103
-0.205772486793062,-0.191067255625224
-0.209271924215243,-0.197078922362965
-0.212742423732699,-0.20314969323176
-0.216183613765914,-0.209279861753045
-0.219595122735371,-0.215469721448253
-0.222976579061556,-0.221719565838821
-0.226327611164951,-0.228029688446182
-0.229647847466042,-0.234400382791771
-0.232936916385312,-0.240831942397024
-0.236194446343246,-0.247324660783374
-0.239420065760327,-0.253878831472257
-0.242613403057041,-0.260494747985108
-0.24577408665387,-0.267172703843361
-0.2489017449713,-0.273912992568451
-0.251996006429815,-0.280715907681813
-0.255056499449898,-0.287581742704881
-0.258082852452034,-0.294510791159091
-0.261074693856707,-0.301503346565877
-0.264031652084401,-0.308559702446674
-0.266953355555601,-0.315680152322916
-0.26983943269079,-0.32286498971604
-0.272689511910454,-0.330114508147478
-0.275503221635075,-0.337429001138667
-0.278280190285138,-0.34480876221104
-0.281020046281127,-0.352254084886033
-0.283722418043527,-0.35976526268508
-0.286386933992822,-0.367342589129617
-0.289013222549495,-0.374986357741077
-0.291600912134032,-0.382696862040896
-0.294149631166915,-0.390474395550509
-0.29665900806863,-0.39831925179135
-0.299128671259661,-0.406231724284854
-0.301558249160491,-0.414212106552456
-0.303947370191605,-0.422260692115591
-0.306295662773487,-0.430377774495693
-0.308602755326622,-0.438563647214197
-0.310868276271493,-0.446818603792538
-0.313091854028584,-0.455142937752151
-0.315273117018381,-0.463536942614471
-0.317411693661366,-0.472000911900931
-0.319507212378025,-0.480535139132969
-0.32155930158884,-0.489139917832016
-0.323567589714298,-0.49781554151951
-0.325531705174881,-0.506562303716883
-0.327451276391074,-0.515380497945572
-0.329325931783361,-0.524270417727011
-0.331155299772226,-0.533232356582635
-0.332939008778153,-0.542266608033878
-0.334676687221627,-0.551373465602176
-0.336367963523132,-0.560553222808963
-0.338012466103152,-0.569806173175673
-0.339609823382171,-0.579132610223743
-0.341159663780673,-0.588532827474605
-0.342661615719143,-0.598007118449696
-0.344115307618064,-0.60755577667045
-0.345520367897922,-0.617179095658302
-0.346876424979199,-0.626877368934686
-0.34818310728238,-0.636650890021038
-0.34944004322795,-0.646499952438791
-0.350646861236392,-0.656424849709382
-0.351803189728191,-0.666425875354244
-0.352908657123831,-0.676503322894813
-0.353962891843796,-0.686657485852523
-0.35496552230857,-0.696888657748809
-0.355916176938638,-0.707197132105106
-0.356814484154483,-0.717583202442848
-0.35766007237659,-0.728047162283471
-0.358452570025443,-0.738589305148408
-0.359191605521527,-0.749209924559096
-0.359876807285324,-0.759909314036968
-0.36050780373732,-0.77068776710346
-0.361084223297999,-0.781545577280006
-0.361605694387844,-0.792483038088042
-0.362071845427341,-0.803500443049
-0.362482304836973,-0.814598085684318
-0.362836701037224,-0.825776259515429
-0.363134662448579,-0.837035258063768
