-0.50736949848004,-0.221931875454409
-0.482986859278255,-0.182159078405518
-0.483995832334829,-0.168252113571631
-0.519596589661912,-0.15669396163611
-0.486690039885574,-0.147521520047399
-0.384848169623366,-0.0838276446130699
-0.473304742580433,-0.146909111945263
-0.463913683320012,-0.145353586522028
-0.45851529403944,-0.140724265521654
-0.462991504931709,-0.171698535600666
-0.430881196932508,-0.129581045630807
-0.447778828750938,-0.123065456747768
-0.424582261560277,-0.147922783741902
-0.326526776190611,-0.00847425356585814
-0.411234461178504,-0.0850219540474371
-0.433232080330047,-0.0886282615275072
-0.420447917559979,-0.121992246603595
-0.436810348699902,-0.108310590025254
-0.425179915425005,-0.112805765581076
-0.441177027042257,-0.101309204518567
-0.443298498272056,-0.105811914970635
-0.410209362642443,-0.079990266488908
-0.407224771791399,-0.059064051369254
-0.39270032517436,-0.0652063305237188
-0.314127224997035,-0.0282989304744491
-0.411777192160145,-0.0625199785476671
-0.410761989757352,-0.0287274910997418
-0.388997188354438,-0.0565881850077524
-0.387276783140728,-0.0539831528281565
-0.382070650070177,-0.0506645222455137
-0.391012824603572,-0.0440187026421425
-0.37529109466733,-0.0440183122303914
-0.371938668978571,-0.0407956905205443
-0.368610922474407,-0.0376394999524109
-0.376795650335789,-0.00349341780731319
-0.319009999638271,-0.0383552015607131
-0.358774091890636,-0.0285653321725741
-0.355543395946001,-0.0256706832455771
-0.352336546096535,-0.0228403739974347
-0.349153375724352,-0.0200739861355751
-0.361559922663285,-0.0376880339581859
-0.350743194198971,-0.0132555872974387
-0.372357896464262,0.00585935320926821
-0.336654156650754,-0.0096392826995288
-0.361069020258972,0.0507686182880895
-0.330542291912639,-0.0047945836923357
-0.352378291581118,-0.026494440521314
-0.434290406497951,-0.0993460010741172
-0.21400050421558,0.122254664039758
-0.420687884122591,-0.116187796843533
-0.315653694415873,0.00625710052575019
-0.312741681576041,0.00828905857281661
-0.322074548212293,0.0323318027481065
-0.306982029612817,0.012177942210973
-0.304134057253653,0.0140357043872067
-0.301307098485608,0.0158362378583063
-0.286137862072634,0.0404034078775676
-0.269279093861138,0.0535425087552354
-0.292950637549334,0.0208986489665194
-0.28721208901489,0.0116792126016424
-0.287481676886182,0.0239951148768079
-0.28321631425794,0.0535873817057613
-0.283708572315824,0.0226541304005077
-0.276854989290855,0.0120251263126709
-0.228533215800207,-0.00363253238298062
-0.257649300020843,-0.00560726052706417
-0.293097559229077,0.0619926802501106
-0.26896200446609,0.0331310590071872
-0.258809436021985,0.0449045473341295
-0.281394724197352,0.0314197365615568
-0.272453896375399,0.0728680828641959
-0.258797646394646,0.037202996236269
-0.258321226532784,0.0124813451681458
-0.266048745864759,0.0531197527115669
-0.251365862417883,0.0397292489542389
-0.257209589757005,0.0587230993857221
-0.268840180547065,0.00653092895762156
-0.244093209541834,0.0418157359889272
-0.206298828802059,0.0416610287688359
-0.254341172397614,0.0367685480016117
-0.236975189083597,0.0434737512397726
-0.215162316397189,0.0346991392163739
-0.260942766535415,0.0201498046734435
-0.262639513534688,0.069891862622084
-0.251773525948474,0.00266495028923874
-0.228896240700479,0.0349059380864577
-0.235330863132694,0.091386527549066
-0.258198287895417,0.0546642244002459
-0.218715569698485,0.0458862637068716
-0.200996810213589,0.0421301044274125
-0.301346719485906,-0.0736529450081339
-0.304537145911784,-0.10345163272879
-0.328395126325603,-0.0653774659095276
-0.122156996601706,0.15558271112755
-0.1037313703099,0.163192012923609
-0.200575304092472,0.0306324439555818
-0.306375314353216,-0.0715926559007067
-0.209289344972328,0.0256335423778286
-0.197262420865643,0.0450563936527079
-0.105087167401262,0.193556436776726
-0.193569770474316,0.0522047704691558
-0.196999393427776,0.0433644646286654
-0.202149706247926,0.0155799640323753
-0.187059350223259,0.0431594216408368
-0.18505795051054,0.0426681569608282
-0.344398385151055,-0.0287078030419687
-0.197811436673378,0.0408622445718649
-0.187419404595932,0.0582059514409526
-0.173238280968844,0.0343172953497679
-0.175237860042046,0.0396754882640631
-0.14430001749242,0.0747168245791395
-0.183348968632758,0.0223553962678729
-0.053791634980419,0.152752502626239
-0.167596080308251,0.0366628365048921
-0.142196051072581,0.028854811437685
-0.163842955728211,0.0349595407946332
-0.161982751597306,0.0340601145058368
-0.158488523629859,0.0349922771379186
-0.158294226564302,0.0321677965237688
-0.156465572426431,0.0311757414156409
-0.130663688395467,-0.00565154512294832
-0.197056548399425,0.0360892939404344
-0.159516217376025,0.0122767442051918
-0.128973957439588,0.0188364781915408
-0.147471720807985,0.0257732364069344
-0.14570166797328,0.0246072175595823
-0.16104950110518,0.0138248832171303
-0.142188946849771,0.0221930083598417
-0.140445945325196,0.0209456545925968
-0.117422643134679,0.0366435998757388
-0.129686504815776,0.00279647951828581
-0.124389210561544,0.0462652582922173
-0.154360153454084,0.0317905559387763
-0.122765822365083,0.0231056735459968
-0.247937579052043,-0.0803979708118667
-0.104049420160314,0.0224780522738601
-0.141821791499032,0.0040916683095329
-0.136427573026879,-0.00870898100006335
-0.114483446694304,-0.0252090115596763
-0.121809407882134,0.00558263390053548
-0.10385563368625,0.00342604190923883
-0.118516508547662,0.0024912841258686
-0.116879918942015,0.000914144215168326
-0.134094524672756,0.0167343055034517
-0.214374569938189,-0.108906565099396
-0.109794585057469,0.0215878477118279
-0.0994901309043968,-0.00277480320507026
-0.108788906814254,-0.00726947386912829
-0.103744267985588,-0.0175704047947561
-0.105592295182846,-0.0106741416225446
-0.122478589036338,-0.0297747374103067
-0.100811306721756,-0.00749577165405852
-0.10852535368245,0.00203396132110076
-0.0992599576811287,-0.0176900217185566
-0.0996149101896883,-0.0429442104602626
-0.0653093827176409,-0.0387437189805669
-0.0945587311324142,-0.023119482090086
-0.0929999149069923,-0.0249589856629786
-0.0914449506305029,-0.0268126338061096
-0.0898936716850608,-0.0286800082269073
-0.0764039484111525,-0.0254680810666516
0.0572754868925005,0.0636733804031299
0.031805979909384,0.0764958973773815
-0.0658742407155534,-0.0539107981345474
-0.0687523637331049,-0.035057906165347
-0.206542029252259,-0.127501796731279
-0.0796797240825539,-0.0146003917956287
-0.0516383681824062,-0.0352458239846397
-0.0609451096385377,-0.017265046920365
-0.0745469195034749,-0.048016673340751
-0.0730251824191231,-0.0500074295061424
-0.071505131251195,-0.0520068924383389
-0.0769661903162173,-0.0789447227582906
-0.0478511063832265,-0.0483753337194818
-0.0648620436245413,-0.0955886183220726
-0.121228459768759,-0.0674507841851577
0.0433275542922499,0.0512914975277916
-0.179775043188686,-0.135844844645145
-0.0608979828331951,-0.0662117858582225
-0.0663203762316937,-0.0775424143804652
-0.136095351833598,-0.128511893824036
-0.0563606890404484,-0.0723883695687816
-0.0627111307918566,-0.0640648744909058
-0.0533353698068527,-0.0765273169393499
-0.0518220733248696,-0.0786019032159773
-0.0503081301089159,-0.0806793401634044
-0.0151565802175568,-0.0757979056819181
-0.00827907739934629,-0.103401775434566
-0.0457607538783782,-0.0869245721047665
-0.0645501275821786,-0.108696481012318
-0.0610595089369289,-0.116242349114415
-0.0718971349424623,-0.0825777776144577
-0.0208261616636479,-0.0903866611329339
-0.038153307812109,-0.0973512647829972
-0.0459320202539621,-0.103635686635653
-0.0350964716462301,-0.101518472165867
-0.0163905001633875,-0.0917829962594656
-0.0320297173575157,-0.105678677358777
-0.0343825800768007,-0.116103285787905
-0.0289517120028831,-0.109828534021152
-0.0274080736311343,-0.111898535921959
0.0820533632520427,-0.0143836042189832
-0.0243106924093451,-0.116026595399955
-0.022756616323534,-0.118083816392
0.093787162975333,-0.00358590859654871
-0.0196368601126526,-0.122182549419325
-0.0180708467518117,-0.124223224869461
0.0130346411957273,-0.106254672077563
-0.0218348280185094,-0.14415683140266
-0.0133462662330641,-0.130305467454903
-0.130089165532535,-0.251681087388436
0.0309981162333356,-0.146698970273394
-0.00857837608438805,-0.136319250248887
-0.00578346771562227,-0.15737542010563
-0.00648141175065042,-0.111890271944218
-0.00376267762288033,-0.142253279351976
0.0421677738186702,-0.195495014932513
-0.000523430236275796,-0.14615941391369
0.00618405176475068,-0.161746792122204
-0.00628255221611295,-0.164353045068815
0.0344215841266079,-0.167024650776458
-0.00186461080797147,-0.155705273242682
0.00768514371647604,-0.155725752976752
0.00934712667632152,-0.157601560618865
-0.016022636172286,-0.180231683213919
0.132164846451238,-0.0948984711531603
0.00813942091398153,-0.123642001902363
0.0495447050447708,-0.173616158387856
0.017767546305716,-0.166770291885488
0.0487612908193774,-0.182233733135917
0.0211903932787441,-0.170331833023623
0.0229142001913573,-0.172088226557722
0.0180926986037236,-0.151817405690876
0.0263874139582085,-0.175550168093124
0.034508975246373,-0.185449148372374
0.0175531226779235,-0.203395005000358
0.0844528663448615,-0.190742549566568
0.0785726544674967,-0.172627373587216
0.0352275568694618,-0.183888902670297
0.00502948339513654,-0.167933220880082
0.0388299564072048,-0.187089164652626
0.0406460388704549,-0.188658644220244
0.0371285371005635,-0.189838783279223
0.0612982063168146,-0.184571626035316
0.0461558164523437,-0.193239457718056
0.0540664952916835,-0.202935583454214
-0.0615630863957985,-0.310395564523861
0.026076858822349,-0.201316608839199
0.0133440215662448,-0.243965066257979
0.0563115937031513,-0.178790096921727
0.0574672530904212,-0.201789124959515
0.171684197881949,-0.125683241217095
-0.0425633418903992,-0.298919393204625
0.0632779095124164,-0.205735390904286
0.0568031285062191,-0.201194977451394
0.0672121196042202,-0.20823687443848
0.06919785624692,-0.209447553199166
0.0957951942452162,-0.196935826465215
0.18409570501159,-0.0991842388883125
0.0456146921601276,-0.210781299840271
0.0965234900736257,-0.241819383108051
0.105289476339285,-0.188703423726056
0.0813836153850655,-0.216124391241498
0.0855618195230304,-0.242406721696809
0.0855529012725313,-0.218116256511302
0.114393294831285,-0.232486068299708
0.109534049475215,-0.218124567738523
0.0919120678844044,-0.220873413172495
0.102026839719733,-0.213470241617945
0.0962236146880981,-0.222552876704279
0.0823228766435338,-0.218804641798376
0.090417168892728,-0.217355938839177
0.0665988740138773,-0.230804101635383
0.120558695144984,-0.224878277878995
0.198197303907121,-0.138610513096153
0.0106688180023142,-0.34219940303294
0.107257859906648,-0.199703935355734
0.110254656391334,-0.248446088435783
0.141265467156397,-0.233196029602877
0.145353040124093,-0.21086781876326
0.116360641980488,-0.214704120710091
0.123383525872738,-0.22976538335939
0.147951781497219,-0.214369818086325
0.123544720177706,-0.204812002756707
0.130540452010652,-0.230747961326802
0.0947584509459007,-0.229971422354174
0.0967346511123468,-0.218671554650922
0.0601287209006399,-0.354196409821366
0.111797589996099,-0.258117963832881
0.163149639629284,-0.216837276347745
0.145326133076908,-0.231649401529917
0.147853520121298,-0.231656872407433
0.153499824255318,-0.220839374849439
0.152963885371056,-0.231545675966743
0.130931915980468,-0.225042791154146
0.158149482954689,-0.231263506647946
0.171697309188069,-0.219408846930917
0.285360057258031,-0.131846930553815
0.19082156405421,-0.253450202296215
0.165067968204419,-0.240661951017947
0.171451365813451,-0.22978811664922
0.166619390359073,-0.243938746431515
0.176910773492418,-0.228881189825027
0.212661799440916,-0.248584286098031
0.173058422749172,-0.223933528644104
0.176663275095199,-0.251052713132519
0.273032696028953,-0.140572985585156
0.305262398909817,-0.113660097254167
0.213971243278915,-0.22248682377983
0.196667138607529,-0.22421998822114
0.195516169162006,-0.180314948949652
0.202502580813125,-0.222449567616813
0.205452929415087,-0.221489157732207
0.230655740433725,-0.234809264298059
0.211419714706763,-0.219415847335251
0.192928751736729,-0.224749573327701
0.21747572823468,-0.217136427484156
0.254352731841027,-0.234822500838237
0.219438818579083,-0.191178769274584
0.168952797880222,-0.181985461137705
0.229860771771563,-0.211945874057257
0.233014883027,-0.210514188634548
0.225211371218073,-0.182930829723405
0.171990213178991,-0.362428265750664
0.2452548426409,-0.225813315277946
0.220255703389791,-0.234977968625161
0.249140872425747,-0.202530564496514
0.242502810687421,-0.191228507981663
0.255760247175834,-0.19894421476853
0.259106810806117,-0.197065173861514
0.262478180763738,-0.195128331202387
0.130210246641966,-0.295380296670023
0.269296006132542,-0.191079567457512
0.28526221921296,-0.215980329176495
0.239828959448683,-0.190388390742462
0.303402063284364,-0.1927883660101
0.307603120773961,-0.16528783431311
0.286786343534964,-0.179916846953346
0.290362162355173,-0.177502531744743
0.198592434077664,-0.318513428865691
0.296005818784836,-0.18880741015331
0.316466525757794,-0.172963393304141
0.265246985834416,-0.178688851158546
0.306500700918784,-0.150005387093711
0.317451203044074,-0.212850838649358
0.312297853047647,-0.178729899859559
0.315749847979604,-0.152348901372254
0.322128612392821,-0.14994956914991
0.325233354161171,-0.183192477555254
0.341333419429933,-0.138892498183152
0.321646667647858,-0.124427019315311
0.36108015554306,-0.138905013109033
0.474948242327029,-0.0249531303015259
0.347249457270951,-0.133665593544558
0.347732890116766,-0.117165718313029
0.355311843404146,-0.126698189515466
0.359386660750337,-0.123111680608739
0.363490783106771,-0.119456076050461
0.369048492190019,-0.14013866669877
0.371787609321908,-0.111935906808968
0.365968246856543,-0.106357580551237
0.38020365499264,-0.104134335450413
0.409549212136488,-0.129078015108247
0.291354276444504,-0.17115476981499
0.39305417579097,-0.0918970293230824
0.397398736473217,-0.0876736010198189
0.258716050948351,-0.158563740332081
0.414780355197707,-0.0943731446514042
0.410617912418761,-0.0745644812315633
0.415086691093161,-0.0700471020340836
0.379622454132589,-0.0676052161201137
0.44741131584504,-0.0558104676295642
0.439341475667238,-0.0735542867539875
0.41015107465091,-0.0277914202227019
0.555686642884891,0.056293775551223
0.454665729070935,-0.063857736599387
0.481775940121165,-0.0280297788137449
0.419451532763763,-0.056811857531319
0.474724084525487,-0.0216610975316311
0.447466342693464,-0.0163681863489836
0.46736326939509,0.00875492066325976
0.499382713279571,-0.0609133381018075
0.476105327661016,-0.00438636956721095
0.481029863161502,0.00121254262407228
0.50435104351773,0.0214914700316737
0.482578456567252,0.0007680239319763
0.521356383117607,0.0263890226985479
0.612669882557536,0.121527260275519
0.506162928418827,0.0304213126967551
0.379026938915246,-0.0855829862171047
0.557758354950265,0.0595501152729698
0.509155462382391,0.0425550733391029
0.52719027849642,0.0548990967504573
0.532161913240463,0.0616921081156325
0.648335684309366,0.156267185685902
0.569820788773176,0.0726668014698352
0.552724197579468,0.0556530336107082
0.550061041988707,0.0785667565014213
0.535558773355309,0.0723586408575638
0.559100061673384,0.11172356116327
0.687761092794308,0.178401553456693
0.558496868332787,0.0851063682000742
0.542372195363889,0.105070399593091
0.702695608757488,0.242671216828143
0.611062348442648,0.171032122293397
0.599826988588395,0.127691148267937
0.596644017497435,0.142881626386394
0.572002376068451,0.164035682519851
0.606945458732112,0.156061440988322
0.49683793817446,0.0515272607271833
0.61205377442007,0.177701242068418
0.644429137083372,0.202841273246088
0.526705739898491,0.0706644426066293
0.618020586004475,0.176740766520716
0.636656178404743,0.194286606495038
0.641435121777539,0.200467240769447
0.647154755042273,0.192660604680165
0.565605496305623,0.099716200433877
0.633319751203082,0.198386650570975
0.664588157859248,0.204200799995574
0.681898044901102,0.247207338023614
0.636474540179614,0.242190486064759
0.775721596241926,0.32620364471962
0.672641893126791,0.317175352687087
0.696938320255291,0.269551371808211
0.686544779341028,0.259327019139188
0.700451773368381,0.258736245682644
0.694988094207747,0.270463214229027
0.699138182284099,0.275952732474493
0.846240267705818,0.41161098331708
0.746095179331224,0.274860622878219
0.707448109323357,0.290990533325943
0.700585417668742,0.257603393270264
0.694498897535937,0.32526525987691
0.7230440838357,0.307798365406347
0.622555244249439,0.202250073571719
0.704466821102023,0.294207399630821
0.737639946819597,0.300558649666737
0.708046820462411,0.329185063026136
0.743018141016573,0.322918922051039
0.703853505327908,0.34076601803
0.748804029657262,0.342615836591088
0.752298921227681,0.347386976990419
0.77206277236304,0.350181370242955
0.644089085030692,0.256671353394333
0.873222172011331,0.471025983138749
0.76666228259959,0.383539568989982
0.769086828730397,0.370491146514046
0.772307916171244,0.374962633218768
0.775483777595585,0.379384657288357
0.770973782538734,0.337863562132022
0.766104961204232,0.375366960143113
0.79263277816267,0.399345449488609
0.787737294585552,0.3965808680571
0.788054849289013,0.424986866789214
0.797355194296328,0.385847720771937
0.830612987210283,0.400381725852832
0.785459949499832,0.402346608570401
0.841999863733178,0.426538241142596
0.792939862987862,0.375169180072804
0.811749456302426,0.42349662385105
0.808969899268235,0.434813654546855
0.81270744927171,0.432432224545028
0.815937715984151,0.416547162381964
0.81156047210774,0.424145633496414
0.851365753703484,0.443469294667934
0.831180436310758,0.441211333683038
0.832074222890969,0.425571637665481
0.851097761125915,0.462068686600114
0.767145312994945,0.335788290119655
0.74428793777971,0.30127249112118
0.834146490270054,0.464432513312739
0.846467932287679,0.474899622556155
0.86390143922031,0.490547612997175
0.862386825243037,0.470598990407724
0.842563735599185,0.477444848039766
0.846670383532506,0.49827082083434
0.8505348815582,0.475620392576931
0.860014606486559,0.472266642916022
0.85030772414961,0.489724982785836
0.82857614309228,0.505078631380505
0.747529700534785,0.397495437527412
0.860541689260906,0.513153762742159
0.888872474072307,0.533304060864125
0.731797931667225,0.404684138459497
0.757182153460583,0.397639062529745
0.862262120269042,0.50947974298885
0.874136895015621,0.51083862154049
0.867985626478816,0.524454468950232
0.945232230192486,0.609757336850595
0.868193121729363,0.519791551675691
0.758751178006881,0.429437864295953
0.807000914151008,0.417503222326137
0.879235132403462,0.544460339611513
0.879487096940193,0.576180048172604
0.874700323854286,0.531698935830714
0.831907576853244,0.548837886090505
0.860498547671942,0.490565775427913
0.98967186019477,0.625122406068353
0.87159426320971,0.554976496322465
0.880213848703899,0.542530778558524
0.87055155944955,0.57235689680504
0.892962392877048,0.544019479099061
0.883051060311424,0.548520750498623
0.985217762103234,0.630731304176829
0.989254425704362,0.608017172085801
0.929518335956853,0.53710390605786
0.881317918511806,0.576489545061025
0.882116314503092,0.555050288624284
0.887680639279666,0.559372410864345
0.888318153018605,0.561036360775537
0.904567385901921,0.566574244207077
0.906114313497541,0.590831813062912
0.872707902111003,0.547749683954041
0.921888278738057,0.572436101129699
0.890938075704406,0.568744360786256
0.995746123835983,0.687895237477173
0.84967056602453,0.566690707966883
0.892060109132554,0.572884694671592
0.892359833015345,0.574184883865705
0.892622607556312,0.575445340412794
0.905454922807123,0.599420004979608
0.893037774904302,0.577847603734248
0.890251908242842,0.544799550488273
0.875831492533062,0.590055011539523
0.781320350965878,0.470446663986357
0.893429846705233,0.582181368464667
0.886797233216657,0.59959826076059
0.898214563673258,0.577883538263675
0.892195892791441,0.571973217041222
0.867668286243517,0.621272933424584
0.812918528594667,0.483754727070248
0.878527995445321,0.583422927589912
0.892729327144531,0.588277958795022
0.892487051052651,0.588996547702826
0.892209574212189,0.589677459594898
0.882132597122714,0.563939221138743
0.903297289266128,0.610569726416379
0.883420429057913,0.598929142117126
0.870155187897806,0.605176786040331
0.927557954460645,0.608547608550561
0.889812025530633,0.592979387973777
0.906849948127822,0.631217065101908
0.751215251845793,0.474236426999609
0.869610581988614,0.579288498329149
0.887524410669781,0.594444491909289
0.867243358460837,0.563222946255935
0.877274146804583,0.599056963740954
0.88028317506081,0.612932742763543
0.882428633951078,0.625099756308836
0.881090621539029,0.584316064011022
0.893211528912548,0.610855720161695
0.865320279432646,0.597907318561981
0.896053180961176,0.602383805771232
0.799325427330073,0.472656416021489
0.879447402440279,0.595594568945144
0.878457638215528,0.595515920228723
0.869129265831556,0.568270292745077
0.913947377747918,0.555175129943326
0.885094076258751,0.601761246524324
0.874173385593754,0.594856074885515
0.86339698463674,0.616932851803241
0.86259227836037,0.620452030974465
0.859501897639687,0.577582145876411
0.776760936681909,0.473674460838984
0.868095122406516,0.593264732788526
0.866784242509895,0.592845630067591
0.874517406711134,0.575540077639223
0.879477171698051,0.600663181984089
0.862663246613572,0.591389120059264
0.861227184488921,0.590837672914934
0.871661289083372,0.605260131197952
0.962185214661075,0.680994753565249
0.879293229057554,0.600713867938316
0.860918030421966,0.615260599095548
0.894061702040722,0.557221092069683
0.862622066661553,0.586748053033326
0.835407708240958,0.594893848263927
0.835098839219035,0.5855140435122
0.846921428496997,0.58441763613777
0.850109314698311,0.609252176318595
0.863929352299118,0.590537768238635
0.84160945710319,0.581705508170151
0.851173103285099,0.596459867213663
0.851427909725595,0.561994420985557
0.831058985729795,0.604897583270491
0.821971716015212,0.600266191052284
0.84308937567371,0.582417679984442
0.833634319531913,0.554444750587507
0.817271389813662,0.615812345298197
0.838973070687767,0.552134158673869
0.824087449281979,0.571904579050133
0.821996224747659,0.57066443161374
0.829663213320646,0.594919040909686
0.846205353740748,0.55588400155326
0.719263045273799,0.454119443258824
0.812766364781012,0.58544932992913
0.81757302759144,0.582844582329841
0.923349983735752,0.656076283159669
0.810768447591233,0.548296624736078
0.784871826904265,0.551927099422024
0.801909414222711,0.558181763873214
0.799539040254339,0.55665049758329
0.804530316336697,0.536536403769343
0.812096831044807,0.50913472824589
0.780070769343896,0.534664184838443
0.822294625302379,0.554200741983379
0.777138234110614,0.538858375298777
0.78477291864412,0.513908907939009
0.782189284365786,0.545145279602008
0.69865790300801,0.388400483156219
0.669980393419561,0.425599457515869
0.737861950722218,0.525032834114512
0.771690502328199,0.537965079496996
0.744817714046286,0.520581276515062
0.858106193070993,0.648823956721659
0.646716946577898,0.450022631448046
0.760775856437197,0.530355268337054
0.759126143965023,0.505485297538069
0.767678619683317,0.528881988065776
0.769023911047134,0.511603486188979
0.749452807357281,0.522324616815691
0.789398201046618,0.519285602834301
0.80364979982116,0.60146915999994
0.738747795102138,0.50486474327136
0.737728815752952,0.513881895626415
0.734736044879051,0.51170785725913
0.703877365839023,0.524278978125215
0.720630442391483,0.529935415600226
0.721709675051225,0.513529462588393
0.715443279751397,0.539685076884332
0.621804753502392,0.382681607347398
0.716269502775953,0.498141971508333
0.723928875361423,0.488996376251338
0.709922532448986,0.493424572678766
0.686642549678774,0.435907323151884
0.695364316038973,0.500922529380771
0.707819039456932,0.474174893505018
0.77291392840679,0.602375461066579
0.587896251154522,0.422947950223054
0.665194366148235,0.481105017802399
0.670506475622249,0.467866680068005
0.68776249895062,0.452860685319896
0.718341310789359,0.472262998332811
0.680379415642985,0.476136161750758
0.793940141760613,0.573684917474347
0.644107379642732,0.486124114546389
0.657369890402679,0.465533879407376
0.675207844293159,0.47065515101977
0.676328279514083,0.461561391786627
0.696180526913366,0.457690139640249
0.652265148434363,0.449565735761137
0.688737729645906,0.426696609199718
0.599948660784463,0.462834964839466
0.66856902561858,0.438908453030165
0.679108176822609,0.413926142053436
0.611899768614968,0.430696729289988
0.630398231779599,0.432558101288298
0.626680047668009,0.429649823193644
0.622941117845309,0.42672086130193
0.616067845642899,0.411936812029123
0.615401487358107,0.420801434295666
0.61160101983937,0.417811243265287
0.606502478299126,0.434523253818956
0.600619405476162,0.429733727478814
0.622660567015554,0.407336265024297
0.588576855066574,0.418271101502406
0.574587221600906,0.414247259606337
0.609854249145159,0.396585979621613
0.61614739981149,0.38768267433812
0.600358603989276,0.399869356952362
0.555765416236925,0.454991447163148
0.562112383564405,0.359473765625834
0.575775905330737,0.400210375080536
0.564446954731802,0.380397565897514
0.586082247814376,0.387971042142073
0.556318176182874,0.373896681973971
0.424374369179066,0.304835194027563
0.548114808037066,0.367322929892383
0.528690963287382,0.363170681828696
0.53983778287744,0.360677405989439
0.538836187669974,0.356466801404684
0.518791738628156,0.376221510228788
0.615994626486608,0.430396848965748
0.503487679762068,0.367430931820491
0.629265751083155,0.434681737208164
0.486061414917635,0.294230155721768
0.5103016100029,0.336868697596897
0.50601176376201,0.333399518897874
0.38652594575076,0.182405450051548
0.497380442279235,0.326411580938478
0.493039200183115,0.322893095762278
0.397529218283168,0.231419641305496
0.523883882995465,0.315321900895096
0.529246669993409,0.300368208427093
0.50613439059547,0.312045714256223
0.450260312238003,0.314134315370007
0.437288603037161,0.270670261947466
0.351246619702173,0.176889218838181
0.46087364321435,0.312313120751455
0.456922035018047,0.27920922378361
0.469623233145504,0.324952795495436
0.455608968411873,0.291708054995648
0.416706698556572,0.295056480807744
0.43510769411894,0.275731983642967
0.532200144789251,0.366410995468638
0.425957992838383,0.26825319270105
0.42136035859256,0.264492570043655
0.409630551696639,0.263742405970319
0.418188494360382,0.260861065453205
0.391347264312824,0.245124488243021
0.387503916282393,0.222839507330244
0.418398176935896,0.261628026116928
0.40319618769824,0.245887826155774
0.388762505037373,0.2377847612231
0.384047865713451,0.233916225865369
0.289067643740483,0.132306253814401
0.398359729659498,0.229325430465097
0.369819807692477,0.222233933571594
0.3775547800423,0.220206357200542
0.503025974961149,0.310902245861215
0.35235392310903,0.250317149417247
0.398273356171416,0.265609310278324
0.381433817438654,0.203811704310191
0.344163891432042,0.215032796601527
0.346426216018256,0.170831591814368
0.452202574472263,0.326575238314245
0.334337660482041,0.179588837740728
0.351148449854716,0.190421915151841
0.316615344877304,0.178467483200062
0.216936873720238,0.0964306046438571
0.291244880549483,0.192375395256667
0.325543325689305,0.195578047713558
0.272276082181954,0.196550158338097
0.287040935358741,0.176669545888809
0.286948899243325,0.154024581072746
0.293233304800988,0.165479141500742
0.283593843290188,0.133711437049945
0.271955213104121,0.141664503929076
0.260192128546178,0.17052195040993
0.266001329248902,0.110202296328691
0.260685709193656,0.125113069447266
0.280375804467014,0.140075527359766
0.238952414549544,0.119050795307038
0.225560864185631,0.1029373096783
0.224576238551479,0.136854592851692
0.115707020209758,0.0156738310220545
0.226370071011683,0.104074169813899
0.221251647295835,0.0998532035385062
0.21612296942833,0.095623887253799
0.299570511091255,0.203168917424091
0.185331021153661,0.074734442403855
0.192227235572294,0.0972698244223307
0.198090776331614,0.0808504100913515
0.175193036608736,0.0870778914772347
0.301961605817246,0.172347807531949
0.273239242127242,0.165598161845262
0.174738385774602,0.0615052016911459
0.157637136263262,0.079195734092029
0.16539998471474,0.0225023111244648
0.17678992776707,0.0360608046781393
0.192318947426285,0.0397244153181578
0.154080180342599,0.0781957721539115
0.227505943206038,0.112046803729692
0.138041572777321,0.0312753304839688
0.239117797597348,0.107809684360741
0.118867473853381,0.0263612778141519
0.11397512369534,0.0149037185633316
0.110572814748178,0.0648004846023602
0.111575562469962,0.00949510441613713
0.106258475753609,0.00512209465770495
0.100933699489021,0.000743749815851402
0.0961704312285326,-0.0231156303921488
0.176082936392205,0.130792505690502
-0.0144319638011632,-0.144867864483719
0.100913649453164,-0.014082345112692
0.175183187423025,0.0914248071280026
-0.0564174425942502,-0.11432565748049
0.197055680065271,0.0731511538650011
0.0580726543818327,-0.0344586268718109
-0.0568534697974303,-0.152505845055251
0.0472886577244935,-0.0433029789319138
0.0418869902395982,-0.0477309649137199
0.0507800921032904,-0.0512016636261518
0.00712180132628437,-0.054162626483066
0.0256447100346027,-0.0610365181611248
0.109431852693848,0.0347215161252846
-0.0051558838676728,-0.0600065390138992
0.00934896123468327,-0.0743715864777016
0.126608226789182,-0.0122352438877062
0.00203668194537569,-0.101497462225702
-0.122770924928563,-0.187033364679812
0.0876341301731225,0.0196796614321797
-0.0333410484542354,-0.109161452786692
-0.0217712788682244,-0.122914028072306
-0.0288647058359385,-0.10558074199122
-0.0343438346194573,-0.110047925240632
-0.0363116273318288,-0.113198536205079
-0.0453159515734535,-0.118987470664921
-0.133679771398049,-0.232850602865769
0.0693782625323903,-0.0488676395675843
0.0609268146394835,-0.0209203491953775
-0.0617500951827915,-0.132370318766241
-0.0836662592544066,-0.139807527687755
-0.0725940427611804,-0.141211394666937
-0.199831769453588,-0.251045501917587
-0.0691229516051216,-0.142979616832544
-0.0886756134397867,-0.154342223889565
-0.076561869325901,-0.163532299611866
-0.0741213029225855,-0.157969620919781
-0.191629288607962,-0.271406973721198
-0.130299935003346,-0.209391709915767
-0.114980348248641,-0.175877696737901
-0.133387808110983,-0.200356498241974
-0.110860314804208,-0.187495730963686
-0.130460313780638,-0.188589115814302
-0.161236043554315,-0.204377310220158
-0.151494158814894,-0.174666861454979
-0.128177527218294,-0.202012289843236
-0.0546244463219589,-0.0992428452287791
-0.116962454597909,-0.225658932689076
-0.0598566293345914,-0.172526984095946
-0.165680358885302,-0.217635719257621
-0.163705348260055,-0.228987697451314
-0.143992657699949,-0.227938454674233
-0.284901873697251,-0.335924719650077
-0.185230790590584,-0.233847484133275
-0.195057652910361,-0.26068758299158
-0.194846654515613,-0.241847825027667
-0.303493557105725,-0.364432232838808
-0.224562016286867,-0.246036977275758
-0.213272930409496,-0.271949363060398
-0.213755909819517,-0.257637133621423
-0.327101570824648,-0.354736393216918
-0.223047793722021,-0.265425985277523
-0.108435676891422,-0.161695717157783
-0.105223541168033,-0.181962960838144
-0.247300667052416,-0.281286925151342
-0.241302305337199,-0.280791793200008
-0.245796788600685,-0.284589058000332
-0.277715709633335,-0.291718348019016
-0.254470332751723,-0.31202276537788
-0.266643938066496,-0.274692812852907
-0.309725128049122,-0.30553846000346
-0.262320028599176,-0.319731170407462
-0.219697579081615,-0.330583834596625
-0.375928157121232,-0.408779807149253
-0.261563259191532,-0.309012950968224
-0.301158716830086,-0.320334710076537
-0.294083034762873,-0.325620028149971
-0.296197886629621,-0.32849197308892
-0.285339650221314,-0.358696420426803
-0.314454274319054,-0.35422955694644
-0.305752824909836,-0.335890080584245
-0.309819720999584,-0.339421243187749
-0.318461218995777,-0.323345461853212
-0.3178656403125,-0.346430166637794
-0.282790755160774,-0.328764009440693
-0.318365629292647,-0.360504094625496
-0.329713423856328,-0.356809938629894
-0.363358434042459,-0.331490364295431
-0.302666861163178,-0.393610756324997
-0.355532938994557,-0.36976069836823
-0.345093799994935,-0.370399918730918
-0.33447319806496,-0.366952226263459
-0.364793748880324,-0.385341383562346
-0.411315849469453,-0.350099556418373
-0.359992456049896,-0.383704083753186
-0.375494814869913,-0.40415512742338
-0.374440702245737,-0.39022398136016
-0.387940469716987,-0.38518039561292
-0.385536299307665,-0.383347891688618
-0.377929171066826,-0.399931655437882
-0.367487344797968,-0.42265209964477
-0.276245756122747,-0.312136682433133
-0.388320488286923,-0.409453111869233
-0.342014811174312,-0.427588803251548
-0.410920073594318,-0.372766440452369
-0.398430662494458,-0.418813014026755
-0.362537585407836,-0.427508965295991
-0.309338997766671,-0.316909986203976
-0.412721127306842,-0.411451235543644
-0.397291079511954,-0.396301097440649
-0.425680122892624,-0.458868460274118
-0.507628262257464,-0.532564668305177
-0.542685125946569,-0.545915183343189
-0.41219918364448,-0.424997415173506
-0.416099061436704,-0.439278280114436
-0.430068103885226,-0.448843392747896
-0.396527466688345,-0.435267242899155
-0.318239308240505,-0.342488225086442
-0.438930595915733,-0.457500963541846
-0.430186497772582,-0.473980653016922
-0.419799453452453,-0.428815999159105
-0.581766391733957,-0.590541039903505
-0.412120371336574,-0.459503706435663
-0.444536075134093,-0.449042102832564
-0.455768905210634,-0.474328113317128
-0.458459251570063,-0.477069295466863
-0.461116192819701,-0.479792360329537
-0.368690539731141,-0.335766291135786
-0.470228500673168,-0.454340669795085
-0.43795949328083,-0.478162051380593
-0.357349372139,-0.36776353454894
-0.443659674568404,-0.480129748849353
-0.492050532261341,-0.530408616573836
-0.46419274283452,-0.474470263170959
-0.468860549041949,-0.510925093147455
-0.602319923986895,-0.596909035063697
-0.495021157434588,-0.480255071679336
-0.488499498630037,-0.487983966870398
-0.395788516821374,-0.413961144623583
-0.492573695214597,-0.513540230441389
-0.48358801191991,-0.534156399404082
-0.585720878847083,-0.605479484320346
-0.500199749452108,-0.505429105854949
-0.412908046253053,-0.402900281042078
-0.487044235901733,-0.496299520462116
-0.505125796728929,-0.52807866208236
-0.471861232113448,-0.544325758155684
-0.509028519909233,-0.532778784595731
-0.510926711773316,-0.535101434208945
-0.519051022266736,-0.559461643572057
-0.514616284962978,-0.539691873884909
-0.528895244024774,-0.575945540723528
-0.517910404005522,-0.531844269469639
-0.495036728688024,-0.568898796401906
-0.521565551104639,-0.548653111959275
-0.489622956137824,-0.544646378963527
-0.528383278705209,-0.566438447362218
-0.526398387658821,-0.555181625937005
-0.521097806786049,-0.547187004527539
-0.641571708929264,-0.650818726280819
-0.492128471649742,-0.554991186925176
-0.551391459809325,-0.549070570303664
-0.431977037379804,-0.447902200308021
-0.544375255744072,-0.559874140808275
-0.561261269338211,-0.535200390599474
-0.587769185023399,-0.546464850342735
-0.561057153442935,-0.584466790642834
-0.52044434923699,-0.581067517774996
-0.512427910737567,-0.589477401814242
-0.542426489583526,-0.579642279994859
-0.557570830506216,-0.548233644308928
-0.567438527492633,-0.54439128744085
-0.547078175648378,-0.581557627165911
-0.535173464008707,-0.579799275359177
-0.38789064880536,-0.478942138970405
-0.645910344310655,-0.690999447497233
-0.453379181892327,-0.517201731261038
-0.541135253526746,-0.564468470809649
-0.522307765306987,-0.575028558052848
-0.551659576774493,-0.59799868557734
-0.528462998587786,-0.632217638633566
-0.553047295054859,-0.601448091583447
-0.533560352107515,-0.611249269993493
-0.526262099466648,-0.629837742841378
-0.552785723838727,-0.571238526538461
-0.559762189682215,-0.644292364129507
-0.577370308924164,-0.624578480364248
-0.577397259591666,-0.62722733816929
-0.591001180446522,-0.586942733268264
-0.557043379710697,-0.614504197852185
-0.557366422005285,-0.616052670718647
-0.572957895510049,-0.635492876505619
-0.5954214617684,-0.58510873477704
-0.558097996624636,-0.620586528030294
-0.651075475122997,-0.710808860638016
-0.558386810644459,-0.623516059304573
-0.571356936508063,-0.592484569575199
-0.58117764995706,-0.647776504321303
-0.553276375377952,-0.646855517397339
-0.546012570220001,-0.611023514346707
-0.572853211958191,-0.629653663360972
-0.554438629329043,-0.643130705672138
-0.430034243620554,-0.517195496166226
-0.587476301966988,-0.627736858187689
-0.549839771231925,-0.641159204944568
-0.557415786844672,-0.637045056662928
-0.554221354620407,-0.673807879377301
-0.534862136397709,-0.636941113933124
-0.556330388003449,-0.640739484552559
-0.559103356754638,-0.672012290366631
-0.555400820087396,-0.643108852259362
-0.554873962870978,-0.644265439088765
-0.576231085049962,-0.634894598024885
-0.580725002285445,-0.645967719749873
-0.561154367317867,-0.634717361450109
-0.570608620074883,-0.633287966671754
-0.540996534920485,-0.662267758657479
-0.546951752117028,-0.660472072644608
-0.595471247135908,-0.609626108272882
-0.549156910258178,-0.652842847791129
-0.497470588031441,-0.652430377026917
-0.535902859311936,-0.647429679869539
-0.545192449712634,-0.650808706827311
-0.392369026803478,-0.525122581440063
-0.528763123443598,-0.660517194464861
-0.424097975870379,-0.540118491272192
-0.625162573270116,-0.791764477512368
-0.529363923044336,-0.638626345301508
-0.522144895979418,-0.627491969870999
-0.534421332320108,-0.665913599459206
-0.536869786962089,-0.662671527040207
-0.530070338718774,-0.688797365628364
-0.528287476362263,-0.654765764472689
-0.532614773110028,-0.664956026837178
-0.537541068371631,-0.625270207666687
-0.521582075849311,-0.681342149705456
-0.548342375195505,-0.65238195506523
-0.532675695259801,-0.671705297197706
-0.524650215620215,-0.668385418214252
-0.510753806215106,-0.66646449204591
-0.607486852580166,-0.802047830359216
-0.533635048091828,-0.659820771362583
-0.51748620502195,-0.670788111665137
-0.51558436658866,-0.67134138852605
-0.515645210007054,-0.664911795953413
-0.393621548062348,-0.573433933713432
-0.428031756460695,-0.592469654176244
-0.527965090859219,-0.682177034973029
-0.511293521042373,-0.662685411955583
-0.482401778813947,-0.672858389049579
-0.471415743846806,-0.702335969149714
-0.498758925942093,-0.675083962365511
-0.479311602382947,-0.685344095531505
-0.505040814443064,-0.652864965971238
-0.582158117312122,-0.796210621742833
-0.519236406250904,-0.682704333676566
-0.471778878888065,-0.681066505432299
-0.484240871119494,-0.677091788454781
-0.380475937859445,-0.596100511264146
-0.490037863940002,-0.676297028159314
-0.480063433892793,-0.672050442915608
-0.482127308080395,-0.651121547194602
-0.470882706537807,-0.678240490635993
-0.454645428789515,-0.660308237934723
-0.46521591009245,-0.678566245924859
-0.458500951922832,-0.681074772869033
-0.459363108403996,-0.678815499562068
-0.456366720050425,-0.678911420129541
-0.475687009033895,-0.673771507347934
-0.540439166511502,-0.849935787868664
-0.423956957950798,-0.690320025393817
-0.476018592087131,-0.655848708642565
-0.426477482040301,-0.676400558715127
-0.430722922338417,-0.667025604509317
-0.411194290960451,-0.677379056328713
-0.430703476317511,-0.678988877285237
-0.330090958833982,-0.579240700072266
-0.395388725025716,-0.703882913542123
-0.42029797882981,-0.678701237489121
-0.419333271716913,-0.712942947981238
-0.280539994320312,-0.574474339623453
-0.435056951341047,-0.726700100319427
-0.427110042713948,-0.70976727525651
-0.401997819734668,-0.677837202110804
-0.469044612530878,-0.651360716925602
-0.394340375544761,-0.677356796228375
-0.390438980748175,-0.677087680333965
-0.377634308937754,-0.669969035869534
-0.382490374665371,-0.676491586375235
-0.440939653815173,-0.748231584946236
-0.368974911904466,-0.675956431869549
-0.37020151105799,-0.675452681221806
-0.366007258457589,-0.675067746702425
-0.347279796254901,-0.656935389356107
-0.379277119416937,-0.676131552647963
-0.353129287420742,-0.673796943201709
-0.364064859133439,-0.683276073616862
-0.364214476153521,-0.688634205766446
-0.325613491143768,-0.65461901929773
-0.324529635569421,-0.661621063538661
-0.325453715589232,-0.690078115384729
-0.225570803844006,-0.553125692035427
-0.321346519910095,-0.670154137938029
-0.350216478886664,-0.681912003482258
-0.311816408347445,-0.668938836083689
-0.322082099050156,-0.675425854746436
-0.302085216777975,-0.667645872145055
-0.299241565933753,-0.674811076908856
-0.284763388785388,-0.668392450320918
-0.242620486352786,-0.665376308634595
-0.286334493612006,-0.678717141727615
-0.173630274484657,-0.579748720638664
-0.271677624646799,-0.663300427607066
-0.149509766043815,-0.545940863146246
-0.401870308427253,-0.766142891475833
-0.274024882938302,-0.645806195030666
-0.218795396486821,-0.660263681659601
-0.284551042216187,-0.679110000481503
-0.263633276681585,-0.690324315801874
-0.260490719878415,-0.657575553283961
-0.228273321593156,-0.656415712397294
-0.0899642188919325,-0.553724451123362
-0.240541122710467,-0.635127747927907
-0.205555188253713,-0.601691811897233
-0.237217330782364,-0.637431485757185
-0.199465926208519,-0.651478225263105
-0.207481939646938,-0.65011257456243
-0.279165173135501,-0.754153634523821
-0.177653034000388,-0.67562194065435
-0.272815641932341,-0.755282575683516
-0.177523890996475,-0.633939258513392
-0.163171812730334,-0.644907422603047
-0.193718692821255,-0.661017266845884
-0.116576051067419,-0.629428040441131
-0.138451565024531,-0.660829005337469
-0.137920715946872,-0.640134757317441
-0.131475200451251,-0.638892508240557
-0.0379674365610253,-0.517303147773814
-0.0932381432405581,-0.631727739196691
-0.213466837729608,-0.727977058315387
-0.105159346751548,-0.633726963329972
-0.059137262028625,-0.645597833877055
-0.191606573913332,-0.740109295868245
-0.0848593370900382,-0.62964622553812
-0.0779849038751763,-0.628246592524717
-0.0704639292489098,-0.612239702251146
-0.0768860442183685,-0.647918715488387
-0.052921242460958,-0.613117280696908
-0.049945841916649,-0.622450931651739
-0.0572517432920911,-0.566882658564414
-0.00747207190137152,-0.63944439137875
-0.0528605808646177,-0.596215526758529
-0.0331518296843391,-0.604884678035831
-0.0114150206769973,-0.643622692776162
-0.00625289778155999,-0.613165256086731
-0.104347443085221,-0.729428481931961
-0.0674253813915379,-0.71563173452931
-0.0934663584181222,-0.709887724364213
0.0389921342457954,-0.658817774516076
0.0316689991369433,-0.604883360301517
0.0583233342278411,-0.606398387044418
0.047225262045567,-0.601431951817812
0.0248267363528918,-0.58003588883137
0.0554724101217851,-0.548127337999435
0.0709771948487865,-0.596106104021492
0.0869181202213036,-0.615079230160103
0.047295099015637,-0.588008097553753
0.113837814733958,-0.574152822664907
0.103429800800419,-0.588727030214074
0.111683466513126,-0.586832580658659
0.234033062880376,-0.490703234074231
0.171345652327986,-0.585840021525772
0.150991381820165,-0.598013881949143
0.148771412718159,-0.58409745616629
0.14649796697912,-0.590206822337326
0.266038808088123,-0.42670401670373
0.190261684973421,-0.566378099077149
0.186017142260512,-0.578707125220136
0.0545391441796979,-0.678493403718809
0.197337346335921,-0.56679310633258
0.181266619297106,-0.556024894562311
0.176573337320099,-0.571282745960689
0.208403059708812,-0.587226339048386
0.119902880846566,-0.669655031794432
0.242308508812691,-0.556025342193339
0.241742035565219,-0.576665223659209
0.260700965967441,-0.551578317144827
0.279596716420256,-0.51939281972492
0.288625960206087,-0.579504297330758
0.288724855878585,-0.544757684619302
0.309670008746249,-0.546883033473195
0.307698684473548,-0.540110448352232
0.330353534977579,-0.524628186183786
0.35145156157184,-0.528680370980566
0.406326658454102,-0.462211559096729
0.334500754043447,-0.524981413612626
0.448872430870789,-0.437419428446565
0.363817161754559,-0.57179091166521
0.375953738453815,-0.523213275701458
0.391151066102512,-0.511583476715914
0.397126816323632,-0.514178607905453
0.399566478837558,-0.522930404655191
0.416255335021119,-0.513115767976485
0.423133369850262,-0.512985282312792
0.43676277620258,-0.507946285408433
0.592051529050408,-0.36402479991209
0.467736037690238,-0.498309405496856
0.452205467528915,-0.491516250577734
0.460376659738246,-0.506127724385926
0.63203779801644,-0.350442944670037
0.499720716196427,-0.491954226622437
0.491074747789122,-0.496835865982131
0.513825313596166,-0.462257408754335
0.415366813732593,-0.576042211662663
0.594363095603351,-0.487796778431112
0.553841870931374,-0.478072508988939
0.564847909366379,-0.475235532759409
0.584555546832464,-0.456941597487012
0.564602868637302,-0.48471665359833
0.55751211460604,-0.46652538697014
0.701536697366325,-0.358159489667281
0.597810963308596,-0.484051200699138
0.624578634064022,-0.46010363304302
0.63626821014584,-0.453256483155678
0.630820752485867,-0.486096707475633
0.661675554097685,-0.438464356295115
0.676331436315031,-0.434623320389657
