0.0994200612876868,-0.383034577701861
0.0927306460379327,-0.380535184101325
0.0860859894066596,-0.378025774906224
0.0794859591290061,-0.375506465920752
0.0729304229401109,-0.3729773729491
0.0664192485751125,-0.37043861179546
0.0599523037691496,-0.367890298264026
0.0535294562573608,-0.365332548158989
0.0471505737748847,-0.362765477284542
0.0408155240568599,-0.360189201444878
0.034524174838425,-0.357603836444188
0.0282763938547186,-0.355009498086665
0.0220720488408794,-0.352406302176502
0.015911007532046,-0.34979436451789
0.00979313766335691,-0.347173800915023
0.00371830696995082,-0.344544727172093
-0.00231361681303363,-0.341907259093291
-0.00830276595045789,-0.339261512482812
-0.0142492727071833,-0.336607603144845
-0.0201532693480713,-0.333945646883586
-0.0260148881379832,-0.331275759503224
-0.0318342613417805,-0.328598056807954
-0.0376115212243245,-0.325912654601967
-0.0433468000504766,-0.323219668689456
-0.0490402300850981,-0.320519214874613
-0.0546919435930506,-0.317811408961631
-0.0603020728391953,-0.315096366754702
-0.0658707500883936,-0.312374204058018
-0.071398107605507,-0.309645036675772
-0.0768842776553968,-0.306908980412156
-0.0823293925029245,-0.304166151071362
-0.0877335844129513,-0.301416664457583
-0.0930969856503387,-0.298660636375012
-0.098419728479948,-0.295898182627841
-0.103701945166641,-0.293129419020261
-0.108943767975278,-0.290354461356466
-0.114145329170722,-0.287573425440648
-0.119306761017833,-0.284786427076999
-0.124428195781473,-0.281993582069711
-0.129509765726503,-0.279195006222978
-0.134551603117785,-0.276390815340991
-0.13955384022018,-0.273581125227943
-0.14451660929855,-0.270766051688027
-0.149440042617755,-0.267945710525433
-0.154324272442657,-0.265120217544356
-0.159169431038119,-0.262289688548987
-0.163975650669,-0.259454239343519
-0.168743063600162,-0.256613985732144
-0.173471802096467,-0.253769043519055
-0.178161998422777,-0.250919528508444
-0.182813784843952,-0.248065556504503
-0.187427293624854,-0.245207243311424
-0.192002657030344,-0.242344704733401
-0.196540007325284,-0.239478056574626
-0.201039476774535,-0.23660741463929
-0.205501197642958,-0.233732894731586
-0.209925302195415,-0.230854612655708
-0.214311922696768,-0.227972684215846
-0.218661191411877,-0.225087225216193
-0.222973240605604,-0.222198351460943
-0.227248202542811,-0.219306178754287
-0.231486209488358,-0.216410822900417
-0.235687393707108,-0.213512399703527
-0.239851887463921,-0.210611024967808
-0.243979823023659,-0.207706814497452
-0.248071332651183,-0.204799884096653
-0.252126548611356,-0.201890349569603
-0.256145603169037,-0.198978326720493
-0.260128628589089,-0.196063931353517
-0.264075757136372,-0.193147279272867
-0.267987121075749,-0.190228486282734
-0.271862852672081,-0.187307668187312
-0.275703084190228,-0.184384940790794
-0.279507947895053,-0.18146041989737
-0.283277576051417,-0.178534221311234
-0.287012100924181,-0.175606460836579
-0.290711654778207,-0.172677254277596
-0.294376369878355,-0.169746717438477
-0.298006378489488,-0.166814966123416
-0.301601812876467,-0.163882116136605
-0.305162805304153,-0.160948283282236
-0.308689488037407,-0.158013583364501
-0.312181993341091,-0.155078132187593
-0.315640453480067,-0.152142045555704
-0.319065000719195,-0.149205439273027
-0.322455767323337,-0.146268429143754
-0.325812885557355,-0.143331130972077
-0.32913648768611,-0.140393660562189
-0.332426705974462,-0.137456133718282
-0.335683672687275,-0.134518666244549
-0.338907520089408,-0.131581373945181
-0.342098380445724,-0.128644372624372
-0.345256386021084,-0.125707778086314
-0.348381669080348,-0.122771706135199
-0.35147436188838,-0.11983627257522
-0.354534596710039,-0.116901593210568
-0.357562505810187,-0.113967783845437
-0.360558221453687,-0.111034960284018
-0.363521875905398,-0.108103238330505
-0.366453601430183,-0.105172733789089
-0.369353530292902,-0.102243562463962
-0.372221794758418,-0.0993158401593185
-0.375058527091592,-0.0963896826793491
-0.377863859557284,-0.0934652058282468
-0.380637924420357,-0.090542525410204
-0.383380853945672,-0.0876217572294131
-0.38609278039809,-0.0847030170900663
-0.388773836042473,-0.0817864207963561
-0.391424153143681,-0.0788720841524749
-0.394043863966577,-0.0759601229626151
-0.396633100776022,-0.073050653030969
-0.399191995836876,-0.0701437901617291
-0.401720681414002,-0.0672396501590878
-0.404219289772262,-0.0643383488272374
-0.406687953176515,-0.0614400019703704
-0.409126803891624,-0.058544725392679
-0.41153597418245,-0.0556526348983558
-0.413915596313854,-0.0527638462915932
-0.416265802550699,-0.0498784753765833
-0.418586725157844,-0.0469966379575188
-0.420878496400152,-0.044118449838592
-0.423141248542484,-0.0412440268239953
-0.425375113849702,-0.0383734847179209
-0.427580224586666,-0.0355069393245614
-0.429756713018238,-0.0326445064481093
-0.43190471140928,-0.0297863018927567
-0.434024352024653,-0.0269324414626961
-0.436115767129218,-0.02408304096212
-0.438179088987837,-0.0212382161952206
-0.440214449865371,-0.0183980829661905
-0.442221982026681,-0.0155627570792219
-0.444201817736629,-0.0127323543385073
-0.446154089260076,-0.0099069905482391
-0.448078928861885,-0.00708678151260965
-0.449976468806914,-0.00427184303581128
-0.451846841360028,-0.00146229092203649
-0.453690178786086,0.00134175902452233
-0.45550661334995,0.00414019099967286
-0.457296277316482,0.00693288919922271
-0.459059302950543,0.00971973781897943
-0.460795822516994,0.0125006210547507
-0.462505968280697,0.015275423102344
-0.464189872506513,0.0180440281575671
-0.465847667459303,0.0208063204162276
-0.46747948540393,0.0235621840741329
-0.469085458605253,0.0263115033270908
-0.470665719328136,0.0290541623709089
-0.472220399837438,0.0317900454013948
-0.473749632398021,0.034519036614356
-0.475253549274748,0.0372410202056003
-0.476732282732478,0.0399558803709351
-0.478185965036075,0.0426635013061682
-0.479614728450398,0.0453637672071071
-0.481018705240309,0.0480565622695594
-0.482398027670671,0.0507417706893328
-0.483752828006343,0.0534192766622348
-0.485083238512188,0.056088964384073
-0.486389391453067,0.0587507180506552
-0.487671419093841,0.0614044218577888
-0.488929453699372,0.0640499600012815
-0.49016362753452,0.0666872166769409
-0.491374072864149,0.0693160760805746
-0.492560921953118,0.0719364224079902
-0.493724307066289,0.0745481398549954
-0.494864360468524,0.0771511126173977
-0.495981214424684,0.0797452248910047
-0.49707500119963,0.0823303608716241
-0.498145853058224,0.0849064047550634
-0.499193902265327,0.0874732407371303
-0.500219281085801,0.0900307530136324
-0.501222121784506,0.0925788257803773
-0.502202556626305,0.0951173432331726
-0.503160717876059,0.0976461895678259
-0.504096737798629,0.100165248980145
-0.505010748658876,0.102674405665937
-0.505902882721661,0.10517354382101
-0.506773272251848,0.107662547641171
-0.507622049514296,0.110141301322229
-0.508449346773866,0.11260968905999
-0.509255296295422,0.115067595050263
-0.510040030343823,0.117514903488854
-0.510803681183931,0.119951498571572
-0.511546381080608,0.122377264494224
-0.512268262298714,0.124792085452617
-0.512969457103112,0.12719584564256
-0.513650097758663,0.12958842925986
-0.514310316530228,0.131969720500325
-0.514950245682668,0.134339603559761
-0.515570017480846,0.136697962633977
-0.516169764189621,0.139044681918781
-0.516749618073856,0.14137964560998
-0.517309711398412,0.143702737903381
-0.517850176428151,0.146013842994793
-0.518371145427933,0.148312845080022
-0.518872750662621,0.150599628354877
-0.519355124397075,0.152874077015164
-0.519818398896157,0.155136075256693
-0.520262706424729,0.157385507275269
-0.520688179247651,0.159622257266702
-0.521094949629785,0.161846209426798
-0.521483149835993,0.164057247951365
-0.521852912131136,0.16625525703621
-0.522204368780075,0.168440120877142
-0.522537652047672,0.170611723669968
-0.522852894198788,0.172769949610496
-0.523150227498284,0.174914682894532
-0.523429784211022,0.177045807717886
-0.523691696601863,0.179163208276363
-0.523936096935669,0.181266768765773
-0.524163117477301,0.183356373381922
-0.52437289049162,0.185431906320618
-0.524565548243488,0.187493251777669
-0.524741222997767,0.189540293948882
-0.524900047019316,0.191572917030066
-0.525042152572999,0.193591005217027
-0.525167671923676,0.195594442705573
-0.525276737336209,0.197583113691512
-0.525369481075459,0.199556902370652
-0.525446035406287,0.201515692938799
-0.525506532593555,0.203459369591762
-0.525551104902124,0.205387816525349
-0.525579884596856,0.207300917935366
-0.525593003942612,0.209198558017622
-0.525590595204254,0.211080620967924
-0.525572790646642,0.212946990982079
-0.525539722534638,0.214797552255896
-0.525491523133104,0.216632188985182
-0.525428324706901,0.218450785365745
-0.52535025952089,0.220253225593391
-0.525257459839933,0.222039393863929
-0.525150057928891,0.223809174373167
-0.525028186052626,0.225562451316911
-0.524891976475998,0.22729910889097
-0.52474156146387,0.229019031291152
-0.524577073281102,0.230722102713263
-0.524398644192556,0.232408207353111
-0.524206406463094,0.234077229406505
-0.524000492357577,0.235729053069251
-0.523781034140866,0.237363562537157
-0.523548164077822,0.238980642006032
-0.523302014433308,0.240580175671681
-0.523042717472183,0.242162047729914
-0.522770405459311,0.243726142376537
-0.522485210659551,0.245272343807359
-0.522187265337767,0.246800536218187
-0.521876701758818,0.248310603804828
-0.521553652187566,0.24980243076309
-0.521218248888873,0.251275901288781
-0.5208706241276,0.252730899577708
-0.520510910168609,0.254167309825679
-0.52013923927676,0.255585016228502
-0.519755743716916,0.256983902981983
-0.519360555753937,0.258363854281932
-0.518953807652685,0.259724754324155
-0.518535631678022,0.26106648730446
-0.518106160094808,0.262388937418654
-0.517665525167906,0.263691988862546
-0.517213859162176,0.264975525831943
-0.51675129434248,0.266239432522652
-0.516277962973679,0.267483593130481
-0.515793997320635,0.268707891851237
-0.515299529648209,0.269912212880729
-0.514794692221263,0.271096440414764
-0.514279617304657,0.272260458649149
-0.513754437163254,0.273404151779692
-0.513219284061915,0.274527404002201
-0.5126742902655,0.275630099512484
-0.512119588038872,0.276712122506347
-0.511555309646891,0.277773357179598
-0.51098158735442,0.278813687728046
-0.51039855342632,0.279832998347498
-0.509806340127451,0.28083117323376
-0.509205079722676,0.281808096582642
-0.508594904476855,0.282763652589951
-0.50797594665485,0.283697725451493
-0.507348338521523,0.284610199363077
-0.506712212341735,0.285500958520511
-0.506067700380348,0.286369887119602
-0.505414934902221,0.287216869356157
-0.504754048172218,0.288041789425985
-0.5040851724552,0.288844531524892
-0.503408440016027,0.289624979848687
-0.502723983119561,0.290383018593177
-0.502031934030664,0.291118531954169
-0.501332425014197,0.291831404127472
-0.500625588335021,0.292521519308892
-0.499911556257998,0.293188761694239
-0.499190461047989,0.293833015479318
-0.498462434969856,0.294454164859938
-0.49772761028846,0.295052094031906
-0.496986119268662,0.29562668719103
-0.496238094175323,0.296177828533118
-0.495483667273306,0.296705402253976
-0.494722970827471,0.297209292549414
-0.49395613710268,0.297689383615238
-0.493183298363794,0.298145559647256
-0.492404586875675,0.298577704841275
-0.491620134903184,0.298985703393104
-0.490830074711182,0.299369439498549
-0.490034538564531,0.299728797353419
-0.489233658728092,0.300063661153521
-0.488427567466727,0.300373915094662
-0.487616397045297,0.300659443372651
-0.486800279728663,0.300920130183294
-0.485979347781686,0.3011558597224
-0.485153733469229,0.301366516185776
-0.484323569056152,0.30155198376923
-0.483488986807318,0.301712146668569
-0.482650118987586,0.301846889079601
-0.481807097861819,0.301956095198133
-0.480960055694878,0.302039649219974
-0.480109124751625,0.30209743534093
-0.47925443729692,0.30212933775681
-0.478396125595625,0.30213524066342
-0.477534321912602,0.302115028256569
-0.476669158512712,0.302068584732064
-0.475800767660817,0.301995794285713
-0.474929281621777,0.301896541113323
-0.474054832660454,0.301770709410703
-0.47317755304171,0.301618183373659
-0.472297575030406,0.301438847197999
-0.471415030891402,0.30123258507953
-0.470530052889562,0.300999281214062
-0.469642773289746,0.3007388197974
-0.468753324356815,0.300451085025353
-0.467861838355631,0.300135961093728
-0.466968447551055,0.299793332198333
-0.466073284207949,0.299423082534976
-0.465176480591173,0.299025096299464
-0.46427816896559,0.298599257687604
-0.463378481596061,0.298145450895205
-0.462477550747447,0.297663560118073
-0.46157550868461,0.297153469552017
-0.46067248767241,0.296615063392844
-0.45976861997571,0.296048225836362
-0.45886403785937,0.295452841078378
-0.457958873588253,0.2948287933147
-0.457053259427219,0.294175966741136
-0.45614732764113,0.293494245553493
-0.455241210494847,0.292783513947579
-0.454335040253231,0.292043656119201
-0.453428949181145,0.291274556264167
-0.452523069543449,0.290476098578285
-0.451617533605005,0.289648167257362
-0.450712473630674,0.288790646497205
-0.449808021885318,0.287903420493623
-0.448904310633798,0.286986373442424
-0.448001472140974,0.286039389539413
-0.44709963867171,0.285062352980401
-0.446198942490866,0.284055147961193
-0.445299515863303,0.283017658677597
-0.444401491053883,0.281949769325422
-0.443505000327467,0.280851364100474
-0.442610175948917,0.279722327198562
-0.441717150183094,0.278562542815492
-0.44082605529486,0.277371895147073
-0.439937023549075,0.276150268389112
-0.439050187210602,0.274897546737417
-0.438165678544301,0.273613614387796
-0.437283629815034,0.272298355536055
-0.436404173287662,0.270951654378003
-0.435527441227047,0.269573395109447
-0.43465356589805,0.268163461926195
-0.433782679565533,0.266721739024054
-0.432914914494357,0.265248110598832
-0.432050402949383,0.263742460846337
-0.431189277195472,0.262204673962376
-0.430331669497487,0.260634634142757
-0.429477712120288,0.259032225583287
-0.428627537328737,0.257397332479775
-0.427781277387695,0.255729839028027
-0.426939064562024,0.254029629423851
-0.426101031116585,0.252296587863056
-0.425267309316239,0.250530598541448
-0.424438031425848,0.248731545654835
-0.423613329710273,0.246899313399024
-0.422793336434376,0.245033785969824
-0.421978183863017,0.243134847563042
-0.421168004261059,0.241202382374485
-0.420362929893363,0.239236274599962
-0.419563093024789,0.237236408435279
-0.418768625920201,0.235202668076245
-0.417979660844457,0.233134937718667
-0.417196330062422,0.231033101558352
-0.416418765838955,0.228897043791109
-0.415647100438918,0.226726648612744
-0.414881466127172,0.224521800219066
-0.414121995168579,0.222282382805882
-0.413368819828,0.220008280568999
-0.412622072370297,0.217699377704226
-0.411881885060331,0.215355558407369
-0.411148390162963,0.212976706874237
-0.410421719943055,0.210562707300637
-0.409702006665468,0.208113443882377
-0.408989382595063,0.205628800815264
-0.408283979996702,0.203108662295106
-0.407585931135247,0.200552912517711
-0.406895368275558,0.197961435678885
-0.406212423682497,0.195334115974438
-0.405537229620926,0.192670837600175
-0.405537229620926,0.192670837600175
-0.404862737297159,0.190007886636233
-0.404181803793527,0.187381507031084
-0.403494420188921,0.184791519783044
-0.402800577562228,0.18223774589043
-0.402100266992339,0.179720006351556
-0.40139347955814,0.17723812216474
-0.400680206338522,0.174791914328296
-0.399960438412373,0.172381203840541
-0.399234166858582,0.17000581169979
-0.398501382756038,0.16766555890436
-0.397762077183629,0.165360266452566
-0.397016241220245,0.163089755342725
-0.396263865944774,0.160853846573151
-0.395504942436105,0.158652361142161
-0.394739461773127,0.156485120048072
-0.393967415034728,0.154351944289197
-0.393188793299798,0.152252654863855
-0.392403587647225,0.15018707277036
-0.391611789155898,0.148155019007028
-0.390813388904706,0.146156314572175
-0.390008377972538,0.144190780464118
-0.389196747438282,0.142258237681171
-0.388378488380827,0.140358507221652
-0.387553591879063,0.138491410083875
-0.386722049011878,0.136656767266156
-0.38588385085816,0.134854399766812
-0.385038988496799,0.133084128584159
-0.384187453006683,0.131345774716512
-0.383329235466702,0.129639159162187
-0.382464326955743,0.127964102919499
-0.381592718552697,0.126320426986766
-0.380714401336451,0.124707952362302
-0.379829366385894,0.123126500044425
-0.378937604779916,0.121575891031448
-0.378039107597405,0.120055946321689
-0.37713386591725,0.118566486913463
-0.37622187081834,0.117107333805087
-0.375303113379563,0.115678307994875
-0.374377584679808,0.114279230481144
-0.373445275797965,0.11290992226221
-0.372506177812921,0.111570204336389
-0.371560281803567,0.110259897701996
-0.37060757884879,0.108978823357348
-0.369648060027479,0.10772680230076
-0.368681716418524,0.106503655530548
-0.367708539100813,0.105309204045028
-0.366728519153234,0.104143268842516
-0.365741647654677,0.103005670921328
-0.364747915684031,0.10189623127978
-0.363747314320184,0.100814770916187
-0.362739834642025,0.0997611108288656
-0.361725467728443,0.0987350720161315
-0.360704204658327,0.0977364754763007
-0.359676036510566,0.0967651422076888
-0.358640954364048,0.0958208932086119
-0.357598949297662,0.0949035494773859
-0.356550012390297,0.0940129320123265
-0.355494134720841,0.0931488618117498
-0.354431307368185,0.0923111598739715
-0.353361521411216,0.0914996471973076
-0.352284767928823,0.0907141447800738
-0.351201037999895,0.0899544736205862
-0.350110322703321,0.0892204547171605
-0.34901261311799,0.0885119090681128
-0.34790790032279,0.0878286576717588
-0.346796175396611,0.0871705215264143
-0.345677429418341,0.0865373216303954
-0.344551653466869,0.0859288789820178
-0.343418838621083,0.0853450145795975
-0.342278975959873,0.0847855494214503
-0.341132056562128,0.0842503045058921
-0.339978071506736,0.0837391008312389
-0.338817011872586,0.0832517593958063
-0.337648868738566,0.0827881011979104
-0.336473633183566,0.0823479472358671
-0.335291296286475,0.0819311185079921
-0.334101849126181,0.0815374360126014
-0.332905282781573,0.0811667207480108
-0.33170158833154,0.0808187937125363
-0.330490756854971,0.0804934759044937
-0.329272779430755,0.080190588322199
-0.328047647137779,0.0799099519639678
-0.326815351054934,0.0796513878281162
-0.325575882261108,0.07941471691296
-0.32432923183519,0.0791997602168152
-0.323075390856068,0.0790063387379975
-0.321814350402631,0.0788342734748229
-0.320546101553769,0.0786833854256072
-0.319270635388371,0.0785534955886663
-0.317987942985323,0.0784444249623162
-0.316698015423517,0.0783559945448726
-0.31540084378184,0.0782880253346514
-0.314096419139181,0.0782403383299686
-0.31278473257443,0.07821275452914
-0.311465775166474,0.0782050949304815
-0.310139537994203,0.078217180532309
-0.308806012136506,0.0782488323329383
-0.307465188672271,0.0782998713306853
-0.306117058680388,0.0783701185238659
-0.304761613239744,0.078459394910796
-0.303398843429229,0.0785675214897915
-0.302028740327732,0.0786943192591682
-0.300651295014141,0.0788396092172419
-0.299266498567346,0.0790032123623288
-0.297874342066234,0.0791849496927444
-0.296474816589696,0.0793846422068048
-0.295067913216619,0.0796021109028259
-0.293653623025893,0.0798371767791234
-0.292231937096406,0.0800896608340134
-0.290802846507047,0.0803593840658116
-0.289366342336705,0.0806461674728339
-0.287922415664269,0.0809498320533963
-0.286471057568628,0.0812701988058146
-0.28501225912867,0.0816070887284046
-0.283546011423284,0.0819603228194823
-0.282072305531359,0.0823297220773635
-0.280591132531784,0.0827151075003642
-0.279102483503448,0.0831163000868001
-0.277606349525239,0.0835331208349872
-0.276102721676047,0.0839653907432414
-0.274591591034759,0.0844129308098785
-0.273072948680266,0.0848755620332143
-0.271546785691455,0.0853531054115649
-0.270013093147216,0.085845381943246
-0.268471862126437,0.0863522126265736
-0.266923083708008,0.0868734184598634
-0.265366748970816,0.0874088204414315
-0.263802848993751,0.0879582395695936
-0.262231374855702,0.0885214968426657
-0.260652317635557,0.0890984132589636
-0.259065668412205,0.0896888098168033
-0.257471418264536,0.0902925075145005
-0.255869558271437,0.0909093273503712
-0.254260079511799,0.0915390903227312
-0.252642973064508,0.0921816174298965
-0.251018230008455,0.0928367296701828
-0.249385841422528,0.0935042480419062
-0.247745798385616,0.0941839935433824
-0.246098091976608,0.0948757871729273
-0.244442713274392,0.0955794499288568
-0.242779653357858,0.0962948028094869
-0.241108903305894,0.0970216668131333
-0.239430454197389,0.0977598629381119
-0.237744297111231,0.0985092121827387
-0.236050423126311,0.0992695355453295
-0.234348823321516,0.1000406540242
-0.232639488775735,0.100822388617667
-0.230922410567857,0.101614560324045
-0.229197579776771,0.10241699014165
-0.227464987481366,0.103229499068799
-0.22572462476053,0.104051908103808
-0.223976482693153,0.104884038244991
-0.222220552358123,0.105725710490666
-0.220456824834329,0.106576745839147
-0.218685291200659,0.107436965288751
-0.216905942536004,0.108306189837794
-0.21511876991925,0.109184240484591
-0.213323764429288,0.110070938227459
-0.211520917145006,0.110966104064713
-0.209710219145293,0.111869558994669
-0.207891661509038,0.112781124015644
-0.206065235315128,0.113700620125952
-0.204230931642455,0.11462786832391
-0.202388741569905,0.115562689607834
-0.200538656176368,0.116504904976039
-0.198680666540733,0.117454335426842
-0.196814763741889,0.118410801958558
-0.194940938858724,0.119374125569504
-0.193059182970127,0.120344127257994
-0.191169487154987,0.121320628022346
-0.189271842492193,0.122303448860874
-0.187366240060633,0.123292410771895
-0.185452670939197,0.124287334753724
-0.183531126206774,0.125288041804679
-0.181601596942251,0.126294352923073
-0.179664074224518,0.127306089107224
-0.177718549132464,0.128323071355446
-0.175765012744977,0.129345120666057
-0.173803456140947,0.130372058037372
-0.171833870399262,0.131403704467706
-0.169856246598811,0.132439880955376
-0.167870575818482,0.133480408498698
-0.165876849137165,0.134525108095987
-0.163875057633749,0.135573800745559
-0.161865192387122,0.13662630744573
-0.159847244476173,0.137682449194816
-0.15782120497979,0.138742046991134
-0.155787064976863,0.139804921832998
-0.153744815546281,0.140870894718724
-0.151694447766932,0.14193978664663
-0.149635952717705,0.143011418615029
-0.147569321477489,0.144085611622239
-0.145494545125173,0.145162186666575
-0.143411614739645,0.146240964746353
-0.141320521399795,0.147321766859889
-0.139221256184511,0.148404414005499
-0.137113810172682,0.149488727181499
-0.134998174443196,0.150574527386204
-0.132874340074943,0.15166163561793
-0.130742298146812,0.152749872874994
-0.12860203973769,0.153839060155711
-0.126453555926468,0.154929018458397
-0.124296837792034,0.156019568781368
-0.122131876413276,0.15711053212294
-0.119958662869084,0.158201729481429
-0.117777188238347,0.15929298185515
-0.115587443599952,0.16038411024242
-0.113389420032789,0.161474935641554
-0.111183108615747,0.162565279050868
-0.108968500427715,0.163654961468678
-0.10674558654758,0.164743803893301
-0.104514358054234,0.165831627323051
-0.102274806026563,0.166918252756245
-0.100026921543457,0.168003501191198
-0.0977706956838041,0.169087193626227
-0.0955061195264942,0.170169151059647
-0.0932331841504154,0.171249194489775
-0.0909518806344568,0.172327144914926
-0.0886622000575069,0.173402823333416
-0.0863641334984549,0.17447605074356
-0.0840576720361893,0.175546648143676
-0.0817428067495991,0.176614436532078
-0.079419528717573,0.177679236907082
-0.0770878290189999,0.178740870267005
-0.0747476987327685,0.179799157610162
-0.0723991289377678,0.18085391993487
-0.0700421107128864,0.181904978239443
-0.0676766351370132,0.182952153522199
-0.065302693289037,0.183995266781452
-0.0629202762478468,0.185034139015519
-0.0605293750923311,0.186068591222715
-0.058129980901379,0.187098444401357
-0.0557220847538791,0.18812351954976
-0.0533056777287204,0.18914363766624
-0.0508807509047914,0.190158619749113
-0.0484472953609814,0.191168286796696
-0.0460053021761787,0.192172459807303
-0.0435547624292725,0.19317095977925
-0.0410956671991514,0.194163607710855
-0.0386280075647043,0.195150224600432
-0.03615177460482,0.196130631446297
-0.0336669593983874,0.197104649246766
-0.031173553024295,0.198072099000155
-0.0286715465614321,0.199032801704781
-0.0261609310886871,0.199986578358958
-0.023641697684949,0.200933249961003
-0.0211138374291065,0.201872637509232
-0.0185773414000486,0.20280456200196
-0.016032200676664,0.203728844437503
-0.0134784063378416,0.204645305814178
-0.0109159494624699,0.205553767130299
-0.00834482112943824,0.206454049384184
-0.00576501241763494,0.207345973574148
-0.00317651440594914,0.208229360698506
-0.00057931817326945,0.209104031755575
0.00202658520151514,0.20996980774367
0.00464120463951603,0.210826509661108
0.00726454906184419,0.211673958506205
0.00989662738961097,0.212511975277275
0.0125374485439274,0.213340380972635
0.0151870214459048,0.214158996590601
0.0178453550166543,0.214967643129489
0.0205124581772871,0.215766141587615
0.0231883398489143,0.216554312963294
0.0258730089526473,0.217331978254843
0.028566474409597,0.218098958460576
0.031268745140875,0.218855074578811
0.0339798300675919,0.219600147607864
0.0366997381108595,0.220333998546049
0.0394284781917884,0.221056448391682
0.0421660592314903,0.221767318143081
0.0449124901510761,0.22246642879856
0.047667779871657,0.223153601356435
0.0504319373143443,0.223828656815023
0.0532049714002491,0.224491416172639
0.0559868910504826,0.225141700427599
0.0587777051861561,0.225779330578219
0.0615774227283805,0.226404127622815
0.0643860525982673,0.227015912559703
0.0672036037169275,0.227614506387198
0.0700300850054724,0.228199730103616
0.0728655053850131,0.228771404707274
0.0757098737766608,0.229329351196488
0.0785631991015266,0.229873390569572
0.0814254902807219,0.230403343824843
0.0842967562353577,0.230919031960617
0.0871770058865454,0.23142027597521
0.0900662481553959,0.231906896866938
0.0929644919630206,0.232378715634116
0.0958717462305305,0.23283555327506
0.0987880198790371,0.233277230788086
0.101713321829651,0.233703569171511
0.104647661003484,0.23411438942365
0.107591046321647,0.234509512542819
0.110543486705252,0.234888759527333
0.113504991075408,0.235251951375509
0.116475568353229,0.235598909085662
0.119455227459824,0.235929453656109
0.122443977316305,0.236243406085166
0.125441826843783,0.236540587371147
0.12844878496337,0.236820818512369
0.131464860596176,0.237083920507149
0.134490062663313,0.237329714353801
0.137524400085892,0.237558021050641
0.140567881785024,0.237768661595987
0.14362051668182,0.237961456988152
0.146682313697392,0.238136228225454
0.14975328175285,0.238292796306209
0.152833429769307,0.238430982228731
0.155922766667872,0.238550606991337
0.159021301369658,0.238651491592343
0.162129042795774,0.238733457030065
0.165245999867334,0.238796324302818
0.168372181505447,0.238839914408919
0.171507596631225,0.238864048346683
0.17465225416578,0.238868547114426
0.177806163030221,0.238853231710465
0.180969332145661,0.238817923133114
0.184141770433211,0.23876244238069
0.187323486813982,0.238686610451509
0.190514490209085,0.238590248343887
0.193714789539631,0.238473177056139
0.196924393726732,0.238335217586581
0.200143311691498,0.23817619093353
0.203371552355041,0.2379959180953
0.206609124638472,0.237794220070209
0.209856037462902,0.237570917856572
0.213112299749443,0.237325832452704
0.216377920419205,0.237058784856922
0.2196529083933,0.236769596067541
0.222937272592839,0.236458087082878
0.226231021938933,0.236124078901248
0.229534165352693,0.235767392520967
0.232846711755231,0.235387848940352
0.236168670067658,0.234985269157717
0.239500049211084,0.234559474171379
0.242840858106621,0.234110284979653
0.246191105675381,0.233637522580856
0.249550800838474,0.233141007973304
0.252919952517011,0.232620562155312
0.256298569632105,0.232076006125196
0.259686661104865,0.231507160881272
0.263084235856404,0.230913847421856
0.266491302807832,0.230295886745263
0.26990787088026,0.229653099849811
0.2733339489948,0.228985307733814
0.276769546072564,0.228292331395588
0.280214671034661,0.22757399183345
0.283669332802203,0.226830110045715
0.287133540296302,0.226060507030699
0.290607302438069,0.225265003786718
0.294090628148614,0.224443421312088
0.29758352634905,0.223595580605124
0.301086005960486,0.222721302664143
0.304598075904036,0.221820408487461
0.308119745100808,0.220892719073393
0.311651022471916,0.219938055420255
0.315191916938469,0.218956238526363
0.31874243742158,0.217947089390034
0.322302592842358,0.216910429009582
0.325872392121917,0.215846078383323
0.329451844181366,0.214753858509575
0.333040957941817,0.213633590386652
0.336639742324381,0.21248509501287
0.340248206250169,0.211308193386546
0.343866358640293,0.210102706505994
0.347494208415863,0.208868455369532
0.351131764497991,0.207605260975474
0.354779035807788,0.206312944322138
0.358436031266366,0.204991326407838
0.362102759794834,0.20364022823089
0.365779230314305,0.202259470789611
0.369465451745891,0.200848875082316
0.373161433010701,0.199408262107322
0.376867183029847,0.197937452862943
0.38058271072444,0.196436268347496
0.384308025015592,0.194904529559297
0.388043134824413,0.193342057496662
0.391788049072016,0.191748673157906
0.39554277667951,0.190124197541346
0.399307326568008,0.188468451645297
0.40308170765862,0.186781256468075
0.406865928872458,0.185062433007996
0.410659999130632,0.183311802263376
0.414463927354254,0.181529185232531
0.418277722464436,0.179714402913777
0.422101393382288,0.177867276305429
0.425934949028921,0.175987626405804
0.429778398325448,0.174075274213217
0.433631750192978,0.172130040725984
0.437495013552623,0.170151746942421
0.441368197325494,0.168140213860845
0.445251310432703,0.16609526247957
0.449144361795361,0.164016713796913
0.453047360334578,0.161904388811189
0.456960314971466,0.159758108520715
0.460883234627137,0.157577693923806
0.464816128222701,0.155362966018779
0.46875900467927,0.153113745803949
0.46875900467927,0.153113745803949
0.47267253889534,0.150843102527525
0.476517580032141,0.148564303848651
0.480294398404883,0.146277468382038
0.484003264328773,0.143982714742402
0.487644448119021,0.141680161544454
0.491218220090836,0.139369927402909
0.494724850559426,0.13705213093248
0.498164609840002,0.134726890747881
0.501537768247772,0.132394325463824
0.504844596097945,0.130054553695024
0.508085363705729,0.127707694056194
0.511260341386335,0.125353865162048
0.51436979945497,0.122993185627298
0.517414008226844,0.120625774066659
0.520393238017167,0.118251749094844
0.523307759141146,0.115871229326566
0.526157841913991,0.113484333376539
0.528943756650911,0.111091179859476
0.531665773667115,0.10869188739009
0.534324163277813,0.106286574583096
0.536919195798212,0.103875360053207
0.539451141543522,0.101458362415136
0.541920270828951,0.0990357002835963
0.544326853969711,0.0966074922733018
0.546671161281008,0.094173856998966
0.548953463078051,0.0917349130753021
0.551174029676051,0.0892907791170238
0.553333131390216,0.0868415737388445
0.555431038535755,0.0843874155554777
0.557468021427877,0.0819284231816367
0.559444350381791,0.0794647152320352
0.561360295712706,0.0769964103213866
0.563216127735831,0.0745236270644043
0.565012116766375,0.0720464840758018
0.566748533119547,0.0695650999702926
0.568425647110556,0.0670795933625902
0.570043729054611,0.0645900828674081
0.57160304926692,0.0620966870994596
0.573103878062694,0.0595995246734583
0.574546485757142,0.0570987142041177
0.575931142665471,0.0545943743061512
0.577258119102891,0.0520866235942723
0.578527685384611,0.0495755806831945
0.57974011182584,0.0470613641876312
0.580895668741787,0.044544092722296
0.581994626447662,0.0420238849019021
0.583037255258672,0.0395008593411633
0.584023825490027,0.036975134654793
0.584954607456937,0.0344468294575045
0.585829871474609,0.0319160623640114
0.586649887858254,0.0293829519890271
0.58741492692308,0.0268476169472652
0.588125258984295,0.024310175853439
0.58878115435711,0.0217707473222621
0.589382883356733,0.019229449968448
0.589930716298373,0.0166864024067101
0.590424923497239,0.0141417232517618
0.59086577526854,0.0115955311183167
0.591253541927486,0.00904794462108823
0.591588493789284,0.00649908237478987
0.591870901169145,0.00394906299413508
0.592101034382276,0.00139800509383728
0.592279163743888,-0.00115397271139
0.592405559569189,-0.00370675180683323
0.592480492173387,-0.00626021357777903
0.592504231871693,-0.00881423940951392
0.592477048979316,-0.0113687106873244
0.592399213811463,-0.013923508796497
0.592270996683344,-0.0164785151223182
0.592092667910169,-0.0190336110500747
0.591864497807145,-0.0215886779650528
0.591586756689483,-0.0241435972525392
0.591259714872391,-0.0266982502978203
0.590883642671078,-0.0292525184861828
0.590458810400754,-0.031806283202913
0.589985488376626,-0.0343594258332976
0.589463946913905,-0.0369118277626231
0.588894456327798,-0.039463370376176
0.588277286933516,-0.0420139350592428
0.587612709046267,-0.0445634031971101
0.586900992981261,-0.0471116561750643
0.586142409053705,-0.0496585753783921
0.585337227578809,-0.0522040421923799
0.584485718871783,-0.0547479380023143
0.583588153247835,-0.0572901441934818
0.582644801022175,-0.0598305421511689
0.58165593251001,-0.0623690132606622
0.58062181802655,-0.0649054389072482
0.579542727887005,-0.0674397004762133
0.578418932406583,-0.0699716793528442
0.577250701900493,-0.0725012569224274
0.576038306683944,-0.0750283145702494
0.574782017072146,-0.0775527336815966
0.573482103380307,-0.0800743956417558
0.572138835923636,-0.0825931818360133
0.570752485017342,-0.0851089736496557
0.569323320976634,-0.0876216524679695
0.567851614116722,-0.0901310996762414
0.566337634752814,-0.0926371966597577
0.564781653200119,-0.095139824803805
0.563183939773846,-0.0976388654936698
0.561544764789205,-0.100134200114639
0.559864398561404,-0.102625710051998
0.558143111405652,-0.105113276691035
0.556381173637158,-0.107596781417035
0.554578855571132,-0.110076105615286
0.552736427522782,-0.112551130671073
0.550854159807317,-0.115021737969683
0.548932322739946,-0.117487808896404
0.546971186635879,-0.11994922483652
0.544971021810324,-0.12240586717532
0.54293209857849,-0.124857617298088
0.540854687255587,-0.127304356590113
0.538739058156822,-0.12974596643668
0.536585481597406,-0.132182328223076
0.534394227892548,-0.134613323334587
0.532165567357455,-0.1370388331565
0.529899770307338,-0.139458739074102
0.527597107057405,-0.141872922472679
0.525257847922866,-0.144281264737518
0.522882263218929,-0.146683647253904
0.520470623260803,-0.149079951407126
0.518023198363697,-0.151470058582468
0.515540258842821,-0.153853850165218
0.513022075013384,-0.156231207540662
0.510468917190593,-0.158602012094087
0.507881055689659,-0.16096614521078
0.50525876082579,-0.163323488276026
0.502602302914195,-0.165673922675112
0.499911952270084,-0.168017329793325
0.497187979208665,-0.170353591015952
0.494430654045147,-0.172682587728279
0.49164024709474,-0.175004201315592
0.488817028672653,-0.177318313163178
0.485961269094093,-0.179624804656323
0.483073238674271,-0.181923557180315
0.480153207728395,-0.184214452120439
0.477201446571675,-0.186497370861982
0.474218225519319,-0.18877219479023
0.471203814886536,-0.191038805290471
0.468158484988536,-0.193297083747991
0.465082506140527,-0.195546911548075
0.461976148657718,-0.197788170076012
0.458839682855319,-0.200020740717086
0.455673379048538,-0.202244504856586
0.452477507552585,-0.204459343879796
0.449252338682668,-0.206665139172005
0.445998142753997,-0.208861772118498
0.442715190081779,-0.211049124104562
0.439403750981226,-0.213227076515483
0.436064095767544,-0.215395510736548
0.432696494755944,-0.217554308153043
0.429301218261635,-0.219703350150256
0.425878536599825,-0.221842518113472
0.422428720085723,-0.223971693427978
0.418952039034539,-0.226090757479061
0.415448763761481,-0.228199591652007
0.411919164581759,-0.230298077332102
0.408363511810581,-0.232386095904634
0.404782075763156,-0.234463528754888
0.401175126754694,-0.236530257268152
0.397542935100404,-0.238586162829711
0.393885771115493,-0.240631126824852
0.390203905115173,-0.242665030638863
0.38649760741465,-0.244687755657029
0.382767148329136,-0.246699183264636
0.379012798173837,-0.248699194846972
0.375234827263964,-0.250687671789323
0.371433505914726,-0.252664495476975
0.367609104441331,-0.254629547295215
0.363761893158989,-0.25658270862933
0.359892142382908,-0.258523860864606
0.356000122428297,-0.260452885386329
0.352086103610366,-0.262369663579786
0.348150356244324,-0.264274076830264
0.344193150645379,-0.266166006523049
0.34021475712874,-0.268045334043428
0.336215446009617,-0.269911940776687
0.332195487603219,-0.271765708108113
0.328155152224754,-0.273606517422992
0.324094710189432,-0.27543425010661
0.32001443181246,-0.277248787544255
0.31591458740905,-0.279050011121213
0.311795447294409,-0.28083780222277
0.307657281783747,-0.282612042234214
0.303500361192272,-0.284372612540829
0.299324955835193,-0.286119394527903
0.295131336027721,-0.287852269580723
0.290919772085063,-0.289571119084575
0.286690534322428,-0.291275824424746
0.282443893055025,-0.292966266986521
0.278180118598065,-0.294642328155188
0.273899481266755,-0.296303889316033
0.269602251376304,-0.297950831854343
0.265288699241922,-0.299583037155404
0.260959095178818,-0.301200386604503
0.256613709502201,-0.302802761586926
0.252252812527278,-0.304390043487959
0.24787667456926,-0.30596211369289
0.243485565943356,-0.307518853587005
0.239079756964775,-0.30906014455559
0.234659517948725,-0.310585867983932
0.230225119210416,-0.312095905257317
0.225776831065056,-0.313590137761032
0.221314923827855,-0.315068446880364
0.216839667814021,-0.316530714000598
0.212351333338764,-0.317976820507022
0.207850190717293,-0.319406647784922
0.203336510264816,-0.320820077219585
0.198810562296543,-0.322216990196297
0.194272617127682,-0.323597268100344
0.189722945073444,-0.324960792317014
0.185161816449035,-0.326307444231592
0.180589501569667,-0.327637105229365
0.176006270750547,-0.32894965669562
0.171412394306884,-0.330244980015643
0.166808142553888,-0.331522956574722
0.162193785806768,-0.332783467758141
0.157569594380733,-0.334026394951188
0.152935838590991,-0.33525161953915
0.148292788752752,-0.336459022907312
0.143640715181225,-0.337648486440962
0.138979888191617,-0.338819891525386
0.13431057809914,-0.33997311954587
0.129633055219002,-0.341108051887702
0.124947589866411,-0.342224569936166
0.120254452356577,-0.343322555076551
0.115553913004708,-0.344401888694143
0.110846242126014,-0.345462452174227
0.106131710035704,-0.346504126902092
0.101410587048986,-0.347526794263022
0.0966831434810708,-0.348530335642305
0.0919496496471656,-0.349514632425227
0.0872103758624802,-0.350479565997075
0.0824655924422234,-0.351425017743136
0.0777155697016044,-0.352350869048695
0.0729605779558321,-0.353257001299039
0.0682008875201155,-0.354143295879456
0.0634367687096635,-0.35500963417523
0.0586684918396854,-0.35585589757165
0.0538963272253898,-0.356681967454001
0.0491205451819861,-0.35748772520757
0.044341416024683,-0.358273052217644
0.0395592100686898,-0.359037829869508
0.0347741976292151,-0.35978193954845
0.0299866490214684,-0.360505262639757
0.0251968345606582,-0.361207680528713
0.0204050245619939,-0.361889074600607
0.0156114893406842,-0.362549326240725
0.0108164992119384,-0.363188316834353
0.00602032449096515,-0.363805927766777
0.00122323549297385,-0.364402040423285
-0.00357449746682681,-0.364976536189163
-0.0083726040732276,-0.365529296449697
-0.0131708140110197,-0.366060202590173
-0.017968856964994,-0.36656913599588
-0.0227664626199416,-0.367055978052102
-0.0275633606606533,-0.367520610144126
-0.0323592807719204,-0.367962913657239
-0.0371539526385334,-0.368382769976728
-0.041947105945284,-0.368780060487879
-0.0467384703769626,-0.369154666575978
-0.0515277756183605,-0.369506469626313
-0.0563147513542685,-0.369835351024169
-0.0610991272694778,-0.370141192154833
-0.0658806330487791,-0.370423874403592
-0.0706589983769639,-0.370683279155732
-0.0754339529388226,-0.370919287796539
-0.0802052264191467,-0.371131781711301
-0.0849725485027268,-0.371320642285304
-0.0897356488743543,-0.371485750903834
-0.0944942572188197,-0.371626988952177
-0.0992481032209146,-0.371744237815621
-0.103996916565429,-0.371837378879452
-0.108740426937156,-0.371906293528956
-0.113478364020884,-0.371950863149421
-0.118210457501405,-0.371970969126131
-0.122936437063511,-0.371966492844375
-0.127656032391991,-0.371937315689438
-0.132368973171638,-0.371883319046607
-0.137074989087242,-0.371804384301169
-0.141773809823594,-0.37170039283841
-0.146465165065486,-0.371571226043616
-0.151148784497707,-0.371416765302075
-0.15582439780505,-0.371236891999072
-0.160491734672304,-0.371031487519894
-0.165150524784262,-0.370800433249829
-0.169800497825714,-0.370543610574161
-0.174441383481451,-0.370260900878178
-0.179072911436264,-0.369952185547167
-0.183694811374945,-0.369617345966413
-0.188306812982283,-0.369256263521204
-0.19290864594307,-0.368868819596825
-0.197500039942098,-0.368454895578565
-0.202080724664157,-0.368014372851707
-0.206650429794037,-0.367547132801541
-0.211208885016531,-0.367053056813351
-0.215755820016429,-0.366532026272425
-0.220290964478522,-0.365983922564049
-0.224814048087601,-0.36540862707351
-0.229324800528458,-0.364806021186094
-0.233822951485882,-0.364175986287087
-0.238308230644665,-0.363518403761777
-0.242780367689599,-0.362833154995449
-0.247239092305473,-0.362120121373391
-0.25168413417708,-0.361379184280888
-0.256115222989209,-0.360610225103227
-0.260532088426653,-0.359813125225696
-0.264934460174202,-0.35898776603358
-0.269322067916646,-0.358134028912165
-0.273694641338778,-0.357251795246739
-0.278051910125388,-0.356340946422588
-0.282393603961267,-0.355401363824998
-0.286719452531206,-0.354432928839256
-0.291029185519996,-0.353435522850649
-0.295322532612428,-0.352409027244463
-0.299599223493293,-0.351353323405985
-0.303858987847382,-0.3502682927205
-0.308101555359486,-0.349153816573296
-0.312326655714396,-0.34800977634966
-0.316534018596903,-0.346836053434876
-0.320723373691798,-0.345632529214234
-0.324894450683872,-0.344399085073017
-0.329046979257916,-0.343135602396515
-0.333180689098721,-0.341841962570012
-0.337295309891078,-0.340518046978795
-0.341390571319778,-0.339163737008151
-0.345466203069612,-0.337778914043366
-0.349521934825371,-0.336363459469728
-0.353557496271846,-0.334917254672521
-0.357572617093828,-0.333440181037034
-0.361567026976108,-0.331932119948552
-0.365540455603477,-0.330392952792362
-0.369492632660726,-0.328822560953751
-0.373423287832645,-0.327220825818005
-0.377332150804027,-0.32558762877041
-0.381218951259662,-0.323922851196254
-0.385083418884341,-0.322226374480822
-0.388925283362854,-0.320498080009401
-0.392744274379994,-0.318737849167279
-0.39654012162055,-0.31694556333974
-0.400312554769315,-0.315121103912072
-0.404061303511078,-0.313264352269561
-0.407786097530631,-0.311375189797494
-0.411486666512766,-0.309453497881158
-0.415162740142272,-0.307499157905838
-0.418814048103941,-0.305512051256822
-0.422440320082564,-0.303492059319395
-0.426041285762932,-0.301439063478846
-0.429616674829836,-0.299352945120459
-0.433166216968067,-0.297233585629521
-0.436689641862415,-0.29508086639132
-0.440186679197673,-0.292894668791141
-0.44365705865863,-0.290674874214271
-0.447100509930079,-0.288421364045997
-0.450516762696809,-0.286134019671605
-0.453905546643612,-0.283812722476382
-0.457266591455279,-0.281457353845614
-0.460599626816601,-0.279067795164588
-0.463904382412368,-0.27664392781859
-0.467180587927373,-0.274185633192907
-0.470427973046406,-0.271692792672825
-0.473646267454257,-0.269165287643631
-0.476835200835718,-0.266602999490611
-0.47999450287558,-0.264005809599052
-0.483123903258634,-0.261373599354241
-0.486223131669671,-0.258706250141463
-0.489291917793481,-0.256003643346006
-0.492329991314857,-0.253265660353156
-0.495337081918588,-0.2504921825482
-0.498312919289466,-0.247683091316423
-0.501257233112282,-0.244838268043114
-0.504169753071827,-0.241957594113557
-0.507050208852892,-0.23904095091304
-0.509898330140268,-0.236088219826849
-0.512713846618745,-0.233099282240271
-0.515496487973115,-0.230074019538592
-0.518245983888169,-0.227012313107099
-0.520962064048697,-0.223914044331078
-0.523644458139492,-0.220779094595816
-0.526292895845344,-0.2176073452866
-0.528907106851043,-0.214398677788715
-0.531486820841381,-0.211152973487449
-0.534031767501148,-0.207870113768087
-0.536541676515137,-0.204549980015917
-0.539016277568137,-0.201192453616225
-0.54145530034494,-0.197797415954298
-0.543858474530337,-0.194364748415421
-0.546225529809119,-0.190894332384882
-0.548556195866076,-0.187386049247968
-0.550850202386,-0.183839780389963
-0.553107279053683,-0.180255407196156
-0.555327155553913,-0.176632811051833
-0.557509561571484,-0.17297187334228
-0.559654226791185,-0.169272475452784
-0.561760880897808,-0.16553449876863
-0.563829253576144,-0.161757824675107
-0.565859074510983,-0.1579423345575
-0.567850073387118,-0.154087909801096
