-0.124840348385671,0.490151700549228
-0.218716548774471,0.381732873515158
-0.221166128292044,0.373602848778595
-0.223554199682103,0.365510740099872
-0.111418847691805,0.46351388381424
-0.228147121079924,0.34944007029314
-0.230352622587806,0.341461408853729
-0.232497918968416,0.333520462849353
-0.325673547089297,0.223309507212956
-0.236609199348067,0.317751516522902
-0.238575834847229,0.309923415889424
-0.240483568219362,0.302132830068177
-0.242332725214527,0.29437970890346
-0.244123631582785,0.286664002239572
-0.245856613074196,0.27898565992081
-0.247531995438821,0.271344631791475
-0.249150104426722,0.263740867695865
-0.250711265787957,0.256174317478278
-0.252215805272589,0.248644930983015
-0.253664048630678,0.241152658054373
-0.255056321612284,0.233697448536652
-0.145778412117513,0.339595225783703
-0.257674259446292,0.218898019111168
-0.258900575798814,0.211553698892002
-0.260072224775097,0.204246241460952
-0.2611895321252,0.196975596662318
-0.14274807097892,0.304294452542012
-0.263262424947112,0.182544544339489
-0.15080636735261,0.288604129622504
-0.265121860265035,0.168260140677907
-0.16928349445177,0.274556894459902
-0.266770444079455,0.154121984431964
-0.267516481048002,0.147107623700603
-0.268210782390856,0.140129674356049
-0.268853673858076,0.1331880862426
-0.269445481199724,0.126282809204554
-0.374834795845057,0.018349685292673
-0.178788705789345,0.205720151200446
-0.270917655971839,0.105784342985831
-0.271308384311803,0.09902380869239
-0.271649657276498,0.0922993346958475
-0.271941800615984,0.0856108708405023
-0.272185140080322,0.0789583669706531
-0.272380001419573,0.0723417729305989
-0.172673478290112,0.165465035295586
-0.272625592723056,0.0592161137170713
-0.364888039368287,-0.0432739849850571
-0.272681180526918,0.0462334919543102
-0.272638537491643,0.0397956947277143
-0.162214507885808,0.12914090449354
-0.272414006296983,0.0270268768055865
-0.27223276963772,0.0206957557986522
-0.272005986603915,0.0144000932202029
-0.27173398294563,0.00813983891453758
-0.271417084412925,0.0019149427259549
-0.271055616755861,-0.00427464550124618
-0.270649905724498,-0.0104289759227667
-0.270200277068897,-0.0165480986943078
-0.378230830495931,-0.129764560989524
-0.269170569885223,-0.0286809219102563
-0.268591142857272,-0.0346947226660658
-0.267969101205326,-0.0406735163947004
-0.267304770679445,-0.0466173532518613
-0.26659847702969,-0.0525262833932494
-0.265850546006122,-0.0584003569745659
-0.166841454409385,0.0310920035067649
-0.264231074837788,-0.0700441350797884
-0.263360186193144,-0.0758139399150968
-0.154906601634065,0.0344759483159837
-0.261497731533204,-0.0872496319296132
-0.26050681701803,-0.0929156194202234
-0.259476545379467,-0.0985471014406699
-0.258407242367576,-0.104144128146654
-0.257299233732417,-0.109706749693876
-0.363892639885341,-0.211836554222501
-0.254968402592541,-0.12072897793484
-0.253746231587944,-0.126188684939984
-0.252486657960323,-0.131614187409171
-0.251190007459738,-0.137005535498102
-0.249856605836249,-0.142362779362478
-0.248486778839918,-0.147685969158001
-0.247080852220805,-0.15297515504037
-0.24563915172897,-0.158230387165288
-0.244162003114474,-0.163451715688456
-0.242649732127379,-0.168639190765574
-0.241102664517744,-0.173792862552345
-0.342349481352908,-0.287835707230133
-0.237905442431098,-0.183998996877645
-0.236255939454209,-0.189051559727577
-0.234572942855023,-0.194070519909965
-0.232856778383601,-0.199055927580511
-0.231107771790004,-0.204007832894915
-0.229326248824292,-0.208926286008879
-0.227512535236526,-0.213811337078104
-0.225666956776766,-0.21866303625829
-0.223789839195074,-0.22348143370514
-0.221881508241509,-0.228266579574353
-0.219942289666133,-0.233018524021632
-0.217972509219006,-0.237737317202677
-0.21597249265019,-0.242423009273189
-0.213942565709743,-0.24707565038887
-0.211883054147728,-0.25169529070542
-0.118555754292764,-0.162621415375031
-0.207676580159235,-0.260835769563934
-0.205530269232877,-0.2653567084173
-0.308984575734454,-0.387044584849326
-0.201153128266245,-0.274300235750755
-0.198922949726091,-0.278722924542246
-0.196665466814793,-0.283112963624515
-0.194381005282412,-0.287470403153263
-0.192069890879008,-0.29179529328419
-0.189732449354641,-0.296087684172998
-0.187369006459374,-0.300347625975387
-0.184979887943265,-0.30457516884706
-0.182565419556376,-0.308770362943717
-0.180125927048768,-0.312933258421059
-0.177661736170501,-0.317063905434787
-0.175173172671636,-0.321162354140603
-0.172660562302233,-0.325228654694207
-0.170124230812354,-0.329262857251301
-0.167564503952058,-0.333265011967586
-0.164981707471407,-0.337235168998763
-0.275990704670145,-0.440421505016663
-0.159748208649281,-0.345079690628596
-0.157098157807927,-0.348954155538655
-0.15442634034646,-0.352796823386411
-0.151733082014942,-0.356607744327564
-0.149018708563431,-0.360386968517815
-0.14628354574199,-0.364134546112866
-0.0319173196043983,-0.25717502691783
-0.140752154989558,-0.371534962140172
-0.137956578558688,-0.375187900883829
-0.13514151575813,-0.37880939365509
-0.132307292337945,-0.382399490609657
-0.129454234048192,-0.385958241903229
-0.126582666638934,-0.38948569769151
-0.12369291586023,-0.392981908130199
-0.120785307462141,-0.396446923374997
-0.00209595105203197,-0.307362072799066
-0.114917820808051,-0.403283568905728
-0.205848988454438,-0.51770915353066
-0.108982812677149,-0.409996035529311
-0.105990802433046,-0.413305827140175
-0.102982889069921,-0.416584724491355
-0.0999593983378368,-0.419832777738553
-0.0969206559868526,-0.42305003703747
-0.0938669877670295,-0.426236552543806
-0.0907987194284281,-0.429392374413263
-0.0877161767211092,-0.432517552801542
-0.0846196853951333,-0.435612137864345
-0.0815095712005612,-0.438676179757371
0.0142896547560749,-0.343103303177916
-0.0752497772058709,-0.444712834656901
-0.072100748905874,-0.447685547974807
-0.0689394007375235,-0.450627918745741
-0.06576605845088,-0.453539997125405
-0.0625810477960043,-0.456421833269501
-0.059384694522957,-0.459273477333728
-0.0561773243817986,-0.462094979473788
-0.0529592631225901,-0.464886389845382
-0.0497308364953919,-0.467647758604212
0.0687400994752847,-0.368110960153943
-0.0432441901372694,-0.473080571906382
-0.0399866219064662,-0.475752116761125
-0.0367199913079162,-0.478393820625907
-0.0334446240916799,-0.481005733656431
-0.0301608460078179,-0.483587906008396
-0.0268689828063909,-0.486140387837504
-0.0235693602374597,-0.488663229299457
-0.112839149815078,-0.593860793799868
-0.112619448257719,-0.594662968081255
-0.0136271938262466,-0.496054413039392
0.0906287310328532,-0.40763693581077
-0.00696625813236192,-0.500834586551424
-0.00362692010967869,-0.503180639080165
-0.000282102969915821,-0.505497402331659
0.119982031341715,-0.414940785560211
0.00642266566060624,-0.510043261625707
0.00978196565124415,-0.512272457979664
0.0131454417587191,-0.514472565679177
0.0165127682329703,-0.516643634879948
0.0198836193239372,-0.518785715737678
0.0232576692815592,-0.520898858408067
0.0266345923557755,-0.522983113046817
0.0300140627965255,-0.52503852980963
0.0333957548537485,-0.527065158852206
0.0367793427773839,-0.529063050330245
0.0401645008173711,-0.531032254399451
0.0435509032236491,-0.532972821215523
0.0469382242461576,-0.534884800934162
0.0503261381348359,-0.536768243711071
0.0537143191396232,-0.538623199701949
0.0571024415104588,-0.540449719062498
0.154412080968271,-0.450062164342551
0.0638772073500327,-0.544017648515414
0.0672631993186495,-0.545759158919183
-0.0292038660298894,-0.637687786630358
0.0740307726032396,-0.549157521859849
0.0774117024190916,-0.550814474708148
0.0807902933505674,-0.552443342016025
0.0841662196476063,-0.554044173939183
0.0875391555601476,-0.555617020633321
0.0909087753381305,-0.557161932254142
0.0942747532314947,-0.558678958957346
0.0976367634901791,-0.560168150898634
0.0099954989212291,-0.677574907059291
0.104347578103267,-0.563063231118268
-0.0120793801744099,-0.664297302254518
0.111038613176908,-0.565847574158653
0.114375899011285,-0.567198344625879
0.117707262710618,-0.568521581265397
0.121032378524847,-0.569817334232907
0.124350920703911,-0.571085653684111
0.127662563497749,-0.572326589774708
0.130966981156301,-0.573540192660402
0.134263847929507,-0.574726512496891
0.137552838067304,-0.575885599439879
0.140833625819634,-0.577017503645066
0.144105885436435,-0.578122275268152
0.147369291167646,-0.579199964464839
0.150623517263207,-0.580250621390829
0.153868237973057,-0.581274296201822
0.157103127547135,-0.58227103905352
0.0636034866883679,-0.687723188610963
0.163542110287735,-0.584183929501832
0.166745551954135,-0.58510017740985
0.06241835921312,-0.689975800636519
0.173118707128832,-0.586852529372112
0.176287769137008,-0.58768873373776
0.179444719758987,-0.588498357234019
0.182589233244709,-0.589281450016592
0.185720983844115,-0.59003806224118
0.188839645807141,-0.590768244063483
0.191944893383729,-0.591472045639202
0.195036400823818,-0.59214951712404
0.198113842377346,-0.592800708673696
0.201176892294254,-0.593425670443873
0.20422522482448,-0.59402445259027
0.207258514217964,-0.59459710526859
0.306003605089821,-0.489066843649582
0.213278660594462,-0.5956642228438
0.216264866077356,-0.596158788052094
0.313817480382216,-0.490546484334329
0.222187912882128,-0.597070182088561
0.225124102703885,-0.597487111228138
0.228042969138475,-0.597878261989545
0.230944186435838,-0.598243684528483
0.233827428845913,-0.598583429000653
0.236692370618639,-0.598897545561757
0.239538686003955,-0.599186084367495
0.242366049251802,-0.599449095573568
0.245174134612117,-0.599686629335679
0.247962616334842,-0.599898735809527
0.346657616117269,-0.50777961405741
0.150818017811212,-0.710444767944288
0.256207182176859,-0.60038299305851
0.258913991848611,-0.600493891936321
0.261599569132468,-0.600579614304375
0.26426358827837,-0.600640210318374
0.373057824924656,-0.501144758146606
0.269525649156064,-0.60068622390701
0.272123039387735,-0.600671741793049
0.274697568481209,-0.600632333947837
0.277248910686423,-0.600568050527075
0.279776740253319,-0.600478941686464
0.282280731431834,-0.600365057581706
0.284760558471908,-0.600226448368501
0.18774275482809,-0.719418882457651
0.289646417136492,-0.599875255239556
0.292051797260881,-0.599662771635219
0.177497181827325,-0.705862690470976
0.296785830343546,-0.599164281125318
0.299113831801702,-0.598878374531157
0.301415388870993,-0.598568093918458
0.303690175801358,-0.59823348944292
0.305937866842736,-0.597874611260247
0.308158136245067,-0.597491509526138
0.310350658258289,-0.597084234396294
0.312515107132343,-0.596652836026418
0.314651157117168,-0.596197364572209
0.217310493057232,-0.692295970930649
0.318836757418886,-0.5952144030336
0.320885656235659,-0.594687013260602
0.322904853162959,-0.594135751026076
0.324894022450727,-0.593560666485724
0.326852838348902,-0.592961809795246
0.328780975107422,-0.592339231110344
0.435665687642113,-0.491648625843089
0.332543908205259,-0.591023108380072
0.233053767620573,-0.699202354161383
0.336180215743751,-0.589612699540516
0.337950070553092,-0.58887226321901
0.339687291722414,-0.588108405837286
0.433903056412232,-0.495718143639522
0.343062530140763,-0.586510628515989
0.344699895889668,-0.585676808887819
0.346303324998312,-0.584819768822235
0.347872491716634,-0.58393955847494
0.253408147613382,-0.693915311423455
0.350906734982073,-0.582109827558018
0.455803169365943,-0.478178560253801
0.353800019685499,-0.580188017382661
0.355192988201305,-0.579192707962322
0.356549739826426,-0.578174529194478
0.357869948810801,-0.57713353123483
0.35915328940437,-0.576069764239078
0.360399435857071,-0.574983278362925
0.361608062418844,-0.57387412376207
0.267977827674663,-0.679349630405098
0.363911452869364,-0.571588009009064
0.36500556525799,-0.570411149168314
0.366060854755444,-0.569211821225667
0.25341795533432,-0.677929258737383
0.3680536620766,-0.566745961657489
0.368990528400179,-0.56547953034336
0.369887268832345,-0.564190831550139
0.370743557623037,-0.562879915433527
0.371559069022194,-0.561546832149225
0.372333477279756,-0.560191631852935
0.373066456645662,-0.558814364700357
0.373757681369852,-0.557415080847193
0.471102567913225,-0.443763055514001
0.375013563892839,-0.55455066366191
0.375577570191515,-0.553085630641193
0.27885092454808,-0.64608845775304
0.376576084112929,-0.550090166522115
0.377009940235545,-0.548559835735156
0.37739976146602,-0.547007839337518
0.377745222054293,-0.545434227484903
0.378045996250304,-0.543839050333011
0.378301758303992,-0.542222358037544
0.482671073020532,-0.429129841924955
0.378676942984154,-0.538924628638689
0.378795714110508,-0.537243691846703
0.378868170094296,-0.535541440533947
0.378893985185458,-0.53381792485612
0.277272160491848,-0.636955102643201
0.378804389689659,-0.530307301028063
0.378688327602577,-0.528520293189234
0.284411253057394,-0.626717877602363
0.378312045999745,-0.524883136440482
0.378051174983873,-0.523033087841961
0.377741382824951,-0.521162125968278
0.377382343772916,-0.519270300975134
0.376973732077709,-0.517357663018231
0.376515221989269,-0.515424262253269
0.376006487757535,-0.51347014883595
0.375447203632447,-0.511495372921974
0.374837043863943,-0.509499984667043
0.374175682701964,-0.507484034226859
0.373462794396448,-0.505447571757121
0.372698053197335,-0.503390647413531
0.371881133354564,-0.50131331135179
0.27244245339153,-0.612329367950553
0.370089454737806,-0.497097604696662
0.369114044463698,-0.494959334414676
0.480369891300533,-0.386637526228779
0.36700245323372,-0.490622210720366
0.365865620777728,-0.488423457619445
0.364674329427654,-0.48620464389028
0.363428253433437,-0.483965819688574
0.362127067045016,-0.481707035170027
0.360770444512331,-0.47942834049034
0.359358060085321,-0.477129785805215
0.357889588013924,-0.474811421270353
0.356364702548082,-0.472473297041454
0.354783077937732,-0.47011546327422
0.353144388432815,-0.467737970124352
0.46291261123816,-0.346359972871762
0.349694511739034,-0.462924206299519
0.347882673050049,-0.460488035935956
0.346012466466254,-0.458032406812563
0.344083566237588,-0.455557369085042
0.34209564661399,-0.453062972909093
0.3400483818454,-0.450549268440418
0.337941446181756,-0.448016305834718
0.335774513872999,-0.445464135247694
0.333547259169068,-0.442892806835048
0.331259356319901,-0.440302370752479
0.328910479575439,-0.43769287715569
0.32650030318562,-0.435064376200381
0.226646425895026,-0.530173307255993
0.321494748469671,-0.429750552837009
0.434425044960165,-0.318772473258238
0.316240086171568,-0.424361301907973
0.313518525304058,-0.421638516495583
0.430671630631258,-0.299627865035741
0.307885315381815,-0.416136876553566
0.191210616568415,-0.514677504588321
0.301996482876205,-0.410560812159906
0.298955393779486,-0.407744996182963
0.295849421786743,-0.404910724560213
0.292678241147917,-0.402058047447356
0.188987896818767,-0.499210006112137
0.286138950931767,-0.396297677374129
0.191604287562486,-0.508637851347802
0.279334917130552,-0.390464287208891
0.275832807010393,-0.38752033498102
0.272263533743786,-0.38455827819725
0.26862677158067,-0.381578167013282
0.26862677158067,-0.381578167013282
0.264981355818193,-0.37860355805473
0.261386133746526,-0.375657907510666
0.257840797605144,-0.372741114881974
0.254345039633521,-0.369853079669538
0.250898552071131,-0.366993701374243
0.247501027157449,-0.364162879496972
0.244152157131947,-0.36136051353861
0.240851634234102,-0.358586503000041
0.133532744377346,-0.468084669068466
0.122240352938905,-0.462695325364856
0.231237070701242,-0.350433598911938
0.228126858708762,-0.347772005061386
0.225063455041309,-0.345138264135048
0.222046551938356,-0.342532275633809
0.219075841639379,-0.339953939058554
0.216151016383852,-0.337403153910166
0.332509003009565,-0.223944269738825
0.210437789961042,-0.332383835897531
0.207648773272708,-0.329915102035052
0.204904410585721,-0.327473517602977
0.202204394139554,-0.325058982102192
0.199548416173682,-0.32267139503358
0.196936168927578,-0.320310655898026
0.194367344640719,-0.317976664196413
0.0813930708028473,-0.40609361938586
0.189358733902626,-0.313388521098551
0.186918331930341,-0.31113416870407
0.184520121875196,-0.308906161747068
0.182163795976666,-0.30670439972843
0.179849046474224,-0.304528782149039
0.0599885106962174,-0.401278862669386
0.175343045615503,-0.300255578311537
0.173151178738172,-0.298157791055195
0.170999657214826,-0.296085746241637
0.168888173284941,-0.294039343371749
0.166816419187989,-0.292018481946414
0.164784087163445,-0.290023061466517
0.162790869450783,-0.288052981432942
0.160836458289478,-0.286108141346572
0.276752089077041,-0.185333390449716
0.157042824578835,-0.28229377901899
0.155202986508444,-0.280424055779546
0.153400723947308,-0.278579170490844
0.151635729134899,-0.276759022653771
0.149907694310691,-0.27496351176921
0.14821631171416,-0.273192537338044
0.146561273584779,-0.271445998861159
0.144942272162022,-0.26972379583944
0.143358999685365,-0.268025827773769
0.14181114839428,-0.266351994165032
0.140298410528242,-0.264702194514112
0.138820478326726,-0.263076328321894
0.137377044029205,-0.261474295089263
0.135967799875154,-0.259895994317102
0.134592438104047,-0.258341325506297
0.0413769851268771,-0.361679726756538
0.131942130668562,-0.255302481772287
0.130666569483132,-0.253818105850851
0.0285921092418138,-0.346939504431645
0.12821309337427,-0.25091894340354
0.127034562929785,-0.249503955879434
0.125887760544565,-0.248111896822872
0.124772378458082,-0.246742665734739
0.123688108909811,-0.24539616211592
0.122634644139226,-0.244072285467299
0.121611676385801,-0.24277093528976
0.120618897889012,-0.241492011084187
0.0167402583572105,-0.352451316289492
0.118722677623233,-0.239001038592477
0.117818620333193,-0.237788789308108
0.232864702227369,-0.128716737337904
0.11609707263618,-0.235430262166767
0.115278966708157,-0.234283783311562
0.114488895713088,-0.233159026934513
0.113726551890447,-0.232055892536505
0.112991627479709,-0.230974279618422
0.112283814720348,-0.229914087681148
0.111602805851838,-0.228875216225568
0.110948293113653,-0.227857564752565
0.110319968745267,-0.226861032763025
0.213350134618277,-0.123156582376626
0.109140654075792,-0.224930925237867
0.10858904825365,-0.223997148704019
0.108062399759204,-0.223084089657169
0.10756040083193,-0.222191647598204
0.1070827437113,-0.221319722028006
0.106629120636789,-0.22046821244746
-0.0046844476342008,-0.323143422684426
0.105792745584021,-0.218826039258862
0.105409378084712,-0.218035174652578
0.199688230290527,-0.125329003286751
0.104710744337617,-0.216513386920462
0.104394862568779,-0.215782262796399
0.21759053798028,-0.106657167108944
0.103828430437892,-0.214379051536683
0.209515092694131,-0.117481882182031
0.103347055112553,-0.21305388626741
0.10313749435065,-0.2124203196314
0.00884275319671932,-0.325903237683308
0.102779087825746,-0.211210715861056
0.102629626541694,-0.21063447772849
0.102499582895875,-0.21007714809884
0.102388649127762,-0.209538626472991
0.10229651747683,-0.209018812351827
0.102222880182553,-0.208517605236232
0.102167429484404,-0.208034904627091
0.10212985762186,-0.207570610025288
0.102109856834393,-0.207124620931707
0.102107119361477,-0.206696836847232
0.102121337442588,-0.206287157272748
0.102152203317199,-0.205895481709139
0.102199409224785,-0.205521709657289
0.102262647404819,-0.205165740618083
0.102341610096776,-0.204827474092405
0.10243598954013,-0.204506809581139
0.102545477974356,-0.20420364658517
0.102669767638927,-0.203917884605381
0.102808550773318,-0.203649423142658
0.102961519617003,-0.203398161697883
0.103128366409456,-0.203163999771942
0.103308783390152,-0.20294683686572
0.103502462798564,-0.202746572480099
0.210661700354369,-0.103458354494491
0.103928377856436,-0.202396337274201
0.104159997984844,-0.202246165455693
0.104403649498865,-0.202112490161324
0.104659024637974,-0.201995210891979
0.104925815641645,-0.201894227148542
0.105203714749352,-0.201809438431896
-0.0110840282808272,-0.295111883672881
-0.0139289508962024,-0.294646038288229
0.106100983091433,-0.201651237451557
0.106420237010027,-0.201630223850924
0.106749060230029,-0.201624902781504
0.107087144990912,-0.201635173744182
0.107434183532151,-0.201660936239843
0.107789868093219,-0.20170208976937
0.108153890913592,-0.201758533833647
0.108525944232743,-0.20183016793356
0.218527680403481,-0.105899613289849
0.109292911325278,-0.202018604243829
0.00142040179539601,-0.317799296406735
0.214940088281424,-0.0888859693847515
0.110495896691773,-0.202412671498601
0.110909670032553,-0.202573335330895
0.111329319548431,-0.202748485705014
0.111754537478881,-0.202938022121842
0.112185016063378,-0.203141844082264
0.112620447541395,-0.203359851087163
0.113060524152407,-0.203591942637425
0.113504938135888,-0.203838018233934
0.113953381731312,-0.204097977377574
0.114405547178154,-0.204371719569228
0.114861126715887,-0.204659144309782
0.115319812583986,-0.20496015110012
0.115781297021926,-0.205274639441126
0.116245272269179,-0.205602508833684
0.116711430565221,-0.205943658778679
0.117179464149526,-0.206297988776994
0.117649065261568,-0.206665398329515
0.221601114023945,-0.106543962214943
0.11859173902676,-0.207439054100709
0.119064196158858,-0.207845099321151
0.11953698977659,-0.208263822099335
0.12000981211943,-0.208695121936146
0.120482355426853,-0.209138898332468
0.120954311938332,-0.209595050789185
0.121425373893341,-0.210063478807181
0.121895233531356,-0.210544081887341
0.12236358309185,-0.21103675953055
0.122830114814297,-0.21154141123769
0.123294520938171,-0.212057936509647
0.123756493702948,-0.212586234847306
0.124215725348101,-0.213126205751549
0.124671908113103,-0.213677748723262
0.0250453317816813,-0.3241526137664
0.125573895960557,-0.214815148872633
0.126019085521956,-0.21540080505206
0.126459995161102,-0.215997631302493
0.126896317117469,-0.216605527124818
0.127327743630533,-0.217224392019918
0.244010020662987,-0.118798387411772
0.247434431636812,-0.104126943487423
0.128589572904637,-0.219145796150712
0.232384195364965,-0.113230357430398
0.0244788166777984,-0.338327485001535
0.129796263810074,-0.221162303968317
0.130184804925284,-0.221855138397603
0.130565988512984,-0.222558137906739
0.130939506812647,-0.223271201996609
0.131305052063748,-0.223994230168097
0.13166231650576,-0.224727121922087
0.246201043820699,-0.122070439138318
0.132350771920419,-0.226222094181112
0.132681347372013,-0.226983973687915
0.133002410972416,-0.227755314780758
0.133313654961102,-0.228536016960525
0.133614771577545,-0.229325979728099
0.13390545306122,-0.230125102584367
0.1341853916516,-0.23093328503021
0.134454279588161,-0.231750426566515
0.0186583492978391,-0.337491301383127
0.0304970824118406,-0.341280789995852
0.252776683184906,-0.142523133587263
0.135413169585686,-0.235106573634031
0.13562218784526,-0.235967003135905
0.135818308887858,-0.236835788733546
0.237181146124087,-0.143125346869968
0.136170628280029,-0.238598026219665
0.136326211108548,-0.239491277109911
0.13646766567799,-0.240392482099462
0.136594684227829,-0.241301540689201
0.136706958997538,-0.242218352380012
0.0194107118206916,-0.345203586121005
0.136886046154464,-0.24407483306839
0.13695224302063,-0.245014301067724
0.137002465064563,-0.245961120171668
0.250369881549811,-0.147992432281779
0.137053753643629,-0.247876409696922
0.13705420465771,-0.248844679120001
0.137037449807455,-0.249819897651226
0.137003181332339,-0.250801964791482
0.136951091471836,-0.251790780041654
0.13688087246542,-0.252786242902625
0.236797678135808,-0.14800592700937
0.136684815972745,-0.254796709460504
0.136558362965434,-0.25581151215918
0.136412549770108,-0.256832560472193
0.13624706862624,-0.257859753900427
0.136061611773304,-0.258892991944766
0.0409894559507725,-0.355179645476734
0.135629539898126,-0.260977199885298
0.0353355550507428,-0.355548378667513
0.135113872060368,-0.263084380300863
0.134823920254206,-0.264146333938993
0.134512146175823,-0.265213729198534
0.134178242064691,-0.266286465580371
0.133821900160285,-0.267364442585388
0.13344281270208,-0.268447559714468
0.133040671929549,-0.269535716468497
0.132615170082167,-0.270628812348358
0.22937516049328,-0.152531372668133
0.131692852120745,-0.272829419489116
0.0408133738323542,-0.38006718466627
0.0215197736878552,-0.380275143392225
0.130126473104083,-0.276164861166103
0.243651604649302,-0.173745605696836
0.128956695170488,-0.278410337104978
0.0377152753377654,-0.376281162625703
0.127683624600663,-0.280672353575481
0.12700758517585,-0.281809313262304
0.126304799310402,-0.282950106584686
0.125574959243793,-0.284094633043512
0.124817757215498,-0.285242792139667
0.12403288546499,-0.286394483374034
0.123220036231744,-0.287549606247498
0.122378901755235,-0.288708060260943
0.121509174274936,-0.289869744915254
0.120610546030322,-0.291034559711314
0.221492547810206,-0.177161744210608
0.118725356206044,-0.293373177732221
0.117738179105329,-0.294546779958836
0.116720870198195,-0.295723110330738
0.115673121724117,-0.296902068348811
0.114594625922569,-0.29808355351394
0.113485075033025,-0.299267465327009
0.0142346526566865,-0.396919857551169
0.111171576947847,-0.301642166900502
0.109967014231161,-0.302832755662695
0.108730165384376,-0.304025369076366
0.107460722646966,-0.305219906642397
0.106158378258406,-0.306416267861674
0.104822824458169,-0.307614352235081
0.223213946281469,-0.208015783358851
0.102050857580564,-0.310015288447821
0.100613828982144,-0.311217939288923
0.0991423599299446,-0.312421911287692
0.0976361426634398,-0.313627103945012
0.096094869422104,-0.314833416761767
0.0945182324454115,-0.316040749238843
0.0929059239728363,-0.317249000877122
0.187716513295688,-0.200158528299485
0.0895730614979353,-0.31966785964083
0.0878518919745579,-0.320878265768027
0.182208742121248,-0.21510262954493
-0.0179860170063023,-0.418598299181732
0.0824657371344082,-0.324512185141604
0.0805951108959334,-0.325724056933072
0.0786863510773697,-0.326936043892819
0.0767391499181914,-0.328148045521728
0.0747531996578727,-0.329359961320684
0.176874276981074,-0.224554001277693
0.0706638207917112,-0.331783133432274
0.0685597766648169,-0.332994188746676
0.0664157523946789,-0.334204756234663
0.0642314402207717,-0.335414735397118
0.0620065323825694,-0.336624025734926
0.0597407211195464,-0.337832526748971
0.0574336986711766,-0.339040137940137
0.0550851572769345,-0.340246758809309
-0.0649727067220147,-0.439850686676359
0.05026228660873,-0.342656627585206
0.0477873418137159,-0.3438596744937
0.0452696470307264,-0.345061329083737
0.0427088944992355,-0.346261490856201
0.0401047764587176,-0.347460059311976
0.152385592069554,-0.237814104447603
0.128138891268468,-0.238075783681967
0.0320291516777435,-0.351045199788012
0.0292484939958594,-0.352236389985875
0.0264229320023193,-0.353425484371471
0.0235521579365975,-0.354612382445684
0.116246024479732,-0.238157233555946
0.0176737425465053,-0.356979187663498
0.111741894604415,-0.259975938131748
0.0116107857413766,-0.359336001646392
0.0085093349068591,-0.360510410676955
0.00536082543700525,-0.36168202040144
0.00216494957128903,-0.362850730320732
-0.00107860045081511,-0.364016439935716
-0.00437013238983316,-0.365179048747275
-0.00770995400629074,-0.366338456256294
-0.0110983730607137,-0.367494561963657
-0.0145356973136278,-0.368647265370249
-0.0180222345255589,-0.369796465976953
-0.0215582924570326,-0.370942063284655
-0.0251441788685749,-0.372083956794238
-0.0287802015207114,-0.373222046006587
-0.0324666681739681,-0.374356230422585
-0.0362038865888704,-0.375486409543118
-0.0399921645259445,-0.376612482869069
-0.145273005505007,-0.495405434065084
0.0683382469932168,-0.259054303829659
-0.153587560334433,-0.484119922138374
-0.0556620267064726,-0.381073708244745
-0.0597102186622914,-0.382177745111053
-0.0638113167034366,-0.383277073188086
-0.0679656285904339,-0.384371591976727
-0.177391595887654,-0.504958178807603
0.0343763082906497,-0.293201864342835
-0.0807509249317961,-0.387625287621143
-0.0851211698074595,-0.388699564265061
-0.089546167331604,-0.389768529125009
-0.094026225264755,-0.390832081701871
0.00982564450489859,-0.297674436742036
-0.103152753400181,-0.392942548009875
-0.107799839123507,-0.393989260742786
0.00570592555329108,-0.276395063324922
0.00140867637079316,-0.296918357244458
-0.122080076042248,-0.397094111267764
-0.126954174133169,-0.398116963887786
-0.131885794717303,-0.399133600231796
-0.136875245555175,-0.40014391980068
-0.0292664290052636,-0.289019164455458
-0.147028869034239,-0.402145206616602
-0.152193657196483,-0.40313597286541
-0.157417506654568,-0.404120020342628
-0.162700725169021,-0.40509724854914
-0.168043620500368,-0.40606755698583
-0.173446500409134,-0.407030845153584
-0.178909672655845,-0.407987012553285
-0.184433445001027,-0.408935958685817
-0.190018125205205,-0.409877583052065
-0.195664021028906,-0.410811785152912
-0.201371440232655,-0.411738464489245
-0.207140690576978,-0.412657520561945
-0.212972079822401,-0.413568852871899
-0.218865915729449,-0.41447236091999
-0.224822506058649,-0.415367944207103
-0.230842158570525,-0.416255502234121
-0.236925181025605,-0.417134934501929
-0.243071881184413,-0.418006140511411
-0.249282566807476,-0.418869019763453
-0.255557545655318,-0.419723471758937
-0.261897125488467,-0.420569395998748
-0.268301614067448,-0.421406691983771
-0.274771319152786,-0.422235259214889
-0.281306548505008,-0.423054997192988
-0.287907609884638,-0.423865805418951
-0.294574811052204,-0.424667583393663
-0.30130845976823,-0.425460230618007
-0.308108863793243,-0.426243646592869
-0.314976330887768,-0.427017730819132
-0.321911168812331,-0.427782382797681
-0.328913685327458,-0.4285375020294
-0.242966676391385,-0.327395948178709
-0.343122985171506,-0.430018740255886
-0.350330384021478,-0.430744658252422
-0.454470296624181,-0.524552233192407
-0.364952218379951,-0.432166589516498
-0.372367269409502,-0.432862401785808
-0.379852153353297,-0.433547977814478
-0.387407177971863,-0.434223217103392
-0.508223071564875,-0.552454938523069
-0.402728880275407,-0.435542283465491
-0.410496173481437,-0.436185909540444
-0.418334838404341,-0.436818796879179
-0.426245182804643,-0.43744084498258
-0.43422751444287,-0.43805195335153
-0.43422751444287,-0.43805195335153
-0.546891838309978,-0.531226847332975
-0.450085869410264,-0.43918207368308
-0.457881577943415,-0.43968659230087
-0.465588668589496,-0.440150994959011
-0.473207412408476,-0.440575465461759
-0.480738080460326,-0.44096018761337
-0.488180943805016,-0.4413053452181
-0.495536273502516,-0.441611122080205
-0.502804340612797,-0.44187770200394
-0.509985416195829,-0.442105268793561
-0.517079771311581,-0.442294006253325
-0.524087677020025,-0.442444098187488
-0.53100940438113,-0.442555728400304
-0.537845224454867,-0.44262908069603
-0.431394098897771,-0.352626280487587
-0.551260226980117,-0.442661686753236
-0.55783995155157,-0.442621308123228
-0.564334853075536,-0.442543386793152
-0.570745202611984,-0.442428106567267
-0.577071271220885,-0.442275651249826
-0.58331332996221,-0.442086204645087
-0.589471649895927,-0.441859950557304
-0.595546502082009,-0.441597072790734
-0.601538157580424,-0.441297755149633
-0.607446887451143,-0.440962181438257
-0.613272962754136,-0.440590535460861
-0.619016654549374,-0.440183001021701
-0.624678233896827,-0.439739761925034
-0.630257971856464,-0.439261001975115
-0.635756139488256,-0.438746904976199
-0.641173007852174,-0.438197654732544
-0.646508848008187,-0.437613435048404
-0.651763931016267,-0.436994429728036
-0.656938527936381,-0.436340822575695
-0.662032909828503,-0.435652797395638
-0.6670473477526,-0.434930537992119
-0.671982112768645,-0.434174228169396
-0.676837475936605,-0.433384051731724
-0.681613708316453,-0.432560192483359
-0.686311080968159,-0.431702834228556
-0.690929864951692,-0.430812160771572
-0.695470331327022,-0.429888355916663
-0.69993275115412,-0.428931603468083
-0.704317395492957,-0.42794208723009
-0.708624535403502,-0.426919991006939
-0.712854441945725,-0.425865498602886
-0.607700105226808,-0.308144463983281
-0.721083639165088,-0.423660060469098
-0.725083471962169,-0.422509482347874
-0.729007155630808,-0.421327243262771
-0.732854961230978,-0.420113527018046
-0.840303528814696,-0.536320629309863
-0.740324022465787,-0.417592398266752
-0.743945820220366,-0.416285353368694
-0.747492824146356,-0.414947566528037
-0.750965305303727,-0.413579221549037
-0.754363534752449,-0.412180502235949
-0.757687783552492,-0.41075159239303
-0.760938322763826,-0.409292675824535
-0.764115423446422,-0.40780393633472
-0.76721935666025,-0.406285557727842
-0.872381484403525,-0.516142372921899
-0.773208804921482,-0.403160618379916
-0.776094862088826,-0.401554425247381
-0.778908836027283,-0.399919328214805
-0.781650997796823,-0.398255511086445
-0.892752191306289,-0.507769590067743
-0.884939347151981,-0.492083047755821
-0.789449320691643,-0.393093577169217
-0.791906944385216,-0.391316717700277
-0.794294111209724,-0.389512057156832
-0.796611092225136,-0.387679779343139
-0.798858158491422,-0.385820068063451
-0.801035581068553,-0.383933107122026
-0.803143631016498,-0.38201908032312
-0.805182579395229,-0.380078171470987
-0.703112701261654,-0.286903717722145
-0.809054255684927,-0.376116442824069
-0.810887525715834,-0.374095990637794
-0.812652778417407,-0.372049391615318
-0.695287187749588,-0.256548006016644
-0.815980316072432,-0.367878488278781
-0.817543143145824,-0.365754551573232
-0.819039037129763,-0.363605203248505
-0.820468269084219,-0.361430627108855
-0.821831110069162,-0.359231006958538
-0.823127831144562,-0.357006526601809
-0.914173345298104,-0.46933908400128
-0.950811639904292,-0.463883590439466
-0.826623985513211,-0.350185762335716
-0.827658937550144,-0.347863679195902
-0.926234676129465,-0.455255332847371
-0.817171343645276,-0.317262806056556
-0.811807707116495,-0.329198194066026
-0.831153810200661,-0.338337772827886
-0.85051332913547,-0.330123774906971
-0.819350685367922,-0.35254259937194
-0.833105372095641,-0.330949037071841
-0.833629796934208,-0.328440570970137
-0.847724555082447,-0.325609253737101
-0.797132674930972,-0.296943050292298
-0.83482857891021,-0.32078108337554
-0.825732780800045,-0.295175951579664
-0.85728578325899,-0.328602650922954
-0.835471314336041,-0.312924321736088
-0.817297752846983,-0.308920594451266
-0.835594504002768,-0.307579334674946
-0.855414013100363,-0.330159620192581
-0.884647240925858,-0.301546555728554
-0.950401606848807,-0.416405003758963
-0.724261778571456,-0.198753007159792
-0.842510569543345,-0.279057875952755
-0.84211995658928,-0.291035566859301
-0.843742259315727,-0.266720351527581
-0.850957538625003,-0.304168043348926
-0.837921733700588,-0.292050874322119
-0.824730442427595,-0.267050522008867
-0.758756393546113,-0.18814147450182
-0.831333616180679,-0.273796850868563
-0.830600444884467,-0.270855097887812
-0.829810369717699,-0.26789473404535
-0.828963661740346,-0.264915943145432
-0.828060592012378,-0.261918908992314
-0.827101431593766,-0.258903815390253
-0.826086451544479,-0.255870846143504
-0.825015922924488,-0.252820185056322
-0.823890116793764,-0.249752015932964
-0.822709304212275,-0.246666522577687
-0.821473756239994,-0.243563888794744
-0.820183743936888,-0.240444298388394
-0.81883953836293,-0.23730793516289
-0.931710986432005,-0.343368430330006
-0.925697470760653,-0.323437373536289
-0.814484472615639,-0.227800046614022
-0.812926204557971,-0.224598430154467
-0.811315098529301,-0.221380959897038
-0.809651425589599,-0.218147819645992
-0.807935456798836,-0.214899193205585
-0.806167463216981,-0.211635264380071
-0.804347715904005,-0.208356216973708
-0.802476485919878,-0.205062234790751
-0.800554044324571,-0.201753501635456
-0.894894400338805,-0.301746213207231
-0.796556610540295,-0.195092517624875
-0.794482160471267,-0.191740634378101
-0.792357583030939,-0.188374735376013
-0.790183149279281,-0.184995004422866
-0.787959130276264,-0.181601625322916
-0.785685797081858,-0.178194781880419
-0.783363420756033,-0.174774657899631
-0.78099227235876,-0.171341437184808
-0.778572622950007,-0.167895303540205
-0.776104743589747,-0.16443644077008
-0.773588905337948,-0.160965032678686
-0.771025379254582,-0.157481263070281
-0.768414436399618,-0.15398531574912
-0.765756347833027,-0.15047737451946
-0.763051384614778,-0.146957623185555
-0.760299817804842,-0.143426245551662
-0.75750191846319,-0.139883425422036
-0.754657957649791,-0.136329346600935
-0.651107061354422,-0.0260600887097284
-0.748832935847634,-0.129188148101326
-0.853188608260565,-0.238086728741585
-0.742826920878134,-0.122004120486881
-0.739756718605556,-0.118396505272236
-0.736642081221052,-0.114778734191649
-0.733483279784593,-0.111150991049377
-0.73028058535615,-0.107513459649675
-0.727034268995691,-0.1038663237968
-0.723744601763189,-0.100209767295007
-0.720411854718612,-0.0965439739485527
-0.717036298921931,-0.0928691275616922
-0.713618205433117,-0.0891854119386817
-0.710157845312139,-0.0854930108837769
-0.706655489618968,-0.081792108201234
-0.703111409413573,-0.0780828876953086
-0.699525875755926,-0.0743655331702566
-0.695899159705996,-0.0706402284303339
-0.692231532323754,-0.0669071572797965
-0.688523264669169,-0.0631665035229002
-0.684774627802213,-0.0594184509639008
-0.680985892782854,-0.0556631834070541
-0.677157330671064,-0.0519008846566163
-0.786892998780553,-0.164853329846979
-0.669381809410071,-0.0443559287919901
-0.665435392380807,-0.0405736392863136
-0.661450232498993,-0.0367850538040693
-0.657426600824599,-0.0329903561495131
-0.653364768417594,-0.0291897301269008
-0.540128147475257,0.0773188574831972
-0.645127585645634,-0.0215714281945316
-0.64095277740062,-0.0177541198932865
-0.636740852662876,-0.0139316184410087
-0.632492082492373,-0.0101041076419543
-0.628206737949081,-0.00627177130037913
-0.62388509009297,-0.00243479322053905
-0.619527409984011,0.00140664279331013
-0.521947401991511,0.106168438961986
-0.610705037247428,0.00910215340601213
-0.606240886739744,0.0129558603963533
-0.601741788219093,0.0168132901036798
-0.597208012745444,0.0206742587237361
-0.592639831378768,0.0245385824522661
-0.588037515179035,0.0284060774850142
-0.583401335206215,0.0322765600177241
-0.578731562520279,0.0361498462461404
-0.574028468181196,0.0400257523660068
-0.462169728306717,0.141527782679941
-0.447315888756124,0.166688673657291
-0.559721965844771,0.0516673520317495
-0.554888295492805,0.0555518996748583
-0.550022658787544,0.0594381481881383
-0.545125326788957,0.0633259137673331
-0.540196570557016,0.0672150126081874
-0.53523666115169,0.0711052609064446
-0.530245869632949,0.0749964748578495
-0.525224467060764,0.0788884706581458
-0.520172724495106,0.0827810645030779
-0.515090912995943,0.0866740725883896
-0.509979303623247,0.0905673111098255
-0.504838167436988,0.0944605962631292
-0.499667775497135,0.0983537442440453
-0.49446839886366,0.102246571248317
-0.489240308596531,0.10613889347169
-0.483983775755721,0.110030527109907
-0.478699071401198,0.113921288358713
-0.473386466592933,0.117810993413852
-0.468046232390896,0.121699458471068
-0.462678639855058,0.125586499726104
-0.457283960045388,0.129471933374706
-0.451862464021857,0.133355575612617
-0.446414422844435,0.137237242635582
-0.440940107573092,0.141116750639344
-0.435439789267798,0.144993915819648
-0.327360779490361,0.247170689733771
-0.531661691206159,0.0526606929526066
-0.528403446091368,0.0532578280108997
-0.413183906906524,0.160475472221163
-0.519364881943178,0.0456525912342871
-0.40190699508141,0.168197414570517
-0.396232245217629,0.172053033467448
-0.272540986288858,0.285264262966009
-0.38481151288747,0.179752647684538
-0.379066072541034,0.183596275396186
-0.373297610820319,0.18743553843756
-0.367506398785296,0.191270253004406
-0.250108687063519,0.306837226897167
-0.355856808012207,0.198925301497487
-0.349998971394082,0.202745267815211
-0.344119468701529,0.206559950441383
-0.33821857099452,0.210369165571746
-0.332296549333024,0.214172729402045
-0.326353674777012,0.217970458128025
-0.413279537025602,0.103049784504736
-0.407481886269433,0.114661720790665
-0.308402644341578,0.229326795637485
-0.302379068807202,0.233099345903625
-0.296335995678161,0.236865142044167
-0.290273696014425,0.240624000254853
-0.284192440875963,0.244375736731428
-0.278092501322747,0.248120167669637
-0.271974148414747,0.251857109265222
-0.265837653211932,0.255586377713929
-0.259683286774273,0.259307789211501
-0.253511320161741,0.263021159953683
-0.138512243837549,0.380588143025671
-0.241115670651935,0.270423043954851
-0.234892529874602,0.274111189605327
-0.228652873162276,0.277790559283388
-0.222396971574928,0.281460969184779
-0.216125096172527,0.285122235505245
-0.209837518015043,0.288774174440529
-0.203534508162448,0.292416602186375
-0.197216337674711,0.296049334938529
-0.190883277611802,0.299672188892733
-0.184535599033691,0.303284980244732
-0.17817357300035,0.30688752519027
-0.171797470571747,0.310479639925091
-0.165407562807853,0.31406114064494
-0.159004120768639,0.31763184354556
-0.152587415514075,0.321191564822695
-0.14615771810413,0.324740120672091
-0.0365729329936111,0.429416493220151
-0.133260431057982,0.331803000870637
-0.126793383541718,0.335316957611275
-0.120314428109955,0.338819013707151
-0.113823835822663,0.342308985354006
-0.107321877739812,0.345786688747586
-0.100808824921372,0.349251940083635
-0.200180861924021,0.248084395324268
-0.0877505193176084,0.356144351366114
-0.081205808652224,0.359571143704033
-0.0746510874911322,0.362984748767396
-0.0680866268943026,0.36638498275195
-0.0615126979217059,0.369771661853436
-0.0549295716333119,0.3731446022676
-0.0483375190890912,0.376503620190185
-0.0417368113490136,0.379848531816936
0.0745984162164074,0.497374660002554
-0.0285105145211693,0.386495300965912
-0.0218854675533431,0.389796790879624
-0.015252849629541,0.39308343928048
0.0850618875976184,0.486632206051879
-0.00196598515389018,0.399611476326593
0.00468771927801792,0.402852497363339
0.0113479104260213,0.406077941670204
0.0180143172301491,0.409287625442932
0.0246866686304317,0.412481364877266
0.0313646935668983,0.415658976168952
0.0380481209795794,0.418820275513733
0.044736679808504,0.421965079107353
0.0514300989937025,0.425093203145557
0.0581281074752042,0.428204463824088
0.0648304341930394,0.431298677338691
0.0715368080872373,0.43437565988511
0.183917202190723,0.538792653914425
0.196708088931858,0.553747795259044
0.0916775022283074,0.443501383672702
0.200607548559971,0.537877660709411
0.105119898104715,0.449495674945484
0.111844862797717,0.452465411793425
0.217882229820565,0.561965618495217
0.125300970393464,0.458349148891123
0.13203157117627,0.46126278153237
0.138763508535736,0.464157345162873
0.145496511411893,0.467032655978378
0.15223030874477,0.469888530174628
0.158964629474397,0.472724783947367
0.165699202540805,0.47554123349234
0.172433756884022,0.478337695005291
0.179168021444078,0.481113984681964
0.185901725161005,0.483869918718102
0.19263459697483,0.486605313309451
0.199366365825584,0.489319984651753
0.206096760653297,0.492013748940754
0.212825510397998,0.494686422372198
0.219552343999717,0.497337821141828
0.343920502702903,0.615611341407605
0.23299917853433,0.502576059478624
0.239718637347283,0.505162531437278
0.246435095777373,0.507726993517096
0.253148282764631,0.51026926191382
0.259857927249085,0.512789152823196
0.266563758170766,0.515286482440968
0.273265504469704,0.517761066962879
0.279962895085928,0.520212722584673
0.286655658959467,0.522641265502096
0.293343525030353,0.52504651191089
0.300026222238615,0.5274282780068
0.306703479524282,0.529786379985571
0.313375025827384,0.532120634042946
0.320040590087951,0.534430856374669
0.326699901246013,0.536716863176485
0.3333526882416,0.538978470644137
0.33999868001474,0.541215494973371
0.346637605505465,0.543427752359929
0.454631699785832,0.651486813365936
0.359893173399787,0.547777231087997
0.366509273683443,0.549914084820994
0.373117223444802,0.552025436394294
0.379716751623895,0.554111102003639
0.38630758716075,0.556170897844773
0.497271748048844,0.658640573358234
0.309374790314647,0.445860861775849
0.40602522731819,0.562193228716355
0.412578581686395,0.56414770744209
0.419121888112511,0.566075397378335
0.425654875536569,0.567976114720834
0.432177272898598,0.569849675665332
0.438688809138628,0.571695896407572
0.445189213196689,0.573514593143299
0.451678214012811,0.575305582068258
0.458155540527023,0.577068679378191
0.464620921679355,0.578803701268843
0.471074086409837,0.580510463935959
0.589866551589598,0.701688461298306
0.483942682365371,0.583838476382557
0.490357571470483,0.585459358553527
0.496759159913863,0.587051246283937
0.503147176635542,0.588613955769531
0.50952135057555,0.590147303206053
0.515881410673916,0.591651104789248
0.522227085870671,0.593125176714858
0.528558105105844,0.594569335178629
0.534874197319465,0.595983396376305
0.659489163387725,0.70921627122525
0.547460516442169,0.598720491756346
0.553730201231312,0.6000431583302
0.559983874759022,0.601334992420935
0.566221265965329,0.602595810224296
0.572442103790262,0.603825427936025
0.578646117173851,0.605023661751868
0.584833035056127,0.606190327867569
0.591002586377118,0.607325242478871
0.597154500076856,0.608428221781519
0.603288505095369,0.609499081971257
0.703641174663448,0.723690540561574
0.61550170484884,0.611543709794979
