-0.681424379068592,-0.993867487411225
-0.68133873302339,-0.981003263090403
-0.681239504008737,-0.968235035182884
-0.681126751539554,-0.955562496900906
-0.681000535130763,-0.942985341456709
-0.680860914297284,-0.93050326206253
-0.68070794855404,-0.918115951930609
-0.680541697415951,-0.905823104273184
-0.680362220397939,-0.893624412302495
-0.680169577014926,-0.881519569230779
-0.679963826781832,-0.869508268270276
-0.679745029213579,-0.857590202633224
-0.679513243825089,-0.845765065531863
-0.679268530131283,-0.834032550178431
-0.679010947647082,-0.822392349785167
-0.678740555887408,-0.810844157564309
-0.678457414367182,-0.799387666728097
-0.678161582601325,-0.788022570488769
-0.677853120104759,-0.776748562058563
-0.677532086392406,-0.765565334649719
-0.677198540979185,-0.754472581474476
-0.67685254338002,-0.743469995745072
-0.676494153109831,-0.732557270673746
-0.67612342968354,-0.721734099472736
-0.675740432616068,-0.711000175354283
-0.675345221422337,-0.700355191530623
-0.674937855617267,-0.689798841213997
-0.674518394715781,-0.679330817616642
-0.674086898232799,-0.668950813950798
-0.673643425683243,-0.658658523428703
-0.673188036582035,-0.648453639262597
-0.672720790444095,-0.638335854664717
-0.672241746784346,-0.628304862847303
-0.671750965117708,-0.618360357022594
-0.671248504959104,-0.608502030402827
-0.670734425823453,-0.598729576200243
-0.670208787225678,-0.58904268762708
-0.6696716486807,-0.579441057895576
-0.669123069703441,-0.56992438021797
-0.668563109808821,-0.560492347806501
-0.667991828511763,-0.551144653873409
-0.667409285327188,-0.541880991630931
-0.666815539770016,-0.532701054291306
-0.66621065135517,-0.523604535066774
-0.66559467959757,-0.514591127169572
-0.664967684012139,-0.505660523811941
-0.664329724113797,-0.496812418206117
-0.663680859417466,-0.488046503564341
-0.663021149438068,-0.479362473098851
-0.662350653690523,-0.470760020021886
-0.661669431689753,-0.462238837545684
-0.660977542950679,-0.453798618882485
-0.660275046988223,-0.445439057244527
-0.659562003317307,-0.437159845844048
-0.658838471452851,-0.428960677893289
-0.658104510909777,-0.420841246604486
-0.657360181203007,-0.41280124518988
-0.656605541847461,-0.404840366861709
-0.655840652358061,-0.396958304832212
-0.655065572249729,-0.389154752313627
-0.654280361037386,-0.381429402518194
-0.653485078235953,-0.37378194865815
-0.652679783360351,-0.366212083945736
-0.651864535925503,-0.358719501593188
-0.651039395446329,-0.351303894812748
-0.650204421437751,-0.343964956816652
-0.649359673414689,-0.336702380817141
-0.648505210892067,-0.329515860026452
-0.647641093384804,-0.322405087656824
-0.646767380407823,-0.315369756920497
-0.645884131476045,-0.308409561029709
-0.64499140610439,-0.301524193196698
-0.644089263807781,-0.294713346633704
-0.643177764101139,-0.287976714552966
-0.642256966499385,-0.281313990166721
-0.641326930517441,-0.274724866687209
-0.640387715670228,-0.268209037326669
-0.639439381472667,-0.26176619529734
-0.63848198743968,-0.255396033811459
-0.637515593086188,-0.249098246081267
-0.636540257927113,-0.242872525319001
-0.635556041477375,-0.2367185647369
-0.634563003251897,-0.230636057547204
-0.633561202765599,-0.224624696962151
-0.632550699533404,-0.21868417619398
-0.631531553070232,-0.212814188454929
-0.630503822891004,-0.207014426957238
-0.629467568510643,-0.201284584913144
-0.62842284944407,-0.195624355534888
-0.627369725206206,-0.190033432034707
-0.626308255311972,-0.184511507624841
-0.625238499276289,-0.179058275517528
-0.62416051661408,-0.173673428925006
-0.623074366840265,-0.168356661059516
-0.621980109469767,-0.163107665133295
-0.620877804017505,-0.157926134358582
-0.619767509998402,-0.152811761947617
-0.618649286927379,-0.147764241112637
-0.617523194319358,-0.142783265065882
-0.616389291689259,-0.13786852701959
-0.615247638552004,-0.133019720186
-0.614098294422516,-0.128236537777352
-0.612941318815714,-0.123518673005882
-0.61177677124652,-0.118865819083832
-0.610604711229856,-0.114277669223438
-0.609425198280643,-0.109753916636941
-0.608238291913803,-0.105294254536578
-0.607044051644256,-0.100898376134589
-0.605842536986925,-0.0965659746432121
-0.60463380745673,-0.0922967432746864
-0.603417922568594,-0.0880903752412504
-0.602194941837436,-0.0839465637551431
-0.60096492477818,-0.0798650020286032
-0.599727930905746,-0.0758453832738695
-0.598484019735055,-0.0718874007031806
-0.597233250781029,-0.0679907475287755
-0.595975683558589,-0.064155116962893
-0.594711377582658,-0.0603802022177716
-0.593440392368155,-0.0566656965056501
-0.592162787430002,-0.0530112930387676
-0.590878622283122,-0.0494166850293626
-0.589587956442434,-0.0458815656896739
-0.588290849422862,-0.0424056282319403
-0.586987360739325,-0.0389885658684006
-0.585677549906745,-0.0356300718112936
-0.584361476440045,-0.0323298392728579
-0.583039199854144,-0.0290875614653325
-0.581710779663965,-0.025902931600956
-0.580376275384429,-0.0227756428919672
-0.579035746530457,-0.019705388550605
-0.577689252616971,-0.016691861789108
-0.576336853158892,-0.013734755819715
-0.574978607671141,-0.0108337638546649
-0.57361457566864,-0.00798857910619644
-0.572244816666311,-0.00519889478654829
-0.570869390179073,-0.0024644041079592
-0.56948835572185,0.000215199717331874
-0.568101772809562,0.00284022347708637
-0.566709700957131,0.00541097395906541
-0.565312199679478,0.00792775795103018
-0.563909328491524,0.010390882240742
-0.562501146908192,0.0128006536159621
-0.561087714444401,0.0151573788644516
-0.559669090615074,0.0174613647739719
-0.558245334935133,0.019712918132284
-0.556816506919497,0.0219123457271493
-0.555382666083089,0.024059954346329
-0.553943871940831,0.0261560507775843
-0.552500184007643,0.0282009418086764
-0.551051661798447,0.0301949342273667
-0.549598364828164,0.0321383348214162
-0.548140352611716,0.0340314503785863
-0.546677684664024,0.035874587686638
-0.54521042050001,0.0376680535333329
-0.543738619634594,0.0394121547064319
-0.542262341582698,0.0411071979936963
-0.540781645859245,0.0427534901828875
-0.539296591979154,0.0443513380617665
-0.537807239457347,0.0459010484180946
-0.536313647808746,0.0474029280396332
-0.534815876548273,0.0488572837141433
-0.533313985190848,0.0502644222293862
-0.531808033251393,0.0516246503731232
-0.530298080244829,0.0529382749331154
-0.528784185686078,0.0542056026971241
-0.52726640909006,0.0554269404529106
-0.525744809971699,0.0566025949882361
-0.524219447845913,0.0577328730908617
-0.522690382227627,0.0588180815485487
-0.52115767263176,0.0598585271490584
-0.519621378573233,0.0608545166801519
-0.518081559566969,0.0618063569295906
-0.516538275127889,0.0627143546851356
-0.514991584770914,0.0635788167345481
-0.513441548010966,0.0644000498655895
-0.511888224362965,0.0651783608660209
-0.510331673341833,0.0659140565236034
-0.508771954462493,0.0666074436260985
-0.507209127239864,0.0672588289612673
-0.505643251188868,0.067868519316871
-0.504074385824428,0.0684368214806709
-0.502502590661463,0.0689640422404282
-0.500927925214896,0.0694504883839041
-0.499350448999648,0.0698964666988598
-0.497770221530641,0.0703022839730567
-0.496187302322795,0.0706682469942558
-0.494601750891032,0.0709946625502184
-0.493013626750273,0.0712818374287058
-0.491422989415441,0.0715300784174792
-0.489829898401456,0.0717396923042999
-0.488234413223239,0.0719109858769289
-0.486636593395712,0.0720442659231277
-0.485036498433797,0.0721398392306573
-0.483434187852414,0.0721980125872792
-0.481829721166486,0.0722190927807543
-0.480223157890933,0.072203386598844
-0.478614557540676,0.0721512008293096
-0.477003979630639,0.0720628422599122
-0.475391483675741,0.0719386176784131
-0.473777129190904,0.0717788338725735
-0.472160975691049,0.0715837976301547
-0.470543082691098,0.0713538157389178
-0.468923509705973,0.0710891949866241
-0.467302316250593,0.0707902421610348
-0.465679561839883,0.0704572640499112
-0.464055305988761,0.0700905674410144
-0.46242960821215,0.0696904591221058
-0.460802528024971,0.0692572458809465
-0.459174124942146,0.0687912345052978
-0.457544458478595,0.0682927317829208
-0.455913588149241,0.0677620445015769
-0.454281573469004,0.0671994794490272
-0.452648473952807,0.0666053434130331
-0.451014349115569,0.0659799431813555
-0.449379258472214,0.065323585541756
-0.447743261537662,0.0646365772819956
-0.446106417826834,0.0639192251898357
-0.444468786854653,0.0631718360530373
-0.442830428136038,0.0623947166593618
-0.441191401185912,0.0615881737965704
-0.439551765519197,0.0607525142524243
-0.437911580650813,0.0598880448146847
-0.436270906095682,0.0589950722711129
-0.434629801368724,0.0580739034094701
-0.432988325984863,0.0571248450175175
-0.431346539459019,0.0561482038830164
-0.429704501306113,0.055144286793728
-0.428062271041066,0.0541134005374134
-0.426419908178801,0.053055851901834
-0.424777472234238,0.051971947674751
-0.4231350227223,0.0508619946439256
-0.421492619157906,0.0497262995971189
-0.41985032105598,0.0485651693220924
-0.418208187931441,0.0473789106066071
-0.416566279299212,0.0461678302384244
-0.414924654674213,0.0449322350053054
-0.413283373571367,0.0436724316950114
-0.411642495505595,0.0423887270953035
-0.410002079991817,0.0410814279939431
-0.408362186544955,0.0397508411786913
-0.406722874679932,0.0383972734373095
-0.405084203911667,0.0370210315575587
-0.403446233755084,0.0356224223272003
-0.401809023725101,0.0342017525339954
-0.400172633336643,0.0327593289657054
-0.398537122104629,0.0312954584100914
-0.396902549543981,0.0298104476549146
-0.39526897516962,0.0283046034879363
-0.393636458496468,0.0267782326969178
-0.392005059039446,0.0252316420696201
-0.390374836313476,0.0236651383938047
-0.388745849833479,0.0220790284572326
-0.387118159114376,0.0204736190476652
-0.385491823671089,0.0188492169528637
-0.383866903018539,0.0172061289605892
-0.382243456671647,0.015544661858603
-0.380621544145335,0.0138651224346664
-0.379001224954525,0.0121678174765405
-0.377382558614137,0.0104530537719867
-0.375765604639093,0.0087211381087661
-0.374150422544314,0.00697237727463997
-0.372537071844723,0.00520707805736946
-0.370925612055239,0.00342554724471595
-0.369316102690785,0.00162809162444051
-0.367708603266282,-0.000184982015695508
-0.366103173296651,-0.00201336688793095
-0.364499872296814,-0.0038567562045045
-0.362898759781692,-0.00571484317765509
-0.361299895266206,-0.00758732101962129
-0.359703338265278,-0.00947388294264207
-0.35810914829383,-0.011374222158956
-0.356517384866782,-0.0132880318808021
-0.354928107499055,-0.0152150053204188
-0.353341375705573,-0.0171548356900452
-0.351757249001255,-0.0191072162019199
-0.350175786901023,-0.0210718400682818
-0.348597048919799,-0.0230484005013695
-0.347021094572503,-0.0250365907134219
-0.345447983374058,-0.0270361039166776
-0.343877774839385,-0.0290466333233756
-0.342310528483404,-0.0310678721457545
-0.340746303821038,-0.0330995135960532
-0.339185160367208,-0.0351412508865104
-0.337627157636835,-0.0371927772293649
-0.336072355144841,-0.0392537858368554
-0.334520812406146,-0.0413239699212208
-0.332972588935673,-0.0434030226946997
-0.331427744248342,-0.0454906373695311
-0.329886337859076,-0.0475865071579534
-0.328348429282795,-0.0496903252722058
-0.326814078034421,-0.0518017849245268
-0.325283343628875,-0.0539205793271554
-0.323756285581079,-0.05604640169233
-0.322232963405954,-0.0581789452322898
-0.320713436618421,-0.0603179031592732
-0.319197764733402,-0.0624629686855192
-0.317686007265818,-0.0646138350232665
-0.316178223730591,-0.066770195384754
-0.314674473642642,-0.0689317429822201
-0.313174816516892,-0.0710981710279041
-0.311679311868262,-0.0732691727340442
-0.310188019211675,-0.0754444413128797
-0.308700998062051,-0.077623669976649
-0.307218307934312,-0.0798065519375911
-0.305740008343379,-0.0819927804079446
-0.304266158804174,-0.0841820485999484
-0.302796818831618,-0.0863740497258412
-0.301332047940632,-0.0885684769978618
-0.299871905646138,-0.090765023628249
-0.298416451463057,-0.0929633828292415
-0.29696574490631,-0.0951632478130781
-0.29551984549082,-0.0973643117919976
-0.294078812731507,-0.0995662679782386
-0.292642706143292,-0.10176880958404
-0.291211585241097,-0.103971629821641
-0.289785509539844,-0.10617442190328
-0.288364538554454,-0.108376879041195
-0.286948731799848,-0.110578694447626
-0.285538148790947,-0.112779561334811
-0.284132849042674,-0.114979172914989
-0.282732892069948,-0.1171772224004
-0.281338337387693,-0.11937340300328
-0.279949244510828,-0.12156740793587
-0.278565672954276,-0.123758930410408
-0.277187682232958,-0.125947663639133
-0.275815331861795,-0.128133300834284
-0.274448681355709,-0.130315535208099
-0.273087790229621,-0.132494059972818
-0.271732717998452,-0.134668568340678
-0.270383524177124,-0.136838753523919
-0.269040268280558,-0.13900430873478
-0.267703009823676,-0.141164927185499
-0.266371808321399,-0.143320302088315
-0.265046723288647,-0.145470126655467
-0.263727814240344,-0.147614094099193
-0.26241514069141,-0.149751897631733
-0.261108762156766,-0.151883230465325
-0.259808738151334,-0.154007785812208
-0.258515128190035,-0.156125256884621
-0.257227991787791,-0.158235336894802
-0.255947388459523,-0.160337719054991
-0.254673377720152,-0.162432096577425
-0.2534060190846,-0.164518162674344
-0.252145372067788,-0.166595610557987
-0.250891496184638,-0.168664133440592
-0.24964445095007,-0.170723424534398
-0.248404295879007,-0.172773177051644
-0.24717109048637,-0.174813084204569
-0.245944894287079,-0.176842839205411
-0.244725766796057,-0.178862135266409
-0.243513767528225,-0.180870665599803
-0.242308955998504,-0.18286812341783
-0.241111391721815,-0.184854201932729
-0.239921134213081,-0.18682859435674
-0.238738242987222,-0.188790993902101
-0.237562777559159,-0.19074109378105
-0.236394797443815,-0.192678587205828
-0.23523436215611,-0.194603167388671
-0.234081531210966,-0.19651452754182
-0.232936364123304,-0.198412360877512
-0.231798920408046,-0.200296360607988
-0.230669259580113,-0.202166219945484
-0.229547441154427,-0.204021632102241
-0.228433524645908,-0.205862290290497
-0.227327569569478,-0.207687887722491
-0.226229635440059,-0.209498117610461
-0.225139781772572,-0.211292673166646
-0.224058068081938,-0.213071247603286
-0.222984553883079,-0.214833534132618
-0.221919298690916,-0.216579225966882
-0.22086236202037,-0.218308016318317
-0.219813803386363,-0.22001959839916
-0.218773682303817,-0.221713665421652
-0.217742058287652,-0.22338991059803
-0.21671899085279,-0.225048027140533
-0.215704539514153,-0.226687708261401
-0.214698763786661,-0.228308647172872
-0.213701723185236,-0.229910537087185
-0.2127134772248,-0.231493071216578
-0.211734085420274,-0.23305594277329
-0.210763607286579,-0.234598844969561
-0.209802102338637,-0.236121471017629
-0.208849630091368,-0.237623514129732
-0.207906250059696,-0.239104667518109
-0.20697202175854,-0.240564624395
-0.206047004702822,-0.242003077972643
-0.205131258407464,-0.243419721463276
-0.204224842387387,-0.244814248079139
-0.203327816157512,-0.24618635103247
-0.202440239232761,-0.247535723535508
-0.201562171128055,-0.248862058800492
-0.200693671358315,-0.250165050039661
-0.199834799438464,-0.251444390465253
-0.198985614883422,-0.252699773289507
-0.19814617720811,-0.253930891724662
-0.19731654592745,-0.255137438982956
-0.196496780556364,-0.256319108276629
-0.195686940609773,-0.257475592817919
-0.194887085602597,-0.258606585819065
-0.19409727504976,-0.259711780492307
-0.19409727504976,-0.259711780492307
-0.193319802963517,-0.260777681996637
-0.192556856951678,-0.261791183182303
-0.191808336922493,-0.262752558798426
-0.19107414278421,-0.263662083594122
-0.190354174445078,-0.264520032318513
-0.189648331813346,-0.265326679720714
-0.188956514797263,-0.266082300549847
-0.188278623305079,-0.26678716955503
-0.187614557245043,-0.267441561485381
-0.186964216525403,-0.268045751090019
-0.186327501054408,-0.268600013118064
-0.185704310740308,-0.269104622318633
-0.185094545491352,-0.269559853440846
-0.184498105215788,-0.269965981233822
-0.183914889821866,-0.270323280446679
-0.183344799217835,-0.270632025828537
-0.182787733311944,-0.270892492128514
-0.182243592012441,-0.271104954095728
-0.181712275227576,-0.271269686479299
-0.181193682865599,-0.271386964028346
-0.180687714834757,-0.271457061491988
-0.1801942710433,-0.271480253619342
-0.179713251399477,-0.271456815159528
-0.179244555811538,-0.271387020861665
-0.17878808418773,-0.271271145474872
-0.178343736436304,-0.271109463748268
-0.177911412465508,-0.27090225043097
-0.177491012183591,-0.270649780272099
-0.177082435498803,-0.270352328020773
-0.176685582319392,-0.270010168426111
-0.176300352553607,-0.269623576237231
-0.175926646109698,-0.269192826203252
-0.175564362895913,-0.268718193073294
-0.175213402820502,-0.268199951596475
-0.174873665791714,-0.267638376521914
-0.174545051717797,-0.267033742598729
-0.174227460507001,-0.26638632457604
-0.173920792067574,-0.265696397202965
-0.173624946307767,-0.264964235228624
-0.173339823135827,-0.264190113402134
-0.173065322460004,-0.263374306472616
-0.172801344188547,-0.262517089189187
-0.172547788229705,-0.261618736300966
-0.172304554491727,-0.260679522557073
-0.172071542882862,-0.259699722706626
-0.171848653311359,-0.258679611498744
-0.171635785685467,-0.257619463682545
-0.171432839913436,-0.256519554007149
-0.171239715903514,-0.255380157221675
-0.171056313563949,-0.25420154807524
-0.170882532802993,-0.252984001316965
-0.170718273528892,-0.251727791695968
-0.170563435649897,-0.250433193961367
-0.170417919074257,-0.249100482862282
-0.17028162371022,-0.247729933147831
-0.170154449466035,-0.246321819567134
-0.170036296249952,-0.244876416869308
-0.16992706397022,-0.243393999803473
-0.169826652535087,-0.241874843118748
-0.169734961852804,-0.240319221564251
-0.169651891831617,-0.238727409889101
-0.169577342379778,-0.237099682842418
-0.169511213405535,-0.235436315173319
-0.169453404817136,-0.233737581630925
-0.169403816522832,-0.232003756964352
-0.16936234843087,-0.230235115922721
-0.1693289004495,-0.228431933255151
-0.169303372486972,-0.226594483710759
-0.169285664451534,-0.224723042038665
-0.169275676251434,-0.222817882987988
-0.169273307794923,-0.220879281307847
-0.16927845899025,-0.218907511747359
-0.169291029745662,-0.216902849055645
-0.16931091996941,-0.214865567981823
-0.169338029569743,-0.212795943275012
-0.169372258454908,-0.21069424968433
-0.169413506533157,-0.208560761958897
-0.169461673712737,-0.20639575484783
-0.169516659901897,-0.20419950310025
-0.169578365008887,-0.201972281465275
-0.169646688941956,-0.199714364692024
-0.169721531609352,-0.197426027529615
-0.169802792919325,-0.195107544727167
-0.169890372780124,-0.1927591910338
-0.169984171099998,-0.190381241198632
-0.170084087787195,-0.187973969970781
-0.170190022749966,-0.185537652099367
-0.170301875896559,-0.183072562333509
-0.170419547135222,-0.180578975422325
-0.170542936374206,-0.178057166114934
-0.170671943521759,-0.175507409160455
-0.17080646848613,-0.172929979308007
-0.170946411175568,-0.170325151306708
-0.171091671498322,-0.167693199905678
-0.171242149362642,-0.165034399854035
-0.171397744676776,-0.162349025900898
-0.171558357348973,-0.159637352795386
-0.171723887287483,-0.156899655286617
-0.171894234400554,-0.154136208123711
-0.172069298596436,-0.151347286055787
-0.172248979783377,-0.148533163831963
-0.172433177869627,-0.145694116201357
-0.172621792763435,-0.14283041791309
-0.172814724373049,-0.139942343716279
-0.173011872606719,-0.137030168360043
-0.173213137372694,-0.134094166593502
-0.173418418579223,-0.131134613165774
-0.173627616134554,-0.128151782825978
-0.173840629946938,-0.125145950323233
-0.174057359924622,-0.122117390406657
-0.174277705975857,-0.119066377825369
-0.17450156800889,-0.115993187328489
-0.174728845931972,-0.112898093665135
-0.174959439653351,-0.109781371584426
-0.175193249081276,-0.10664329583548
-0.175430174123996,-0.103484141167417
-0.17567011468976,-0.100304182329355
-0.175912970686818,-0.0971036940704133
-0.176158642023418,-0.0938829511397106
-0.17640702860781,-0.0906422282863657
-0.176658030348242,-0.0873818002594975
-0.176911547152963,-0.0841019418082246
-0.177167478930223,-0.080802927681666
-0.177425725588271,-0.0774850326289405
-0.177686187035355,-0.074148531399167
-0.177948763179725,-0.0707936987414641
-0.17821335392963,-0.0674208094049508
-0.178479859193318,-0.0640301381387459
-0.17874817887904,-0.0606219596919682
-0.179018212895043,-0.0571965488137365
-0.179289861149577,-0.0537541802531696
-0.179563023550891,-0.0502951287593864
-0.179837600007234,-0.0468196690815058
-0.180113490426855,-0.0433280759686463
-0.180390594718003,-0.039820624169927
-0.180668812788927,-0.0362975884344667
-0.180948044547877,-0.0327592435113841
-0.181228189903101,-0.0292058641497981
-0.181509148762848,-0.0256377250988276
-0.181790821035367,-0.0220551011075914
-0.182073106628907,-0.0184582669252081
-0.182355905451718,-0.0148474973007968
-0.182639117412049,-0.0112230669834762
-0.182922642418148,-0.0075852507223651
-0.183206380378264,-0.00393432326658238
-0.183490231200647,-0.000270559365246795
-0.183774094793546,0.00340576623252281
-0.184057871065209,0.00709437877760749
-0.184341459923886,0.0107950035208886
-0.184624761277826,0.0145073657132472
-0.184907675035278,0.0182311906055645
-0.18519010110449,0.0219662034487217
-0.185471939393713,0.0257121294935999
-0.185753089811194,0.0294686939910805
-0.186033452265183,0.0332356221920445
-0.18631292666393,0.0370126393473729
-0.186591412915682,0.0407994707079472
-0.18686881092869,0.0445958415246485
-0.187145020611201,0.048401477048358
-0.187419941871466,0.0522161025299566
-0.187693474617733,0.0560394432203258
-0.187965518758252,0.0598712243703466
-0.18823597420127,0.0637111712309003
-0.188504740855039,0.067559009052868
-0.188771718627805,0.0714144630871309
-0.189036807427819,0.0752772585845702
-0.18929990716333,0.0791471207960671
-0.189560917742586,0.0830237749725025
-0.189819739073837,0.086906946364758
-0.190076271065331,0.0907963602237145
-0.190330413625318,0.0946917418002534
-0.190582066662047,0.0985928163452556
-0.190831130083767,0.102499309109602
-0.191077503798726,0.106410945344175
-0.191321087715175,0.110327450299855
-0.191561781741361,0.114248549227522
-0.191799485785534,0.11817396737806
-0.192034099755944,0.122103430002347
-0.192265523560838,0.126036662351266
-0.192493657108466,0.129973389675698
-0.192718400307078,0.133913337226525
-0.192939653064922,0.137856230254626
-0.193157315290247,0.141801794010884
-0.193371286891302,0.145749753746179
-0.193581467776337,0.149699834711393
-0.1937877578536,0.153651762157407
-0.19399005703134,0.157605261335102
-0.194188265217807,0.16156005749536
-0.19438228232125,0.165515875889061
-0.194572008249917,0.169472441767086
-0.194757342912057,0.173429480380317
-0.19493818621592,0.177386716979636
-0.195114438069755,0.181343876815922
-0.195285998381811,0.185300685140058
-0.195452767060336,0.189256867202924
-0.195614644013581,0.193212148255402
-0.195771529149793,0.197166253548373
-0.195923322377222,0.201118908332718
-0.196069923604117,0.205069837859318
-0.196211232738727,0.209018767379055
-0.196347149689301,0.212965422142809
-0.196477574364088,0.216909527401462
-0.196602406671337,0.220850808405895
-0.196721546519297,0.224788990406989
-0.196834893816218,0.228723798655625
-0.196942348470348,0.232654958402685
-0.197043810389936,0.236582194899049
-0.197139179483232,0.240505233395599
-0.197228355658484,0.244423799143217
-0.197311238823941,0.248337617392782
-0.197387728887853,0.252246413395177
-0.197457725758469,0.256149912401282
-0.197521129344037,0.260047839661979
-0.197577839552807,0.263939920428149
-0.197627756293027,0.267825879950673
-0.197670779472947,0.271705443480432
-0.197706809000816,0.275578336268308
-0.197735744784883,0.279444283565181
-0.197757486733396,0.283303010621934
-0.197771934754605,0.287154242689446
-0.19777898875676,0.290997705018599
-0.197778548648108,0.294833122860274
-0.1977705143369,0.298660221465353
-0.197754785731383,0.302478726084717
-0.197731262739808,0.306288361969246
-0.197699845270422,0.310088854369823
-0.197660433231476,0.313879928537328
-0.197612926531219,0.317661309722642
-0.197557225077898,0.321432723176646
-0.197493228779764,0.325193894150223
-0.197420837545065,0.328944547894252
-0.197339951282051,0.332684409659616
-0.19725046989897,0.336413204697194
-0.197152293304072,0.340130658257869
-0.197045321405605,0.343836495592522
-0.196929454111819,0.347530441952034
-0.196804591330963,0.351212222587285
-0.196670632971285,0.354881562749158
-0.196527478941035,0.358538187688533
-0.196375029148462,0.362181822656291
-0.196213183501815,0.365812192903315
-0.196041841909342,0.369429023680484
-0.195860904279294,0.37303204023868
-0.195670270519918,0.376620967828784
-0.195469840539465,0.380195531701678
-0.195259514246182,0.383755457108242
-0.19503919154832,0.387300469299358
-0.194808772354127,0.390830293525907
-0.194568156571852,0.394344655038771
-0.194317244109744,0.397843279088829
-0.194055934876052,0.401325890926964
-0.193784128779026,0.404792215804056
-0.193501725726914,0.408241978970988
-0.193208625627966,0.411674905678639
-0.19290472839043,0.415090721177891
-0.192589933922556,0.418489150719626
-0.192264142132592,0.421869919554725
-0.191927252928788,0.425232752934068
-0.191579166219392,0.428577376108537
-0.191219781912655,0.431903514329013
-0.190848999916824,0.435210892846377
-0.190466720140148,0.438499236911511
-0.190072842490878,0.441768271775295
-0.189667266877261,0.445017722688611
-0.189249893207547,0.44824731490234
-0.188820621389986,0.451456773667363
-0.188379351332825,0.454645824234562
-0.187925982944314,0.457814191854816
-0.187460416132703,0.460961601779009
-0.186982550806239,0.46408777925802
-0.186492286873173,0.467192449542732
-0.185989524241753,0.470275337884024
-0.185474162820228,0.47333616953278
-0.184946102516848,0.476374669739878
-0.184405243239861,0.479390563756201
-0.183851484897516,0.48238357683263
-0.183284727398063,0.485353434220047
-0.18270487064975,0.488299861169331
-0.182111814560827,0.491222582931365
-0.181505459039543,0.49412132475703
-0.180885703994146,0.496995811897206
-0.180252449332885,0.499845769602775
-0.179605594964011,0.502670923124619
-0.178945040795771,0.505470997713617
-0.178270686736415,0.508245718620653
-0.177582432694192,0.510994811096606
-0.176880178577351,0.513718000392358
-0.176163824294141,0.516415011758789
-0.17543326975281,0.519085570446782
-0.174688414861609,0.521729401707218
-0.173929159528786,0.524346230790977
-0.17315540366259,0.526935782948941
-0.17236704717127,0.52949778343199
-0.171563989963076,0.532031957491007
-0.170746131946255,0.534538030376872
-0.169913373029059,0.537015727340467
-0.169065613119734,0.539464773632672
-0.168202752126531,0.541884894504369
-0.167324689957698,0.544275815206439
-0.166431326521484,0.546637260989763
-0.16552256172614,0.548968957105222
-0.164598295479912,0.551270628803698
-0.163658427691052,0.553542001336072
-0.162702858267807,0.555782799953224
-0.161731487118427,0.557992749906037
-0.16074421415116,0.560171576445391
-0.159740939274257,0.562319004822167
-0.158721562395965,0.564434760287246
-0.157685983424534,0.566518568091511
-0.156634102268213,0.568570153485842
-0.155565818835251,0.570589241721119
-0.154481033033897,0.572575558048225
-0.1533796447724,0.57452882771804
-0.152261553959009,0.576448775981446
-0.151126660501973,0.578335128089324
-0.149974864309542,0.580187609292555
-0.148806065289964,0.58200594484202
-0.147620163351488,0.5837898599886
-0.146417058402363,0.585539079983177
-0.145196650350839,0.587253330076632
-0.143958839105164,0.588932335519846
-0.142703524573588,0.590575821563699
-0.141430606664359,0.592183513459074
-0.140139985285727,0.593755136456851
-0.138831560345941,0.595290415807912
-0.137505231753249,0.596789076763138
-0.1361608994159,0.598250844573409
-0.134798463242145,0.599675444489608
-0.133417823140231,0.601062601762615
-0.132018879018408,0.602412041643312
-0.130601530784925,0.603723489382579
-0.129165678348031,0.604996670231298
-0.127711221615975,0.60623130944035
-0.126238060497006,0.607427132260616
-0.124746094899373,0.608583863942978
-0.123235224731325,0.609701229738316
-0.121705349901111,0.610778954897512
-0.120156370316981,0.611816764671447
-0.118588185887183,0.612814384311002
-0.117000696519966,0.613771539067058
-0.115393802123579,0.614687954190497
-0.113767402606271,0.615563354932199
-0.112121397876292,0.616397466543046
-0.110455687841891,0.617190014273919
-0.108770172411316,0.617940723375699
-0.107064751492817,0.618649319099268
-0.105339324994642,0.619315526695506
-0.10359379282504,0.619939071415295
-0.101828054892262,0.620519678509516
-0.100042011104555,0.621057073229049
-0.0982355613701691,0.621550980824777
-0.096408605597353,0.62200112654758
-0.0945610436943556,0.62240723564834
-0.0926927755694262,0.622769033377938
-0.0908037011308137,0.623086244987254
-0.0888937202867673,0.623358595727171
-0.0869627329455358,0.623585810848568
-0.0850106390153685,0.623767615602329
-0.0830373384045143,0.623903735239333
-0.0810427310212223,0.623993895010462
-0.0790267167737415,0.624037820166597
-0.076989195570321,0.624035235958618
-0.0749300673192097,0.623985867637409
-0.0728492319286569,0.623889440453849
-0.0707465893069114,0.623745679658819
-0.0686220393622225,0.623554310503202
-0.0664754820028389,0.623315058237877
-0.0643068171370099,0.623027648113727
-0.0621159446729845,0.622691805381632
-0.0599027645190118,0.622307255292474
-0.0576671765833406,0.621873723097133
-0.0554090807742203,0.621390934046492
-0.0531283769998996,0.62085861339143
-0.0508249651686279,0.62027648638283
-0.0484987451886539,0.619644278271572
-0.0461496169682269,0.618961714308539
-0.0437774804155957,0.618228519744609
-0.0413822354390096,0.617444419830666
-0.0389637819467174,0.61660913981759
-0.0365220198469684,0.615722404956263
-0.0340568490480115,0.614783940497565
-0.0315681694580958,0.613793471692377
-0.0290558809854702,0.612750723791582
-0.0265198835383839,0.611655422046059
-0.0239600770250859,0.610507291706691
-0.0213763613538253,0.609306058024359
-0.018768636432851,0.608051446249942
-0.0161368021704123,0.606743181634324
-0.0134807584747579,0.605380989428385
-0.0108004052541371,0.603964594883006
-0.00809564241679881,0.602493723249068
-0.00536636987099223,0.600968099777453
-0.0026124875249662,0.599387449719041
0.000166104713030005,0.597751498324714
0.00296950693474759,0.596059970845353
0.00579781923193726,0.59431259253184
0.00865114169635021,0.592509088635055
0.0115295744197371,0.590649184405879
0.0144332174938493,0.588732605095194
0.0144332174938493,0.588732605095194
0.0173265102980989,0.586803121603914
0.0201739404081179,0.584904540233168
0.0229756802099859,0.583036639334156
0.0257319020897827,0.581199197258081
0.0284427784335882,0.579391992356146
0.0311084816274821,0.577614802979551
0.0337291840575442,0.575867407479499
0.0363050581098543,0.574149584207193
0.0388362761704921,0.572461111513834
0.0413230106255374,0.570801767750623
0.04376543386107,0.569171331268764
0.0461637182631698,0.567569580419458
0.0485180362179164,0.565996293553907
0.0508285601113897,0.564451249023313
0.0530954623296694,0.562934225178877
0.0553189152588353,0.561445000371803
0.0574990912849672,0.559983352953292
0.0596361627941449,0.558549061274546
0.0617303021724481,0.557141903686767
0.0637816818059567,0.555761658541157
0.0657904740807504,0.554408104188919
0.067756851382909,0.553081018981253
0.0696809860985123,0.551780181269362
0.07156305061364,0.550505369404448
0.073403217314372,0.549256361737713
0.075201658586788,0.548032936620359
0.0769585468169678,0.546834872403588
0.0786740543909912,0.545661947438602
0.0803483536949379,0.544513940076603
0.0819816171148878,0.543390628668793
0.0835740170369206,0.542291791566374
0.0851257258471161,0.541217207120548
0.0866369159315541,0.540166653682517
0.0881077596763144,0.539139909603483
0.0895384294674767,0.538136753234648
0.0909290976911208,0.537156962927214
0.0922799367333266,0.536200317032383
0.0935911189801737,0.535266593901357
0.094862816817742,0.534355571885338
0.0960952026321113,0.533467029335528
0.0972884488093612,0.532600744603129
0.0984427277355717,0.531756496039342
0.0995582117968225,0.530934061995371
0.100635073379193,0.530133220822416
0.101673484868764,0.529353750871681
0.102673618651614,0.528595430494366
0.103635647113824,0.527858038041675
0.104559742641473,0.527141351864808
0.105446077620641,0.526445150314968
0.106294824437408,0.525769211743357
0.107106155477853,0.525113314501177
0.107880243128056,0.524477236939631
0.108617259774098,0.523860757409919
0.109317377802057,0.523263654263243
0.109980769598014,0.522685705850807
0.110607607548049,0.522126690523812
0.111198064038241,0.521586386633459
0.11175231145467,0.521064572530952
0.112270522183415,0.520561026567491
0.112752868610557,0.520075527094279
0.113199523122176,0.519607852462519
0.11361065810435,0.51915778102341
0.113986445943161,0.518725091128157
0.114327059024687,0.518309561127961
0.114632669735009,0.517910969374024
0.114903450460206,0.517529094217547
0.115139573586357,0.517163714009734
0.115341211499544,0.516814607101785
0.115508536585845,0.516481551844903
0.115641721231341,0.51616432659029
0.115740937822111,0.515862709689148
0.115806358744235,0.515576479492679
0.115838156383792,0.515305414352084
0.115836503126863,0.515049292618566
0.115801571359527,0.514807892643328
0.115733533467864,0.51458099277757
0.115632561837954,0.514368371372495
0.115498828855877,0.514169806779305
0.115332506907712,0.513985077349201
0.115133768379539,0.513813961433387
0.114902785657439,0.513656237383063
0.114639731127489,0.513511683549432
0.114344777175772,0.513380078283695
0.114018096188366,0.513261199937056
0.11365986055135,0.513154826860716
0.113270242650806,0.513060737405876
0.112849414872812,0.512978709923739
0.112397549603449,0.512908522765507
0.111914819228796,0.512849954282382
0.111401396134933,0.512802782825565
0.110857452707939,0.512766786746259
0.110283161333896,0.512741744395667
0.109678694398881,0.512727434124989
0.109044224288976,0.512723634285427
0.108379923390259,0.512730123228184
0.107685964088811,0.512746679304463
0.106962518770712,0.512773080865464
0.106209759822041,0.512809106262389
0.105427859628877,0.512854533846442
0.104616990577302,0.512909141968823
0.103777325053394,0.512972708980735
0.102909035443233,0.51304501323338
0.1020122941329,0.513125833077959
0.101087273508473,0.513214946865676
0.100134145956034,0.513312132947731
0.0991530838616603,0.513417169675326
0.0981442596114331,0.513529835399665
0.0971078455914321,0.513649908471948
0.0960440141877368,0.513777167243378
0.0949529377864271,0.513911390065157
0.0938347887735827,0.514052355288486
0.0926897395352836,0.514199841264569
0.0915179624576094,0.514353626344605
0.0903196299266398,0.514513488879799
0.0890949143284547,0.514679207221351
0.0878439880491339,0.514850559720464
0.0865670234747572,0.51502732472834
0.0852641929914043,0.51520928059618
0.083935668985155,0.515396205675188
0.0825816238420891,0.515587878316563
0.0812022299482864,0.51578407687151
0.0797976596898266,0.515984579691229
0.0783680854527896,0.516189165126923
0.0769136796232551,0.516397611529793
0.0754346145873029,0.516609697251043
0.0739310627310127,0.516825200641873
0.0724031964404644,0.517043900053485
0.0708511881017377,0.517265573837083
0.0692752101009125,0.517490000343867
0.0676754348240685,0.517716957925039
0.0660520346572854,0.517946224931802
0.0644051819866431,0.518177579715358
0.0627350491982214,0.518410800626909
0.0610418086780999,0.518645666017656
0.0593256328123585,0.518881954238802
0.0575866939870771,0.519119443641549
0.0558251645883353,0.519357912577098
0.054041217002213,0.519597139396652
0.0522350236147898,0.519836902451412
0.0504067568121457,0.520076980092581
0.0485565889803604,0.520317150671361
0.0466846925055136,0.520557192538953
0.0447912397736851,0.52079688404656
0.0428764031709548,0.521036003545384
0.0409403550834024,0.521274329386626
0.0389832678971077,0.521511639921489
0.0370053139981504,0.521747713501174
0.0350066657726104,0.521982328476885
0.0329874956065675,0.522215263199821
0.0309479758861013,0.522446296021186
0.0288882789972918,0.522675205292182
0.0268085773262185,0.522901769364011
0.0247090432589615,0.523125766587874
0.0225898491816004,0.523346975314973
0.020451167480215,0.523565173896511
0.0182931705408851,0.52378014068369
0.0161160307496905,0.523991654027712
0.0139199204927109,0.524199492279778
0.0117050121560261,0.52440343379109
0.00947147812571597,0.524603256912851
0.00721949078786024,0.524798739996263
0.00494922252853866,0.524989661392527
0.002660845733831,0.525175799452846
0.000354532789817147,0.525356932528421
-0.00196954391742314,0.525532838970455
-0.00431121200181023,0.525703297130149
-0.00667029907726426,0.525868085358706
-0.00904663275770533,0.526026982007328
-0.0114400406570538,0.526179765427216
-0.0138503503892299,0.526326213969573
-0.0162773895681538,0.5264661059856
-0.0187209858077456,0.526599219826499
-0.0211809667219257,0.526725333843474
-0.0236571599246143,0.526844226387724
-0.0261493930297316,0.526955675810453
-0.0286574936511977,0.527059460462863
-0.0311812894029329,0.527155358696155
-0.0337206078988575,0.527243148861532
-0.0362752767528917,0.527322609310195
-0.0388451235789556,0.527393518393347
-0.0414299759909695,0.52745565446219
-0.0440296616028537,0.527508795867924
-0.0466440080285283,0.527552720961753
-0.0492728428819135,0.527587208094879
-0.0519159937769295,0.527612035618503
-0.0545732883274967,0.527626981883828
-0.0572445541475352,0.527631825242055
-0.0599296188509652,0.527626344044387
-0.062628310051707,0.527610316642025
-0.0653404553636807,0.527583521386172
-0.0680658824008067,0.527545736628029
-0.070804418777005,0.527496740718798
-0.0735558921061959,0.527436312009683
-0.0763201300022998,0.527364228851883
-0.0790969600792367,0.527280269596602
-0.0818862099509268,0.527184212595041
-0.0846877072312904,0.527075836198403
-0.0875012795342478,0.526954918757889
-0.0903267544737192,0.526821238624702
-0.0931639596636246,0.526674574150043
-0.0960127227178846,0.526514703685115
-0.098872871250419,0.526341405581119
-0.101744232875148,0.526154458189257
-0.104626635205993,0.525953639860732
-0.107519905856872,0.525738728946745
-0.110423872441707,0.525509503798499
-0.113338362574418,0.525265742767195
-0.116263203868925,0.525007224204036
-0.119198223939148,0.524733726460223
-0.122143250399007,0.524445027886958
-0.125098110862423,0.524140906835444
-0.128062632943315,0.523821141656882
-0.131036644255605,0.523485510702475
-0.134019972413212,0.523133792323424
-0.137012445030056,0.522765764870931
-0.140013889720058,0.522381206696199
-0.143024134097138,0.521979896150429
-0.146043005775216,0.521561611584823
-0.149070332368212,0.521126131350584
-0.152105941490047,0.520673233798914
-0.15514966075464,0.520202697281013
-0.158201317775913,0.519714300148085
-0.161260740167785,0.519207820751331
-0.164327755544176,0.518683037441954
-0.167402191519007,0.518139728571155
-0.170483875706197,0.517577672490137
-0.173572635719668,0.5169966475501
-0.17666829917334,0.516396432102249
-0.179770693681131,0.515776804497783
-0.182879646856964,0.515137543087906
-0.185994986314757,0.514478426223819
-0.189116539668432,0.513799232256724
-0.192244134531908,0.513099739537824
-0.195377598519105,0.51237972641832
-0.198516759243945,0.511638971249415
-0.201661444320346,0.51087725238231
-0.20481148136223,0.510094348168207
-0.207966697983516,0.509290036958308
-0.211126921798125,0.508464097103816
-0.214291980419977,0.507616306955932
-0.217461701462992,0.506746444865858
-0.220635912541091,0.505854289184797
-0.223814441268193,0.50493961826395
-0.226997115258219,0.504002210454519
-0.230183762125089,0.503041844107707
-0.233374209482723,0.502058297574715
-0.236568284945042,0.501051349206745
-0.239765816125965,0.500020777354999
-0.242966630639414,0.49896636037068
-0.246170556099307,0.497887876604989
-0.249377420119566,0.496785104409128
-0.25258705031411,0.4956578221343
-0.25579927429686,0.494505808131705
-0.259013919681736,0.493328840752548
-0.262230814082659,0.492126698348028
-0.265449785113548,0.490899159269348
-0.268670660388323,0.489646001867711
-0.271893267520906,0.488367004494318
-0.275117434125215,0.487061945500372
-0.278342987815172,0.485730603237073
-0.281569756204696,0.484372756055625
-0.284797566907708,0.482988182307229
-0.288026247538129,0.481576660343087
-0.291255625709877,0.480137968514402
-0.294485529036874,0.478671885172374
-0.297715785133039,0.477178188668207
-0.300946221612294,0.475656657353103
-0.304176666088557,0.474107069578262
-0.30740694617575,0.472529203694888
-0.310636889487792,0.470922838054181
-0.313866323638604,0.469287751007345
-0.317095076242106,0.467623720905582
-0.320322974912218,0.465930526100092
-0.32354984726286,0.464207944942079
-0.326775520907954,0.462455755782744
-0.329999823461418,0.460673736973289
-0.333222582537173,0.458861666864916
-0.336443625749139,0.457019323808827
-0.339662780711237,0.455146486156225
-0.342879875037386,0.453242932258311
-0.346094736341508,0.451308440466287
-0.349307192237521,0.449342789131355
-0.352517070339348,0.447345756604717
-0.355724198260906,0.445317121237576
-0.358928403616118,0.443256661381132
-0.362129514018902,0.441164155386589
-0.36532735708318,0.439039381605148
-0.368521760422871,0.436882118388011
-0.371712551651896,0.43469214408638
-0.374899558384174,0.432469237051458
-0.378082608233627,0.430213175634445
-0.381261528814175,0.427923738186545
-0.384436147739737,0.425600703058959
-0.387606292624233,0.423243848602889
-0.390771791081585,0.420852953169537
-0.393932470725712,0.418427795110105
-0.397088159170534,0.415968152775795
-0.400238684029972,0.41347380451781
-0.403383872917946,0.41094452868735
-0.406523553448376,0.408380103635619
-0.409657553235182,0.405780307713818
-0.412785699892285,0.403144919273149
-0.415907821033605,0.400473716664814
-0.419023744273061,0.397766478240015
-0.422133297224575,0.395022982349954
-0.425236307502066,0.392243007345834
-0.428332602719456,0.389426331578855
-0.431422010490662,0.38657273340022
-0.434504358429607,0.383681991161132
-0.43757947415021,0.380753883212792
-0.440647185266392,0.377788187906401
-0.443707319392072,0.374784683593163
-0.446759704141172,0.371743148624279
-0.44980416712761,0.368663361350951
-0.452840535965308,0.365545100124381
-0.455868638268186,0.362388143295771
-0.458888301650163,0.359192269216323
-0.46189935372516,0.35595725623724
-0.464901622107098,0.352682882709722
-0.467894934409896,0.349368926984972
-0.470879118247475,0.346015167414193
-0.473854001233755,0.342621382348585
-0.476819410982656,0.339187350139351
-0.479775175108099,0.335712849137694
-0.482721121224003,0.332197657694814
-0.485657076944289,0.328641554161915
-0.488582869882877,0.325044316890198
-0.491498327653687,0.321405724230864
-0.494403277870639,0.317725554535117
-0.497297548147654,0.314003586154158
-0.500180966098653,0.310239597439188
-0.503053359337554,0.306433366741411
-0.505914555478279,0.302584672412028
-0.508764382134747,0.29869329280224
-0.511602666920879,0.294759006263251
-0.514429237450595,0.290781591146262
-0.517243921337815,0.286760825802474
-0.52004654619646,0.282696488583091
-0.522836939640449,0.278588357839314
-0.525614929283703,0.274436211922344
-0.528380342740143,0.270239829183385
-0.531133007623687,0.265998987973638
-0.533872751548258,0.261713466644304
-0.536599402127774,0.257383043546587
-0.539312786976156,0.253007497031687
-0.542012733707324,0.248586605450808
-0.544699069935198,0.24412014715515
-0.5473716232737,0.239607900495917
-0.550030221336748,0.235049643824309
-0.552674691738263,0.23044515549153
-0.555304862092165,0.22579421384878
-0.557920560012375,0.221096597247262
-0.560521613112813,0.216352084038178
-0.563107849007399,0.21156045257273
-0.565679095310053,0.20672148120212
-0.568235179634695,0.20183494827755
-0.570775929595246,0.196900632150222
-0.573301172805625,0.191918311171338
-0.575810736879754,0.1868877636921
-0.578304449431552,0.18180876806371
-0.58078213807494,0.176681102637369
-0.583243630423837,0.171504545764281
-0.585688754092164,0.166278875795646
-0.588117336693842,0.161003871082668
-0.590529205842789,0.155679309976547
-0.592924189152928,0.150304970828486
-0.595302114238177,0.144880631989687
-0.597662808712457,0.139406071811352
-0.600006100189688,0.133881068644683
-0.602331816283791,0.128305400840881
-0.604639784608686,0.12267884675115
-0.606929832778292,0.117001184726691
-0.609201788406531,0.111272193118705
-0.611455479107321,0.105491650278395
-0.613690732494585,0.0996593345569632
-0.615907376182241,0.0937750243056114
-0.618105237784211,0.0878384978755411
-0.620284144914413,0.0818495336179549
-0.622443925186769,0.0758079098840544
-0.624584406215199,0.0697134050250419
-0.626705415613622,0.0635657973921191
-0.62880678099596,0.0573648653364884
-0.630888329976132,0.0511103872093512
-0.632949890168058,0.0448021413619102
-0.634991289185659,0.0384399061453667
-0.637012354642856,0.0320234599109234
-0.639012914153567,0.0255525810097816
-0.640992795331714,0.0190270477931439
-0.642951825791216,0.0124466386122118
-0.644889833145994,0.00581113181818772
-0.646806645009969,-0.000879694237726776
-0.64870208899706,-0.00762606120432916
-0.650575992721187,-0.014428190730418
-0.652428183796271,-0.0212863044647908
-0.654258489836232,-0.0282006240562461
-0.65606673845499,-0.0351713711535812
-0.657852757266465,-0.0421987674055949
-0.659616373884578,-0.0492830344610844
-0.661357415923249,-0.0564243939688485
