0.383934185206059,0.363672374919772
0.374692953629738,0.362852118442077
0.36552191986663,0.362059394892027
0.356420898906502,0.36129408684702
0.347389705739122,0.360556076884451
0.338428155354257,0.359845247581717
0.329536062741676,0.359161481516215
0.320713242891145,0.358504661265343
0.311959510792432,0.357874669406496
0.303274681435305,0.357271388517072
0.294658569809532,0.356694701174466
0.286110990904879,0.356144489956077
0.277631759711115,0.355620637439301
0.269220691218008,0.355123026201534
0.260877600415324,0.354651538820174
0.252602302292831,0.354206057872617
0.244394611840297,0.353786465936259
0.23625434404749,0.353392645588499
0.228181313904176,0.353024479406731
0.220175336400124,0.352681849968354
0.212236226525102,0.352364639850764
0.204363799268876,0.352072731631357
0.196557869621214,0.351806007887531
0.188818252571885,0.351564351196682
0.181144763110655,0.351347644136207
0.173537216227292,0.351155769283503
0.165995426911563,0.350988609215966
0.158519210153237,0.350846046510994
0.151108380942081,0.350727963745982
0.143762754267862,0.350634243498329
0.136482145120348,0.35056476834543
0.129266368489306,0.350519420864682
0.122115239364505,0.350498083633483
0.115028572735711,0.350500639229229
0.108006183592693,0.350526970229316
0.101047886925217,0.350576959211141
0.0941534977230522,0.350650488752102
0.0873228309759652,0.350747441429595
0.0805557016737238,0.350867699821016
0.0738519248060954,0.351011146503763
0.0672113153628479,0.351177664055232
0.0606336883337487,0.35136713505282
0.0541188587085654,0.351579442073924
0.0476666414770655,0.35181446769594
0.0412768516290168,0.352072094496266
0.0349493041541867,0.352352205052298
0.0286838140423429,0.352654681941432
0.0224801962832527,0.352979407741067
0.016338265866684,0.353326265028597
0.0102578377824043,0.353695136381421
0.00423872702018105,0.354085904376935
-0.0017192514302181,0.354498451592535
-0.00761628257902547,0.354932660605619
-0.0134525514364737,0.355388413993583
-0.019228243012795,0.355865594333824
-0.0249435423182218,0.356364084203739
-0.0305986343629867,0.356883766180724
-0.0361937041573219,0.357424522842177
-0.0417289367114601,0.357986236765494
-0.0472045170356335,0.358568790528071
-0.0526206301400745,0.359172066707306
-0.0579774610350157,0.359795947880595
-0.0632751947306894,0.360440316625336
-0.0685140162373281,0.361105055518924
-0.073694110565164,0.361790047138757
-0.0788156627244298,0.362495174062231
-0.0838788577253578,0.363220318866744
-0.0888838805781805,0.363965364129691
-0.0938309162931302,0.36473019242847
-0.0987201498804393,0.365514686340478
-0.10355176635034,0.366318728443111
-0.108325950713066,0.367142201313766
-0.113042887978848,0.367984987529839
-0.117702763157919,0.368846969668729
-0.122305761260512,0.36972803030783
-0.126852067296859,0.37062805202454
-0.131341866277192,0.371546917396257
-0.135775343211744,0.372484509000376
-0.140152683110748,0.373440709414294
-0.144474070984435,0.374415401215409
-0.148739691843038,0.375408466981116
-0.15294973069679,0.376419789288813
-0.157104372555923,0.377449250715896
-0.161203802430669,0.378496733839763
-0.165248205331261,0.37956212123781
-0.169237766267931,0.380645295487433
-0.173172670250911,0.38174613916603
-0.177053102290435,0.382864534850997
-0.180879247396734,0.384000365119731
-0.184651290580042,0.385153512549629
-0.188369416850589,0.386323859718087
-0.19203381121861,0.387511289202503
-0.195644658694335,0.388715683580273
-0.199202144287998,0.389936925428794
-0.202706453009831,0.391174897325462
-0.206157769870067,0.392429481847675
-0.209556279878937,0.393700561572829
-0.212902168046675,0.39498801907832
-0.216195619383512,0.396291736941547
-0.219436818899681,0.397611597739905
-0.222625951605415,0.398947484050791
-0.225763202510946,0.400299278451602
-0.228848756626507,0.401666863519735
-0.231882798962329,0.403050121832586
-0.234865514528645,0.404448935967553
-0.237797088335688,0.405863188502032
-0.24067770539369,0.40729276201342
-0.243507550712884,0.408737539079113
-0.246286809303501,0.410197402276508
-0.249015666175775,0.411672234183003
-0.251694306339938,0.413161917375994
-0.254322914806222,0.414666334432877
-0.256901676584859,0.416185367931049
-0.259430776686083,0.417718900447908
-0.261910400120125,0.41926681456085
-0.264340731897217,0.420828992847271
-0.266721957027593,0.422405317884569
-0.269054260521485,0.42399567225014
-0.271337827389125,0.425599938521381
-0.273572842640745,0.427217999275689
-0.275759491286579,0.428849737090461
-0.277897958336858,0.430495034543093
-0.279988428801814,0.432153774210982
-0.282031087691681,0.433825838671524
-0.284026120016691,0.435511110502117
-0.285973710787075,0.437209472280158
-0.287874045013067,0.438920806583043
-0.289727307704899,0.440644995988169
-0.291533683872804,0.442381923072932
-0.293293358527013,0.44413147041473
-0.295006516677759,0.445893520590959
-0.296673343335275,0.447667956179016
-0.298294023509793,0.449454659756298
-0.299868742211546,0.451253513900201
-0.301397684450765,0.453064401188123
-0.302881035237683,0.454887204197459
-0.304318979582534,0.456721805505608
-0.305711702495548,0.458568087689965
-0.307059388986959,0.460425933327927
-0.308362224066999,0.462295224996891
-0.309620392745901,0.464175845274255
-0.310834080033896,0.466067676737414
-0.312003470941218,0.467970601963765
-0.313128750478098,0.469884503530705
-0.314210103654769,0.471809264015632
-0.315247715481464,0.473744765995941
-0.316241770968415,0.47569089204903
-0.317192455125854,0.477647524752294
-0.318099952964013,0.479614546683132
-0.318964449493127,0.48159184041894
-0.319786129723425,0.483579288537114
-0.320565178665142,0.485576773615051
-0.321301781328509,0.487584178230149
-0.321996122723759,0.489601384959803
-0.322648387861125,0.491628276381411
-0.323258761750838,0.493664735072369
-0.323827429403131,0.495710643610074
-0.324354575828237,0.497765884571924
-0.324840386036388,0.499830340535314
-0.325285045037816,0.501903894077641
-0.325688737842754,0.503986427776302
-0.326051649461435,0.506077824208695
-0.326373964904089,0.508177965952215
-0.326655869180951,0.51028673558426
-0.326897547302253,0.512404015682226
-0.327099184278227,0.51452968882351
-0.327260965119105,0.516663637585509
-0.327383074835119,0.518805744545619
-0.327465698436504,0.520955892281238
-0.327509020933489,0.523113963369761
-0.327513227336309,0.525279840388587
-0.327478502655195,0.527453405915111
-0.32740503190038,0.529634542526731
-0.327293000082096,0.531823132800843
-0.327142592210576,0.534019059314843
-0.326953993296052,0.536222204646129
-0.326727388348757,0.538432451372098
-0.326462962378923,0.540649682070146
-0.326160900396782,0.54287377931767
-0.325821387412567,0.545104625692067
-0.325444608436511,0.547342103770733
-0.325030748478845,0.549586096131066
-0.324579992549802,0.551836485350462
-0.324092525659615,0.554093154006317
-0.323568532818515,0.556355984676029
-0.323008199036737,0.558624859936994
-0.32241170932451,0.56089966236661
-0.321779248692069,0.563180274542272
-0.321111002149646,0.565466579041378
-0.320407154707473,0.567758458441324
-0.319667891375782,0.570055795319508
-0.318893397164806,0.572358472253325
-0.318083857084778,0.574666371820174
-0.317239456145929,0.576979376597449
-0.316360379358492,0.579297369162549
-0.3154468117327,0.58162023209287
-0.314498938278785,0.583947847965809
-0.31351694400698,0.586280099358762
-0.312501013927516,0.588616868849127
-0.311451333050627,0.590958039014299
-0.310368086386544,0.593303492431677
-0.3092514589455,0.595653111678656
-0.308101635737728,0.598006779332633
-0.30691880177346,0.600364377971006
-0.305703142062929,0.602725790171171
-0.304454841616366,0.605090898510524
-0.303174085444004,0.607459585566463
-0.301861058556076,0.609831733916383
-0.300515945962814,0.612207226137683
-0.299138932674451,0.614585944807759
-0.297730203701218,0.616967772504006
-0.296289944053349,0.619352591803824
-0.294818338741075,0.621740285284607
-0.29331557277463,0.624130735523753
-0.291781831164245,0.626523825098659
-0.290217298920154,0.628919436586721
-0.288622161052588,0.631317452565336
-0.286996602571779,0.633717755611901
-0.285340808487961,0.636120228303813
-0.283654963811366,0.638524753218468
-0.281939253552226,0.640931212933263
-0.280193862720773,0.643339490025595
-0.27841897632724,0.645749467072861
-0.27661477938186,0.648161026652457
-0.274781456894865,0.65057405134178
-0.272919193876487,0.652988423718228
-0.271028175336958,0.655404026359196
-0.269108586286512,0.657820741842082
-0.26716061173538,0.660238452744282
-0.265184436693794,0.662657041643193
-0.263180246171989,0.665076391116212
-0.261148225180195,0.667496383740736
-0.259088558728645,0.66991690209416
-0.257001431827572,0.672337828753883
-0.254887029487208,0.674759046297301
-0.252745536717785,0.677180437301811
-0.250577138529537,0.679601884344809
-0.248382019932694,0.682023270003692
-0.24616036593749,0.684444476855857
-0.243912361554158,0.686865387478701
-0.241638191792929,0.68928588444962
-0.239338041664036,0.691705850346012
-0.237012096177711,0.694125167745273
-0.234660540344187,0.696543719224799
-0.232283559173697,0.698961387361988
-0.229881337676472,0.701378054734236
-0.227454060862745,0.703793603918941
-0.225001913742749,0.706207917493498
-0.222525081326715,0.708620878035304
-0.220023748624877,0.711032368121758
-0.217498100647467,0.713442270330254
-0.214948322404717,0.71585046723819
-0.21237459890686,0.718256841422963
-0.209777115164127,0.72066127546197
-0.207156056186752,0.723063651932606
-0.204511606984967,0.72546385341227
-0.201843952569005,0.727861762478357
-0.199153277949097,0.730257261708265
-0.196439768135476,0.73265023367939
-0.193703608138375,0.735040560969129
-0.190944982968026,0.737428126154879
-0.188164077634661,0.739812811814037
-0.185361077148513,0.742194500523999
-0.182536166519814,0.744573074862162
-0.179689530758797,0.746948417405923
-0.176821354875694,0.749320410732678
-0.173931823880737,0.751688937419825
-0.17102112278416,0.75405388004476
-0.168089436596194,0.75641512118488
-0.165136950327071,0.758772543417582
-0.162163848987025,0.761126029320262
-0.159170317586288,0.763475461470318
-0.156156541135091,0.765820722445145
-0.153122704643668,0.768161694822141
-0.150068993122251,0.770498261178703
-0.146995591581073,0.772830304092227
-0.143902685030365,0.77515770614011
-0.14079045848036,0.777480349899749
-0.137659096941291,0.779798117948541
-0.134508785423389,0.782110892863882
-0.131339708936888,0.784418557223169
-0.12815205249202,0.786720993603799
-0.124946001099018,0.789018084583169
-0.121721739768113,0.791309712738675
-0.118479453509538,0.793595760647714
-0.115219327333525,0.795876110887683
-0.111941546250308,0.798150646035979
-0.108646295270118,0.800419248669999
-0.105333759403188,0.802681801367138
-0.102004123659749,0.804938186704795
-0.0986575730500361,0.807188287260366
-0.0952942925842798,0.809431985611247
-0.0919144672727129,0.811669164334835
-0.0885182821255679,0.813899706008528
-0.0851059221530774,0.816123493209721
-0.0816775723654734,0.818340408515813
-0.0782334177729888,0.820550334504198
-0.0747736433858556,0.822753153752275
-0.0712984342143066,0.824948748837439
-0.0678079752685738,0.827137002337088
-0.0643024515588901,0.829317796828619
-0.0607820480954875,0.831491014889428
-0.0572469498885987,0.833656539096912
-0.0536973419484559,0.835814252028467
-0.0501334092852919,0.837964036261492
-0.0465553369093385,0.840105774373381
-0.0429633098308288,0.842239348941533
-0.0393575130599947,0.844364642543343
-0.035738131607069,0.846481537756209
-0.0321053504822838,0.848589917157527
-0.0284593546958718,0.850689663324695
-0.0248003292580652,0.852780658835108
-0.0211284591790966,0.854862786266164
-0.0174439294691982,0.856935928195259
-0.0137469251386028,0.858999967199791
-0.0100376311975423,0.861054785857155
-0.00631623265624962,0.863100266744749
-0.00258291452495679,0.86513629243997
0.00116213818610343,0.867162745520214
0.00491874046669893,0.869179508562878
0.00868670730659703,0.871186464145359
0.0124658536955655,0.873183494845053
0.0162559946233717,0.875170483239358
0.0200569450797836,0.877147311905669
0.0238685200545683,0.879113863421385
0.0276905345374938,0.881070020363901
0.0315228035183273,0.883015665310614
0.0353651419868367,0.884950680838922
0.0392173649327893,0.886874949526221
0.0430792873459529,0.888788353949907
0.0469507242160949,0.890690776687378
0.0508314905329832,0.89258210031603
0.054721401286385,0.89446220741326
0.0586202714660681,0.896330980556464
0.0625279160617998,0.89818830232304
0.0664441500633481,0.900034055290385
0.0703687884604803,0.901868122035894
0.0743016462429641,0.903690385136966
0.0782425384005669,0.905500727170995
0.0821912799230566,0.90729903071538
0.0861476858002004,0.909085178347518
0.0901115710217662,0.910859052644804
0.0940827505775213,0.912620536184636
0.0980610394572335,0.91436951154441
0.10204625265067,0.916105861301523
0.106038205147599,0.917829468033373
0.110036711937788,0.919540214317355
0.114041588011004,0.921237982730866
0.118052648357015,0.922922655851304
0.122069707965588,0.924594116256065
0.126092581826492,0.926252246522545
0.130121084929493,0.927896929228142
0.134155032264359,0.929528046950252
0.138194238820858,0.931145482266273
0.142238519588758,0.9327491177536
0.146287689557826,0.934338835989631
0.150341563717828,0.935914519551762
0.154399957058535,0.937476051017391
0.158462684569711,0.939023312963913
0.162529561241127,0.940556187968725
0.166600402062547,0.942074558609226
0.170675022023742,0.94357830746281
0.174753236114477,0.945067317106876
0.178834859324521,0.946541470118819
0.182919706643641,0.948000649076036
0.187007593061605,0.949444736555926
0.19109833356818,0.950873615135882
0.195191743153135,0.952287167393304
0.199287636806235,0.953685275905587
0.20338582951725,0.955067823250129
0.207486136275946,0.956434692004326
0.211588372072092,0.957785764745575
0.215692351895454,0.959120924051272
0.219797890735801,0.960440052498814
0.223904803582899,0.961743032665599
0.228012905426517,0.963029747129023
0.232122011256422,0.964300078466482
0.236231936062382,0.965553909255374
0.240342494834164,0.966791122073095
0.244453502561537,0.968011599497042
0.248564774234266,0.969215224104612
0.25267612484212,0.970401878473201
0.256787369374867,0.971571445180207
0.260898322822274,0.972723806803026
0.265008800174109,0.973858845919054
0.26911861642014,0.974976445105689
0.273227586550132,0.976076486940327
0.277335525553856,0.977158854000366
0.281442248421078,0.978223428863201
0.285547570141565,0.97927009410623
0.289651305705085,0.98029873230685
0.293753270101407,0.981309226042457
0.297853278320296,0.982301457890447
0.301951145351522,0.983275310428218
0.306046686184851,0.984230666233167
0.310139715810051,0.98516740788269
0.314230049216889,0.986085417954184
0.318317501395135,0.986984579025046
0.322401887334553,0.987864773672672
0.326483022024914,0.98872588447446
0.326483022024914,0.98872588447446
0.330545501076704,0.98954810954188
0.334574059969406,0.990311910241256
0.338568723496275,0.99101756403227
0.342529516450567,0.991665348374603
0.346456463625538,0.992255540727933
0.350349589814444,0.992788418551941
0.354208919810542,0.993264259306307
0.358034478407086,0.993683340450712
0.361826290397334,0.994045939444836
0.36558438057454,0.994352333748357
0.369308773731962,0.994602800820958
0.372999494662855,0.994797618122317
0.376656568160475,0.994937063112116
0.380280019018078,0.995021413250034
0.38386987202892,0.995050945995751
0.387426151986257,0.995025938808947
0.390948883683345,0.994946669149304
0.394438091913439,0.9948134144765
0.397893801469797,0.994626452250216
0.401316037145674,0.994386059930132
0.404704823734326,0.994092514975928
0.408060186029008,0.993746094847284
0.411382148822978,0.993347077003881
0.41467073690949,0.992895738905399
0.417925975081801,0.992392358011518
0.421147888133167,0.991837211781917
0.424336500856844,0.991230577676277
0.427491838046088,0.990572733154279
0.430613924494155,0.989863955675602
0.4337027849943,0.989104522699927
0.43675844433978,0.988294711686933
0.439780927323851,0.9874348000963
0.442770258739769,0.98652506538771
0.445726463380789,0.985565785020842
0.448649566040168,0.984557236455376
0.451539591511162,0.983499697150993
0.454396564587026,0.982393444567372
0.457220510061017,0.981238756164193
0.460011452726391,0.980035909401137
0.462769417376404,0.978785181737885
0.465494428804311,0.977486850634115
0.468186511803369,0.976141193549509
0.470845691166833,0.974748487943745
0.47347199168796,0.973309011276506
0.476065438160006,0.97182304100747
0.478626055376225,0.970290854596318
0.481153868129876,0.968712729502729
0.483648901214213,0.967088943186385
0.486111179422493,0.965419773106965
0.488540727547971,0.963705496724149
0.490937570383904,0.961946391497618
0.493301732723547,0.960142734887052
0.495633239360157,0.95829480435213
0.497932115086989,0.956402877352533
0.500198384697299,0.954467231347941
0.502432072984344,0.952488143798035
0.504633204741379,0.950465892162494
0.506801804761661,0.948400753900998
0.508937897838445,0.946293006473227
0.511041508764987,0.944142927338864
0.513112662334544,0.941950793957585
0.515151383340371,0.939716883789073
0.517157696575725,0.937441474293007
0.51913162683386,0.935124842929067
0.521073198908034,0.932767267156934
0.522982437591503,0.930369024436287
0.524859367677521,0.927930392226807
0.526704013959346,0.925451647988174
0.528516401230233,0.922933069180069
0.530296554283438,0.92037493326217
0.532044497912217,0.917777517694158
0.533760256909827,0.915141099935715
0.535443856069523,0.912465957446519
0.537095320184561,0.909752367686251
0.538714674048197,0.90700060811459
0.540301942453687,0.904210956191218
0.541857150194287,0.901383689375814
0.543380322063254,0.898519085128058
0.544871482853842,0.89561742090763
0.546330657359309,0.892678974174212
0.547757870372909,0.889704022387482
0.5491531466879,0.886692843007121
0.550516511097536,0.883645713492809
0.551847988395075,0.880562911304227
0.553147603373772,0.877444713901053
0.554415380826883,0.87429139874297
0.555651345547663,0.871103243289655
0.55685552232937,0.867880525000791
0.558027935965258,0.864623521336057
0.559168611248585,0.861332509755132
0.560277572972605,0.858007767717698
0.561354845930575,0.854649572683434
0.562400454915751,0.851258202112021
0.563414424721389,0.847833933463138
0.564396780140745,0.844377044196466
0.565347545967075,0.840887811771686
0.566266746993634,0.837366513648476
0.56715440801368,0.833813427286517
0.568010553820467,0.83022883014549
0.568835209207252,0.826612999685074
0.56962839896729,0.82296621336495
0.570390147893839,0.819288748644798
0.571120480780153,0.815580882984297
0.571819422419488,0.811842893843129
0.572486997605102,0.808075058680973
0.573123231130249,0.804277654957509
0.573728147788186,0.800450960132417
0.574301772372169,0.796595251665379
0.574844129675453,0.792710807016073
0.575355244491295,0.78879790364418
0.57583514161295,0.78485681900938
0.576283845833676,0.780887830571354
0.576701381946726,0.776891215789781
0.577087774745358,0.772867252124341
0.577443049022828,0.768816217034714
0.577767229572392,0.764738387980582
0.578060341187305,0.760634042421624
0.578322408660823,0.756503457817519
0.578553456786203,0.752346911627949
0.5787535103567,0.748164681312594
0.578922594165571,0.743957044331133
0.579060733006072,0.739724278143246
0.579167951671457,0.735466660208614
0.579244274954984,0.731184467986917
0.579289727649909,0.726877978937836
0.579304334549487,0.722547470521049
0.579288120446975,0.718193220196238
0.579241110135628,0.713815505423082
0.579163328408702,0.709414603661262
0.579054800059453,0.704990792370458
0.578915549881138,0.700544349010349
0.578745602667012,0.696075551040617
0.578544983210332,0.691584675920941
0.578313716304352,0.687072001111002
0.57805182674233,0.682537804070478
0.577759339317521,0.677982362259052
0.577436278823182,0.673405953136402
0.577082670052568,0.668808854162209
0.576698537798935,0.664191342796153
0.576283906855539,0.659553696497915
0.575838802015636,0.654896192727174
0.575363248072483,0.650219108943611
0.574857269819334,0.645522722606905
0.574320892049447,0.640807311176737
0.573754139556077,0.636073152112786
0.57315703713248,0.631320522874734
0.572529609571912,0.62654970092226
0.571871881667629,0.621760963715045
0.571183878212888,0.616954588712768
0.570465624000943,0.612130853375109
0.569717143825051,0.607290035161749
0.568938462478469,0.602432411532369
0.568129604754451,0.597558259946647
0.567290595446255,0.592667857864265
0.566421459347135,0.587761482744902
0.565522221250348,0.582839412048239
0.564592905949151,0.577901923233955
0.563633538236798,0.572949293761731
0.562644142906546,0.567981801091246
0.561624744751651,0.562999722682183
0.560575368565369,0.558003335994219
0.559496039140956,0.552992918487035
0.558386781271668,0.547968747620312
0.55724761975076,0.54293110085373
0.55607857937149,0.537880255646969
0.554879684927112,0.532816489459708
0.553650961210883,0.527740079751629
0.552392433016059,0.522651303982411
0.551104125135896,0.517550439611734
0.549786062363649,0.512437764099278
0.548438269492575,0.507313554904725
0.54706077131593,0.502178089487753
0.545653592626969,0.497031645308043
0.54421675821895,0.491874499825275
0.542750292885127,0.486706930499129
0.541254221418756,0.481529214789286
0.539728568613095,0.476341630155425
0.538173359261398,0.471144454057227
0.536588618156921,0.465937963954372
0.534974370092921,0.46072243730654
0.533330639862654,0.45549815157341
0.531657452259376,0.450265384214664
0.529954832076342,0.445024412689981
0.528222804106808,0.439775514459042
0.526461393144032,0.434518966981527
0.524670623981267,0.429255047717115
0.522850521411771,0.423984034125487
0.5210011102288,0.418706203666324
0.519122415225609,0.413421833799304
0.517214461195455,0.408131201984109
0.515277272931593,0.402834585680419
0.513310875227279,0.397532262347913
0.51131529287577,0.392224509446272
0.509290550670322,0.386911604435175
0.507236673404189,0.381593824774304
0.505153685870629,0.376271447923338
0.503041612862898,0.370944751341958
0.500900479174251,0.365614012489843
0.498730309597944,0.360279508826674
0.496531128927234,0.35494151781213
0.494302961955376,0.349600316905892
0.492045833475626,0.344256183567641
0.48975976828124,0.338909395257056
0.487444791165475,0.333560229433817
0.485100926921586,0.328208963557605
0.482728200342829,0.322855875088099
0.480326636222461,0.31750124148498
0.477896259353736,0.312145340207928
0.475437094529912,0.306788448716623
0.472949166544244,0.301430844470746
0.470432500189989,0.296072804929975
0.467887120260401,0.290714607553993
0.465313051548737,0.285356529802478
0.462710318848254,0.279998849135111
0.460078946952207,0.274641843011571
0.457418960653852,0.26928578889154
0.454730384746445,0.263930964234697
0.452013244023242,0.258577646500722
0.449267563277499,0.253226113149296
0.446493367302472,0.247876641640099
0.443690680891417,0.24252950943281
0.44085952883759,0.237184993987111
0.437999935934247,0.23184337276268
0.435111926974644,0.226504923219199
0.432195526752037,0.221169922816346
0.429250760059682,0.215838649013804
0.426277651690835,0.210511379271251
0.423276226438752,0.205188391048368
0.420246509096689,0.199869961804835
0.417188524457902,0.194556369000332
0.414102297315646,0.189247890094539
0.410987852463179,0.183944802547137
0.407845214693755,0.178647383817805
0.404674408800631,0.173355911366224
0.401475459577063,0.168070662652074
0.398248391816307,0.162791915135034
0.394993230311619,0.157519946274786
0.391709999856254,0.152255033531009
0.388398725243469,0.146997454363383
0.38505943126652,0.141747486231589
0.381692142718662,0.136505406595306
0.378296884393153,0.131271492914216
0.374873681083247,0.126046022647997
0.371422557582201,0.120829273256331
0.36794353868327,0.115621522198896
0.364436649179711,0.110423046935374
0.36090191386478,0.105234124925444
0.357339357531732,0.100055033628788
0.353749004973824,0.0948860505050835
0.350130880984311,0.0897274530140125
0.346485010356451,0.0845795186152544
0.342811417883497,0.0794425247684897
0.339110128358708,0.0743167489333982
0.335381166575337,0.0692024685696604
0.331624557326643,0.0640999611369561
0.32784032540588,0.0590095040949659
0.324028495606304,0.0539313749033693
0.320189092721172,0.0488658510218471
0.316322141543739,0.0438132099100789
0.312427666867262,0.0387737290277453
0.308505693484996,0.0337476858345259
0.304556246190198,0.0287353577901016
0.300579349776123,0.0237370223541518
0.296575029036028,0.0187529569863571
0.292543308763167,0.0137834391463973
0.288484213750799,0.00882874629395297
0.284397768792177,0.00388915588870387
0.280283998680559,-0.00103505460966957
0.2761429282092,-0.00594360774148756
0.271974582171357,-0.0108362260470695
0.267778985360285,-0.0157126320667356
0.26355616256924,-0.0205725483408055
0.259306138591479,-0.0254156974095994
0.255028938220256,-0.0302418018134366
0.250724586248829,-0.0350505840926376
0.246393107470453,-0.0398417667875217
0.242034526678385,-0.0446150724384091
0.237648868665879,-0.0493702235856194
0.233236158226193,-0.0541069427694728
0.228796420152582,-0.0588249525302888
0.224329679238302,-0.0635239754083875
0.21983596027661,-0.0682037339440885
0.21531528806076,-0.0728639506777122
0.210767687384009,-0.0775043481495777
0.206193183039614,-0.0821246489000055
0.20159179982083,-0.0867245754693151
0.196963562520912,-0.0913038503978265
0.192308495933118,-0.0958621962258594
0.187626624850703,-0.100399335493734
0.182917974066923,-0.10491499074177
0.178182568375034,-0.109408884510287
0.173420432568291,-0.113880739339605
0.168631591439952,-0.118330277770044
0.163816069783272,-0.122757222341923
0.158973892391507,-0.127161295595563
0.154105084057913,-0.131542220071284
0.149209669575745,-0.135899718309405
0.144287673738261,-0.140233512850246
0.139339121338715,-0.144543326234128
0.134364037170364,-0.148828881001369
0.129362446026464,-0.15308989969229
0.124334372700272,-0.15732610484721
0.119279841985041,-0.161537219006451
0.11419887867403,-0.16572296471033
0.109091507560493,-0.169883064499169
0.103957753437688,-0.174017240913286
0.0987976410988687,-0.178125216493003
0.0936111953372927,-0.182206713778638
0.0883984409462151,-0.186261455310512
0.0831594027188925,-0.190289163628944
0.0778941054485805,-0.194289561274255
0.0726025739285353,-0.198262370786763
0.0672848329520125,-0.20220731470679
0.0619409073122688,-0.206124115574655
0.0565708218025594,-0.210012495930678
0.051174601216141,-0.213872178315178
0.0457522703462688,-0.217702885268475
0.0403038539861996,-0.22150433933089
0.0348293769291887,-0.225276263042742
0.0293288639684927,-0.229018378944351
0.023802339897367,-0.232730409576037
0.0182498295090681,-0.23641207747812
0.0126713575968515,-0.24006310519092
0.00706694895397368,-0.243683215254755
0.00143662837369017,-0.247272130209948
-0.00421957935074263,-0.250829572596816
-0.00990164942606921,-0.25435526495568
-0.015609557059033,-0.257848929826861
-0.0213432774563786,-0.261310289750677
-0.0271027858248496,-0.264739067267448
-0.0328880573711904,-0.268134984917495
-0.0386990673021444,-0.271497765241138
-0.0445357908244564,-0.274827130778695
-0.0503982031448696,-0.278122804070488
-0.0562862794701287,-0.281384507656836
-0.0621999950069774,-0.284611964078058
-0.0681393249621599,-0.287804895874475
-0.0741042445424197,-0.290963025586406
-0.0800947289545016,-0.294086075754172
-0.0861107534051488,-0.297173768918092
-0.0921522931011061,-0.300225827618486
-0.0982193232491168,-0.303241974395673
-0.104311819055925,-0.306221931789975
-0.110429755728276,-0.30916542234171
-0.116573108472912,-0.312072168591199
-0.122741852496578,-0.314941893078761
-0.128935963006018,-0.317774318344716
-0.135155415207975,-0.320569166929384
-0.141400184309194,-0.323326161373085
-0.147670245516419,-0.326045024216139
-0.153965574036395,-0.328725477998865
-0.160286145075863,-0.331367245261584
-0.16663193384157,-0.333970048544615
-0.173002915540259,-0.336533610388279
-0.179399065378674,-0.339057653332894
-0.185820358563558,-0.341541899918781
-0.192266770301657,-0.34398607268626
-0.198738275799713,-0.346389894175651
-0.205234850264472,-0.348753086927273
-0.211756468902676,-0.351075373481446
-0.218303106921071,-0.353356476378491
-0.224874739526399,-0.355596118158726
-0.231471341925406,-0.357794021362473
-0.238092889324834,-0.35994990853005
-0.244739356931429,-0.362063502201778
-0.251410719951933,-0.364134524917976
-0.258106953593092,-0.366162699218965
-0.264828033061649,-0.368147747645064
-0.271573933564348,-0.370089392736593
-0.278344630307933,-0.371987357033871
-0.285140098499149,-0.37384136307722
-0.291960313344738,-0.375651133406958
-0.298805250051446,-0.377416390563405
-0.305674883826015,-0.379136857086882
-0.312569189875192,-0.380812255517708
-0.319488143405718,-0.382442308396203
-0.326431719624338,-0.384026738262687
-0.333399893737797,-0.38556526765748
-0.340392640952838,-0.387057619120901
-0.347409936476205,-0.388503515193271
-0.354451755514643,-0.389902678414909
-0.361518073274895,-0.391254831326135
-0.368608864963705,-0.39255969646727
-0.375724105787818,-0.393816996378632
-0.382863770953977,-0.395026453600542
-0.390027835668926,-0.396187790673319
-0.39721627513941,-0.397300730137284
-0.404429064572171,-0.398364994532756
-0.411666179173956,-0.399380306400056
-0.418927594151507,-0.400346388279502
-0.426213284711568,-0.401262962711415
-0.433523226060884,-0.402129752236115
-0.440857393406198,-0.402946479393922
-0.448215761954255,-0.403712866725155
-0.455598306911798,-0.404428636770135
-0.463005003485572,-0.40509351206918
-0.47043582688232,-0.405707215162612
-0.477890752308787,-0.40626946859075
-0.485369754971716,-0.406779994893913
-0.485369754971716,-0.406779994893913
-0.492831458159523,-0.407259586634438
-0.500234532130509,-0.407729289479356
-0.507579022546254,-0.408189205626034
-0.514864975068334,-0.408639437271835
-0.522092435358327,-0.409080086614124
-0.529261449077811,-0.409511255850267
-0.536372061888362,-0.409933047177627
-0.54342431945156,-0.41034556279357
-0.550418267428981,-0.410748904895461
-0.557353951482202,-0.411143175680663
-0.564231417272802,-0.411528477346543
-0.571050710462358,-0.411904912090465
-0.577811876712448,-0.412272582109793
-0.584514961684649,-0.412631589601892
-0.591160011040538,-0.412982036764128
-0.597747070441694,-0.413324025793865
-0.604276185549693,-0.413657658888467
-0.610747402026114,-0.4139830382453
-0.617160765532534,-0.414300266061728
-0.62351632173053,-0.414609444535117
-0.62981411628168,-0.41491067586283
-0.636054194847562,-0.415204062242233
-0.642236603089753,-0.41548970587069
-0.648361386669831,-0.415767708945567
-0.654428591249374,-0.416038173664228
-0.660438262489958,-0.416301202224037
-0.666390446053161,-0.41655689682236
-0.672285187600562,-0.416805359656561
-0.678122532793737,-0.417046692924006
-0.683902527294265,-0.417280998822059
-0.689625216763722,-0.417508379548084
-0.695290646863686,-0.417728937299447
-0.700898863255735,-0.417942774273512
-0.706449911601447,-0.418149992667644
-0.711943837562399,-0.418350694679208
-0.717380686800168,-0.418544982505569
-0.722760504976332,-0.418732958344091
-0.728083337752469,-0.41891472439214
-0.733349230790156,-0.419090382847079
-0.738558229750971,-0.419260035906275
-0.743710380296492,-0.419423785767091
-0.748805728088295,-0.419581734626892
-0.753844318787958,-0.419733984683043
-0.75882619805706,-0.41988063813291
-0.763751411557178,-0.420021797173856
-0.768620004949889,-0.420157564003247
-0.77343202389677,-0.420288040818447
-0.7781875140594,-0.420413329816821
-0.782886521099355,-0.420533533195734
-0.787529090678214,-0.420648753152551
-0.792115268457554,-0.420759091884636
-0.796645100098953,-0.420864651589354
-0.801118631263988,-0.420965534464071
-0.805535907614236,-0.42106184270615
-0.809896974811276,-0.421153678512956
-0.814201878516685,-0.421241144081856
-0.81845066439204,-0.421324341610212
-0.822643378098919,-0.42140337329539
-0.826780065298899,-0.421478341334755
-0.830860771653559,-0.421549347925672
-0.834885542824475,-0.421616495265505
-0.838854424473226,-0.421679885551619
-0.842767462261388,-0.421739620981379
-0.84662470185054,-0.421795803752149
-0.850426188902259,-0.421848536061295
-0.854171969078122,-0.421897920106181
-0.857862088039707,-0.421944058084173
-0.861496591448592,-0.421987052192634
-0.865075524966354,-0.422027004628929
-0.868598934254571,-0.422064017590424
-0.872066864974819,-0.422098193274483
-0.875479362788678,-0.422129633878472
-0.878836473357725,-0.422158441599754
-0.882138242343536,-0.422184718635694
-0.88538471540769,-0.422208567183658
-0.888575938211764,-0.422230089441009
-0.891711956417336,-0.422249387605114
-0.894792815685983,-0.422266563873337
-0.897818561679283,-0.422281720443041
-0.900789240058813,-0.422294959511594
-0.903704896486152,-0.422306383276358
-0.906565576622875,-0.422316093934699
-0.909371326130562,-0.422324193683981
-0.91212219067079,-0.42233078472157
-0.914818215905135,-0.42233596924483
-0.917459447495177,-0.422339849451126
-0.920045931102492,-0.422342527537823
-0.922577712388657,-0.422344105702285
-0.925054837015252,-0.422344686141878
-0.927477350643852,-0.422344371053965
-0.929845298936036,-0.422343262635913
-0.932158727553381,-0.422341463085085
-0.934417682157465,-0.422339074598847
-0.936622208409866,-0.422336199374562
-0.938772351972159,-0.422332939609597
-0.940868158505925,-0.422329397501316
-0.942909673672739,-0.422325675247084
-0.94489694313418,-0.422321875044264
-0.946830012551826,-0.422318099090223
-0.948708927587252,-0.422314449582325
-0.950533733902039,-0.422311028717934
-0.952304477157762,-0.422307938694416
-0.954021203015999,-0.422305281709136
-0.955683957138328,-0.422303159959457
-0.957292785186327,-0.422301675642746
-0.958847732821573,-0.422300930956366
-0.960348845705643,-0.422301028097682
-0.961796169500116,-0.42230206926406
-0.963189749866569,-0.422304156652864
-0.964529632466579,-0.422307392461458
-0.965815862961724,-0.422311878887208
-0.967048487013581,-0.422317718127479
-0.968227550283729,-0.422325012379635
-0.969353098433743,-0.42233386384104
-0.970425177125203,-0.42234437470906
-0.971443832019687,-0.42235664718106
-0.97240910877877,-0.422370783454405
-0.973321053064031,-0.422386885726458
-0.974179710537047,-0.422405056194585
-0.974985126859397,-0.422425397056151
-0.975737347692657,-0.42244801050852
-0.976436418698405,-0.422472998749058
-0.977082385538218,-0.422500463975128
-0.977675293873676,-0.422530508384097
-0.978215189366354,-0.422563234173328
-0.97870211767783,-0.422598743540186
-0.979136124469682,-0.422637138682036
-0.979517255403488,-0.422678521796244
-0.979845556140825,-0.422722995080173
-0.98012107234327,-0.422770660731189
-0.980343849672402,-0.422821620946656
-0.980513933789797,-0.422875977923939
-0.980631370357034,-0.422933833860403
-0.980696205035689,-0.422995290953412
-0.980708483487341,-0.423060451400332
-0.980668251373568,-0.423129417398528
-0.980575554355946,-0.423202291145363
-0.980430438096053,-0.423279174838203
-0.980232948255466,-0.423360170674413
-0.979983130495764,-0.423445380851357
-0.979681030478524,-0.4235349075664
-0.979326693865323,-0.423628853016908
-0.978920166317739,-0.423727319400243
-0.97846149349735,-0.423830408913773
-0.977950721065733,-0.423938223754861
-0.977387894684466,-0.424050866120872
-0.976773060015126,-0.42416843820917
-0.97610626271929,-0.424291042217122
-0.975387548458538,-0.424418780342091
-0.974616962894444,-0.424551754781442
-0.973794551688589,-0.42469006773254
-0.972920360502548,-0.42483382139275
-0.971994434997901,-0.424983117959436
-0.971016820836223,-0.425138059629964
-0.969987563679093,-0.425298748601698
-0.968906709188089,-0.425465287072003
-0.967774303024787,-0.425637777238244
-0.966590390850766,-0.425816321297785
-0.965355018327602,-0.426001021447992
-0.964068231116875,-0.426191979886228
-0.962730074880161,-0.42638929880986
-0.961340595279037,-0.426593080416251
-0.959899837975081,-0.426803426902767
-0.958407848629872,-0.427020440466772
-0.956864672904986,-0.42724422330563
-0.955270356462001,-0.427474877616708
-0.953624944962494,-0.427712505597369
-0.951928484068044,-0.427957209444979
-0.950181019440227,-0.428209091356902
-0.948382596740621,-0.428468253530502
-0.946533261630805,-0.428734798163146
-0.944633059772354,-0.429008827452197
-0.942682036826848,-0.42929044359502
-0.940680238455863,-0.429579748788981
-0.938627710320977,-0.429876845231443
-0.936524498083768,-0.430181835119772
-0.934370647405813,-0.430494820651332
-0.932166203948689,-0.430815904023489
-0.929911213373975,-0.431145187433606
-0.927605721343248,-0.43148277307905
-0.925249773518086,-0.431828763157184
-0.922843415560065,-0.432183259865373
-0.920386693130764,-0.432546365400983
-0.91787965189176,-0.432918181961377
-0.915322337504631,-0.433298811743922
-0.912714795630954,-0.43368835694598
-0.910057071932307,-0.434086919764918
-0.907349212070267,-0.4344946023981
-0.904591261706413,-0.434911507042892
-0.901783266502321,-0.435337735896656
-0.898925272119568,-0.435773391156759
-0.896017324219734,-0.436218575020566
-0.893059468464395,-0.43667338968544
-0.890051750515129,-0.437137937348747
-0.886994216033513,-0.437612320207852
-0.883886910681125,-0.438096640460119
-0.880729880119542,-0.438591000302913
-0.877523170010343,-0.4390955019336
-0.874266826015104,-0.439610247549542
-0.870960893795403,-0.440135339348107
-0.867605419012818,-0.440670879526658
-0.864200447328927,-0.44121697028256
-0.860746024405306,-0.441773713813177
-0.857242195903534,-0.442341212315876
-0.853689007485187,-0.44291956798802
-0.850086504811844,-0.443508883026974
-0.846434733545083,-0.444109259630103
-0.84273373934648,-0.444720799994772
-0.838983567877614,-0.445343606318345
-0.835184264800061,-0.445977780798188
-0.831335875775399,-0.446623425631665
-0.827438446465207,-0.447280643016141
-0.823492022531061,-0.447949535148981
-0.819496649634539,-0.448630204227549
-0.815452373437219,-0.44932275244921
-0.811359239600679,-0.45002728201133
-0.807217293786495,-0.450743895111272
-0.803026581656245,-0.451472693946403
-0.798787148871507,-0.452213780714085
-0.794499041093859,-0.452967257611685
-0.790162303984877,-0.453733226836567
-0.785776983206141,-0.454511790586095
-0.781343124419226,-0.455303051057635
-0.776860773285712,-0.456107110448552
-0.772329975467174,-0.45692407095621
-0.767750776625192,-0.457754034777973
-0.763123222421342,-0.458597104111208
-0.758447358517202,-0.459453381153278
-0.753723230574349,-0.460322968101548
-0.748950884254362,-0.461205967153383
-0.744130365218817,-0.462102480506148
-0.739261719129293,-0.463012610357208
-0.734344991647366,-0.463936458903927
-0.729380228434615,-0.464874128343671
-0.724367475152617,-0.465825720873803
-0.719306777462949,-0.46679133869169
-0.714198181027189,-0.467771083994695
-0.709041731506915,-0.468765058980183
-0.703837474563704,-0.469773365845519
-0.698585455859135,-0.470796106788069
-0.693285721054783,-0.471833384005196
-0.687938315812227,-0.472885299694265
-0.682543285793045,-0.473951956052642
-0.677100676658814,-0.475033455277691
-0.671610534071111,-0.476129899566777
-0.666072903691515,-0.477241391117264
-0.660487831181602,-0.478368032126518
-0.654855362202951,-0.479509924791904
-0.649175542417138,-0.480667171310785
-0.643448417485742,-0.481839873880527
-0.63767403307034,-0.483028134698494
-0.63185243483251,-0.484232055962052
-0.625983668433828,-0.485451739868565
-0.620067779535874,-0.486687288615398
-0.614104813800223,-0.487938804399916
-0.608094816888455,-0.489206389419483
-0.602037834462145,-0.490490145871465
-0.595933912182873,-0.491790175953226
-0.589783095712215,-0.49310658186213
-0.58358543071175,-0.494439465795543
-0.577340962843053,-0.49578892995083
-0.571049737767705,-0.497155076525355
-0.564711801147281,-0.498538007716483
-0.558327198643359,-0.499937825721578
-0.551895975917517,-0.501354632738007
-0.545418178631333,-0.502788530963132
-0.538893852446384,-0.50423962259432
-0.532323043024247,-0.505708009828935
-0.5257057960265,-0.507193794864341
-0.519042157114722,-0.508697079897904
-0.512332171950488,-0.510217967126988
-0.505575886195378,-0.511756558748959
-0.498773345510967,-0.51331295696118
-0.491924595558835,-0.514887263961016
-0.485029682000559,-0.516479581945834
-0.478088650497715,-0.518090013112996
-0.471101546711882,-0.519718659659869
-0.464068416304638,-0.521365623783816
-0.456989304937559,-0.523031007682203
-0.449864258272223,-0.524714913552394
-0.442693321970209,-0.526417443591755
-0.435476541693093,-0.528138699997649
-0.428213963102453,-0.529878784967442
-0.420905631859867,-0.531637800698499
-0.413551593626912,-0.533415849388184
-0.406151894065166,-0.535213033233861
-0.398706578836205,-0.537029454432898
-0.39121569360161,-0.538865215182656
-0.383679284022955,-0.540720417680502
-0.376097395761819,-0.5425951641238
-0.368470074479781,-0.544489556709915
-0.360797365838416,-0.546403697636212
-0.353079315499303,-0.548337689100056
-0.345315969124019,-0.550291633298811
-0.337507372374142,-0.552265632429842
-0.32965357091125,-0.554259788690514
-0.321754610396919,-0.556274204278191
-0.313810536492728,-0.55830898139024
-0.305821394860254,-0.560364222224023
-0.297787231161075,-0.562440028976907
-0.289708091056768,-0.564536503846255
-0.281584020208911,-0.566653749029433
-0.273415064279081,-0.568791866723806
-0.265201268928856,-0.570950959126738
-0.256942679819814,-0.573131128435594
-0.248639342613532,-0.575332476847738
-0.240291302971587,-0.577555106560536
-0.231898606555558,-0.579799119771353
-0.223461299027021,-0.582064618677552
-0.214979426047555,-0.5843517054765
-0.206453033278736,-0.58666048236556
-0.197882166382143,-0.588991051542098
-0.189266871019353,-0.591343515203478
-0.180607192851944,-0.593717975547066
-0.171903177541493,-0.596114534770225
-0.163154870749577,-0.59853329507032
-0.154362318137775,-0.600974358644718
-0.145525565367664,-0.603437827690781
-0.13664465810082,-0.605923804405876
-0.127719641998824,-0.608432390987366
-0.11875056272325,-0.610963689632617
-0.109737465935678,-0.613517802538993
-0.100680397297684,-0.616094831903859
-0.0915794024708468,-0.61869487992458
-0.082434527116743,-0.621318048798521
-0.0732458168969509,-0.623964440723047
-0.0640133174730473,-0.626634157895521
-0.0547370745066108,-0.62932730251331
-0.0454171336592177,-0.632043976773778
-0.0360535405924468,-0.634784282874289
-0.0266463409678747,-0.637548323012209
-0.0171955804470796,-0.640336199384902
-0.00770130469163854,-0.643148014189733
0.0018364406368703,-0.645983869624067
0.0114176098768701,-0.648843867885268
0.0210421573667824,-0.651728111170702
0.0307100374450306,-0.654636701677733
0.0404212044500362,-0.657569741603726
0.0501756127202226,-0.660527333146046
0.0599732165940112,-0.663509578502056
0.0698139704098253,-0.666516579869124
0.0796978285060868,-0.669548439444612
0.0896247452212186,-0.672605259425887
0.0995946748936424,-0.675687142010312
0.109607571861782,-0.678794189395252
0.119663390464058,-0.681926503778073
0.129762085038894,-0.685084187356138
0.139903609924712,-0.688267342326814
0.150087919459935,-0.691476070887464
0.160314967982985,-0.694710475235453
0.170584709832285,-0.697970657568146
0.180897099346256,-0.701256720082909
0.191252090863322,-0.704568764977105
0.201649638721905,-0.7079068944481
0.212089697260427,-0.711271210693258
0.22257222081731,-0.714661815909944
0.233097163730978,-0.718078812295523
0.243664480339852,-0.721522302047359
0.254274124982356,-0.724992387362818
0.26492605199691,-0.728489170439264
0.275620215721939,-0.732012753474063
0.286356570495864,-0.735563238664577
0.297135070657108,-0.739140728208174
0.307955670544092,-0.742745324302217
0.318818324495241,-0.746377129144071
0.329722986848975,-0.750036244931101
0.340669611943718,-0.753722773860672
0.351658154117892,-0.757436818130148
0.362688567709919,-0.761178479936895
0.373760807058222,-0.764947861478276
0.384874826501223,-0.768745064951658
0.396030580377345,-0.772570192554404
0.40722802302501,-0.776423346483879
0.41846710878264,-0.780304628937449
0.429747791988659,-0.784214142112478
0.441070026981487,-0.78815198820633
0.452433768099549,-0.792118269416372
0.463838969681266,-0.796113087939966
0.47528558606506,-0.800136545974479
0.486773571589355,-0.804188745717274
0.498302880592572,-0.808269789365717
0.509873467413134,-0.812379779117173
0.521485286389464,-0.816518817169006
0.533138291859983,-0.820687005718581
0.544832438163115,-0.824884446963264
0.556567679637282,-0.829111243100417
0.568343970620906,-0.833367496327407
0.580161265452409,-0.837653308841599
0.592019518470215,-0.841968782840356
0.603918684012744,-0.846314020521044
0.615858716418421,-0.850689124081028
0.627839570025667,-0.855094195717672
0.639861199172905,-0.859529337628341
0.651923558198557,-0.8639946520104
0.664026601441046,-0.868490241061214
0.676170283238794,-0.873016206978147
0.688354557930223,-0.877572651958565
0.700579379853757,-0.882159678199831
0.712844703347817,-0.886777387899312
