-0.92148652966605,-0.862658724054101
0.989439951623468,0.156794032945218
0.985097358446363,0.268427747667945
0.775457345708586,0.671945275769817
0.56581733297081,1.07546280387169
-0.157219910759718,-0.0690229988080042
-0.607812421425221,0.101811026825211
-1.05840493209072,0.272645052458427
-0.304386815261548,0.796519364734846
0.347388491885289,-0.121773910380655
