-0.426890722059777,-0.487139378364216
-0.428989246877566,-0.489180867810717
-0.431079967881617,-0.491168338366683
-0.433162781581959,-0.493102132175597
-0.435237584488621,-0.49498259138094
-0.437304273111631,-0.496810058126197
-0.439362743961016,-0.498584874554849
-0.441412893546806,-0.500307382810379
-0.443454618379028,-0.501977925036269
-0.445487814967711,-0.503596843376003
-0.447512379822883,-0.505164479973062
-0.449528209454572,-0.506681176970929
-0.451535200372807,-0.508147276513087
-0.453533249087616,-0.509563120743019
-0.455522252109027,-0.510929051804207
-0.457502105947068,-0.512245411840134
-0.459472707111768,-0.513512542994282
-0.461433952113155,-0.514730787410134
-0.463385737461257,-0.515900487231172
-0.465327959666103,-0.51702198460088
-0.467260515237721,-0.518095621662739
-0.469183300686139,-0.519121740560233
-0.471096212521385,-0.520100683436843
-0.472999147253487,-0.521032792436053
-0.474892001392475,-0.521918409701345
-0.476774671448376,-0.522757877376202
-0.478647053931219,-0.523551537604105
-0.480509045351031,-0.524299732528539
-0.482360542217841,-0.525002804292986
-0.484201441041677,-0.525661095040927
-0.486031638332568,-0.526274946915846
-0.487851030600542,-0.526844702061225
-0.489659514355627,-0.527370702620548
-0.491456986107852,-0.527853290737295
-0.493243342367244,-0.528292808554951
-0.495018479643832,-0.528689598216997
-0.496782294447645,-0.529044001866917
-0.49853468328871,-0.529356361648193
-0.500275542677055,-0.529627019704307
-0.50200476912271,-0.529856318178742
-0.503722259135702,-0.530044599214981
-0.50542790922606,-0.530192204956506
-0.507121615903812,-0.5302994775468
-0.508803275678986,-0.530366759129345
-0.51047278506161,-0.530394391847624
-0.512130040561714,-0.530382717845121
-0.513774938689324,-0.530332079265316
-0.515407375954469,-0.530242818251693
-0.517027248867178,-0.530115276947735
-0.518634453937479,-0.529949797496923
-0.5202288876754,-0.529746722042742
-0.52181044659097,-0.529506392728672
-0.523379027194216,-0.529229151698198
-0.524934525995167,-0.528915341094801
-0.526476839503851,-0.528565303061963
-0.528005864230297,-0.528179379743169
-0.529521496684533,-0.5277579132819
-0.531023633376587,-0.527301245821638
-0.532512170816486,-0.526809719505867
-0.533987005514261,-0.526283676478069
-0.535448033979939,-0.525723458881727
-0.536895152723548,-0.525129408860323
-0.538328258255116,-0.524501868557339
-0.539747247084672,-0.523841180116259
-0.541152015722244,-0.523147685680566
-0.54254246067786,-0.522421727393741
-0.543918478461549,-0.521663647399267
-0.545279965583338,-0.520873787840626
-0.546626818553257,-0.520052490861303
-0.547958933881334,-0.519200098604778
-0.549276208077595,-0.518316953214535
-0.550578537652071,-0.517403396834055
-0.551865819114789,-0.516459771606823
-0.553137948975778,-0.515486419676321
-0.554394823745065,-0.51448368318603
-0.555636339932679,-0.513451904279434
-0.556862394048649,-0.512391425100015
-0.558072882603003,-0.511302587791256
-0.559267702105768,-0.510185734496639
-0.560446749066973,-0.509041207359647
-0.561609919996647,-0.507869348523763
-0.562757111404818,-0.506670500132469
-0.563888219801513,-0.505445004329248
-0.565003141696762,-0.504193203257582
-0.566101773600592,-0.502915439060954
-0.567184012023033,-0.501612053882847
-0.568249753474111,-0.500283389866743
-0.569298894463856,-0.498929789156125
-0.570331331502295,-0.497551593894475
-0.571346961099457,-0.496149146225276
-0.572345679765371,-0.494722788292011
-0.573327384010064,-0.493272862238162
-0.574291970343565,-0.491799710207211
-0.575239335275902,-0.490303674342642
-0.576169375317103,-0.488785096787937
-0.577081986977196,-0.487244319686579
-0.577977066766211,-0.485681685182049
-0.578854511194175,-0.484097535417832
-0.579714216771116,-0.482492212537409
-0.580556080007063,-0.480866058684262
-0.581379997412044,-0.479219416001876
-0.582185865496088,-0.477552626633731
-0.582973580769221,-0.475866032723312
-0.583743039741474,-0.474159976414099
-0.584494138922873,-0.472434799849577
-0.585226774823449,-0.470690845173227
-0.585940843953227,-0.468928454528532
-0.586636242822238,-0.467147970058975
-0.587312867940509,-0.465349733908038
-0.587970615818068,-0.463534088219205
-0.588609382964944,-0.461701375135956
-0.589229065891165,-0.459851936801776
-0.589829561106759,-0.457986115360147
-0.590410765121755,-0.456104252954551
-0.590972574446181,-0.454206691728471
-0.591514885590065,-0.452293773825389
-0.592037595063436,-0.450365841388789
-0.592540599376321,-0.448423236562152
-0.593023795038749,-0.446466301488962
-0.593487078560748,-0.444495378312701
-0.593930346452347,-0.442510809176851
-0.594353495223574,-0.440512936224895
-0.594756421384457,-0.438502101600316
-0.595139021445024,-0.436478647446596
-0.595501191915304,-0.434442915907219
-0.595842829305324,-0.432395249125665
-0.596163830125114,-0.430335989245419
-0.596464090884701,-0.428265478409962
-0.596743508094115,-0.426184058762778
-0.597001978263382,-0.424092072447349
-0.597239397902531,-0.421989861607157
-0.597455663521591,-0.419877768385686
-0.59765067163059,-0.417756134926417
-0.597824318739556,-0.415625303372833
-0.597976501358517,-0.413485615868417
-0.598107115997502,-0.411337414556652
-0.59821605916654,-0.40918104158102
-0.598303227375657,-0.407016839085004
-0.598368517134883,-0.404845149212085
-0.598411824954245,-0.402666314105748
-0.598433047343773,-0.400480675909474
-0.598432080813494,-0.398288576766747
-0.598408821873437,-0.396090358821048
-0.598363167033629,-0.39388636421586
-0.5982950128041,-0.391676935094666
-0.598204255694877,-0.389462413600949
-0.598090792215989,-0.38724314187819
-0.597954518877464,-0.385019462069874
-0.59779533218933,-0.382791716319481
-0.597613128661616,-0.380560246770496
-0.59740780480435,-0.3783253955664
-0.597179257127559,-0.376087504850676
-0.596927382141274,-0.373846916766807
-0.596652076355521,-0.371603973458275
-0.596353236280328,-0.369359017068563
-0.596030758425725,-0.367112389741153
-0.59568453930174,-0.364864433619528
-0.5953144754184,-0.362615490847171
-0.594920463285735,-0.360365903567565
-0.594502399413771,-0.358116013924191
-0.594060180312539,-0.355866164060532
-0.593593702492065,-0.353616696120072
-0.593102862462378,-0.351367952246292
-0.592587556733507,-0.349120274582676
-0.59204768181548,-0.346874005272705
-0.591483134218324,-0.344629486459863
-0.590893810452069,-0.342387060287632
-0.590279607026742,-0.340147068899494
-0.589640420452373,-0.337909854438933
-0.588976147238988,-0.335675759049431
-0.588286683896617,-0.33344512487447
-0.587571926935287,-0.331218294057533
-0.586831772865027,-0.328995608742103
-0.586066118195866,-0.326777411071662
-0.585274859437831,-0.324564043189692
-0.584457893100951,-0.322355847239678
-0.583615115695254,-0.3201531653651
-0.582746423730768,-0.317956339709442
-0.581851713717522,-0.315765712416186
-0.580930882165543,-0.313581625628815
-0.579983825584861,-0.311404421490811
-0.579010440485504,-0.309234442145657
-0.578010623377498,-0.307072029736836
-0.576984270770874,-0.30491752640783
-0.57593127917566,-0.302771274302122
-0.574851545101882,-0.300633615563195
-0.573744965059571,-0.29850489233453
-0.572611435558753,-0.296385446759611
-0.571450853109459,-0.29427562098192
-0.570263114221714,-0.29217575714494
-0.569048115405549,-0.290086197392154
-0.567805753170991,-0.288007283867043
-0.566535924028068,-0.285939358713091
-0.565238524486809,-0.28388276407378
-0.563913451057242,-0.281837842092593
-0.562560600249396,-0.279804934913013
-0.561179868573298,-0.277784384678521
-0.559771152538977,-0.275776533532601
-0.558334348656461,-0.273781723618735
-0.556869353435778,-0.271800297080406
-0.555376063386957,-0.269832596061096
-0.553854375020026,-0.267878962704288
-0.552304184845014,-0.265939739153465
-0.550725389371948,-0.264015267552109
-0.549117885110857,-0.262105890043703
-0.547481568571768,-0.260211948771729
-0.545816336264712,-0.258333785879671
-0.544122084699714,-0.256471743511009
-0.542398710386805,-0.254626163809228
-0.540646109836012,-0.25279738891781
-0.538864179557364,-0.250985760980237
-0.537052816060888,-0.249191622139992
-0.535211915856613,-0.247415314540557
-0.533341375454567,-0.245657180325416
-0.531441091364779,-0.243917561638051
-0.529510960097277,-0.242196800621944
-0.527550878162089,-0.240495239420577
-0.525560742069244,-0.238813220177435
-0.523540448328769,-0.237151085035998
-0.521489893450693,-0.23550917613975
-0.519408973945044,-0.233887835632174
-0.517297586321851,-0.232287405656752
-0.515155627091142,-0.230708228356966
-0.512982992762945,-0.229150645876299
-0.510779579847288,-0.227615000358234
-0.5085452848542,-0.226101633946253
-0.506280004293708,-0.22461088878384
-0.503983634675842,-0.223143107014475
-0.501656072510629,-0.221698630781643
-0.499297214308098,-0.220277802228826
-0.496906956578277,-0.218880963499506
-0.494485195831195,-0.217508456737166
-0.492031828576879,-0.216160624085288
-0.489546751325357,-0.214837807687356
-0.487029860586659,-0.213540349686851
-0.484481052870812,-0.212268592227257
-0.481900224687845,-0.211022877452055
-0.479287272547786,-0.209803547504729
-0.476642092960663,-0.208610944528762
-0.473964582436505,-0.207445410667635
-0.471254637485339,-0.206307288064831
-0.468512154617195,-0.205196918863833
-0.465737030342099,-0.204114645208124
-0.462929161170082,-0.203060809241185
-0.46008844361117,-0.202035753106501
-0.457214774175393,-0.201039818947552
-0.454308049372778,-0.200073348907823
-0.451368165713353,-0.199136685130795
-0.448395019707148,-0.198230169759952
-0.44538850786419,-0.197354144938775
-0.442348526694507,-0.196508952810747
-0.439274972708129,-0.195694935519351
-0.436167742415082,-0.19491243520807
-0.433026732325396,-0.194161794020385
-0.429851838949098,-0.193443354099781
-0.426642958796218,-0.192757457589738
-0.423399988376782,-0.192104446633741
-0.420122824200821,-0.191484663375271
-0.416811362778361,-0.190898449957811
-0.41346550061943,-0.190346148524844
-0.410085134234059,-0.189828101219852
-0.406670160132274,-0.189344650186318
-0.403220474824104,-0.188896137567725
-0.399735974819576,-0.188482905507554
-0.396216556628721,-0.188105296149289
-0.392662116761565,-0.187763651636413
-0.389072551728137,-0.187458314112407
-0.385447758038465,-0.187189625720755
-0.381787632202578,-0.186957928604939
-0.378092070730504,-0.186763564908442
-0.374360970132271,-0.186606876774745
-0.370594226917907,-0.186488206347333
-0.366791737597441,-0.186407895769687
-0.3629533986809,-0.18636628718529
-0.359079106678314,-0.186363722737625
-0.355168758099711,-0.186400544570174
-0.351222249455118,-0.18647709482642
-0.347239477254564,-0.186593715649846
-0.343220338008078,-0.186750749183933
-0.339164728225687,-0.186948537572165
-0.33507254441742,-0.187187422958025
-0.330943683093305,-0.187467747484994
-0.326778040763371,-0.187789853296555
-0.322575513937645,-0.188154082536192
-0.318335999126157,-0.188560777347386
-0.314059392838933,-0.189010279873621
-0.309745591586003,-0.189502932258378
-0.305394491877395,-0.190039076645141
-0.301005990223137,-0.190619055177392
-0.296579983133257,-0.191243209998613
-0.292116367117784,-0.191911883252288
-0.287615038686746,-0.192625417081898
-0.283075894350171,-0.193384153630927
-0.278498830618088,-0.194188435042857
-0.273883744000524,-0.195038603461171
-0.269230531007508,-0.195935001029351
-0.264539088149069,-0.196877969890879
-0.259809311935234,-0.197867852189239
-0.255041098876032,-0.198904990067913
-0.250234345481491,-0.199989725670384
-0.24538894826164,-0.201122401140134
-0.240504803726506,-0.202303358620645
-0.235581808386119,-0.203532940255401
-0.230619858750505,-0.204811488187884
-0.225618851329694,-0.206139344561577
-0.220578682633714,-0.207516851519962
-0.215499249172593,-0.208944351206522
-0.210380447456359,-0.210422185764739
-0.205222173995041,-0.211950697338096
-0.200024325298667,-0.213530228070075
-0.194786797877265,-0.21516112010416
-0.189509488240863,-0.216843715583833
-0.184192292899491,-0.218578356652576
-0.178835108363175,-0.220365385453872
-0.173437831141944,-0.222205144131204
-0.168000357745827,-0.224097974828053
-0.162522584684852,-0.226044219687904
-0.157004408469047,-0.228044220854238
-0.151445725608441,-0.230098320470538
-0.145846432613061,-0.232206860680286
-0.140206425992936,-0.234370183626966
-0.134525602258094,-0.236588631454059
-0.128803857918564,-0.238862546305049
-0.123041089484374,-0.241192270323418
-0.117237193465551,-0.243578145652648
-0.111392066372125,-0.246020514436223
-0.105505604714124,-0.248519718817624
-0.0995777050015752,-0.251076100940335
-0.0936082637445081,-0.253690002947837
-0.0875971774529501,-0.256361766983614
-0.08154434263693,-0.259091735191149
-0.0754496558064758,-0.261880249713923
-0.069313013471616,-0.264727652695419
-0.0631343121423786,-0.267634286279121
-0.0569134483287923,-0.270600492608509
-0.0506503185408848,-0.273626613827069
-0.0443448192886849,-0.27671299207828
-0.0379968470822205,-0.279859969505628
-0.0316062984315202,-0.283067888252593
-0.025173069846612,-0.286337090462658
-0.0186970578375245,-0.289667918279307
-0.0121781589142854,-0.293060713846022
-0.00561626958692371,-0.296515819306284
0.000988713634532901,-0.300033576803578
0.00763689424005567,-0.303614328481385
0.0143283757196168,-0.307258416483189
0.0210632615631875,-0.310966182952471
0.0278416552607401,-0.314737970032715
0.0346636603022456,-0.318574119867402
0.0415293801776765,-0.322474974600016
0.0484389183770037,-0.326440876374039
0.0553923783901998,-0.330472167332954
0.0623898637072357,-0.334569189620243
0.0694314778180838,-0.338732285379389
0.0765173242127153,-0.342961796753875
0.0836475063811024,-0.347258065887182
0.0908221278132162,-0.351621434922795
0.0980412919990292,-0.356052246004194
0.105305102428512,-0.360550841274864
0.112613662591638,-0.365117562878286
0.119967075978377,-0.369752752957943
0.127365446078703,-0.374456753657318
0.134808876382585,-0.379229907119893
0.142297470379997,-0.384072555489152
0.14983133156091,-0.388985040908575
0.157410563415295,-0.393967705521647
0.165035269433124,-0.399020891471849
0.17270555310437,-0.404144940902665
0.180421517919003,-0.409340195957576
0.188183267366996,-0.414606998780067
0.195990904938319,-0.419945691513618
0.203844534122946,-0.425356616301713
0.211744258410848,-0.430840115287834
0.219690181291996,-0.436396530615464
0.227682406256361,-0.442026204428085
0.235721036793917,-0.447729478869181
0.243806176394634,-0.453506696082233
0.251937928548485,-0.459358198210725
0.26011639674544,-0.465284327398138
0.268341684475472,-0.471285425787956
0.276613895228553,-0.477361835523661
0.284933132494653,-0.483513898748735
0.293299499763746,-0.489741957606662
0.301713100525802,-0.496046354240924
0.310174038270793,-0.502427430795003
0.318682416488692,-0.508885529412383
0.327238338669469,-0.515420992236544
0.335841908303097,-0.522034161410971
0.344493228879547,-0.528725379079146
0.353192403888791,-0.535494987384552
0.3619395368208,-0.54234332847067
0.370734731165547,-0.549270744480985
0.379578090413003,-0.556277577558977
0.38846971805314,-0.56336416984813
0.397409717575929,-0.570530863491927
0.406398192471342,-0.57777800063385
0.415435246229352,-0.585105923417381
0.424520982339929,-0.592514973986004
0.433655504293046,-0.6000054944832
0.442838915578674,-0.607577827052453
0.442838915578674,-0.607577827052453
0.451989847308381,-0.615128400143291
0.461027200542867,-0.622553810310648
0.469951483695801,-0.629854651856123
0.478763205180853,-0.637031519081311
0.487462873411691,-0.644085006287808
0.496050996801985,-0.651015707777209
0.504528083765404,-0.657824217851112
0.512894642715617,-0.664511130811113
0.521151182066294,-0.671077040958807
0.529298210231103,-0.67752254259579
0.537336235623713,-0.683848230023658
0.545265766657795,-0.690054697544009
0.553087311747016,-0.696142539458437
0.560801379305047,-0.702112350068539
0.568408477745556,-0.707964723675911
0.575909115482213,-0.713700254582149
0.583303800928687,-0.719319537088849
0.590593042498646,-0.724823165497607
0.59777734860576,-0.730211734110019
0.604857227663699,-0.735485837227682
0.611833188086132,-0.740646069152191
0.618705738286727,-0.745693024185143
0.625475386679154,-0.750627296628132
0.632142641677082,-0.755449480782757
0.63870801169418,-0.760160170950613
0.645172005144117,-0.764759961433295
0.651535130440564,-0.769249446532401
0.657797895997188,-0.773629220549525
0.663960810227659,-0.777899877786265
0.670024381545645,-0.782062012544215
0.675989118364818,-0.786116219124973
0.681855529098845,-0.790063091830134
0.687624122161395,-0.793903224961295
0.693295405966139,-0.797637212820051
0.698869888926744,-0.801265649707999
0.704348079456881,-0.804789129926735
0.709730485970218,-0.808208247777854
0.715017616880425,-0.811523597562953
0.72020998060117,-0.814735773583628
0.725308085546124,-0.817845370141475
0.730312440128954,-0.82085298153809
0.735223552763331,-0.82375920207507
0.740041931862923,-0.82656462605401
0.744768085841401,-0.829269847776506
0.749402523112432,-0.831875461544154
0.753945752089686,-0.834382061658552
0.758398281186832,-0.836790242421293
0.76276061881754,-0.839100598133976
0.767033273395478,-0.841313723098195
0.771216753334316,-0.843430211615547
0.775311567047723,-0.845450657987628
0.779318222949369,-0.847375656516035
0.783237229452921,-0.849205801502362
0.78706909497205,-0.850941687248206
0.790814327920425,-0.852583908055164
0.794473436711714,-0.854133058224831
0.798046929759588,-0.855589732058804
0.801535315477715,-0.856954523858679
0.804939102279765,-0.85822802792605
0.808258798579406,-0.859410838562516
0.811494912790307,-0.860503550069672
0.814647953326139,-0.861506756749113
0.81771842860057,-0.862421052902437
0.820706847027269,-0.863247032831238
0.823613717019906,-0.863985290837114
0.82643954699215,-0.86463642122166
0.829184845357669,-0.865201018286472
0.831850120530133,-0.865679676333147
0.834435880923212,-0.866072989663281
0.836942634950574,-0.866381552578468
0.839370891025889,-0.866605959380306
0.841721157562825,-0.866746804370392
0.843993942975053,-0.86680468185032
0.84618975567624,-0.866780186121687
0.848309104080057,-0.866673911486089
0.834474531346423,-0.885045365789569
0.803150751677946,-0.843749760944665
0.854778088218438,-0.839812529654129
0.853276050944634,-0.845800565354365
0.905507857114503,-0.909866697484992
0.891563294903454,-0.87358439247226
0.8452690705043,-0.843440697293016
0.859099278893696,-0.839550979691281
0.864026234588146,-0.862135448715638
0.862137173254109,-0.84452260949558
0.875457045409412,-0.864278166176759
0.867962132306532,-0.859236186896621
0.885893790385563,-0.821541683467627
0.870235942164319,-0.856932090250203
0.821277895924548,-0.808267039054402
0.872700796261212,-0.901527290952623
0.873131642292674,-0.852930948161889
0.92083671938532,-0.809888400692999
0.879605936314804,-0.846068876909105
0.896532688077295,-0.802963300359462
0.876052568475715,-0.84660372475629
0.909438232230908,-0.811283280837948
0.877119322732667,-0.843025510215999
0.877556052100342,-0.841134832292067
0.877929027512377,-0.839177233001072
0.859985326421703,-0.816914452476329
0.8784857501242,-0.835063647524279
0.842240986192101,-0.843429397690982
0.882304881862384,-0.842511248096293
0.841242947620219,-0.818336462924589
0.863713720736185,-0.850047696691333
0.871720539308495,-0.780097169084878
0.898857097926238,-0.865855851689143
0.855740897963006,-0.81548819165209
0.878264165079686,-0.816051311253808
0.829992765685992,-0.821512324633773
0.848631229677404,-0.837042345263975
0.877207426124969,-0.807909005041642
0.837671057229982,-0.806659454255453
0.920006556074845,-0.761901096236553
0.875640961691799,-0.799239288527016
0.888848883745561,-0.786385823732412
0.924030736094177,-0.745043315579456
0.873578498949243,-0.790058207853026
0.872783162118985,-0.786886984555953
0.855765197638007,-0.747389782186887
0.840841656791693,-0.777400986104799
0.870080721671355,-0.777049045669846
0.842443948807821,-0.791811551776809
0.890766686095114,-0.778835211882354
0.8669143129755,-0.766737183624928
0.865758111952176,-0.763197353426556
0.864552392555948,-0.759607242305813
0.863297663200486,-0.755967444564293
0.861994432299457,-0.752278554503592
0.860643208266532,-0.748541166425308
0.859244499515381,-0.744755874631035
0.857798814459671,-0.74092327342237
0.856306661513071,-0.73704395710091
0.854768549089253,-0.733118519968249
0.853184985601884,-0.729147556325985
0.851556479464633,-0.725131660475713
0.84988353909117,-0.721071426719029
0.848166672895165,-0.71696744935753
0.846406389290285,-0.712820322692812
0.844603196690201,-0.70863064102647
0.842757603508581,-0.704398998660101
0.840870118159095,-0.7001259898953
0.838941249055413,-0.695812209033665
0.836971504611202,-0.691458250376791
0.834961393240132,-0.687064708226273
0.832911423355873,-0.682632176883709
0.830822103372094,-0.678161250650694
0.828693941702464,-0.673652523828825
0.826527446760651,-0.669106590719696
0.824323126960325,-0.664524045624906
0.822081490715157,-0.659905482846049
0.819803046438814,-0.655251496684721
0.817488302544965,-0.65056268144252
0.81513776744728,-0.64583963142104
0.812751949559428,-0.641082940921878
0.810331357295079,-0.63629320424663
0.807876499067901,-0.631471015696893
0.805387883291564,-0.626616969574261
0.802866018379737,-0.621731660180332
0.800311412746089,-0.616815681816701
0.797724574804289,-0.611869628784965
0.795106012968006,-0.606894095386719
0.79245623565091,-0.601889675923559
0.78977575126667,-0.596856964697083
0.787065068228954,-0.591796556008885
0.784324694951433,-0.586709044160562
0.781555139847775,-0.58159502345371
0.77875691133165,-0.576455088189925
0.775930517816726,-0.571289832670803
0.773076467716673,-0.56609985119794
0.77019526944516,-0.560885738072933
0.767287431415856,-0.555648087597378
0.764353462042431,-0.550387494072869
0.761393869738553,-0.545104551801004
0.758409162917892,-0.539799855083379
0.755399849994117,-0.53447399822159
0.752366439380897,-0.529127575517232
0.749309439491901,-0.523761181271902
0.746229358740799,-0.518375409787196
0.74312670554126,-0.51297085536471
0.740001988306953,-0.507548112306041
0.736855715451546,-0.502107774912783
0.73368839538871,-0.496650437486534
0.730500536532113,-0.49117669432889
0.727292647295424,-0.485687139741446
0.724065236092314,-0.480182368025798
0.72081881133645,-0.474662973483543
0.717553881441503,-0.469129550416277
0.714270954821141,-0.463582693125596
0.710970539889033,-0.458022995913095
0.707653145058849,-0.452451053080372
0.704319278744258,-0.446867458929022
0.700969449358929,-0.44127280776064
0.697604165316531,-0.435667693876824
0.694223935030733,-0.43005271157917
0.690829266915206,-0.424428455169273
0.687420669383616,-0.418795518948729
0.683998650849635,-0.413154497219135
0.680563719726931,-0.407505984282087
0.677116384429173,-0.40185057443918
0.673657153370032,-0.396188861992012
0.670186534963174,-0.390521441242177
0.66670503762227,-0.384848906491272
0.66321316976099,-0.379171852040894
0.659711439793001,-0.373490872192638
0.656200356131974,-0.367806561248099
0.652680427191578,-0.362119513508876
0.649152161385481,-0.356430323276562
0.645616067127354,-0.350739584852756
0.642072652830865,-0.345047892539052
0.638522426909682,-0.339355840637046
0.634965897777477,-0.333664023448336
0.631403573847917,-0.327973035274516
0.627835963534672,-0.322283470417183
0.624263575251411,-0.316595923177934
0.620686917411803,-0.310910987858363
0.617106498429518,-0.305229258760068
0.613522826718224,-0.299551330184644
0.609936410691591,-0.293877796433687
0.606347758763288,-0.288209251808794
0.602757379346984,-0.282546290611561
0.599165780856349,-0.276889507143583
0.595573471705051,-0.271239495706457
0.59198096030676,-0.265596850601778
0.588388755075144,-0.259962166131144
0.584797364423874,-0.254336036596149
0.581207296766618,-0.248719056298391
0.577619060517045,-0.243111819539465
0.574033164088825,-0.237514920620967
0.570450115895627,-0.231928953844493
0.56687042435112,-0.22635451351164
0.563294597868972,-0.220792193924003
0.559723144862855,-0.215242589383179
0.556156573746435,-0.209706294190764
0.552595392933384,-0.204183902648353
0.549040110837369,-0.198676009057543
0.54549123587206,-0.19318320771993
0.541949276451127,-0.18770609293711
0.538414740988238,-0.18224525901068
0.534888137897063,-0.176801300242234
0.53136997559127,-0.17137481093337
0.52786076248453,-0.165966385385683
0.52436100699051,-0.160576617900769
0.520871217522881,-0.155206102780225
0.517391902495312,-0.149855434325647
0.513923570321471,-0.14452520683863
0.510466729415028,-0.139216014620771
0.507021888189652,-0.133928451973666
0.503589555059012,-0.128663113198911
0.500170238436778,-0.123420592598102
0.496764446736619,-0.118201484472835
0.493372688372203,-0.113006383124707
0.4899954717572,-0.107835882855312
0.48663330530528,-0.102690577966248
0.483286697430111,-0.0975710627591109
0.479956156545362,-0.0924779315354958
0.476642191064703,-0.0874117785969996
0.473345309401803,-0.0823731982452178
0.470066019970331,-0.0773627847817471
0.466804831183956,-0.0723811325081831
0.463562251456348,-0.0674288357261223
0.460338789201175,-0.0625064887371603
0.457134952832107,-0.0576146858428936
0.453951250762813,-0.0527540213449181
0.450788191406963,-0.04792508954483
0.447646283178224,-0.0431284847442251
0.444526034490268,-0.0383648012446999
0.441427953756761,-0.0336346333478501
0.438352549391375,-0.0289385753552722
0.435300329807778,-0.0242772215685618
0.432271803419639,-0.0196511662893155
0.429267478640628,-0.0150610038191288
0.426287863884413,-0.0105073284595984
0.423333467564664,-0.00599073451231984
0.42040479809505,-0.00151181627888972
0.41750236388924,0.00292883193909643
0.414626673360904,0.00733061584004197
0.41177823492371,0.0116929411223513
0.408957556991328,0.016015213484428
0.406165147977427,0.0202968386246762
0.403401516295676,0.0245372222414995
0.400667170359744,0.0287357700333022
0.397962618583301,0.032891887698488
0.395288369380015,0.0370049809354609
0.392644931163556,0.0410744554426247
0.390032812347593,0.0450997169183835
0.387452521345795,0.0490801710611409
0.384904566571832,0.0530152235693013
0.382389456439372,0.056904280141268
0.379907699362085,0.0607467464754456
0.37745980375364,0.0645420282702373
0.375046278027706,0.0682895312240477
0.372667630597952,0.0719886610352801
0.370324369878047,0.075638823402339
0.368017004281662,0.0792394240236277
0.365746042222464,0.0827898685975507
0.363511992114123,0.0862895628225115
0.361315362370308,0.0897379123969143
0.359156661404689,0.0931343230191627
0.357036397630934,0.096478200387661
0.354955079462713,0.0997689502008127
0.352913215313695,0.103005978157022
0.350911313597549,0.106188689954693
0.348949882727944,0.109316491292229
0.34702943111855,0.112388787868034
0.345150467183036,0.115404985380513
0.34331349933507,0.118364489528068
0.341519035988322,0.121266706009105
0.339767585556462,0.124111040522027
0.338059656453157,0.126896898765237
0.336395757092079,0.12962368643714
0.334776395886895,0.13229080923614
0.333202081251275,0.134897672860641
0.331673321598888,0.137443683009045
0.330190625343404,0.139928245379759
0.328754500898491,0.142350765671184
0.327365456677818,0.144710649581726
0.326024001095056,0.147007302809788
0.324730642563872,0.149240131053774
0.323485889497937,0.151408540012089
0.322290250310919,0.153511935383135
0.321144233416487,0.155549722865316
0.320048347228312,0.157521308157038
0.319003100160061,0.159426096956703
0.318009000625404,0.161263494962716
0.317066557038011,0.16303290787348
0.31617627781155,0.1647337413874
0.315338671359691,0.166365401202879
0.314554246096103,0.167927293018321
0.313823510434455,0.16941882253213
0.313146972788416,0.17083939544271
0.312525141571655,0.172188417448466
0.311958525197842,0.1734652942478
0.311447632080645,0.174669431539117
0.310992970633735,0.175800235020821
0.31059504927078,0.176857110391315
0.310254376405449,0.177839463349004
0.309971460451411,0.178746699592291
0.309746809822336,0.17957822481958
0.309580932931893,0.180333444729276
0.309474338193751,0.181011765019783
0.30942753402158,0.181612591389503
0.309441028829047,0.182135329536841
0.309515331029823,0.182579385160201
0.309650949037578,0.182944163957987
0.309848391265978,0.183229071628603
0.310108166128696,0.183433513870452
0.310430782039398,0.183556896381939
0.310816747411755,0.183598624861468
0.311266570659435,0.183558105007442
0.311780760196109,0.183434742518265
0.312359824435444,0.183227943092342
0.313004271791111,0.182937112428076
0.313714610676778,0.18256165622387
0.314491349506114,0.18210098017813
0.31533499669279,0.181554489989259
0.316246060650473,0.180921591355661
0.317225049792834,0.180201689975739
0.318272472533541,0.179394191547898
0.319388837286263,0.178498501770542
0.32057465246467,0.177514026342074
0.321830426482431,0.176440170960898
0.323156667753214,0.175276341325419
0.324553884690691,0.17402194313404
0.326022585708528,0.172676382085165
0.327563279220396,0.171239063877198
0.329176473639964,0.169709394208543
0.330862677380901,0.168086778777604
0.332622398856876,0.166370623282785
0.334456146481558,0.16456033342249
0.336364428668617,0.162655314895122
0.338347753831722,0.160654973399086
0.340406630384541,0.158558714632785
0.342541566740744,0.156365944294624
0.344753071314001,0.154076068083006
0.34704165251798,0.151688491696335
0.349407818766351,0.149202620833015
0.351852078472782,0.14661786119145
0.354374940050943,0.143933618470044
0.356976911914504,0.141149298367201
0.359658502477133,0.138264306581325
0.362420220152499,0.13527804881082
0.365262573354272,0.132189930754089
0.368186070496121,0.128999358109537
0.371191219991715,0.125705736575567
0.374278530254724,0.122308471850583
0.377448509698815,0.11880696963299
0.380701666737659,0.115200635621191
0.384038509784925,0.11148887551359
0.387459547254282,0.107671095008591
0.3909652875594,0.103746699804598
0.394556239113946,0.0997150956000147
0.398232910331591,0.0955756880932454
0.401995809626004,0.0913278829826935
0.405845445410853,0.0869710859667635
0.409782326099809,0.0825047027438586
0.41380696010654,0.0779281390123835
0.417919855844715,0.0732408004707414
0.417919855844715,0.0732408004707414
0.422060988142284,0.0685182297754619
0.426169961983174,0.0638362607023651
0.430246731015022,0.0591947356287917
0.434291248885464,0.0545934969320825
0.438303469242138,0.0500323869895781
0.442283345732679,0.0455112481786193
0.446230832004725,0.0410299228765468
0.450145881705912,0.0365882534607014
0.454028448483878,0.0321860823084238
0.457878485986258,0.0278232517970546
0.461695947860689,0.0234996043039346
0.465480787754809,0.0192149822064046
0.469232959316253,0.0149692278818052
0.472952416192659,0.0107621837074772
0.476639112031663,0.00659369206076132
0.480293000480902,0.00246359531899824
0.483914035188013,-0.00162826414047129
0.487502169800631,-0.00568204394030658
0.491057357966395,-0.00969790170316686
0.494579553332941,-0.0136759950517114
0.498068709547905,-0.0176164816085996
0.501524780258925,-0.0215195189964906
0.504947719113636,-0.0253852648380437
0.508337479759675,-0.0292138767559182
0.511694015844681,-0.0330055123727733
0.515017281016287,-0.0367603293112685
0.518307228922133,-0.0404784851940628
0.521563813209854,-0.0441601376438157
0.524786987527087,-0.0478054442831864
0.527976705521468,-0.0514145627348341
0.531132920840635,-0.0549876506214182
0.534255587132225,-0.0585248655655978
0.537344658043873,-0.0620263651900324
0.540400087223217,-0.0654923071173812
0.543421828317893,-0.0689228489703034
0.546409834975538,-0.0723181483714583
0.549364060843789,-0.0756783629435052
0.552284459570281,-0.0790036503091034
0.555170984802653,-0.0822941680909122
0.558023590188541,-0.0855500739115908
0.560842229375582,-0.0887715253937986
0.563626856011411,-0.0919586801601947
0.566377423743667,-0.0951116958334385
0.569093886219985,-0.0982307300361892
0.571776197088002,-0.101315940391106
0.574424309995356,-0.104367484520849
0.577038178589681,-0.107385520048076
0.579617756518617,-0.110370204595447
0.582162997429798,-0.113321695785622
0.584673854970863,-0.116240151241259
0.587150282789447,-0.119125728585018
0.589592234533187,-0.121978585439559
0.59199966384972,-0.124798879427539
0.594372524386682,-0.12758676817162
0.596710769791711,-0.130342409294459
0.599014353712443,-0.133065960418717
0.601283229796515,-0.135757579167052
0.603517351691563,-0.138417423162124
0.605716673045224,-0.141045650026593
0.607881147505135,-0.143642417383116
0.610010728718932,-0.146207882854355
0.612105370334253,-0.148742204062967
0.614165025998734,-0.151245538631612
0.616189649360011,-0.15371804418295
0.618179194065722,-0.15615987833964
0.620133613763503,-0.158571198724341
0.62205286210099,-0.160952162959712
0.623936892725821,-0.163302928668413
0.625785659285632,-0.165623653473102
0.62759911542806,-0.16791449499644
0.629377214800741,-0.170175610861085
0.631119911051313,-0.172407158689697
0.632827157827412,-0.174609296104935
0.634498908776674,-0.176782180729458
0.636135117546737,-0.178925970185926
0.637735737785237,-0.181040822096998
0.63930072313981,-0.183126894085332
0.640830027258094,-0.185184343773589
0.642323603787725,-0.187213328784428
0.64378140637634,-0.189214006740508
0.645203388671576,-0.191186535264487
0.646589504321069,-0.193131071979027
0.647939706972456,-0.195047774506785
0.649253950273373,-0.196936800470421
0.650532187871458,-0.198798307492594
0.651774373414347,-0.200632453195965
0.652980460549677,-0.20243939520319
0.654150402925085,-0.204219291136932
0.655284154188206,-0.205972298619847
0.656381667986679,-0.207698575274596
0.657442897968138,-0.209398278723839
0.658467797780223,-0.211071566590233
0.659456321070568,-0.212718596496439
0.660408421486811,-0.214339526065116
0.661324052676588,-0.215934512918923
0.662203168287537,-0.217503714680519
0.663045721967294,-0.219047288972564
0.663851667363495,-0.220565393417717
0.664620958123776,-0.222058185638637
0.665353547895777,-0.223525823257984
0.666049390327131,-0.224968463898416
0.666708439065477,-0.226386265182594
0.667330647758451,-0.227779384733175
0.66791597005369,-0.229147980172821
0.66846435959883,-0.230492209124189
0.668975770041509,-0.231812229209939
0.669450155029362,-0.233108198052731
0.669887468210026,-0.234380273275224
0.67028766323114,-0.235628612500076
0.670650693740337,-0.236853373349948
0.670976513385257,-0.238054713447498
0.671265075813535,-0.239232790415386
0.671516334672808,-0.240387761876271
0.671730243610712,-0.241519785452813
0.671906756274885,-0.24262901876767
0.672045826312964,-0.243715619443502
0.672147407372584,-0.244779745102968
0.672211453101383,-0.245821553368728
0.672237917146997,-0.246841201863441
0.672226753157063,-0.247838848209765
0.672177914779218,-0.248814650030361
0.672091355661097,-0.249768764947888
0.671967029450339,-0.250701350585004
0.67180488979458,-0.251612564564369
0.671604890341457,-0.252502564508643
0.671366984738605,-0.253371508040485
0.671091126633663,-0.254219552782553
0.670777269674266,-0.255046856357508
0.670425367508051,-0.255853576388009
0.670035373782655,-0.256639870496714
0.669607242145715,-0.257405896306283
0.669140926244868,-0.258151811439376
0.668636379727749,-0.258877773518651
0.668093556241997,-0.259583940166768
0.667512409435246,-0.260270469006386
0.666892892955135,-0.260937517660165
0.6662349604493,-0.261585243750764
0.665538565565378,-0.262213804900842
0.664803661951004,-0.262823358733057
0.664030203253817,-0.263414062870071
0.663218143121453,-0.263986074934541
0.662367435201548,-0.264539552549128
0.661478033141739,-0.26507465333649
0.660549890589663,-0.265591534919286
0.659582961192956,-0.266090354920177
0.658577198599256,-0.266571270961821
0.657532556456199,-0.267034440666877
0.656448988411421,-0.267480021658005
0.65532644811256,-0.267908171557865
0.654164889207251,-0.268319047989114
0.652964265343132,-0.268712808574413
0.65172453016784,-0.269089610936421
0.650445637329012,-0.269449612697798
0.649127540474282,-0.269792971481202
0.64777019325129,-0.270119844909292
0.64637354930767,-0.270430390604729
0.644937562291061,-0.27072476619017
0.643462185849098,-0.271003129288277
0.641947373629419,-0.271265637521707
0.640393079279659,-0.271512448513121
0.638799256447457,-0.271743719885176
0.637165858780448,-0.271959609260534
0.635492839926269,-0.272160274261852
0.633780153532557,-0.272345872511791
0.632027753246948,-0.272516561633009
0.63023559271708,-0.272672499248166
0.628403625590589,-0.272813842979921
0.626531805515111,-0.272940750450934
0.624620086138284,-0.273053379283863
0.622668421107744,-0.273151887101368
0.620676764071128,-0.273236431526108
0.618645068676072,-0.273307170180743
0.616573288570214,-0.273364260687931
0.614461377401189,-0.273407860670333
0.612309288816634,-0.273438127750606
0.610116976464188,-0.273455219551411
0.607884393991485,-0.273459293695408
0.605611495046163,-0.273450507805254
0.603298233275858,-0.273429019503609
0.600944562328208,-0.273394986413134
0.598550435850848,-0.273348566156486
0.596115807491416,-0.273289916356326
0.593640630897547,-0.273219194635312
0.591124859716881,-0.273136558616103
0.588568447597051,-0.27304216592136
0.585971348185696,-0.272936174173741
0.583333515130452,-0.272818740995906
0.580654902078955,-0.272690024010514
0.577935462678844,-0.272550180840224
0.575175150577752,-0.272399369107695
0.572373919423319,-0.272237746435587
0.569531722863181,-0.27206547044656
0.566648514544974,-0.271882698763271
0.563724248116334,-0.271689589008381
0.5607588772249,-0.271486298804549
0.557752355518307,-0.271272985774434
0.554704636644192,-0.271049807540695
0.551615674250191,-0.270816921725992
0.548485421983942,-0.270574485952984
0.545313833493081,-0.27032265784433
0.542100862425245,-0.27006159502269
0.538846462428071,-0.269791455110722
0.535550587149194,-0.269512395731087
0.532213190236253,-0.269224574506443
0.528834225336884,-0.268928149059449
0.525413646098722,-0.268623277012766
0.521951406169406,-0.268310115989051
0.518447459196572,-0.267988823610965
0.514901758827856,-0.267659557501167
0.511314258710895,-0.267322475282316
0.507684912493327,-0.266977734577071
0.504013673822787,-0.266625493008091
0.500300496346912,-0.266265908198037
0.496545333713339,-0.265899137769566
0.492748139569704,-0.265525339345339
0.488908867563646,-0.265144670548014
0.485027471342799,-0.264757289000252
0.481103904554801,-0.264363352324711
0.477138120847289,-0.26396301814405
0.473130073867898,-0.263556444080929
0.469079717264267,-0.263143787758007
0.464987004684031,-0.262725206797944
0.460851889774828,-0.262300858823398
0.456674326184293,-0.261870901457029
0.452454267560065,-0.261435492321496
0.448191667549779,-0.260994789039458
0.443886479801071,-0.260548949233575
0.43953865796158,-0.260098130526507
0.435148155678941,-0.259642490540911
0.430714926600792,-0.259182186899448
0.426238924374768,-0.258717377224777
0.421720102648507,-0.258248219139557
0.417158415069646,-0.257774870266448
0.41255381528582,-0.257297488228108
0.407906256944667,-0.256816230647197
0.403215693693824,-0.256331255146374
0.398482079180926,-0.255842719348298
0.393705367053612,-0.25535078087563
0.388885510959517,-0.254855597351028
0.384022464546278,-0.25435732639715
0.379116181461533,-0.253856125636658
0.374166615352917,-0.253352152692209
0.369173719868067,-0.252845565186464
0.36413744865462,-0.252336520742081
0.359057755360213,-0.251825176981719
0.353934593632483,-0.251311691528039
0.348767917119066,-0.250796222003699
0.343557679467599,-0.250278926031358
0.338303834325718,-0.249759961233677
0.33300633534106,-0.249239485233313
0.327665136161263,-0.248717655652927
0.322280190433962,-0.248194630115177
0.316851451806795,-0.247670566242723
0.311378873927397,-0.247145621658225
0.305862410443407,-0.246619953984341
0.30030201500246,-0.246093720843731
0.294697641252193,-0.245567079859054
0.289049242840243,-0.245040188652969
0.283356773414246,-0.244513204848136
0.27762018662184,-0.243986286067214
0.271839436110661,-0.243459589932861
0.266014475528346,-0.242933274067739
0.260145258522531,-0.242407496094505
0.254231738740853,-0.241882413635818
0.248273869830949,-0.24135818431434
0.242271605440455,-0.240834965752727
0.236224899217009,-0.240312915573641
0.230133704808246,-0.23979219139974
0.223997975861804,-0.239272950853683
0.21781766602532,-0.238755351558129
0.211592728946429,-0.238239551135739
0.20532311827277,-0.237725707209171
0.199008787651977,-0.237213977401084
0.192649690731689,-0.236704519334138
0.186245781159542,-0.236197490630992
0.179797012583172,-0.235693048914306
0.173303338650217,-0.235191351806738
0.166764713008312,-0.234692556930948
0.160181089305095,-0.234196821909595
0.153552421188202,-0.233704304365338
0.146878662305271,-0.233215161920837
0.140159766303937,-0.232729552198751
0.133395686831837,-0.23224763282174
0.126586377536609,-0.231769561412462
0.119731792065889,-0.231295495593576
0.112831884067313,-0.230825592987743
0.105886607188518,-0.230360011217621
0.098895915077142,-0.22989890790587
0.0918597613808199,-0.229442440675149
0.0847780997471896,-0.228990767148117
0.0776508838238869,-0.228544044947433
0.0704780672585494,-0.228102431695758
0.063259603698813,-0.227666085015749
0.055995446792315,-0.227235162530066
0.0486855501866918,-0.226809821861369
0.0413298675295803,-0.226390220632317
0.0339283524686169,-0.22597651646557
0.0264809586514387,-0.225568866983785
0.018987639725682,-0.225167429809623
0.0114483493389838,-0.224772362565744
0.00386304113898062,-0.224383822874805
-0.00376833122669057,-0.224001968359467
-0.0114458141103936,-0.223626956642389
-0.0191694538644911,-0.22325894534623
-0.0269392968413469,-0.222898092093649
-0.0347553893933239,-0.222544554507306
-0.0426177778727858,-0.22219849020986
-0.0505265086320954,-0.22186005682397
-0.0584816280236167,-0.221529411972295
-0.0664831823997122,-0.221206713277495
-0.0745312181127459,-0.22089211836223
-0.0826257815150805,-0.220585784849157
-0.0907669189590799,-0.220287870360937
-0.0989546767971067,-0.219998532520229
-0.107189101381525,-0.219717928949692
-0.115470239064697,-0.219446217271986
-0.123798136198987,-0.219183555109769
-0.132172839136758,-0.218930100085701
-0.140594394230374,-0.218686009822442
-0.149062847832196,-0.21845144194265
-0.15757824629459,-0.218226554068984
-0.166140635969918,-0.218011503824105
-0.174750063210544,-0.217806448830671
-0.183406574368829,-0.217611546711342
-0.19211021579714,-0.217426955088777
-0.200861033847837,-0.217252831585635
-0.209659074873285,-0.217089333824575
-0.218504385225847,-0.216936619428257
-0.227397011257887,-0.216794846019341
-0.236336999321766,-0.216664171220484
-0.24532439576985,-0.216544752654347
-0.254359246954501,-0.216436747943589
-0.263441599228082,-0.216340314710869
-0.272571498942957,-0.216255610578846
-0.281748992451489,-0.21618279317018
-0.290974126106041,-0.216122020107531
-0.300246946258977,-0.216073449013556
-0.30956749926266,-0.216037237510916
-0.318935831469453,-0.216013543222269
-0.32835198923172,-0.216002523770276
-0.337816018901823,-0.216004336777595
-0.347327966832127,-0.216019139866886
-0.356887879374994,-0.216047090660807
-0.366495802882787,-0.216088346782019
-0.376151783707871,-0.21614306585318
-0.385855868202608,-0.21621140549695
-0.395608102719361,-0.216293523335988
-0.405408533610494,-0.216389576992953
-0.415257207228371,-0.216499724090505
-0.425154169925354,-0.216624122251303
-0.435099468053807,-0.216762929098005
-0.445093147966093,-0.216916302253273
-0.455135256014575,-0.217084399339764
-0.465225838551617,-0.217267377980137
-0.475364941929582,-0.217465395797053
-0.485552612500833,-0.217678610413171
-0.495788896617735,-0.217907179451149
-0.506073840632648,-0.218151260533648
-0.516407490897938,-0.218411011283325
-0.526789893765967,-0.218686589322842
-0.537221095589099,-0.218978152274856
-0.547701142719697,-0.219285857762028
-0.558230081510125,-0.219609863407015
-0.568807958312745,-0.219950326832479
-0.579434819479921,-0.220307405661078
-0.590110711364017,-0.220681257515471
-0.600835680317395,-0.221072040018317
-0.611609772692418,-0.221479910792276
-0.622433034841451,-0.221905027460008
-0.633305513116857,-0.222347547644171
-0.644227253870998,-0.222807628967424
-0.655198303456238,-0.223285429052428
-0.66621870822494,-0.22378110552184
-0.677288514529468,-0.224294815998322
-0.688407768722186,-0.224826718104531
-0.699576517155455,-0.225376969463127
-0.71079480618164,-0.225945727696769
-0.722062682153103,-0.226533150428117
-0.733380191422209,-0.22713939527983
-0.74474738034132,-0.227764619874567
-0.7561642952628,-0.228408981834988
-0.767630982539012,-0.229072638783751
-0.779147488522319,-0.229755748343516
-0.790713859565085,-0.230458468136943
-0.802330142019673,-0.23118095578669
-0.813996382238445,-0.231923368915417
-0.825712626573767,-0.232685865145783
-0.837478921378,-0.233468602100447
-0.849295313003508,-0.234271737402069
-0.861161847802655,-0.235095428673308
-0.873078572127803,-0.235939833536823
-0.885045532331317,-0.236805109615274
-0.897062774765559,-0.237691414531319
-0.909130345782892,-0.238598905907619
-0.92124829173568,-0.239527741366832
-0.933416658976286,-0.240478078531617
-0.945635493857074,-0.241450075024635
-0.957904842730406,-0.242443888468543
-0.970224751948647,-0.243459676486002
