-0.758022613964854,0.158887805325329
0.624378441045463,0.754749392798999
-0.05798310823158,0.560255629534725
0.525601480729452,-0.274617833792786
1.10918606969048,-1.1094912971203
-0.740967082880954,0.382698937020649
-0.694771486590018,0.709210819121009
-0.648575890299082,1.03572270122137
0.248047579953228,0.587674667452462
0.0340004351657186,-0.774782540989408
