-0.27010861570951,-0.344995999819978
0.327643418998503,0.405338938486197
0.923651365574581,-0.790764548789484
0.646576307200308,0.0114260492899485
0.369501248826035,0.813616647369381
0.176637781594062,0.167653708630079
-0.456915829256599,0.589901540270424
-1.09046944010726,1.01214937191077
0.895865533429516,-0.621414932371199
-0.137532449933254,-0.156088945751323
