0.779554442507144,-0.551930136281789
0.641795576023028,-0.537165036883907
0.836594690536875,0.226570062615291
-0.156291700785305,-0.352717558236214
-1.14917809210749,-0.932005179087719
-0.746181228516292,-0.184743391788801
-0.600236266726959,-0.0181727999403216
-0.454291304937626,0.148397791908157
0.903564702424961,-0.652646899346103
-0.84142071989266,-0.614010057439276
