0.376924775543092,0.127442173331451
0.370236982671186,0.120470803842098
0.363577674460299,0.113536231322267
0.356946819302075,0.106638385215694
0.350344385588155,0.0997771949661201
0.34377034171018,0.0929525900172829
0.337224656059791,0.0861644998129213
0.330707297028631,0.0794128537967742
0.324218233008341,0.0726975814125804
0.317757432390562,0.0660186121040785
0.311324863566936,0.0593758753150073
0.304920494929105,0.0527693004891055
0.29854429486871,0.0461988170701119
0.292196231777393,0.0396643545017652
0.285876274046795,0.0331658422278042
0.279584390068558,0.0267032096919677
0.273320548234323,0.0202763863379943
0.267084716935733,0.0138853016096229
0.260876864564428,0.00752988495059209
0.25469695951205,0.00121006580464073
0.248544970170241,-0.00507422638449244
0.242420864930642,-0.0113230621730687
0.236324612184895,-0.0175365121173493
0.230256180324642,-0.0237146467735955
0.224215537741524,-0.0298575366980685
0.218202652827182,-0.0359652524470297
0.212217493973258,-0.0420378645767401
0.206260029571394,-0.0480754436434612
0.200330228013232,-0.0540780602034541
0.194428057690412,-0.0600457848129801
0.188553486994577,-0.0659786880283005
0.182706484317368,-0.0718768404056765
0.176887018050426,-0.0777403125013694
0.171095056585394,-0.0835691748716403
0.165330568313912,-0.0893634980727507
0.159593521627622,-0.0951233526609616
0.153883884918167,-0.100848809192534
0.148201626577187,-0.10653993822373
0.142546714996324,-0.112196810310811
0.136919118567219,-0.117819496010037
0.131318805681515,-0.123408065877669
0.125745744730852,-0.12896259046997
0.120199904106872,-0.134483140343201
0.114681252201218,-0.139969786053622
0.109189757405529,-0.145422598157495
0.103725388111449,-0.150841647211081
0.0982881127106187,-0.156227003770641
0.0928778995946791,-0.161578738392437
0.0874947171552723,-0.16689692163273
0.0821385337840398,-0.172181624047781
0.0768093178726232,-0.177432916193852
0.0715070378126638,-0.182650868627203
0.0662316619958036,-0.187835551904096
0.0609831588136839,-0.192987036580792
0.0557614966579462,-0.198105393213553
0.0505666439202322,-0.203190692358639
0.0453985689921836,-0.208243004572312
0.0402572402654418,-0.213262400410834
0.0351426261316483,-0.218248950430465
0.0300546949824448,-0.223202725187466
0.0249934152094729,-0.2281237952381
0.0199587552043741,-0.233012231138626
0.01495068335879,-0.237868103445307
0.00996916806436203,-0.242691482714404
0.00501417771273203,-0.247482439502178
8.56806955413791e-05,-0.25224104436489
-0.00481635459556834,-0.256967367858801
-0.00969195976895551,-0.261661480540173
-0.0145411664329786,-0.266323452965267
-0.019364006195996,-0.270953355690344
-0.0241605106663662,-0.275551259271666
-0.0289307114524476,-0.280117234265493
-0.0336746401625985,-0.284651351228088
-0.0383923284051775,-0.28915368071571
-0.043083807788543,-0.293624293284622
-0.0477491099210534,-0.298063259491085
-0.0523882664110671,-0.30247064989136
-0.0570013088669427,-0.306846535041708
-0.0615882688970384,-0.31119098549839
-0.0661491781097127,-0.315504071817668
-0.0706840681133242,-0.319785864555803
-0.075192970516231,-0.324036434269056
-0.0796759169267918,-0.328255851513689
-0.084132938953365,-0.332444186845963
-0.0885640682043089,-0.336601510822138
-0.0929693362879822,-0.340727893998477
-0.0973487748127429,-0.34482340693124
-0.10170241538695,-0.348888120176689
-0.106030289618961,-0.352922104291085
-0.110332429117135,-0.356925429830689
-0.114608865489831,-0.360898167351763
-0.118859630345406,-0.364840387410568
-0.12308475529222,-0.368752160563364
-0.12728427193863,-0.372633557366414
-0.131458211892996,-0.376484648375978
-0.135606606763675,-0.380305504148318
-0.139729488159026,-0.384096195239695
-0.143826887687407,-0.387856792206371
-0.147898836957177,-0.391587365604606
-0.151945367576694,-0.395287985990661
-0.155966511154317,-0.398958723920799
-0.159962299298404,-0.40259964995128
-0.163932763617313,-0.406210834638365
-0.167877935719404,-0.409792348538317
-0.171797847213034,-0.413344262207395
-0.175692529706561,-0.416866646201862
-0.179562014808345,-0.420359571077978
-0.183406334126744,-0.423823107392005
-0.187225519270115,-0.427257325700204
-0.191019601846819,-0.430662296558836
-0.194788613465212,-0.434038090524163
-0.198532585733653,-0.437384778152445
-0.202251550260502,-0.440702429999945
-0.205945538654115,-0.443991116622923
-0.209614582522853,-0.447250908577641
-0.213258713475072,-0.450481876420359
-0.216877963119132,-0.45368409070734
-0.220472363063391,-0.456857621994843
-0.224041944916207,-0.460002540839132
-0.227586740285939,-0.463118917796466
-0.231106780780946,-0.466206823423107
-0.234602098009585,-0.469266328275317
-0.238072723580215,-0.472297502909356
-0.241518689101195,-0.475300417881486
-0.244940026180882,-0.478275143747968
-0.248336766427637,-0.481221751065063
-0.251708941449815,-0.484140310389033
-0.255056582855778,-0.487030892276139
-0.258379722253882,-0.489893567282642
-0.261678391252486,-0.492728405964804
-0.264952621459948,-0.495535478878885
-0.268202444484628,-0.498314856581146
-0.271427891934883,-0.50106660962785
-0.274628995419072,-0.503790808575258
-0.277805786545553,-0.506487523979629
-0.280958296922685,-0.509156826397227
-0.284086558158826,-0.511798786384312
-0.287190601862335,-0.514413474497145
-0.290270459641569,-0.517000961291988
-0.293326163104888,-0.519561317325102
-0.29635774386065,-0.522094613152748
-0.299365233517214,-0.524600919331187
-0.302348663682936,-0.527080306416681
-0.305308065966177,-0.52953284496549
-0.308243471975295,-0.531958605533877
-0.311154913318648,-0.534357658678102
-0.314042421604594,-0.536730074954427
-0.316906028441492,-0.539075924919113
-0.3197457654377,-0.541395279128421
-0.322561664201577,-0.543688208138613
-0.325353756341481,-0.545954782505948
-0.328122073465771,-0.54819507278669
-0.330866647182805,-0.550409149537099
-0.333587509100941,-0.552597083313437
-0.336284690828538,-0.554758944671964
-0.338958223973955,-0.556894804168942
-0.341608140145549,-0.559004732360632
-0.344234470951679,-0.561088799803296
-0.346837248000704,-0.563147077053194
-0.349416502900982,-0.565179634666588
-0.351972267260871,-0.56718654319974
-0.354504572688731,-0.56916787320891
-0.357013450792918,-0.571123695250359
-0.359498933181793,-0.573054079880349
-0.361961051463712,-0.574959097655142
-0.364399837247036,-0.576838819130998
-0.366815322140121,-0.578693314864179
-0.369207537751326,-0.580522655410946
-0.371576515689011,-0.582326911327559
-0.373922287561533,-0.584106153170282
-0.376244884977251,-0.585860451495374
-0.378544339544523,-0.587589876859097
-0.380820682871707,-0.589294499817712
-0.383073946567163,-0.590974390927481
-0.385304162239248,-0.592629620744664
-0.387511361496321,-0.594260259825523
-0.38969557594674,-0.59586637872632
-0.391856837198864,-0.597448048003315
-0.393995176861051,-0.59900533821277
-0.39611062654166,-0.600538319910945
-0.398203217849049,-0.602047063654103
-0.400272982391577,-0.603531639998505
-0.402319951777601,-0.604992119500411
-0.404344157615481,-0.606428572716083
-0.406345631513574,-0.607841070201782
-0.40832440508024,-0.60922968251377
-0.410280509923836,-0.610594480208308
-0.412213977652722,-0.611935533841656
-0.414124839875255,-0.613252913970077
-0.416013128199794,-0.614546691149832
-0.417878874234697,-0.615816935937181
-0.419722109588323,-0.617063718888386
-0.42154286586903,-0.618287110559708
-0.423341174685177,-0.619487181507409
-0.425117067645122,-0.620664002287749
-0.426870576357223,-0.621817643456991
-0.42860173242984,-0.622948175571395
-0.43031056747133,-0.624055669187222
-0.431997113090051,-0.625140194860734
-0.433661400894363,-0.626201823148193
-0.435303462492624,-0.627240624605858
-0.436923329493191,-0.628256669789992
-0.438521033504424,-0.629250029256856
-0.440096606134681,-0.630220773562711
-0.441650078992321,-0.631168973263818
-0.443181483685701,-0.632094698916438
-0.444690851823181,-0.632998021076834
-0.446178215013118,-0.633879010301265
-0.447643604863871,-0.634737737145994
-0.449087052983799,-0.635574272167281
-0.45050859098126,-0.636388685921388
-0.451908250464612,-0.637181048964577
-0.453286063042214,-0.637951431853107
-0.454642060322424,-0.638699905143241
-0.455976273913601,-0.63942653939124
-0.457288735424103,-0.640131405153365
-0.458579476462289,-0.640814572985877
-0.459848528636516,-0.641476113445038
-0.461095923555144,-0.642116097087108
-0.462321692826531,-0.64273459446835
-0.463525868059035,-0.643331676145024
-0.464708480861015,-0.643907412673391
-0.465869562840829,-0.644461874609714
-0.467009145606835,-0.644995132510252
-0.468127260767393,-0.645507256931268
-0.46922393993086,-0.645998318429022
-0.470299214705594,-0.646468387559777
-0.471353116699955,-0.646917534879792
-0.472385677522301,-0.64734583094533
-0.47339692878099,-0.647753346312651
-0.47438690208438,-0.648140151538017
-0.47535562904083,-0.648506317177689
-0.476303141258699,-0.648851913787929
-0.477229470346345,-0.649177011924997
-0.478134647912126,-0.649481682145155
-0.4790187055644,-0.649765995004664
-0.479881674911527,-0.650030021059786
-0.480723587561864,-0.650273830866781
-0.481544475123771,-0.650497494981911
-0.482344369205604,-0.650701083961437
-0.483123301415724,-0.65088466836162
-0.483881303362488,-0.651048318738722
-0.484618406654255,-0.651192105649004
-0.485334642899382,-0.651316099648727
-0.48603004370623,-0.651420371294153
-0.486704640683155,-0.651504991141542
-0.487358465438517,-0.651570029747156
-0.487991549580674,-0.651615557667256
-0.488603924717984,-0.651641645458104
-0.489195622458805,-0.65164836367596
-0.489766674411497,-0.651635782877086
-0.490317112184418,-0.651603973617743
-0.490846967385925,-0.651553006454193
-0.491356271624379,-0.651482951942696
-0.491845056508135,-0.651393880639514
-0.492313353645555,-0.651285863100909
-0.492761194644994,-0.651158969883141
-0.493188611114814,-0.651013271542471
-0.49359563466337,-0.650848838635161
-0.493982296899023,-0.650665741717473
-0.49434862943013,-0.650464051345667
-0.49469466386505,-0.650243838076004
-0.495020431812142,-0.650005172464747
-0.495325964879763,-0.649748125068156
-0.495611294676272,-0.649472766442492
-0.495876452810028,-0.649179167144017
-0.496121470889389,-0.648867397728992
-0.496346380522714,-0.648537528753678
-0.49655121331836,-0.648189630774336
-0.496736000884687,-0.647823774347228
-0.496900774830053,-0.647440030028615
-0.497045566762815,-0.647038468374758
-0.497170408291334,-0.646619159941919
-0.497275331023966,-0.646182175286359
-0.497360366569071,-0.645727584964338
-0.497425546535006,-0.645255459532118
-0.497470902530132,-0.644765869545962
-0.497496466162805,-0.644258885562128
-0.497502269041384,-0.64373457813688
-0.497488342774227,-0.643193017826478
-0.497454718969694,-0.642634275187184
-0.497401429236143,-0.642058420775258
-0.497328505181931,-0.641465525146962
-0.497235978415417,-0.640855658858557
-0.497123880544961,-0.640228892466305
-0.496992243178919,-0.639585296526467
-0.496841097925651,-0.638924941595303
-0.496670476393516,-0.638247898229076
-0.49648041019087,-0.637554236984046
-0.496270930926074,-0.636844028416475
-0.496042070207485,-0.636117343082624
-0.495793859643462,-0.635374251538754
-0.495526330842363,-0.634614824341127
-0.495239515412547,-0.633839132046004
-0.494933444962372,-0.633047245209645
-0.494608151100196,-0.632239234388313
-0.494263665434379,-0.631415170138269
-0.493900019573277,-0.630575123015772
-0.493517245125251,-0.629719163577087
-0.493115373698658,-0.628847362378472
-0.492694436901856,-0.62795978997619
-0.492254466343204,-0.627056516926501
-0.491795493631062,-0.626137613785668
-0.491317550373785,-0.625203151109951
-0.490820668179735,-0.624253199455612
-0.490304878657268,-0.623287829378911
-0.489770213414743,-0.62230711143611
-0.489216704060519,-0.621311116183471
-0.488644382202955,-0.620299914177254
-0.488053279450407,-0.619273575973721
-0.487443427411236,-0.618232172129133
-0.486814857693799,-0.617175773199751
-0.486167601906455,-0.616104449741837
-0.485501691657562,-0.615018272311652
-0.484817158555479,-0.613917311465456
-0.484114034208564,-0.612801637759512
-0.483392350225176,-0.611671321750081
-0.482652138213672,-0.610526433993423
-0.481893429782412,-0.609367045045801
-0.481116256539754,-0.608193225463474
-0.480320650094056,-0.607005045802706
-0.479506642053677,-0.605802576619756
-0.478674264026974,-0.604585888470886
-0.477823547622308,-0.603355051912358
-0.476954524448035,-0.602110137500432
-0.476067226112515,-0.60085121579137
-0.475161684224106,-0.599578357341433
-0.474237930391166,-0.598291632706882
-0.473295996222053,-0.596991112443979
-0.472335913325127,-0.595676867108985
-0.471357713308745,-0.594348967258161
-0.470361427781267,-0.593007483447768
-0.469347088351049,-0.591652486234068
-0.468314726626452,-0.590284046173322
-0.467264374215833,-0.58890223382179
-0.46619606272755,-0.587507119735736
-0.465109823769963,-0.586098774471418
-0.464005688951429,-0.5846772685851
-0.462883689880308,-0.583242672633042
-0.461743858164957,-0.581795057171505
-0.460586225413734,-0.58033449275675
-0.459410823234999,-0.57886104994504
-0.45821768323711,-0.577374799292635
-0.457006837028425,-0.575875811355796
-0.455778316217302,-0.574364156690785
-0.4545321524121,-0.572839905853862
-0.453268377221178,-0.57130312940129
-0.451987022252894,-0.569753897889329
-0.450688119115606,-0.568192281874241
-0.449371699417673,-0.566618351912287
-0.448037794767453,-0.565032178559728
-0.446686436773304,-0.563433832372825
-0.445317657043586,-0.56182338390784
-0.443931487186656,-0.560200903721033
-0.442527958810873,-0.558566462368667
-0.441107103524595,-0.556920130407003
-0.439668952936181,-0.555261978392301
-0.438213538653989,-0.553592076880822
-0.436740892286378,-0.55191049642883
-0.435251045441706,-0.550217307592583
-0.433744029728331,-0.548512580928344
-0.432219876754612,-0.546796386992374
-0.430678618128908,-0.545068796340935
-0.429120285459576,-0.543329879530286
-0.427544910354976,-0.541579707116691
-0.425952524423465,-0.539818349656409
-0.424343159273402,-0.538045877705702
-0.422716846513145,-0.536262361820832
-0.421073617751054,-0.53446787255806
-0.419413504595486,-0.532662480473646
-0.417736538654799,-0.530846256123853
-0.416042751537353,-0.529019270064941
-0.414332174851505,-0.527181592853172
-0.412604840205615,-0.525333295044807
-0.41086077920804,-0.523474447196107
-0.409100023467139,-0.521605119863333
-0.40732260459127,-0.519725383602748
-0.405528554188792,-0.517835308970611
-0.403717903868063,-0.515934966523184
-0.401890685237442,-0.514024426816729
-0.400046929905287,-0.512103760407506
-0.398186669479956,-0.510173037851778
-0.396309935569809,-0.508232329705805
-0.394416759783202,-0.506281706525848
-0.392507173728496,-0.504321238868169
-0.390581209014048,-0.502350997289029
-0.388638897248216,-0.500371052344689
-0.386680270039359,-0.498381474591411
-0.384705358995836,-0.496382334585455
-0.382714195726005,-0.494373702883083
-0.380706811838224,-0.492355650040557
-0.378683238940852,-0.490328246614137
-0.376643508642248,-0.488291563160085
-0.374587652550769,-0.486245670234662
-0.372515702274774,-0.484190638394129
-0.370427689422621,-0.482126538194748
-0.36832364560267,-0.480053440192779
-0.366203602423277,-0.477971414944484
-0.364067591492803,-0.475880533006125
-0.361915644419605,-0.473780864933962
-0.361915644419605,-0.473780864933962
-0.359775317383494,-0.471676062876431
-0.357674028541595,-0.469569753908884
-0.355611602468241,-0.467461970977959
-0.353587863737764,-0.465352747030295
-0.351602636924495,-0.463242115012529
-0.349655746602768,-0.461130107871298
-0.347747017346914,-0.459016758553241
-0.345876273731264,-0.456902100004995
-0.344043340330152,-0.454786165173199
-0.342248041717909,-0.45266898700449
-0.340490202468868,-0.450550598445505
-0.338769647157359,-0.448431032442884
-0.337086200357716,-0.446310321943263
-0.335439686644271,-0.44418849989328
-0.333829930591355,-0.442065599239574
-0.3322567567733,-0.439941652928781
-0.330719989764439,-0.437816693907541
-0.329219454139104,-0.43569075512249
-0.327754974471626,-0.433563869520267
-0.326326375336339,-0.43143607004751
-0.324933481307573,-0.429307389650855
-0.32357611695966,-0.427177861276942
-0.322254106866934,-0.425047517872408
-0.320967275603726,-0.42291639238389
-0.319715447744368,-0.420784517758027
-0.318498447863192,-0.418651926941456
-0.317316100534531,-0.416518652880816
-0.316168230332715,-0.414384728522743
-0.315054661832078,-0.412250186813877
-0.313975219606951,-0.410115060700854
-0.312929728231667,-0.407979383130313
-0.311918012280557,-0.405843187048891
-0.310939896327954,-0.403706505403227
-0.309995204948189,-0.401569371139957
-0.309083762715595,-0.39943181720572
-0.308205394204504,-0.397293876547154
-0.307359923989247,-0.395155582110897
-0.306547176644157,-0.393016966843586
-0.305766976743566,-0.390878063691859
-0.305019148861807,-0.388738905602354
-0.30430351757321,-0.38659952552171
-0.303619907452108,-0.384459956396562
-0.302968143072833,-0.382320231173551
-0.302348049009718,-0.380180382799312
-0.301759449837094,-0.378040444220485
-0.301202170129293,-0.375900448383707
-0.300676034460647,-0.373760428235616
-0.300180867405489,-0.37162041672285
-0.29971649353815,-0.369480446792046
-0.299282737432963,-0.367340551389842
-0.29887942366426,-0.365200763462876
-0.298506376806372,-0.363061115957787
-0.298163421433632,-0.360921641821212
-0.297850382120371,-0.358782373999788
-0.297567083440923,-0.356643345440153
-0.297313349969618,-0.354504589088946
-0.29708900628079,-0.352366137892804
-0.296893876948769,-0.350228024798366
-0.296727786547888,-0.348090282752267
-0.29659055965248,-0.345952944701148
-0.296482020836876,-0.343816043591645
-0.296401994675408,-0.341679612370397
-0.296350305742408,-0.339543683984041
-0.296326778612209,-0.337408291379214
-0.296331237859142,-0.335273467502556
-0.29636350805754,-0.333139245300703
-0.296423413781734,-0.331005657720294
-0.296510779606057,-0.328872737707966
-0.29662543010484,-0.326740518210357
-0.296767189852416,-0.324609032174105
-0.296935883423117,-0.322478312545848
-0.297131335391275,-0.320348392272224
-0.297353370331222,-0.31821930429987
-0.297601812817289,-0.316091081575424
-0.29787648742381,-0.313963757045524
-0.298177218725116,-0.311837363656809
-0.298503831295539,-0.309711934355915
-0.298856149709411,-0.307587502089481
-0.299233998541064,-0.305464099804145
-0.29963720236483,-0.303341760446544
-0.300065585755042,-0.301220516963315
-0.300518973286032,-0.299100402301098
-0.300997189532131,-0.29698144940653
-0.301500059067671,-0.294863691226248
-0.302027406466985,-0.292747160706891
-0.302579056304405,-0.290631890795096
-0.303154833154262,-0.288517914437501
-0.30375456159089,-0.286405264580744
-0.304378066188619,-0.284293974171463
-0.305025171521782,-0.282184076156296
-0.30569570216471,-0.280075603481879
-0.306389482691737,-0.277968589094853
-0.307106337677194,-0.275863065941853
-0.307846091695413,-0.273759066969518
-0.308608569320727,-0.271656625124486
-0.309393595127466,-0.269555773353395
-0.310200993689964,-0.267456544602882
-0.311030589582553,-0.265358971819586
-0.311882207379563,-0.263263087950143
-0.312755671655328,-0.261168925941192
-0.31365080698418,-0.259076518739372
-0.314567437940451,-0.256985899291318
-0.315505389098472,-0.254897100543671
-0.316464485032575,-0.252810155443066
-0.317444550317094,-0.250725096936143
-0.318445409526359,-0.248641957969538
-0.319466887234703,-0.24656077148989
-0.320508808016459,-0.244481570443837
-0.321570996445957,-0.242404387778017
-0.32265327709753,-0.240329256439066
-0.323755474545511,-0.238256209373623
-0.32487741336423,-0.236185279528327
-0.326018918128021,-0.234116499849814
-0.327179813411215,-0.232049903284723
-0.328359923788145,-0.229985522779691
-0.329559073833142,-0.227923391281357
-0.330777088120538,-0.225863541736357
-0.332013791224666,-0.223806007091331
-0.333269007719858,-0.221750820292915
-0.334542562180445,-0.219698014287747
-0.33583427918076,-0.217647622022467
-0.337143983295135,-0.21559967644371
-0.338471499097902,-0.213554210498115
-0.339816651163392,-0.211511257132321
-0.341179264065939,-0.209470849292964
-0.342559162379874,-0.207433019926682
-0.343956170679528,-0.205397801980114
-0.345370113539235,-0.203365228399897
-0.346800815533326,-0.20133533213267
-0.348248101236133,-0.199308146125069
-0.349711795221989,-0.197283703323732
-0.351191722065225,-0.195262036675299
-0.352687706340173,-0.193243179126405
-0.354199572621166,-0.19122716362369
-0.355727145482535,-0.189214023113791
-0.357270249498613,-0.187203790543346
-0.358828709243732,-0.185196498858993
-0.360402349292223,-0.183192181007369
-0.361990994218419,-0.181190869935112
-0.363594468596652,-0.179192598588861
-0.365212597001254,-0.177197399915252
-0.366845204006557,-0.175205306860925
-0.368492114186893,-0.173216352372516
-0.370153152116594,-0.171230569396664
-0.371828142369992,-0.169247990880006
-0.373516909521419,-0.16726864976918
-0.375219278145208,-0.165292579010824
-0.37693507281569,-0.163319811551576
-0.378664118107197,-0.161350380338074
-0.380406238594062,-0.159384318316956
-0.382161258850616,-0.157421658434858
-0.383929003451192,-0.15546243363842
-0.385709296970121,-0.153506676874279
-0.387501963981736,-0.151554421089072
-0.389306829060369,-0.149605699229439
-0.391123716780351,-0.147660544242016
-0.392952451716016,-0.145718989073441
-0.394792858441694,-0.143781066670352
-0.396644761531718,-0.141846809979387
-0.39850798556042,-0.139916251947184
-0.400382355102133,-0.137989425520381
-0.402267694731187,-0.136066363645616
-0.404163829021916,-0.134147099269525
-0.406070582548651,-0.132231665338748
-0.407987779885724,-0.130320094799922
-0.409915245607467,-0.128412420599684
-0.411852804288213,-0.126508675684673
-0.413800280502294,-0.124608893001527
-0.415757498824041,-0.122713105496883
-0.417724283827787,-0.120821346117379
-0.419700460087863,-0.118933647809653
-0.421685852178602,-0.117050043520343
-0.423680284674336,-0.115170566196087
-0.425683582149397,-0.113295248783522
-0.427695569178116,-0.111424124229286
-0.429716070334827,-0.109557225480017
-0.431744910193861,-0.107694585482354
-0.433781913329549,-0.105836237182933
-0.435826904316225,-0.103982213528393
-0.43787970772822,-0.102132547465371
-0.439940148139867,-0.100287271940506
-0.442008050125496,-0.0984464199004343
-0.444083238259441,-0.0966100242917949
-0.446165537116034,-0.0947781180612253
-0.448254771269606,-0.0929507341553634
-0.450350765294489,-0.0911279055208468
-0.452453343765016,-0.0893096651043135
-0.454562331255519,-0.0874960458524014
-0.456677552340329,-0.0856870807117482
-0.45879883159378,-0.0838828026289917
-0.460925993590202,-0.0820832445507699
-0.463058862903928,-0.0802884394237205
-0.46519726410929,-0.0784984201944814
-0.46734102178062,-0.0767132198096903
-0.46948996049225,-0.0749328712159852
-0.471643904818512,-0.0731574073600038
-0.473802679333739,-0.0713868611883841
-0.475966108612261,-0.0696212656477637
-0.478134017228412,-0.0678606536847807
-0.480306229756524,-0.0661050582460727
-0.482482570770927,-0.0643545122782776
-0.484662864845956,-0.0626090487280333
-0.486846936555941,-0.0608687005419775
-0.489034610475214,-0.0591335006667482
-0.491225711178108,-0.0574034820489831
-0.493420063238955,-0.0556786776353201
-0.495617491232087,-0.053959120372397
-0.497817819731835,-0.0522448432068516
-0.500020873312533,-0.0505358790853218
-0.502226476548511,-0.0488322609544455
-0.504434454014103,-0.0471340217608603
-0.506644630283639,-0.0454411944512042
-0.508856829931453,-0.043753811972115
-0.511070877531876,-0.0420719072702306
-0.51328659765924,-0.0403955132921886
-0.515503814887877,-0.0387246629846272
-0.51772235379212,-0.0370593892941838
-0.5199420389463,-0.0353997251674966
-0.52216269492475,-0.0337457035512032
-0.524384146301801,-0.0320973573919416
-0.526606217651786,-0.0304547196363495
-0.528828733549037,-0.0288178232310648
-0.531051518567885,-0.0271867011227253
-0.533274397282663,-0.0255613862579689
-0.535497194267703,-0.0239419115834333
-0.537719734097337,-0.0223283100457565
-0.539941841345897,-0.0207206145915761
-0.542163340587715,-0.0191188581675302
-0.544384056397123,-0.0175230737202564
-0.546603813348453,-0.0159332941963927
-0.548822436016037,-0.0143495525425768
-0.551039748974208,-0.0127718817054466
-0.553255576797296,-0.01120031463164
-0.555469744059636,-0.00963488426779473
-0.557682075335557,-0.00807562356054861
-0.559892395199393,-0.00652256545653958
-0.562100528225476,-0.00497574290240532
-0.564306298988138,-0.00343518884478384
-0.56650953206171,-0.00190093623031278
-0.568710052020524,-0.000373018005630166
-0.570907683438914,0.00114853288262635
-0.57310225089121,0.00266368348781879
-0.575293578951746,0.00417240086330944
-0.577481492194852,0.00567465206246037
-0.579665815194861,0.00717040413863386
-0.581846372526106,0.00865962414519194
-0.584022988762917,0.0101422791354969
-0.586195488479628,0.0116183361629108
-0.58836369625057,0.013087762280796
-0.590527436650075,0.0145505245425144
-0.592686534252476,0.0160065900014284
-0.594840813632104,0.0174559257109
-0.596990099363292,0.0188984987242915
-0.599134216020371,0.0203342760949649
-0.601272988177674,0.0217632248762826
-0.603406240409532,0.0231853121216066
-0.605533797290278,0.0246005048842991
-0.607655483394244,0.0260087702177223
-0.609771123295762,0.0274100751752384
-0.611880541569164,0.0288043868102094
-0.613983562788782,0.0301916721759978
-0.616080011528948,0.0315718983259653
-0.618169712363994,0.0329450323134745
-0.620252489868251,0.0343110411918873
-0.622328168616054,0.0356698920145661
-0.624396573181732,0.0370215518348728
-0.626457528139619,0.0383659877061698
-0.628510858064046,0.0397031666818191
-0.630556387529346,0.0410330558151829
-0.63259394110985,0.0423556221596235
-0.63462334337989,0.0436708327685029
-0.6366444189138,0.0449786546951834
-0.63865699228591,0.0462790549930271
-0.640660888070552,0.0475720007153961
-0.64265593084206,0.0488574589156528
-0.644641945174764,0.0501353966471591
-0.646618755642997,0.0514057809632773
-0.648586186821092,0.0526685789173695
-0.650544063283379,0.0539237575627981
-0.652492209604191,0.0551712839529249
-0.654430450357861,0.0564111251411124
-0.656358610118719,0.0576432481807225
-0.658276513461099,0.0588676201251176
-0.660183984959333,0.0600842080276597
-0.662080849187751,0.0612929789417111
-0.663966930720687,0.0624938999206338
-0.665842054132473,0.0636869380177902
-0.66770604399744,0.0648720602865423
-0.669558724889921,0.0660492337802523
-0.671399921384248,0.0672184255522823
-0.673229458054752,0.0683796026559946
-0.675047159475766,0.0695327321447513
-0.676852850221621,0.0706777810719146
-0.678646354866651,0.0718147164908466
-0.680427497985187,0.0729435054549096
-0.682196104151561,0.0740641150174656
-0.683951997940105,0.0751765122318769
-0.68569500392515,0.0762806641515056
-0.687424946681031,0.077376537829714
-0.689141650782077,0.078464100319864
-0.690844940802622,0.079543318675318
-0.692534641316997,0.0806141599494381
-0.694210576899535,0.0816765911955865
-0.695872572124567,0.0827305794671253
-0.697520451566426,0.0837760918174167
-0.699154039799443,0.0848130952998228
-0.700773161397951,0.085841556967706
-0.702377640936281,0.0868614438744281
-0.703967302988767,0.0878727230733517
-0.705541972129739,0.0888753616178386
-0.707101472933531,0.0898693265612511
-0.708645629974473,0.0908545849569515
-0.710174267826898,0.0918311038583018
-0.711687211065138,0.0927988503186641
-0.713184284263526,0.0937577913914008
-0.714665311996393,0.0947078941298739
-0.716130118838071,0.0956491255874457
-0.717578529362892,0.0965814528174783
-0.719010368145189,0.0975048428733338
-0.720425459759293,0.0984192628083744
-0.721823628779537,0.0993246796759624
-0.723204699780252,0.10022106052946
-0.724568497335771,0.101108372422229
-0.725914846020425,0.101986582407632
-0.727243570408547,0.102855657539031
-0.728554495074469,0.103715564869787
-0.729847444592523,0.104566271453265
-0.731122243537041,0.105407744342824
-0.732378716482355,0.106239950591829
-0.733616688002797,0.10706285725364
-0.734835982672699,0.10787643138162
-0.736036425066393,0.108680640029132
-0.737217839758211,0.109475450249536
-0.738380051322486,0.110260829096196
-0.739522884333548,0.111036743622474
-0.740646163365732,0.111803160881732
-0.741749712993367,0.112560047927331
-0.742833357790788,0.113307371812635
-0.743896922332324,0.114045099591005
-0.74494023119231,0.114773198315804
-0.745963108945076,0.115491635040393
-0.746965380164955,0.116200376818135
-0.747946869426278,0.116899390702392
-0.748907401303379,0.117588643746527
-0.749846800370588,0.1182681030039
-0.750764891202238,0.118937735527875
-0.751661498372662,0.119597508371814
-0.75253644645619,0.120247388589079
-0.753389560027156,0.120887343233032
-0.75422066365989,0.121517339357035
-0.755029581928727,0.12213734401445
-0.755816139407996,0.122747324258639
-0.756580160672031,0.123347247142966
-0.757321470295163,0.123937079720791
-0.758039892851725,0.124516789045477
-0.758735252916048,0.125086342170387
-0.759407375062465,0.125645706148882
-0.760056083865308,0.126194848034324
-0.760681203898908,0.126733734880076
-0.761282559737598,0.1272623337395
-0.76185997595571,0.127780611665958
-0.762413277127576,0.128288535712812
-0.762942287827528,0.128786072933425
-0.763446832629898,0.129273190381158
-0.763926736109018,0.129749855109374
-0.76438182283922,0.130216034171435
-0.764811917394837,0.130671694620702
-0.765216844350199,0.131116803510539
-0.76559642827964,0.131551327894308
-0.765950493757492,0.13197523482537
-0.766278865358086,0.132388491357087
-0.766581367655754,0.132791064542823
-0.766857825224829,0.133182921435938
-0.767108062639642,0.133564029089796
-0.767331904474527,0.133934354557758
-0.767529175303814,0.134293864893187
-0.767699699701835,0.134642527149445
-0.767843302242924,0.134980308379893
-0.767959807501412,0.135307175637894
-0.76804904005163,0.135623095976811
-0.768110824467911,0.135928036450005
-0.768144985324588,0.136221964110839
-0.768151347195992,0.136504846012674
-0.768129734656455,0.136776649208874
-0.768079972280309,0.137037340752799
-0.768001884641887,0.137286887697813
-0.76789529631552,0.137525257097277
-0.76776003187554,0.137752416004553
-0.76759591589628,0.137968331473005
-0.767402772952072,0.138172970555993
-0.767180427617247,0.138366300306881
-0.766928704466138,0.138548287779029
-0.766647428073076,0.138718900025801
-0.766336423012395,0.138878104100559
-0.765995513858425,0.139025867056664
-0.765624525185499,0.13916215594748
-0.765223281567949,0.139286937826367
-0.764791607580107,0.139400179746689
-0.764329327796305,0.139501848761807
-0.764329327796305,0.139501848761807
-0.763845576591706,0.139602932931136
-0.763349648520701,0.139714368429037
-0.76284160842647,0.139836044481293
-0.76232152115219,0.139967850313685
-0.761789451541041,0.140109675151998
-0.761245464436201,0.140261408222014
-0.760689624680848,0.140422938749514
-0.760121997118162,0.140594155960282
-0.75954264659132,0.140774949080101
-0.7589516379435,0.140965207334753
-0.758349036017883,0.141164819950021
-0.757734905657645,0.141373676151688
-0.757109311705966,0.141591665165535
-0.756472319006024,0.141818676217346
-0.755823992400997,0.142054598532904
-0.755164396734064,0.142299321337991
-0.754493596848404,0.142552733858389
-0.753811657587195,0.142814725319882
-0.753118643793615,0.143085184948252
-0.752414620310843,0.143364001969282
-0.751699651982058,0.143651065608753
-0.750973803650438,0.14394626509245
-0.750237140159162,0.144249489646154
-0.749489726351407,0.144560628495649
-0.748731627070354,0.144879570866717
-0.747962907159179,0.14520620598514
-0.747183631461061,0.145540423076701
-0.74639386481918,0.145882111367183
-0.745593672076714,0.146231160082369
-0.74478311807684,0.146587458448041
-0.743962267662738,0.146950895689981
-0.743131185677586,0.147321361033974
-0.742289936964563,0.1476987437058
-0.741438586366847,0.148082932931243
-0.740577198727617,0.148473817936085
-0.73970583889005,0.148871287946109
-0.738824571697327,0.149275232187099
-0.737933461992624,0.149685539884835
-0.737032574619121,0.150102100265101
-0.736121974419997,0.150524802553681
-0.735201726238429,0.150953535976355
-0.734271894917596,0.151388189758907
-0.733332545300676,0.15182865312712
-0.732383742230849,0.152274815306777
-0.731425550551293,0.152726565523659
-0.730458035105186,0.153183793003549
-0.729481260735706,0.153646386972231
-0.728495292286033,0.154114236655487
-0.727500194599344,0.154587231279099
-0.726496032518819,0.15506526006885
-0.725482870887635,0.155548212250523
-0.724460774548972,0.156035977049901
-0.723429808346007,0.156528443692766
-0.72239003712192,0.1570255014049
-0.721341525719888,0.157527039412087
-0.72028433898309,0.158032946940108
-0.719218541754706,0.158543113214748
-0.718144198877912,0.159057427461788
-0.717061375195888,0.159575778907011
-0.715970135551813,0.160098056776199
-0.714870544788864,0.160624150295136
-0.713762667750221,0.161153948689603
-0.712646569279061,0.161687341185385
-0.711522314218564,0.162224217008262
-0.710389967411907,0.162764465384018
-0.70924959370227,0.163307975538436
-0.708101257932831,0.163854636697298
-0.706945024946768,0.164404338086387
-0.705780959587259,0.164956968931486
-0.704609126697484,0.165512418458376
-0.703429591120621,0.166070575892841
-0.702242417699849,0.166631330460664
-0.701047671278345,0.167194571387627
-0.699845416699288,0.167760187899512
-0.698635718805857,0.168328069222103
-0.697418642441231,0.168898104581182
-0.696194252448588,0.169470183202532
-0.694962613671106,0.170044194311935
-0.693723790951963,0.170620027135173
-0.69247784913434,0.171197570898031
-0.691224853061413,0.17177671482629
-0.689964867576361,0.172357348145732
-0.688697957522364,0.172939360082142
-0.687424187742599,0.1735226398613
-0.686143623080244,0.17410707670899
-0.684856328378479,0.174692559850995
-0.683562368480482,0.175278978513097
-0.682261808229432,0.175866221921079
-0.680954712468507,0.176454179300723
-0.679641146040884,0.177042739877813
-0.678321173789744,0.17763179287813
-0.676994860558265,0.178221227527457
-0.675662271189624,0.178810933051578
-0.674323470527001,0.179400798676274
-0.672978523413573,0.179990713627329
-0.671627494692521,0.180580567130525
-0.670270449207021,0.181170248411644
-0.668907451800253,0.18175964669647
-0.667538567315395,0.182348651210784
-0.666163860595625,0.182937151180371
-0.664783396484122,0.183525035831011
-0.663397239824065,0.184112194388488
-0.662005455458632,0.184698516078585
-0.660608108231001,0.185283890127085
-0.659205262984352,0.185868205759769
-0.657796984561861,0.18645135220242
-0.656383337806709,0.187033218680822
-0.654964387562074,0.187613694420756
-0.653540198671134,0.188192668648006
-0.652110835977067,0.188770030588354
-0.650676364323052,0.189345669467583
-0.649236848552268,0.189919474511475
-0.647792353507893,0.190491334945813
-0.646342944033105,0.19106113999638
-0.644888684971084,0.191628778888958
-0.643429641165007,0.19219414084933
-0.641965877458054,0.192757115103279
-0.640497458693402,0.193317590876587
-0.63902444971423,0.193875457395038
-0.637546915363717,0.194430603884412
-0.63606492048504,0.194982919570494
-0.63457852992138,0.195532293679066
-0.633087808515913,0.19607861543591
-0.63159282111182,0.19662177406681
-0.630093632552277,0.197161658797547
-0.628590307680464,0.197698158853905
-0.627082911339559,0.198231163461666
-0.625571508372742,0.198760561846613
-0.624056163623189,0.199286243234528
-0.622536941934079,0.199808096851195
-0.621013908148592,0.200326011922395
-0.619487127109906,0.200839877673911
-0.617956663661199,0.201349583331527
-0.61642258264565,0.201855018121024
-0.614884948906437,0.202356071268185
-0.613343827286738,0.202852631998794
-0.611799282629733,0.203344589538632
-0.6102513797786,0.203831833113482
-0.608700183576516,0.204314251949127
-0.607145758866662,0.20479173527135
-0.605588170492215,0.205264172305933
-0.604027483296353,0.205731452278659
-0.602463762122256,0.206193464415311
-0.600897071813102,0.20665009794167
-0.599327477212069,0.207101242083521
-0.597755043162335,0.207546786066645
-0.59617983450708,0.207986619116825
-0.594601916089482,0.208420630459844
-0.593021352752719,0.208848709321484
-0.59143820933997,0.209270744927528
-0.589852550694413,0.20968662650376
-0.588264441659227,0.21009624327596
-0.586673947077591,0.210499484469912
-0.585081131792682,0.2108962393114
-0.583486060647679,0.211286397026204
-0.581888798485761,0.211669846840108
-0.580289410150107,0.212046477978895
-0.578687960483895,0.212416179668348
-0.577084514330303,0.212778841134248
-0.575479136532509,0.213134351602379
-0.573871891933694,0.213482600298523
-0.572262845377034,0.213823476448462
-0.570652061705708,0.214156869277981
-0.569039605762895,0.21448266801286
-0.567425542391774,0.214800761878884
-0.565809936435523,0.215111040101833
-0.564192852737319,0.215413391907492
-0.562574356140343,0.215707706521643
-0.560954511487773,0.215993873170068
-0.559333383622786,0.21627178107855
-0.557711037388562,0.216541319472872
-0.556087537628279,0.216802377578816
-0.554462949185115,0.217054844622165
-0.552837336902249,0.217298609828702
-0.551210765622859,0.217533562424209
-0.549583300190125,0.217759591634469
-0.547955005447224,0.217976586685265
-0.546325946237334,0.218184436802379
-0.544696187403636,0.218383031211593
-0.543065793789306,0.218572259138692
-0.541434830237524,0.218752009809456
-0.539803361591468,0.21892217244967
-0.538171452694316,0.219082636285115
-0.536539168389248,0.219233290541574
-0.534906573519441,0.21937402444483
-0.533273732928074,0.219504727220665
-0.531640711458325,0.219625288094862
-0.530007573953374,0.219735596293204
-0.528374385256398,0.219835541041474
-0.526741210210576,0.219925011565453
-0.525108113659086,0.220003897090926
-0.523475160445108,0.220072086843673
-0.521842415411819,0.220129470049479
-0.520209943402399,0.220175935934125
-0.518577809260025,0.220211373723394
-0.516946077827876,0.22023567264307
-0.51531481394913,0.220248721918934
-0.513684082466967,0.220250410776769
-0.512053948224564,0.220240628442358
-0.5104244760651,0.220219264141484
-0.508795730831754,0.220186207099929
-0.507167777367705,0.220141346543476
-0.505540680516129,0.220084571697907
-0.503914505120207,0.220015771789005
-0.502289316023117,0.219934836042553
-0.500665178068036,0.219841653684334
-0.499042156098145,0.219736113940129
-0.49742031495662,0.219618106035723
-0.495799719486641,0.219487519196896
-0.494180434531386,0.219344242649433
-0.492562524934034,0.219188165619115
-0.490946055537764,0.219019177331726
-0.489331091185752,0.218837167013048
-0.487717696721179,0.218642023888863
-0.486105936987223,0.218433637184955
-0.484495876827062,0.218211896127105
-0.482887581083875,0.217976689941097
-0.481281114600839,0.217727907852714
-0.479676542221135,0.217465439087737
-0.47807392878794,0.217189172871949
-0.476473339144432,0.216898998431134
-0.474874838133791,0.216594804991074
-0.473278490599195,0.216276481777551
-0.471684361383821,0.215943918016348
-0.47009251533085,0.215597002933249
-0.468503017283459,0.215235625754034
-0.466915932084826,0.214859675704487
-0.465331324578131,0.214469042010392
-0.463749259606551,0.214063613897529
-0.462169802013266,0.213643280591683
-0.460593016641454,0.213207931318635
-0.459018968334293,0.212757455304169
-0.457447721934962,0.212291741774066
-0.455879342286639,0.21181067995411
-0.454313894232503,0.211314159070084
-0.452751442615732,0.210802068347769
-0.451192052279505,0.210274297012949
-0.449635788067,0.209730734291406
-0.448082714821396,0.209171269408923
-0.446532897385872,0.208595791591282
-0.444986400603605,0.208004190064267
-0.443443289317775,0.207396354053659
-0.44190362837156,0.206772172785242
-0.440367482608138,0.206131535484798
-0.438834916870688,0.20547433137811
-0.437305996002388,0.20480044969096
-0.435780784846417,0.204109779649131
-0.434259348245954,0.203402210478406
-0.432741751044176,0.202677631404567
-0.431228058084263,0.201935931653397
-0.429718334209393,0.201177000450679
-0.428212644262744,0.200400727022195
-0.426711053087495,0.199607000593728
-0.425213625526824,0.198795710391061
-0.423720426423911,0.197966745639976
-0.422231520621933,0.197119995566256
-0.420746972964069,0.196255349395683
-0.419266848293497,0.195372696354041
-0.417791211453396,0.194471925667111
-0.416320127286945,0.193552926560677
-0.414853660637321,0.192615588260521
-0.413391876347705,0.191659799992426
-0.411934839261273,0.190685450982174
-0.410482614221204,0.189692430455549
-0.409035266070678,0.188680627638332
-0.407592859652872,0.187649931756306
-0.406155459810965,0.186600232035255
-0.404723131388136,0.18553141770096
-0.403295939227563,0.184443377979204
-0.401873948172424,0.183336002095771
-0.400457223065898,0.182209179276442
-0.399045828751164,0.181062798747
-0.3976398300714,0.179896749733229
-0.396239291869784,0.17871092146091
-0.394844278989495,0.177505203155826
-0.393454856273712,0.17627948404376
-0.392071088565613,0.175033653350494
-0.390693040708377,0.173767600301812
-0.389320777545182,0.172481214123496
-0.387954363919206,0.171174384041328
-0.386593864673628,0.169846999281091
-0.385239344651627,0.168498949068568
-0.383890868696381,0.167130122629541
-0.382548501651069,0.165740409189794
-0.381212308358869,0.164329697975108
-0.379882353662959,0.162897878211266
-0.378558702406519,0.161444839124052
-0.377241419432726,0.159970469939247
-0.375930569584759,0.158474659882635
-0.374626217705797,0.156957298179997
-0.373328428639018,0.155418274057117
-0.372037267227601,0.153857476739778
-0.370752798314724,0.152274795453761
-0.369475086743566,0.15067011942485
-0.368204197357304,0.149043337878827
-0.366940194999119,0.147394340041475
-0.365683144512187,0.145723015138577
-0.364433110739689,0.144029252395914
-0.363190158524801,0.142312941039271
-0.361954352710703,0.140573970294429
-0.360725758140574,0.138812229387171
-0.359504439657591,0.13702760754328
-0.358290462104933,0.135219993988538
-0.357083890325779,0.133389277948728
-0.355884789163308,0.131535348649633
-0.354693223460697,0.129658095317035
-0.353509258061125,0.127757407176718
-0.352332957807771,0.125833173454463
-0.351164387543814,0.123885283376053
-0.350003612112431,0.121913626167271
-0.348850696356801,0.1199180910539
-0.347705705120103,0.117898567261722
-0.346568703245515,0.11585494401652
-0.345439755576217,0.113787110544077
-0.344318926955385,0.111694956070175
-0.343206282226199,0.109578369820596
-0.342101886231838,0.107437241021124
-0.34100580381548,0.105271458897542
-0.339918099820302,0.103080912675631
-0.338838839089485,0.100865491581174
-0.337768086466206,0.0986250848399547
-0.336705906793643,0.0963595816777551
-0.335652364914976,0.0940688713203578
-0.334607525673383,0.0917528429935457
-0.333571453912043,0.0894113859231011
-0.332544214474133,0.087044389334807
-0.331525872202832,0.0846517424544458
-0.330516491941319,0.0822333345078003
-0.329516138532773,0.079789054720653
-0.328524876820372,0.0773187923187867
-0.327542771647294,0.074822436527984
-0.326569887856718,0.0722998765740276
-0.325606290291822,0.0697510016826999
-0.324652043795785,0.0671757010797839
-0.323707213211786,0.064573863991062
-0.322771863383002,0.061945379642317
-0.321846059152613,0.0592901372593315
-0.320929865363797,0.0566080260678881
-0.320023346859733,0.0538989352937694
-0.319126568483598,0.0511627541627583
-0.318239595078571,0.0483993719006371
-0.317362491487832,0.0456086777331888
-0.316495322554558,0.0427905608861958
-0.315638153121928,0.0399449105854409
-0.314791048033121,0.0370716160567065
-0.313954072131315,0.0341705665257756
-0.313127290259688,0.0312416512184306
-0.312310767261419,0.0282847593604543
-0.311504567979686,0.0252997801776292
-0.310708757257669,0.0222866028957381
-0.309923399938545,0.0192451167405635
-0.309148560865493,0.0161752109378882
-0.308384304881691,0.0130767747134947
-0.307630696830319,0.00994969729316578
-0.306887801554554,0.00679386790268391
-0.306155683897575,0.00360917576783203
-0.305434408702561,0.000395510114392497
-0.30472404081269,-0.00284723983185181
-0.30402464507114,-0.00611918484511849
-0.30333628632109,-0.00942043569962459
-0.302659029405719,-0.0127511031695878
-0.301992939168205,-0.0161112980292251
-0.301338080451727,-0.0195011310527542
-0.300694518099463,-0.0229207130143921
-0.300062316954591,-0.0263701546883565
-0.29944154186029,-0.0298495668488645
-0.298832257659739,-0.0333590602701336
-0.298234529196116,-0.036898745726381
-0.2976484213126,-0.0404687339918242
-0.297073998852369,-0.0440691358406804
-0.296511326658601,-0.0477000620471672
-0.295960469574476,-0.0513616233855017
-0.295421492443171,-0.0550539306299014
-0.294894460107865,-0.0587770945545834
-0.294379437411737,-0.0625312259337655
-0.293876489197966,-0.0663164355416646
-0.293385680309728,-0.0701328341524984
-0.292907075590205,-0.0739805325404839
-0.292440739882572,-0.0778596414798388
-0.29198673803001,-0.0817702717447802
-0.291545134875697,-0.0857125341095257
-0.29111599526281,-0.0896865393482923
-0.29069938403453,-0.0936923982352977
-0.290295366034033,-0.097730221544759
-0.2899040061045,-0.101800120050894
-0.289525369089107,-0.105902204527919
-0.289159519831035,-0.110036585750053
-0.28880652317346,-0.114203374491511
-0.288466443959563,-0.118402681526513
-0.28813934703252,-0.122634617629275
-0.287825297235511,-0.126899293574014
-0.287524359411715,-0.131196820134948
-0.287236598404309,-0.135527308086294
-0.286962079056473,-0.139890868202269
-0.286700866211384,-0.144287611257092
-0.286453024712222,-0.148717648024979
-0.286218619402164,-0.153181089280147
-0.28599771512439,-0.157678045796814
-0.285790376722077,-0.162208628349197
