-0.387269215511288,0.218328029028702
-0.379268747773771,0.212570915538503
-0.371321957744808,0.206884293842555
-0.363428644856372,0.201267865275609
-0.355588608540435,0.195721331172418
-0.347801648228966,0.190244392867734
-0.340067563353939,0.18483675169631
-0.332386153347323,0.179498108992897
-0.32475721764109,0.174228166092248
-0.317180555667212,0.169026624329116
-0.30965596685766,0.163893185038253
-0.302183250644404,0.158827549554411
-0.294762206459417,0.153829419212342
-0.287392633734669,0.148898495346799
-0.280074331902132,0.144034479292534
-0.272807100393777,0.139237072384299
-0.265590738641576,0.134505975956847
-0.258425046077499,0.129840891344931
-0.251309822133518,0.125241519883301
-0.244244866241604,0.120707562906712
-0.237229977833729,0.116238721749914
-0.230264956341863,0.111834697747661
-0.223349601197979,0.107495192234705
-0.216483711834046,0.103219906545797
-0.209667087682038,0.0990085420156911
-0.202899528173924,0.0948607999791388
-0.196180832741676,0.0907763817708925
-0.189510800817265,0.0867549887257045
-0.182889231832664,0.0827963221783272
-0.176315925219842,0.078900083463513
-0.169790680410771,0.0750659739160141
-0.163313296837423,0.0712936948705827
-0.156883573931769,0.0675829476619715
-0.150501311125779,0.0639334336249326
-0.144166307851426,0.0603448540942183
-0.13787836354068,0.056816910404581
-0.131637277625514,0.053349303890773
-0.125442849537897,0.0499417358875466
-0.119294878709802,0.0465939077296542
-0.113193164573199,0.0433055207518481
-0.107137506560061,0.0400762762888806
-0.101127704102358,0.0369058756755041
-0.0951635566320608,0.0337940202464708
-0.0892448635811417,0.0307404113365331
-0.0833714243815717,0.0277447502804434
-0.077543038465322,0.024806738412954
-0.0717595052643639,0.0219260770688171
-0.0660206242106686,0.0191024675827852
-0.0603261947362075,0.0163356112896105
-0.0546760162729519,0.0136252095240453
-0.0490698882528729,0.0109709636208421
-0.0435076101079419,0.00837257491475314
-0.0379889812701301,0.00582974474053072
-0.0325138011714088,0.0033421744329272
-0.0270818692437494,0.000909565326694853
-0.021692984919123,-0.00146838124341393
-0.0163469476295009,-0.00379196394264682
-0.0110435568068545,-0.00606148143625154
-0.00578261188315496,-0.0082772323894757
-0.000563912290373572,-0.010439515467567
0.00461274253951835,-0.0125486293357731
0.0097475531745496,-0.0146048726593418
0.0148407201827488,-0.0166085441035205
0.0198924441321448,-0.0185599423335571
0.0249029255907662,-0.0204593660146993
0.0298723651266419,-0.0223071138121945
0.0348009633078004,-0.0241034843912907
0.0396889207022706,-0.0258487764172353
0.0445364378780811,-0.0275432885552761
0.0493437154032608,-0.0291873194706608
0.0541109538458382,-0.030781167828637
0.0588383537738422,-0.0323251322944525
0.0635261157553014,-0.0338195115333548
0.0681744403582447,-0.0352646042105916
0.0727835281507006,-0.0366607089914107
0.077353579700698,-0.0380081245410596
0.0818847955762655,-0.0393071495247862
0.086377376345432,-0.0405580826078379
0.0908315225762261,-0.0417612224554626
0.0952474348366764,-0.0429168677329078
0.0996253136948119,-0.0440253171054213
0.103965359718661,-0.0450868692382507
0.108267773476253,-0.0461018227966438
0.112532755535616,-0.047070476445848
0.116760506464779,-0.0479931288511112
0.120951226831771,-0.048870078677681
0.12510511720462,-0.0497016245908051
0.129222378151355,-0.0504880652557312
0.133303210240005,-0.0512296993377069
0.137347814038599,-0.0519268255019798
0.141356390115165,-0.0525797424137978
0.145329139037732,-0.0531887487384083
0.149266261374329,-0.0537541431410592
0.153167957692984,-0.0542762242869981
0.157034428561727,-0.0547552908414726
0.160865874548585,-0.0551916414697305
0.164662496221589,-0.0555855748370193
0.168424494148765,-0.0559373896085869
0.172152068898144,-0.0562473844496807
0.175845421037754,-0.0565158580255486
0.179504751135623,-0.0567431090014382
0.18313025975978,-0.0569294360425971
0.186722147478255,-0.057075137814273
0.190280614859075,-0.0571805129817136
0.19380586247027,-0.0572458602101667
0.197298090879867,-0.0572714781648798
0.200757500655897,-0.0572576655111005
0.204184292366388,-0.0572047209140767
0.207578666579368,-0.057112943039056
0.210940823862866,-0.0569826305512859
0.21427096478491,-0.0568140821160143
0.217569289913531,-0.0566075963984887
0.220835999816755,-0.0563634720639569
0.224071295062613,-0.0560820077776665
0.227275376219132,-0.0557635022048652
0.230448443854342,-0.0554082540108007
0.233590698536271,-0.0550165618607206
0.236702340832948,-0.0545887244198726
0.239783571312402,-0.0541250403535044
0.24283459054266,-0.0536258083268636
0.245855599091753,-0.0530913270051979
0.248846797527709,-0.0525218950537551
0.251808386418557,-0.0519178111377827
0.254740566332324,-0.0512793739225284
0.257643537837041,-0.05060688207324
0.260517501500735,-0.049900634255165
0.263362657891436,-0.0491609291335512
0.266179207577171,-0.0483880653736462
0.268967351125971,-0.0475823416406977
0.271727289105864,-0.0467440565999533
0.274459222084877,-0.0458735089166609
0.277163350631041,-0.0449709972560679
0.279839875312384,-0.0440368202834221
0.282488996696934,-0.0430712766639712
0.28511091535272,-0.0420746650629627
0.287705831847771,-0.0410472841456445
0.290273946750116,-0.0399894325772642
0.292815460627783,-0.0389014090230693
0.295330574048802,-0.0377835121483078
0.2978194875812,-0.036636040618227
0.300282401793007,-0.0354592930980749
0.302719517252251,-0.034253568253099
0.305131034526962,-0.033019164748547
0.307517154185167,-0.0317563812496665
0.309878076794895,-0.0304655164217053
0.312214002924176,-0.029146868929911
0.314525133141038,-0.0278007374395313
0.316811668013509,-0.0264274206158138
0.319073808109619,-0.0250272171240063
0.321311753997396,-0.0236004256293564
0.323525706244869,-0.0221473447971118
0.325715865420066,-0.0206682732925201
0.327882432091016,-0.019163509780829
0.330025606825749,-0.0176333529272862
0.332145590192292,-0.0160781013971394
0.334242582758675,-0.0144980538556362
0.336316785092926,-0.0128935089680244
0.338368397763074,-0.0112647653995515
0.340397621337148,-0.00961212181546518
0.342404656383176,-0.00793587688101324
0.344389703469187,-0.00623632926144331
0.34635296316321,-0.00451377762200304
0.348294636033273,-0.00276852062794007
0.350214922647406,-0.00100085694450213
0.352114023573636,0.000788914763063121
0.353992139379994,0.00260049582950798
0.355849470634507,0.00443358758958489
0.357686217905204,0.00628789137804608
0.359502581760114,0.00816310852964388
0.361298762767265,0.0100589403791306
0.363074961494687,0.0119750882612587
0.364831378510408,0.0139112535107804
0.366568214382457,0.0158671374624481
0.368285669678862,0.0178424414510139
0.369983944967653,0.0198368668112305
0.371663240816857,0.0218501148778499
0.373323757794505,0.0238818869856246
0.374965696468623,0.0259318844693069
0.376589257407242,0.0279998086636491
0.37819464117839,0.0300853609034035
0.379782048350095,0.0321882425233226
0.381351679490387,0.0343081548581584
0.382903735167293,0.0364447992426636
0.384438415948844,0.0385978770115903
0.385955922403067,0.0407670894996909
0.387456455097991,0.0429521380417177
0.388940214601645,0.045152723972423
0.390407401482058,0.0473685486265593
0.391858216307258,0.0495993133388786
0.393292859645275,0.0518447194441336
0.394711532064136,0.0541044682770764
0.396114434131871,0.0563782611724594
0.397501766416508,0.0586657994650348
0.398873729486076,0.0609667844895551
0.400230523908604,0.0632809175807726
0.40157235025212,0.0656079000734397
0.402899409084654,0.0679474333023084
0.404211900974234,0.0702992186021313
0.405510026488888,0.0726629573076608
0.406793986196645,0.075038350753649
0.408063980665535,0.0774251002748484
0.409320210463586,0.0798229072060113
0.410562876158826,0.0822314728818899
0.411792178319284,0.0846504986372367
0.413008317512989,0.0870796858068039
0.414211494307971,0.0895187357253439
0.415401909272256,0.0919673497276089
0.416579762973875,0.0944252291483515
0.417745255980856,0.0968920753223237
0.418898588861227,0.0993675895842782
0.420039962183018,0.101851473268967
0.421169576514257,0.104343427711143
0.422287632422972,0.106843154245557
0.423394330477193,0.109350354206963
0.424489871244949,0.111864728930113
0.425574455294267,0.114385979749759
0.426648283193177,0.116913808000653
0.427711555509708,0.119447915017548
0.428764472811888,0.121988002135196
0.429807235667745,0.124533770688349
0.43084004464531,0.12708492201176
0.431863100312609,0.129641157440181
0.432876603237673,0.132202178308365
0.433880753988529,0.134767685951063
0.434875753133207,0.137337381703028
0.435861801239736,0.139910966899012
0.436839098876143,0.142488142873768
0.437807846610458,0.145068610962048
0.438768245010709,0.147652072498605
0.439720494644925,0.15023822881819
0.440664796081136,0.152826781255556
0.441601349887369,0.155417431145456
0.442530356631653,0.15800987982264
0.443452016882017,0.160603828621864
0.44436653120649,0.163198978877877
0.445274100173101,0.165795031925433
0.446174924349878,0.168391689099284
0.447069204304849,0.170988651734182
0.447957140606045,0.173585621164879
0.448838933821493,0.176182298726129
0.449714784519222,0.178778385752683
0.45058489326726,0.181373583579294
0.451449460633638,0.183967593540713
0.452308687186383,0.186560116971694
0.453162773493523,0.189150855206988
0.454011920123089,0.191739509581348
0.454856327643108,0.194325781429527
0.455696196621609,0.196909372086276
0.456531727626621,0.199489982886348
0.457363121226173,0.202067315164495
0.458190577988293,0.20464107025547
0.45901429848101,0.207210949494024
0.459834483272353,0.209776654214911
0.46065133293035,0.212337885752882
0.461465048023031,0.21489434544269
0.462275829118424,0.217445734619088
0.463083876784558,0.219991754616826
0.463889391589461,0.222532106770659
0.464692574101162,0.225066492415338
0.46549362488769,0.227594612885615
0.466292744517074,0.230116169516244
0.467090133557342,0.232630863641975
0.467885992576523,0.235138396597562
0.468680522142646,0.237638469717756
0.46947392282374,0.240130784337311
0.470266395187833,0.242615041790978
0.471058139802954,0.24509094341351
0.471849357237131,0.24755819053966
0.472640248058394,0.250016484504178
0.473431012834771,0.252465526641819
0.474221852134291,0.254905018287333
0.475012966524983,0.257334660775474
0.475804556574875,0.259754155440994
0.476596822851996,0.262163203618645
0.477389965924375,0.264561506643179
0.47818418636004,0.266948765849349
0.47897968472702,0.269324682571907
0.479776661593345,0.271688958145606
0.480575317527042,0.274041293905197
0.481375853096141,0.276381391185433
0.48217846886867,0.278708951321067
0.482983365412657,0.28102367564685
0.483790743296132,0.283325265497536
0.484600803087124,0.285613422207876
0.485413745353661,0.287887847112622
0.486229770663771,0.290148241546528
0.487049079585484,0.292394306844345
0.487871872686828,0.294625744340825
0.488698350535832,0.296842255370722
0.489528713700525,0.299043541268787
0.490363162748935,0.301229303369773
0.491201898249091,0.303399243008431
0.492045120769022,0.305553061519515
0.492893030876756,0.307690460237777
0.493745829140323,0.309811140497969
0.494603716127751,0.311914803634843
0.495466892407069,0.314001150983151
0.496335558546305,0.316069883877647
0.497209915113488,0.318120703653082
0.498090162676648,0.320153311644208
0.498976501803811,0.322167409185779
0.499869133063009,0.324162697612546
0.500768257022268,0.326138878259261
0.501674074249618,0.328095652460677
0.502586785313088,0.330032721551547
0.503506590780706,0.331949786866622
0.504433691220501,0.333846549740655
0.505368287200502,0.335722711508399
0.506310579288737,0.337577973504605
0.507260768053235,0.339412037064025
0.508219054062026,0.341224603521414
0.509185637883136,0.343015374211521
0.510160720084597,0.344784050469101
0.511144501234435,0.346530333628905
0.51213718190068,0.348253925025685
0.513138962651361,0.349954525994194
0.514150044054506,0.351631837869185
0.515170626678144,0.353285561985409
0.516200911090303,0.354915399677619
0.517241097859013,0.356521052280567
0.518291387552302,0.358102221129005
0.519351980738199,0.359658607557687
0.520423077984733,0.361189912901363
0.521504879859932,0.362695838494787
0.522597586931825,0.364176085672711
0.523701399768441,0.365630355769887
0.524816518937808,0.367058350121068
0.525943145007956,0.368459770061005
0.527081478546912,0.369834316924452
0.528231720122706,0.37118169204616
0.529394070303367,0.372501596760882
0.530568729656923,0.37379373240337
0.531755898751402,0.375057800308376
0.532955778154835,0.376293501810654
0.534168568435248,0.377500538244954
0.535394470160672,0.37867861094603
0.536633683899134,0.379827421248633
0.537886410218664,0.380946670487517
0.53915284968729,0.382036059997433
0.540433202873041,0.383095291113134
0.541727670343945,0.384124065169372
0.543036452668032,0.385122083500899
0.54435975041333,0.386089047442468
0.545697764147868,0.387024658328831
0.547050694439675,0.387928617494741
0.548418741856778,0.388800626274949
0.549802106967208,0.389640386004209
0.551200990338993,0.390447598017271
0.552615592540161,0.39122196364889
0.554046114138741,0.391963184233816
0.555492755702762,0.392670961106803
0.556955717800253,0.393344995602603
0.558435200999242,0.393984989055967
0.559931405867758,0.394590642801649
0.56144453297383,0.395161658174401
0.562974782885487,0.395697736508975
0.564522356170757,0.396198579140123
0.566087453397668,0.396663887402597
0.567670275134251,0.397093362631151
0.569271021948533,0.397486706160536
0.570889894408543,0.397843619325504
0.57252709308231,0.398163803460809
0.574182818537862,0.398446959901202
0.57585727134323,0.398692789981435
0.57755065206644,0.398900995036262
0.579263161275521,0.399071276400434
0.580994999538504,0.399203335408703
0.582746367423415,0.399296873395822
0.584517465498285,0.399351591696544
0.586308494331141,0.39936719164562
0.588119654490013,0.399343374577803
0.589951146542929,0.399279841827846
0.591803171057918,0.3991762947305
0.593675928603008,0.399032434620518
0.595569619746229,0.398847962832652
0.597484445055608,0.398622580701655
0.599420605099176,0.398355989562278
0.60137830044496,0.398047890749275
0.603357731660989,0.397697985597398
0.605359099315292,0.397305975441398
0.607382603975898,0.396871561616029
0.609428446210836,0.396394445456042
0.611496826588133,0.39587432829619
0.613587945675819,0.395310911471225
0.615702004041923,0.394703896315899
0.617839202254473,0.394052984164966
0.619999740881498,0.393357876353177
0.622183820491027,0.392618274215284
0.624391641651089,0.39183387908604
0.626623404929711,0.391004392300197
0.628879310894924,0.390129515192508
0.631159560114755,0.389208949097725
0.633464353157233,0.388242395350599
0.635793890590388,0.387229555285884
0.638148372982247,0.386170130238333
0.640528000900841,0.385063821542696
0.642932974914196,0.383910330533726
0.645363495590342,0.382709358546177
0.647819763497308,0.381460606914799
0.650301979203123,0.380163776974346
0.650301979203123,0.380163776974346
0.65279077681097,0.378834407090996
0.655266599515659,0.377488292348281
0.657729361522654,0.376125519156982
0.66017897703742,0.374746173927881
0.662615360265422,0.373350343071758
0.665038425412125,0.371938112999395
0.667448086682993,0.370509570121573
0.669844258283492,0.369064800849074
0.672226854419086,0.36760389159268
0.674595789295241,0.36612692876317
0.676950977117421,0.364633998771327
0.679292332091091,0.363125188027933
0.681619768421715,0.361600582943768
0.68393320031476,0.360060269929613
0.686232541975688,0.358504335396251
0.688517707609967,0.356932865754462
0.69078861142306,0.355345947415028
0.693045167620432,0.35374366678873
0.695287290407548,0.352126110286349
0.697514893989873,0.350493364318668
0.699727892572871,0.348845515296466
0.701926200362009,0.347182649630526
0.704109731562749,0.345504853731628
0.706278400380559,0.343812214010555
0.708432121020901,0.342104816878087
0.710570807689242,0.340382748745006
0.712694374591045,0.338646096022093
0.714802735931777,0.33689494512013
0.716895805916901,0.335129382449898
0.718973498751883,0.333349494422177
0.721035728642187,0.331555367447751
0.723082409793279,0.329747087937399
0.725113456410622,0.327924742301903
0.727128782699683,0.326088416952045
0.729128302865925,0.324238198298605
0.731111931114815,0.322374172752366
0.733079581651816,0.320496426724109
0.735031168682394,0.318605046624614
0.736966606412012,0.316700118864663
0.738885809046138,0.314781729855038
0.740788690790234,0.31284996600652
0.742675165849766,0.31090491372989
0.744545148430199,0.30894665943593
0.746398552736998,0.306975289535421
0.748235292975627,0.304990890439144
0.750055283351552,0.30299354855788
0.751858438070237,0.300983350302412
0.753644671337147,0.298960382083519
0.755413897357747,0.296924730311985
0.757166030337502,0.294876481398589
0.758900984481877,0.292815721754114
0.760618673996337,0.29074253778934
0.762319013086346,0.288657015915049
0.764001915957369,0.286559242542022
0.765667296814871,0.284449304081042
0.767315069864318,0.282327286942888
0.768945149311173,0.280193277538342
0.770557449360903,0.278047362278186
0.772151884218971,0.275889627573201
0.773728368090842,0.273720159834169
0.775286815181982,0.27153904547187
0.776827139697855,0.269346370897086
0.778349255843926,0.267142222520598
0.779853077825661,0.264926686753188
0.781338519848523,0.262699850005637
0.782805496117978,0.260461798688727
0.784253920839491,0.258212619213238
0.785683708218526,0.255952397989952
0.787094772460548,0.253681221429651
0.788487027771023,0.251399175943115
0.789860388355414,0.249106347941127
0.791214768419188,0.246802823834466
0.792550082167809,0.244488690033916
0.79386624380674,0.242164032950257
0.795163167541449,0.23982893899427
0.796440767577399,0.237483494576736
0.797698958120055,0.235127786108438
0.798937653374882,0.232761900000157
0.800156767547346,0.230385922662673
0.80135621484291,0.227999940506768
0.80253590946704,0.225604039943224
0.8036957656252,0.223198307382821
0.804835697522856,0.220782829236341
0.805955619365472,0.218357691914567
0.807055445358514,0.215922981828277
0.808135089707445,0.213478785388255
0.809194466617731,0.211025189005282
0.810233490294837,0.208562279090138
0.811252074944228,0.206090142053605
0.812250134771369,0.203608864306465
0.813227583981723,0.201118532259499
0.814184336780757,0.198619232323488
0.815120307373935,0.196111050909214
0.816035409966722,0.193594074427457
0.816929558764582,0.191068389288999
0.817802667972982,0.188534081904622
0.818654651797385,0.185991238685107
0.819485424443257,0.183439946041235
0.820294900116061,0.180880290383788
0.821082993021264,0.178312358123546
0.82184961736433,0.175736235671292
0.822594687350724,0.173152009437806
0.823318117185911,0.170559765833871
0.824019821075355,0.167959591270266
0.824699713224522,0.165351572157774
0.825357707838876,0.162735794907176
0.825993719123882,0.160112345929253
0.826607661285005,0.157481311634787
0.827199448527711,0.154842778434559
0.827768995057463,0.15219683273935
0.828316215079727,0.149543560959941
0.828841022799967,0.146883049507115
0.829343332423649,0.144215384791652
0.829823058156237,0.141540653224333
0.830280114203196,0.138858941215941
0.830714414769991,0.136170335177255
0.831125874062087,0.133474921519059
0.831514406284949,0.130772786652132
0.831879925644042,0.128064016987257
0.832222346344829,0.125348698935214
0.832541582592778,0.122626918906785
0.832837548593351,0.119898763312752
0.833110158552015,0.117164318563895
0.833359326674233,0.114423671070997
0.833584967165472,0.111676907244837
0.833786994231194,0.108924113496199
0.833965322076867,0.106165376235862
0.834119864907954,0.103400781874609
0.83425053692992,0.100630416823221
0.83435725234823,0.0978543674924781
0.834439925368349,0.095072720293163
0.834498470195742,0.0922855616360566
0.834532801035874,0.0894929779319404
0.834542832094209,0.0866950555915955
0.834528477576213,0.0838918810258033
0.83448965168735,0.0810835406453453
0.834426268633086,0.0782701208610027
0.834338242618884,0.0754517080835568
0.83422548785021,0.0726283887237889
0.834087918532529,0.0698002491924806
0.833925448871306,0.066967375900413
0.833737993072005,0.0641298552583675
0.833525465340092,0.0612877736771255
0.833287779881031,0.0584412175674683
0.833024850900287,0.0555902733401772
0.832736592603325,0.0527350274060335
0.832422919195609,0.0498755661758186
0.832083744882606,0.0470119760603139
0.831718983869779,0.0441443434703007
0.831328550362593,0.0412727548165603
0.830912358566514,0.0383972965098741
0.830470322687006,0.0355180549610234
0.830002356929534,0.0326351165807895
0.829508375499563,0.0297485677799537
0.828988292602558,0.0268584949692975
0.828442022443983,0.0239649845596022
0.827869479229304,0.021068122961649
0.827270577163985,0.0181679965862194
0.826645230453491,0.0152646918440946
0.825993353303287,0.012358295146056
0.825314859918839,0.00944889290288504
0.82460966450561,0.00653657152536291
0.823877681269066,0.00362141742427095
0.823118824414672,0.000703517010390675
0.822333008147891,-0.00221704330549675
0.821520146674191,-0.00514017711260997
0.820680154199034,-0.0080657980001676
0.819812944927886,-0.0109938195573883
0.818918433066212,-0.0139241553734907
0.817996532819477,-0.0168567190376936
0.817047158393146,-0.0197914241392155
0.816070223992683,-0.0227281842672751
0.815065643823553,-0.0256669130110911
0.814033332091222,-0.0286075239598822
0.812973203001153,-0.031549930702867
0.811885170758813,-0.0344940468292642
0.810769149569665,-0.0374397859282924
0.809625053639175,-0.0403870615891703
0.808452797172808,-0.0433357874011165
0.807252294376028,-0.0462858769533498
0.8060234594543,-0.0492372438350887
0.80476620661309,-0.052189801635552
0.803480450057861,-0.0551434639439583
0.802166103994079,-0.0580981443495262
0.800823082627209,-0.0610537564414744
0.799451300162716,-0.0640102138090217
0.798050670806064,-0.0669674300413866
0.796621108762718,-0.0699253187277878
0.795162528238144,-0.072883793457444
0.793674843437805,-0.0758427678195738
0.792157968567167,-0.0788021554033959
0.790611817831696,-0.0817618697981289
0.789036305436855,-0.0847218245929916
0.787431345588109,-0.0876819333772025
0.785796852490924,-0.0906421097399804
0.784132740350764,-0.0936022672705439
0.782438923373095,-0.0965623195581116
0.780715315763379,-0.0995221801919022
0.778961831727085,-0.102481762761134
0.777178385469674,-0.105440980855027
0.775364891196614,-0.108399748062798
0.773521263113367,-0.111357977973667
0.7716474154254,-0.114315584176852
0.769743262338178,-0.117272480261572
0.767808718057164,-0.120228579817046
0.765843696787824,-0.123183796432492
0.763848112735623,-0.126138043697129
0.761821880106025,-0.129091235200175
0.759764913104497,-0.132043284530849
0.757677125936501,-0.13499410527837
0.755558432807504,-0.137943611031957
0.753408747922969,-0.140891715380828
0.751227985488363,-0.143838331914202
0.74901605970915,-0.146783374221297
0.746772884790794,-0.149726755891333
0.744498374938761,-0.152668390513527
0.742192444358515,-0.155608191677099
0.739855007255521,-0.158546072971267
0.737485977835245,-0.161481947985249
0.73508527030315,-0.164415730308265
0.732652798864703,-0.167347333529534
0.730188477725367,-0.170276671238273
0.727692221090608,-0.173203657023701
0.725163943165891,-0.176128204475038
0.722603558156679,-0.179050227181502
0.720010980268439,-0.18196963873231
0.717386123706635,-0.184886352716683
0.714728902676732,-0.187800282723839
0.712039231384195,-0.190711342342996
0.709317024034488,-0.193619445163374
0.706562194833077,-0.19652450477419
0.703774657985427,-0.199426434764663
0.700954327697001,-0.202325148724012
0.698101118173266,-0.205220560241456
0.695214943619686,-0.208112582906214
0.692295718241726,-0.211001130307504
0.68934335624485,-0.213886116034544
0.686357771834524,-0.216767453676554
0.683338879216212,-0.219645056822751
0.68028659259538,-0.222518839062356
0.677200826177492,-0.225388713984585
0.674081494168013,-0.228254595178659
0.670928510772408,-0.231116396233796
0.667741790196142,-0.233974030739213
0.664521246644679,-0.236827412284131
0.661266794323485,-0.239676454457768
0.657978347438024,-0.242521070849341
0.654655820193762,-0.245361175048071
0.651299126796163,-0.248196680643176
0.647908181450691,-0.251027501223873
0.644482898362813,-0.253853550379383
0.641023191737992,-0.256674741698923
0.637528975781694,-0.259490988771713
0.634000164699383,-0.26230220518697
0.630436672696525,-0.265108304533914
0.626838413978583,-0.267909200401764
0.623205302751024,-0.270704806379737
0.619537253219312,-0.273495036057053
0.615834179588911,-0.27627980302293
0.612095996065287,-0.279059020866587
0.608322616853905,-0.281832603177243
0.604513956160229,-0.284600463544116
0.600669928189724,-0.287362515556425
0.596790447147855,-0.290118672803388
0.592875427240088,-0.292868848874225
0.588924782671886,-0.295612957358153
0.584938427648714,-0.298350911844392
0.580916276376039,-0.301082625922161
0.576858243059324,-0.303808013180677
0.572764241904034,-0.306526987209159
0.568634187115634,-0.309239461596827
0.564467992899589,-0.311945349932899
0.560265573461364,-0.314644565806593
0.556026843006424,-0.317337022807129
0.551751715740234,-0.320022634523724
0.547440105868258,-0.322701314545598
0.543091927595961,-0.325372976461969
0.538707095128809,-0.328037533862055
0.534285522672265,-0.330694900335077
0.529827124431796,-0.333344989470251
0.525331814612865,-0.335987714856797
0.520799507420938,-0.338622990083934
0.51623011706148,-0.341250728740879
0.511623557739955,-0.343870844416853
0.506979743661828,-0.346483250701073
0.502298589032565,-0.349087861182758
0.497580008057629,-0.351684589451127
0.492823914942487,-0.354273349095398
0.488030223892602,-0.356854053704791
0.483198849113439,-0.359426616868523
0.478329704810464,-0.361990952175813
0.473422705189142,-0.364546973215881
0.468477764454936,-0.367094593577944
0.463494796813313,-0.369633726851222
0.458473716469737,-0.372164286624933
0.453414437629672,-0.374686186488295
0.448316874498584,-0.377199340030528
0.443180941281938,-0.37970366084085
0.438006552185198,-0.38219906250848
0.432793621413829,-0.384685458622636
0.427542063173297,-0.387162762772537
0.422251791669065,-0.389630888547402
0.416922721106599,-0.392089749536449
0.411554765691364,-0.394539259328897
0.406147839628825,-0.396979331513965
0.400701857124446,-0.399409879680871
0.395216732383692,-0.401830817418834
0.389692379612029,-0.404242058317073
0.38412871301492,-0.406643515964806
0.378525646797832,-0.409035103951253
0.372883095166228,-0.41141673586563
0.367200972325574,-0.413788325297158
0.361479192481334,-0.416149785835056
0.355717669838974,-0.41850103106854
0.349916318603958,-0.420841974586831
0.344075052981751,-0.423172529979147
0.338193787177818,-0.425492610834707
0.332272435397624,-0.427802130742728
0.326310911846633,-0.430101003292431
0.320309130730312,-0.432389142073033
0.314267006254123,-0.434666460673754
0.308184452623533,-0.436932872683811
0.302061384044006,-0.439188291692424
0.295897714721007,-0.441432631288812
0.289693358860001,-0.443665805062192
0.283448230666453,-0.445887726601784
0.277162244345827,-0.448098309496806
0.270835314103589,-0.450297467336476
0.264467354145203,-0.452485113710015
0.258058278676135,-0.454661162206639
0.251608001901848,-0.456825526415569
0.245116438027809,-0.458978119926022
0.238583501259481,-0.461118856327217
0.23200910580233,-0.463247649208373
0.22539316586182,-0.465364412158709
0.218735595643418,-0.467469058767443
0.212036309352586,-0.469561502623793
0.20529522119479,-0.471641657316979
0.198512245375495,-0.47370943643622
0.191687296100167,-0.475764753570733
0.184820287574269,-0.477807522309737
0.177911134003266,-0.479837656242452
0.170959749592624,-0.481855068958095
0.163966048547808,-0.483859674045886
0.156929945074281,-0.485851385095043
0.14985135337751,-0.487830115694785
0.142730187662958,-0.48979577943433
0.135566362136092,-0.491748289902898
0.128359791002375,-0.493687560689706
0.121110388467273,-0.495613505383974
0.113818068736249,-0.497526037574919
0.106482746014771,-0.499425070851762
0.0991043345083011,-0.50131051880372
0.0916827484223056,-0.503182295020012
0.0842179019622487,-0.505040313089856
0.0767097093335959,-0.506884486602472
0.0691580847418112,-0.508714729147079
0.0615629423923604,-0.510530954312893
0.0539241964907075,-0.512333075689136
0.0462417612423182,-0.514121006865024
0.0385155508526566,-0.515894661429777
0.0307454795271882,-0.517653952972613
0.0229314614713773,-0.519398795082752
0.0150734108906894,-0.521129101349411
0.00717124199058858,-0.522844785361809
-0.000775131023459441,-0.524545760709166
-0.00876579394599056,-0.526231940980699
-0.0168008325715392,-0.527903239765627
-0.0248803326946413,-0.52955957065317
-0.0330043801098312,-0.531200847232545
-0.0411730606116446,-0.532826983092971
-0.0493864599946163,-0.534437891823668
-0.0576446640532818,-0.536033487013853
-0.0659477585821756,-0.537613682252745
-0.0742958293758337,-0.539178391129563
-0.0826889622287903,-0.540727527233526
-0.0911272429355815,-0.542261004153852
-0.0996107572907414,-0.543778735479761
-0.108139591088806,-0.54528063480047
-0.11671383012431,-0.546766615705198
-0.125333560191789,-0.548236591783164
-0.133998867085777,-0.549690476623586
-0.142709836600811,-0.551128183815684
-0.151466554531424,-0.552549626948676
-0.160269106672153,-0.55395471961178
-0.169117578817531,-0.555343375394216
-0.178012056762096,-0.556715507885201
-0.186952626300381,-0.558071030673955
-0.195939373226922,-0.559409857349696
-0.204972383336253,-0.560731901501643
-0.21405174242291,-0.562037076719015
-0.223177536281429,-0.56332529659103
-0.232349850706344,-0.564596474706907
-0.24156877149219,-0.565850524655864
-0.250834384433503,-0.56708736002712
-0.260146775324817,-0.568306894409895
-0.269506029960669,-0.569509041393405
-0.278912234135591,-0.570693714566871
-0.288365473644122,-0.571860827519511
-0.288365473644122,-0.571860827519511
-0.29779010037535,-0.572990846285012
-0.307110615310864,-0.574064565351896
-0.316327327883947,-0.575082390991634
-0.325440547527881,-0.576044729475698
-0.334450583675947,-0.576951987075561
-0.343357745761427,-0.577804570062692
-0.352162343217604,-0.578602884708564
-0.36086468547776,-0.579347337284649
-0.369465081975176,-0.580038334062418
-0.377963842143134,-0.580676281313341
-0.386361275414918,-0.581261585308892
-0.394657691223808,-0.581794652320542
-0.402853399003087,-0.582275888619762
-0.410948708186036,-0.582705700478023
-0.418943928205938,-0.583084494166797
-0.426839368496075,-0.583412675957556
-0.434635338489729,-0.583690652121772
-0.442332147620181,-0.583918828930915
-0.449930105320714,-0.584097612656457
-0.45742952102461,-0.584227409569871
-0.464830704165151,-0.584308625942627
-0.472133964175619,-0.584341668046197
-0.479339610489295,-0.584326942152052
-0.486447952539463,-0.584264854531665
-0.493459299759403,-0.584155811456507
-0.500373961582398,-0.584000219198048
-0.50719224744173,-0.583798484027761
-0.513914466770682,-0.583551012217118
-0.520540929002534,-0.583258210037589
-0.527071943570569,-0.582920483760647
-0.533507819908069,-0.582538239657762
-0.539848867448316,-0.582111884000407
-0.546095395624593,-0.581641823060054
-0.55224771387018,-0.581128463108172
-0.558306131618361,-0.580572210416235
-0.564270958302416,-0.579973471255714
-0.570142503355629,-0.57933265189808
-0.575921076211281,-0.578650158614804
-0.581606986302654,-0.577926397677359
-0.587200543063031,-0.577161775357216
-0.592702055925692,-0.576356697925846
-0.598111834323921,-0.575511571654721
-0.603430187690999,-0.574626802815312
-0.608657425460209,-0.573702797679092
-0.613793857064832,-0.572739962517531
-0.61883979193815,-0.571738703602101
-0.623795539513445,-0.570699427204274
-0.628661409224,-0.569622539595521
-0.633437710503096,-0.568508447047314
-0.638124752784016,-0.567357555831125
-0.642722845500041,-0.566170272218424
-0.647232298084453,-0.564947002480683
-0.651653419970535,-0.563688152889375
-0.655986520591569,-0.56239412971597
-0.660231909380836,-0.56106533923194
-0.664389895771618,-0.559702187708757
-0.668460789197198,-0.558305081417892
-0.672444899090858,-0.556874426630816
-0.676342534885879,-0.555410629619002
-0.680154006015544,-0.553914096653921
-0.683879621913134,-0.552385234007043
-0.687519692011933,-0.550824447949842
-0.69107452574522,-0.549232144753788
-0.69454443254628,-0.547608730690354
-0.697929721848393,-0.54595461203101
-0.701230703084842,-0.544270195047227
-0.704447685688908,-0.542555886010479
-0.707580979093875,-0.540812091192235
-0.710630892733023,-0.539039216863969
-0.713597736039635,-0.53723766929715
-0.716481818446993,-0.535407854763251
-0.719283449388379,-0.533550179533745
-0.722002938297074,-0.5316650498801
-0.724640594606362,-0.52975287207379
-0.727196727749523,-0.527814052386286
-0.729671647159841,-0.52584899708906
-0.732065662270596,-0.523858112453583
-0.734379082515071,-0.521841804751326
-0.736612217326548,-0.519800480253761
-0.73876537613831,-0.517734545232361
-0.740838868383637,-0.515644405958595
-0.742833003495812,-0.513530468703937
-0.744748090908117,-0.511393139739856
-0.746584440053835,-0.509232825337826
-0.748342360366247,-0.507049931769317
-0.750022161278634,-0.504844865305801
-0.75162415222428,-0.50261803221875
-0.753148642636466,-0.500369838779635
-0.754595941948475,-0.498100691259927
-0.755966359593587,-0.495810995931099
-0.757260205005086,-0.493501159064621
-0.758477787616253,-0.491171586931966
-0.75961941686037,-0.488822685804605
-0.76068540217072,-0.486454861954008
-0.761676052980583,-0.484068521651649
-0.762591678723243,-0.481664071168999
-0.763432588831982,-0.479241916777528
-0.764199092740081,-0.476802464748709
-0.764891499880822,-0.474346121354013
-0.765510119687488,-0.471873292864912
-0.76605526159336,-0.469384385552877
-0.766527235031721,-0.466879805689379
-0.766926349435851,-0.464359959545891
-0.767252914239035,-0.461825253393884
-0.767507238874553,-0.459276093504829
-0.767689632775688,-0.456712886150198
-0.767800405375721,-0.454136037601463
-0.767839866107935,-0.451545954130095
-0.767808324405611,-0.448943042007565
-0.767706089702032,-0.446327707505346
-0.767533471430479,-0.443700356894908
-0.767290779024236,-0.441061396447723
-0.766978321916583,-0.438411232435263
-0.766596409540802,-0.435750271129
-0.766145351330176,-0.433078918800404
-0.765625456717987,-0.430397581720948
-0.765037035137517,-0.427706666162103
-0.764380396022047,-0.42500657839534
-0.763655848804861,-0.422297724692131
-0.762863702919239,-0.419580511323948
-0.762004267798464,-0.416855344562262
-0.761077852875818,-0.414122630678545
-0.760084767584582,-0.411382775944268
-0.75902532135804,-0.408636186630903
-0.757899823629473,-0.405883269009921
-0.756708583832162,-0.403124429352794
-0.75545191139939,-0.400360073930993
-0.75413011576444,-0.397590609015991
-0.752743506360592,-0.394816440879258
-0.751292392621129,-0.392037975792266
-0.749777083979334,-0.389255620026486
-0.748197889868487,-0.386469779853391
-0.746555119721872,-0.383680861544452
-0.744849082972769,-0.380889271371139
-0.743080089054462,-0.378095415604926
-0.741248447400232,-0.375299700517283
-0.739354467443361,-0.372502532379682
-0.737398458617131,-0.369704317463594
-0.735380730354824,-0.366905462040492
-0.733301592089723,-0.364106372381845
-0.731161353255109,-0.361307454759128
-0.728960323284264,-0.358509115443809
-0.72669881161047,-0.355711760707362
-0.72437712766701,-0.352915796821257
-0.721995580887165,-0.350121630056967
-0.719554480704217,-0.347329666685963
-0.717054136551449,-0.344540312979716
-0.714494857862142,-0.341753975209698
-0.711876954069578,-0.33897105964738
-0.70920073460704,-0.336191972564234
-0.706466508907809,-0.333417120231732
-0.703674586405168,-0.330646908921345
-0.700825276532398,-0.327881744904545
-0.697918888722782,-0.325122034452803
-0.694955732409601,-0.32236818383759
-0.691936117026138,-0.319620599330379
-0.688860352005674,-0.316879687202641
-0.685728746781492,-0.314145853725847
-0.682541610786873,-0.311419505171469
-0.6792992534551,-0.308701047810979
-0.676001984219455,-0.305990887915848
-0.672650112513219,-0.303289431757547
-0.669243947769675,-0.300597085607548
-0.665783799422105,-0.297914255737323
-0.662269976903791,-0.295241348418343
-0.658702789648013,-0.29257876992208
-0.655082547088056,-0.289926926520005
-0.651409558657201,-0.28728622448359
-0.64768413378873,-0.284657070084307
-0.643906581915924,-0.282039869593626
-0.640077212472066,-0.27943502928302
-0.636196334890438,-0.27684295542396
-0.632264258604322,-0.274264054287918
-0.628281293046999,-0.271698732146365
-0.624247747651753,-0.269147395270772
-0.620163931851864,-0.266610449932612
-0.616030155080616,-0.264088302403355
-0.61184672677129,-0.261581358954474
-0.607613956357167,-0.259090025857439
-0.603332153271531,-0.256614709383724
-0.599001626947662,-0.254155815804798
-0.594622686818844,-0.251713751392133
-0.590195642318357,-0.249288922417202
-0.585720802879485,-0.246881735151475
-0.581198477935509,-0.244492595866424
-0.576628976919711,-0.242121910833521
-0.572012609265373,-0.239770086324237
-0.567349684405777,-0.237437528610045
-0.562640511774206,-0.235124643962414
-0.557885400803941,-0.232831838652817
-0.553084660928263,-0.230559518952726
-0.548238601580457,-0.228308091133612
-0.543347532193802,-0.226077961466946
-0.538411762201582,-0.2238695362242
-0.533431601037078,-0.221683221676846
-0.528407358133573,-0.219519424096355
-0.523339342924347,-0.217378549754199
-0.518227864842685,-0.215261004921849
-0.513073233321866,-0.213167195870777
-0.507875757795174,-0.211097528872455
-0.50263574769589,-0.209052410198353
-0.497353512457297,-0.207032246119943
-0.492029361512677,-0.205037442908698
-0.486663604295311,-0.203068406836088
-0.481256550238481,-0.201125544173585
-0.47580850877547,-0.199209261192661
-0.470319789339559,-0.197319964164787
-0.464790701364031,-0.195458059361435
-0.459221554282168,-0.193623953054076
-0.453612657527251,-0.191818051514182
-0.447964320532563,-0.190040761013225
-0.442276852731385,-0.188292487822675
-0.436550563557,-0.186573638214004
-0.43078576244269,-0.184884618458685
-0.424982758821737,-0.183225834828188
-0.419141862127422,-0.181597693593986
-0.413263381793028,-0.180000601027549
-0.407347627251837,-0.178434963400349
-0.401394907937131,-0.176901186983858
-0.395405533282191,-0.175399678049547
-0.3893798127203,-0.173930842868888
-0.383318055684741,-0.172495087713353
-0.377220571608793,-0.171092818854412
-0.371087669925741,-0.169724442563538
-0.364919660068866,-0.168390365112202
-0.35871685147145,-0.167090992771876
-0.352479553566775,-0.16582673181403
-0.346208075788122,-0.164597988510138
-0.339902727568775,-0.163405169131669
-0.333563818342015,-0.162248679950096
-0.327191657541123,-0.161128927236891
-0.320786554599383,-0.160046317263524
-0.314348818950076,-0.159001256301468
-0.307878760026484,-0.157994150622194
-0.301376687261889,-0.157025406497173
-0.294842910089573,-0.156095430197878
-0.288277737942818,-0.155204627995779
-0.281681480254907,-0.154353406162348
-0.275054446459121,-0.153542170969057
-0.268396945988742,-0.152771328687377
-0.261709288277052,-0.152041285588779
-0.254991782757333,-0.151352447944736
-0.248244738862868,-0.150705222026719
-0.241468466026938,-0.1501000141062
-0.234663273682825,-0.149537230454649
-0.227829471263812,-0.149017277343539
-0.22096736820318,-0.148540561044341
-0.214077273934211,-0.148107487828527
-0.207159497890188,-0.147718463967567
-0.200214349504392,-0.147373895732935
-0.193242138210105,-0.1470741893961
-0.186243173440611,-0.146819751228536
-0.179217764629189,-0.146610987501713
-0.172166221209123,-0.146448304487102
-0.165088852613695,-0.146332108456177
-0.157985968276186,-0.146262805680407
-0.150857877629878,-0.146240802431264
-0.143704890108055,-0.146266504980221
-0.136527315143996,-0.146340319598748
-0.129325462170986,-0.146462652558318
-0.122099640622305,-0.146633910130401
-0.114850159931236,-0.14685449858647
-0.10757732953106,-0.147124824197995
-0.10028145885506,-0.147445293236449
-0.0929628573365177,-0.147816311973302
-0.0856218344087154,-0.148238286680027
-0.0782586995049346,-0.148711623628095
-0.0708737620584577,-0.149236729088978
-0.0634673315025664,-0.149814009334146
-0.0560397172705432,-0.150443870635073
-0.0485912287956695,-0.151126719263228
-0.041122175511228,-0.151862961490084
-0.0336328668505002,-0.152653003587113
-0.0261236122467685,-0.153497251825785
-0.0185947211333142,-0.154396112477573
-0.0110465029434204,-0.155349991813948
-0.00347926711036814,-0.156359296106381
0.00410667693255981,-0.157424431626344
0.0117110197520821,-0.158545804645308
0.019333451914916,-0.159723821434746
0.0269736639877803,-0.160958888266129
0.034631346537392,-0.162251411410927
0.0423061901304702,-0.163601797140614
0.0499978853337319,-0.165010451726659
0.0577061227138959,-0.166477781440536
0.0654305928376792,-0.168004192553715
0.0731709862718007,-0.169590091337668
0.0809269935829779,-0.171235884063866
0.0886983053379292,-0.172941977003781
0.0964846121033718,-0.174708776428885
0.104285604446025,-0.176536688610649
0.112100972932605,-0.178426119820545
0.119930408129831,-0.180377476330044
0.127773600604421,-0.182391164410618
0.135630240923092,-0.184467590333738
0.143500019652563,-0.186607160370876
0.151382627359552,-0.188810280793503
0.159277754610777,-0.191077357873091
0.167185091972955,-0.193408797881112
0.175104330012804,-0.195805007089037
0.183035159297043,-0.198266391768337
0.19097727039239,-0.200793358190485
0.198930353865562,-0.203386312626951
0.206894100283278,-0.206045661349207
0.214868200212255,-0.208771810628726
0.222852344219212,-0.211565166736977
0.230846222870866,-0.214426135945434
0.238849526733936,-0.217355124525567
0.246861946375139,-0.220352538748847
0.254883172361193,-0.223418784886748
0.262912895258817,-0.226554269210739
0.270950805634728,-0.229759397992293
0.278996594055644,-0.233034577502881
0.287049951088284,-0.236380214013975
0.295110567299365,-0.239796713797046
0.303178133255605,-0.243284483123566
0.311252339523723,-0.246843928265007
0.319332876670435,-0.250475455492839
0.327419435262461,-0.254179471078534
0.335511705866518,-0.257956381293565
0.343609379049325,-0.261806592409402
0.351712145377598,-0.265730510697517
0.359819695418056,-0.269728542429382
0.367931719737418,-0.273801093876468
0.376047908902401,-0.277948571310247
0.384167953479722,-0.28217138100219
0.392291544036101,-0.286469929223769
0.400418371138255,-0.290844622246455
0.408548125352902,-0.29529586634172
0.41668049724676,-0.299824067781035
0.424815177386547,-0.304429632835873
0.43295185633898,-0.309112967777704
0.441090224670779,-0.313874478878
0.449229972948661,-0.318714572408233
0.457370791739343,-0.323633654639874
0.465512371609544,-0.328632131844394
0.473654403125983,-0.333710410293266
0.481796576855376,-0.338868896257961
0.489938583364442,-0.344107996009951
0.498080113219898,-0.349428115820706
0.506220856988464,-0.354829661961698
0.514360505236855,-0.3603130407044
0.522498748531792,-0.365878658320282
0.530635277439992,-0.371526921080816
0.538769782528172,-0.377258235257474
0.546901954363051,-0.383073007121727
0.555031483511346,-0.388971642945047
0.563158060539777,-0.394954548998905
0.571281376015059,-0.401022131554774
0.579401120503912,-0.407174796884123
0.587516984573055,-0.413412951258425
0.595628658789203,-0.419737000949152
0.603735833719076,-0.426147352227775
0.611838199929391,-0.432644411365765
0.619935447986868,-0.439228584634595
0.628027268458222,-0.445900278305735
0.636113351910173,-0.452659898650658
0.644193388909438,-0.459507851940834
0.652267070022736,-0.466444544447736
0.660334085816784,-0.473470382442834
0.6683941268583,-0.480585772197601
0.676446883714003,-0.487791119983507
0.68449204695061,-0.495086832072026
0.692529307134839,-0.502473314734627
0.700558354833409,-0.509950974242783
0.708578880613037,-0.517520216867965
0.716590575040441,-0.525181448881645
0.724593128682339,-0.532935076555294
0.73258623210545,-0.540781506160384
0.740569575876491,-0.548721143968386
0.74854285056218,-0.556754396250772
0.756505746729235,-0.564881669279013
0.764457954944374,-0.573103369324582
0.772399165774316,-0.581419902658948
0.780329069785777,-0.589831675553586
0.788247357545477,-0.598339094279964
0.796153719620132,-0.606942565109556
0.804047846576462,-0.615642494313832
0.811929428981183,-0.624439288164265
0.819798157401015,-0.633333352932326
0.827653722402674,-0.642325094889485
0.83549581455288,-0.651414920307216
0.843324124418349,-0.660603235456989
0.8511383425658,-0.669890446610276
0.858938159561952,-0.679276960038549
0.866723265973521,-0.688763182013279
0.874493352367226,-0.698349518805937
0.882248109309784,-0.708036376687996
0.889987227367915,-0.717824161930926
0.897710397108335,-0.727713280806199
0.905417309097763,-0.737704139585288
0.913107653902917,-0.747797144539663
0.920781122090514,-0.757992701940795
0.928437404227273,-0.768291218060157
0.936076190879913,-0.77869309916922
0.943697172615149,-0.789198751539456
0.951300039999701,-0.799808581442336
0.958884483600287,-0.810522995149331
0.966450193983625,-0.821342398931914
