0.0931730610084986,0.91612951450381
-0.867163828581992,-0.9142536295598
0.76999554365751,0.204649943892362
0.532292569835881,0.668744722829264
0.294589596014251,1.13283950176617
-0.0919828979453066,-0.718610480684779
-0.503371606627341,0.38231811285263
-0.914760315309376,1.48324670639004
0.711388409546875,-0.595396946138717
-0.708860878271851,0.953312001091888
