0.0926694201946487,-0.0753886315532248
0.088139672088509,-0.0759044806082579
0.0836491853482451,-0.0763838121211771
0.0791977737559363,-0.076826857707966
0.0747852510936618,-0.077233848984608
0.0704114311435009,-0.0776050175670866
0.0660761276875327,-0.0779405950713853
0.0617791545078366,-0.0782408131134875
0.0575203253864918,-0.0785059033093767
0.0532994541055775,-0.0787360972750364
0.049116354447173,-0.07893162662645
0.0449708401933575,-0.0790927229796011
0.0408627251262103,-0.079219617950473
0.0367918230278105,-0.0793125431550494
0.0327579476802375,-0.0793717302093135
0.0287609128655704,-0.079397410729249
0.0248005323658886,-0.0793898163308393
0.0208766199632712,-0.0793491786300678
0.0169889894397975,-0.079275729242918
0.0131374545775467,-0.0791696997853735
0.00932182915859817,-0.0790313218734176
0.00554192696503101,-0.0788608271230339
0.00179756177892449,-0.0786584471502057
-0.0019114526176421,-0.0784244135709167
-0.00558530244258957,-0.0781589580011502
-0.00922417391383864,-0.0778623120568898
-0.0128282532493101,-0.0775347073541189
-0.0163977266669247,-0.0771763755088209
-0.0199327803846032,-0.0767875481369794
-0.0234336006202663,-0.0763684568545778
-0.0269003735918348,-0.0759193332775996
-0.0303332855172295,-0.0754404090220282
-0.0337325226143712,-0.0749319157038472
-0.0370982711011805,-0.07439408493904
-0.0404307171955783,-0.0738271483435901
-0.0437300471154853,-0.0732313375334809
-0.0469964470788222,-0.072606884124696
-0.0502301033035099,-0.0719540197332188
-0.0534312020074691,-0.0712729759750327
-0.0565999294086205,-0.0705639844661213
-0.0597364717248848,-0.0698272768224679
-0.062841015174183,-0.0690630846600562
-0.0659137459744357,-0.0682716395948695
-0.0689548503435636,-0.0674531732428914
-0.0719645144994876,-0.0666079172201052
-0.0749429246601284,-0.0657361031424945
-0.0778902670434067,-0.0648379626260428
-0.0808067278672433,-0.0639137272867335
-0.0836924933495591,-0.06296362874055
-0.0865477497082746,-0.061987898603476
-0.0893726831613108,-0.0609867684914947
-0.0921674799265882,-0.0599604700205898
-0.0949323262220279,-0.0589092348067446
-0.0976674082655503,-0.0578332944659427
-0.100372912275076,-0.0567328806141675
-0.103049024468527,-0.0556082248674025
-0.105695931063822,-0.0544595588416312
-0.108313818278884,-0.053287114152837
-0.110902872331632,-0.0520911224170034
-0.113463279439988,-0.0508718152501139
-0.115995225821872,-0.0496294242681519
-0.118498897695204,-0.048364181087101
-0.120974481277907,-0.0470763173229445
-0.123422162787899,-0.0457660645916661
-0.125842128443104,-0.044433654509249
-0.12823456446144,-0.0430793186916769
-0.130599657060828,-0.0417032887549332
-0.132937592459191,-0.0403057963150013
-0.135248556874447,-0.0388870729878648
-0.137532736524519,-0.037447350389507
-0.139790317627326,-0.0359868601359115
-0.14202148640079,-0.0345058338430618
-0.144226429062831,-0.0330045031269413
-0.14640533183137,-0.0314830996035334
-0.148558380924328,-0.0299418548888217
-0.150685762559626,-0.0283810005987897
-0.152787662955183,-0.0268007683494208
-0.154864268328922,-0.0252013897566984
-0.156915764898763,-0.0235830964366061
-0.158942338882626,-0.0219461200051273
-0.160944176498433,-0.0202906920782455
-0.162921463964104,-0.0186170442719442
-0.16487438749756,-0.0169254082022068
-0.166803133316721,-0.0152160154850168
-0.168707887639509,-0.0134890977363577
-0.170588836683844,-0.0117448865722129
-0.172446166667646,-0.00998361360856598
-0.174280063808838,-0.00820551046140034
-0.176090714325339,-0.00641080874669948
-0.17787830443507,-0.00459974008044684
-0.179643020355952,-0.00277253607862594
-0.181385048305906,-0.00092942835722018
-0.183104574502852,0.000929351467786894
-0.184801785164711,0.00280357178041183
-0.186476866509405,0.00469300096467119
-0.188130004754853,0.00659740740458147
-0.189761386118976,0.00851655948415922
-0.191371196819696,0.0104502255874209
-0.192959623074933,0.0123981740983831
-0.194526851102608,0.0143601734010624
-0.196073067120641,0.0163359918794753
-0.197598457346954,0.0183253979176382
-0.199103207999466,0.0203281598995677
-0.200587505296099,0.0223440462092805
-0.202051535454774,0.0243728252307929
-0.203495484693412,0.0264142653481214
-0.204919539229932,0.0284681349452828
-0.206323885282256,0.0305342024062934
-0.207708709068305,0.0326122361151698
-0.209074196805999,0.0347020044559285
-0.210420534713259,0.036803275812586
-0.211747909008007,0.038915818569159
-0.213056505908161,0.0410394011096638
-0.214346511631645,0.0431737918181171
-0.215618112396377,0.0453187590785353
-0.216871494420279,0.047474071274935
-0.218106843921272,0.0496394967913327
-0.219324347117277,0.051814804011745
-0.220524190226213,0.0539997613201884
-0.221706559466003,0.0561941371006793
-0.222871641054566,0.0583976997372344
-0.224019621209824,0.0606102176138701
-0.225150686149697,0.062831459114603
-0.226265022092106,0.0650611926234497
-0.227362815254972,0.0672991865244265
-0.228444251856215,0.0695452092015502
-0.229509518113756,0.0717990290388371
-0.230558800245517,0.0740604144203038
-0.231592284469417,0.076329133729967
-0.232610157003378,0.0786049553518429
-0.23361260406532,0.0808876476699483
-0.234599811873164,0.0831769790682997
-0.235571966644831,0.0854727179309135
-0.236529254598242,0.0877746326418063
-0.237471861951317,0.0900824915849946
-0.238399974921977,0.0923960631444949
-0.239313779728143,0.0947151157043238
-0.240213462587735,0.0970394176484978
-0.241099209718675,0.0993687373610335
-0.241971207338883,0.101702843225947
-0.24282964166628,0.104041503627256
-0.243674698918787,0.106384486948976
-0.244506565314324,0.108731561575123
-0.245325427070812,0.111082495889715
-0.246131470406172,0.113437058276767
-0.246924881538325,0.115795017120297
-0.247705846685191,0.118156140804321
-0.248474552064691,0.120520197712855
-0.249231183894747,0.122886956229916
-0.249975928393278,0.125256184739521
-0.250708971778205,0.127627651625685
-0.25143050026745,0.130001125272426
-0.252140700078933,0.13237637406376
-0.252839757430574,0.134753166383703
-0.253527858540295,0.137131270616273
-0.254205189626017,0.139510455145485
-0.254871936905659,0.141890488355356
-0.255528286597143,0.144271138629903
-0.25617442491839,0.146652174353143
-0.25681053808732,0.14903336390909
-0.257436812321854,0.151414475681764
-0.258053433839913,0.153795278055179
-0.258660588859418,0.156175539413352
-0.259258463598288,0.1585550281403
-0.259847244274446,0.160933512620039
-0.260427117105812,0.163310761236587
-0.260998268310307,0.165686542373958
-0.261560884105851,0.168060624416171
-0.262115150710365,0.170432775747241
-0.262661254341769,0.172802764751185
-0.263199381217986,0.17517035981202
-0.263729717556935,0.177535329313762
-0.264252449576537,0.179897441640427
-0.264767763494713,0.182256465176032
-0.265275845529384,0.184612168304594
-0.26577688189847,0.18696431941013
-0.266271058819892,0.189312686876655
-0.266758562511572,0.191657039088186
-0.267239579191429,0.19399714442874
-0.267714295077385,0.196332771282333
-0.268182896387359,0.198663688032982
-0.268645569339274,0.200989663064703
-0.26910250015105,0.203310464761513
-0.269553875040607,0.205625861507429
-0.269999880225866,0.207935621686466
-0.270440701924749,0.210239513682642
-0.270876526355175,0.212537305879973
-0.271307539735066,0.214828766662476
-0.271733928282342,0.217113664414166
-0.272155878214924,0.219391767519061
-0.272573575750733,0.221662844361177
-0.27298720710769,0.223926663324531
-0.273396958503715,0.226182992793139
-0.273803016156729,0.228431601151017
-0.274205566284653,0.230672256782183
-0.274604795105408,0.232904728070653
-0.275000888836914,0.235128783400442
-0.275394033697092,0.237344191155569
-0.275784415903863,0.239550719720049
-0.276172221675148,0.241748137477898
-0.276557637228867,0.243936212813134
-0.276940848782941,0.246114714109773
-0.277322042555292,0.248283409751832
-0.277701404763839,0.250442068123326
-0.278079121626503,0.252590457608273
-0.278455379361206,0.254728346590688
-0.278830364185868,0.25685550345459
-0.279204262318409,0.258971696583993
-0.279577259976751,0.261076694362915
-0.279949543378814,0.263170265175372
-0.280321298742519,0.265252177405381
-0.280692712285787,0.267322199436958
-0.281063970226539,0.269380099654119
-0.281435258782694,0.271425646440882
-0.281806764172175,0.273458608181263
-0.282178672612902,0.275478753259278
-0.282551170322795,0.277485850058944
-0.282924443519775,0.279479666964277
-0.283298678421764,0.281459972359294
-0.283674061246681,0.283426534628011
-0.284050778212449,0.285379122154445
-0.284429015536986,0.287317503322613
-0.284808959438214,0.28924144651653
-0.285190796134055,0.291150720120215
-0.285574711842428,0.293045092517682
-0.285960892781254,0.294924332092949
-0.286349525168455,0.296788207230032
-0.286740795221951,0.298636486312947
-0.287134889159662,0.300468937725712
-0.287531993199509,0.302285329852342
-0.287932293559414,0.304085431076855
-0.288335976457297,0.305869009783266
-0.288743228111078,0.307635834355593
-0.289154234738679,0.309385673177851
-0.28956918255802,0.311118294634058
-0.289988257787023,0.312833467108229
-0.290411646643607,0.314530958984382
-0.290839535345693,0.316210538646533
-0.291272110111203,0.317871974478698
-0.291709557158056,0.319515034864895
-0.292152062704175,0.321139488189138
-0.292599812967479,0.322745102835446
-0.293052994165889,0.324331647187834
-0.293511792517327,0.325898889630319
-0.293976394239712,0.327446598546918
-0.294446985550966,0.328974542321647
-0.294923752669009,0.330482489338523
-0.295406881811762,0.331970207981562
-0.295896559197146,0.333437466634781
-0.296392971043082,0.334884033682196
-0.29689630356749,0.336309677507823
-0.297406742988291,0.33771416649568
-0.297924475523406,0.339097269029783
-0.298449687390756,0.340458753494148
-0.298982564808261,0.341798388272792
-0.299523293993842,0.343115941749731
-0.30007206116542,0.344411182308982
-0.300629052540916,0.345683878334562
-0.301194454338251,0.346933798210487
-0.301768452775344,0.348160710320773
-0.302351234070118,0.349364383049438
-0.302942984440492,0.350544584780497
-0.303543890104388,0.351701083897966
-0.304154137279726,0.352833648785864
-0.304773912184426,0.353942047828206
-0.305403401036411,0.355026049409008
-0.3060427900536,0.356085421912288
-0.306692265453915,0.357119933722062
-0.307352013455275,0.358129353222345
-0.308022220275603,0.359113448797156
-0.308703072132817,0.36007198883051
-0.309394755244841,0.361004741706423
-0.310097455829593,0.361911475808913
-0.310811360104995,0.362791959521996
-0.311536654288967,0.363645961229689
-0.312273524599431,0.364473249316007
-0.313022157254307,0.365273592164968
-0.313782738471516,0.366046758160588
-0.314555454468979,0.366792515686883
-0.315340491464616,0.367510633127871
-0.316138035676348,0.368200878867567
-0.316948273322096,0.368863021289989
-0.31777139061978,0.369496828779151
-0.318607573787323,0.370102069719073
-0.319457009042643,0.370678512493768
-0.320319882603662,0.371225925487256
-0.321196380688301,0.371744077083551
-0.32208668951448,0.37223273566667
-0.322990995300121,0.37269166962063
-0.323909484263143,0.373120647329447
-0.324842342621468,0.373519437177138
-0.325789756593017,0.37388780754772
-0.32675191239571,0.374225526825209
-0.327728996247468,0.374532363393621
-0.328721194366211,0.374808085636973
-0.329728692969862,0.375052461939282
-0.330751678276339,0.375265260684563
-0.331790336503564,0.375446250256834
-0.332844853869459,0.375595199040112
-0.333915416591943,0.375711875418412
-0.335002210888937,0.375796047775751
-0.336105422978362,0.375847484496146
-0.337225239078139,0.375865953963613
-0.338361845406189,0.375851224562169
-0.339515428180432,0.37580306467583
-0.340686173618789,0.375721242688613
-0.341874267939181,0.375605526984534
-0.343079897359529,0.375455685947611
-0.344303248097753,0.375271487961858
-0.345544506371774,0.375052701411294
-0.346803858399513,0.374799094679933
-0.348081490398891,0.374510436151794
-0.349377588587828,0.374186494210893
-0.350692339184246,0.373827037241245
-0.352025928406064,0.373431833626868
-0.353378542471204,0.373000651751778
-0.354750367597586,0.372533259999992
-0.356141590003132,0.372029426755526
-0.357552395905762,0.371488920402396
-0.358982971523396,0.37091150932462
-0.360433503073956,0.370296961906213
-0.361904176775362,0.369645046531193
-0.363395178845535,0.368955531583576
-0.364906695502396,0.368228185447377
-0.366438912963866,0.367462776506615
-0.367992017447864,0.366659073145305
-0.369566195172313,0.365816843747464
-0.371161632355133,0.364935856697108
-0.372778515214244,0.364015880378254
-0.374417029967568,0.363056683174919
-0.376077362833024,0.362058033471119
-0.377759700028535,0.36101969965087
-0.379464227772019,0.359941450098189
-0.3811911322814,0.358823053197093
-0.382940599774596,0.357664277331598
-0.38471281646953,0.356464890885721
-0.386507968584121,0.355224662243478
-0.38832624233629,0.353943359788886
-0.390167823943959,0.35262075190596
-0.392032899625047,0.351256606978719
-0.393921655597476,0.349850693391178
-0.395834278079167,0.348402779527353
-0.39777095328804,0.346912633771262
-0.399731867442015,0.345380024506921
-0.401717206759015,0.343804720118347
-0.403727157456959,0.342186488989555
-0.405761905753768,0.340525099504563
-0.407821637867363,0.338820320047386
-0.409906540015665,0.337071919002042
-0.412016798416594,0.335279664752548
-0.414152599288072,0.333443325682918
-0.416314128848019,0.331562670177171
-0.418501573314355,0.329637466619323
-0.420715118905002,0.327667483393389
-0.42295495183788,0.325652488883388
-0.42522125833091,0.323592251473334
-0.427514224602013,0.321486539547246
-0.42983403686911,0.319335121489138
-0.432180881350121,0.317137765683028
-0.434554944262967,0.314894240512933
-0.436956411825569,0.312604314362869
-0.439385470255848,0.310267755616851
-0.441842305771724,0.307884332658898
-0.444327104591118,0.305453813873025
-0.446840052931951,0.30297596764325
-0.449381337012144,0.300450562353587
-0.451951143049617,0.297877366388055
-0.454549657262291,0.295256148130669
-0.457177065868087,0.292586675965446
-0.459833555084926,0.289868718276403
-0.462519311130728,0.287102043447556
-0.465234520223414,0.284286419862922
-0.467979368580906,0.281421615906517
-0.470754042421123,0.278507399962357
-0.473558727961986,0.27554354041446
-0.476393611421417,0.272529805646842
-0.479258879017336,0.269465964043518
-0.482154716967663,0.266351783988507
-0.48508131149032,0.263187033865824
-0.488038848803228,0.259971482059486
-0.491027515124306,0.25670489695351
-0.494047496671476,0.253387046931911
-0.497098979662659,0.250017700378706
-0.500182150315775,0.246596625677913
-0.503297194848745,0.243123591213547
-0.50644429947949,0.239598365369626
-0.50962365042593,0.236020716530165
-0.512835433905987,0.23239041307918
-0.516079836137581,0.22870722340069
-0.519357043338633,0.22497091587871
-0.522667241727063,0.221181258897256
-0.526010617520793,0.217338020840346
-0.529387356937743,0.213440970091995
-0.532797646195834,0.209489875036221
-0.536241671512986,0.205484504057039
-0.539719619107121,0.201424625538467
-0.543231675196159,0.197310007864521
-0.546778025998021,0.193140419419217
-0.550358857730628,0.188915628586572
-0.5539743566119,0.184635403750602
-0.5539743566119,0.184635403750602
-0.557591545792758,0.180334186742161
-0.561177368391656,0.176046587663229
-0.564731890577818,0.171772627304516
-0.568255178520467,0.167512326456729
-0.571747298388827,0.163265705910578
-0.575208316352121,0.159032786456771
-0.578638298579571,0.154813588886018
-0.582037311240402,0.150608133989025
-0.585405420503836,0.146416442556503
-0.588742692539097,0.14223853537916
-0.592049193515408,0.138074433247705
-0.595324989601993,0.133924156952846
-0.598570146968074,0.129787727285291
-0.601784731782875,0.125665165035751
-0.604968810215619,0.121556490994933
-0.60812244843553,0.117461725953545
-0.61124571261183,0.113380890702298
-0.614338668913743,0.109314006031898
-0.617401383510493,0.105261092733056
-0.620433922571302,0.10122217159648
-0.623436352265393,0.0971972634128777
-0.626408738761991,0.0931863889729587
-0.629351148230318,0.0891895690674313
-0.632263646839597,0.0852068244870045
-0.635146300759053,0.0812381760223867
-0.637999176157907,0.0772836444642866
-0.640822339205384,0.073343250603413
-0.643615856070707,0.0694170152304745
-0.646379792923098,0.0655049591361798
-0.649114215931782,0.0616071031112376
-0.651819191265981,0.0577234679463565
-0.654494785094918,0.0538540744322453
-0.657141063587818,0.0499989433596126
-0.659758092913903,0.046158095519167
-0.662345939242397,0.0423315517016172
-0.664904668742522,0.0385193326976721
-0.667434347583503,0.0347214592980401
-0.669935041934561,0.03093795229343
-0.672406817964922,0.0271688324745505
-0.674849741843807,0.0234141206321102
-0.67726387974044,0.0196738375568178
-0.679649297824045,0.015948004039382
-0.682006062263844,0.0122366408705115
-0.684334239229062,0.00853976884091494
-0.686633894888921,0.00485740874130104
-0.688905095412644,0.00118958136237839
-0.691147906969454,-0.00246369250514433
-0.693362395728576,-0.00610239207055831
-0.695548627859233,-0.00972649654315503
-0.697706669530647,-0.0133359851322257
-0.699836586912041,-0.0169308370470617
-0.70193844617264,-0.0205110314969544
-0.704012313481666,-0.024076547691195
-0.706058255008343,-0.0276273648390749
-0.708076336921893,-0.0311634621498855
-0.710066625391541,-0.0346848188329179
-0.71202918658651,-0.0381914140974636
-0.713964086676022,-0.0416832271528139
-0.7158713918293,-0.0451602372082602
-0.71775116821557,-0.0486224234730936
-0.719603482004053,-0.0520697651566056
-0.721428399363972,-0.0555022414680874
-0.723225986464552,-0.0589198316168305
-0.724996309475015,-0.0623225148121261
-0.726739434564585,-0.0657102702632655
-0.728455427902484,-0.0690830771795401
-0.730144355657937,-0.0724409147702412
-0.731806284000166,-0.0757837622446601
-0.733441279098395,-0.0791115988120882
-0.735049407121846,-0.0824244036818167
-0.736630734239744,-0.085722156063137
-0.738185326621312,-0.0890048351653404
-0.739713250435772,-0.0922724201977183
-0.741214571852348,-0.0955248903695619
-0.742689357040263,-0.0987622248901626
-0.744137672168741,-0.101984402968812
-0.745559583407006,-0.1051914038148
-0.746955156924278,-0.10838320663742
-0.748324458889784,-0.111559790645963
-0.749667555472745,-0.114721135049718
-0.750984512842385,-0.117867219057979
-0.752275397167927,-0.120998021880037
-0.753540274618595,-0.124113522725182
-0.754779211363611,-0.127213700802706
-0.755992273572199,-0.1302985353219
-0.757179527413583,-0.133368005492056
-0.758341039056985,-0.136422090522465
-0.759476874671629,-0.139460769622418
-0.760587100426738,-0.142484022001207
-0.761671782491535,-0.145491826868122
-0.762730987035244,-0.148484163432456
-0.763764780227088,-0.1514610109035
-0.76477322823629,-0.154422348490544
-0.765756397232073,-0.157368155402881
-0.766714353383661,-0.160298410849801
-0.767647162860277,-0.163213094040596
-0.768554891831145,-0.166112184184557
-0.769437606465486,-0.168995660490976
-0.770295372932526,-0.171863502169144
-0.771128257401486,-0.174715688428351
-0.771936326041591,-0.177552198477891
-0.772719645022063,-0.180373011527053
-0.773478280512127,-0.183178106785129
-0.774212298681004,-0.185967463461411
-0.774921765697919,-0.188741060765189
-0.775606747732094,-0.191498877905756
-0.776267310952753,-0.194240894092402
-0.77690352152912,-0.196967088534418
-0.777515445630417,-0.199677440441097
-0.778103149425867,-0.202371929021729
-0.778666699084695,-0.205050533485606
-0.779206160776123,-0.207713233042019
-0.779721600669375,-0.21036000690026
-0.780213084933673,-0.212990834269619
-0.780680679738241,-0.215605694359388
-0.781124451252303,-0.218204566378858
-0.781544465645081,-0.220787429537321
-0.781940789085799,-0.223354263044068
-0.78231348774368,-0.22590504610839
-0.782662627787948,-0.228439757939579
-0.782988275387826,-0.230958377746926
-0.783290496712536,-0.233460884739722
-0.783569357931302,-0.235947258127259
-0.783824925213348,-0.238417477118828
-0.784057264727897,-0.24087152092372
-0.784266442644172,-0.243309368751226
-0.784452525131396,-0.245730999810639
-0.784615578358793,-0.248136393311249
-0.784755668495586,-0.250525528462347
-0.784872861710997,-0.252898384473225
-0.784967224174251,-0.255254940553174
-0.785038822054571,-0.257595175911486
-0.78508772152118,-0.259919069757451
-0.785113988743301,-0.262226601300362
-0.785117689890157,-0.264517749749509
-0.785098891130972,-0.266792494314184
-0.785057658634969,-0.269050814203679
-0.784994058571371,-0.271292688627283
-0.784908157109402,-0.27351809679429
-0.784800020418285,-0.275727017913989
-0.784669714667243,-0.277919431195673
-0.784517306025499,-0.280095315848633
-0.784342860662276,-0.282254651082159
-0.784146444746799,-0.284397416105545
-0.783928124448289,-0.286523590128079
-0.783687965935971,-0.288633152359055
-0.783426035379068,-0.290726082007764
-0.783142398946803,-0.292802358283495
-0.782837122808399,-0.294861960395542
-0.782510273133079,-0.296904867553196
-0.782161916090067,-0.298931058965747
-0.781792117848587,-0.300940513842486
-0.781400944577861,-0.302933211392707
-0.780988462447111,-0.304909130825699
-0.780554737625563,-0.306868251350753
-0.78009983628244,-0.308810552177162
-0.779623824586963,-0.310736012514217
-0.779126768708357,-0.312644611571209
-0.778608734815845,-0.314536328557428
-0.77806978907865,-0.316411142682168
-0.777509997665996,-0.318269033154718
-0.776929426747106,-0.320109979184371
-0.776328142491202,-0.321933959980417
-0.775706211067509,-0.323740954752147
-0.775063698645249,-0.325530942708855
-0.774400671393646,-0.327303903059829
-0.773717195481923,-0.329059815014362
-0.773013337079303,-0.330798657781746
-0.772289162355011,-0.332520410571271
-0.771544737478267,-0.334225052592229
-0.770780128618297,-0.335912563053911
-0.769995401944324,-0.337582921165608
-0.76919062362557,-0.339236106136612
-0.768365859831259,-0.340872097176215
-0.767521176730614,-0.342490873493706
-0.76665664049286,-0.344092414298379
-0.765772317287217,-0.345676698799523
-0.764868273282911,-0.347243706206431
-0.763944574649164,-0.348793415728394
-0.763001287555199,-0.350325806574702
-0.762038478170241,-0.351840857954648
-0.761056212663511,-0.353338549077523
-0.760054557204234,-0.354818859152617
-0.759033577961633,-0.356281767389223
-0.75799334110493,-0.357727252996632
-0.75693391280335,-0.359155295184135
-0.755855359226115,-0.360565873161023
-0.754757746542449,-0.361958966136587
-0.753641140921575,-0.36333455332012
-0.752505608532716,-0.364692613920911
-0.751351215545095,-0.366033127148254
-0.750178028127937,-0.367356072211438
-0.748986112450464,-0.368661428319755
-0.747775534681898,-0.369949174682497
-0.746546360991465,-0.371219290508955
-0.745298657548386,-0.37247175500842
-0.744032490521886,-0.373706547390184
-0.742747926081187,-0.374923646863538
-0.741445030395512,-0.376123032637772
-0.740123869634086,-0.377304683922179
-0.738784509966131,-0.37846857992605
-0.73742701756087,-0.379614699858676
-0.736051458587527,-0.380743022929349
-0.734657899215325,-0.38185352834736
-0.733246405613488,-0.382946195321999
-0.731817043951238,-0.384021003062559
-0.730369880397798,-0.385077930778331
-0.728904981122394,-0.386116957678606
-0.727422412294246,-0.387138062972675
-0.725922240082579,-0.38814122586983
-0.724404530656616,-0.389126425579362
-0.72286935018558,-0.390093641310562
-0.721316764838695,-0.391042852272722
-0.719746840785183,-0.391974037675134
-0.718159644194268,-0.392887176727087
-0.716555241235174,-0.393782248637874
-0.714933698077123,-0.394659232616786
-0.713295080889339,-0.395518107873115
-0.711639455841045,-0.396358853616151
-0.709966889101464,-0.397181449055186
-0.70827744683982,-0.397985873399512
-0.706571195225336,-0.398772105858418
-0.704848200427235,-0.399540125641198
-0.70310852861474,-0.400289911957143
-0.701352245957076,-0.401021444015542
-0.699579418623464,-0.401734701025689
-0.697790112783128,-0.402429662196874
-0.695984394605292,-0.403106306738389
-0.694162330259178,-0.403764613859524
-0.692323985914011,-0.404404562769571
-0.690469427739013,-0.405026132677823
-0.688598721903407,-0.405629302793568
-0.686711934576418,-0.406214052326101
-0.684809131927267,-0.40678036048471
-0.682890380125179,-0.407328206478689
-0.680955745339377,-0.407857569517327
-0.679005293739083,-0.408368428809917
-0.677039091493522,-0.40886076356575
-0.675057204771916,-0.409334552994117
-0.673059699743489,-0.409789776304309
-0.671046642577463,-0.410226412705619
-0.669018099443063,-0.410644441407336
-0.666974136509512,-0.411043841618752
-0.664914819946032,-0.41142459254916
-0.662840215921848,-0.411786673407849
-0.660750390606182,-0.412130063404112
-0.658645410168257,-0.412454741747239
-0.656525340777298,-0.412760687646523
-0.654390248602526,-0.413047880311254
-0.652240199813166,-0.413316298950723
-0.650075260578441,-0.413565922774223
-0.647895497067573,-0.413796730991044
-0.645700975449787,-0.414008702810477
-0.643491761894305,-0.414201817441814
-0.641267922570352,-0.414376054094347
-0.639029523647149,-0.414531391977366
-0.63677663129392,-0.414667810300164
-0.634509311679889,-0.41478528827203
-0.632227630974279,-0.414883805102257
-0.629931655346313,-0.414963340000136
-0.627621450965214,-0.415023872174958
-0.625297084000207,-0.415065380836015
-0.622958620620512,-0.415087845192598
-0.620606126995356,-0.415091244453998
-0.618239669293959,-0.415075557829506
-0.615859313685547,-0.415040764528414
-0.613465126339341,-0.414986843760013
-0.611057173424566,-0.414913774733595
-0.608635521110444,-0.414821536658451
-0.606200235566199,-0.414710108743872
-0.603751382961054,-0.414579470199149
-0.601289029464232,-0.414429600233574
-0.598813241244957,-0.414260478056438
-0.596324084472452,-0.414072082877033
-0.59382162531594,-0.413864393904649
-0.591305929944645,-0.413637390348579
-0.588777064527789,-0.413391051418112
-0.586235095234596,-0.413125356322542
-0.58368008823429,-0.412840284271158
-0.581112109696092,-0.412535814473253
-0.578531225789228,-0.412211926138118
-0.57593750268292,-0.411868598475044
-0.573331006546391,-0.411505810693322
-0.570711803548864,-0.411123542002243
-0.568079959859564,-0.4107217716111
-0.565435541647712,-0.410300478729183
-0.562778615082533,-0.409859642565783
-0.56010924633325,-0.409399242330193
-0.557427501569085,-0.408919257231703
-0.554733446959263,-0.408419666479604
-0.552027148673006,-0.407900449283189
-0.549308672879538,-0.407361584851747
-0.546578085748082,-0.406803052394572
-0.543835453447861,-0.406224831120953
-0.541080842148099,-0.405626900240182
-0.538314318018019,-0.405009238961551
-0.535535947226843,-0.40437182649435
-0.532745795943796,-0.403714642047872
-0.529943930338101,-0.403037664831408
-0.52713041657898,-0.402340874054248
-0.524305320835658,-0.401624248925684
-0.521468709277357,-0.400887768655008
-0.518620648073301,-0.400131412451511
-0.515761203392713,-0.399355159524484
-0.512890441404816,-0.398558989083218
-0.510008428278833,-0.397742880337005
-0.507115230183988,-0.396906812495136
-0.504210913289505,-0.396050764766903
-0.501295543764605,-0.395174716361596
-0.498369187778513,-0.394278646488508
-0.495431911500452,-0.393362534356928
-0.492483781099646,-0.39242635917615
-0.489524862745316,-0.391470100155464
-0.486555222606687,-0.390493736504161
-0.483574926852983,-0.389497247431532
-0.480584041653425,-0.38848061214687
-0.477582633177238,-0.387443809859465
-0.474570767593644,-0.386386819778608
-0.471548511071868,-0.385309621113592
-0.468515929781132,-0.384212193073707
-0.465473089890659,-0.383094514868244
-0.462420057569673,-0.381956565706496
-0.459356898987397,-0.380798324797753
-0.456283680313055,-0.379619771351306
-0.453200467715869,-0.378420884576447
-0.450107327365063,-0.377201643682468
-0.44700432542986,-0.375962027878659
-0.443891528079484,-0.374702016374312
-0.440769001483158,-0.373421588378718
-0.437636811810104,-0.372120723101169
-0.434495025229546,-0.370799399750955
-0.431343707910709,-0.369457597537369
-0.428182926022813,-0.368095295669701
-0.425012745735084,-0.366712473357244
-0.421833233216745,-0.365309109809287
-0.418644454637017,-0.363885184235123
-0.415446476165126,-0.362440675844042
-0.412239363970294,-0.360975563845337
-0.409023184221744,-0.359489827448298
-0.4057980030887,-0.357983445862217
-0.402563886740385,-0.356456398296385
-0.399320901346022,-0.354908663960093
-0.396069113074834,-0.353340222062633
-0.392808588096045,-0.351751051813297
-0.389539392578878,-0.350141132421374
-0.386261592692557,-0.348510443096158
-0.382975254606304,-0.346858963046938
-0.379680444489343,-0.345186671483007
-0.376377228510896,-0.343493547613655
-0.373065672840189,-0.341779570648175
-0.369745843646443,-0.340044719795856
-0.366417807098881,-0.338288974265992
-0.363081629366728,-0.336512313267872
-0.359737376619207,-0.334714716010789
-0.35638511502554,-0.332896161704033
-0.353024910754951,-0.331056629556896
-0.349656829976663,-0.32919609877867
-0.3462809388599,-0.327314548578645
-0.342897303573884,-0.325411958166113
-0.33950599028784,-0.323488306750365
-0.33610706517099,-0.321543573540693
-0.332700594392557,-0.319577737746388
-0.329286644121766,-0.317590778576741
-0.325865280527838,-0.315582675241043
-0.322436569779998,-0.313553406948586
-0.319000578047469,-0.311502952908662
-0.315557371499473,-0.309431292330561
-0.312107016305235,-0.307338404423575
-0.308649578633977,-0.305224268396994
-0.305185124654922,-0.303088863460112
-0.301713720537295,-0.300932168822218
-0.298235432450318,-0.298754163692605
-0.294750326563215,-0.296554827280562
-0.291258469045209,-0.294334138795383
-0.287759926065522,-0.292092077446357
-0.284254763793379,-0.289828622442778
-0.280743048398003,-0.287543752993934
-0.277224846048616,-0.285237448309119
-0.273700222914443,-0.282909687597623
-0.270169245164706,-0.280560450068738
-0.266631978968628,-0.278189714931755
-0.263088490495434,-0.275797461395966
-0.259538845914346,-0.273383668670661
-0.255983111394588,-0.270948315965132
-0.252421353105382,-0.26849138248867
-0.248853637215952,-0.266012847450567
-0.245280029895522,-0.263512690060114
-0.241700597313314,-0.260990889526602
-0.238115405638552,-0.258447425059323
-0.234524521040459,-0.255882275867568
-0.230928009688259,-0.253295421160628
-0.227325937751174,-0.250686840147795
-0.223718371398428,-0.248056512038359
-0.220105376799244,-0.245404416041613
-0.216487020122846,-0.242730531366847
-0.212863367538457,-0.240034837223354
-0.209234485215299,-0.237317312820423
-0.205600439322597,-0.234577937367347
-0.201961296029573,-0.231816690073417
-0.201961296029573,-0.231816690073417
-0.198347149816452,-0.229056246289101
-0.194787867553595,-0.226319181006116
-0.191283173995428,-0.223605322895624
-0.187832793896382,-0.220914500628788
-0.184436452010884,-0.218246542876769
-0.181093873093362,-0.215601278310729
-0.177804781898245,-0.212978535601831
-0.174568903179961,-0.210378143421238
-0.171385961692939,-0.207799930440111
-0.168255682191606,-0.205243725329613
-0.165177789430391,-0.202709356760905
-0.162152008163722,-0.200196653405151
-0.159178063146028,-0.197705443933512
-0.156255679131737,-0.195235557017151
-0.153384580875277,-0.192786821327229
-0.150564493131076,-0.19035906553491
-0.147795140653563,-0.187952118311355
-0.145076248197166,-0.185565808327727
-0.142407540516314,-0.183199964255188
-0.139788742365434,-0.180854414764899
-0.137219578498955,-0.178528988528025
-0.134699773671305,-0.176223514215725
-0.132229052636913,-0.173937820499164
-0.129807140150206,-0.171671736049502
-0.127433760965614,-0.169425089537903
-0.125108639837564,-0.167197709635528
-0.122831501520485,-0.164989425013541
-0.120602070768805,-0.162800064343102
-0.118420072336952,-0.160629456295374
-0.116285230979355,-0.15847742954152
-0.114197271450442,-0.156343812752702
-0.112155918504641,-0.154228434600082
-0.11016089689638,-0.152131123754822
-0.108211931380089,-0.150051708888085
-0.106308746710194,-0.147990018671032
-0.104451067641125,-0.145945881774827
-0.102638618927309,-0.14391912687063
-0.100871125323176,-0.141909582629605
-0.0991483115831526,-0.139917077722914
-0.097469902461668,-0.137941440821719
-0.0958356227131503,-0.135982500597182
-0.0942451970920277,-0.134040085720465
-0.0926983503527287,-0.132114024862732
-0.0911948072496815,-0.130204146695143
-0.0897342925373144,-0.128310279888861
-0.0883165309700556,-0.126432253115049
-0.0869412473023335,-0.124569895044868
-0.0856081662885764,-0.122723034349481
-0.0843170126832126,-0.120891499700051
-0.0830675112406703,-0.119075119767739
-0.081859386715378,-0.117273723223707
-0.0806923638617637,-0.115487138739119
-0.0795661674342561,-0.113715194985135
-0.0784805221872831,-0.111957720632919
-0.0774351528752732,-0.110214544353633
-0.0764297842526547,-0.108485494818438
-0.0754641410738559,-0.106770400698497
-0.0745379480933049,-0.105069090664973
-0.0736509300654303,-0.103381393389028
-0.0728028117446602,-0.101707137541823
-0.071993317885423,-0.100046151794521
-0.0712221732421469,-0.098398264818285
-0.0704891025692603,-0.0967633052842762
-0.0697938306211914,-0.0951411018636572
-0.0691360821523686,-0.0935314832275903
-0.0685155819172201,-0.0919342780472377
-0.0679320546701743,-0.0903493149937616
-0.0673852251656594,-0.0887764227383244
-0.0668748181581038,-0.0872154299520881
-0.0664005584019357,-0.0856661653062151
-0.0659621706515834,-0.0841284574718676
-0.0655593796614752,-0.0826021351202079
-0.0651919101860396,-0.0810870269223982
-0.0648594869797046,-0.0795829615496007
-0.0645618347968986,-0.0780897676729777
-0.06429867839205,-0.0766072739636914
-0.064069742519587,-0.0751353090929042
-0.0638747519339379,-0.0736737017317781
-0.0637134313895311,-0.0722222805514754
-0.0635855056407947,-0.0707808742231585
-0.0634906994421572,-0.0693493114179896
-0.0634287375480468,-0.0679274208071308
-0.0633993447128918,-0.0665150310617445
-0.0634022456911205,-0.0651119708529929
-0.0634371652371613,-0.0637180688520382
-0.0635038281054423,-0.0623331537300426
-0.0636019590503919,-0.0609570541581684
-0.0637312828264385,-0.0595895988075779
-0.0638915241880102,-0.0582306163494333
-0.0640824078895355,-0.0568799354548968
-0.0643036586854425,-0.0555373847951307
-0.0645550013301596,-0.0542027930412973
-0.0648361605781152,-0.0528759888645587
-0.0651468611837374,-0.0515568009360772
-0.0654868279014546,-0.0502450579270151
-0.0658557854856951,-0.0489405885085346
-0.0662534586908871,-0.0476432213517979
-0.0666795722714591,-0.0463527851279673
-0.0671338509818392,-0.045069108508205
-0.0676160195764559,-0.0437920201636734
-0.0681258028097373,-0.0425213487655345
-0.0686629254361117,-0.0412569229849507
-0.0692271122100076,-0.0399985714930842
-0.0698180878858531,-0.0387461229610972
-0.0704355772180766,-0.037499406060152
-0.0710793049611063,-0.0362582494614109
-0.0717489958693706,-0.035022481836036
-0.0724443746972978,-0.0337919318551897
-0.0731651661993162,-0.0325664281900341
-0.073911095129854,-0.0313457995117315
-0.0746818862433395,-0.0301298744914442
-0.0754772642942011,-0.0289184818003344
-0.0762969540368671,-0.0277114501095643
-0.0771406802257657,-0.0265086080902962
-0.0780081676153253,-0.0253097844136923
-0.0788991409599741,-0.0241148077509149
-0.0798133250141405,-0.0229235067731262
-0.0807504445322527,-0.0217357101514885
-0.0817102242687391,-0.0205512465571639
-0.0826923889780278,-0.0193699446613148
-0.0836966634145474,-0.0181916331351034
-0.0847227723327259,-0.0170161406496919
-0.0857704404869918,-0.0158432958762426
-0.0868393926317734,-0.0146729274859177
-0.0879293535214988,-0.0135048641498795
-0.0890400479105965,-0.0123389345392901
-0.0901712005534947,-0.0111749673253119
-0.0913225362046218,-0.0100127911791071
-0.0924937796184059,-0.00885223477183794
-0.0936846555492755,-0.00769312677466662
-0.0948948887516588,-0.00653529585875544
-0.0961242039799841,-0.00537857069526664
-0.0973723259886797,-0.00422277995536244
-0.098638979532174,-0.00306775231020507
-0.0999238893648951,-0.0019133164309568
-0.101226780241271,-0.000759300988779875
-0.00604194112681064,-0.114249625882391
0.0123269078593351,-0.106918872082576
-0.0138622512643577,-0.112122118948742
-0.106612649271895,0.00385598298596961
-0.220249224088994,-0.105995606479092
-0.00297887278553607,0.119026397972618
-0.110827364970229,0.00732142649083276
-0.227972151150441,-0.106005581744228
-0.00355617781603418,-0.100717662307261
-0.00613876971459439,0.127331116458856
-0.227950976809557,0.131883004523411
-0.017736893224008,-0.0915796661284155
-0.00114862594489704,-0.0869464780957221
-0.121201124574184,0.0154487134583504
-0.218427847647717,-0.0970859356414139
-0.233101139105225,-0.078868198602533
-0.233945100399489,0.129312384465694
-0.0284610725478946,0.133189009695298
-0.0280250173874544,0.113336505860448
-0.241042221953772,-0.0731400280672717
-0.0259541941554466,-0.0688140953828831
-0.133882486529194,0.0248694377276836
-0.135522973631851,0.0260610698764406
-0.137174835884442,0.0272563934802324
-0.138837798041395,0.0284555798678968
-0.0424353437320325,0.126420541958424
-0.256071153843129,-0.0714895075720999
-0.263421527710385,-0.0796950258572833
-0.0486249013216022,-0.0681717490554394
-0.0419043715085791,0.127488818845033
-0.149033255222716,0.0357414110701217
-0.1507662098342,0.0369724341523513
-0.152508062385474,0.0382086906491555
-0.154258537630965,0.0394503518893722
-0.156017360325101,0.040697589201839
-0.157784255222311,0.0419505739153936
-0.159558947077024,0.043209477358874
-0.161341160643667,0.0444744708611177
-0.163130620676669,0.0457457257509627
-0.164927051930458,0.0470234133572465
-0.166730179159463,0.048307705008807
-0.168539727118111,0.049598772034482
-0.170355420560831,0.0508967857631091
-0.172176984242052,0.0522019175235263
-0.174004142916201,0.0535143386445711
-0.175836621337707,0.0548342204550813
-0.177674144260998,0.0561617342838949
-0.179516436440503,0.0574970514598494
-0.18136322263065,0.0588403433117826
-0.183214227585867,0.0601917811685323
-0.185069176060582,0.0615515363589363
-0.186927792809224,0.0629197802118322
-0.188789802586221,0.0642966840560579
-0.190654930146001,0.0656824192204512
-0.192522900242993,0.0670771570338497
-0.194393437631624,0.0684810688250913
-0.196266267066324,0.0698943259230136
-0.198141113301521,0.0713170996564545
-0.200017701091642,0.0727495613542516
-0.201895755191116,0.0741918823452429
-0.203775000354372,0.0756442339582659
-0.205655161335837,0.0771067875221586
-0.20753596288994,0.0785797143657585
-0.20941712977111,0.0800631858179035
-0.211298386733774,0.0815573732074314
-0.213179458532361,0.0830624478631799
-0.2150600699213,0.0845785811139868
-0.216939945655017,0.0861059442886896
-0.218818810487943,0.0876447087161265
-0.220696389174504,0.0891950457251349
-0.22257240646913,0.0907571266445527
-0.224446587126249,0.0923311228032176
-0.226318655900288,0.0939172055299675
-0.228188337545677,0.0955155461536399
-0.230055356816844,0.0971263160030728
-0.231919438468216,0.0987496864071039
-0.233780307254222,0.100385828694571
-0.235637687929291,0.102034914194311
-0.237491305247851,0.103697114235164
-0.239340883964329,0.105372600145965
-0.241186148833155,0.107061543255553
-0.243026824608757,0.108764114892766
-0.244862636045563,0.110480486386441
-0.246693307898001,0.112210829065417
-0.248518564920499,0.11395531425853
-0.250338131867486,0.11571411329462
-0.252151733493391,0.117487397502523
-0.25395909455264,0.119275338211076
-0.255759939799664,0.12107810674912
-0.257553993988889,0.122895874445489
-0.259340981874745,0.124728812629024
-0.26112062821166,0.12657709262856
-0.262892657754061,0.128440885772937
-0.264656795256378,0.130320363390991
-0.266412765473038,0.132215696811561
-0.26816029315847,0.134127057363484
-0.269899103067102,0.136054616375598
-0.271628919953363,0.137998545176741
-0.27334946857168,0.139959015095751
-0.275060473676483,0.141936197461465
-0.276761660022198,0.143930263602721
-0.278452752363255,0.145941384848357
-0.280133475454082,0.14796973252721
-0.281803554049108,0.150015477968119
-0.283462712902759,0.152078792499921
-0.285110676769466,0.154159847451453
-0.286747170403656,0.156258814151555
-0.288371918559757,0.158375863929062
-0.289984645992198,0.160511168112814
-0.291585077455406,0.162664898031648
-0.293172937703812,0.164837225014401
-0.294747951491841,0.167028320389912
-0.296309843573924,0.169238355487018
-0.297858338704487,0.171467501634557
-0.299393161637961,0.173715930161366
-0.300914037128772,0.175983812396284
-0.302420689931349,0.178271319668148
-0.30391284480012,0.180578623305796
-0.305390226489514,0.182905894638066
-0.306852559753959,0.185253304993795
-0.308299569347884,0.187621025701822
-0.309730980025716,0.190009228090983
-0.311146516541884,0.192418083490117
-0.312545903650816,0.194847763228062
-0.31392886610694,0.197298438633655
-0.315295128664685,0.199770281035733
-0.316644416078479,0.202263461763136
-0.317976453102751,0.2047781521447
-0.319290964491928,0.207314523509263
-0.320587675000439,0.209872747185663
-0.321866309382713,0.212452994502739
-0.323126592393177,0.215055436789326
-0.32436824878626,0.217680245374264
-0.32559100331639,0.22032759158639
-0.326794580737995,0.222997646754542
-0.327978705805505,0.225690582207557
-0.329143103273346,0.228406569274274
-0.330287497895947,0.231145779283529
-0.331411614427738,0.233908383564162
-0.332515177623145,0.236694553445009
-0.333597912236597,0.239504460254909
-0.334659543022523,0.242338275322698
-0.335699794735351,0.245196169977215
-0.336718392129508,0.248078315547298
-0.337715059959425,0.250984883361785
-0.338689522979528,0.253916044749512
-0.339641505944246,0.256871971039319
-0.340570733608007,0.259852833560042
-0.34147693072524,0.262858803640519
-0.342359822050373,0.265890052609589
-0.343219132337834,0.268946751796088
-0.344054586342052,0.272029072528855
-0.344865908817454,0.275137186136728
-0.345652824518469,0.278271263948543
-0.346415058199526,0.28143147729314
-0.347152334615053,0.284617997499355
-0.347864378519478,0.287830995896027
-0.348550914667228,0.291070643811993
-0.349211667812734,0.294337112576091
-0.349846362710422,0.297630573517158
-0.350454724114722,0.300951197964034
-0.351036476780061,0.304299157245554
-0.351591345460868,0.307674622690557
-0.352119054911571,0.311077765627881
-0.352619329886598,0.314508757386364
-0.353091895140378,0.317967769294843
-0.353536475427339,0.321454972682155
-0.35395279550191,0.32497053887714
-0.354340580118517,0.328514639208634
-0.354699554031591,0.332087445005475
-0.355029441995559,0.335689127596502
-0.355329968764849,0.339319858310551
-0.35560085909389,0.342979808476461
-0.355841837737111,0.346669149423069
-0.356052629448938,0.350388052479213
-0.356232958983801,0.354136688973731
-0.356382551096129,0.357915230235461
-0.356501130540348,0.361723847593239
-0.356588422070888,0.365562712375905
-0.356644150442177,0.369431995912296
-0.356668040408643,0.373331869531249
-0.356659816724714,0.377262504561603
-0.35661920414482,0.381224072332195
-0.356545927423387,0.385216744171863
-0.356439711314845,0.389240691409444
-0.356300280573621,0.393296085373777
-0.356127359954144,0.397383097393699
-0.355920674210842,0.401501898798048
-0.355679948098144,0.405652660915661
-0.355404906370478,0.409835555075377
-0.355095273782272,0.414050752606033
-0.354750775087954,0.418298424836467
-0.354371135041954,0.422578743095516
-0.353956078398698,0.426891878712019
-0.353505329912615,0.431238003014814
-0.353018614338134,0.435617287332737
-0.352495656429683,0.440029902994627
-0.35193618094169,0.444476021329321
-0.351339912628584,0.448955813665658
-0.350706576244793,0.453469451332474
-0.350035896544744,0.458017105658609
-0.349327598282867,0.462598947972899
-0.34858140621359,0.467215149604182
-0.347797045091341,0.471865881881296
-0.346974239670548,0.476551316133078
-0.34611271470564,0.481271623688368
-0.345212194951044,0.486026975876001
-0.34427240516119,0.490817544024817
-0.343293070090505,0.495643499463652
-0.342273914493418,0.500505013521345
-0.341214663124357,0.505402257526734
-0.340115040737751,0.510335402808655
-0.338974772088027,0.515304620695947
-0.337793581929615,0.520310082517448
-0.336571195016941,0.525351959601995
-0.335307336104435,0.530430423278426
-0.334001729946525,0.535545644875579
-0.33265410129764,0.540697795722291
-0.331264174912206,0.545887047147401
-0.329831675544654,0.551113570479746
-0.32835632794941,0.556377537048164
-0.326837856880904,0.561679118181492
-0.325275987093564,0.567018485208569
-0.323670443341817,0.572395809458232
-0.322020950380093,0.577811262259319
-0.320327232962819,0.583265014940668
-0.318589015844424,0.588757238831116
-0.316806023779337,0.5942881052595
-0.314977981521985,0.599857785554661
-0.313104613826796,0.605466451045433
-0.3111856454482,0.611114273060657
-0.309220801140624,0.616801422929168
-0.307209805658496,0.622528071979805
-0.305152383756246,0.628294391541406
-0.303048260188301,0.634100552942808
-0.300897159709089,0.63994672751285
-0.29869880707304,0.645833086580369
-0.29645292703458,0.651759801474202
-0.294159244348139,0.657727043523188
-0.291817483768144,0.663734984056163
-0.289427370049025,0.669783794401968
-0.286988627945209,0.675873645889437
-0.284500982211124,0.682004709847411
-0.2819641576012,0.688177157604725
-0.279377878869863,0.694391160490219
-0.276741870771544,0.700646889832729
-0.274055858060669,0.706944516961094
-0.271319565491667,0.713284213204151
-0.268532717818966,0.719666149890738
-0.265695039796996,0.726090498349693
-0.262806256180183,0.732557429909854
-0.259866091722957,0.739067115900058
-0.256874271179745,0.745619727649143
-0.253830519304976,0.752215436485947
-0.250734560853078,0.758854413739307
-0.24758612057848,0.765536830738062
-0.24438492323561,0.772262858811049
-0.241130693578896,0.779032669287105
-0.237823156362766,0.78584643349507
-0.234462036341649,0.792704322763779
-0.231047058269973,0.799606508422072
-0.227577946902166,0.806553161798786
-0.224054426992657,0.813544454222758
