-0.863707069384241,0.00267570638841375
-0.858766783180313,0.00799653518667375
-0.853822824663775,0.0132403916335729
-0.848875299895381,0.0184076643474149
-0.843924314935882,0.0234987419465033
-0.838969975846031,0.0285140130491419
-0.834012388686579,0.0334538662736343
-0.829051659518279,0.0383186902382841
-0.824087894401883,0.0431088735613951
-0.819121199398144,0.0478248048612708
-0.814151680567812,0.0524668727562149
-0.809179443971641,0.0570354658645311
-0.804204595670383,0.0615309728045231
-0.79922724172479,0.0659537821944945
-0.794247488195614,0.0703042826527489
-0.789265441143606,0.07458286279759
-0.78428120662952,0.0787899112473216
-0.779294890714107,0.0829258166202472
-0.77430659945812,0.0869909675346704
-0.769316438922311,0.0909857526088951
-0.764324515167431,0.0949105604612247
-0.759330934254234,0.0987657797099631
-0.754335802243471,0.102551798973414
-0.749339225195893,0.10626900686988
-0.744341309172255,0.109917792017667
-0.739342160233307,0.113498543035076
-0.734341884439802,0.117011648540413
-0.729340587852492,0.12045749715198
-0.724338376532129,0.123836477488082
-0.719335356539466,0.127148978167021
-0.714331633935254,0.130395387807102
-0.709327314780245,0.133576095026629
-0.704322505135192,0.136691488443904
-0.699317311060848,0.139741956677232
-0.694311838617963,0.142727888344916
-0.68930619386729,0.14564967206526
-0.684300482869582,0.148507696456567
-0.67929481168559,0.151302350137142
-0.674289286376067,0.154034021725288
-0.669284013001765,0.156703099839308
-0.664279097623436,0.159309973097506
-0.659274646301832,0.161855030118187
-0.654270765097705,0.164338659519653
-0.649267560071808,0.166761249920207
-0.644265137284892,0.169123189938155
-0.63926360279771,0.1714248681918
-0.634263062671014,0.173666673299444
-0.629263622965556,0.175848993879392
-0.624265389742089,0.177972218549948
-0.619268469061364,0.180036735929415
-0.614272966984133,0.182042934636096
-0.609278989571149,0.183991203288296
-0.604286642883164,0.185881930504319
-0.594307265925199,0.189492315101044
-0.589320447776723,0.191212749718354
-0.584335684596255,0.192877197372702
-0.579353082444547,0.194486046682389
-0.57437274738235,0.196039686265721
-0.569394785470417,0.197538504741
-0.564419302769501,0.198982890726531
-0.559446405340353,0.200373232840617
-0.554476199243725,0.201709919701561
-0.549508790540369,0.202993339927668
-0.544544285291039,0.204223882137241
-0.539582789556485,0.205401934948583
-0.53462440939746,0.206527886979999
-0.529669250874717,0.207602126849792
-0.524717420049007,0.208625043176266
-0.514824165731695,0.210518459672469
-0.509882954361598,0.211389737078806
-0.504945494931543,0.212211245415039
-0.500011893502282,0.212983373299471
-0.495082256134567,0.213706509350405
-0.490156688889151,0.214381042186145
-0.485235297826786,0.215007360424996
-0.480318189008223,0.21558585268526
-0.470497242345514,0.216600913743243
-0.465593616622872,0.21703825977757
-0.460694697387042,0.217429334306525
-0.455800590698775,0.217774525948412
-0.450911402618824,0.218074223321534
-0.490668328265672,0.239302419837746
-0.436274410636387,0.218704236011351
-0.446630822259175,0.236755762493109
-0.459022355389932,0.211583740645666
-0.421685504315868,0.218938790541219
-0.416833716195187,0.218930909345492
-0.391631886166666,0.213365368327996
-0.420139573924859,0.200328599832013
-0.401643579605855,0.232140780126021
-0.401430352473749,0.231599261198392
-0.39266340322182,0.218263495897905
-0.396872578205227,0.205612918482744
-0.383038617393864,0.217710714575026
-0.376554594267244,0.242169130417336
-0.324309463833129,0.212697268634136
-0.413817115159566,0.218380843376085
-0.352970032353233,0.222668035380516
-0.359092425480103,0.215641424689476
-0.354323882324418,0.215112846531077
-0.349562485052845,0.214546935088291
-0.345576943025867,0.207391713489127
-0.357817518784503,0.217283359112792
-0.336127817995783,0.219194880085072
-0.326517291015847,0.206635640344394
-0.321096615099607,0.227883497285423
-0.342734634730818,0.193427567548819
-0.335373229998032,0.227750003526639
-0.324749461166869,0.251519600783505
-0.307048974417782,0.207837856325875
-0.308970688038346,0.190881814734132
-0.297689076791976,0.205969057282905
-0.288362853618717,0.20396957878096
-0.283712635103674,0.202921806278631
-0.279071153384023,0.20184252976647
-0.274438514520518,0.200732137862779
-0.269814824573911,0.199591019185863
-0.265200189604954,0.198419562354025
-0.260594715674398,0.197218155985569
-0.255998508842996,0.195987188698799
-0.251411675171501,0.194727049112017
-0.246834320720664,0.193438125843529
-0.242266551551237,0.192120807511637
-0.237708473723974,0.190775482734646
-0.233160193299625,0.189402540130858
-0.228621816338943,0.188002368318578
-0.224093448902681,0.186575355916108
-0.219575197051589,0.185121891541754
-0.215067166846421,0.183642363813818
-0.210569464347929,0.182137161350605
-0.206082195616865,0.180606672770417
-0.20160546671398,0.179051286691559
-0.197139383700028,0.177471391732333
-0.188239579581928,0.174239629645997
-0.183806070599285,0.172588539755493
-0.174972369090573,0.169217885371332
-0.170572388686008,0.167499098114282
-0.166183796595641,0.165758522304991
-0.157441201600507,0.1622135595029
-0.153087410817244,0.160409949746707
-0.148745432591187,0.158586105911488
-0.144415372983088,0.156742416615545
-0.140097338053699,0.154879270477184
-0.135791433863772,0.152997056114706
-0.13149776647406,0.151096162146417
-0.127216441945315,0.149176977190619
-0.122947566338288,0.147239889865617
-0.118691245713732,0.145285288789713
-0.114447586132399,0.143313562581212
-0.110216693655041,0.141325099858418
-0.105998674342411,0.139320289239633
-0.10179363425526,0.137299519343162
-0.0976016794543414,0.135263178787309
-0.0934229160004062,0.133211656190376
-0.0851053873764958,0.129064619346488
-0.0809668343280251,0.12696988233614
-0.0727306810618132,0.122739914230155
-0.0604804241506015,0.116299556132507
-0.0564251555533678,0.114128882989527
-0.0523841389106395,0.111946913988505
-0.0483574802831689,0.109754037747744
-0.0403476613170088,0.105337118020221
-0.0363647130998237,0.103113851770065
-0.0323965471409048,0.100881232753386
-0.0284432695010042,0.0986396495884856
-0.0245049862408741,0.0963894908936686
-0.0205818034212666,0.0941311452872384
-0.016673827102934,0.0918650013874987
-0.0127811633466284,0.0895914478127531
-0.00890391821310171,0.0873108731813052
-0.00504219776310637,0.0850236661114588
-0.00119610805739451,0.0827302152215175
0.00263424484328176,0.080430909129785
0.00644875487817037,0.0781261364545648
0.0102473159865191,0.0758162858141606
0.0177961671805881,0.0711829051110154
0.0215462451448043,0.0688601522848814
0.0252799499394719,0.0665338759667781
0.0289971755038388,0.0642044647750092
0.0326978157771529,0.0618723073278784
0.036381764698662,0.0595377922436892
0.0400489162076139,0.0572013081407454
0.0436991642432566,0.0548632436373506
0.0473324027448378,0.0525239873518085
0.0509485256516055,0.0501839279024226
0.0581290004376913,0.0455029539853345
0.0616931401955053,0.0431628167542395
0.0687686941369143,0.0384851848384661
0.0722798961990049,0.0361484673903951
0.075773240241017,0.0338136671066059
0.0792486202021982,0.0314811726054023
0.0827059300217965,0.0291513725050879
0.0861450636390594,0.0268246554239665
0.0895659149932352,0.0245014099803416
0.0929683780235714,0.022182024792517
0.106392225691479,0.0129508589652939
0.109701156191335,0.0106566043310252
0.112991062002839,0.00836854166237885
0.116261837065239,0.00608705957765819
0.119513375317782,0.0038125466951671
0.122745570699716,0.00154539163320913
0.125958317150289,-0.000714016989911984
0.129151508608749,-0.00296529055589269
0.132325039014343,-0.00520804044642917
0.13547880230632,-0.00744187804321796
0.138612692423927,-0.00966641472795521
0.141726603306413,-0.0118812618823374
0.144820428893024,-0.0140860308880608
0.150947399935617,-0.0184637799803167
0.153980333270094,-0.0206359828302419
0.156992757065688,-0.0227965530582936
0.159984565261647,-0.0249451020461683
0.162955651797219,-0.0270812411755622
0.165905910611653,-0.0292045818281718
0.168835235644195,-0.0313147353856933
0.171743520834094,-0.0334113132298232
0.174630660120597,-0.0354939267422577
0.177496547442953,-0.0375621873046932
0.180341076740409,-0.0396157062988259
0.185965637017612,-0.0436769651089688
0.188745455875856,-0.0456839276883716
0.191503492466191,-0.0476745942262571
0.196953794600127,-0.0516054847042615
0.202315694933403,-0.0554665275965527
0.204963229272913,-0.0573698846522968
0.207588344980002,-0.0592546139567015
0.210190935993917,-0.0611203268914634
0.212770896253907,-0.0629666348382786
0.215328119699219,-0.0647931491788437
0.217862500269101,-0.0665994812948548
0.2203739319028,-0.0683852425680083
0.222862308539566,-0.0701500443800007
0.225327524118645,-0.0718934981125282
0.232583143902241,-0.0769918846502846
0.234954654643052,-0.078646059881916
0.237302474022416,-0.0802769439425641
0.239626495979581,-0.0818841482139255
0.241926614453794,-0.0834672840776963
0.246454716710357,-0.0865597961092519
0.250885932306088,-0.0895513710908016
0.253064942454261,-0.0910083356420651
0.255219412754969,-0.0924389000759161
0.257349237147461,-0.0938426757740511
0.261534523964786,-0.096568306489958
0.263589774268115,-0.0978893842711227
0.265619954420218,-0.0991821188433566
0.267624958360344,-0.100446121588356
0.271559013361656,-0.102886377123437
0.273487852301336,-0.104061852676912
0.275391090786031,-0.105207041929937
0.277268622754988,-0.10632155626421
0.279120342147454,-0.107405007061426
0.280946142902678,-0.108457005703282
0.282745918959907,-0.109477163571475
0.284519564258389,-0.1104650920477
0.286266972737372,-0.111420402513654
0.287988038336104,-0.112342706351034
0.289682654993833,-0.113231614941535
0.294606750713478,-0.115694083048733
0.296194510999672,-0.116445524468684
0.297755292041102,-0.117161627550239
0.299288987777015,-0.117842003675094
0.30079549214666,-0.118486264224945
0.302274699089285,-0.119094020581488
0.303726502544137,-0.11966488412642
0.305150796450464,-0.120198466241437
0.306547474747514,-0.120694378308235
0.307916431374535,-0.121152231708511
0.309257560270775,-0.121571637823962
0.310570755375481,-0.121952208036283
0.311855910627901,-0.12229355372717
0.313112919967283,-0.122595286278321
0.314341677332876,-0.122857017071431
0.316714011899683,-0.123258918910316
0.317857376979393,-0.123398312719482
0.318972065842304,-0.123496150297394
0.321114990674722,-0.123565602286237
0.322143014522725,-0.123536439460561
0.32314193791092,-0.123464165930416
0.325052059064881,-0.123188732283501
0.325963044709142,-0.122984794930124
0.327696335828464,-0.122442536072013
0.328518429182021,-0.122103437330672
0.330072981173166,-0.1212873581319
0.330805227689249,-0.120809600437862
0.331507313138004,-0.120284845856317
0.332179131458678,-0.119712705768963
0.333431542472775,-0.118424714603609
0.334011923044693,-0.117708086289002
0.334561612245521,-0.116942517995371
0.335568492290902,-0.115263006997819
0.336025471013949,-0.114348287057292
0.336451334122898,-0.113383072664525
0.336845975556997,-0.112366975201216
0.337209289255493,-0.11129960604906
0.337841509202669,-0.109009498204993
0.338110203329845,-0.107785982276475
0.33834714547841,-0.106509640185895
0.338552229587611,-0.105180083314951
0.338866399444916,-0.102359770758753
0.338975273071515,-0.100868237836892
0.339051864415742,-0.0993219356614519
0.339096067416845,-0.0977204756141282
0.339107776014071,-0.0960634690766177
0.33908688414667,-0.0943505274306166
0.339033285753888,-0.0925812620578214
0.338946874774973,-0.0907552843399283
0.338675190815737,-0.0869316373956339
0.338489705713911,-0.0849331909326252
0.338018918962084,-0.0807611089333669
0.337733405190578,-0.07858669616051
0.337414336407674,-0.0763528507144294
0.337061606552621,-0.0740591839768218
0.336675109564665,-0.0717053073293834
0.336254739383055,-0.0692908321538106
0.335800389947039,-0.0668153698317996
0.334789329068779,-0.0616799292752489
0.334232405505031,-0.0590191738041018
0.333641078443867,-0.0562958767133018
0.333015241824537,-0.0535096493845456
0.332354789586287,-0.0506601031995292
0.331659615668366,-0.0477468495399492
0.330929614010021,-0.0447694997875017
0.330164678550501,-0.0417276653238834
0.329364703229053,-0.0386209575307902
0.328529581984924,-0.0354489877899188
0.326753477485618,-0.0289077079916262
0.325812282108936,-0.0255376206975976
0.324835516566566,-0.0221007169825763
0.323823074797755,-0.0185966082282581
0.32277485074175,-0.0150249058163398
0.321690738337801,-0.0113852211285174
0.320570631525154,-0.0076771655464875
0.319414424243058,-0.00390035045194619
0.31822201043076,-5.43872265901003e-05
0.316993284027509,0.00386111274788474
0.315728138972551,0.00784653808978166
0.314426469205135,0.0119022774174047
0.313088168664509,0.0160287193490571
0.311713131289921,0.0202262525030429
0.30736653755486,0.033249285482036
0.3058434922369,0.0377350697083913
0.304283179781217,0.0422938882485979
0.301050329213674,0.0516321827437807
0.299377578980308,0.0564124359353641
0.29591889831063,0.0661970972980328
0.294132755752813,0.0712022827057254
0.292308603632008,0.0762832227553954
0.290446335887462,0.081440306065346
0.288545846458423,0.0866739212538812
0.28462977830386,0.0973723017399195
0.28462977830386,0.0973723017399195
0.282624628508534,0.102758081141257
0.280602272691964,0.10806244796823
0.27856284149767,0.113285831848217
0.276506465569175,0.118428662408594
0.274433275549998,0.12349136927674
0.270236975813689,0.133378130445847
0.268114127383598,0.138203044001564
0.263819686617152,0.147618085192213
0.261648355567839,0.152209072081899
0.257258125354641,0.161160126586885
0.255039487477798,0.16552105345694
0.24829105048855,0.178150588065881
0.243716296131999,0.186196869077932
0.234389579312738,0.201408716742246
0.232021743839681,0.205030702659738
0.22963970714637,0.20858115743255
0.227243599876326,0.212060510688061
0.22483355267307,0.215469192053647
0.212578790181868,0.231467557490931
0.210087846893292,0.234461229691901
0.207583878176154,0.23738723739459
0.205067014673975,0.240246010226376
0.18970235921224,0.256010774061265
0.187098890233373,0.2584109323633
0.184483571617636,0.260747292813452
0.18185653400855,0.263020285039099
0.179217908049636,0.265230338667619
0.165855525530904,0.275351564811521
0.154970354858199,0.282359472970866
0.149465555460077,0.285509854600919
0.146698059497897,0.286998155999362
0.14113352826491,0.289803128099971
0.135530482243892,0.292382123454726
0.129889966583016,0.294738579082649
0.127055984246433,0.295834428567492
0.121361223778588,0.297863519015829
0.118500706934367,0.298797619234079
0.115631606541309,0.299678662284886
0.106974110504329,0.302007744706427
0.104071982351137,0.30268085536124
0.101161923866715,0.303303056985498
0.0982440656945843,0.303874779206579
0.095318538478266,0.304396451651861
0.0923854728612816,0.304868503948721
0.0894449994871524,0.305291365724537
0.0835423520415445,0.305991236222547
0.0805804392571087,0.306269104199496
0.0776116412896133,0.306499500164911
0.0716539123795292,0.306819594570651
0.065670210459463,0.306954956458787
0.0626689462294899,0.306954436777197
0.0596615806775852,0.30690902284834
0.0506041825254954,0.306507711851934
0.0475737181210779,0.30628701720778
0.0445378056123356,0.306023576453245
0.0414965756427897,0.305717819215709
0.0323422874045439,0.304550944878859
0.0292810940269971,0.304080217983088
0.0262152364062534,0.303569322741202
0.0139077763617362,0.301132650860067
0.0108205571778279,0.300427358298273
0.00772945761185077,0.29968447515463
0.00463460830732614,0.298904431056516
0.00153613990777512,0.298087655631308
-0.00156581694328077,0.297234578506383
-0.00467113160232017,0.296345629309121
-0.00777967342582186,0.295421237666897
-0.0140059159921267,0.293467845557078
-0.0171233554478872,0.292439704344237
-0.0233662174870175,0.290282679739582
-0.0264913787833448,0.289154655602522
-0.029618852739485,0.287994196412145
-0.0327485087119168,0.286801731795828
-0.0390138441315698,0.284322504794884
-0.0421492622917483,0.283036601665012
-0.0547062229193121,0.277594416255004
-0.0641363377575795,0.273211305229024
-0.067281373436811,0.271695136334288
-0.0704270234100781,0.270152117542143
-0.0767196436646338,0.266987248775136
-0.0798663526588798,0.26536625805503
-0.0830131533730761,0.263720135947025
-0.0861599151637013,0.262049312078499
-0.0987439602200653,0.25512759154674
-0.105032352475266,0.251529691029553
-0.108175183782297,0.249697984403954
-0.117596650698854,0.244076994587668
-0.12073436185779,0.242162806760335
-0.127004833594659,0.238276222037077
-0.13013733288555,0.236304684395907
-0.136396205094638,0.232307266691376
-0.148885786003438,0.224107091160113
-0.152001551745644,0.222016774244875
-0.158224213343413,0.217790820167137
-0.161330847911934,0.215656042259391
-0.164434177468851,0.213507303275565
-0.167534071370642,0.211345032843035
-0.173723029634762,0.206981616141376
-0.182977433529465,0.200345745908054
-0.186053969986554,0.198111308958235
-0.189126156283869,0.195866347951355
-0.195256955825086,0.191346572275927
-0.198315307781948,0.189072616862133
-0.204417262850568,0.184498719019275
-0.210498681835576,0.179893036005238
-0.213531363687922,0.177579349127473
-0.222595730962075,0.170600062539716
-0.225605525147425,0.16826232378357
-0.228609270807223,0.165919646126272
-0.231606837297948,0.163572459195201
-0.234598093976078,0.161221192617734
-0.240561155320467,0.156508139033122
-0.24649740969222,0.151783922391458
-0.249455157654555,0.149418701992674
-0.255349241914535,0.144684185176095
-0.258285316925138,0.142315748013054
-0.261213906331453,0.139947097850015
-0.26413487948996,0.137578664314356
-0.267048105757137,0.135210877033455
-0.269953454489464,0.132844165634689
-0.272850795043418,0.130478959745436
-0.275739996775479,0.128115688993073
-0.278620929042124,0.125754783004979
-0.281493461199834,0.12339667140853
-0.284357462605086,0.121041783831104
-0.287212802614359,0.11869054990008
-0.295725547831091,0.111663066259186
-0.304155637317245,0.104683932021495
-0.309728035210742,0.100063765007624
-0.312499543697745,0.0977647471261994
-0.315261084353556,0.0954736791649514
-0.318012526534653,0.0931909907512577
-0.320753739597515,0.0909171115124963
-0.326204955794449,0.0863974990692799
-0.328914697641479,0.0841526251195801
-0.342299518621397,0.0730947631852712
-0.344942790661685,0.0709194997528904
-0.350194597438396,0.0666087188616309
-0.360555603757756,0.0581581705396923
-0.370719499443897,0.049958553625333
-0.375724917929084,0.0459614369935477
-0.385577470442836,0.0381897724758696
-0.388006870555604,0.0362957309948805
-0.397585599638353,0.0289279524859731
-0.399944910849354,0.0271402528493965
-0.413793601662841,0.0169027942594756
-0.420514597534508,0.0121175877012103
-0.424917551675108,0.00905885343713957
-0.427095323882691,0.00757019621966879
-0.429257118657099,0.00610925178174465
-0.431402805354814,0.00467644975074462
-0.433532253332312,0.00327221975404639
-0.435645331946072,0.00189699141902747
-0.441885045169715,-0.00205038734217695
-0.443931339893313,-0.00330531275670238
-0.445960612035566,-0.00452908837266041
-0.449967566001955,-0.0068814716993639
-0.451944986539047,-0.00800922015535424
-0.453904861920711,-0.0091041003032667
-0.455847061503423,-0.0101656825157239
-0.459677910697911,-0.0121872346247615
-0.461566299022643,-0.0131463452665869
-0.467121751184538,-0.0158118600127579
-0.474268146813563,-0.0188556001671766
-0.481108736399622,-0.0212909589358513
-0.486033463597897,-0.0227016870739251
-0.49077794435516,-0.023743134157729
-0.493839052701377,-0.0242265477073024
-0.495338651296334,-0.0244037002480676
-0.498275284112339,-0.0246267487246669
-0.501127626806322,-0.0246719242121741
-0.502521862748752,-0.0246267355165742
-0.503894634230113,-0.0245357896915683
-0.505245810606883,-0.0243986571097791
-0.506575261235541,-0.0242149081438289
-0.507882855472565,-0.0239841131663399
-0.511673193398625,-0.0230051558908653
-0.51408840825994,-0.0221094111475997
-0.51641306211021,-0.021015171301117
-0.517541102047399,-0.0203925416457253
-0.518646109801263,-0.0197189993323965
-0.52078650618493,-0.0182174582224174
-0.52182163352769,-0.0173886001710119
-0.522833206113039,-0.0165071109521588
-0.523821093297457,-0.0155725609384807
-0.524785164437421,-0.0145845205026
-0.52572528888941,-0.0135425600171389
-0.528400675682316,-0.0100888619894982
-0.530062138306489,-0.00750891988791369
-0.530855839116682,-0.00613441693004137
-0.531624678734251,-0.00470298653094562
-0.533780723996001,-6.28344125413877e-05
-0.534448812407861,0.00160060202522435
-0.53629946860797,0.00694708331670092
-0.537403925443273,0.0108125104332774
-0.539297782431658,0.0192814862654453
-0.540764596189281,0.0287575376897717
-0.54106359429747,0.03128712831246
-0.54214582067505,0.0449200293944228
-0.542278798613243,0.0478466065961626
-0.542383649270779,0.0508408519235662
-0.542508446169794,0.0570340654648741
-0.54252813112423,0.0602338929335337
-0.542519166223924,0.0635031070373673
-0.542414764284997,0.0702514136600666
-0.542319065959335,0.0737313654336876
-0.542194195204845,0.077282422351993
-0.542040021378005,0.0809050140423602
-0.541400375028177,0.0922062940196098
-0.541127682476727,0.0961193210720008
-0.539736042936154,0.112512554644841
-0.539312262499711,0.116798292515758
-0.538857872555706,0.121159861432512
-0.537856741570921,0.130112210913046
-0.5373097392431,0.134703850731581
-0.536731604833631,0.139373040105463
-0.536122207698992,0.144120208662072
-0.534105133508847,0.15883388570203
-0.533369379038318,0.163897267263319
-0.532601708625014,0.169040776144221
-0.528280044893604,0.19597526730116
-0.526323395278362,0.207324991959449
-0.524234901299334,0.219008973972278
-0.523140886064597,0.224977385555088
-0.522013517808349,0.231030650358666
-0.520852665887069,0.237169198010389
-0.519658199657237,0.243393458137636
-0.517167901697826,0.256100834328207
-0.514541578781946,0.2691562159494
-0.513177081356527,0.275815482864924
-0.511778185761427,0.282563040020237
-0.510344761353124,0.289399317042715
-0.505856523326932,0.310100149638722
-0.5043097798127,0.316864770559701
-0.49788246137072,0.343111729512756
-0.496216423915235,0.349472521509567
-0.474454327098334,0.419703372145581
-0.464467346644429,0.445741847897757
-0.46240821060316,0.450728900235831
-0.45822960377217,0.46048545560564
-0.449635969323522,0.479139196390964
-0.442989408281722,0.492389733949906
-0.438465128433716,0.500876955489154
-0.436175543714436,0.505017785273521
-0.433867896665311,0.509090609985387
-0.429199118178543,0.517033790944627
-0.424460198175449,0.524709591872893
-0.419652541858069,0.532121106276205
-0.417223376707158,0.535728722751635
-0.414777554428438,0.539271427660583
-0.412315250672166,0.542749607691304
-0.399762657486424,0.559186168760316
-0.397205153520181,0.562285319974968
-0.392044565460642,0.568298554911141
-0.389441832667853,0.571213412009168
-0.386824374900059,0.574067611111492
-0.384192367807513,0.576861538906364
-0.38154598704047,0.579595582082038
-0.378885408249186,0.582270127326767
-0.376210807083914,0.584885561328801
-0.370820240232427,0.5899406423578
-0.359878566652813,0.599358483786589
-0.357110727076762,0.60157096636084
-0.354330270328761,0.603727431198417
-0.32876736915104,0.620678620147977
-0.302324753751701,0.633405589911523
-0.299337944285049,0.634571188520282
-0.29634203065154,0.635688503157418
-0.284270847454044,0.639682655754779
-0.272068049607233,0.642935199866367
-0.259744878727406,0.645470883540344
-0.250430268299426,0.646917094131364
-0.247312576430866,0.647314454824868
-0.244188766449779,0.647670105247041
-0.237923494751047,0.648257822030405
-0.228484092615373,0.648836237376782
-0.225327262614481,0.648949746624274
-0.215828143848363,0.649057800398377
-0.209473297203966,0.648939974823331
-0.203102409321691,0.648673869199081
-0.199911389041986,0.648486178089137
-0.193519074056715,0.648003452714871
-0.190318130651658,0.647709191827054
-0.18711423083866,0.647380181056452
-0.183907550267975,0.647016807091317
-0.180698264589858,0.646619456619901
-0.177486549454565,0.646188516330456
-0.171056533413464,0.645227413050494
-0.158175076456345,0.64291914295734
-0.1517264459444,0.641578163156189
-0.145274421012917,0.640116744860016
-0.138820406863931,0.638537981574841
-0.129138729737094,0.635956581837116
-0.0969178744846361,0.625629381373772
-0.0904937320193341,0.623269136175466
-0.0872853060864875,0.62205467641175
-0.0744800028597388,0.616976945652355
-0.0617285716526364,0.61156594920183
-0.0585504487308409,0.610164027486854
-0.0332930490679207,0.598300891660667
-0.0301594568278067,0.596742829742884
-0.0239099263122145,0.593580846185088
-0.0176851054178346,0.590360294252671
-0.00224037941306052,0.582072978915913
0.00693897790680989,0.576954272897183
0.00998313006473957,0.575225971551009
0.0250787344777222,0.566436370742018
0.0340296486150103,0.561058055771219
0.0369944913408279,0.559250178496233
0.0458301744548795,0.553786643452654
0.0516698358088661,0.550114900957274
0.063220929374755,0.542714810824419
0.0660809637351405,0.540855251234742
0.0689295511825822,0.538992650198985
0.0829946369667149,0.529647557417829
0.110165291167726,0.51095160914468
0.123226947020929,0.501697425715812
0.135910213666814,0.492570217467499
0.143329413021588,0.487174948394308
0.145769632132859,0.485392354812059
0.152989288342141,0.48009747602729
0.160053754209281,0.474890070638791
0.162373269721108,0.473175511920307
0.173698144689629,0.464779442381873
0.182420262540429,0.458297856911058
0.188757434045489,0.453590149641177
0.198915969042039,0.446067252267256
0.21764118075097,0.432407772517588
0.224505823029952,0.427530110933817
0.226163944899675,0.426367862204967
0.234097539535424,0.420918952975906
0.245511015486207,0.413550627197993
0.246823218255497,0.412754527706914
0.257440800364762,0.406943450426994
0.271291627948547,0.403384845363429
0.271839478608169,0.40350892277867
0.276198780676089,0.409568847224911
0.27626918198024,0.412870535919533
0.275966331206017,0.415833222859138
0.274045484016776,0.424430719528247
0.272166615099065,0.430442141347016
0.265793263061371,0.44703983726171
0.246786869039232,0.487797002748537
0.238740207043709,0.503689792809169
0.237006600975366,0.507057210868337
0.231554073727278,0.517544145528465
0.22965207612938,0.521169306203558
0.221616959154982,0.536327839532584
