-0.897685082968629,0.0157393176372127
-0.804412127545012,0.179510214561779
-0.780141917309151,0.136253210015017
-0.798636106714593,0.140049923550334
-0.76599621152653,0.16622664062745
-0.700731883535107,0.156222608426465
-0.745579299305438,0.14425114809212
-0.639558957036158,0.22759471274364
-0.705835314823493,0.171667389036402
-0.738076559448832,0.156734632866627
-0.695780392987008,0.188805244976355
-0.650236569974129,0.218173813119487
-0.723913744082076,0.104633296612043
-0.688070003150221,0.208448260058137
-0.635914530801688,0.204680327946793
-0.624679375746482,0.209952640893275
-0.673099147957361,0.163283564121487
-0.594750516361783,0.173131794799543
-0.573966131901517,0.250707479638782
-0.571880295330501,0.275654024059221
-0.546766413955065,0.236919137176124
-0.527038911365849,0.280331052669235
-0.533694912933142,0.283553562843106
-0.547528960938061,0.252438255928716
-0.49218017875842,0.212600738453683
-0.545676155587939,0.272926242128471
-0.630128200867249,0.135434195475634
-0.498916323690877,0.268215763438377
-0.471005085639715,0.279042799839432
-0.370087845885197,0.372980030184554
-0.541553203461079,0.148019882716913
-0.453051230827394,0.272112728306899
-0.458099700582851,0.329922589934812
-0.474631054793451,0.278539691445494
-0.433041279418527,0.29804134827248
-0.396108314878081,0.325947846700405
-0.443803579475008,0.29619396046599
-0.370704766979037,0.346557421057559
-0.355504990602197,0.266533886196685
-0.425630069061498,0.324832872950751
-0.361616827968154,0.273612198069019
-0.372456255601883,0.32490184884322
-0.364222422381341,0.328501776431232
-0.356092281472851,0.332043096461796
-0.390428979645009,0.375087656501675
-0.319673196173203,0.30814839998433
-0.332318678508335,0.342317791666657
-0.324597972736697,0.345627061925291
-0.318025789828935,0.313134410578677
-0.309257352256411,0.36654721692001
-0.255694446106173,0.313978654939313
-0.132971856186313,0.436856725255542
-0.287499154501403,0.361316914206448
-0.288492038784307,0.397849641713265
-0.182576817437828,0.471242392721899
-0.309472851792301,0.375877792495376
-0.259593747992508,0.372855279964162
-0.206800316719928,0.346981689633746
-0.268965251125768,0.377474881901484
-0.286484168164299,0.392583511974775
-0.233227934382071,0.383509247058894
-0.125660694726141,0.500981186037377
-0.265702624771597,0.383870393300567
-0.176526325104432,0.421848795803961
-0.0493227434629358,0.477888937694068
-0.233842746255082,0.369958937274583
-0.2213360857859,0.434597118324501
-0.209753734340869,0.423967287625229
-0.184978532605851,0.402224924980784
-0.217469648875592,0.416851961301916
-0.0311773095781565,0.499698845656311
-0.181995303585051,0.396088875055984
-0.180036161603822,0.423980058005499
-0.108625999602633,0.409846177138788
-0.199888305924941,0.459075104171148
-0.114424637251006,0.440829624452926
-0.142477842671315,0.417585827414869
-0.137555860746908,0.419276127735203
-0.236871211737979,0.350160389915473
-0.108266599133127,0.393579291284478
-0.149099609592699,0.389223333066144
-0.0775705714470866,0.385342523135321
-0.131393929772069,0.404054364108262
-0.0740918108009065,0.379699980138727
-0.0986603432833548,0.442181888015765
-0.0713643309841249,0.462308505419513
-0.0970200455947389,0.432254978141315
-0.133957253796662,0.39477333837151
-0.088908222000788,0.43460358830738
-0.0659161389797144,0.43019694584179
-0.11155416504679,0.417367208110585
-0.120969972155664,0.445968139564294
-1.93686324914677e-05,0.487113603686833
-0.203203052019857,0.289721671323237
-0.0819457798342638,0.486910741639862
-0.0162529572907891,0.437970860506216
-0.0595844707267045,0.442110774583987
-0.205524801658693,0.288887059413216
-0.0530130822381894,0.443525279387691
-0.0498383866321869,0.444164497276552
-0.0462123260761755,0.407499098637286
0.0215910860621184,0.532517375570595
-0.0852043031740234,0.412495799378351
-0.0576443262137248,0.45255273654164
-0.081930730187075,0.488925132906421
0.0139479949268203,0.470076740725598
-0.073118592298095,0.413767372642209
-0.0319637232563506,0.414536039144256
-0.045913028270871,0.443071164033607
-0.0220342509875276,0.448118811601316
-0.0604905955261527,0.454952983379413
-0.0298494168524737,0.39950457616134
-0.0150423789371468,0.448462434265418
-0.056397442656247,0.490853520772193
0.00774221689725382,0.474186609500179
-0.0215928659657587,0.493909676456765
0.0112555228622497,0.437165891768382
-0.004709217355898,0.448199425601698
-0.105136040148934,0.328459692947303
-0.0309612206159355,0.471829023664946
0.000722174581186341,0.447550666555743
-0.039463018513764,0.417577426431972
0.00452433697275673,0.492839452540104
-0.0155786287789521,0.49155348001168
0.00709731234061697,0.446126205569511
-0.00201167498219296,0.406487503908393
0.0556140092262369,0.489841531036024
0.0112472964324247,0.44464660473865
-0.0371939584971928,0.474219264185935
-0.0230316909604848,0.395374857450952
0.0036621701109438,0.415552279814518
0.00856505926821238,0.452931994313048
0.013729230789583,0.462987794303385
-0.00588925371035378,0.41330451351862
0.0277937813802695,0.4150104707245
0.135766424007957,0.53138617731832
0.125252224325652,0.544869212578904
-0.00587481889591955,0.43540880236083
-0.0236756255698314,0.419560351957868
0.0608790121095266,0.46170879119856
0.0458856877135809,0.386915371737533
-0.00234927485135295,0.402162986414859
0.0244076895587294,0.432196700454979
-0.0909773731051823,0.288985772200934
0.0628079244360591,0.419584535037018
0.015345236554322,0.452716585793154
0.0259294602315037,0.427521045072495
0.0488642303450703,0.393637804047659
0.0263989065996536,0.424979160424264
0.050543747700853,0.465386613235096
0.0247124183563695,0.469852804158208
-0.090240471053779,0.308250905315471
-0.010903271972704,0.374288995274594
0.0198340841061317,0.421908776726708
0.0300002194713302,0.424130376805298
0.0265847249249424,0.415043758381137
0.0264333356959841,0.413495677331583
0.0262390630244326,0.411916125944255
0.0621800811781149,0.408743571235766
-0.00497678362761787,0.42041370978472
0.00165259818367137,0.409770402841431
0.0250438061350077,0.405287977932931
0.0246431174175248,0.403554645543531
-0.025765115055517,0.440959532523927
0.0162671370781303,0.35214962804645
0.0328634241474686,0.408907179402981
-0.010271628313232,0.420879049341837
-0.00552025078544055,0.347809489816827
0.0101311993668778,0.385692881291446
-0.0272108409242725,0.409012088031422
0.0393830662500289,0.379881392898944
0.0215012048849271,0.362432624757967
0.0185416794121994,0.384608285736326
-0.0151309492825173,0.409194976729047
0.0168921362817139,0.380479457047455
0.0160171749476749,0.378374145409703
0.0151094649826195,0.376241886304123
0.0519380392589964,0.378613287377186
0.0611051757110475,0.345597018968726
0.0202446674548536,0.32547116597633
0.0111618070349433,0.367448136119252
0.0374019559538101,0.337299740819691
0.0330417677510309,0.409787152036907
-0.0179338549950497,0.349608247962893
0.00673284388184967,0.358242270112056
-0.0416464103562942,0.325666395825994
-0.0360097739779542,0.364206715180568
0.0343753532075173,0.330734811558427
-0.109373467885894,0.245292105971191
-0.0119816487768798,0.348795391535786
0.0142303695469358,0.31341940807454
-0.00207330064299602,0.341186174715921
-0.00343244478987515,0.338655130352068
-0.0280558470487514,0.352169344052927
-0.0291192467518134,0.31416154219378
0.00761960345030457,0.359835105117512
0.111517036001118,0.466871358361245
-0.0418045784646356,0.370857194756502
-0.0120659337573419,0.322996281292908
0.00662224648142177,0.348342054968007
-0.0260909810480647,0.323166478433691
-0.0123757467904681,0.276250877598321
-0.0182383087154153,0.312124426348259
0.0848840252947899,0.432181446292443
-0.178039297119007,0.167609840662768
-0.0570537714421899,0.285412583653739
-0.0247042281591734,0.300924247698176
-0.034024381083218,0.255393063829199
0.0643222775746115,0.388554321543608
0.00175383351983881,0.252572402938182
-0.0314295537759375,0.289410980273005
-0.0601973718403142,0.291402583926638
-0.0290712918630592,0.24435862080865
0.113482681785554,0.346171867730614
-0.082491899260171,0.284543306660623
-0.0446579459586427,0.311298651282647
-0.0316643669592662,0.310789582244313
0.0674254959907635,0.372427656381123
0.0505855953784949,0.388340262884537
-0.0183243278360202,0.236357071347448
-0.0491537371477951,0.259358027549441
-0.0630342885160375,0.231034514032693
0.0558156899098235,0.350227142681632
-0.0546657923993535,0.250014720204188
-0.168223631376904,0.147735254107519
-0.0987847242428031,0.284030733830547
-0.046302605128716,0.190555878723649
-0.163452980265374,0.119214746873858
-0.0639883369336279,0.234135289837845
-0.185642877796459,0.125221323728697
-0.177415044413157,0.143568073349273
-0.0696398650332323,0.224433754758097
-0.0712202857011164,0.212297149486725
-0.108807677354168,0.246145474820325
-0.0857847926928909,0.186859762216903
-0.0742204900689494,0.190655980299448
-0.125515258176554,0.252809253200997
-0.130696276752822,0.21300814328361
-0.0778977224768033,0.21790928430257
-0.0415661254659608,0.206034431005906
-0.122355268376032,0.160121725272546
-0.180952033939897,0.0569794306487804
-0.0419453882104817,0.139489708609684
-0.101335123740045,0.208654086280686
-0.0744852693831303,0.214328930843048
-0.0617951384183761,0.170260834427785
-0.0979979405201008,0.17421634207417
-0.0850040236174543,0.125453309943979
-0.134000218976865,0.210553878566781
-0.0697801909880977,0.137445414163458
-0.125897803064478,0.195924056424391
-0.090261650354863,0.110432990545995
-0.0818078238025134,0.132805520732484
-0.11094672207708,0.149959112046163
-0.0814154788761445,0.143616491477936
-0.0727715929040982,0.13128268989859
-0.149691458687535,0.105796821267762
-0.0853766662704351,0.183169444199341
-0.144871010074659,0.172823810132118
-0.121707171977249,0.128837290035958
-0.148955483530202,0.13899510128792
-0.157866294507144,0.146215515067196
-0.0953882898599958,0.122282192594623
-0.133726628543777,0.086500569082091
-0.141978034787073,0.145825636867043
-0.109901112691502,0.118726526790755
-0.133704305476199,0.103882475928763
-0.135359281850126,0.100294456913601
-0.136997933030594,0.0967013906429811
-0.138619725606468,0.0931035151626883
-0.161520873996796,0.052686578761639
-0.147823378022117,0.0683506739952163
-0.160842872269469,0.0951238362673215
-0.175633604015236,0.0383270323561659
-0.146457140027169,0.0750503312186689
-0.00540859810196184,0.143228694626231
-0.145301085720985,0.102236256012111
-0.162999802083038,0.0872499998145321
-0.0849565554863108,0.182924946939013
-0.153793077662665,0.0569126239008301
-0.130845819859551,0.095836328138295
-0.133850064799023,0.0987948678701688
-0.146158603881485,0.0415523935043855
-0.125509054131612,0.0384142569341729
-0.140633906371454,0.0795877715704672
-0.139584410140384,0.068610210865149
-0.258071013304908,-0.0643181939489094
-0.128610901863317,-0.00162904308954134
-0.116185259749233,0.0256282928968992
-0.166693817010238,0.0205026620370061
-0.184908744831007,-0.0304695110508304
-0.168954311174784,0.0132153292212281
-0.170743192187041,0.0295288618857542
-0.171098297096476,0.00593065977912945
-0.172125265938413,0.00228991893767642
-0.173121507486229,-0.0013494419229971
-0.306607254903246,-0.104405586588634
-0.129831358692462,0.0221253432083379
-0.157157011224785,0.0208172593227078
-0.199988616665134,-0.049507233660683
-0.179728092656105,-0.0599749641277161
-0.211866408778011,0.0189336058791046
-0.221253114036151,0.0202071367023112
-0.179921247944157,-0.0303860840059214
-0.148841549812229,-0.027612292711588
-0.182260612147144,-0.0714606669263047
-0.18521718110558,-0.0588319682695925
-0.2192098056087,-0.0463365693284361
-0.294695675837937,-0.16609734908499
-0.139757658728176,-0.0382201053005351
-0.184015135836827,-0.0556123860046341
-0.184447196764276,-0.0591972929458522
-0.156499840132774,-0.0188565194513592
-0.13701351243775,-0.102782559593606
-0.185502474201528,-0.069918501031446
-0.210810429591773,-0.0595037399564415
-0.05273401713933,0.0783839981359346
-0.159429079870948,-0.0449989941989705
-0.168496880598709,-0.133825039096927
-0.14674089076539,-0.0777700627110136
-0.176983207016831,-0.0550390159790706
-0.237538421161236,-0.162262794741755
-0.171256026877419,-0.0787490494363356
-0.186375340201687,-0.101724807931618
-0.212426849284654,-0.115951177674664
-0.186074842922177,-0.108707869579004
-0.185853966429003,-0.112186380325343
-0.190748692332754,-0.10189466509235
-0.181830796132306,-0.149639691073483
-0.184902424602183,-0.122566975705504
-0.17588575835517,-0.127557241438066
-0.18402196898353,-0.129439211452031
-0.183506312620565,-0.132860166835861
-0.158787802678207,-0.186172347932383
-0.336657600111062,-0.288467320389329
-0.179204311907837,-0.182344135924752
-0.205032157077723,-0.193545519582774
-0.203053519301455,-0.102690309166682
-0.179322769790287,-0.153158627402212
-0.212897488176083,-0.169338834265583
-0.157476969067413,-0.16499947892937
-0.176506534740306,-0.163151042365727
-0.149068656206139,-0.158523716315219
-0.23627511971118,-0.293007229839317
-0.177740469702769,-0.142308275407378
-0.157082196100278,-0.142195217518003
-0.210675729198467,-0.134454877405363
-0.14217918403337,-0.151762731929062
-0.122354199221011,-0.150179756862603
-0.0504147122488849,-0.0922871129516601
-0.13494518000508,-0.178360370831055
-0.171680778977592,-0.168841505858673
-0.161774395923513,-0.198773272275277
-0.133329376068739,-0.219900872586881
-0.111586015023547,-0.227562122989146
-0.15649144296647,-0.208182837086544
-0.181916504169029,-0.217807344082774
-0.150467170768925,-0.172314333602286
-0.150639101648897,-0.217449294933938
-0.149231226003612,-0.19863259552317
-0.154538134408967,-0.22755126028926
-0.144202969870134,-0.226566218581221
-0.268387552824096,-0.316604743717711
-0.139580775168488,-0.23255791917997
-0.137168645529518,-0.235527180792154
-0.147391248817874,-0.19559578929643
-0.141625446484971,-0.202559178175949
-0.129521726526388,-0.244325754330497
-0.13435966086843,-0.274029529182993
-0.124076338007764,-0.250098080149688
-0.121247810760083,-0.252955511960013
-0.118348016971977,-0.255793472309774
-0.160164612785945,-0.271540699464009
-0.20961204278304,-0.40533206111227
-0.117751604716561,-0.301484109656814
-0.154397252523939,-0.276696101896699
-0.11143532894061,-0.300916321650538
-0.236039191205555,-0.384268184013393
-0.0702603197207575,-0.254841892216504
-0.0925200618755055,-0.277767617033204
-0.0657365766021935,-0.258716307922908
-0.0853130689176328,-0.283049775403369
-0.119993934451336,-0.294761079946608
-0.0389440015134128,-0.302655905741215
-0.0739227404811005,-0.29080674311253
-0.0582359341144119,-0.26222700160222
-0.0753345698714466,-0.280837692646975
-0.0618238033776454,-0.29835847390751
-0.0576308664985449,-0.300828998422348
-0.0730456594184037,-0.260075998785572
0.0241812154892875,-0.242069445780887
-0.10622021369944,-0.418166377271096
-0.137073544148604,-0.409608996695323
0.0017702801543302,-0.361286003817558
-0.0764747284627708,-0.326305236905222
-0.0516747219838331,-0.26819922665014
-0.0119935402190555,-0.285789442904607
0.00945215897719272,-0.32670993961897
0.0160130996831532,-0.278293747541016
0.0978005824113237,-0.221437960708924
-0.00605392628137391,-0.326384483220844
-0.000940301549375357,-0.32855220406074
0.00409065140088852,-0.330689476321456
0.0178959889404461,-0.38041056669047
0.00431728107050737,-0.339719480642386
0.111849267742783,-0.22252098240731
0.023396148267896,-0.338935280487812
0.0280200444719606,-0.340921210539094
0.0709030550331995,-0.316004063331647
0.033140410218254,-0.347406128974894
0.0660183109174703,-0.323465978382683
0.0623505325547613,-0.378378778427881
0.0634742845885018,-0.349318697802463
-0.0257601547404067,-0.402633626308104
0.0581666203047881,-0.353983610932224
0.108377334072852,-0.342722471146063
0.0701353879171499,-0.368065318180758
0.0736347045181028,-0.388337911849232
0.0736853739277849,-0.360793823068095
0.0899671626849376,-0.349094597672002
0.117913239035469,-0.340426285684944
0.0858376119961973,-0.325981011104318
0.0380277194246139,-0.472051712358743
0.0629320509208588,-0.375641060741279
0.0947060273176577,-0.370127508151532
0.133223623836823,-0.3741524805746
0.0677110491816853,-0.420018290298302
0.124152988986403,-0.421024408409921
0.107254025003219,-0.375767813731566
0.129319062355065,-0.389333747506192
0.0643565106345047,-0.354446752634837
0.118420054745798,-0.335903602276452
0.074507542880397,-0.385903607792212
0.121337295682578,-0.382170030820041
0.284384324346309,-0.246440860874933
0.126483072765971,-0.384530807532
0.157353672948309,-0.424639261356954
0.131355302328857,-0.38677795615117
0.167009996763862,-0.376047797834794
0.0866282877214204,-0.396029491550879
0.0959233858039184,-0.411161870369156
0.0971242701262012,-0.398718904176275
0.177319704004392,-0.379978269229748
0.139633444443995,-0.361748838647292
0.146302445726016,-0.393755090373305
0.264099439000123,-0.27272149269881
0.14998530571895,-0.395496857105573
0.109463346048028,-0.390861003199479
0.153413104534634,-0.397127637758675
0.15503240636142,-0.397901558419949
0.155530626115075,-0.351149858483561
0.170248132177286,-0.430817460602257
0.184585474805044,-0.353439285161983
0.152396992532555,-0.427444747778885
0.193334741418178,-0.359973180516896
0.148987653530309,-0.363703883372873
0.164640911091265,-0.402550506901685
0.165771938060128,-0.403105577784363
0.288444940173656,-0.316394681373714
0.180041175304398,-0.402421083675592
0.125493762983804,-0.422916549066209
0.169708810292251,-0.405055601608859
0.170548320160274,-0.40547584286725
0.109105001591789,-0.539885285907796
0.122133552076073,-0.411939592772625
0.180255905492298,-0.451964917833004
0.293266476809151,-0.292455956750025
0.192361839725567,-0.397965176772369
0.0546947590562983,-0.501167248971793
0.137018298825048,-0.357984690398619
0.0575331165118819,-0.518329866808271
0.205152485730199,-0.41137639536525
0.175875378305679,-0.408214944686182
0.176110523238367,-0.408343844798389
0.184107538288983,-0.371372790548529
0.176423969042329,-0.408523329216091
0.173888794554835,-0.383918400117487
0.142433012440955,-0.42517842862493
0.222523922463275,-0.409160105845513
0.178494275713949,-0.364413163281669
0.185151875707736,-0.394386151677434
0.12830409966536,-0.443523884378982
0.213877217227094,-0.36070414123522
0.0764185494479043,-0.517797675601946
0.175329736691517,-0.408050687346293
0.0651013450537665,-0.499144969779131
0.174549992270167,-0.407664002056774
0.174089470695838,-0.407432612355295
0.135383106600389,-0.378986162246011
0.204216804853574,-0.402366368744474
0.19297651582274,-0.360880038587326
0.166171859495808,-0.437998950894357
0.135016070529982,-0.431159130105068
0.286922359230889,-0.298005009166425
0.16958624500937,-0.405108276990841
0.142035589713869,-0.393116940010255
0.0573403686525817,-0.517057159266712
0.166993912644513,-0.403737967501264
0.195174735565621,-0.414688953926493
0.184411053235117,-0.357063022471791
0.0717316870035017,-0.507633440743381
0.162946698977533,-0.40156558979393
0.196698180016864,-0.385595097574163
0.170159222545353,-0.397697108750248
0.172659173427868,-0.36364766220424
0.158248967466702,-0.399002108042401
0.103728225993177,-0.472870706010873
0.155664560403141,-0.397574904065347
0.267932615307197,-0.316074758170658
0.126965064402656,-0.407439366543821
0.140597690485189,-0.409446647813226
0.110620813856965,-0.357727743165347
0.14854350651273,-0.393586479680485
0.250229893864148,-0.280105998824049
0.0985928265733182,-0.44053674473172
0.251042740769933,-0.278505270033478
0.115201633182004,-0.348594776496422
0.120963134229576,-0.391703228011764
0.111815417398314,-0.362338685435845
0.132609906821043,-0.340990528852057
0.109120656564289,-0.388016210853055
0.16280176368348,-0.372295057812536
0.116732044869484,-0.365714632363767
0.0216416388654152,-0.508736407384448
0.127877321985509,-0.381602635114349
0.078374333692325,-0.402238188449485
0.215937053694165,-0.229537721053933
0.171550738573994,-0.353013829394384
0.116540642672633,-0.356088200255863
0.117907500367975,-0.375623236623931
0.0928183309863463,-0.362139766610614
0.11371437741145,-0.373071717857857
0.0953372127693665,-0.377609877531428
0.0909637849736499,-0.329309968214679
0.113985159307734,-0.347372717236853
0.149995549220446,-0.385371435873178
0.137410414499372,-0.334383067274343
0.100475180188132,-0.364875659908001
0.0869395431809318,-0.402869965016704
-0.0506196352727898,-0.485484767335278
0.0935052252636577,-0.360476008519354
0.0512949502537445,-0.355350335146936
0.088736529693026,-0.357432296427519
0.0778030444357781,-0.404544395566703
0.164480889674405,-0.266253437919014
0.0523561746975871,-0.365818466018752
-0.0375123195933053,-0.490300101138001
-0.0227933407466975,-0.459874073989876
0.0738815326869321,-0.347775510582119
0.0296650560775136,-0.301605467273942
0.0362705615583286,-0.298047155018228
0.0661660692795628,-0.34265441204168
0.0377939261068214,-0.380703875446844
0.0644737561974527,-0.374910301078595
0.0361319543401713,-0.357327867712039
0.0314362680923271,-0.330194503506249
0.119842166277469,-0.234542490604837
0.0502159321184469,-0.331834909903488
0.0474951725619511,-0.329957524240275
0.192582733791612,-0.164556975217673
-0.00250323507613127,-0.287597195173553
0.0392343195820883,-0.324199479068467
0.143152834748806,-0.214624487911827
0.0336491404451831,-0.320256475926428
0.0308344281641264,-0.318253862584452
0.140247936423541,-0.201938612345929
0.000571697889045888,-0.32209156893299
-0.0939730153729893,-0.406821772256779
0.0175561270916554,-0.326223798043224
-0.0100930722220736,-0.353637553986878
-0.0593558690447115,-0.397040555792341
0.0107576983501792,-0.303660420404067
0.0488477286377068,-0.326546484731277
0.00491396220618001,-0.299307797615491
0.00197627358405029,-0.297101275136709
-0.0053708726621736,-0.275234435848483
0.0445465127672387,-0.327821134834714
-0.00689503275287985,-0.290361583911552
-0.0154841018430576,-0.330580705196496
-0.0583192014866546,-0.293895469559155
0.00804599772882343,-0.299021643172203
-0.0402867636714785,-0.282317797568711
0.0810942937878417,-0.16724754143013
0.00926029419990722,-0.26049752304557
-0.0504160520235067,-0.286590551870443
-0.14051196549815,-0.339414075952207
-0.0107721979316993,-0.277591634389889
0.00663672933807537,-0.248758606771338
-0.077551540666401,-0.266982942705886
-0.0381212949490046,-0.265475775203648
-0.14790293905672,-0.355168163595041
-0.0563676025596131,-0.293615992153791
-0.0398372839748524,-0.256406334049659
-0.0552631362959577,-0.28811227462374
-0.102471950375121,-0.208502964258264
0.0311877303606215,-0.143666161123198
-0.0746240160036543,-0.247235612198702
-0.0674965611063311,-0.240936048045564
-0.0938077942798067,-0.234778470900818
-0.141646409152293,-0.331316278684398
-0.126636449752363,-0.27337896971695
-0.0797399529027589,-0.230138947905456
-0.084761032171267,-0.260591898303578
-0.13083040252783,-0.254664542157464
-0.0889097182164979,-0.221847298663579
0.00850743089351302,-0.123894280725256
-0.0659929450818765,-0.224965311183314
-0.122576414326208,-0.2587863471642
0.0254873542682737,-0.0955111910414877
-0.0578494341647242,-0.18589552822157
-0.138684377950042,-0.239191267000505
-0.132958769707049,-0.196668634315641
-0.0905411987102957,-0.171910765917084
-0.116232294465507,-0.195992834271642
-0.119241744286989,-0.193030721009807
-0.0400741771605887,-0.112257647761332
-0.125239767009595,-0.18705357803767
-0.0356078463091587,-0.0782266585812118
-0.159217328191632,-0.131548047545515
-0.134178306630138,-0.177956473144756
-0.119382042572169,-0.177135384566942
-0.140093435052997,-0.171804843460257
-0.143036569434681,-0.168703140828533
-0.101194186659737,-0.139629922718045
-0.181944911444704,-0.154159081993613
-0.151803211530772,-0.159295202324634
-0.154703104732599,-0.156125146106305
-0.260093027768442,-0.256091857484705
-0.136288896835898,-0.116787807291256
-0.189184829496928,-0.125242535318571
-0.162940518019969,-0.0955798624126562
-0.192740530362538,-0.120731446549219
-0.171838685134874,-0.136751206471024
-0.214277374325706,-0.145786746303217
-0.297073899786116,-0.220614758537921
-0.1678554595854,-0.166006340914448
-0.182980376917929,-0.123502885950868
-0.18572669498154,-0.12014981114492
-0.18845653080396,-0.116780458560138
-0.304661285577282,-0.227516200735449
-0.193865075148566,-0.109993160237127
-0.244389873577514,-0.0778136845705942
-0.19920264879843,-0.103141471347946
-0.0958138889878311,-0.0326019704051783
-0.207031610402319,-0.101491304702987
-0.248917907864094,-0.122248220253699
-0.209651439400647,-0.0892468433355291
-0.212214028564925,-0.0857336928006212
-0.150872952870481,0.0392871124816955
-0.174316970335665,-0.0297019747617327
-0.254228141733694,-0.1164459387054
-0.370090479361816,-0.185277094095844
-0.224708316260409,-0.0679339812234689
-0.22714050116517,-0.0643276674478649
-0.346887460298872,-0.170996508052783
-0.231934837187037,-0.0570691488025969
-0.234296148015813,-0.0534170640244613
-0.273479744898413,-0.0523484429234924
-0.277163851684135,-0.0651290513084515
-0.272643125535753,0.000627519495689954
-0.286958824922673,-0.000784545071500525
-0.275678948829826,-0.0501008464668172
-0.247935543355873,-0.0311887818617658
-0.215173236372401,-0.016963482961634
-0.23174806957098,-0.0457794949498681
-0.254396604060383,-0.0198743455937393
-0.256494358598488,-0.0160735937818356
-0.238323265988489,-0.0239552672277683
-0.152219134351022,0.0929861500204573
-0.24304412329374,-0.017856346101264
-0.261825367501642,0.0138563494838631
-0.278790864564692,-0.0444405262649521
-0.268464185919881,0.00703408097299225
-0.313722034419613,0.051415389838316
-0.233294545177534,0.0274125790102093
-0.274033743152792,0.0187801073589218
-0.275825926983731,0.0227235216281764
-0.232520355131719,0.0370646378287799
-0.263392880735245,-0.0140355932811396
-0.322512109162361,0.0334180035910647
-0.302309723213596,0.0789322915891681
-0.290668443052857,0.0489281483101083
-0.285682322917175,0.0179854586595963
-0.39683226769704,-0.000982736688329836
-0.277450441116812,0.0444441096115881
-0.290426110299323,0.0588341642912149
-0.250025992791102,0.0395232628405652
-0.29327823840861,0.0670076441279822
-0.277757266307473,0.106627929153289
-0.27592280917045,0.0812137820593864
-0.277685553738357,0.0642141783142569
-0.325732557508811,0.105895997849873
-0.299745140793774,0.0876726140049871
-0.287654858083121,0.11735978024632
-0.334436683143605,0.127505821424411
-0.303153561335038,0.100227779438968
-0.304208560502165,0.104438504893673
-0.339649729395437,0.151383818652029
-0.354872959397936,0.156292784834785
-0.307124252945349,0.117146851547224
-0.30583901833145,0.116933356252596
-0.308856092250661,0.125681957433146
-0.321824026874487,0.173044203049955
-0.310414445684983,0.134266802718779
-0.343793412102613,0.183366692424904
-0.329847732023273,0.101132156365795
-0.312419337305477,0.147236281220815
-0.312997250327384,0.151583790024727
-0.343483937865237,0.180924959576761
-0.362758117253486,0.209023648409717
-0.274583653166302,0.17685450122618
-0.477564817151053,0.0131542214956893
-0.340916693880662,0.205805174731512
-0.363465322468688,0.203661545604566
-0.315734128090867,0.182351077198913
-0.276115494770503,0.227406940988999
-0.287922806546022,0.159631144959235
-0.316182978458716,0.195713072156609
-0.36482057377518,0.239209779261853
-0.316232443405625,0.204678539459853
-0.273248995080421,0.253808397698889
-0.285066346015595,0.201957388300127
-0.326209299464961,0.221393319808241
-0.349644340095705,0.268570185362449
-0.311365613365744,0.203343620077048
-0.315144976127889,0.231845516533276
-0.341328799398374,0.268488828093739
-0.340190635168728,0.244642072971182
-0.326196281508263,0.210307577320893
-0.29255696071525,0.215899543338452
-0.312772594206047,0.25478754268263
-0.312133131452746,0.259408268663858
-0.267083458998847,0.249789950049909
-0.400984457943043,0.15167461388029
-0.201223370588091,0.342017859127934
-0.30340355429155,0.326757950293776
-0.308087777912516,0.282670199809755
-0.306791818721578,0.272194419446253
-0.34806374575677,0.336622197718448
-0.261666541047119,0.343855282030649
-0.432635671111264,0.16406482797639
-0.293468918667628,0.316261766513032
-0.322765206621478,0.334410788911922
-0.347371147968874,0.328309149991957
-0.196428226106538,0.464855315365174
-0.304285168205466,0.287209987385615
-0.263106483699278,0.372718848759192
-0.273698689664271,0.36261291659626
-0.27901630939703,0.306910828892713
-0.333736933162216,0.360022252480858
-0.28886897417989,0.349153970766552
-0.403832885381564,0.259040880242631
-0.238935430131901,0.359515104804371
-0.283159000012103,0.363648168884215
-0.307287112811238,0.330546631741782
-0.268680609621436,0.393749312405388
-0.263580402487224,0.336042531718599
-0.296251617362058,0.349657477930896
-0.272332395190445,0.387990614540616
-0.265812848109979,0.391662638945246
-0.267533456474895,0.397791098813117
-0.313936387241846,0.427759036045605
-0.204487021801678,0.506951976837102
-0.259822798240068,0.41255836623127
-0.377561268792997,0.27288664958725
-0.257320303253543,0.442989961403981
-0.25148735635148,0.427404041762366
-0.239208564546368,0.460729309241389
-0.245577691140355,0.437343918235654
-0.252378270966693,0.419021151648196
-0.233951065140921,0.441343988528113
-0.210203103015668,0.499165810169225
-0.220212147588304,0.412206698959294
-0.192992226845701,0.416308878029979
-0.226118743850546,0.467363509000546
-0.270258377941756,0.446772958693948
-0.211832882316124,0.442129123574187
-0.193360746714622,0.529030554141353
-0.21167087441045,0.487538400303529
-0.240858774859768,0.45345778753138
-0.203994284856377,0.497672954094597
-0.199763403597621,0.539046199736104
-0.170388693536948,0.539340606059673
-0.285453871038737,0.422441115018982
-0.168795658699843,0.494745838094646
-0.193637499320244,0.549614865538778
-0.17911356301822,0.528259283632748
-0.177374479097486,0.510929141720549
-0.246130728966914,0.409406319842516
-0.151124405958847,0.542622179951193
-0.16353136150291,0.566081055456818
-0.122639004308761,0.540482419525456
-0.167573946633024,0.577462823877545
-0.146481372680134,0.564275982745285
-0.164001400039103,0.574935065310472
-0.143262112238433,0.610517227542281
-0.131274180169,0.579816571446016
-0.154166934806992,0.612330236621455
-0.225261894685206,0.489030779113887
-0.135115082960658,0.593797435076151
-0.0976889839457999,0.607721354125337
-0.11518045265364,0.619533387287202
-0.104570419827856,0.605637462764299
-0.202509333245824,0.519159140823711
-0.0479381110936781,0.650712175344799
0.0290293868223691,0.703868136882395
-0.083925795889662,0.624885570299968
-0.0321788450267753,0.630768749014155
-0.102669918154405,0.611862188531737
-0.069172531269784,0.638297494872283
-0.107300349303618,0.681153833158526
-0.154047242017699,0.524786959220852
-0.0550327713178775,0.650848975182079
-0.059985852644203,0.675662771290018
-0.0146853147445911,0.683381177704779
-0.0897049477257132,0.654431609727856
0.0976233353796099,0.752036547761871
-0.0532430275886613,0.629334831056516
0.0105120888515238,0.632052595783782
-0.0243632420695167,0.676877576345509
-0.0216155589535245,0.705865939354549
-0.00791284819009928,0.68248933498886
0.0160088365871913,0.687701185148913
-0.116977916917374,0.56551946244976
-0.0437214508003872,0.651722563325364
-0.00592492082449114,0.731905404585562
-0.0127863928871827,0.693200569805501
0.0511743379780349,0.69471180530602
-0.019174878857539,0.659435503484763
0.121510837779183,0.802818025453311
0.0336811099367832,0.745240306898285
0.122466303701084,0.823940669711914
0.0257134820062695,0.75836380354033
0.0404458363661926,0.764776255961724
0.0144456006634508,0.739701358322939
0.0341831869008104,0.720167880369916
0.0138585318677261,0.699171048760968
0.0404329951551699,0.724081048559198
0.0899932951944496,0.764680529746535
0.175917097460103,0.817782873868554
-0.0456738726608913,0.637772784300131
0.0460634316151906,0.735577143300227
-0.0199416968579048,0.661374549317851
0.0578370164135129,0.733934444397652
0.0229606816581327,0.733366154138278
0.0296435564043033,0.717917327093827
0.0658026710125885,0.737828922435785
0.0683515514086726,0.738978027830312
0.07084795089761,0.740053573127167
0.0732290553488035,0.702637893784264
0.0694543550209508,0.742647613494662
0.0780263918894852,0.742844649700225
0.193806995683029,0.834739810976746
0.121177823588843,0.780193142444656
0.0740746318572036,0.761053069401949
0.0868879568507857,0.745571438125937
0.0443099082128659,0.703068484935824
0.0910220169475052,0.746518997334264
0.13348455214288,0.733862864911293
0.126172960157867,0.702878453783386
0.101999352665411,0.772142304796751
0.0987132042448542,0.747605650815947
0.11505942405931,0.735947287190386
0.206527158816564,0.87867844568599
0.0904702034323401,0.795054998955
-0.0274632902959842,0.683800957744615
0.107279494921902,0.747495956380296
0.095174111589372,0.781064898952543
0.143806343447554,0.755310314722119
0.0953262014229641,0.742233639142634
0.142257501520181,0.760016937595705
0.102886429550396,0.771030747425809
0.116090538153284,0.745306960766097
0.130205377515242,0.786676852029918
0.160782631362367,0.726918737409362
0.169202058992297,0.756405463476474
0.00724678957394043,0.633221249489887
0.216888415537267,0.858421733065487
0.120763218984565,0.722723597777039
0.124458024419619,0.740074840990519
0.154880453263577,0.696006963427808
0.126489100141954,0.738076283377692
0.150712305534937,0.786431564987554
0.177913051537764,0.778650384992385
0.144412491509885,0.76458615563846
0.184330859768998,0.838105755790797
0.15446183921909,0.728605763268346
0.229716598423156,0.821384684499607
0.132408493793401,0.729415961174664
0.129862510391635,0.74448379851136
0.170584637807703,0.718810767929944
0.175820824577351,0.72459525346211
0.122368629372111,0.697318212796217
0.135561689022569,0.721725167305024
0.119169672650357,0.726467666690084
0.239918366185817,0.832312548018559
0.161954697911701,0.717837397100023
0.122991664399614,0.722935082160893
0.122874225412702,0.709243520608796
0.0668405029213447,0.583230301126448
0.147454390764593,0.724075705137281
0.138886669582883,0.707012602061615
0.231454856334267,0.850391672544161
0.139407759984532,0.702900525737225
0.0979312527170402,0.717360854111757
0.174133050588787,0.702400621376198
0.180222415702954,0.657299208785386
0.0410974048844707,0.592783162284643
0.187684466596998,0.721398811232586
0.140279497806917,0.689597108968656
0.129878610741816,0.672179886279001
0.12725158217758,0.663989496328718
0.180205583859792,0.727120582168863
0.172584826807456,0.644396452915027
0.140009313780389,0.711431476465397
0.144879786852103,0.671906470947151
0.140079404499298,0.67237480806877
0.138645218663425,0.677452522813612
0.166719440037874,0.643421204736054
0.139625425363621,0.664479249258795
0.139428029513422,0.66178304089105
0.0985255802454006,0.628124203519464
0.112698108804042,0.665676645671447
0.0448955486080908,0.552207522512713
0.157112199333798,0.659917182174611
0.241640288736999,0.763435395213844
0.163502033640686,0.6427184469099
0.137443666429958,0.642068165971791
0.171763739006345,0.601470036926881
0.104135899432425,0.608201421289014
0.136293111718549,0.633200082084137
0.135872605539248,0.630192461481249
0.112416232377763,0.633000905035123
0.0936930693252215,0.588034563266071
0.241788652062199,0.728303943232777
0.13946698252597,0.600568342954852
0.0323729105031139,0.500668303020389
0.132990090846311,0.611645624020046
0.132453611564713,0.608476379986487
0.131902215884249,0.605286367398812
0.131336316601715,0.602076166383875
0.00211887345052605,0.510158214806699
0.105389556550886,0.545883004825853
0.129555725109631,0.592330234044007
0.128935939386756,0.589045080588541
0.166037340687717,0.589184785479956
0.0898107126153024,0.604171752754272
0.16949758073621,0.603991949708538
0.120248902611664,0.547892121743431
0.0937240450650623,0.585596115652701
0.173130937006853,0.542875100509476
0.170544704222168,0.707572934986909
0.137172210990155,0.59488295094641
0.151228217418167,0.523199698950122
0.108767693619462,0.535463345932098
0.121388096935323,0.551895026147786
0.156857739552878,0.529393292596145
0.0933808622752539,0.535066593689297
0.226860557546356,0.631634077922066
0.114097705795238,0.511211340044704
0.119883265736191,0.543461126607542
0.0147655068360152,0.439874354043577
-0.00692366812284723,0.431124722004285
0.0943244565375913,0.510846694335877
0.0819685956357532,0.477411933931018
0.151089316208978,0.554486078855229
0.11288449322708,0.513425297594186
0.112083033876879,0.509889296993301
0.102576504972239,0.463763370953111
0.225899059043026,0.654268838850458
0.109662635262467,0.499259946445661
0.145921818393807,0.461837361094638
0.0675940728586427,0.487857490338091
0.0623739890766607,0.508158739419959
0.0803201541436821,0.461686446610005
0.105600003500089,0.481508007327433
0.115151382887672,0.516871761916494
0.0666382067712603,0.443828132376859
0.146919932197907,0.515207963189002
0.0882860808600396,0.422976993018831
-0.00133562253615613,0.345253688923017
0.214931999336145,0.555408010101751
0.194903034819969,0.547425379157806
0.0562843778472923,0.443015945152213
0.120568318618265,0.402346168939451
0.139200868613623,0.419502213071026
0.133839239927849,0.406350247509605
0.0959843553248718,0.439112429855214
-0.0304885167340672,0.331939931715815
0.00165698446580906,0.333903489594297
0.0936720689887034,0.42864667431166
-0.010252342681039,0.375732872736429
0.0921626019421266,0.421715527282216
0.0914187239624817,0.418265501147929
0.0931174596492648,0.379019806353366
0.185079347525408,0.512953560539467
0.0490390978502475,0.45342277239619
0.0905194687612101,0.419915814536764
-0.0231863594432678,0.344755248956988
0.093262096741763,0.428241371776444
0.0450304997775653,0.414534920030435
0.0857827223496156,0.391115005948553
0.1138123537673,0.38040679460501
0.0620498642092431,0.412216215231338
0.083840851519349,0.381177977480377
0.0762420031764793,0.346176694509416
0.0826072239189745,0.374639924047511
0.0820099343951111,0.37139862737541
0.123289662316194,0.325405892681086
0.0489901469278991,0.411664606253839
0.0896189729357187,0.3350550870119
0.0801265211514366,0.334885847650916
0.0504831751658587,0.346190500764751
0.126316542192983,0.318239164499158
0.078231888586915,0.349281323337778
0.1181766805313,0.395799784846626
0.208229422366181,0.448325546303033
0.0382942241387297,0.294167198364181
0.124151281064148,0.377000029181054
0.0670693065715466,0.340519553627479
0.0293013061473015,0.374141899549223
0.117589618406906,0.301758168667804
0.074701031648404,0.300746916670341
0.0268726029339189,0.37229210075069
0.0519326068270212,0.329586255400395
0.0866917616644542,0.351932817944705
0.0269454675354297,0.302785438164102
0.0736328023489349,0.339380535206116
0.0316304955107963,0.343967282778453
0.0758756840326408,0.337142828760673
0.07285215212182,0.303338795504798
0.0726943924317839,0.300719858612508
0.0725601064447527,0.298134104963363
-0.0181913780662544,0.189624180752793
-0.0771399269528702,0.163602113691884
0.0515635116733939,0.336156066308457
0.109886454814238,0.315794639911023
0.0414264379021147,0.306123654068749
0.0982932693702272,0.315236958801195
0.0723120431503936,0.281011690883009
0.237009813708642,0.42235385479924
0.0406411521057854,0.323015043630626
0.109424266253248,0.284889471784458
0.0727502848689048,0.272046825150113
0.0549407842200255,0.311419034327139
0.0410154236827417,0.272757347761111
0.0738464577396516,0.308533160827206
-0.0225714723966773,0.202125713916971
0.0765332510272606,0.289480153000706
0.0575537700890098,0.261314675505085
0.117092232078852,0.268155375565077
0.0242876087473133,0.161715297644075
0.0458186590403692,0.229234854645353
0.075893589233943,0.252526012153274
0.0365327366192135,0.281630574889591
0.0561658471107623,0.251485609078474
0.0740840615208437,0.260598510757606
0.0811176633072853,0.255235793746683
0.0945448069221688,0.252325675368403
0.0793158040171497,0.2429818058636
-0.0578356749796422,0.168724719123961
0.0807323952183757,0.240189630107356
0.0501127490344678,0.279848080171589
0.0938195646718148,0.230737721358119
0.0831272460634554,0.236382219655471
0.0839991712771899,0.235216964194246
0.128028899434958,0.210996947110515
0.127729985989239,0.227805540186023
0.0811889338717733,0.212460990535596
0.0878660880401833,0.231090819179097
0.0584813556889263,0.241023076140847
0.115016481324095,0.192086946979099
0.0681610218088354,0.182850490139908
0.0940327618176939,0.23935481422697
0.198082233421762,0.288332937157211
0.127507462852727,0.27574215196937
0.0659324013688619,0.189149119298619
-0.0196469243372032,0.123356184859244
0.0946433722954007,0.243528679248144
0.00212712343184081,0.109413204002984
0.0755075930302972,0.22219134974388
0.179523430272089,0.309954278124621
0.111268781722571,0.241432267467966
0.106507828994005,0.223851700909004
0.108163009545778,0.223790890705845
0.241761620935057,0.379245000783687
0.147447366107875,0.206448129152206
0.06653794860597,0.234604050894872
0.0920161822075825,0.249401928997833
0.156340133200455,0.222742712109108
0.175207323031976,0.30971261154412
0.129769604096954,0.225427541321639
0.272920758338003,0.337070797652854
0.145511455150876,0.232989710754624
0.127277282855229,0.226794657752234
0.128879112343892,0.215182913168882
0.154990127701398,0.186086630273813
0.13395764066432,0.229029151173718
0.188048998617343,0.323625326598126
0.136748069263786,0.204809199657527
0.163370847273226,0.187392844180083
0.183485526686445,0.226554135263378
0.176244434187267,0.244797292020311
0.135334094265113,0.264813657738875
0.0344422337617883,0.117169810836676
0.154033804743014,0.23817509401089
0.163767178373722,0.254420048971173
0.128996982213171,0.235665549513537
0.131243608326276,0.227670666676325
0.266182403318351,0.342252801977797
0.168323663034339,0.246346114643352
0.137936832919844,0.297591058970961
0.21918596765402,0.250934790524508
0.261662028974382,0.328784018332455
0.159065568350662,0.238977064545682
0.0783131989446995,0.172726428024915
0.198268006714825,0.288418692200615
0.143381910021409,0.234197104180962
0.194125303521013,0.263558604004282
0.227993943273802,0.257116790707639
0.299372774686503,0.359984084683512
0.178222746457501,0.315362558650646
0.176324867502143,0.285460592638814
0.243443760687778,0.287556906583524
0.216066623383732,0.230558669787756
0.252501348005343,0.330516900824167
0.246268768642266,0.267637902213427
0.22770578273113,0.289337000135948
0.231746954106842,0.292637908452918
0.268262645993148,0.285284517176227
0.260656896699667,0.273156540180905
0.21713614083592,0.307229241465449
0.0966053801722142,0.230777332845578
0.252913791802072,0.310495885792043
0.257342245082012,0.314342229298689
0.239874158066553,0.278626629317838
0.251333204159879,0.342868450355531
0.151554281238644,0.228627399155511
0.275720103897895,0.330662767683084
0.280482644009869,0.334979594002897
0.270441196106742,0.322351010869866
0.290212304300978,0.343901337598946
0.322491450670638,0.368368552754145
0.423655033344123,0.459903533815641
0.285934083866568,0.312408154740106
0.423358789203264,0.490428232501258
0.234091053018066,0.270485542177161
0.3210676470808,0.373013065171839
0.326457549688474,0.378213308547045
0.331919223224086,0.383514610007113
0.337453080484431,0.388917549678893
0.343059534266304,0.394422707689238
0.298954322892479,0.394731083896067
0.354491882581805,0.405741999233033
0.344395237010113,0.417050430296881
0.368153846566458,0.458326535105692
0.372195198886367,0.423502077259271
0.41416664960051,0.457147912484288
0.341472008850289,0.472093260137559
0.390574174911563,0.442213447182618
0.410284648963371,0.43628344917359
0.414802905680449,0.493824697658595
0.436717167966123,0.456357546854559
0.297814982774461,0.37784782583796
0.422737539430992,0.475555588350938
0.381605231622185,0.482776489924645
0.40321483056715,0.527588402937884
0.442972763888061,0.496880313411075
0.488045783266459,0.516749827101883
0.456860295866599,0.51165623238168
0.463924514948399,0.519213762926694
0.446091546563928,0.522786484267785
0.495547784919288,0.501255690922645
0.485603938125455,0.542571600322808
0.492994043817672,0.550587895131378
0.50046665315448,0.558720331322967
0.459678463314378,0.536381641658178
0.515661033949043,0.575335948362613
0.523383631000387,0.583820289464375
0.66801539293109,0.747862585251241
0.539081702395172,0.601144937466036
0.58065502750128,0.623937345979058
0.571019711091769,0.633508432828285
0.575894630674044,0.652590386737184
0.605488182467487,0.63781101943564
0.579821262269762,0.646560097212433
0.598591145925164,0.633312838824877
0.613585041520049,0.697404947492334
0.623352745563834,0.695034902537895
0.575017665076637,0.704909056942694
0.628979762386117,0.733275057449686
0.646024507804429,0.663628950456268
0.600680604822822,0.710597085289665
0.649552332787439,0.725625703879501
0.658670942762376,0.736075050450392
0.667880312317791,0.746652140941349
0.536033639831508,0.664880792896189
0.708203153032298,0.764028714372672
0.731991345891442,0.795915868274519
0.719929266343623,0.783316989198462
