-0.800670787007252,0.45769134047569
-0.785641520486033,0.46359217073336
-0.770846438793632,0.468557991242713
-0.756285259132766,0.472611406960548
-0.741957698706151,0.475775022843664
-0.727863474716505,0.478071443848859
-0.714002304366544,0.479523274932931
-0.700373904858986,0.480153121052679
-0.686977993396547,0.479983587164901
-0.673814287181944,0.479037278226396
-0.660882503417894,0.477336799193963
-0.648182359307115,0.474904755024399
-0.635713572052322,0.471763750674503
-0.623475858856233,0.467936391101074
-0.611468936921565,0.463445281260911
-0.700806187417147,0.564713537229104
-0.58814633564736,0.452562230607572
-0.690354232992476,0.548500156009299
-0.468694528407318,0.331032403379563
-0.55488629826463,0.431824651547016
-0.544258185155542,0.423825744199211
-0.533858883726893,0.415321321282261
-0.523688111181401,0.406333987752963
-0.411387043231913,0.291319518862808
-0.504031021550752,0.387001008684521
-0.494544138871029,0.376700573058973
-0.593613847626817,0.469561268298603
-0.591281236129266,0.241281204775211
-0.575425159256225,0.445065860249853
-0.574774907116258,0.449251374471549
-0.330793790066696,0.424570825969781
-0.5375884671359,0.400648257637252
-0.318873095823247,0.191104689170399
-0.541614236690498,0.398871930265867
-0.535741140824798,0.363969275018104
-0.510286394345316,0.157455440997188
-0.501322235700828,0.129065691362623
-0.516835380428855,0.117148890216604
-0.511640285241884,0.125254567367255
-0.479355008894579,0.316923421712291
-0.488870060666549,0.281589430607431
-0.472978592231764,0.291661664385003
-0.458507232531379,0.269035470582979
-0.244170947669678,0.239179893919714
-0.239460444012176,0.224199706039961
-0.352183880635073,0.118333388207805
-0.347412962100403,0.104537687021719
-0.342863502516812,0.0908241991432466
-0.338535219087016,0.0772155295291876
-0.334427829013734,0.0637342831363402
-0.330541049499681,0.0504030649215028
-0.326874597747575,0.037244479841474
-0.323428190960133,0.0242811328530521
-0.320201546340071,0.0115356289130358
-0.317194381090106,-0.0009694270217767
-0.314406412412956,-0.0132114299945868
-0.311837357511338,-0.025167775048596
-0.309486933587967,-0.0368158572270059
-0.307354857845562,-0.048133071573018
-0.305440847486839,-0.0590968131298338
-0.303744619714514,-0.0696844769406549
-0.302265891731306,-0.0798734580486828
-0.30100438073993,-0.089641151497119
-0.299959803943104,-0.098964952329165
-0.299131878543545,-0.107822255588022
-0.298520321743969,-0.116190456316893
-0.298124850747093,-0.124046949558978
-0.297945182755635,-0.131369130357478
-0.297981034972312,-0.138134393755597
-0.298232124599839,-0.144320134796534
-0.298698168840935,-0.149903748523492
-0.299378884898315,-0.154862629979672
-0.300273989974698,-0.159174174208276
-0.301383201272799,-0.162815776252504
-0.302706235995337,-0.16576483115556
-0.304242811345027,-0.167998733960644
-0.305992644524586,-0.169494879710957
-0.307955452736732,-0.170230663449702
-0.310130953184182,-0.17018348022008
-0.312518863069652,-0.169330725065292
-0.315118899595859,-0.167649793028539
-0.317930779965521,-0.165118079153025
-0.320954221381353,-0.161712978481949
-0.324188941046074,-0.157411886058514
-0.327634656162399,-0.15219219692592
-0.331291083933047,-0.14603130612737
-0.335157941560733,-0.138906608706066
-0.339234946248175,-0.130795499705208
-0.343521815198089,-0.121675374167998
-0.348018265613193,-0.111523627137637
-0.352724014696204,-0.100317653657328
-0.357638779649838,-0.0880348487702719
-0.362762277676812,-0.0746526075196698
-0.368094225979843,-0.0601483249487235
-0.373634341761649,-0.0444993961006345
-0.379382342224945,-0.0276832160186043
-0.38533794457245,-0.00967717974583456
-0.391500866006879,0.00954131767447329
-0.39787082373095,0.0299948811991177
-0.40444753494738,0.0517061157848972
-0.409515580218822,0.0688284866524258
-0.416062234872191,0.0915438088396703
-0.422037476278994,0.113072415764094
-0.427448522153535,0.133430777248221
-0.432302590210114,0.152635363114575
-0.436606898163035,0.170702643185679
-0.4403686637266,0.187649087284058
-0.44359510461511,0.203491165232235
-0.446293438542869,0.218245346852734
-0.448470883224178,0.231928101968079
-0.45013465637334,0.244555900400793
-0.451291975704657,0.256145211973401
-0.45195005893243,0.266712506508426
-0.452116123770964,0.276274253828392
-0.451797387934558,0.284846923755822
-0.451001069137517,0.292446986113241
-0.449734385094142,0.299090910723172
-0.448004553518735,0.30479516740814
-0.445818792125599,0.309576225990667
-0.443184318629036,0.313450556293278
-0.440108350743348,0.316434628138496
-0.436598106182837,0.318544911348845
-0.432660802661806,0.31979787574685
-0.428303657894556,0.320209991155033
-0.423533889595391,0.319797727395918
-0.418358715478613,0.318577554292031
-0.412785353258523,0.316565941665893
-0.406821020649423,0.313779359340029
-0.400472935365617,0.310234277136962
-0.393748315121407,0.305947164879218
-0.386654377631093,0.300934492389318
-0.37919834060898,0.295212729489788
-0.371387421769369,0.28879834600315
-0.363228838826562,0.281707811751929
-0.354729809494862,0.273957596558648
-0.345897551488571,0.265564170245832
-0.336739282521991,0.256544002636003
-0.327262220309424,0.246913563551687
-0.317473582565173,0.236689322815406
-0.307380587003539,0.225887750249683
-0.296990451338826,0.214525315677045
-0.286310393285335,0.202618488920013
-0.275347630557369,0.190183739801112
-0.26410938086923,0.177237538142865
-0.252602861935219,0.163796353767796
-0.24083529146964,0.14987665649843
-0.228813887186795,0.135494916157289
-0.216545866800985,0.120667602566898
-0.204038448026514,0.10541118554978
-0.191298848577683,0.0897421349284599
-0.178334286168794,0.0736769205254603
-0.165151978514151,0.0572320121633055
-0.151759143328054,0.0404238796645191
-0.138162998324807,0.0232689928516251
-0.124370761218711,0.00578382154714718
-0.11038964972407,-0.0120151644263909
-0.0962268815551839,-0.0301114952464653
-0.0818896744263565,-0.0484887010905523
-0.0673852460518898,-0.067130312136128
-0.0527208141460858,-0.0860198585606688
-0.0379035964232469,-0.105140870541651
-0.0229408105976754,-0.12447687825655
-0.00783967438367349,-0.144011411882843
0.00739259450445665,-0.163728001598006
0.0227487783524127,-0.183610177579515
0.0382216594458925,-0.203641470004846
0.0538040200705936,-0.223805409051476
0.069488642512214,-0.24408552489688
0.0852683090564512,-0.264465347718535
0.101135801989003,-0.284928407693918
0.117083903595567,-0.305458235000504
0.133105396161842,-0.326038359815769
0.149193061973524,-0.34665231231719
0.165339683316313,-0.367283622682243
0.181538042475904,-0.387915821088405
0.197780921737997,-0.408532437713151
0.214061103388289,-0.429117002733957
0.230371369712477,-0.449653046328301
0.24670450299626,-0.470124098673657
0.263053285525335,-0.490513689947503
0.2794104995854,-0.510805350327314
0.295768927462153,-0.530982609990567
0.312121351441291,-0.551028999114738
0.328460553808512,-0.570928047877303
0.344779316849515,-0.590663286455738
0.361070422849996,-0.61021824502752
0.377326654095653,-0.629576453770125
0.393540792872185,-0.648721442861029
0.409705621465288,-0.667636742477708
0.425813922160662,-0.686305882797639
0.441858477244003,-0.704712393998297
0.457832069001008,-0.722839806257159
0.473727479717377,-0.740671649751701
0.489537491678807,-0.7581914546594
0.505254887170995,-0.775382751157731
0.52087244847964,-0.792229069424171
0.536382957890438,-0.808713939636195
0.551779197689088,-0.824820891971281
0.567053950161287,-0.840533456606904
0.582199997592734,-0.855835163720541
0.593470728577065,-0.867031911179354
0.607883571672231,-0.881126501470875
0.621187409682013,-0.893894849598783
0.633406156566433,-0.9053608037406
0.64456372628551,-0.915548212073847
0.654684032799265,-0.924480922776045
0.663790990067718,-0.932182784024716
0.671908512050891,-0.938677643997382
0.679060512708803,-0.943989350871563
0.685270906001475,-0.948141752824782
0.690563605888927,-0.951158698034559
0.69496252633118,-0.953064034678417
0.698491581288254,-0.953881610933876
0.701174684720171,-0.953635274978459
0.703035750586949,-0.952348874989686
0.70409869284861,-0.95004625914508
0.704387425465174,-0.946751275622161
0.703925862396661,-0.942487772598452
0.702737917603093,-0.937279598251472
0.700847505044489,-0.931150600758745
0.69827853868087,-0.924124628297792
0.695054932472257,-0.916225529046134
0.691200600378669,-0.907477151181292
0.686739456360128,-0.897903342880788
0.681695414376654,-0.887527952322143
0.676092388388267,-0.87637482768288
0.669954292354987,-0.864467817140519
0.663305040236836,-0.851830768872582
0.656168545993834,-0.83848753105659
0.648568723586,-0.824461951870065
0.640529486973356,-0.809777879490528
0.632074750115922,-0.794459162095502
0.623228426973719,-0.778529647862506
0.614014431506766,-0.762013184969063
0.604456677675085,-0.744933621592694
0.594579079438696,-0.727314805910921
0.58440555075762,-0.709180586101266
0.573960005591876,-0.690554810341248
0.563266357901485,-0.671461326808391
0.552348521646468,-0.651923983680216
0.541230410786845,-0.631966629134244
0.529935939282637,-0.611613111347996
0.518489021093864,-0.590887278498994
0.506913570180546,-0.56981297876476
0.495233500502704,-0.548414060322814
0.483472726020359,-0.52671437135068
0.471655160693531,-0.504737760025877
0.45980471848224,-0.482508074525927
0.447945313346508,-0.460049163028352
0.436100859246353,-0.437384873710674
0.424295270141797,-0.414539054750414
0.412552459992861,-0.391535554325092
0.400896342759564,-0.368398220612232
0.389350832401927,-0.345150901789354
0.377939842879971,-0.321817446033979
0.366687288153716,-0.29842170152363
0.355617082183183,-0.274987516435827
0.344753138928392,-0.251538738948093
0.334119372349363,-0.228099217237948
0.323739696406117,-0.204692799482915
0.313638025058674,-0.181343333860514
0.303838272267055,-0.158074668548266
0.294364351991281,-0.134910651723695
0.285240178191371,-0.11187513156432
0.276489664827347,-0.0889919562476644
0.268136725859228,-0.0662849739512483
0.260205275247036,-0.0437780328525938
0.25271922695079,-0.0214949811292221
0.245702494930511,0.000540333041345209
0.239178993146219,0.0223040614815867
0.233172635557936,0.0437723560139808
0.227707336125681,0.0649213684610061
0.222807008809475,0.0857272506451412
0.218495567569339,0.106166154388864
0.214796926365292,0.126214231514654
0.211734999157355,0.14584763384499
0.20933369990555,0.165042513202349
0.207616942569895,0.18377502140921
0.206608641110413,0.202021310288053
0.206332709487122,0.219757531661354
0.206813061660044,0.236959837351594
0.208073611589199,0.25360437918125
0.210138273234608,0.269667308972801
0.21303096055629,0.285124778548725
0.216775587514267,0.299952939731502
0.221396068068559,0.314127944343609
0.226916316179186,0.327625944207525
0.233360245806169,0.340423091145728
0.240751770909529,0.352495536980698
0.249114805449285,0.363819433534912
0.258473263385458,0.37437093263085
0.268851058678069,0.384126186090989
0.280272105287138,0.393061345737808
0.292760317172686,0.401152563393787
0.306339608294733,0.408375990881402
0.321033892613299,0.414707780023133
0.336867084088406,0.420124082641458
0.353863096680072,0.424601050558857
0.37204584434832,0.428114835597806
0.391439241053169,0.430641589580786
