-0.320967145827236,0.151583012464161
0.512654898597332,-0.225055339732135
-0.545387388297752,-0.19551267618492
-0.727798994952133,-0.4584711106023
-0.910210601606514,-0.72142954501968
-0.803490923981107,0.85881838189327
-0.826045833861604,0.302714077041098
-0.848600743742102,-0.253390227811075
-0.47216531575251,0.501450461778675
0.0971600568410922,0.558886223248245
