0.475131253936032,-0.562720762883572
0.468165887676457,-0.558839493055128
0.461224727359988,-0.554997120266511
0.454307783751307,-0.551193468784716
0.447415067615096,-0.547428362876739
0.440546589716039,-0.543701626809574
0.433702360818818,-0.540013084850215
0.426882391688115,-0.536362561265658
0.420086693088615,-0.532749880322898
0.413315275784998,-0.52917486628893
0.406568150541949,-0.525637343430748
0.399845328124148,-0.522137136015347
0.393146819296281,-0.518674068309721
0.386472634823028,-0.515247964580867
0.379822785469074,-0.511858649095778
0.373197281999099,-0.50850594612145
0.366596135177788,-0.505189679924877
0.360019355769823,-0.501909674773055
0.353466954539887,-0.498665754932977
0.346938942252662,-0.49545774467164
0.340435329672831,-0.492285468256037
0.333956127565077,-0.489148749953163
0.327501346694082,-0.486047414030014
0.32107099782453,-0.482981284753585
0.314665091721103,-0.479950186390869
0.308283639148483,-0.476953943208862
0.301926650871354,-0.473992379474559
0.295594137654398,-0.471065319454955
0.289286110262297,-0.468172587417044
0.283002579459735,-0.465314007627821
0.276743556011395,-0.462489404354282
0.270509050681958,-0.45969860186342
0.264299074236108,-0.456941424422232
0.258113637438528,-0.454217696297711
0.251952751053899,-0.451527241756852
0.245816425846905,-0.448869885066651
0.239704672582229,-0.446245450494102
0.233617502024554,-0.4436537623062
0.227554924938561,-0.44109464476994
0.221516952088933,-0.438567922152317
0.215503594240355,-0.436073418720325
0.209514862157507,-0.433610958740959
0.203550766605073,-0.431180366481215
0.197611318347736,-0.428781466208087
0.191696528150178,-0.42641408218857
0.185806406777082,-0.424078038689659
0.17994096499313,-0.421773159978348
0.174100213563006,-0.419499270321632
0.168284163251392,-0.417256193986507
0.162492824822971,-0.415043755239968
0.156726209042426,-0.412861778349007
0.150984326674439,-0.410710087580622
0.145267188483692,-0.408588507201807
0.13957480523487,-0.406496861479556
0.133907187692654,-0.404434974680864
0.128264346621727,-0.402402671072727
0.122646292786771,-0.400399774922138
0.117053036952471,-0.398426110496094
0.111484589883507,-0.396481502061588
0.105940962344564,-0.394565773885616
0.100422165100323,-0.392678750235172
0.0949282089154682,-0.390820255377251
0.0894591045546811,-0.388990113578849
0.0840148627826448,-0.387188149106959
0.0785954943640421,-0.385414186228577
0.0732010100635557,-0.383668049210698
0.0678314206458683,-0.381949562320316
0.0624867368756625,-0.380258549824426
0.0571669695176213,-0.378594835990024
0.0518721293364271,-0.376958245084103
0.0466022270967627,-0.37534860137366
0.041357273563311,-0.373765729125688
0.0361372795007546,-0.372209452607182
0.0309422556737761,-0.370679596085138
0.0257722128470584,-0.36917598382655
0.020627161785284,-0.367698440098413
0.0155071132531359,-0.366246789167722
0.0104120780152966,-0.364820855301472
0.00534206683644883,-0.363420462766657
0.000297090481275311,-0.362045435830272
-0.00472284028554107,-0.360695598759313
-0.00971771469931777,-0.359370775820774
-0.0146875219953721,-0.35807079128165
-0.0196322514090213,-0.356795469408935
-0.0245518921755826,-0.355544634469626
-0.0294464335303732,-0.354318110730715
-0.0343158647087106,-0.353115722459199
-0.039160174945912,-0.351937293922072
-0.0439793534772947,-0.350782649386329
-0.0487733895381758,-0.349651613118965
-0.0535422723638729,-0.348544009386974
-0.0582859911897032,-0.347459662457352
-0.0630045352509837,-0.346398396597093
-0.0676978937830321,-0.345360036073193
-0.0723660560211654,-0.344344405152645
-0.0770090112007009,-0.343351328102445
-0.081626748556956,-0.342380629189588
-0.086219257325248,-0.341432132681069
-0.0907865267408941,-0.340505662843882
-0.0953285460392115,-0.339601043945022
-0.0998453044555177,-0.338718100251484
-0.10433679122513,-0.337856656030264
-0.108802995583365,-0.337016535548354
-0.113243906765541,-0.336197563072752
-0.117659514006975,-0.335399562870451
-0.122049806542984,-0.334622359208446
-0.126414773608885,-0.333865776353732
-0.130754404439996,-0.333129638573305
-0.135068688271634,-0.332413770134158
-0.139357614339116,-0.331717995303287
-0.14362117187776,-0.331042138347686
-0.147859350122883,-0.33038602353435
-0.152072138309801,-0.329749475130275
-0.156259525673834,-0.329132317402455
-0.160421501450296,-0.328534374617885
-0.164558054874507,-0.327955471043559
-0.168669175181783,-0.327395430946473
-0.172754851607442,-0.326854078593621
-0.1768150733868,-0.326331238251999
-0.180849829755175,-0.3258267341886
-0.184859109947885,-0.325340390670421
-0.188842903200247,-0.324872031964455
-0.192801198747577,-0.324421482337698
-0.196733985825194,-0.323988566057144
-0.200641253668414,-0.323573107389788
-0.204522991512555,-0.323174930602626
-0.208379188592934,-0.322793859962652
-0.212209834144869,-0.32242971973686
-0.216014917403676,-0.322082334192246
-0.219794427604673,-0.321751527595805
-0.223548353983178,-0.32143712421453
-0.227276685774506,-0.321138948315418
-0.230979412213977,-0.320856824165463
-0.234656522536907,-0.32059057603166
-0.238308005978613,-0.320340028181004
-0.241933851774413,-0.320105004880489
-0.245534049159624,-0.319885330397111
-0.249108587369563,-0.319680828997863
-0.252657455639548,-0.319491324949742
-0.256180643204895,-0.319316642519742
-0.259678139300922,-0.319156605974857
-0.263149933162947,-0.319011039582083
-0.266596014026287,-0.318879767608415
-0.270016371126258,-0.318762614320846
-0.273410993698179,-0.318659403986373
-0.276779870977366,-0.31856996087199
-0.280122992199137,-0.318494109244692
-0.283440346598809,-0.318431673371473
-0.286731923411699,-0.318382477519329
-0.289997711873125,-0.318346345955254
-0.293237701218404,-0.318323102946243
-0.296451880682853,-0.318312572759291
-0.29964023950179,-0.318314579661393
-0.302802766910531,-0.318328947919544
-0.305939452144395,-0.318355501800738
-0.309050284438698,-0.318394065571971
-0.312135253028757,-0.318444463500237
-0.315194347149891,-0.318506519852531
-0.318227556037416,-0.318580058895848
-0.321234868926649,-0.318664904897182
-0.324216275052908,-0.31876088212353
-0.32717176365151,-0.318867814841884
-0.330101323957772,-0.318985527319241
-0.333004945207012,-0.319113843822595
-0.335882616634547,-0.319252588618941
-0.338734327475694,-0.319401585975274
-0.341560066965771,-0.319560660158588
-0.344359824340094,-0.319729635435879
-0.347133588833982,-0.319908336074141
-0.349881349682751,-0.32009658634037
-0.352603096121718,-0.320294210501559
-0.355298817386202,-0.320501032824704
-0.357968502711518,-0.3207168775768
-0.360612141332985,-0.320941569024842
-0.36322972248592,-0.321174931435824
-0.36582123540564,-0.321416789076741
-0.368386669327462,-0.321666966214588
-0.370926013486704,-0.32192528711636
-0.373439257118683,-0.322191576049051
-0.375926389458716,-0.322465657279658
-0.37838739974212,-0.322747355075173
-0.380822277204214,-0.323036493702593
-0.383231011080313,-0.323332897428912
-0.385613590605735,-0.323636390521125
-0.387970005015799,-0.323946797246227
-0.39030024354582,-0.324263941871213
-0.392604295431116,-0.324587648663077
-0.394882149907005,-0.324917741888814
-0.397133796208803,-0.325254045815419
-0.399359223571829,-0.325596384709888
-0.401558421231399,-0.325944582839214
-0.40373137842283,-0.326298464470393
-0.405878084381441,-0.32665785387042
-0.407998528342548,-0.327022575306288
-0.410092699541468,-0.327392453044994
-0.412160587213518,-0.327767311353533
-0.414202180594017,-0.328146974498898
-0.416217468918281,-0.328531266748084
-0.418206441421628,-0.328920012368088
-0.420169087339375,-0.329313035625902
-0.422105395906839,-0.329710160788523
-0.424015356359337,-0.330111212122946
-0.425898957932187,-0.330516013896164
-0.427756189860706,-0.330924390375172
-0.429587041380212,-0.331336165826967
-0.431391501726021,-0.331751164518542
-0.433169560133451,-0.332169210716892
-0.434921205837819,-0.332590128689013
-0.436646428074442,-0.333013742701898
-0.438345216078639,-0.333439877022543
-0.440017559085725,-0.333868355917943
-0.441663446331018,-0.334299003655093
-0.443282867049837,-0.334731644500986
-0.444875810477497,-0.33516610272262
-0.446442265849316,-0.335602202586987
-0.447982222400612,-0.336039768361083
-0.449495669366701,-0.336478624311902
-0.450982595982902,-0.336918594706441
-0.45244299148453,-0.337359503811692
-0.453876845106905,-0.337801175894652
-0.455284146085342,-0.338243435222315
-0.456664883655159,-0.338686106061676
-0.458019047051674,-0.33912901267973
-0.459346625510204,-0.339571979343472
-0.460647608266065,-0.340014830319896
-0.461921984554576,-0.340457389875997
-0.463169743611053,-0.34089948227877
-0.464390874670815,-0.34134093179521
-0.465585366969177,-0.341781562692313
-0.466753209741458,-0.342221199237072
-0.467894392222975,-0.342659665696482
-0.469008903649044,-0.343096786337539
-0.470096733254984,-0.343532385427237
-0.471157870276112,-0.343966287232571
-0.472192303947744,-0.344398316020535
-0.473200023505198,-0.344828296058126
-0.474181018183792,-0.345256051612337
-0.475135277218843,-0.345681406950164
-0.476062789845668,-0.346104186338601
-0.476963545299584,-0.346524214044643
-0.477837532815908,-0.346941314335285
-0.478684741629958,-0.347355311477521
-0.479505160977052,-0.347766029738348
-0.480298780092506,-0.348173293384758
-0.481065588211637,-0.348576926683748
-0.481805574569764,-0.348976753902313
-0.482518728402203,-0.349372599307446
-0.483205038944271,-0.349764287166143
-0.483864495431287,-0.350151641745399
-0.484497087098566,-0.350534487312208
-0.485102803181427,-0.350912648133565
-0.485681632915187,-0.351285948476466
-0.486233565535162,-0.351654212607905
-0.486758590276671,-0.352017264794877
-0.487256696375031,-0.352374929304376
-0.487727873065558,-0.352727030403398
-0.48817210958357,-0.353073392358938
-0.488589395164385,-0.353413839437989
-0.488979719043319,-0.353748195907548
-0.489343070455691,-0.354076286034609
-0.489679438636817,-0.354397934086166
-0.489988812822014,-0.354712964329215
-0.4902711822466,-0.355021201030751
-0.490526536145892,-0.355322468457768
-0.490754863755208,-0.355616590877261
-0.490956154309864,-0.355903392556225
-0.491130397045178,-0.356182697761655
-0.491277581196468,-0.356454330760545
-0.49139769599905,-0.356718115819891
-0.491490730688242,-0.356973877206688
-0.491556674499361,-0.357221439187929
-0.491595516667725,-0.357460626030611
-0.49160724642865,-0.357691262001727
-0.491591853017454,-0.357913171368273
-0.491549325669454,-0.358126178397244
-0.491479653619968,-0.358330107355634
-0.491382826104313,-0.358524782510439
-0.491258832357806,-0.358710028128652
-0.491107661615764,-0.35888566847727
-0.490929303113505,-0.359051527823286
-0.490723746086346,-0.359207430433696
-0.490490979769604,-0.359353200575494
-0.490230993398597,-0.359488662515676
-0.489943776208641,-0.359613640521236
-0.489629317435055,-0.359727958859168
-0.489287606313155,-0.359831441796469
-0.488918632078258,-0.359923913600132
-0.488522383965683,-0.360005198537153
-0.488098851210746,-0.360075120874526
-0.487648023048764,-0.360133504879246
-0.487169888715055,-0.360180174818308
-0.486664437444937,-0.360214954958708
-0.486131658473725,-0.360237669567439
-0.485571541036739,-0.360248142911496
-0.484984074369294,-0.360246199257875
-0.484369247706709,-0.36023166287357
-0.4837270502843,-0.360204358025576
-0.483057471337384,-0.360164108980888
-0.48236050010128,-0.360110740006501
-0.481636125811305,-0.36004407536941
-0.480884337702775,-0.359963939336609
-0.480105125011008,-0.359870156175093
-0.479298476971321,-0.359762550151858
-0.478464382819031,-0.359640945533897
-0.477602831789457,-0.359505166588206
-0.476713813117914,-0.35935503758178
-0.475797316039721,-0.359190382781613
-0.474853329790195,-0.359011026454701
-0.473881843604652,-0.358816792868038
-0.472882846718411,-0.358607506288619
-0.471856328366788,-0.358382990983439
-0.470802277785102,-0.358143071219492
-0.469720684208668,-0.357887571263774
-0.468611536872804,-0.35761631538328
-0.467474825012828,-0.357329127845004
-0.466310537864057,-0.357025832915941
-0.465118664661809,-0.356706254863085
-0.4638991946414,-0.356370217953433
-0.462652117038147,-0.356017546453978
-0.461377421087369,-0.355648064631715
-0.460075096024382,-0.35526159675364
-0.458745131084504,-0.354857967086747
-0.457387515503051,-0.354436999898031
-0.456002238515342,-0.353998519454487
-0.454589289356693,-0.35354235002311
-0.453148657262422,-0.353068315870894
-0.451680331467846,-0.352576241264834
-0.450184301208283,-0.352065950471925
-0.448660555719049,-0.351537267759163
-0.447109084235462,-0.350990017393541
-0.445529875992839,-0.350424023642055
-0.443922920226498,-0.3498391107717
-0.442288206171756,-0.34923510304947
-0.440625723063929,-0.34861182474236
-0.438935460138336,-0.347969100117366
-0.437217406630294,-0.347306753441481
-0.435471551775119,-0.346624608981701
-0.43369788480813,-0.345922491005021
-0.431896394964643,-0.345200223778435
-0.430067071479976,-0.344457631568938
-0.428209903589446,-0.343694538643526
-0.42632488052837,-0.342910769269192
-0.424411991532066,-0.342106147712933
-0.422471225835851,-0.341280498241742
-0.420502572675042,-0.340433645122614
-0.418506021284957,-0.339565412622545
-0.416481560900912,-0.338675625008529
-0.414429180758225,-0.337764106547561
-0.412348870092214,-0.336830681506636
-0.410240618138195,-0.335875174152748
-0.408104414131487,-0.334897408752894
-0.405940247307405,-0.333897209574066
-0.403748106901268,-0.332874400883261
-0.401527982148392,-0.331828806947473
-0.399279862284096,-0.330760252033697
-0.397003736543696,-0.329668560408927
-0.39469959416251,-0.328553556340159
-0.392367424375854,-0.327415064094388
-0.390007216419047,-0.326252907938608
-0.387618959527405,-0.325066912139814
-0.385202642936246,-0.323856900965001
-0.382758255880887,-0.322622698681164
-0.380285787596645,-0.321364129555297
-0.377785227318838,-0.320081017854396
-0.375256564282783,-0.318773187845455
-0.372699787723797,-0.31744046379547
-0.370114886877197,-0.316082669971434
-0.367501850978301,-0.314699630640343
-0.364860669262427,-0.313291170069192
-0.36219133096489,-0.311857112524976
-0.359493825321009,-0.310397282274689
-0.356768141566101,-0.308911503585326
-0.354014268935483,-0.307399600723882
-0.351232196664473,-0.305861397957353
-0.348421913988387,-0.304296719552732
-0.345583410142544,-0.302705389777014
-0.342716674362259,-0.301087232897195
-0.339821695882851,-0.299442073180269
-0.336898463939638,-0.297769734893232
-0.333946967767935,-0.296070042303077
-0.330967196603061,-0.2943428196768
-0.327959139680332,-0.292587891281396
-0.324922786235067,-0.290805081383859
-0.321858125502581,-0.288994214251185
-0.318765146718194,-0.287155114150368
-0.315643839117221,-0.285287605348403
-0.312494191934981,-0.283391512112284
-0.309316194406789,-0.281466658709008
-0.306109835767965,-0.279512869405568
-0.302875105253825,-0.277529968468959
-0.299611992099686,-0.275517780166177
-0.296320485540865,-0.273476128764215
-0.29300057481268,-0.27140483853007
-0.289652249150449,-0.269303733730735
-0.286275497789488,-0.267172638633206
-0.282870309965114,-0.265011377504477
-0.279436674912646,-0.262819774611544
-0.2759745818674,-0.260597654221401
-0.272484020064694,-0.258344840601042
-0.268964978739844,-0.256061158017464
-0.268964978739844,-0.256061158017464
-0.265442698902532,-0.253779358347218
-0.261942405926416,-0.251532148059204
-0.258464065592782,-0.249319283308935
-0.255007643682914,-0.247140520251923
-0.251573105978097,-0.24499561504368
-0.248160418259616,-0.24288432383972
-0.244769546308757,-0.240806402795555
-0.241400455906804,-0.238761608066699
-0.238053112835042,-0.236749695808662
-0.234727482874755,-0.23477042217696
-0.23142353180723,-0.232823543327103
-0.228141225413751,-0.230908815414605
-0.224880529475602,-0.229025994594978
-0.22164140977407,-0.227174837023736
-0.218423832090438,-0.22535509885639
-0.215227762205991,-0.223566536248455
-0.212053165902016,-0.221808905355441
-0.208900008959796,-0.220081962332863
-0.205768257160616,-0.218385463336232
-0.202657876285762,-0.216719164521062
-0.199568832116519,-0.215082822042865
-0.19650109043417,-0.213476192057154
-0.193454617020003,-0.211899030719441
-0.1904293776553,-0.21035109418524
-0.187425338121347,-0.208832138610063
-0.18444246419943,-0.207341920149423
-0.181480721670833,-0.205880194958832
-0.178540076316841,-0.204446719193803
-0.175620493918739,-0.203041249009849
-0.172721940257811,-0.201663540562483
-0.169844381115344,-0.200313350007217
-0.166987782272622,-0.198990433499564
-0.164152109510929,-0.197694547195037
-0.161337328611551,-0.196425447249148
-0.158543405355772,-0.195182889817411
-0.155770305524879,-0.193966631055337
-0.153017994900155,-0.19277642711844
-0.150286439262885,-0.191612034162232
-0.147575604394355,-0.190473208342226
-0.144885456075849,-0.189359705813935
-0.142215960088653,-0.188271282732872
-0.139567082214051,-0.187207695254548
-0.136938788233328,-0.186168699534478
-0.134331043927769,-0.185154051728173
-0.13174381507866,-0.184163507991146
-0.129177067467284,-0.18319682447891
-0.126630766874928,-0.182253757346978
-0.124104879082875,-0.181334062750862
-0.121599369872412,-0.180437496846076
-0.119114205024822,-0.179563815788131
-0.116649350321392,-0.178712775732541
-0.114204771543405,-0.177884132834818
-0.111780434472146,-0.177077643250475
-0.109376304888902,-0.176293063135025
-0.106992348574956,-0.17553014864398
-0.104628531311593,-0.174788655932853
-0.102284818880099,-0.174068341157158
-0.0999611770617587,-0.173368960472405
-0.0976575716378565,-0.172690270034109
-0.0953739683896778,-0.172032025997782
-0.0931103330985073,-0.171393984518937
-0.09086663154563,-0.170775901753086
-0.0886428295123309,-0.170177533855742
-0.0864388927798949,-0.169598636982418
-0.0842547871296071,-0.169038967288626
-0.0820904783427522,-0.16849828092988
-0.0799459322006152,-0.167976334061692
-0.0778211144844813,-0.167472882839574
-0.0757159909756352,-0.16698768341904
-0.0736305274553618,-0.166520491955601
-0.0715646897049462,-0.166071064604772
-0.0695184435056734,-0.165639157522064
-0.0674917546388282,-0.16522452686299
-0.0654845888856955,-0.164826928783064
-0.0634969120275604,-0.164446119437796
-0.0615286898457078,-0.164081854982702
-0.0595798881214227,-0.163733891573292
-0.0576504726359899,-0.16340198536508
-0.0557404091706944,-0.163085892513579
-0.0538496635068212,-0.162785369174301
-0.0519782014256553,-0.162500171502758
-0.0501259887084815,-0.162230055654465
-0.0482929911365848,-0.161974777784932
-0.0464791744912502,-0.161734094049674
-0.0446845045537626,-0.161507760604203
-0.0429089471054069,-0.161295533604031
-0.0411524679274681,-0.161097169204671
-0.0394150328012312,-0.160912423561636
-0.0376966075079811,-0.160741052830439
-0.0359971578290027,-0.160582813166592
-0.034316649545581,-0.160437460725608
-0.032655048439001,-0.160304751663
-0.0310123202905475,-0.160184442134281
-0.0293884308815055,-0.160076288294962
-0.02778334599316,-0.159980046300558
-0.026197031406796,-0.15989547230658
-0.0246294529036983,-0.159822322468541
-0.0230805762651519,-0.159760352941955
-0.0215503672724418,-0.159709319882333
-0.0200387917068529,-0.159668979445189
-0.0185458153496701,-0.159639087786034
-0.0170714039821784,-0.159619401060383
-0.0156155233856628,-0.159609675423747
-0.0141781393414082,-0.15960966703164
-0.0127592176306995,-0.159619132039574
-0.0113587240348217,-0.159637826603061
-0.00997662433505974,-0.159665506877615
-0.00861288431269858,-0.159701929018748
-0.00726746974902315,-0.159746849181973
-0.00594034642531834,-0.159800023522802
-0.00463148012286919,-0.159861208196749
-0.00334083662296058,-0.159930159359325
-0.0020683817068775,-0.160006633166045
-0.000814081155904874,-0.16009038577242
0.000422099248672363,-0.160181173333963
0.00164019372556922,-0.160278752006186
0.00284023649350078,-0.160382877944604
0.00402226177118212,-0.160493307304727
0.00518630377732825,-0.16060979624207
0.00633239673065423,-0.160732100912145
0.00746057484987512,-0.160859977470463
0.00857087235370599,-0.160993182072539
0.0096633234608619,-0.161131470873885
0.0107379623900579,-0.161274600030013
0.0117948233600089,-0.161422325696437
0.0128339405894302,-0.161574404028668
0.0138553482970367,-0.161730591182221
0.0148590807015435,-0.161890643312606
0.0158451720216656,-0.162054316575338
0.0168136564761182,-0.162221367125929
0.0177645682836161,-0.162391551119891
0.0186979416628746,-0.162564624712737
0.0196138108326087,-0.16274034405998
0.0205122100115333,-0.162918465317133
0.0213931734183636,-0.163098744639709
0.0222567352718146,-0.163280938183219
0.0231029297906014,-0.163464802103178
0.023931791193439,-0.163650092555096
0.0247433536990425,-0.163836565694488
0.0255376515261269,-0.164023977676866
0.0263147188934072,-0.164212084657743
0.0270745900195986,-0.164400642792631
0.0278172991234161,-0.164589408237043
0.0285428804235748,-0.164778137146492
0.0292513681387896,-0.164966585676491
0.0299427964877757,-0.165154509982551
0.0306171996892481,-0.165341666220187
0.0312746119619219,-0.16552781054491
0.031915067524512,-0.165712699112234
0.0325386005957336,-0.16589608807767
0.0331452453943017,-0.166077733596733
0.0337350361389314,-0.166257391824934
0.0343080070483378,-0.166434818917786
0.0348641923412357,-0.166609771030802
0.0354036262363404,-0.166782004319494
0.035926342952367,-0.166951274939377
0.0364323767080303,-0.167117339045961
0.0369217617220455,-0.167279952794759
0.0373945322131276,-0.167438872341286
0.0378507223999918,-0.167593853841052
0.038290366501353,-0.167744653449572
0.0387134987359263,-0.167891027322357
0.0391201533224268,-0.16803273161492
0.0395103644795694,-0.168169522482775
0.0398841664260694,-0.168301156081433
0.0402415933806416,-0.168427388566408
0.0405826795620012,-0.168547976093211
0.0409074591888633,-0.168662674817357
0.0412159664799428,-0.168771240894357
0.0415082356539548,-0.168873430479725
0.0417843009296144,-0.168968999728973
0.0420441965256367,-0.169057704797613
0.0422879566607366,-0.169139301841159
0.0425156155536293,-0.169213547015123
0.0427272074230298,-0.169280196475018
0.0429227664876531,-0.169339006376356
0.0431023269662143,-0.169389732874651
0.0432659230774285,-0.169432132125415
0.0434135890400107,-0.169465960284161
0.0435453590726759,-0.169490973506401
0.0436612673941393,-0.169506927947648
0.0437613482231159,-0.169513579763415
0.0438456357783206,-0.169510685109214
0.0439141642784686,-0.169498000140559
0.043966967942275,-0.169475281012962
0.0440040809884547,-0.169442283881936
0.0440255376357229,-0.169398764902993
0.0440313721027946,-0.169344480231646
0.0440216186083848,-0.169279186023408
0.0439963113712086,-0.169202638433791
0.043955484609981,-0.169114593618309
0.0438991725434172,-0.169014807732474
0.0438274093902321,-0.168903036931798
0.0437402293691408,-0.168779037371795
0.0436376666988584,-0.168642565207977
0.0435197555980999,-0.168493376595857
0.0433865302855803,-0.168331227690948
0.0432380249800148,-0.168155874648761
0.0430742739001184,-0.167967073624811
0.0428953112646061,-0.167764580774609
0.0427011712921929,-0.167548152253669
0.042491888201594,-0.167317544217503
0.0422674962115244,-0.167072512821624
0.0420280295406991,-0.166812814221544
0.0417735224078333,-0.166538204572776
0.0415040090316419,-0.166248440030834
0.0412195236308399,-0.165943276751229
0.0409201004241426,-0.165622470889474
0.0406057736302648,-0.165285778601083
0.0402765774679217,-0.164932956041567
0.0399325461558283,-0.16456375936644
0.0395737139126997,-0.164177944731214
0.0392001149572509,-0.163775268291402
0.038811783508197,-0.163355486202517
0.0384087537842531,-0.162918354620071
0.0379910600041341,-0.162463629699577
0.0375587363865551,-0.161991067596548
0.0371118171502312,-0.161500424466496
0.0366503365138775,-0.160991456464935
0.0361743286962089,-0.160463919747377
0.0356838279159406,-0.159917570469334
0.0351788683917877,-0.159352164786319
0.034659484342465,-0.158767458853846
0.0341257099866878,-0.158163208827427
0.0335775795431711,-0.157539170862573
0.0330151272306298,-0.1568951011148
0.0324383872677791,-0.156230755739618
0.0318473938733341,-0.15554589089254
0.0312421812660097,-0.15484026272908
0.0306227836645211,-0.15411362740475
0.0299892352875832,-0.153365741075063
0.0293415703539112,-0.152596359895531
0.02867982308222,-0.151805240021668
0.0280040276912249,-0.150992137608985
0.0273142183996406,-0.150156808812996
0.0266104294261825,-0.149299009789214
0.0258926949895654,-0.14841849669315
0.0251610493085046,-0.147515025680318
0.0244155266017149,-0.146588352906231
0.0236561610879115,-0.145638234526401
0.0228829869858093,-0.14466442669634
0.0220960385141236,-0.143666685571563
0.0212953498915693,-0.14264476730758
0.0204809553368615,-0.141598428059906
0.0196528890687151,-0.140527423984052
0.0188111853058454,-0.139431511235532
0.0179558782669673,-0.138310445969858
0.017087002170796,-0.137163984342543
0.0162045912360463,-0.135991882509099
0.0153086796814334,-0.13479389662504
0.0143993017256724,-0.133569782845877
0.0134764915874783,-0.132319297327125
0.0125402834855662,-0.131042196224294
0.011590711638651,-0.1297382356929
0.0106278102654479,-0.128407171888452
0.00965161358467202,-0.127048760966466
0.00866215581503819,-0.125662759082453
0.00765947117526165,-0.124248922391925
0.00664359388405733,-0.122807007050397
0.00561455816014038,-0.121336769213379
0.0045723982222258,-0.119837965036386
0.00351714828902867,-0.11831035067493
0.00244884257926399,-0.116753682284524
0.00136751531164692,-0.115167716020679
0.000273200704892354,-0.11355220803891
-0.000834067022284453,-0.111906914494728
-0.00195425365116866,-0.110231591543647
-0.00308732496304501,-0.108525995341179
-0.00423324673919866,-0.106789882042836
-0.00539198476091435,-0.105023007804133
-0.00656350480947719,-0.10322512878058
-0.00774777266617201,-0.101396001127692
-0.00894475411228384,-0.0995353810009797
-0.0101544149290976,-0.0976430245559572
-0.0113767208978982,-0.0957186879481368
-0.0126116377999706,-0.0937621273330312
-0.0138591314165998,-0.0917730988661532
-0.0151191675290707,-0.0897513587030154
-0.0163917119186683,-0.0876966629991305
-0.0176767303666774,-0.0856087679100114
-0.0189741886543832,-0.0834874295911705
-0.0202840525630703,-0.0813324041981209
-0.021606287874024,-0.0791434478863749
-0.0229408603685291,-0.0769203168114456
-0.0242877358278705,-0.0746627671288454
-0.0256468800333331,-0.0723705549940872
-0.027018258766202,-0.0700434365626836
-0.0284018378077621,-0.0676811679901474
-0.0297975829392983,-0.0652835054319912
-0.0312054599420955,-0.0628502050437279
-0.0326254345974388,-0.06038102298087
-0.034057472686613,-0.0578757153989304
-0.0355015399909032,-0.0553340384534217
-0.0369576022915942,-0.0527557482998567
-0.038425625369971,-0.0501406010937479
-0.0399055750073185,-0.0474883529906083
-0.0413974169849218,-0.0447987601459503
-0.0429011170840657,-0.042071578715287
-0.0444166410860352,-0.0393065648541307
-0.0459439547721152,-0.0365034747179945
-0.0474830239235907,-0.0336620644623908
-0.0490338143217466,-0.0307820902428325
-0.0505962917478679,-0.0278633082148321
-0.0521704219832396,-0.0249054745339027
-0.0537561708091465,-0.0219083453555566
-0.0553535040068736,-0.0188716768353068
-0.0569623873577059,-0.0157952251286657
-0.0585827866429283,-0.0126787463911465
-0.0602146676438258,-0.00952199677826134
-0.0618579961416831,-0.00632473244552342
-0.0635127379177856,-0.00308670954844509
-0.0651788587534179,0.000192315757460634
-0.066856324429865,0.00351258731668136
-0.0685451007284119,0.00687434897370401
-0.0702451534303436,0.0102778445730163
-0.0719564483169449,0.013723317959105
-0.073678951169501,0.017211012976458
-0.0754126277692965,0.0207411734695619
-0.0771574438976166,0.0243140432829047
-0.0789133653357461,0.0279298662609731
-0.0806803578649701,0.0315888862482548
-0.0824583872665733,0.0352913470892368
-0.084247419321841,0.0390374926284066
-0.0860474198120579,0.0428275667102512
-0.087858354518509,0.0466618131792584
-0.0896801892224792,0.0505404758799148
-0.0915128897052536,0.0544637986567084
-0.0933564217481169,0.0584320253541259
-0.0952107511323543,0.062445399816655
-0.0970758436392506,0.0665041658887827
-0.0989516650500908,0.0706085674149966
-0.10083818114616,0.0747588482397835
-0.102735357708743,0.0789552522076312
-0.104643160519124,0.0831980231630267
-0.106561555358589,0.0874874049504575
-0.108490508008423,0.0918236414144105
-0.11042998424991,0.0962069763993735
-0.112379949864336,0.100637653749833
-0.114340370632986,0.105115917310277
-0.116311212337143,0.109642010925193
-0.118292440758094,0.114216178439068
-0.120284021677124,0.118838663696389
-0.122285920875516,0.123509710541643
-0.124298104134557,0.128229562819318
-0.126320537235531,0.132998464373901
-0.128353185959723,0.13781665904988
-0.130396016088418,0.142684390691741
-0.132448993402901,0.147601903143971
-0.134512083684457,0.15256944025106
-0.136585252714371,0.157587245857492
-0.138668466273928,0.162655563807757
-0.140761690144412,0.16777463794634
-0.142864890107109,0.17294471211773
-0.144978031943304,0.178166030166413
-0.147101081434281,0.183438835936878
-0.149234004361326,0.18876337327361
-0.151376766505723,0.194139886021098
-0.153529333648758,0.199568618023829
-0.155691671571715,0.20504981312629
-0.15786374605588,0.210583715172968
-0.160045522882537,0.216170568008351
-0.162236967832971,0.221810615476925
-0.164438046688467,0.227504101423179
-0.16664872523031,0.2332512696916
-0.168868969239786,0.239052364126674
-0.171098744498178,0.244907628572889
-0.173338016786773,0.250817306874733
-0.175586751886854,0.256781642876692
-0.177844915579707,0.262800880423255
-0.180112473646617,0.268875263358907
-0.182389391868869,0.275005035528137
-0.184675636027747,0.281190440775432
-0.186971171904537,0.287431722945279
-0.189275965280524,0.293729125882165
-0.191589981936992,0.300082893430578
-0.193913187655227,0.306493269435005
-0.196245548216513,0.312960497739934
-0.198587029402135,0.31948482218985
-0.200937596993379,0.326066486629243
-0.203297216771529,0.332705734902598
-0.205665854517871,0.339402810854404
-0.208043476013688,0.346157958329148
-0.210430047040267,0.352971421171317
-0.212825533378891,0.359843443225398
-0.215229900810847,0.366774268335878
-0.217643115117418,0.373764140347246
-0.220065142079891,0.380813303103987
-0.222495947479549,0.38792200045059
-0.224935497097678,0.395090476231542
-0.227383756715563,0.402318974291329
-0.229840692114488,0.40960773847444
-0.232306269075739,0.416957012625361
-0.234780453380601,0.424367040588581
-0.237263210810358,0.431838066208585
-0.239754507146296,0.439370333329862
-0.242254308169699,0.446964085796898
-0.244762579661853,0.454619567454182
-0.247279287404041,0.4623370221462
-0.24980439717755,0.470116693717439
-0.24980439717755,0.470116693717439
-0.252305119824594,0.477891802757506
-0.254748847447493,0.485595497601664
-0.257135817717688,0.493227913712887
-0.259466268306623,0.500789186554147
-0.261740436885739,0.508279451588417
-0.26395856112648,0.51569884427867
-0.266120878700287,0.523047500087879
-0.268227627278604,0.530325554479018
-0.270279044532873,0.53753314291506
-0.272275368134536,0.544670400858976
-0.274216835755035,0.551737463773741
-0.276103685065814,0.558734467122328
-0.277936153738314,0.56566154636771
-0.279714479443978,0.572518836972858
-0.281438899854248,0.579306474400747
-0.283109652640568,0.586024594114351
-0.284726975474378,0.59267333157664
-0.286291106027123,0.59925282225059
-0.287802281970244,0.605763201599172
-0.289260740975184,0.61220460508536
-0.290666720713385,0.618577168172127
-0.29202045885629,0.624881026322445
-0.293322193075341,0.631116314999288
-0.29457216104198,0.63728316966563
-0.295770600427651,0.643381725784442
-0.296917748903795,0.649412118818698
-0.298013844141856,0.655374484231372
-0.299059123813274,0.661268957485435
-0.300053825589494,0.667095674043862
-0.300998187141957,0.672854769369624
-0.301892446142106,0.678546378925696
-0.302736840261383,0.68417063817505
-0.303531607171232,0.689727682580659
-0.304276984543093,0.695217647605497
-0.30497321004841,0.700640668712535
-0.305620521358625,0.705996881364749
-0.306219156145181,0.711286421025109
-0.30676935207952,0.71650942315659
-0.307271346833085,0.721666023222164
-0.307725378077317,0.726756356684805
-0.30813168348366,0.731780559007485
-0.308490500723556,0.736738765653178
-0.308802067468448,0.741631112084856
-0.309066621389777,0.746457733765494
-0.309284400158987,0.751218766158062
-0.309455641447519,0.755914344725536
-0.309580582926817,0.760544604930887
-0.309659462268322,0.765109682237089
-0.309692517143478,0.769609712107114
-0.309679985223726,0.774044830003937
-0.30962210418051,0.778415171390529
-0.309519111685271,0.782720871729864
-0.309371245409452,0.786962066484916
-0.309178743024495,0.791138891118655
-0.308941842201843,0.795251481094058
-0.308660780612939,0.799299971874095
-0.308335795929225,0.80328449892174
-0.307967125822143,0.807205197699966
-0.307555007963136,0.811062203671747
-0.307099680023646,0.814855652300054
-0.306601379675116,0.818585679047863
-0.306060344588988,0.822252419378143
-0.305476812436704,0.825856008753871
-0.304851020889708,0.829396582638018
-0.304183207619442,0.832874276493557
-0.303473610297347,0.836289225783461
-0.302722466594867,0.839641565970704
-0.301930014183444,0.842931432518258
-0.30109649073452,0.846158960889097
-0.300222133919539,0.849324286546193
-0.299307181409941,0.85242754495252
-0.29835187087717,0.855468871571051
-0.297356439992669,0.858448401864758
-0.296321126427879,0.861366271296614
-0.295246167854244,0.864222615329594
-0.294131801943205,0.867017569426669
-0.292978266366206,0.869751269050813
-0.291785798794687,0.872423849664999
-0.290554636900093,0.875035446732199
-0.289285018353866,0.877586195715388
-0.287977180827447,0.880076232077537
-0.28663136199228,0.882505691281621
-0.285247799519807,0.884874708790611
-0.28382673108147,0.887183420067481
-0.282368394348712,0.889431960575205
-0.280873026992975,0.891620465776754
-0.279340866685702,0.893749071135102
-0.277772151098335,0.895817912113223
-0.276167117902317,0.897827124174089
-0.27452600476909,0.899776842780673
-0.272849049370096,0.901667203395949
-0.271136489376779,0.903498341482889
-0.26938856246058,0.905270392504466
-0.267605506292942,0.906983491923653
-0.265787558545307,0.908637775203423
-0.263934956889119,0.910233377806751
-0.262047938995819,0.911770435196608
-0.260126742536849,0.913249082835967
-0.258171605183653,0.914669456187801
-0.256182764607673,0.916031690715085
-0.25416045848035,0.91733592188079
-0.252104924473129,0.918582285147889
-0.25001640025745,0.919770915979356
-0.247895123504758,0.920901949838165
-0.245741331886493,0.921975522187286
-0.243555263074098,0.922991768489695
-0.241337154739017,0.923950824208363
-0.239087244552691,0.924852824806264
-0.236805770186563,0.925697905746371
-0.234492969312076,0.926486202491657
-0.232149079600671,0.927217850505095
-0.229774338723792,0.927892985249658
-0.22736898435288,0.928511742188319
-0.224933254159378,0.929074256784051
-0.22246738581473,0.929580664499827
-0.219971616990376,0.93003110079862
-0.21744618535776,0.930425701143404
-0.214891328588324,0.93076460099715
-0.21230728435351,0.931047935822833
-0.209694290324762,0.931275841083425
-0.207052584173521,0.9314484522419
-0.204382403571229,0.931565904761229
-0.201683986189331,0.931628334104387
-0.198957569699267,0.931635875734347
-0.19620339177248,0.931588665114081
-0.193421690080413,0.931486837706562
-0.190612702294508,0.931330528974764
-0.187776666086208,0.93111987438166
-0.184913819126956,0.930855009390222
-0.182024399088192,0.930536069463424
-0.179108643641361,0.930163190064238
-0.176166790457904,0.929736506655638
-0.173199077209265,0.929256154700597
-0.170205741566884,0.928722269662088
-0.167187021202206,0.928134987003083
-0.164143153786672,0.927494442186556
-0.161074376991725,0.926800770675481
-0.157980928488807,0.926054107932828
-0.154863045949361,0.925254589421573
-0.151720967044829,0.924402350604688
-0.148554929446654,0.923497526945146
-0.145365170826278,0.92254025390592
-0.142151928855144,0.921530666949983
-0.138915441204693,0.920468901540308
-0.13565594554637,0.919355093139869
-0.132373679551615,0.918189377211637
-0.129068880891871,0.916971889218586
-0.125741787238582,0.91570276462369
-0.122392636263189,0.914382138889922
-0.119021665637135,0.913010147480253
-0.115629113031862,0.911586925857658
-0.112215216118813,0.910112609485109
-0.10878021256943,0.90858733382558
-0.105324340055156,0.907011234342043
-0.101847836247433,0.905384446497472
-0.0983509388177033,0.903707105754839
-0.09483388543741,0.901979347577118
-0.0912969137779951,0.900201307427281
-0.0877402615109012,0.898373120768302
-0.0841641663075709,0.896494923063154
-0.0805688658394465,0.894566849774809
-0.0769545977779705,0.892589036366241
-0.0733215997945852,0.890561618300423
-0.0696701095607334,0.888484731040328
-0.0660003647478573,0.886358510048929
-0.0623126030273994,0.884183090789198
-0.0586070620708021,0.881958608724109
-0.0548839795495081,0.879685199316635
-0.0511435931349598,0.87736299802975
-0.0473861404985994,0.874992140326425
-0.0436118593118696,0.872572761669634
-0.0398209872462128,0.870104997522351
-0.0360137619730716,0.867588983347547
-0.0321904211638882,0.865024854608197
-0.0283512024901052,0.862412746767273
-0.024496343623165,0.859752795287748
-0.0206260822345102,0.857045135632596
-0.0167406559955832,0.854289903264788
-0.0128403025778263,0.851487233647299
-0.00892525965268226,0.848637262243102
-0.00499576489159337,0.845740124515169
-0.00105205596600202,0.842795955926473
0.00290562945264919,0.839804891939987
0.00687705369291786,0.836767068018686
0.0108619790833615,0.833682619625541
0.0148601679525377,0.830551682223525
0.018871382629004,0.827374391275612
0.0228953854413178,0.824150882244775
0.0269319387180368,0.820881290593986
0.0309808047877185,0.817565751786219
0.0350417459789204,0.814204401284446
0.0391145246202,0.810797374551642
0.0431989030401149,0.807344807050779
0.0472946435672227,0.803846834244829
0.0514015085300809,0.800303591596766
0.0555192602572469,0.796715214569563
0.0596476610772783,0.793081838626193
0.0637864733187329,0.789403599229629
0.0679354593101679,0.785680631842844
0.0720943813801409,0.781913071928811
0.0762630018572097,0.778101054950504
0.0804410830699313,0.774244716370894
0.0846283873468639,0.770344191652955
0.0888246770165645,0.766399616259661
0.093029714407591,0.762411125653985
0.0972432618485006,0.758378855298898
0.101465081667851,0.754302940657374
0.1056949361942,0.750183517192387
0.109932587756105,0.74602072036691
0.114177798682123,0.741814685643915
0.118430331300812,0.737565548486375
0.12268994794073,0.733273444357263
0.126956410930434,0.728938508719554
0.131229482598481,0.724560877036218
0.13550892527343,0.720140684770231
0.139794501283837,0.715678067384564
0.14408597295826,0.71117316034219
0.148383102625257,0.706626099106084
0.152685652613386,0.702037019139217
0.156993385251203,0.697406055904563
0.161306062867267,0.692733344865094
0.165623447790134,0.688019021483785
0.169945302348363,0.683263221223607
0.174271388870511,0.678466079547535
0.178601469685135,0.67362773191854
0.182935307120794,0.668748313799596
0.187272663506044,0.663827960653676
0.191613301169443,0.658866807943754
0.195956982439549,0.653864991132801
0.200303469644918,0.648822645683792
0.20465252511411,0.643739907059698
0.209003911175681,0.638616910723494
0.213357390158189,0.633453792138152
0.217712724390191,0.628250686766645
0.222069676200245,0.623007730071947
0.226428007916909,0.61772505751703
0.230787481868739,0.612402804564867
0.235147860384294,0.607041106678432
0.239508905792131,0.601640099320697
0.243870380420808,0.596199917954636
0.248232046598882,0.59072069804322
0.25259366665491,0.585202575049425
0.256955002917451,0.579645684436222
0.261315817715061,0.574050161666585
0.265675873376299,0.568416142203487
0.270034932229721,0.5627437615099
0.274392756603886,0.557033155048797
0.27874910882735,0.551284458283153
0.283103751228672,0.54549780667594
0.287456446136409,0.53967333569013
0.291806955879119,0.533811180788697
0.296155042785358,0.527911477434614
0.300500469183685,0.521974361090853
0.304842997402658,0.515999967220389
0.309182389770833,0.509988431286194
0.313518408616767,0.503939888751241
0.31785081626902,0.497854475078503
0.322179375056148,0.491732325730953
0.326503847306709,0.485573576171564
0.33082399534926,0.479378361863309
0.33513958151236,0.473146818269162
0.339450368124564,0.466879080852094
0.343756117514431,0.46057528507508
0.348056592010519,0.454235566401093
0.352351553941385,0.447860060293104
0.356640765635587,0.441448902214088
0.360923989421682,0.435002227627018
0.365200987628227,0.428520171994866
0.36947152258378,0.422002870780605
0.373735356616899,0.415450459447209
0.377992252056142,0.40886307345765
0.382241971230065,0.402240848274902
0.386484276467227,0.395583919361938
0.390718930096184,0.38889242218173
0.394945694445495,0.382166492197252
0.399164331843717,0.375406264871477
0.403374604619407,0.368611875667377
0.407576275101124,0.361783460047926
0.411769105617424,0.354921153476097
0.415952858496864,0.348025091414863
0.420127296068004,0.341095409327197
0.4242921806594,0.334132242676072
0.428447274599609,0.327135726924461
0.43259234021719,0.320105997535337
0.4367271398407,0.313043189971672
0.440851435798696,0.305947439696441
0.444964990419736,0.298818882172616
0.449067566032377,0.29165765286317
0.453158924965177,0.284463887231077
0.457238829546693,0.277237720739308
0.461307042105484,0.269979288850838
0.465363324970106,0.262688727028639
0.469407440469118,0.255366170735684
0.473439150931075,0.248011755434947
0.477458218684538,0.2406256165894
0.481464406058061,0.233207889662017
0.485457475380204,0.22575871011577
0.489437188979524,0.218278213413632
0.493403309184578,0.210766535018577
0.497355598323924,0.203223810393578
0.50129381872612,0.195650175001607
0.505217732719722,0.188045764305638
0.509127102633289,0.180410713768643
0.513021690795378,0.172745158853597
0.516901259534546,0.16504923502347
0.520765571179352,0.157323077741238
0.524614388058352,0.149566822469873
0.528447472500104,0.141780604672347
0.532264586833166,0.133964559811634
0.536065493386095,0.126118823350708
0.53984995448745,0.11824353075254
0.543617732465786,0.110338817480104
0.547368589649662,0.102404818996373
0.551102288367636,0.0944416707643202
0.554818590948264,0.0864495082469183
0.558517259720105,0.0784284669071409
0.562198057011716,0.0703786822079602
0.565860745151655,0.0623002896123501
0.569505086468478,0.0541934245832829
0.573130843290744,0.0460582225837324
0.576737777947011,0.0378948190766707
0.580325652765835,0.0297033495250718
0.583894230075775,0.0214839493919078
0.587443272205387,0.0132367541401527
0.590972541483229,0.00496189923277859
0.594481800237859,-0.00334047986724068
0.597970810797835,-0.0116702476969329
0.601439335491713,-0.020027268793324
0.604887136648053,-0.028411407693442
0.60831397659541,-0.0368225289343131
0.611719617662342,-0.0452604970529648
0.615103822177408,-0.0537251765864234
0.618466352469164,-0.0622164320717168
0.621806970866169,-0.0707341280458709
0.625125439696979,-0.0792781290459138
0.628421521290152,-0.0878482996088714
0.631694977974247,-0.0964445042717715
0.634945572077819,-0.10506660757164
0.638173065929427,-0.113714474045506
0.641377221857629,-0.122387968230394
0.644557802190982,-0.131086954663332
0.647714569258043,-0.139811297881347
0.65084728538737,-0.148560862421466
0.65395571290752,-0.157335512820716
0.657039614147052,-0.166135113616124
0.660098751434523,-0.174959529344716
0.663132887098489,-0.183808624543521
0.666141783467509,-0.192682263749564
0.669125202870141,-0.201580311499873
0.672082907634941,-0.210502632331474
0.675014660090467,-0.219449090781396
0.677920222565277,-0.228419551386663
0.680799357387929,-0.237413878684305
0.68365182688698,-0.246431937211347
0.686477393390987,-0.255473591504817
0.689275819228508,-0.26453870610174
0.6920468667281,-0.273627145539146
0.694790298218322,-0.28273877435406
0.69750587602773,-0.291873457083509
0.700193362484882,-0.30103105826452
0.702852519918337,-0.310211442434121
0.70548311065665,-0.319414474129338
0.70808489702838,-0.328640017887199
0.710657641362084,-0.337887938244729
0.71320110598632,-0.347158099738957
0.715715053229646,-0.356450366906909
0.718199245420618,-0.365764604285612
0.720653444887795,-0.375100676412092
0.723077413959734,-0.384458447823379
0.725470914964992,-0.393837783056496
0.727833710232128,-0.403238546648474
0.730165562089698,-0.412660603136336
0.73246623286626,-0.422103817057112
0.734735484890372,-0.431568052947828
0.736973080490591,-0.44105317534551
0.739178781995475,-0.450559048787186
0.741352351733581,-0.460085537809883
0.743493552033467,-0.469632506950628
0.745602145223691,-0.479199820746447
0.747677893632809,-0.488787343734368
0.749720559589379,-0.498394940451418
0.75172990542196,-0.508022475434623
0.753705693459108,-0.51766981322101
0.755647686029381,-0.527336818347607
0.757555645461337,-0.537023355351441
0.759429334083533,-0.546729288769538
0.761268514224527,-0.556454483138926
0.763072948212876,-0.56619880299663
0.764842398377138,-0.57596211287968
0.766576627045869,-0.5857442773251
0.768275396547629,-0.595545160869919
0.769938469210974,-0.605364628051162
0.771565607364462,-0.615202543405859
0.77315657333665,-0.625058771471034
0.774711129456097,-0.634933176783715
0.776229038051359,-0.644825623880929
0.777710061450994,-0.654735977299704
0.779153961983559,-0.664664101577065
0.780560501977613,-0.674609861250041
