0.00948880299078914,-0.253637252059854
0.0100927154704761,-0.256014745057517
0.0107048909470781,-0.258331678506195
0.0113251902292637,-0.260588397874392
0.0119534741257018,-0.262785248630615
0.0125896034450609,-0.264922576243368
0.0132334389960098,-0.267000726181157
0.0138848415872171,-0.269020043912487
0.0145436720273515,-0.270980874905863
0.0152097911250817,-0.27288356462979
0.0158830596890763,-0.274728458552774
0.0165633385280041,-0.276515902143321
0.0172504884505337,-0.278246240869935
0.0179443702653337,-0.279919820201121
0.018644844781073,-0.281536985605386
0.0193517728064201,-0.283098082551233
0.0200650151500438,-0.28460345650717
0.0207844326206126,-0.2860534529417
0.0215098860267954,-0.28744841732333
0.0222412361772607,-0.288788695120564
0.0229783438806773,-0.290074631801907
0.0237210699457138,-0.291306572835866
0.0244692751810389,-0.292484863690945
0.0252228203953213,-0.29360984983565
0.0259815663972297,-0.294681876738486
0.0267453739954327,-0.295701289867957
0.027514103998599,-0.296668434692571
0.0282876172153974,-0.297583656680831
0.0290657744544964,-0.298447301301243
0.0298484365245648,-0.299259714022313
0.0306354642342712,-0.300021240312545
0.0314267183922844,-0.300732225640445
0.0322220598072729,-0.301393015474519
0.0330213492879056,-0.302003955283271
0.0338244476428509,-0.302565390535207
0.0346312156807777,-0.303077666698832
0.0354415142103547,-0.303541129242651
0.0362552040402504,-0.303956123635171
0.0370721459791336,-0.304322995344895
0.037892200835673,-0.304642089840329
0.0387152294185372,-0.304913752589979
0.0395410925363949,-0.30513832906235
0.0403696509979148,-0.305316164725948
0.0412007656117655,-0.305447605049276
0.0420342971866159,-0.305532995500842
0.0428701065311344,-0.305572681549149
0.0437080544539898,-0.305567008662704
0.0445480017638509,-0.305516322310011
0.0453898092693862,-0.305420967959577
0.0462333377792644,-0.305281291079906
0.0470784481021543,-0.305097637139503
0.0479250010467244,-0.304870351606874
0.0487728574216436,-0.304599779950524
0.0496218780355804,-0.304286267638958
0.0504719236972035,-0.303930160140682
0.0513228552151817,-0.303531802924201
0.0521745333981836,-0.303091541458021
0.0530268190548778,-0.302609721210646
0.0538795729939331,-0.302086687650581
0.0547326560240181,-0.301522786246333
0.0555859289538016,-0.300918362466407
0.0564392525919521,-0.300273761779307
0.0572924877471384,-0.299589329653539
0.0581454952280292,-0.298865411557608
0.0589981358432931,-0.29810235296002
0.0598502704015988,-0.29730049932928
0.060701759711615,-0.296460196133893
0.0615524645820104,-0.295581788842365
0.0624022458214536,-0.2946656229232
0.0632509642386133,-0.293712043844905
0.0640984806421582,-0.292721397075984
0.0649446558407571,-0.291694028084942
0.0657893506430784,-0.290630282340286
0.0666324258577911,-0.289530505310519
0.0674737422935636,-0.288395042464148
0.0683131607590648,-0.287224239269678
0.0691505420629632,-0.286018441195614
0.0699857470139276,-0.284777993710462
0.0708186364206266,-0.283503242282726
0.071649071091729,-0.282194532380912
0.0724769118359033,-0.280852209473526
0.0733020194618183,-0.279476619029072
0.0741242547781427,-0.278068106516056
0.0749434785935451,-0.276627017402983
0.0757595517166942,-0.275153697158358
0.0765723349562587,-0.273648491250687
0.0773816891209073,-0.272111745148476
0.0781874750193086,-0.270543804320228
0.0789895534601314,-0.268945014234451
0.0797877852520443,-0.267315720359648
0.0805820312037159,-0.265656268164325
0.081372152123815,-0.263967003116988
0.0821580088210103,-0.262248270686141
0.0829394621039704,-0.260500416340291
0.083716372781364,-0.258723785547942
0.0844886016618598,-0.2569187237776
0.0852560095541264,-0.255085576497769
0.0860184572668326,-0.253224689176956
0.086775805608647,-0.251336407283666
0.0875279153882383,-0.249421076286403
0.0882746474142752,-0.247479041653673
0.0890158624954263,-0.245510648853982
0.0897514214403604,-0.243516243355835
0.090481185057746,-0.241496170627736
0.091205014156252,-0.239450776138192
0.091922769544547,-0.237380405355707
0.0926343120312996,-0.235285403748787
0.0933395024251785,-0.233166116785938
0.0940382015348525,-0.231022889935664
0.0947302701689901,-0.22885606866647
0.0954155691362601,-0.226665998446863
0.0960939592453312,-0.224453024745347
0.096765301304872,-0.222217493030428
0.0974294561235512,-0.21995974877061
0.0980862845100374,-0.2176801374344
0.0987356472729995,-0.215379004490302
0.0993774052211059,-0.213056695406822
0.100011419163026,-0.210713555652465
0.100637549907427,-0.208349930695737
0.101255658262979,-0.205966166005142
0.10186560503835,-0.203562607049186
0.102467251042209,-0.201139599296374
0.103060457083224,-0.198697488215212
0.103645083970065,-0.196236619274205
0.104220992511399,-0.193757337941858
0.104788043515896,-0.191259989686676
0.105346097792225,-0.188744919977165
0.105895016149053,-0.18621247428183
0.10643465939505,-0.183662998069177
0.106964888338884,-0.18109683680771
0.107485563789224,-0.178514335965935
0.107996546554738,-0.175915841012357
0.108497697444096,-0.173301697415481
0.108988877265966,-0.170672250643813
0.109469946829017,-0.168027846165859
0.109940766941917,-0.165368829450122
0.110401198413335,-0.162695545965109
0.110851102051939,-0.160008341179326
0.111290338666399,-0.157307560561276
0.111718769065383,-0.154593549579466
0.11213625405756,-0.151866653702401
0.112542654451599,-0.149127218398586
0.112937831056167,-0.146375589136526
0.113321644679934,-0.143612111384727
0.113693956131569,-0.140837130611693
0.11405462621974,-0.138050992285932
0.114403515753115,-0.135254041875946
0.114740485540364,-0.132446624850243
0.115065396390155,-0.129629086677326
0.115378109111158,-0.126801772825703
0.115678484512039,-0.123965028763876
0.115966383401469,-0.121119199960353
0.116241666588116,-0.118264631883638
0.116504194880648,-0.115401670002237
0.116753829087735,-0.112530659784655
0.116990430018044,-0.109651946699397
0.117213858480245,-0.106765876214968
0.117423975283007,-0.103872793799874
0.117620641234997,-0.10097304492262
0.117803717144885,-0.0980669750517117
0.117973063821339,-0.0951549296556539
0.118128542073029,-0.092237254202952
0.118270012708622,-0.0893142941621112
0.118397336536787,-0.0863863950016371
0.118510374366193,-0.0834539021900347
0.11860898700551,-0.0805171611958096
0.118693035263404,-0.0775765174874666
0.118762379948546,-0.0746323165335115
0.118816881869603,-0.0716849038024494
0.118856401835245,-0.0687346247627855
0.11888080065414,-0.0657818248830251
0.118889939134956,-0.0628268496316736
0.118883678086364,-0.0598700444772363
0.11886187831703,-0.0569117548882184
0.118824400635624,-0.0539523263331253
0.118771105850815,-0.0509921042804621
0.118701854771271,-0.0480314341987344
0.11861650820566,-0.0450706615564472
0.118514926962653,-0.0421101318221059
0.118396971850916,-0.0391501904642158
0.11826250367912,-0.0361911829512822
0.118111383255932,-0.0332334547518105
0.117943471390021,-0.0302773513343057
0.117758628890056,-0.0273232181672733
0.117556716564706,-0.0243714007192186
0.117337595222639,-0.0214222444586468
0.117101125672524,-0.0184760948540633
0.11684716872303,-0.0155332973739732
0.116575585182825,-0.0125941974868821
0.116286235860578,-0.00965914066129503
0.115978981564958,-0.00672847236571739
0.115653683104633,-0.00380253806865444
0.115310201288272,-0.000881683238611458
0.114948396924544,0.00203374665590618
0.114568130822118,0.00494340614639333
0.114169263789661,0.00784694976434458
0.113751656635844,0.0107440320412546
0.113315170169333,0.0136343075086182
0.112859665198799,0.0165174306979301
0.11238500253291,0.019393056140685
0.111891042980334,0.0222608383683774
0.11137764734974,0.0251204319125024
0.110844676449797,0.0279714913045543
0.110291991089174,0.0308136710760281
0.109719452076539,0.0336466257584183
0.109126920220561,0.0364700098832199
0.108514256329908,0.0392834779819271
0.10788132121325,0.0420866845860353
0.107227975679254,0.0448792842270386
0.10655408053659,0.047660931436432
0.105859496593927,0.0504312807457101
0.105144084659932,0.0531899866863678
0.104407705543275,0.0559367037898995
0.103650220052624,0.0586710865878002
0.102871488996648,0.0613927896115644
0.102071373184016,0.0641014673926869
0.101249733423397,0.0667967744626624
0.100406430523458,0.0694783653529856
0.0995413252928691,0.0721458945951512
0.0986542785402986,0.074799016720654
0.0977451510744151,0.0774373862609885
0.0968138037038874,0.0800606577476497
0.0958600972373841,0.082668485712132
0.0948838924835739,0.0852605246859303
0.0938850502511255,0.0878364292005393
0.0928634313487075,0.0903958537874537
0.0918188965849887,0.0929384529781681
0.0907513067686378,0.0954638813041773
0.0896605227083233,0.0979717932969759
0.088546405212714,0.100461843488059
0.0874088150904786,0.102933686408921
0.0862476131502857,0.105386976591056
0.085062660200804,0.10782136856596
0.0838538170507022,0.110236516865127
0.0826209445086491,0.112632076020051
0.0813639033833131,0.115007700562228
0.0800825544833631,0.117363045023152
0.0787767586174677,0.119697763934318
0.0774463765942957,0.122011511827221
0.0760912692225155,0.124303943233355
0.074711297310796,0.126574712684214
0.0733063216678059,0.128823474711295
0.0718762031022138,0.131049883846091
0.0704208024226883,0.133253594620097
0.0689399804378983,0.135434261564808
0.0674335979565122,0.137591539211718
0.065901515787199,0.139725082092323
0.0643435947386271,0.141834544738116
0.0627596956194653,0.143919581680593
0.0611496792383822,0.145979847451249
0.0595134064040466,0.148014996581578
0.0578507379251271,0.150024683603074
0.0561615346102925,0.152008563047233
0.0544456572682113,0.153966289445549
0.0527029667075523,0.155897517329517
0.050933323736984,0.157801901230632
0.0491365891651754,0.159679095680387
0.0473126238007949,0.161528755210279
0.0454612884525113,0.163350534351802
0.0435824439289932,0.16514408763645
0.0416759510389095,0.166909069595718
0.0397416705909285,0.168645134761101
0.0377794633937192,0.170351937664094
0.0357891902559501,0.172029132836191
0.0337707119862901,0.173676374808887
0.0317238893934076,0.175293318113676
0.0296485832859715,0.176879617282054
0.0275446544726503,0.178434926845515
0.0254119637621129,0.179958901335554
0.0232503719630276,0.181451195283666
0.0210597398840636,0.182911463221344
0.0188399283338891,0.184339359680085
0.0165907981211731,0.185734539191382
0.0143122100545841,0.187096656286731
0.0120040249427909,0.188425365497625
0.00966610359446204,0.18972032135556
0.00729830681826638,0.190981178392031
0.00490049542287239,0.192207591138532
0.002472530216949,0.193399214126558
1.42720091645954e-05,0.194555701887604
-0.00247441839181189,0.195676708953163
-0.00499368017731197,0.196761889854732
-0.00754365253866678,0.197810899123805
-0.0101244746672078,0.198823391291876
-0.0127362857542662,0.19979902089044
-0.0153792249911736,0.200737442450992
-0.0180534315692609,0.201638310505026
-0.0207590446798597,0.202501279584038
-0.0234962035143012,0.203326004219522
-0.0262650472639169,0.204112138942972
-0.0290657151200378,0.204859338285884
-0.0318983462739956,0.205567256779752
-0.0347630799171213,0.20623554895607
-0.0376600552407465,0.206863869346335
-0.0405894114362022,0.207451872482039
-0.04355128769482,0.207999212894678
-0.0465458232079311,0.208505545115747
-0.0495731571668669,0.20897052367674
-0.0526334287629586,0.209393803109153
-0.0557267771875376,0.209775037944479
-0.0588533416319352,0.210113882714213
-0.0620132612874827,0.210409991949851
-0.0652066753455115,0.210663020182887
-0.0684337229973528,0.210872621944815
-0.071694543434338,0.21103845176713
-0.0749892758477984,0.211160164181328
-0.0783180594290653,0.211237413718902
-0.0816810333694702,0.211269854911347
-0.0850783368603441,0.211257142290159
-0.0885101090930186,0.211198930386832
-0.0919764892588247,0.21109487373286
-0.0954776165490942,0.210944626859738
-0.099013630155158,0.210747844298962
-0.102584669268348,0.210504180582024
-0.106190873079994,0.210213290240422
-0.10983238078143,0.209874827805648
-0.113509331563984,0.209488447809198
-0.11722186461899,0.209053804782567
-0.120970119137779,0.208570553257249
-0.124754234311681,0.208038347764739
-0.128574349332028,0.207456842836531
-0.132430603390151,0.206825693004121
-0.136323135677382,0.206144552799003
-0.140252085385052,0.205413076752671
-0.144217591704492,0.204630919396621
-0.148219793827034,0.203797735262348
-0.152258830944009,0.202913178881345
-0.156334842246748,0.201976904785107
-0.160447966926583,0.20098856750513
-0.164598344174845,0.199947821572908
-0.168786113182864,0.198854321519936
-0.173011413141974,0.197707721877708
-0.177274383243504,0.196507677177719
-0.181575162678787,0.195253841951464
-0.185913890639153,0.193945870730437
-0.190290706315934,0.192583418046134
-0.19470574890046,0.191166138430048
-0.199159157584065,0.189693686413676
-0.203651071558078,0.18816571652851
-0.208181630013832,0.186581883306047
-0.212750972142656,0.184941841277781
-0.217359237135884,0.183245244975206
-0.222006564184845,0.181491748929817
-0.226693092480873,0.179681007673109
-0.231418961215296,0.177812675736577
-0.236184309579448,0.175886407651715
-0.240989276764659,0.173901857950018
-0.245834001962261,0.17185868116298
-0.250718624363585,0.169756531822098
-0.255643283159962,0.167595064458864
-0.260608117542724,0.165373933604774
-0.265613266703202,0.163092793791323
-0.270658869832727,0.160751299550005
-0.275745066122631,0.158349105412315
-0.280871994764244,0.155885865909748
-0.286039794948899,0.153361235573798
-0.291248605867927,0.15077486893596
-0.296498566712658,0.148126420527729
-0.301789816674425,0.1454155448806
-0.307122494944558,0.142641896526067
-0.312496740714389,0.139805129995624
-0.317912693175249,0.136904899820768
-0.323370491518469,0.133940860532992
-0.328870274935382,0.13091266666379
-0.334412182617317,0.127819972744659
-0.339996353755608,0.124662433307092
-0.345622927541583,0.121439702882584
-0.351292043166576,0.11815143600263
-0.357003839821918,0.114797287198725
-0.362758456698939,0.111376911002363
-0.368556032988971,0.107889961945039
-0.374396707883346,0.104336094558248
-0.380280620573394,0.100714963373484
-0.386207910250447,0.0970262229222424
-0.392178716105836,0.0932695277360177
-0.398193177330894,0.0894445323463044
-0.40425143311695,0.0855508912845974
-0.410353622655337,0.0815882590823913
-0.416499885137385,0.0775562902711811
-0.422690359754426,0.0734546393824611
-0.428925185697792,0.0692829609477263
-0.435204502158813,0.0650409094984712
-0.441528448328821,0.0607281395661907
-0.447897163399147,0.0563443056823793
-0.454310786561123,0.051889062378532
-0.460769457006079,0.0473620641861431
-0.467273313925348,0.0427629656367078
-0.473822496510261,0.0380914212617204
-0.480417143952148,0.0333470855926759
-0.487057395442341,0.0285296131610686
-0.493743390172172,0.0236386584983938
-0.500475267332972,0.0186738761361456
-0.507253166116071,0.0136349206058192
-0.514077225712803,0.00852144643890887
-0.520947585314497,0.0033331081669098
-0.527864384112485,-0.00193043967868379
-0.534827761298098,-0.00726954256637673
-0.541837856062669,-0.0126845459646748
-0.548894807597527,-0.0181757953420827
-0.555998755094004,-0.0237436361671064
-0.555998755094004,-0.0237436361671064
-0.563065773122793,-0.0293287875088495
-0.570012203459093,-0.0348718348471961
-0.576838586100997,-0.040372923266821
-0.583545461046598,-0.0458321978523993
-0.590133368293989,-0.0512498036886057
-0.596602847841263,-0.0566258858601151
-0.602954439686513,-0.0619605894516026
-0.609188683827833,-0.067254059547743
-0.615306120263315,-0.0725064412332111
-0.621307288991051,-0.077717879592682
-0.627192730009137,-0.0828885197108305
-0.632962983315664,-0.0880185066723315
-0.638618588908725,-0.09310798556186
-0.644160086786413,-0.0981571014640907
-0.649588016946822,-0.103165999463699
-0.654902919388044,-0.108134824645359
-0.660105334108173,-0.113063722093746
-0.665195801105302,-0.117952836893535
-0.670174860377523,-0.122802314129401
-0.67504305192293,-0.127612298886019
-0.679800915739615,-0.132382936248064
-0.684448991825672,-0.13711437130021
-0.688987820179194,-0.141806749127132
-0.693417940798274,-0.146460214813506
-0.697739893681004,-0.151074913444007
-0.701954218825479,-0.155650990103308
-0.70606145622979,-0.160188589876086
-0.710062145892031,-0.164687857847014
-0.713956827810296,-0.169148939100769
-0.717746041982676,-0.173571978722024
-0.721430328407265,-0.177957121795456
-0.725010227082156,-0.182304513405737
-0.728486278005443,-0.186614298637545
-0.731859021175218,-0.190886622575553
-0.735128996589574,-0.195121630304436
-0.738296744246604,-0.199319466908869
-0.741362804144402,-0.203480277473528
-0.744327716281059,-0.207604207083087
-0.74719202065467,-0.21169140082222
-0.749956257263328,-0.215742003775604
-0.752620966105125,-0.219756161027913
-0.755186687178154,-0.223734017663821
-0.757653960480509,-0.227675718768003
-0.760023326010283,-0.231581409425136
-0.762295323765568,-0.235451234719893
-0.764470493744458,-0.239285339736949
-0.766549375945045,-0.243083869560979
-0.768532510365424,-0.246846969276658
-0.770420437003686,-0.250574783968662
-0.772213695857924,-0.254267458721664
-0.773912826926232,-0.257925138620341
-0.775518370206704,-0.261547968749366
-0.777030865697431,-0.265136094193415
-0.778450853396507,-0.268689660037162
-0.779778873302025,-0.272208811365283
-0.781015465412078,-0.275693693262453
-0.782161169724759,-0.279144450813345
-0.783216526238162,-0.282561229102636
-0.784182074950378,-0.285944173215
-0.785058355859502,-0.289293428235112
-0.785845908963625,-0.292609139247647
-0.786545274260842,-0.29589145133728
-0.787156991749245,-0.299140509588686
-0.787681601426928,-0.302356459086539
-0.788119643291983,-0.305539444915515
-0.788471657342503,-0.308689612160288
-0.788738183576581,-0.311807105905533
-0.788919761992311,-0.314892071235926
-0.789016932587786,-0.317944653236142
-0.789030235361098,-0.320964996990854
-0.788960210310341,-0.323953247584738
-0.788807397433607,-0.326909550102469
-0.78857233672899,-0.329834049628722
-0.788255568194582,-0.332726891248172
-0.787857631828478,-0.335588220045493
-0.787379067628769,-0.338418181105361
-0.786820415593549,-0.34121691951245
-0.78618221572091,-0.343984580351435
-0.785465008008947,-0.346721308706992
-0.784669332455751,-0.349427249663795
-0.783795729059417,-0.352102548306519
-0.782844737818036,-0.354747349719839
-0.781816898729702,-0.35736179898843
-0.780712751792509,-0.359946041196967
-0.779532837004549,-0.362500221430124
-0.778277694363914,-0.365024484772577
-0.776947863868699,-0.367518976309001
-0.775543885516996,-0.36998384112407
-0.774066299306899,-0.372419224302459
-0.772515645236499,-0.374825270928843
-0.770892463303891,-0.377202126087898
-0.769197293507167,-0.379549934864298
-0.767430675844421,-0.381868842342717
-0.765593150313745,-0.384158993607832
-0.763685256913232,-0.386420533744316
-0.761707535640977,-0.388653607836844
-0.75966052649507,-0.390858360970093
-0.757544769473606,-0.393034938228736
-0.755360804574678,-0.395183484697448
-0.753109171796379,-0.397304145460905
-0.750790411136801,-0.39939706560378
-0.748405062594038,-0.40146239021075
-0.745953666166182,-0.403500264366489
-0.743436761851328,-0.405510833155672
-0.740854889647568,-0.407494241662973
-0.738208589552994,-0.409450634973069
-0.7354984015657,-0.411380158170632
-0.732724865683779,-0.41328295634034
-0.729888521905324,-0.415159174566866
-0.726989910228428,-0.417008957934885
-0.724029570651184,-0.418832451529072
-0.721008043171686,-0.420629800434103
-0.717925867788026,-0.422401149734652
-0.714783584498296,-0.424146644515394
-0.711581733300591,-0.425866429861003
-0.708320854193003,-0.427560650856156
-0.705001487173626,-0.429229452585526
-0.701624172240551,-0.430872980133789
-0.698189449391873,-0.432491378585619
-0.694697858625685,-0.434084793025691
-0.69114993994008,-0.435653368538681
-0.687546233333149,-0.437197250209264
-0.683887278802987,-0.438716583122113
-0.680173616347687,-0.440211512361904
-0.676405785965341,-0.441682183013313
-0.672584327654043,-0.443128740161013
-0.668709781411885,-0.44455132888968
-0.664782687236961,-0.445950094283988
-0.660803585127365,-0.447325181428614
-0.656773015081187,-0.44867673540823
-0.652691517096523,-0.450004901307513
-0.648559631171464,-0.451309824211138
-0.644377897304105,-0.452591649203778
-0.640146855492537,-0.45385052137011
-0.635867045734854,-0.455086585794807
-0.63153900802915,-0.456299987562546
-0.627163282373516,-0.457490871758
-0.622740408766047,-0.458659383465845
-0.618270927204834,-0.459805667770756
-0.613755377687972,-0.460929869757407
-0.609194300213553,-0.462032134510474
-0.60458823477967,-0.463112607114631
-0.599937721384417,-0.464171432654554
-0.595243300025886,-0.465208756214916
-0.59050551070217,-0.466224722880394
-0.585724893411362,-0.467219477735662
-0.580901988151556,-0.468193165865394
-0.576037334920845,-0.469145932354266
-0.571131473717321,-0.470077922286953
-0.566184944539077,-0.47098928074813
-0.561198287384207,-0.471880152822471
-0.556172042250804,-0.472750683594652
-0.551106749136961,-0.473601018149347
-0.54600294804077,-0.474431301571231
-0.540861178960324,-0.475241678944979
-0.535681981893718,-0.476032295355266
-0.530465896839044,-0.476803295886768
-0.525213463794394,-0.477554825624158
-0.519925222757862,-0.478287029652111
-0.514601713727541,-0.479000053055304
-0.509243476701524,-0.47969404091841
-0.503851051677904,-0.480369138326105
-0.498424978654774,-0.481025490363063
-0.492965797630227,-0.481663242113959
-0.487474048602356,-0.482282538663469
-0.481950271569254,-0.482883525096266
-0.476395006529015,-0.483466346497027
-0.470808793479731,-0.484031147950426
-0.465192172419495,-0.484578074541137
-0.4595456833464,-0.485107271353836
-0.453869866258539,-0.485618883473198
-0.448165261154007,-0.486113055983897
-0.442432408030894,-0.486589933970609
-0.436671846887295,-0.487049662518008
-0.430884117721302,-0.48749238671077
-0.425069760531009,-0.487918251633568
-0.419229315314509,-0.488327402371079
-0.413363322069894,-0.488719984007977
-0.407472320795257,-0.489096141628936
-0.401556851488693,-0.489456020318633
-0.395617454148293,-0.489799765161741
-0.38965466877215,-0.490127521242935
-0.383669035358359,-0.490439433646891
-0.377661093905012,-0.490735647458284
-0.371631384410201,-0.491016307761788
-0.36558044687202,-0.491281559642078
-0.359508821288562,-0.49153154818383
-0.35341704765792,-0.491766418471717
-0.347305665978187,-0.491986315590416
-0.341175216247456,-0.4921913846246
-0.335026238463821,-0.492381770658945
-0.328859272625373,-0.492557618778126
-0.322674858730207,-0.492719074066817
-0.316473536776414,-0.492866281609694
-0.310255846762089,-0.492999386491431
-0.304022328685325,-0.493118533796703
-0.297773522544213,-0.493223868610186
-0.291509968336848,-0.493315536016554
-0.285232206061322,-0.493393681100482
-0.278940775715729,-0.493458448946644
-0.272636217298161,-0.493509984639717
-0.266319070806712,-0.493548433264374
-0.259989876239474,-0.493573939905291
-0.253649173594541,-0.493586649647143
-0.247297502870005,-0.493586707574604
-0.24093540406396,-0.493574258772349
-0.234563417174499,-0.493549448325054
-0.228182082199715,-0.493512421317393
-0.2217919391377,-0.493463322834041
-0.215393527986548,-0.493402297959673
-0.208987388744352,-0.493329491778964
-0.202574061409205,-0.493245049376588
-0.196154085979199,-0.493149115837221
-0.189728002452429,-0.493041836245538
-0.183296350826987,-0.492923355686214
-0.176859671100965,-0.492793819243923
-0.170418503272458,-0.49265337200334
-0.163973387339558,-0.492502159049141
-0.157524863300358,-0.492340325465999
-0.151073471152951,-0.492168016338591
-0.14461975089543,-0.491985376751591
-0.138164242525889,-0.491792551789673
-0.13170748604242,-0.491589686537514
-0.125250021443116,-0.491376926079787
-0.118792388726071,-0.491154415501167
-0.112335127889377,-0.49092229988633
-0.105878778931127,-0.490680724319951
-0.0994238818494156,-0.490429833886704
-0.0929709766423339,-0.490169773671264
-0.0865206033079762,-0.489900688758306
-0.0800733018444346,-0.489622724232505
-0.073629612249803,-0.489336025178536
-0.0671900745221739,-0.489040736681074
-0.0607552286596407,-0.488737003824794
-0.054325614660296,-0.48842497169437
-0.0479017725222332,-0.488104785374478
-0.0414842422435452,-0.487776589949793
-0.0350735638223252,-0.487440530504988
-0.0286702772566657,-0.487096752124741
-0.0222749225446607,-0.486745399893724
-0.0158880396844021,-0.486386618896613
-0.00951016867398388,-0.486020554218084
-0.00314184951149851,-0.48564735094281
0.00321637780496048,-0.485267154155467
0.00956397327730069,-0.48488010894073
0.0159003969074285,-0.484486360383273
0.0222251086972513,-0.484086053567772
0.0285375686486756,-0.483679333578901
0.0348372367636091,-0.483266345501336
0.0411235730439578,-0.482847234419751
0.0473960374916294,-0.482422145418821
0.0536540901085305,-0.481991223583221
0.0598971908965684,-0.481554613997627
0.0661247998576495,-0.481112461746712
0.0723363769936814,-0.480664911915152
0.0785313823065705,-0.480212109587621
0.0847092757982243,-0.479754199848795
0.0908695174705492,-0.479291327783349
0.0970115673254527,-0.478823638475957
0.103134885364841,-0.478351277011294
0.109238931590622,-0.477874388474036
0.115323166004703,-0.477393117948857
0.121387048608989,-0.476907610520431
0.127430039405388,-0.476418011273435
0.133451598395808,-0.475924465292543
0.139451185582155,-0.475427117662429
0.145428260966336,-0.474926113467769
0.151382284550258,-0.474421597793237
0.157312716335828,-0.473913715723509
0.163219016324952,-0.47340261234326
0.169100644519539,-0.472888432737163
0.174957060921495,-0.472371321989895
0.180787725532726,-0.47185142518613
0.18659209835514,-0.471328887410543
0.192369639390644,-0.470803853747809
0.198119808641145,-0.470276469282603
0.203842066108549,-0.469746879099599
0.209535871794764,-0.469215228283473
0.215200685701696,-0.4686816619189
0.220835967831253,-0.468146325090554
0.226441178185342,-0.46760936288311
0.232015776765869,-0.467070920381244
0.237559223574742,-0.46653114266963
0.243070978613866,-0.465990174832943
0.248550501885151,-0.465448161955857
0.253997253390501,-0.464905249123049
0.259410693131825,-0.464361581419193
0.264790281111029,-0.463817303928963
0.270135477330021,-0.463272561737035
0.275445741790706,-0.462727499928083
0.280720534494993,-0.462182263586783
0.285959315444788,-0.461636997797809
0.291161544641998,-0.461091847645836
0.29632668208853,-0.46054695821554
0.301454187786291,-0.460002474591594
0.306543521737188,-0.459458541858675
0.311594143943127,-0.458915305101456
0.316605514406017,-0.458372909404613
0.321577093127764,-0.45783149985282
0.326508340110274,-0.457291221530754
0.331398715355455,-0.456752219523088
0.336247678865214,-0.456214638914497
0.341054690641457,-0.455678624789656
0.345819210686093,-0.455144322233241
0.350540699001026,-0.454611876329926
0.355218615588166,-0.454081432164385
0.359852420449418,-0.453553134821295
0.364441573586689,-0.45302712938533
0.368985535001887,-0.452503560941164
0.373483764696918,-0.451982574573473
0.37793572267369,-0.451464315366931
0.382340868934109,-0.450948928406214
0.386698663480083,-0.450436558775996
0.391008566313517,-0.449927351560953
0.39527003743632,-0.449421451845758
0.399482536850398,-0.448919004715088
0.403645524557658,-0.448420155253617
0.407758460560008,-0.447925048546019
0.411820804859353,-0.447433829676971
0.415832017457602,-0.446946643731146
0.41979155835666,-0.446463635793219
0.423698887558436,-0.445984950947867
0.427553465064835,-0.445510734279762
0.431354750877766,-0.445041130873581
0.435102204999134,-0.444576285813998
0.438795287430847,-0.444116344185689
0.442433458174812,-0.443661451073327
0.446016177232935,-0.443211751561589
0.449542904607125,-0.442767390735148
0.453013100299287,-0.44232851367868
0.456426224311329,-0.441895265476859
0.459781736645157,-0.441467791214361
0.463079097302678,-0.441046235975861
0.466317766285801,-0.440630744846033
0.469497203596431,-0.440221462909553
0.472616869236475,-0.439818535251094
0.475676223207841,-0.439422106955333
0.478674725512434,-0.439032323106944
0.481611836152164,-0.438649328790601
0.484487015128936,-0.438273269090981
0.487299722444657,-0.437904289092757
0.490049418101234,-0.437542533880605
0.492735562100574,-0.437188148539199
0.495357614444585,-0.436841278153215
0.497915035135172,-0.436502067807327
0.500407284174244,-0.436170662586211
0.502833821563707,-0.435847207574541
0.505194107305467,-0.435531847856991
0.507487601401433,-0.435224728518238
0.509713763853511,-0.434925994642956
0.511872054663607,-0.434635791315819
0.513961933833629,-0.434354263621503
0.515982861365485,-0.434081556644683
0.517934297261079,-0.433817815470033
0.519815701522321,-0.433563185182229
0.521626534151116,-0.433317810865945
0.523366255149372,-0.433081837605856
0.525034324518996,-0.432855410486638
0.526630202261894,-0.432638674592964
0.528153348379974,-0.432431775009511
0.529603222875142,-0.432234856820952
0.530979285749306,-0.432048065111963
0.532280997004372,-0.431871544967219
0.533507816642248,-0.431705441471394
0.53465920466484,-0.431549899709164
0.535734621074055,-0.431405064765203
0.5367335258718,-0.431271081724187
0.537655379059983,-0.43114809567079
0.53849964064051,-0.431036251689687
0.539265770615288,-0.430935694865552
0.539953228986224,-0.430846570283062
0.540561475755226,-0.430769023026891
0.541089970924199,-0.430703198181713
0.541538174495052,-0.430649240832204
0.54190554646969,-0.430607296063039
0.542191546850021,-0.430577508958892
0.542395635637953,-0.430560024604438
0.542517272835391,-0.430554988084353
0.542555918444243,-0.430562544483311
0.542511032466416,-0.430582838885987
0.542382074903816,-0.430616016377056
0.542168505758351,-0.430662222041193
0.541869785031928,-0.430721600963072
0.541485372726453,-0.43079429822737
0.541014728843835,-0.43088045891876
0.540457313385978,-0.430980228121917
0.539812586354792,-0.431093750921517
0.539080007752182,-0.431221172402235
0.538259037580055,-0.431362637648744
0.537349135840318,-0.431518291745721
0.536349762534879,-0.43168827977784
0.535260377665645,-0.431872746829775
0.534080441234521,-0.432071837986203
0.532809413243416,-0.432285698331797
0.531446753694236,-0.432514472951233
0.529991922588888,-0.432758306929186
0.52844437992928,-0.43301734535033
0.526803585717317,-0.433291733299341
0.525068999954908,-0.433581615860892
0.525068999954908,-0.433581615860892
0.523274319194474,-0.433872297172743
0.521453723777269,-0.434149035806242
0.519607399388444,-0.43441190849645
0.517735531713152,-0.434660991978429
0.515838306436544,-0.434896362987241
0.513915909243774,-0.435118098257947
0.511968525819992,-0.43532627452561
0.509996341850352,-0.43552096852529
0.507999543020004,-0.43570225699205
0.505978315014103,-0.435870216660951
0.503932843517798,-0.436024924267056
0.501863314216243,-0.436166456545425
0.499769912794591,-0.43629489023112
0.497652824937991,-0.436410302059204
0.495512236331598,-0.436512768764737
0.493348332660564,-0.436602367082782
0.491161299610039,-0.4366791737484
0.488951322865177,-0.436743265496652
0.48671858811113,-0.436794719062601
0.484463281033049,-0.436833611181309
0.482185587316087,-0.436860018587837
0.479885692645396,-0.436874018017246
0.477563782706128,-0.436875686204598
0.475220043183435,-0.436865099884955
0.47285465976247,-0.436842335793379
0.470467818128384,-0.436807470664932
0.468059703966329,-0.436760581234675
0.465630502961459,-0.436701744237669
0.463180400798924,-0.436631036408977
0.460709583163877,-0.43654853448366
0.45821823574147,-0.43645431519678
0.455706544216856,-0.436348455283399
0.453174694275186,-0.436231031478578
0.450622871601613,-0.436102120517379
0.448051261881288,-0.435961799134863
0.445460050799364,-0.435810144066093
0.442849424040992,-0.43564723204613
0.440219567291326,-0.435473139810036
0.437570666235517,-0.435287944092872
0.434902906558717,-0.4350917216297
0.432216473946079,-0.434884549155583
0.429511554082754,-0.43466650340558
0.426788332653895,-0.434437661114755
0.424046995344654,-0.434198099018169
0.421287727840183,-0.433947893850884
0.418510715825634,-0.43368712234796
0.415716144986158,-0.433415861244461
0.41290420100691,-0.433134187275448
0.41007506957304,-0.432842177175982
0.4072289363697,-0.432539907681125
0.404365987082043,-0.432227455525938
0.401486407395221,-0.431904897445485
0.398590382994386,-0.431572310174825
0.39567809956469,-0.431229770449022
0.392749742791285,-0.430877355003136
0.389805498359324,-0.430515140572229
0.386845551953958,-0.430143203891363
0.383870089260339,-0.4297616216956
0.380879295963621,-0.429370470720001
0.377873357748954,-0.428969827699628
0.374852460301492,-0.428559769369543
0.371816789306385,-0.428140372464808
0.368766530448787,-0.427711713720483
0.36570186941385,-0.427273869871632
0.362622991886724,-0.426826917653314
0.359530083552564,-0.426370933800594
0.35642333009652,-0.42590599504853
0.353302917203745,-0.425432178132187
0.350169030559392,-0.424949559786625
0.347021855848611,-0.424458216746906
0.343861578756556,-0.423958225748092
0.340688384968378,-0.423449663525244
0.33750246016923,-0.422932606813424
0.334303990044263,-0.422407132347694
0.331093160278631,-0.421873316863115
0.327870156557484,-0.42133123709475
0.324635164565976,-0.420780969777659
0.321388369989257,-0.420222591646905
0.318129958512481,-0.419656179437549
0.3148601158208,-0.419081809884654
0.311579027599365,-0.41849955972328
0.308286879533329,-0.417909505688489
0.304983857307843,-0.417311724515343
0.301670146608061,-0.416706292938904
0.298345933119134,-0.416093287694233
0.295011402526214,-0.415472785516393
0.291666740514454,-0.414844863140444
0.288312132769005,-0.414209597301449
0.28494776497502,-0.413567064734469
0.281573822817651,-0.412917342174566
0.278190491982049,-0.412260506356802
0.274797958153368,-0.411596634016238
0.271396407016758,-0.410925801887936
0.267986024257373,-0.410248086706957
0.264566995560365,-0.409563565208364
0.261139506610885,-0.408872314127218
0.257703743094086,-0.408174410198581
0.254259890695119,-0.407469930157514
0.250808135099138,-0.406758950739079
0.247348661991294,-0.406041548678339
0.243881657056738,-0.405317800710354
0.240407305980625,-0.404587783570186
0.236925794448104,-0.403851573992897
0.23343730814433,-0.403109248713548
0.229942032754453,-0.402360884467202
0.226440153963626,-0.40160655798892
0.222931857457001,-0.400846346013764
0.21941732891973,-0.400080325276795
0.215896754036965,-0.399308572513075
0.212370318493859,-0.398531164457666
0.208838207975563,-0.39774817784563
0.20530060816723,-0.396959689412028
0.201757704754012,-0.396165775891921
0.19820968342106,-0.395366514020373
0.194656729853528,-0.394561980532443
0.191099029736567,-0.393752252163195
0.187536768755329,-0.392937405647689
0.183970132594966,-0.392117517720987
0.180399306940631,-0.391292665118152
0.176824477477476,-0.390462924574244
0.173245829890653,-0.389628372824326
0.169663549865313,-0.388789086603459
0.16607782308661,-0.387945142646705
0.162488835239695,-0.387096617689126
0.15889677200972,-0.386243588465782
0.155301819081838,-0.385386131711737
0.1517041621412,-0.384524324162051
0.148103986872959,-0.383658242551786
0.144501478962267,-0.382787963616005
0.140896824094276,-0.381913564089768
0.137290207954138,-0.381035120708138
0.133681816227005,-0.380152710206175
0.13007183459803,-0.379266409318943
0.126460448752364,-0.378376294781502
0.122847844375159,-0.377482443328914
0.119234207151569,-0.376584931696241
0.115619722766744,-0.375683836618545
0.112004576905838,-0.374779234830887
0.108388955254001,-0.373871203068329
0.104773043496387,-0.372959818065933
0.101157027318148,-0.37204515655876
0.0975410924044348,-0.371127295281871
0.0939254244404003,-0.37020631097033
0.0903102091111967,-0.369282280359197
0.0866956321019761,-0.368355280183535
0.0830818790978905,-0.367425387178404
0.0794691357840921,-0.366492678078867
0.0758575878457331,-0.365557229619985
0.0722474209679655,-0.36461911853682
0.0686388208359415,-0.363678421564433
0.0650319731348132,-0.362735215437887
0.0614270635497329,-0.361789576892242
0.0578242777658525,-0.360841582662562
0.0542238014683241,-0.359891309483907
0.0506258203423,-0.358938834091339
0.0470305200729323,-0.35798423321992
0.0434380863453732,-0.357027583604711
0.0398487048447746,-0.356068961980774
0.0362625612562888,-0.355108445083171
0.0326798412650679,-0.354146109646964
0.029100730556264,-0.353182032407215
0.0255254148150293,-0.352216290098984
0.0219540797265157,-0.351248959457333
0.0183869109758758,-0.350280117217325
0.0148240942482613,-0.349309840114022
0.0112658152288244,-0.348338204882483
0.00771225960271736,-0.347365288257773
0.00416361305509232,-0.346391166974951
0.000620061271101341,-0.34541591776908
-0.00291821006410353,-0.344439617375222
-0.00645101526537006,-0.343462342528438
-0.00997816864754608,-0.34248416996379
-0.0134994845254795,-0.34150517641634
-0.0170147772140184,-0.340525438621148
-0.0205238610280103,-0.339545033313278
-0.0240265502823031,-0.338564037227791
-0.027522659291745,-0.337582527099748
-0.0310120023711836,-0.336600579664211
-0.0344943938354669,-0.335618271656241
-0.0379696479994426,-0.334635679810901
-0.0414375791779587,-0.333652880863253
-0.0448980016858631,-0.332669951548357
-0.0483507298380036,-0.331686968601276
-0.051795577949228,-0.330704008757071
-0.0552323603343844,-0.329721148750804
-0.0586608913083204,-0.328738465317537
-0.0620809851858841,-0.32775603519233
-0.0654924562819232,-0.326773935110248
-0.0688951189112857,-0.325792241806349
-0.0722887873888194,-0.324811032015697
-0.0756732760293722,-0.323830382473354
-0.0790483991477917,-0.32285036991438
-0.0824139710589263,-0.321871071073837
-0.0857698060776235,-0.320892562686788
-0.0891157185187312,-0.319914921488294
-0.0924515226970974,-0.318938224213416
-0.0957770329275698,-0.317962547597217
-0.0990920635249965,-0.316987968374757
-0.102396428804225,-0.3160145632811
-0.105689943080104,-0.315042409051305
-0.10897242066748,-0.314071582420436
-0.112243675881202,-0.313102160123553
-0.115503523036118,-0.312134218895719
-0.118751776447074,-0.311167835471995
-0.121988250428921,-0.310203086587443
-0.125212759296504,-0.309240048977125
-0.128425117364672,-0.308278799376102
-0.131625138948273,-0.307319414519435
-0.134812638362155,-0.306361971142187
-0.137987429921166,-0.30540654597942
-0.141149327940153,-0.304453215766195
-0.144298146733964,-0.303502057237573
-0.147433700617448,-0.302553147128617
-0.150555803905451,-0.301606562174388
-0.153664270912823,-0.300662379109948
-0.15675891595441,-0.299720674670358
-0.159839553345061,-0.29878152559068
-0.162905997399624,-0.297845008605976
-0.165958062432946,-0.296911200451308
-0.168995562759875,-0.295980177861737
-0.17201831269526,-0.295052017572325
-0.175026126553948,-0.294126796318134
-0.178018818650786,-0.293204590834225
-0.180996203300623,-0.292285477855661
-0.183958094818307,-0.291369534117501
-0.186904307518686,-0.29045683635481
-0.189834655716607,-0.289547461302647
-0.192748953726918,-0.288641485696076
-0.195647015864467,-0.287738986270157
-0.198528656444103,-0.286840039759952
-0.201393689780672,-0.285944722900523
-0.204241930189023,-0.285053112426932
-0.207073191984003,-0.28416528507424
-0.209887289480461,-0.283281317577509
-0.212684036993245,-0.2824012866718
-0.215463248837201,-0.281525269092177
-0.218224739327179,-0.280653341573699
-0.220968322778026,-0.279785580851429
-0.223693813504589,-0.278922063660428
-0.226401025821717,-0.278062866735759
-0.229089774044258,-0.277208066812483
-0.231759872487059,-0.276357740625661
-0.234411135464969,-0.275511964910355
-0.237043377292835,-0.274670816401627
-0.239656412285505,-0.27383437183454
-0.242250054757826,-0.273002707944153
-0.244824119024648,-0.272175901465529
-0.247378419400817,-0.271354029133731
-0.249912770201182,-0.270537167683818
-0.25242698574059,-0.269725393850854
-0.254920880333889,-0.2689187843699
-0.257394268295928,-0.268117415976017
-0.259846963941553,-0.267321365404267
-0.262278781585614,-0.266530709389712
-0.264689535542957,-0.265745524667414
-0.267079040128431,-0.264965887972434
-0.269447109656883,-0.264191876039834
-0.271793558443162,-0.263423565604676
-0.274118200802115,-0.262661033402022
-0.27642085104859,-0.261904356166932
-0.278701323497435,-0.261153610634469
-0.280959432463497,-0.260408873539695
-0.283194992261626,-0.25967022161767
-0.285407817206668,-0.258937731603458
-0.287597721613472,-0.258211480232119
-0.289764519796885,-0.257491544238716
-0.291908026071755,-0.256778000358309
-0.29402805475293,-0.256070925325961
-0.296124420155258,-0.255370395876734
-0.298196936593587,-0.254676488745688
-0.300245418382765,-0.253989280667886
-0.302269679837639,-0.25330884837839
-0.304269535273057,-0.25263526861226
-0.306244799003868,-0.25196861810456
-0.308195285344919,-0.25130897359035
-0.310120808611058,-0.250656411804692
-0.312021183117133,-0.250011009482648
-0.313896223177992,-0.24937284335928
-0.315745743108482,-0.248741990169649
-0.317569557223452,-0.248118526648817
-0.319367479837749,-0.247502529531846
-0.321139325266222,-0.246894075553797
-0.322884907823717,-0.246293241449732
-0.324604041825084,-0.245700103954713
-0.326296541585169,-0.245114739803802
-0.327962221418821,-0.244537225732059
-0.329600895640888,-0.243967638474548
-0.331212378566217,-0.243406054766329
-0.332796484509657,-0.242852551342464
-0.334353027786054,-0.242307204938015
-0.335881822710258,-0.241770092288044
-0.337382683597116,-0.241241290127612
-0.338855424761475,-0.240720875191782
-0.340299860518185,-0.240208924215614
-0.341715805182091,-0.23970551393417
-0.343103073068044,-0.239210721082512
-0.344461478490889,-0.238724622395703
-0.345790835765476,-0.238247294608802
-0.347090959206652,-0.237778814456873
-0.348361663129264,-0.237319258674977
-0.349602761848161,-0.236868703998176
-0.350814069678192,-0.23642722716153
-0.351995400934202,-0.235994904900103
-0.353146569931041,-0.235571813948955
-0.354267390983556,-0.235158031043149
-0.355357678406595,-0.234753632917746
-0.356417246515007,-0.234358696307807
-0.357445909623638,-0.233973297948396
-0.358443482047337,-0.233597514574572
-0.359409778100951,-0.233231422921398
-0.360344612099329,-0.232875099723935
-0.361247798357319,-0.232528621717246
-0.362119151189767,-0.232192065636392
-0.362958484911523,-0.231865508216434
-0.363765613837433,-0.231549026192435
-0.364540352282347,-0.231242696299456
-0.365282514561111,-0.230946595272558
-0.365991914988574,-0.230660799846804
-0.366668367879583,-0.230385386757255
-0.367311687548986,-0.230120432738972
-0.367921688311632,-0.229866014527019
-0.368498184482367,-0.229622208856455
-0.369040990376041,-0.229389092462343
-0.3695499203075,-0.229166742079745
-0.370024788591593,-0.228955234443722
-0.370465409543167,-0.228754646289336
-0.370871597477071,-0.228565054351649
-0.371243166708152,-0.228386535365722
-0.371579931551259,-0.228219166066617
-0.371881706321238,-0.228063023189396
-0.372148305332938,-0.227918183469121
-0.372379542901207,-0.227784723640852
-0.372575233340893,-0.227662720439653
-0.372735190966843,-0.227552250600583
-0.372859230093905,-0.227453390858707
-0.372947165036928,-0.227366217949084
-0.372998810110758,-0.227290808606776
-0.373013979630245,-0.227227239566846
-0.372992487910235,-0.227175587564355
-0.372934149265577,-0.227135929334365
-0.372838778011119,-0.227108341611937
-0.372706188461708,-0.227092901132133
-0.372536194932193,-0.227089684630015
-0.372328611737421,-0.227098768840644
-0.372083253192239,-0.227120230499083
-0.371799933611497,-0.227154146340392
-0.371478467310041,-0.227200593099634
-0.371118668602721,-0.227259647511871
-0.370720351804382,-0.227331386312163
-0.370283331229874,-0.227415886235573
-0.369807421194045,-0.227513224017162
-0.369292436011741,-0.227623476391992
-0.368738189997812,-0.227746720095125
-0.368144497467104,-0.227883031861623
-0.367511172734466,-0.228032488426547
-0.366838030114746,-0.228195166524958
-0.366124883922791,-0.228371142891919
-0.36537154847345,-0.228560494262491
-0.36457783808157,-0.228763297371736
-0.363743567061998,-0.228979628954716
-0.362868549729584,-0.229209565746492
-0.361952600399175,-0.229453184482126
-0.360995533385618,-0.229710561896679
-0.359997163003763,-0.229981774725214
-0.358957303568455,-0.230266899702793
-0.357875769394544,-0.230566013564475
-0.356752374796877,-0.230879193045325
-0.355586934090302,-0.231206514880402
-0.354379261589667,-0.23154805580477
-0.35312917160982,-0.231903892553489
-0.351836478465608,-0.232274101861621
-0.35050099647188,-0.232658760464228
-0.349122539943484,-0.233057945096372
-0.347700923195267,-0.233471732493114
-0.346235960542076,-0.233900199389516
-0.344727466298761,-0.23434342252064
-0.343175254780169,-0.234801478621547
-0.341579140301148,-0.2352744444273
-0.339938937176545,-0.235762396672959
-0.338254459721209,-0.236265412093587
-0.336525522249987,-0.236783567424245
-0.334751939077727,-0.237316939399995
-0.332933524519277,-0.237865604755898
-0.331070092889486,-0.238429640227017
-0.3291614585032,-0.239009122548413
-0.327207435675268,-0.239604128455147
-0.325207838720538,-0.240214734682282
-0.323162481953857,-0.240841017964879
-0.321071179690073,-0.241483055037999
-0.318933746244035,-0.242140922636705
-0.316749995930589,-0.242814697496059
-0.314519743064585,-0.243504456351121
-0.312242801960869,-0.244210275936953
-0.30991898693429,-0.244932232988618
-0.307548112299696,-0.245670404241177
-0.305129992371934,-0.246424866429691
-0.302664441465852,-0.247195696289223
-0.300151273896299,-0.247982970554834
-0.297590303978121,-0.248786765961585
