-0.126499306653229,0.401000059805522
-0.129095088164642,0.39536875413183
-0.13164022231344,0.389794879244541
-0.134134944315162,0.384278232090361
-0.136579489385348,0.378818609615998
-0.138974092739537,0.373415808768157
-0.141318989593267,0.368069626493544
-0.143614415162079,0.362779859738865
-0.145860604661511,0.357546305450828
-0.148057793307102,0.352368760576138
-0.150206216314391,0.347247022061501
-0.152306108898918,0.342180886853624
-0.154357706276222,0.337170151899214
-0.156361243661842,0.332214614144975
-0.158316956271317,0.327314070537615
-0.160225079320186,0.322468318023839
-0.162085848023988,0.317677153550355
-0.163899497598263,0.312940374063868
-0.16566626325855,0.308257776511085
-0.167386380220387,0.303629157838711
-0.169060083699315,0.299054314993454
-0.170687608910871,0.294533044922018
-0.172269191070596,0.290065144571112
-0.173805065394028,0.28565041088744
-0.175295467096707,0.28128864081771
-0.176740631394171,0.276979631308627
-0.17814079350196,0.272723179306897
-0.179496188635614,0.268519081759228
-0.18080705201067,0.264367135612325
-0.182073618842669,0.260267137812894
-0.183296124347149,0.256218885307642
-0.18447480373965,0.252222175043275
-0.185609892235711,0.248276803966499
-0.18670162505087,0.244382569024021
-0.187750237400668,0.240539267162546
-0.188755964500643,0.236746695328782
-0.189719041566334,0.233004650469434
-0.190639703813281,0.229312929531208
-0.191518186457022,0.225671329460812
-0.192354724713097,0.22207964720495
-0.193149553797045,0.21853767971033
-0.193902908924406,0.215045223923657
-0.194615025310717,0.211602076791639
-0.195286138171519,0.20820803526098
-0.195916482722351,0.204862896278388
-0.196506294178751,0.201566456790568
-0.197055807756259,0.198318513744228
-0.197565258670414,0.195118864086073
-0.198034882136756,0.191967304762809
-0.198464913370822,0.188863632721143
-0.198855587588154,0.185807644907781
-0.199207140004288,0.182799138269429
-0.199519805834766,0.179837909752794
-0.199793820295125,0.176923756304581
-0.200029418600906,0.174056474871498
-0.200226835967646,0.171235862400249
-0.200386307610887,0.168461715837543
-0.200508068746165,0.165733832130084
-0.200592354589021,0.16305200822458
-0.200639400354995,0.160416041067735
-0.200649441259624,0.157825727606258
-0.200622712518448,0.155280864786853
-0.200559449347006,0.152781249556228
-0.200459886960838,0.150326678861088
-0.200324260575483,0.147916949648139
-0.200152805406479,0.145551858864089
-0.199945756669366,0.143231203455642
-0.199703349579683,0.140954780369507
-0.199425819352969,0.138722386552388
-0.199113401204764,0.136533818950992
-0.198766330350606,0.134388874512025
-0.198384842006035,0.132287350182194
-0.197969171386589,0.130229042908204
-0.197519553707809,0.128213749636763
-0.197036224185232,0.126241267314576
-0.196519418034399,0.124311392888349
-0.195969370470848,0.12242392330479
-0.195386316710119,0.120578655510603
-0.19477049196775,0.118775386452496
-0.194122131459281,0.117013913077175
-0.193441470400251,0.115294032331345
-0.192728744006199,0.113615541161714
-0.191984187492665,0.111978236514987
-0.191208036075187,0.11038191533787
-0.190400524969304,0.108826374577071
-0.189561889390556,0.107311411179295
-0.188692364554483,0.105836822091248
-0.187792185676622,0.104402404259637
-0.186861587972513,0.103007954631169
-0.185900806657696,0.101653270152548
-0.184910076947709,0.100338147770482
-0.183889634058092,0.0990623844316766
-0.182839713204383,0.0978257770828385
-0.181760549602123,0.0966281226706736
-0.180652378466849,0.0954692181418883
-0.179515435014102,0.0943488604431889
-0.17834995445942,0.0932668465212815
-0.177156172018343,0.0922229733228726
-0.175934322906409,0.0912170377946683
-0.174684642339159,0.0902488368833749
-0.17340736553213,0.0893181675356987
-0.172102727700862,0.0884248266983459
-0.170770964060895,0.0875686113180228
-0.169412309827767,0.0867493183414357
-0.168027000217017,0.0859667447152908
-0.166615270444186,0.0852206873862944
-0.165177355724811,0.0845109433011527
-0.163713491274432,0.0838373094065721
-0.162223912308589,0.0831995826492587
-0.16070885404282,0.0825975599759189
-0.159168551692664,0.0820310383332589
-0.157603240473661,0.0814998146679849
-0.15601315560135,0.0810036859268033
-0.154398532291269,0.0805424490564202
-0.152759605758959,0.0801159010035421
-0.151096611219958,0.079723838714875
-0.149409783889805,0.0793660591371253
-0.14769935898404,0.0790423592169993
-0.145965571718202,0.0787525359012032
-0.144208657307829,0.0784963861364433
-0.142428850968462,0.0782737068694258
-0.140626387915638,0.078084295046857
-0.138801503364898,0.0779279476154431
-0.13695443253178,0.0778044615218905
-0.135085410631824,0.0777136337129054
-0.133194672880569,0.0776552611351941
-0.131282454493553,0.0776291407354627
-0.129348990686317,0.0776350694604177
-0.127394516674398,0.0776728442567652
-0.125419267673337,0.0777422620712115
-0.123423478898673,0.0778431198504628
-0.121407385565944,0.0779752145412256
-0.11937122289069,0.0781383430902058
-0.11731522608845,0.07833230244411
-0.115239630374763,0.0785568895496443
-0.113144670965168,0.078811901353515
-0.111030583075205,0.0790971348024284
-0.108897601920412,0.0794123868430906
-0.106745962716329,0.079757454422208
-0.104575900678495,0.0801321344864869
-0.102387651022448,0.0805362239826335
-0.100181448963729,0.0809695198573541
-0.0979575297178765,0.0814318190573548
-0.095716128500429,0.0819229185293421
-0.0934574805269263,0.0824426152200221
-0.0911818210129072,0.0829907060761012
-0.0888893851739111,0.0835669880442855
-0.0865804082254768,0.0841712580712814
-0.0842551253831439,0.0848033131037951
-0.0819137718624514,0.085462950088533
-0.0795565828789382,0.0861499659722011
-0.0771837936481438,0.0868641577015058
-0.0747956393856071,0.0876053222231534
-0.0723923553068675,0.0883732564838502
-0.0699741766274638,0.0891677574303023
-0.0675413385629354,0.089988622009216
-0.0650940763288215,0.0908356471672978
-0.062632625140661,0.0917086298512537
-0.0601572202139933,0.09260736700779
-0.0576680967643574,0.093531655583613
-0.0551654900072925,0.0944812925254291
-0.0526496351583378,0.0954560747799443
-0.0501207674330323,0.0964557992938651
-0.0475791220469153,0.0974802630138976
-0.0450249342155259,0.0985292628867481
-0.0424584391544033,0.099602595859123
-0.0398798720790865,0.100700058877728
-0.0372894682051148,0.101821448889271
-0.0346874627480274,0.102966562840456
-0.0320740909233632,0.104135197677991
-0.0294495879466616,0.105327150348581
-0.0268141890334615,0.106542217798933
-0.0241681293993024,0.107780196975753
-0.0215116442597231,0.109040884825748
-0.018844968830263,0.110324078295623
-0.0161683383264611,0.111629574332085
-0.0134819879638566,0.112957169881841
-0.0107861529579887,0.114306661891596
-0.00808106852439636,0.115677847308056
-0.00536696987861898,0.117070523077929
-0.00264409223619561,0.11848448614792
8.73291873345894e-05,0.119919533464735
0.00282705917643257,0.121375461975081
0.00557486251555907,0.122852068625664
0.0083305039891749,0.124349150363191
0.0110937483817411,0.125866504134367
0.0138643604777182,0.127403926885898
0.0166421050615675,0.128961215564492
0.0194267469177494,0.130538167116854
0.022218050830725,0.132134578489691
0.0250157815849551,0.133750246629709
0.0278197039649005,0.135384968483614
0.0306295827550222,0.137038540998112
0.0334451827397809,0.13871076111991
0.0362662687036374,0.140401425795714
0.0390926054310528,0.14211033197223
0.0419239577064877,0.143837276596165
0.044760090314403,0.145582056614224
0.0476007680392597,0.147344468973114
0.0504457556655185,0.149124310619541
0.0532948179776403,0.150921378500212
0.056147719760086,0.152735469561833
0.0590042257973162,0.15456638075111
0.0618641008737922,0.156413909014749
0.0647271097739744,0.158277851299457
0.0675930172823239,0.160158004551939
0.0704615881833014,0.162054165718903
0.0733325872613681,0.163966131747054
0.0762057793009843,0.165893699583098
0.0790809290866114,0.167836666173743
0.0819578014027097,0.169794828465693
0.0848361610337406,0.171767983405656
0.0877157727641645,0.173755927940338
0.0905964013784426,0.175758459016444
0.0934778116610355,0.177775373580682
0.0963597683964042,0.179806468579757
0.0992420363690094,0.181851540960376
0.102124380363312,0.183910387669245
0.105006565163773,0.18598280565307
0.107888355554853,0.188068591858558
0.110769516321013,0.190167543232415
0.113649812246714,0.192279456721346
0.116529008116417,0.194404129272059
0.119406868714582,0.196541357831259
0.12228315882567,0.198690939345654
0.125157643234143,0.200852670761948
0.128030086724461,0.203026349026849
0.130900254081085,0.205211771087062
0.133767910088476,0.207408733889294
0.136632819531094,0.209617034380251
0.1394947471934,0.21183646950664
0.142353457859857,0.214066836215167
0.145208716314923,0.216307931452537
0.14806028734306,0.218559552165458
0.150907935728729,0.220821495300635
0.153751426256391,0.223093557804774
0.156590523710506,0.225375536624583
0.159424992875536,0.227667228706767
0.162254598535942,0.229968430998033
0.165079105476183,0.232278940445086
0.167898278480721,0.234598553994633
0.170711882334017,0.236927068593381
0.173519681820532,0.239264281188035
0.176321441724727,0.241609988725302
0.179116926831061,0.243963988151888
0.181905901923997,0.2463260764145
0.184688131787995,0.248696050459843
0.187463381207516,0.251073707234624
0.190231414967021,0.253458843685549
0.19299199785097,0.255851256759325
0.195744894643825,0.258250743402657
0.198489870130046,0.260657100562253
0.201226689094095,0.263070125184817
0.203955116320431,0.265489614217057
0.206674916593516,0.267915364605679
0.209385854697812,0.270347173297388
0.212087695417777,0.272784837238892
0.214780203537874,0.275228153376897
0.217463143842563,0.277676918658108
0.220136281116306,0.280130930029232
0.222799380143562,0.282589984436976
0.225452205708794,0.285053878828045
0.22809452259646,0.287522410149146
0.230726095591024,0.289995375346985
0.233346689476945,0.292472571368269
0.235956069038684,0.294953795159703
0.238553999060702,0.297438843667994
0.24114024432746,0.299927513839848
0.243714569623419,0.302419602621971
0.246276739733039,0.304914906961071
0.248826519440782,0.307413223803852
0.251363673531108,0.309914350097021
0.253887966788479,0.312418082787285
0.256399163997354,0.31492421882135
0.258897029942196,0.317432555145922
0.261381329407464,0.319942888707707
0.263851827177619,0.322455016453411
0.266308288037123,0.324968735329741
0.268750476770437,0.327483842283403
0.27117815816202,0.330000134261104
0.273591096996334,0.332517408209549
0.275989058057841,0.335035461075445
0.278371806131,0.337554089805498
0.280739106000272,0.340073091346415
0.283090722450119,0.342592262644901
0.285426420265001,0.345111400647663
0.287745964229379,0.347630302301407
0.290049119127714,0.35014876455284
0.292335649744467,0.352666584348667
0.294605320864098,0.355183558635596
0.296857897271069,0.357699484360331
0.29909314374984,0.36021415846958
0.301310825084873,0.362727377910049
0.303510706060627,0.365238939628443
0.305692551461564,0.36774864057147
0.307856126072145,0.370256277685836
0.310001194676831,0.372761647918246
0.312127522060082,0.375264548215408
0.314234873006359,0.377764775524026
0.316323012300124,0.380262126790809
0.318391704725836,0.382756398962461
0.320440715067957,0.385247388985689
0.322469808110948,0.3877348938072
0.324478748639269,0.390218710373699
0.326467301437382,0.392698635631893
0.328435231289747,0.395174466528488
0.330382302980825,0.397646000010191
0.332308281295077,0.400113033023708
0.334212931016963,0.402575362515744
0.336096016930946,0.405032785433007
0.337957303821484,0.407485098722202
0.33979655647304,0.409932099330036
0.341613539670075,0.412373584203215
0.343408018197048,0.414809350288445
0.345179756838421,0.417239194532432
0.346928520378655,0.419662913881884
0.34865407360221,0.422080305283505
0.350356181293548,0.424491165684003
0.352034608237129,0.426895292030084
0.353689119217414,0.429292481268453
0.355319479018864,0.431682530345817
0.35692545242594,0.434065236208883
0.358506804223103,0.436440395804357
0.360063299194813,0.438807806078944
0.361594702125532,0.441167263979352
0.363100777799719,0.443518566452286
0.364581291001837,0.445861510444452
0.366036006516346,0.448195892902558
0.367464689127706,0.450521510773309
0.368867103620379,0.452838161003411
0.370243014778826,0.455145640539571
0.371592187387507,0.457443746328496
0.372914386230883,0.45973227531689
0.374209376093415,0.462011024451461
0.375476921759563,0.464279790678915
0.37671678801379,0.466538370945958
0.377928739640555,0.468786562199295
0.37911254142432,0.471024161385635
0.380267958149544,0.473250965451683
0.38139475460069,0.475466771344145
0.382492695562218,0.477671376009727
0.383561545818589,0.479864576395136
0.384601070154263,0.482046169447077
0.385611033353702,0.484215952112258
0.386591200201366,0.486373721337384
0.387541335481717,0.488519274069162
0.388461203979214,0.490652407254298
0.389350570478319,0.492772917839499
0.390209199763494,0.494880602771469
0.391036856619197,0.496975258996917
0.391833305829891,0.499056683462547
0.392598312180037,0.501124673115067
0.393331640454095,0.503179024901182
0.394033055436525,0.505219535767599
0.39470232191179,0.507246002661024
0.395339204664349,0.509258222528164
0.395943468478664,0.511255992315724
0.396514878139195,0.513239108970411
0.397053198430403,0.515207369438931
0.39755819413675,0.517160570667991
0.398029630042695,0.519098509604296
0.398467270932701,0.521020983194553
0.398870881591227,0.522927788385468
0.399240226802734,0.524818722123748
0.399575071351684,0.526693581356098
0.399875180022537,0.528552163029225
0.400140317599754,0.530394264089836
0.400370248867796,0.532219681484636
0.400564738611123,0.534028212160332
0.400723551614198,0.53581965306363
0.40084645266148,0.537593801141236
0.400933206537429,0.539350453339857
0.400983578026509,0.541089406606198
0.400997331913178,0.542810457886967
0.400974232981898,0.544513404128869
0.40091404601713,0.54619804227861
0.400816535803334,0.547864169282898
0.400681467124972,0.549511582088437
0.400508604766504,0.551140077641935
0.400297713512391,0.552749452890098
0.400048558147094,0.554339504779631
0.399760903455074,0.555910030257242
0.399434514220791,0.557460826269636
0.399069155228707,0.55899168976352
0.398664591263282,0.5605024176856
0.398220587108978,0.561992806982582
0.397736907550254,0.563462654601173
0.397213317371573,0.564911757488078
0.396649581357394,0.566339912590004
0.396045464292179,0.567746916853658
0.395400730960388,0.569132567225745
0.394715146146482,0.570496660652973
0.393988474634923,0.571838994082046
0.393220481210171,0.573159364459671
0.392410930656686,0.574457568732555
0.39155958775893,0.575733403847404
0.390666217301364,0.576986666750924
0.389730584068448,0.578217154389822
0.388752452844644,0.579424663710803
0.387731588414411,0.580608991660574
0.387731588414411,0.580608991660574
0.38670488832161,0.581768613624831
0.385709271607276,0.582902189639499
0.384744535301632,0.58400979362663
0.383810476434902,0.585091499508274
0.382906892037309,0.586147381206483
0.382033579139077,0.587177512643307
0.381190334770431,0.588181967740798
0.380376955961593,0.589160820421006
0.379593239742787,0.590114144605982
0.378838983144237,0.591042014217778
0.378113983196167,0.591944503178444
0.3774180369288,0.592821685410031
0.37675094137236,0.593673634834591
0.37611249355707,0.594500425374173
0.375502490513155,0.59530213095083
0.374920729270838,0.596078825486612
0.374367006860342,0.59683058290357
0.373841120311892,0.597557477123756
0.37334286665571,0.598259582069219
0.372872042922022,0.598936971662012
0.372428446141049,0.599589719824184
0.372011873343017,0.600217900477788
0.371622121558148,0.600821587544873
0.371258987816667,0.601400854947492
0.370922269148796,0.601955776607695
0.37061176258476,0.602486426447532
0.370327265154783,0.602992878389056
0.370068573889087,0.603475206354316
0.369835485817898,0.603933484265365
0.369627797971437,0.604367786044252
0.36944530737993,0.604778185613029
0.369287811073599,0.605164756893746
0.369155106082669,0.605527573808456
0.369046989437363,0.605866710279208
0.368963258167905,0.606182240228054
0.368903709304518,0.606474237577045
0.368868139877426,0.606742776248231
0.368856346916853,0.606987930163664
0.368868127453022,0.607209773245395
0.368903278516157,0.607408379415474
0.368961597136483,0.607583822595953
0.369042880344221,0.607736176708883
0.369146925169597,0.607865515676314
0.369273528642833,0.607971913420297
0.369422487794154,0.608055443862885
0.369593599653783,0.608116180926126
0.369786661251944,0.608154198532073
0.37000146961886,0.608169570602776
0.370237821784756,0.608162371060287
0.370495514779854,0.608132673826656
0.370774345634379,0.608080552823935
0.371074111378554,0.608006081974174
0.371394609042603,0.607909335199424
0.37173563565675,0.607790386421737
0.372096988251217,0.607649309563162
0.37247846385623,0.607486178545752
0.372879859502011,0.607301067291558
0.373300972218784,0.607094049722629
0.373741599036773,0.606865199761018
0.374201536986202,0.606614591328774
0.374680583097293,0.60634229834795
0.375178534400272,0.606048394740596
0.375695187925361,0.605732954428763
0.376230340702785,0.605396051334502
0.376783789762767,0.605037759379864
0.37735533213553,0.6046581524869
0.377944764851298,0.604257304577662
0.378551884940295,0.603835289574199
0.379176489432746,0.603392181398563
0.379818375358872,0.602928053972805
0.380477339748898,0.602442981218975
0.381153179633048,0.601937037059126
0.381845692041545,0.601410295415308
0.382554674004613,0.600862830209571
0.383279922552476,0.600294715363967
0.384021234715357,0.599706024800547
0.38477840752348,0.599096832441362
0.385551238007069,0.598467212208462
0.386339523196347,0.597817238023899
0.387143060121538,0.597146983809724
0.387961645812866,0.596456523487987
0.388795077300554,0.59574593098074
0.389643151614826,0.595015280210034
0.390505665785906,0.594264645097919
0.391382416844017,0.593494099566447
0.392273201819384,0.592703717537668
0.393177817742229,0.591893572933634
0.394096061642776,0.591063739676395
0.39502773055125,0.590214291688003
0.395972621497873,0.589345302890508
0.39693053151287,0.588456847205962
0.397901257626464,0.587548998556415
0.398884596868878,0.586621830863918
0.399880346270337,0.585675418050523
0.400888302861064,0.58470983403828
0.401908263671283,0.583725152749241
0.402940025731218,0.582721448105455
0.403983386071091,0.581698794028975
0.405038141721127,0.580657264441851
0.40610408971155,0.579596933266135
0.407181027072583,0.578517874423876
0.40826875083445,0.577420161837127
0.409367058027374,0.576303869427938
0.410475745681579,0.57516907111836
0.41159461082729,0.574015840830444
0.412723450494728,0.572844252486241
0.413862061714119,0.571654380007802
0.415010241515686,0.570446297317178
0.416167786929653,0.569220078336421
0.417334494986242,0.567975796987579
0.418510162715678,0.566713527192707
0.419694587148185,0.565433342873853
0.420887565313987,0.564135317953069
0.422088894243306,0.562819526352405
0.423298370966366,0.561486041993914
0.424515792513392,0.560134938799645
0.425740955914607,0.558766290691651
0.426973658200235,0.557380171591981
0.428213696400498,0.555976655422687
0.429460867545622,0.554555816105819
0.430714968665829,0.55311772756343
0.431975796791344,0.551662463717569
0.433243148952389,0.550190098490287
0.434516822179189,0.548700705803637
0.435796613501968,0.547194359579668
0.437082319950948,0.545671133740431
0.438373738556354,0.544131102207978
0.439670666348409,0.54257433890436
0.440972900357337,0.541000917751627
0.442280237613362,0.539410912671831
0.443592475146708,0.537804397587022
0.444909409987597,0.536181446419251
0.446230839166254,0.534542133090571
0.447556559712902,0.53288653152303
0.448886368657766,0.531214715638681
0.450220063031068,0.529526759359574
0.451557439863032,0.527822736607761
0.452898296183883,0.526102721305292
0.454242429023843,0.524366787374218
0.455589635413137,0.52261500873659
0.456939712381987,0.52084745931446
0.458292456960619,0.519064213029878
0.459647666179255,0.517265343804895
0.461005137068118,0.515450925561562
0.462364666657434,0.513621032221931
0.463726051977425,0.511775737708051
0.465089090058315,0.509915115941975
0.466453577930329,0.508039240845752
0.467819312623688,0.506148186341435
0.469186091168618,0.504242026351074
0.470553710595341,0.50232083479672
0.471921967934082,0.500384685600424
0.473290660215064,0.498433652684237
0.474659584468511,0.496467809970209
0.476028537724646,0.494487231380393
0.477397317013693,0.492491990836839
0.478765719365877,0.490482162261597
0.480133541811419,0.488457819576719
0.481500581380545,0.486419036704256
0.482866635103478,0.484365887566259
0.484231500010442,0.482298446084779
0.485594973131659,0.480216786181866
0.486956851497354,0.478120981779572
0.488316932137751,0.476011106799948
0.489675012083074,0.473887235165045
0.491030888363545,0.471749440796913
0.492384358009388,0.469597797617604
0.493735218050828,0.467432379549168
0.495083265518088,0.465253260513657
0.496428297441391,0.463060514433122
0.497770110850962,0.460854215229613
0.499108502777024,0.458634436825182
0.5004432702498,0.456401253141879
0.501774210299514,0.454154738101755
0.50310111995639,0.451894965626862
0.504423796250652,0.449622009639251
0.505742036212524,0.447335944060972
0.507055636872228,0.445036842814076
0.508364395259989,0.442724779820615
0.50966810840603,0.440399829002639
0.510966573340575,0.438062064282199
0.512259587093848,0.435711559581346
0.513546946696072,0.433348388822132
0.514828449177471,0.430972625926607
0.516103891568269,0.428584344816823
0.517373070898689,0.426183619414829
0.518635784198956,0.423770523642677
0.519891828499292,0.421345131422419
0.521141000829921,0.418907516676105
0.522383098221067,0.416457753325786
0.523617917702954,0.413995915293513
0.524845256305806,0.411522076501337
0.526064911059845,0.409036310871309
0.527276678995296,0.40653869232548
0.528480357142383,0.404029294785901
0.529675742531329,0.401508192174624
0.530862632192357,0.398975458413698
0.532040823155692,0.396431167425174
0.533210112451557,0.393875393131105
0.534370297110176,0.391308209453541
0.535521174161772,0.388729690314532
0.536662540636569,0.38613990963613
0.537794193564792,0.383538941340386
0.538915929976662,0.380926859349351
0.540027546902405,0.378303737585076
0.541128841372243,0.375669649969611
0.542219610416401,0.373024670425008
0.543299651065102,0.370368872873318
0.544368760348571,0.367702331236591
0.545426735297029,0.365025119436879
0.546473372940702,0.362337311396233
0.547508470309812,0.359638981036703
0.548531824434584,0.35693020228034
0.549543232345241,0.354211049049197
0.550542491072007,0.351481595265322
0.551529397645106,0.348741914850768
0.552503749094761,0.345992081727586
0.553465342451195,0.343232169817826
0.554413974744634,0.34046225304354
0.555349443005299,0.337682405326778
0.556271544263416,0.334892700589591
0.557180075549207,0.332093212754031
0.558074833892896,0.329284015742147
0.558955616324707,0.326465183475993
0.559822219874864,0.323636789877617
0.56067444157359,0.320798908869072
0.561512078451109,0.317951614372408
0.562334927537644,0.315094980309676
0.56314278586342,0.312229080602928
0.56393545045866,0.309353989174213
0.564712718353587,0.306469779945584
0.565474386578426,0.303576526839091
0.5662202521634,0.300674303776784
0.566950112138732,0.297763184680716
0.567663763534647,0.294843243472937
0.568361003381368,0.291914554075498
0.569041628709118,0.28897719041045
0.569705436548122,0.286031226399844
0.570352223928603,0.283076735965731
0.570981787880784,0.280113793030162
0.57159392543489,0.277142471515187
0.572188433621144,0.274162845342859
0.572765109469769,0.271174988435227
0.57332375001099,0.268178974714344
0.57386415227503,0.265174878102259
0.574386113292113,0.262162772521024
0.574889430092462,0.259142731892689
0.575373899706301,0.256114830139307
0.575839319163854,0.253079141182926
0.576285485495344,0.2500357389456
0.576712195730996,0.246984697349379
0.577119246901032,0.243926090316313
0.577506436035676,0.240859991768453
0.577873560165153,0.237786475627852
0.578220416319686,0.234705615816558
0.578546801529498,0.231617486256625
0.578852512824813,0.228522160870102
0.579137347235855,0.22541971357904
0.579401101792847,0.222310218305491
0.579643573526013,0.219193748971505
0.579864559465578,0.216070379499134
0.580063856641764,0.212940183810428
0.580241262084795,0.209803235827438
0.580396572824895,0.206659609472216
0.580529585892287,0.203509378666812
0.580640098317195,0.200352617333278
0.580727907129844,0.197189399393664
0.580792809360456,0.194019798770021
0.580834602039255,0.1908438893844
0.580853082196465,0.187661745158853
0.580848046862309,0.184473440015429
0.580819293067012,0.181279047876181
0.580766617840797,0.178078642663159
0.580689818213887,0.174872298298415
0.580588691216507,0.171660088703998
0.580463033878879,0.16844208780196
0.580312643231228,0.165218369514353
0.580137316303777,0.161989007763226
0.579936850126751,0.158754076470631
0.579711041730371,0.15551364955862
0.579459688144864,0.152267800949242
0.579182586400451,0.14901660456455
0.578879533527356,0.145760134326593
0.578550326555804,0.142498464157423
0.578194762516018,0.139231667979091
0.577812638438222,0.135959819713648
0.577403751352639,0.132682993283144
0.576967898289493,0.129401262609632
0.576504876279007,0.126114701615161
0.576014482351406,0.122823384221783
0.575496513536913,0.119527384351549
0.574950766865752,0.116226775926509
0.574377039368145,0.112921632868715
0.573775128074319,0.109612029100218
0.573144830014494,0.106298038543068
0.572485942218896,0.102979735119317
0.571798261717748,0.0996571927510156
0.571081585541274,0.0963304853602147
0.570335710719697,0.0929996868689653
0.569560434283242,0.0896648711993185
0.568755553262131,0.086326112273325
0.567920864686588,0.0829834840130362
0.567056165586838,0.0796370603405027
0.566161252993103,0.0762869151777757
0.565235923935608,0.072933122446906
0.564279975444575,0.0695757560699448
0.56329320455023,0.0662148899689428
0.562275408282795,0.0628505980659513
0.561226383672494,0.0594829542830209
0.560145927749551,0.056112032542203
0.559033837544189,0.0527379067655481
0.557889910086633,0.0493606508751077
0.556713942407105,0.0459803387929323
0.55550573153583,0.0425970444410732
0.554265074503031,0.0392108417415812
0.552991768338932,0.0358218046165074
0.551685610073757,0.0324300069879026
0.550346396737728,0.029035522777818
0.54897392536107,0.0256384259083044
0.547567992974007,0.022238790301413
0.546128396606762,0.0188366898791944
0.54465493328956,0.0154321985637
0.543147400052622,0.0120253902769803
0.541605593926174,0.00861633894108684
0.540029311940438,0.00520511847807009
0.53841835112564,0.00179180280998142
0.536772508512001,-0.00162353414112849
0.535091581129746,-0.00504081845320846
0.533375366009099,-0.00845997620420771
0.531623660180284,-0.011880933472075
0.529836260673523,-0.0153036163347597
0.52801296451904,-0.0187279508702104
0.52615356874706,-0.0221538631563766
0.524257870387806,-0.0255812792712069
0.522325666471502,-0.0290101252926506
0.520356754028371,-0.0324403272986566
0.518350930088637,-0.035871811367174
0.516307991682523,-0.0393045035761517
0.514227735840254,-0.042738330003539
0.512109959592053,-0.0461732167272845
0.509954459968143,-0.0496090898253375
0.507761033998749,-0.053045875375647
0.505529478714093,-0.056483499456162
0.503259591144401,-0.0599218881448315
0.500951168319895,-0.0633609675196046
0.498604007270798,-0.0668006636584301
0.496217905027336,-0.0702409026392574
0.493792658619731,-0.0736816105400352
0.491328065078207,-0.0771227134387127
0.488823921432987,-0.0805641374132388
0.486280024714296,-0.0840058085415627
0.483696171952357,-0.0874476529016331
0.481072160177394,-0.0908895965713994
0.47840778641963,-0.0943315656288104
0.47570284770929,-0.0977734861518152
0.472957141076596,-0.101215284218363
0.470170463551772,-0.104656885906402
0.467342612165043,-0.108098217293882
0.464473383946631,-0.111539204458753
0.461562575926761,-0.114979773478961
0.458609985135656,-0.118419850432459
0.455615408603539,-0.121859361397192
0.452578643360635,-0.125298232451112
0.449499486437168,-0.128736389672167
0.44637773486336,-0.132173759138306
0.443213185669435,-0.135610266927478
0.440005635885618,-0.139045839117632
0.436754882542132,-0.142480401786717
0.4334607226692,-0.145913881012682
0.430122953297046,-0.149346202873476
0.426741371455894,-0.152777293447049
0.423315774175968,-0.156207078811348
0.41984595848749,-0.159635485044324
0.416331721420686,-0.163062438223925
0.412772860005778,-0.1664878644281
0.409169171272991,-0.169911689734799
0.405520452252547,-0.17333384022197
0.401826499974671,-0.176754241967562
0.398087111469586,-0.180172821049524
0.394302083767516,-0.183589503545806
0.390471213898684,-0.187004215534356
0.386594298893315,-0.190416883093124
0.382671135781632,-0.193827432300058
0.378701521593858,-0.197235789233108
0.374685253360217,-0.200641879970222
0.370622128110934,-0.204045630589349
0.366511942876231,-0.207446967168439
0.362354494686333,-0.210845815785441
0.358149580571462,-0.214242102518303
0.353896997561843,-0.217635753444975
0.349596542687699,-0.221026694643405
0.345248012979255,-0.224414852191543
0.340851205466732,-0.227800152167338
0.336405917180357,-0.231182520648738
0.331911945150351,-0.234561883713694
0.327369086406939,-0.237938167440152
0.322777137980344,-0.241311297906064
0.31813589690079,-0.244681201189377
0.313445160198501,-0.248047803368042
0.313445160198501,-0.248047803368042
0.308749934851397,-0.251374917318744
0.304095234298211,-0.25462665718517
0.299480865260383,-0.257803400945766
0.294906634459358,-0.260905526578981
0.290372348616576,-0.263933412063262
0.285877814453479,-0.266887435377056
0.28142283869151,-0.26976797449881
0.277007228052111,-0.272575407406972
0.272630789256724,-0.275310112079989
0.26829332902679,-0.277972466496308
0.263994654083752,-0.280562848634377
0.259734571149053,-0.283081636472643
0.255512886944133,-0.285529207989553
0.251329408190435,-0.287905941163555
0.247183941609401,-0.290212213973096
0.243076293922473,-0.292448404396623
0.239006271851093,-0.294614890412584
0.234973682116704,-0.296712049999427
0.230978331440747,-0.298740261135597
0.227020026544664,-0.300699901799544
0.223098574149897,-0.302591349969713
0.219213780977889,-0.304414983624553
0.215365453750081,-0.30617118074251
0.211553399187916,-0.307860319302033
0.207777424012835,-0.309482777281568
0.20403733494628,-0.311038932659563
0.200332938709695,-0.312529163414465
0.19666404202452,-0.313953847524721
0.193030451612197,-0.315313362968779
0.18943197419417,-0.316608087725086
0.185868416491879,-0.31783839977209
0.182339585226767,-0.319004677088237
0.178845287120276,-0.320107297651975
0.175385328893848,-0.321146639441752
0.171959517268925,-0.322123080436015
0.168567658966949,-0.323036998613211
0.165209560709362,-0.323888771951787
0.161885029217606,-0.324678778430191
0.158593871213123,-0.32540739602687
0.155335893417355,-0.326075002720272
0.152110902551745,-0.326681976488843
0.148918705337734,-0.327228695311032
0.145759108496765,-0.327715537165285
0.142631918750279,-0.32814288003005
0.139536942819718,-0.328511101883774
0.136473987426525,-0.328820580704904
0.133442859292141,-0.329071694471888
0.130443365138009,-0.329264821163174
0.127475311685571,-0.329400338757208
0.124538505656268,-0.329478625232437
0.121632753771543,-0.32950005856731
0.118757862752838,-0.329465016740274
0.115913639321595,-0.329373877729775
0.113099890199255,-0.329227019514261
0.110316422107262,-0.32902482007218
0.107563041767057,-0.328767657381979
0.104839555900081,-0.328455909422105
0.102145771227778,-0.328089954171006
0.0994814944715884,-0.327670169607128
0.0968465323529554,-0.32719693370892
0.0942406915933205,-0.326670624454828
0.0916637789141259,-0.3260916198233
0.0891156010368136,-0.325460297792783
0.0865959646828257,-0.324777036341724
0.0841046765736042,-0.324042213448572
0.0816415434305912,-0.323256207091773
0.0792063719752286,-0.322419395249774
0.0767989689289586,-0.321532155901023
0.0744191410132232,-0.320594867023968
0.0720666949494644,-0.319607906597055
0.0697414374591243,-0.318571652598732
0.067443175263645,-0.317486483007446
0.0651717150844685,-0.316352775801645
0.0629268636430368,-0.315170908959775
0.0607084276607919,-0.313941260460285
0.058516213859176,-0.312664208281622
0.0563500289596311,-0.311340130402232
0.0542096796835992,-0.309969404800564
0.0520949727525223,-0.308552409455064
0.0500057148878427,-0.30708952234418
0.0479417128110022,-0.305581121446359
0.0459027732434428,-0.304027584740049
0.0438887029066067,-0.302429290203697
0.041899308521936,-0.300786615815751
0.0399343968108725,-0.299099939554656
0.0379937744948585,-0.297369639398862
0.036077248295336,-0.295596093326815
0.0341846249337469,-0.293779679316963
0.0323157111315334,-0.291920775347753
0.0304703136101375,-0.290019759397632
0.0286482390910012,-0.288077009445047
0.0268492942955666,-0.286092903468447
0.0250732859452758,-0.284067819446278
0.0233200207615707,-0.282002135356987
0.0215893054658934,-0.279896229179023
0.0198809467796861,-0.277750478890831
0.0181947514243906,-0.275565262470861
0.0165305261214492,-0.273340957897558
0.0148880775923037,-0.271077943149371
0.0132672125583963,-0.268776596204746
0.011667737741169,-0.266437295042132
0.0100894598620639,-0.264060417639974
0.00853218564252299,-0.261646341976722
0.00699572180398833,-0.259195446030821
0.005479875067902,-0.25670810778072
0.003984452155706,-0.254184705204866
0.00250925978884237,-0.251625616281705
0.00105410468875323,-0.249031218989686
-0.000381206423119444,-0.246401891307255
-0.00179686682533356,-0.243738011212861
-0.00319306979644711,-0.24103995668495
-0.00457000861501802,-0.238308105701969
-0.00592787655960422,-0.235542836242367
-0.00726686690876375,-0.23274452628459
-0.00858717294105446,-0.229913553807086
-0.00988898793503434,-0.227050296788302
-0.0111725051692614,-0.224155133206685
-0.0124379179222935,-0.221228441040683
-0.0136854194726886,-0.218270598268742
-0.0149152030990047,-0.215281982869312
-0.0161274620797998,-0.212262972820838
-0.0173223896936317,-0.209213946101768
-0.0185001792190585,-0.206135280690549
-0.0196610239346381,-0.20302735456563
-0.0208051171189285,-0.199890545705456
-0.0219326520504875,-0.196725232088476
-0.0230438220078732,-0.193531791693136
-0.0241388202696435,-0.190310602497885
-0.0252178401143564,-0.187062042481169
-0.0262810748205698,-0.183786489621436
-0.0273287176668416,-0.180484321897133
-0.0283609619317299,-0.177155917286707
-0.0293780008937925,-0.173801653768606
-0.0303800278315875,-0.170421909321277
-0.0313672360236728,-0.167017061923168
-0.0323398187486062,-0.163587489552725
-0.0332979692849458,-0.160133570188397
-0.0342418809112496,-0.15665568180863
-0.0351717469060755,-0.153154202391872
-0.0360877605479814,-0.14962950991657
-0.0369901151155253,-0.146081982361171
-0.0378790038872651,-0.142511997704123
-0.0387546201417589,-0.138919933923873
-0.0396171571575645,-0.135306168998869
-0.0404668082132398,-0.131671080907558
-0.041303766587343,-0.128015047628387
-0.0421282255584318,-0.124338447139803
-0.0429403784050643,-0.120641657420254
-0.0437404184057985,-0.116925056448187
-0.0445285388391922,-0.11318902220205
-0.0453049329838033,-0.109433932660289
-0.04606979411819,-0.105660165801353
-0.0468233155209101,-0.101868099603688
-0.0475656904705216,-0.0980581120457423
-0.0482971122455824,-0.0942305811059624
-0.0490177741246505,-0.0903858847627962
-0.0497278693862838,-0.0865244009946908
-0.0504275913090403,-0.0826465077800935
-0.051117133171478,-0.0787525830974518
-0.0517966882521547,-0.074843004925213
-0.0524664498296285,-0.0709181512418244
-0.0531266111824572,-0.0669784000257332
-0.0537773655891989,-0.0630241292553869
-0.0544189063284116,-0.0590557169092329
-0.0550514266786531,-0.0550735409657184
-0.0556751199184813,-0.0510779794032908
-0.0562901793264544,-0.0470694102003974
-0.0568967981811302,-0.0430482113354855
-0.0574951697610666,-0.0390147607870026
-0.0580854873448216,-0.0349694365333958
-0.0586679442109532,-0.0309126165531126
-0.0592427336380194,-0.0268446788246004
-0.059810048904578,-0.0227660013263064
-0.060370083289187,-0.0186769620366779
-0.0609230300704044,-0.0145779389341623
-0.0614690825267882,-0.010469309997207
-0.0620084339368962,-0.00635145320425931
-0.0625412775792865,-0.0022247465337665
-0.063067806732517,0.00191043203582414
-0.0635882146751456,0.00605370452606502
-0.0641026946857303,0.010204692958509
-0.064611440042829,0.0143630193547088
-0.0651146440249998,0.018528305736217
-0.0656124999108005,0.0227001741245862
-0.0661052009787891,0.0268782465413691
-0.0665929405075236,0.0310621450081184
-0.0670759117755619,0.0352514915463868
-0.067554308061462,0.0394459081777269
-0.0680283226437817,0.0436450169236914
-0.0684981488010792,0.0478484398058329
-0.0689639798119122,0.0520557988457041
-0.0694260089548389,0.0562667160648577
-0.069884429508417,0.0604808134848463
-0.0703394347512047,0.0646977131272225
-0.0707912179617598,0.0689170370135393
-0.0712399724186402,0.0731384071653489
-0.0716858914004041,0.0773614456042043
-0.0721291681856092,0.081585774351658
-0.0725699960528135,0.0858110154292628
-0.073008568280575,0.0900367908585711
-0.0734450781474517,0.094262722661136
-0.0738797189320015,0.0984884328585096
-0.0743126839127824,0.102713543472245
-0.0747441663683522,0.106937676523895
-0.075174359577269,0.111160454035012
-0.0756034568180907,0.115381498027148
-0.0760316513693753,0.119600430521857
-0.0764591365096807,0.12381687354069
-0.0768861055175649,0.128030449105202
-0.0773127516715858,0.132240779236943
-0.0777392682503014,0.136447485957468
-0.0781658485322696,0.140650191288328
-0.0785926857960483,0.144848517251077
-0.0790199733201957,0.149042085867266
-0.0794479043832695,0.153230519158449
-0.0798766722638277,0.157413439146178
-0.0803064702404283,0.161590467852007
-0.0807374915916293,0.165761227297487
-0.0811699295959886,0.169925339504171
-0.0816039775320641,0.174082426493612
-0.0820398286784138,0.178232110287363
-0.0824776763135957,0.182374012906976
-0.0829177137161677,0.186507756374004
-0.0833601341646877,0.190632962709999
-0.0838051309377137,0.194749253936515
-0.0842528973138037,0.198856252075104
-0.0847036265715157,0.202953579147319
-0.0851575119894075,0.207040857174711
-0.0856147468460371,0.211117708178835
-0.0860755244199625,0.215183754181242
-0.0865400379897416,0.219238617203485
-0.0870084808339324,0.223281919267117
-0.0874810462310929,0.227313282393691
-0.0879579274597809,0.231332328604759
-0.0884393177985545,0.235338679921874
-0.0889254105259715,0.239331958366588
-0.08941639892059,0.243311785960455
-0.0899124762609679,0.247277784725026
-0.0904138358256631,0.251229576681856
-0.0909206708932337,0.255166783852495
-0.0914331747422375,0.259089028258497
-0.0919515406512325,0.262995931921415
-0.0924759618987767,0.266887116862801
-0.0930066317634279,0.270762205104207
-0.0935437435237443,0.274620818667188
-0.0940874904582836,0.278462579573294
-0.0946380658456039,0.28228710984408
-0.0951956629642632,0.286094031501096
-0.0957604750928193,0.289882966565898
-0.0963326955098302,0.293653537060035
-0.096912517493854,0.297405365005063
-0.0975001343234484,0.301138072422532
-0.0980957392771716,0.304851281333997
-0.0986995256335814,0.308544613761008
-0.0993116866712358,0.31221769172512
-0.0999324156686927,0.315870137247885
-0.10056190590451,0.319501572350856
-0.101200350657246,0.323111619055584
-0.101847943205458,0.326699899383623
-0.102504876827705,0.330266035356526
-0.103171344802544,0.333809648995845
-0.103847540408533,0.337330362323133
-0.10453365692423,0.340827797359942
-0.105229887628194,0.344301576127825
-0.105936425798982,0.347751320648335
-0.106653464715151,0.351176652943025
-0.107381197655261,0.354577195033447
-0.108119817897869,0.357952568941153
-0.108869518721532,0.361302396687697
-0.10963049340481,0.364626300294631
-0.110402935226259,0.367923901783508
-0.111187037464439,0.37119482317588
-0.111982993397905,0.3744386864933
-0.112790996305218,0.377655113757321
-0.113611239464934,0.380843726989496
-0.114443916155612,0.384004148211376
-0.11528921965581,0.387135999444516
-0.116147343244084,0.390238902710466
-0.117018480198995,0.393312480030781
-0.117902823799098,0.396356353427013
-0.118800567322954,0.399370144920714
-0.119711904049118,0.402353476533437
-0.12063702725615,0.405305970286735
-0.121576130222607,0.40822724820216
-0.122529406227047,0.411116932301265
-0.123497048548028,0.413974644605603
-0.124479250464108,0.416800007136726
-0.125476205253845,0.419592641916188
-0.126488106195798,0.42235217096554
-0.127515146568523,0.425078216306335
-0.128557519650579,0.427770399960127
-0.129615418720524,0.430428343948467
-0.130689037056916,0.433051670292909
-0.131778567938312,0.435640001015004
-0.132884204643271,0.438192958136306
-0.134006140450351,0.440710163678368
-0.135144568638109,0.443191239662742
-0.136299682485104,0.44563580811098
-0.137471675269894,0.448043491044636
-0.138660740271036,0.450413910485261
-0.139867070767088,0.45274668845441
-0.141090860036609,0.455041446973634
-0.142332301358156,0.457297808064485
-0.143591588010287,0.459515393748518
-0.14486891327156,0.461693826047283
-0.146164470420534,0.463832726982335
-0.147478452735766,0.465931718575225
-0.148811053495814,0.467990422847507
-0.150162465979236,0.470008461820733
-0.15153288346459,0.471985457516455
-0.152922499230433,0.473921031956227
-0.154331506555325,0.4758148071616
-0.155760098717823,0.477666405154129
-0.157208468996484,0.479475447955364
-0.158676810669867,0.481241557586859
-0.16016531701653,0.482964356070167
-0.161674181315031,0.484643465426841
-0.163203596843927,0.486278507678432
-0.164753756881776,0.487869104846494
-0.166324854707137,0.489414878952579
-0.167917083598568,0.49091545201824
-0.169530636834626,0.49237044606503
-0.171165707693869,0.493779483114501
-0.172822489454856,0.495142185188206
-0.174501175396144,0.496458174307698
-0.176201958796291,0.497727072494528
-0.177925032933856,0.498948501770251
-0.179670591087395,0.500122084156418
-0.181438826535468,0.501247441674583
-0.183229932556631,0.502324196346297
-0.185044102429444,0.503351970193114
-0.186881529432464,0.504330385236587
-0.188742406844248,0.505259063498267
-0.190626927943355,0.506137626999708
-0.192535286008344,0.506965697762461
-0.19446767431777,0.507742897808081
-0.196424286150194,0.50846884915812
-0.198405314784172,0.509143173834129
-0.200410953498263,0.509765493857663
-0.202441395571024,0.510335431250273
-0.204496834281014,0.510852608033512
-0.206577462906791,0.511316646228933
-0.208683474726912,0.511727167858089
-0.210815063019935,0.512083794942531
-0.212972421064418,0.512386149503814
-0.21515574213892,0.512633853563489
-0.217365219521998,0.51282652914311
-0.21960104649221,0.512963798264228
-0.221863416328115,0.513045282948397
-0.224152522308269,0.513070605217169
-0.226468557711232,0.513039387092096
-0.22881171581556,0.512951250594733
-0.231182189899813,0.51280581774663
-0.233580173242547,0.512602710569341
-0.236005859122321,0.512341551084419
-0.238459440817693,0.512021961313416
-0.240941111607221,0.511643563277885
-0.243451064769462,0.511205978999378
-0.245989493582975,0.510708830499448
-0.248556591326318,0.510151739799649
-0.251152551278048,0.509534328921531
-0.253777566716724,0.508856219886649
-0.256431830920904,0.508117034716555
-0.259115537169144,0.507316395432801
-0.261828878740004,0.50645392405694
-0.264572048912042,0.505529242610525
-0.267345240963814,0.504541973115108
-0.27014864817388,0.503491737592243
-0.272982463820798,0.502378158063481
-0.275846881183124,0.501200856550376
-0.278742093539417,0.49995945507448
-0.281668294168236,0.498653575657346
-0.284625676348137,0.497282840320526
-0.287614433357679,0.495846871085573
-0.290634758475421,0.49434528997404
-0.293686844979919,0.492777719007479
-0.296770886149732,0.491143780207444
-0.299887075263418,0.489443095595486
-0.303035605599534,0.487675287193158
-0.306216670436639,0.485839977022014
-0.309430463053291,0.483936787103605
-0.312677176728047,0.481965339459485
-0.315957004739466,0.479925256111206
-0.319270140366105,0.477816159080321
-0.322616776886523,0.475637670388382
-0.325997107579277,0.473389412056942
-0.329411325722926,0.471071006107554
-0.332859624596026,0.46868207456177
-0.336342197477137,0.466222239441143
-0.339859237644816,0.463691122767226
-0.343410938377622,0.461088346561571
-0.346997492954111,0.458413532845732
-0.350619094652843,0.45566630364126
-0.354275936752374,0.452846280969708
-0.357968212531264,0.44995308685263
-0.361696115268069,0.446986343311577
-0.365459838241348,0.443945672368102
-0.369259574729659,0.440830696043759
-0.37309551801156,0.437641036360099
