-0.112367759323571,-0.228527124533353
-0.112776298409254,-0.222528731279803
-0.113182326816068,-0.216594573164673
-0.113585911780378,-0.210724359984447
-0.113987120538552,-0.204917801535607
-0.114386020326957,-0.199174607614635
-0.114782678381958,-0.193494488018015
-0.115177161939923,-0.18787715254223
-0.115569538237218,-0.182322310983761
-0.11595987451021,-0.176829673139092
-0.116348237995265,-0.171398948804706
-0.116734695928751,-0.166029847777084
-0.117119315547034,-0.160722079852711
-0.11750216408648,-0.155475354828069
-0.117883308783457,-0.150289382499639
-0.11826281687433,-0.145163872663906
-0.118640755595467,-0.140098535117352
-0.119017192183234,-0.13509307965646
-0.119392193873998,-0.130147216077712
-0.119765827904126,-0.125260654177591
-0.120138161509984,-0.12043310375258
-0.120509261927939,-0.115664274599162
-0.120879196394358,-0.110953876513818
-0.121248032145606,-0.106301619293033
-0.121615836418052,-0.101707212733289
-0.121982676448061,-0.0971703666310686
-0.122348619472001,-0.0926907907828542
-0.122713732726237,-0.0882681949851289
-0.123078083447137,-0.0839022890343753
-0.123441738871067,-0.0795927827270763
-0.123804766234394,-0.0753393858597145
-0.124167232773485,-0.0711418082287727
-0.124529205724706,-0.0669997596307336
-0.124890752324423,-0.06291294986208
-0.125251939809005,-0.0588810887192946
-0.125612835414816,-0.0549038859988601
-0.125973506378225,-0.0509810514972593
-0.126334019935597,-0.0471122950109749
-0.126694443323299,-0.0432973263364897
-0.127054843777698,-0.0395358552702863
-0.127415288535161,-0.0358275916088476
-0.127775844832054,-0.0321722451486562
-0.128136579904743,-0.028569525686195
-0.128497560989597,-0.0250191430179466
-0.12885885532298,-0.0215208069403938
-0.129220530141261,-0.0180742272500193
-0.129582652680805,-0.0146791137433059
-0.129945290177979,-0.0113351762167362
-0.13030850986915,-0.00804212446679314
-0.130672378990685,-0.0047996682899593
-0.13103696477895,-0.00160751748271745
-0.131402334470312,0.0015346181584496
-0.131768555301137,0.00462702883705918
-0.132135694507793,0.00767000475662852
-0.132503819326645,0.0106638361206749
-0.132872996994061,0.0136088131327156
-0.133243294746407,0.0165052259962678
-0.13361477982005,0.0193533649148489
-0.133987519451357,0.022153520091976
-0.134361580876694,0.0249059817311665
-0.134737031332427,0.0276110400359376
-0.135113938054925,0.0302689852098065
-0.135492368280552,0.0328801074562906
-0.135872389245676,0.035444696978907
-0.136254068186664,0.0379630439811732
-0.136637472339882,0.0404354386666062
-0.137022668941697,0.0428621712387234
-0.137409725228476,0.045243531901042
-0.137798708436585,0.0475798108570793
-0.13818968580239,0.0498712983103527
-0.138582724562259,0.0521182844643792
-0.138977891952559,0.0543210595226762
-0.139375255209655,0.0564799136887609
-0.139774881569915,0.0585951371661507
-0.140176838269704,0.0606670201583627
-0.140581192545391,0.0626958528689143
-0.140988011633342,0.0646819255013226
-0.141397362769922,0.066625528259105
-0.141809313191499,0.0685269513457787
-0.14222393013444,0.070386484964861
-0.142641280835111,0.0722044193198691
-0.143061432529879,0.0739810446143203
-0.143484452455111,0.0757166510517319
-0.143910407847172,0.0774115288356211
-0.144339365942431,0.0790659681695052
-0.144771393977253,0.0806802592569015
-0.145206559188005,0.0822546923013271
-0.145644928811054,0.0837895575062994
-0.146086570082767,0.0852851450753357
-0.14653155023951,0.0867417452119531
-0.14697993651765,0.088159648119669
-0.147431796153553,0.0895391440020006
-0.147887196383586,0.0908805230624652
-0.148346204444116,0.0921840755045801
-0.14880888757151,0.0934500915318624
-0.149275313002134,0.0946788613478295
-0.149745547972355,0.0958706751559986
-0.150219659718539,0.0970258231598871
-0.150697715477054,0.0981445955630121
-0.151179782484265,0.0992272825688908
-0.15166592797654,0.100274174381041
-0.152156219190245,0.101285561202979
-0.152650723361747,0.102261733238223
-0.153149507727412,0.103202980690289
-0.153652639523607,0.104109593762696
-0.1541601859867,0.10498186265896
-0.154672214353056,0.105820077582599
-0.155188791859042,0.10662452873713
-0.155709985741025,0.107395506326069
-0.156235863235371,0.108133300552936
-0.156766491578448,0.108838201621246
-0.157301938006621,0.109510499734517
-0.157842269756258,0.110150485096266
-0.158387554063725,0.11075844791001
-0.158937858165389,0.111334678379268
-0.159493249297616,0.111879466707555
-0.160053794696774,0.11239310309839
-0.160619561599229,0.112875877755289
-0.161190617241346,0.11332808088177
-0.161767028859495,0.11375000268135
-0.162348863690039,0.114141933357546
-0.162936188969348,0.114504163113876
-0.163529071933786,0.114836982153856
-0.164127579819722,0.115140680681005
-0.164731779863521,0.115415548898839
-0.16534173930155,0.115661877010876
-0.165957525370176,0.115879955220632
-0.166579205305765,0.116070073731626
-0.167206846344685,0.116232522747374
-0.167840515723301,0.116367592471394
-0.168480280677981,0.116475573107203
-0.169126208445091,0.116556754858318
-0.169778366260998,0.116611427928256
-0.170436821362068,0.116639882520535
-0.171101640984668,0.116642408838672
-0.171772892365166,0.116619297086184
-0.172450642739926,0.116570837466589
-0.173134959345317,0.116497320183404
-0.173825909417705,0.116399035440145
-0.174523560193456,0.116276273440331
-0.175227978908938,0.116129324387478
-0.175939232800516,0.115958478485104
-0.176657389104557,0.115764025936727
-0.177382515057429,0.115546256945862
-0.178114677895498,0.115305461716028
-0.17885394485513,0.115041930450742
-0.179600383172692,0.114755953353521
-0.180354060084551,0.114447820627883
-0.181115042827074,0.114117822477344
-0.181883398636626,0.113766249105422
-0.182659194749576,0.113393390715634
-0.183442498402289,0.112999537511497
-0.184233376831132,0.11258497969653
-0.185031897272472,0.112150007474248
-0.185838126962675,0.111694911048169
-0.186652133138109,0.111219980621811
-0.187473983035139,0.110725506398691
-0.188303743890133,0.110211778582325
-0.189141482939456,0.109679087376232
-0.189987267419477,0.109127722983928
-0.190841164566561,0.108557975608931
-0.191703241617076,0.107970135454759
-0.192573565807387,0.107364492724927
-0.193452204373861,0.106741337622954
-0.194339224552866,0.106100960352357
-0.195234693580767,0.105443651116653
-0.196138678693932,0.104769700119359
-0.197051247128727,0.104079397563993
-0.197972466121519,0.103373033654072
-0.198902402908675,0.102650898593112
-0.19984112472656,0.101913282584633
-0.200788698811542,0.101160475832149
-0.201745192399988,0.10039276853918
-0.202710672728264,0.0996104509092423
-0.203685207032736,0.0988138131458527
-0.204668862549772,0.0980031454525288
-0.205661706515738,0.0971787380327879
-0.206663806167001,0.0963408810901472
-0.207675228739928,0.095489864828124
-0.208696041470884,0.0946259794502355
-0.209726311596238,0.0937495151599991
-0.210766106352354,0.0928607621609319
-0.211815492975601,0.0919600106565512
-0.212874538702345,0.0910475508503744
-0.213943310768952,0.0901236729459186
-0.215021876411789,0.0891886671467011
-0.216110302867223,0.0882428236562392
-0.21720865737162,0.0872864326780501
-0.218317007161348,0.0863197844156512
-0.219435419472772,0.0853431690725596
-0.22056396154226,0.0843568768522926
-0.221702700606178,0.0833611979583675
-0.222851703900892,0.0823564225943016
-0.224011038662771,0.0813428409636121
-0.225180772128179,0.0803207432698162
-0.226360971533484,0.0792904197164312
-0.227551704115052,0.0782521605069745
-0.228753037109251,0.0772062558449633
-0.229965037752446,0.0761529959339147
-0.231187773281004,0.0750926709773461
-0.232421310931293,0.0740255711787748
-0.233665717939679,0.0729519867417179
-0.234921061542528,0.0718722078696929
-0.236187408976207,0.0707865247662169
-0.237464827477083,0.0696952276348071
-0.238753384281522,0.0685986066789809
-0.240053146625891,0.0674969521022556
-0.241364181746558,0.0663905541081482
-0.242686556879887,0.0652797029001763
-0.244020339262247,0.0641646886818569
-0.245365596130003,0.0630458016567074
-0.246722394719523,0.061923332028245
-0.248090802267173,0.060797569999987
-0.24947088600932,0.0596688057754506
-0.25086271318233,0.0585373295581532
-0.25226635102257,0.0574034315516119
-0.253681866766407,0.0562674019593441
-0.255109327650207,0.0551295309848669
-0.256548800910338,0.0539901088316977
-0.258000353783165,0.0528494257033537
-0.259464053505056,0.0517077718033522
-0.260939967312376,0.0505654373352103
-0.262428162441494,0.0494227125024456
-0.263928706128775,0.048279887508575
-0.265441665610586,0.0471372525571161
-0.266967108123293,0.0459950978515858
-0.268505100903265,0.0448537135955017
-0.270055711186866,0.0437133899923808
-0.271619006210464,0.0425744172457405
-0.273195053210425,0.0414370855590981
-0.274783919423117,0.0403016851359707
-0.276385672084905,0.0391685061798757
-0.278000378432156,0.0380378388943303
-0.279628105701238,0.0369099734828518
-0.281268921128516,0.0357852001489574
-0.282922891950358,0.0346638090961644
-0.28459008540313,0.0335460905279901
-0.286270568723199,0.0324323346479517
-0.287964409146931,0.0313228316595666
-0.289671673910693,0.0302178717663518
-0.291392430250852,0.0291177451718248
-0.293126745403774,0.0280227420795027
-0.294874686605826,0.0269331526929029
-0.296636321093375,0.0258492672155425
-0.298411716102788,0.024771375850939
-0.30020093887043,0.0236997688026094
-0.302004056632669,0.0226347362740711
-0.303821136625872,0.0215765684688414
-0.305652246086405,0.0205255555904375
-0.307497452250634,0.0194819878423766
-0.309356822354927,0.0184461554281761
-0.31123042363565,0.0174183485513531
-0.31311832332917,0.016398857415425
-0.315020588671853,0.015387972223909
-0.316937286900066,0.0143859831803224
-0.318868485250175,0.0133931804881824
-0.320814250958549,0.0124098543510064
-0.322774651261552,0.0114362949723114
-0.324749753395552,0.010472792555615
-0.326739624596915,0.00951963730443412
-0.328744332102008,0.00857711942228626
-0.330763943147199,0.00764552911268858
-0.332798524968852,0.00672515657915841
-0.334848144803336,0.00581629202521292
-0.336912869887016,0.00491922565436947
-0.33899276745626,0.00403424767014524
-0.341087904747433,0.00316164827605753
-0.343198348996904,0.00230171767562359
-0.345324167441037,0.00145474607236072
-0.347465427316201,0.000621023669786093
-0.349622195858762,-0.000199159328582922
-0.351794540305086,-0.00100551271922913
-0.35398252789154,-0.00179774629863524
-0.35618622585449,-0.00257556986328402
-0.358405701430304,-0.00333869320965818
-0.360641021855349,-0.0040868261342405
-0.362892254365989,-0.00481967843351366
-0.365159466198594,-0.00553695990396044
-0.367442724589528,-0.00623838034206354
-0.369742096775159,-0.00692364954430576
-0.372057649991853,-0.00759247730716976
-0.374389451475977,-0.00824457342713835
-0.376737568463898,-0.00887964770069422
-0.379102068191983,-0.00949740992432015
-0.381483017896597,-0.0100975698944988
-0.383880484814108,-0.0106798374077131
-0.386294536180883,-0.0112439222604455
-0.388725239233288,-0.0117895342491789
-0.391172661207689,-0.0123163831703961
-0.393636869340453,-0.0128241788205798
-0.396117930867948,-0.0133126309962126
-0.398615913026539,-0.0137814494937774
-0.401130883052594,-0.0142303441097569
-0.403662908182479,-0.0146590246406337
-0.40621205565256,-0.0150672008828908
-0.408778392699205,-0.0154545826330107
-0.41136198655878,-0.0158208796874763
-0.413962904467651,-0.0161658018427703
-0.416581213662186,-0.0164890588953753
-0.419216981378751,-0.0167903606417742
-0.421870274853712,-0.0170694168784497
-0.424541161323437,-0.0173259374018845
-0.427229708024292,-0.0175596320085614
-0.429935982192644,-0.0177702104949631
-0.432660051064859,-0.0179573826575723
-0.435401981877304,-0.0181208582928718
-0.438161841866345,-0.0182603471973444
-0.44093969826835,-0.0183755591674726
-0.443735618319686,-0.0184662039997394
-0.446549669256717,-0.0185319914906274
-0.449381918315812,-0.0185726314366194
-0.452232432733337,-0.0185878336341981
-0.455101279745659,-0.0185773078798462
-0.457988526589144,-0.0185407639700465
-0.460894240500159,-0.0184779117012818
-0.463818488715071,-0.0183884608700347
-0.466761338470246,-0.018272121272788
-0.469722857002051,-0.0181286027060244
-0.472703111546853,-0.0179576149662268
-0.475702169341018,-0.0177588678498777
-0.478720097620914,-0.01753207115346
-0.481756963622905,-0.0172769346734563
-0.48481283458336,-0.0169931682063496
-0.487887777738646,-0.0166804815486223
-0.490981860325128,-0.0163385844967574
-0.494095149579173,-0.0159671868472375
-0.497227712737148,-0.0155659983965455
-0.50037961703542,-0.0151347289411639
-0.503550929710355,-0.0146730882775756
-0.50674171799832,-0.0141807862022633
-0.509952049135682,-0.0136575325117097
-0.513181990358807,-0.0131030370023976
-0.516431608904062,-0.0125170094708097
-0.519700972007814,-0.0118991597134288
-0.522990146906429,-0.0112491975267376
-0.526299200836275,-0.0105668327072187
-0.529628201033716,-0.0098517750513551
-0.532977214735122,-0.00910373435562933
-0.536346309176857,-0.00832242041652424
-0.539735551595289,-0.0075075430305225
-0.543145009226784,-0.00665881199410693
-0.546574749307709,-0.00577593710376016
-0.55002483907443,-0.00485862815596504
-0.553495345763316,-0.00390659494720421
-0.556986336610731,-0.00291954727396049
-0.560497878853042,-0.00189719493271653
-0.564030039726617,-0.000839247719955166
-0.567582886467823,0.000254584567840936
-0.571156486313024,0.00138459213418899
-0.574750906498589,0.0025510651826063
-0.578366214260884,0.00375429391661008
-0.582002476836276,0.00499456853971768
-0.585659761461131,0.00627217925544622
-0.589338135371816,0.00758741626731312
-0.593037665804697,0.00894056977883549
-0.596758419996142,0.0103319299935307
-0.600500465182517,0.011761787114916
-0.604263868600189,0.0132304313465086
-0.608048697485523,0.0147381528918258
-0.611855019074888,0.0162852419543849
-0.61568290060465,0.017871988737703
-0.619532409311174,0.0194986834452976
-0.623403612430829,0.0211656162806858
-0.627296577199981,0.0228730774473849
-0.631211370854995,0.0246213571489121
-0.63514806063224,0.0264107455887848
-0.639106713768081,0.0282415329705201
-0.643087397498886,0.0301140094976354
-0.64709017906102,0.0320284653736479
-0.651115125690852,0.0339851908020749
-0.655162304624746,0.0359844759864336
-0.65923178309907,0.0380266111302414
-0.663323628350191,0.0401118864370153
-0.667437907614476,0.0422405921102728
-0.67157468812829,0.044413018353531
-0.675734037128001,0.0466294553703073
-0.679916021849975,0.0488901933641189
-0.68412070953058,0.0511955225384831
-0.68834816740618,0.053545733096917
-0.692598462713145,0.0559411152429381
-0.696871662687839,0.0583819591800635
-0.701167834566629,0.0608685551118106
-0.705487045585883,0.0634011932416964
-0.709829362981967,0.0659801637732385
-0.714194853991248,0.0686057569099539
-0.718583585850092,0.07127826285536
-0.722995625794866,0.073997971812974
-0.727431041061936,0.0767651739863132
-0.73188989888767,0.0795801595788948
-0.736372266508434,0.0824432187942362
-0.740878211160594,0.0853546418358544
-0.745407800080518,0.088314718907267
-0.749961100504571,0.091323740211991
-0.754538179669122,0.0943819959535438
-0.759139104810535,0.0974897763354425
-0.763763943165178,0.100647371561205
-0.768412761969418,0.103855071834347
-0.773085628459621,0.107113167358388
-0.777782609872155,0.110421948336843
-0.782503773443385,0.113781704973231
-0.782503773443385,0.113781704973231
-0.787196629728593,0.117133645219535
-0.791808915687026,0.120418985468828
-0.796341038160995,0.123638028586258
-0.800793403992814,0.126791077436971
-0.805166420024795,0.129878434886115
-0.80946049309925,0.132900403798839
-0.813676030058493,0.135857287040289
-0.817813437744835,0.138749387475615
-0.821873123000588,0.141577007969962
-0.825855492668067,0.14434045138848
-0.829760953589582,0.147040020596315
-0.833589912607448,0.149676018458616
-0.837342776563975,0.152248747840529
-0.841019952301477,0.154758511607204
-0.844621846662266,0.157205612623787
-0.848148866488655,0.159590353755427
-0.851601418622957,0.16191303786727
-0.854979909907483,0.164173967824465
-0.858284747184547,0.166373446492159
-0.86151633729646,0.168511776735501
-0.864675087085536,0.170589261419637
-0.867761403394087,0.172606203409715
-0.870775693064425,0.174562905570884
-0.873718362938864,0.176459670768291
-0.876589819859715,0.178296801867083
-0.879390470669291,0.180074601732408
-0.882120722209904,0.181793373229414
-0.884780981323868,0.18345341922325
-0.887371654853495,0.185055042579061
-0.889893149641096,0.186598546161997
-0.892345872528985,0.188084232837204
-0.894730230359475,0.189512405469831
-0.897046629974878,0.190883366925024
-0.899295478217505,0.192197420067933
-0.901477181929671,0.193454867763705
-0.903592147953687,0.194656012877486
-0.905640783131866,0.195801158274426
-0.90762349430652,0.196890606819671
-0.909540688319963,0.19792466137837
-0.911392772014506,0.19890362481567
-0.913180152232462,0.199827799996719
-0.914903235816143,0.200697489786664
-0.916562429607863,0.201512997050653
-0.918158140449933,0.202274624653834
-0.919690775184667,0.202982675461355
-0.921160740654376,0.203637452338364
-0.922568443701374,0.204239258150007
-0.923914291167972,0.204788395761433
-0.925198689896484,0.205285168037789
-0.926422046729221,0.205729877844224
-0.927584768508497,0.206122828045884
-0.928687262076623,0.206464321507918
-0.929729934275914,0.206754661095473
-0.930713191948679,0.206994149673697
-0.931637441937234,0.207183090107738
-0.93250309108389,0.207321785262743
-0.933310546230959,0.20741053800386
-0.934060214220754,0.207449651196236
-0.934752501895588,0.207439427705021
-0.935387816097773,0.20738017039536
-0.935966563669622,0.207272182132402
-0.936489151453446,0.207115765781295
-0.93695598629156,0.206911224207186
-0.937367475026275,0.206658860275223
-0.937724024499904,0.206358976850554
-0.938026041554759,0.206011876798326
-0.938273933033152,0.205617862983687
-0.938468105777398,0.205177238271785
-0.938608966629807,0.204690305527767
-0.938696922432693,0.204157367616782
-0.938732380028367,0.203578727403976
-0.938715746259144,0.202954687754498
-0.938647427967334,0.202285551533496
-0.938527831995251,0.201571621606116
-0.938357365185207,0.200813200837507
-0.938136434379515,0.200010592092816
-0.937865446420487,0.199164098237192
-0.937544808150435,0.198274022135781
-0.937174926411673,0.197340666653732
-0.936756208046512,0.196364334656192
-0.936289059897267,0.195345329008309
-0.935773888806247,0.19428395257523
-0.935211101615767,0.193180508222104
-0.934601105168139,0.192035298814078
-0.933944306305676,0.190848627216299
-0.933241111870689,0.189620796293916
-0.932491928705492,0.188352108912076
-0.931697163652397,0.187042867935927
-0.930857223553716,0.185693376230617
-0.929972515251763,0.184303936661292
-0.929043445588849,0.182874852093102
-0.928070421407287,0.181406425391193
-0.927053849549391,0.179898959420714
-0.925994136857471,0.178352757046811
-0.924891690173841,0.176768121134634
-0.923746916340813,0.175145354549329
-0.9225602222007,0.173484760156044
-0.921332014595815,0.171786640819926
-0.920062700368469,0.170051299406125
-0.918752686360976,0.168279038779786
-0.917402379415648,0.166470161806059
-0.916012186374797,0.16462497135009
-0.914582514080736,0.162743770277028
-0.913113769375777,0.160826861452019
-0.911606359102234,0.158874547740213
-0.910060690102418,0.156887132006756
-0.908477169218643,0.154864917116796
-0.90685620329322,0.152808205935481
-0.905198199168462,0.150717301327958
-0.903503563686682,0.148592506159376
-0.901772703690192,0.146434123294882
-0.900006026021306,0.144242455599623
-0.898203937522334,0.142017805938748
-0.89636684503559,0.139760477177404
-0.894495155403387,0.137470772180739
-0.892589275468036,0.1351489938139
-0.890649612071851,0.132795444942036
-0.888676572057144,0.130410428430293
-0.886670562266228,0.12799424714382
-0.884631989541414,0.125547203947765
-0.882561260725016,0.123069601707274
-0.880458782659346,0.120561743287496
-0.878324962186717,0.118023931553578
-0.876160206149441,0.115456469370669
-0.873964921389831,0.112859659603915
-0.871739514750198,0.110233805118465
-0.869484393072857,0.107579208779466
-0.867199963200119,0.104896173452066
-0.864886631974296,0.102185002001413
-0.862544806237702,0.0994459972926542
-0.860174892832649,0.0966794621909373
-0.85777729860145,0.0938856995614101
-0.855352430386416,0.0910650122692204
-0.852900695029861,0.0882177031795158
-0.850422499374096,0.085344075157444
-0.847918250261436,0.0824444310681529
-0.845388354534191,0.0795190737767899
-0.842833219034675,0.0765683061485029
-0.8402532506052,0.0735924310484396
-0.837648856088079,0.0705917513417477
-0.835020442325624,0.0675665698935748
-0.832368416160147,0.0645171895690686
-0.829693184433962,0.0614439132333769
-0.826995153989381,0.0583470437516475
-0.824274731668716,0.0552268839890279
-0.82153232431428,0.0520837368106658
-0.818768338768385,0.048917905081709
-0.815983181873344,0.0457296916673053
-0.81317726047147,0.0425193994326023
-0.810350981405074,0.0392873312427475
-0.80750475151647,0.0360337899628889
-0.804638977647971,0.0327590784581741
-0.801754066641887,0.0294634995937508
-0.798850425340533,0.0261473562347667
-0.79592846058622,0.0228109512463694
-0.792988579221262,0.0194545874937068
-0.79003118808797,0.0160785678419265
-0.787056694028658,0.0126831951561763
-0.784065503885637,0.00926877230160364
-0.781058024501221,0.00583560214335647
-0.778034662717721,0.00238398754658248
-0.774995825377451,-0.00108576862357079
-0.771941919322722,-0.00457336350195553
-0.768873351395849,-0.00807849422342398
-0.765790528439142,-0.0116008579228286
-0.762693857294914,-0.0151401517350215
-0.759583744805479,-0.0186960727948551
-0.756460597813148,-0.0222683182371816
-0.753324823160234,-0.0258565851968534
-0.750176827689049,-0.0294605708087229
-0.747017018241907,-0.0330799722076421
-0.74384580166112,-0.0367144865284635
-0.740663584789,-0.0403638109060393
-0.737470774467859,-0.0440276424752219
-0.73426777754001,-0.0477056783708636
-0.731055000847767,-0.0513976157278165
-0.727832851233441,-0.0551031516809331
-0.724601735539345,-0.0588219833650657
-0.721362060607791,-0.0625538079150665
-0.718114233281091,-0.0662983224657879
-0.71485866040156,-0.070055224152082
-0.711595748811509,-0.0738242101088013
-0.708325905353249,-0.077604977470798
-0.705049536869095,-0.0813972233729244
-0.701767050201359,-0.0852006449500329
-0.698478852192353,-0.0890149393369757
-0.695185349684389,-0.0928398036686051
-0.69188694951978,-0.0966749350797733
-0.68858405854084,-0.100520030705333
-0.685277083589879,-0.104374787680136
-0.681966431509211,-0.108238903139035
-0.678652509141148,-0.112112074216882
-0.675335723328004,-0.115993998048529
-0.672016480912089,-0.119884371768829
-0.668695188735718,-0.123782892512634
-0.665372253641202,-0.127689257414796
-0.662048082470854,-0.131603163610168
-0.658723082066986,-0.135524308233602
-0.655397659271911,-0.13945238841995
-0.652072220927942,-0.143387101304064
-0.648747173877391,-0.147328144020798
-0.645422924962571,-0.151275213705002
-0.642099881025794,-0.15522800749153
-0.638778448909372,-0.159186222515233
-0.635459035455619,-0.163149555910964
-0.632142047506846,-0.167117704813576
-0.628827891905367,-0.17109036635792
-0.625516975493493,-0.175067237678849
-0.622209705113538,-0.179048015911215
-0.618906487607814,-0.183032398189871
-0.615607729818633,-0.187020081649668
-0.612313838588308,-0.191010763425459
-0.609025220759151,-0.195004140652097
-0.605742283173476,-0.198999910464433
-0.602465432673593,-0.202997769997321
-0.599195076101817,-0.206997416385611
-0.59593162030046,-0.210998546764157
-0.592675472111834,-0.215000858267811
-0.589427038378251,-0.219004048031425
-0.586186725942024,-0.223007813189852
-0.582954941645466,-0.227011850877943
-0.57973209233089,-0.231015858230551
-0.576518584840607,-0.235019532382529
-0.573314826016931,-0.239022570468728
-0.570121222702173,-0.243024669624001
-0.566938181738647,-0.2470255269832
-0.563766109968664,-0.251024839681178
-0.560605414234538,-0.255022304852787
-0.557456501378581,-0.259017619632879
-0.554319778243106,-0.263010481156306
-0.551195651670424,-0.267000586557921
-0.548084528502849,-0.270987632972575
-0.544986815582693,-0.274971317535123
-0.541902919752269,-0.278951337380414
-0.538833247853889,-0.282927389643303
-0.535778206729865,-0.286899171458641
-0.532738203222511,-0.29086637996128
-0.529713644174138,-0.294828712286073
-0.52670493642706,-0.298785865567872
-0.523712486823589,-0.30273753694153
-0.520736702206037,-0.306683423541898
-0.517777989416716,-0.310623222503829
-0.51483675529794,-0.314556630962175
-0.511913406692022,-0.318483346051789
-0.509008350441272,-0.322403064907523
-0.506121993388005,-0.326315484664229
-0.503254742374531,-0.33022030245676
-0.500407004243166,-0.334117215419967
-0.497579185836219,-0.338005920688703
-0.494771693996005,-0.341886115397821
-0.491984935564836,-0.345757496682172
-0.489219317385023,-0.349619761676609
-0.486475246298881,-0.353472607515985
-0.48375312914872,-0.357315731335151
-0.481053372776855,-0.361148830268959
-0.478376384025596,-0.364971601452263
-0.475722569737258,-0.368783742019915
-0.473092336754152,-0.372584949106766
-0.47048609191859,-0.376374919847669
-0.467904242072887,-0.380153351377476
-0.465347194059353,-0.38391994083104
-0.462815354720301,-0.387674385343213
-0.460309130898045,-0.391416382048848
-0.457828929434896,-0.395145628082795
-0.455375157173168,-0.398861820579909
-0.452948220955172,-0.402564656675041
-0.450548527623221,-0.406253833503043
-0.448176484019627,-0.409929048198767
-0.445832496986704,-0.413589997897067
-0.443516973366764,-0.417236379732794
-0.441230320002119,-0.420867890840801
-0.438972943735082,-0.424484228355939
-0.436745251407965,-0.428085089413062
-0.434547649863081,-0.431670171147021
-0.432380545942743,-0.435239170692669
-0.430244346489262,-0.438791785184858
-0.428139458344952,-0.442327711758441
-0.426066288352125,-0.445846647548269
-0.424025243353093,-0.449348289689195
-0.422016730190169,-0.452832335316071
-0.420041155705666,-0.45629848156375
-0.418098926741896,-0.459746425567084
-0.416190450141172,-0.463175864460925
-0.414316132745806,-0.466586495380125
-0.412476381398111,-0.469978015459537
-0.410671602940399,-0.473350121834013
-0.408902204214983,-0.476702511638406
-0.407168592064175,-0.480034882007567
-0.405471173330287,-0.483346930076349
-0.403810354855634,-0.486638352979605
-0.402186543482526,-0.489908847852186
-0.400600146053276,-0.493158111828945
-0.399051569410198,-0.496385842044734
-0.397541220395603,-0.499591735634405
-0.396069505851804,-0.502775489732811
-0.394636832621114,-0.505936801474804
-0.393243607545844,-0.509075367995237
-0.391890237468309,-0.512190886428961
-0.390577129230819,-0.515283053910829
-0.389304689675688,-0.518351567575693
-0.388073325645229,-0.521396124558406
-0.386883443981753,-0.524416421993819
-0.385735451527573,-0.527412157016786
-0.384629755125003,-0.530383026762158
-0.383566761616353,-0.533328728364788
-0.382546877843938,-0.536248958959527
-0.381570510650068,-0.539143415681229
-0.380638066877058,-0.542011795664746
-0.379749953367219,-0.54485379604493
-0.378906576962865,-0.547669113956632
-0.378108344506307,-0.550457446534707
-0.377355662839857,-0.553218490914005
-0.37664893880583,-0.555951944229379
-0.375988579246537,-0.558657503615681
-0.37537499100429,-0.561334866207764
-0.374808580921402,-0.56398372914048
-0.374289755840186,-0.566603789548682
-0.373818922602955,-0.569194744567221
-0.37339648805202,-0.57175629133095
-0.373022859029694,-0.574288126974721
-0.372698442378291,-0.576789948633386
-0.372423644940122,-0.579261453441798
-0.372198873557499,-0.58170233853481
-0.372024535072736,-0.584112301047272
-0.371901036328145,-0.586491038114039
-0.371828784166039,-0.588838246869961
-0.371808185428729,-0.591153624449891
-0.37183964695853,-0.593436867988682
-0.371923575597752,-0.595687674621186
-0.372060378188709,-0.597905741482255
-0.372250461573713,-0.600090765706742
-0.372494232595077,-0.602242444429498
-0.372792098095113,-0.604360474785376
-0.373144464916133,-0.606444553909229
-0.373551739900451,-0.608494378935908
-0.374014329890379,-0.610509647000266
-0.374532641728229,-0.612490055237155
-0.375107082256314,-0.614435300781428
-0.375738058316947,-0.616345080767937
-0.376425976752439,-0.618219092331533
-0.377171244405104,-0.620057032607071
-0.377974268117254,-0.6218585987294
-0.378835454731201,-0.623623487833375
-0.379755211089259,-0.625351397053848
-0.380733944033739,-0.627042023525669
-0.381772060406954,-0.628695064383693
-0.382869967051217,-0.630310216762771
-0.38402807080884,-0.631887177797755
-0.385246778522136,-0.633425644623498
-0.386526497033417,-0.634925314374853
-0.387867633184996,-0.63638588418667
-0.389270593819185,-0.637807051193804
-0.390735785778297,-0.639188512531105
-0.392263615904644,-0.640529965333426
-0.39385449104054,-0.64183110673562
-0.395508818028296,-0.643091633872539
-0.397227003710224,-0.644311243879036
-0.399009454928639,-0.645489633889961
-0.400856578525851,-0.646626501040169
-0.402768781344174,-0.64772154246451
-0.40474647022592,-0.648774455297838
-0.406790052013401,-0.649784936675004
-0.408899933548931,-0.650752683730862
-0.411076521674822,-0.651677393600262
-0.413320223233385,-0.652558763418059
-0.415631445066935,-0.653396490319103
-0.418010594017782,-0.654190271438247
-0.420458076928241,-0.654939803910344
-0.422974300640623,-0.655644784870245
-0.425559671997241,-0.656304911452803
-0.428214597840407,-0.656919880792871
-0.430939485012434,-0.6574893900253
-0.433734740355635,-0.658013136284944
-0.436600770712321,-0.658490816706653
-0.439537982924807,-0.658922128425281
-0.442546783835403,-0.65930676857568
-0.445627580286423,-0.659644434292702
-0.448780779120179,-0.659934822711199
-0.452006787178983,-0.660177630966025
-0.455306011305149,-0.66037255619203
-0.458678858340989,-0.660519295524067
-0.462125735128815,-0.660617546096989
-0.465647048510939,-0.660667005045648
-0.469243205329675,-0.660667369504896
-0.472914612427335,-0.660618336609586
-0.476661676646231,-0.660519603494569
-0.480484804828677,-0.660370867294698
-0.484384403816983,-0.660171825144826
-0.488360880453464,-0.659922174179805
-0.492414641580431,-0.659621611534487
-0.496546094040197,-0.659269834343723
-0.500755644675075,-0.658866539742368
-0.505043700327377,-0.658411424865272
-0.509410667839415,-0.657904186847288
-0.513856954053503,-0.657344522823269
-0.518382965811952,-0.656732129928067
-0.522989109957076,-0.656066705296534
-0.527675793331186,-0.655347946063522
-0.532443422776596,-0.654575549363883
-0.532443422776596,-0.654575549363883
-0.53722884357205,-0.653773835380597
-0.541968702321329,-0.652967300161938
-0.546663107854295,-0.652155904640704
-0.551312169000812,-0.651339609749695
-0.555915994590744,-0.65051837642171
-0.560474693453954,-0.649692165589546
-0.564988374420305,-0.648860938186003
-0.56945714631966,-0.648024655143879
-0.573881117981884,-0.647183277395972
-0.578260398236839,-0.646336765875082
-0.582595095914389,-0.645485081514007
-0.586885319844398,-0.644628185245546
-0.591131178856728,-0.643766038002497
-0.595332781781243,-0.642898600717658
-0.599490237447807,-0.64202583432383
-0.603603654686283,-0.641147699753809
-0.607673142326534,-0.640264157940396
-0.611698809198425,-0.639375169816388
-0.615680764131816,-0.638480696314583
-0.619619115956575,-0.637580698367782
-0.623513973502562,-0.636675136908782
-0.627365445599641,-0.635763972870382
-0.631173641077676,-0.63484716718538
-0.63493866876653,-0.633924680786576
-0.638660637496068,-0.632996474606768
-0.642339656096151,-0.632062509578754
-0.645975833396643,-0.631122746635334
-0.649569278227409,-0.630177146709305
-0.653120099418311,-0.629225670733467
-0.656628405799212,-0.628268279640617
-0.660094306199977,-0.627304934363555
-0.663517909450469,-0.62633559583508
-0.66689932438055,-0.62536022498799
-0.670238659820084,-0.624378782755083
-0.673536024598935,-0.623391230069159
-0.676791527546967,-0.622397527863015
-0.680005277494042,-0.621397637069451
-0.683177383270024,-0.620391518621265
-0.686307953704777,-0.619379133451256
-0.689397097628163,-0.618360442492222
-0.692444923870047,-0.617335406676963
-0.695451541260291,-0.616303986938276
-0.698417058628759,-0.61526614420896
-0.701341584805315,-0.614221839421814
-0.704225228619822,-0.613171033509637
-0.707068098902142,-0.612113687405227
-0.709870304482141,-0.611049762041383
-0.712631954189681,-0.609979218350903
-0.715353156854625,-0.608902017266587
-0.718034021306837,-0.607818119721232
-0.72067465637618,-0.606727486647638
-0.723275170892519,-0.605630078978603
-0.725835673685715,-0.604525857646925
-0.728356273585633,-0.603414783585404
-0.730837079422136,-0.602296817726837
-0.733278200025087,-0.601171921004024
-0.735679744224351,-0.600040054349764
-0.738041820849789,-0.598901178696854
-0.740364538731266,-0.597755254978093
-0.742648006698645,-0.596602244126281
-0.74489233358179,-0.595442107074216
-0.747097628210563,-0.594274804754696
-0.749263999414828,-0.593100298100519
-0.75139155602445,-0.591918548044486
-0.75348040686929,-0.590729515519394
-0.755530660779213,-0.589533161458042
-0.757542426584082,-0.588329446793228
-0.75951581311376,-0.587118332457751
-0.761450929198111,-0.585899779384411
-0.763347883666997,-0.584673748506004
-0.765206785350284,-0.583440200755331
-0.767027743077834,-0.582199097065189
-0.768810865679509,-0.580950398368378
-0.770556261985175,-0.579694065597696
-0.772264040824693,-0.578430059685942
-0.773934311027929,-0.577158341565913
-0.775567181424744,-0.57587887217041
-0.777162760845003,-0.57459161243223
-0.778721158118569,-0.573296523284172
-0.780242482075305,-0.571993565659035
-0.781726841545074,-0.570682700489618
-0.783174345357741,-0.569363888708719
-0.784585102343168,-0.568037091249136
-0.785959221331219,-0.566702269043668
-0.787296811151757,-0.565359383025115
-0.788597980634646,-0.564008394126274
-0.789862838609749,-0.562649263279945
-0.79109149390693,-0.561281951418925
-0.792284055356052,-0.559906419476014
-0.793440631786978,-0.55852262838401
-0.794561332029571,-0.557130539075711
-0.795646264913696,-0.555730112483918
-0.796695539269216,-0.554321309541427
-0.797709263925993,-0.552904091181038
-0.798687547713891,-0.551478418335549
-0.799630499462775,-0.550044251937759
-0.800538228002507,-0.548601552920467
-0.801410842162951,-0.547150282216471
-0.802248450773969,-0.545690400758569
-0.803051162665426,-0.544221869479562
-0.803819086667185,-0.542744649312246
-0.804552331609109,-0.541258701189421
-0.805251006321062,-0.539763986043886
-0.805915219632907,-0.538260464808438
-0.806545080374507,-0.536748098415877
-0.807140697375727,-0.535226847799002
-0.807702179466428,-0.53369667389061
-0.808229635476476,-0.532157537623501
-0.808723174235732,-0.530609399930474
-0.809182904574061,-0.529052221744326
-0.809608935321326,-0.527485963997856
-0.810001375307391,-0.525910587623864
-0.810360333362118,-0.524326053555147
-0.810685918315371,-0.522732322724505
-0.810978238997014,-0.521129356064736
-0.811237404236911,-0.519517114508638
-0.811463522864923,-0.517895558989011
-0.811656703710916,-0.516264650438652
-0.811817055604751,-0.514624349790361
-0.811944687376293,-0.512974617976936
-0.812039707855406,-0.511315415931177
-0.812102225871951,-0.50964670458588
-0.812132350255794,-0.507968444873846
-0.812130189836797,-0.506280597727872
-0.812095853444824,-0.504583124080758
-0.812029449909738,-0.502875984865301
-0.811931088061402,-0.501159141014302
-0.811800876729681,-0.499432553460557
-0.811638924744436,-0.497696183136867
-0.811445340935533,-0.495949990976029
-0.811220234132834,-0.494193937910842
-0.810963713166202,-0.492427984874105
-0.810675886865501,-0.490652092798616
-0.810356864060595,-0.488866222617175
-0.810006753581346,-0.487070335262579
-0.809625664257619,-0.485264391667627
-0.809213704919277,-0.483448352765119
-0.808770984396182,-0.481622179487852
-0.808297611518199,-0.479785832768625
-0.807793695115191,-0.477939273540237
-0.807259344017021,-0.476082462735487
-0.806694667053552,-0.474215361287172
-0.806099773054649,-0.472337930128093
-0.805474770850175,-0.470450130191047
-0.804819769269992,-0.468551922408833
-0.804134877143964,-0.466643267714249
-0.803420203301956,-0.464724127040095
-0.802675856573829,-0.462794461319169
-0.801901945789449,-0.46085423148427
-0.801098579778677,-0.458903398468196
-0.800265867371377,-0.456941923203745
-0.799403917397413,-0.454969766623717
-0.798512838686649,-0.452986889660911
-0.797592740068947,-0.450993253248124
-0.796643730374171,-0.448988818318155
-0.795665918432185,-0.446973545803803
-0.794659413072851,-0.444947396637867
-0.793624323126034,-0.442910331753146
-0.792560757421596,-0.440862312082437
-0.791468824789402,-0.43880329855854
-0.790348634059314,-0.436733252114253
-0.789200294061196,-0.434652133682374
-0.788023913624911,-0.432559904195704
-0.786819601580323,-0.430456524587039
-0.785587466757295,-0.428341955789179
-0.78432761798569,-0.426216158734923
-0.783040164095373,-0.424079094357068
-0.781725213916206,-0.421930723588415
-0.780382876278053,-0.41977100736176
-0.779013260010776,-0.417599906609903
-0.777616473944241,-0.415417382265643
-0.776192626908309,-0.413223395261778
-0.774741827732845,-0.411017906531107
-0.773264185247712,-0.408800877006428
-0.771759808282773,-0.406572267620541
-0.770228805667892,-0.404332039306243
-0.768671286232931,-0.402080152996333
-0.767087358807756,-0.399816569623611
-0.765477132222227,-0.397541250120874
-0.763840715306211,-0.395254155420921
-0.762178216889569,-0.392955246456552
-0.760489745802165,-0.390644484160563
-0.758775410873863,-0.388321829465755
-0.757035320934526,-0.385987243304926
-0.755269584814017,-0.383640686610874
-0.753478311342199,-0.381282120316398
-0.751661609348937,-0.378911505354297
-0.749819587664094,-0.376528802657369
-0.747952355117532,-0.374133973158414
-0.746060020539116,-0.371726977790228
-0.744142692758709,-0.369307777485612
-0.742200480606174,-0.366876333177364
-0.740233492911375,-0.364432605798283
-0.738241838504174,-0.361976556281166
-0.736225626214436,-0.359508145558813
-0.734184964872024,-0.357027334564023
-0.732119963306801,-0.354534084229594
-0.730030730348631,-0.352028355488324
-0.727917374827377,-0.349510109273013
-0.725780005572903,-0.346979306516459
-0.723618731415071,-0.34443590815146
-0.721433661183746,-0.341879875110815
-0.71922490370879,-0.339311168327324
-0.716992567820068,-0.336729748733784
-0.714736762347442,-0.334135577262994
-0.712457596120776,-0.331528614847752
-0.710155177969933,-0.328908822420858
-0.707829616724778,-0.32627616091511
-0.705481021215172,-0.323630591263307
-0.70310950027098,-0.320972074398247
-0.700715162722065,-0.318300571252729
-0.698298117398291,-0.315616042759552
-0.69585847312952,-0.312918449851514
-0.693396338745617,-0.310207753461413
-0.690911823076444,-0.307483914522049
-0.688405034951866,-0.30474689396622
-0.685876083201745,-0.301996652726725
-0.683325076655944,-0.299233151736362
-0.680752124144328,-0.296456351927931
-0.67815733449676,-0.293666214234229
-0.675540816543103,-0.290862699588055
-0.672902679113221,-0.288045768922208
-0.670243031036976,-0.285215383169486
-0.667561981144233,-0.282371503262689
-0.664859638264854,-0.279514090134615
-0.662136111228704,-0.276643104718062
-0.659391508865645,-0.273758507945829
-0.656625940005542,-0.270860260750715
-0.653839513478256,-0.267948324065518
-0.651032338113653,-0.265022658823037
-0.648204522741595,-0.262083225956071
-0.645356176191945,-0.259129986397418
-0.642487407294567,-0.256162901079877
-0.639598324879326,-0.253181930936246
-0.636689037776082,-0.250187036899325
-0.633759654814701,-0.247178179901911
-0.630810284825046,-0.244155320876804
-0.62784103663698,-0.241118420756802
-0.624852019080366,-0.238067440474704
-0.621843340985069,-0.235002340963308
-0.61881511118095,-0.231923083155413
-0.615767438497875,-0.228829627983817
-0.612700431765705,-0.22572193638132
-0.609614199814305,-0.222599969280719
-0.606508851473538,-0.219463687614814
-0.603384495573268,-0.216313052316404
-0.600241240943357,-0.213148024318286
-0.59707919641367,-0.209968564553259
-0.593898470814069,-0.206774633954123
-0.590699172974418,-0.203566193453675
-0.58748141172458,-0.200343203984714
-0.58424529589442,-0.19710562648004
-0.5809909343138,-0.193853421872449
-0.577718435812583,-0.190586551094743
-0.574427909220633,-0.187304975079718
-0.571119463367814,-0.184008654760173
-0.567793207083989,-0.180697551068908
-0.564449249199021,-0.17737162493872
-0.561087698542774,-0.174030837302409
-0.557708663945111,-0.170675149092773
-0.554312254235896,-0.16730452124261
-0.550898578244992,-0.16391891468472
-0.547467744802261,-0.160518290351901
-0.544019862737569,-0.157102609176951
-0.540555040880778,-0.153671832092669
-0.537073388061752,-0.150225920031855
-0.533575013110353,-0.146764833927305
-0.530060024856446,-0.14328853471182
-0.526528532129893,-0.139796983318198
-0.52298064376056,-0.136290140679237
-0.519416468578307,-0.132767967727735
-0.515836115413,-0.129230425396493
-0.512239693094501,-0.125677474618308
-0.508627310452674,-0.122109076325979
-0.504999076317382,-0.118525191452304
-0.501355099518489,-0.114925780930082
-0.497695488885858,-0.111310805692113
-0.494020353249353,-0.107680226671193
-0.490329801438837,-0.104034004800123
-0.486623942284173,-0.100372101011701
-0.482902884615224,-0.0966944762387244
-0.479166737261855,-0.0930010914139933
-0.475415609053929,-0.0892919074703057
-0.471649608821308,-0.0855668853404604
-0.467868845393857,-0.0818259859572559
-0.464073427601439,-0.0780691702534911
-0.460263464273917,-0.0742963991619643
-0.456439064241154,-0.0705076336154745
-0.452600336333015,-0.0667028345468199
-0.448747389379362,-0.0628819628887995
-0.444880332210059,-0.0590449795742117
-0.440999273654969,-0.0551918455358553
-0.437104322543955,-0.0513225217065287
-0.433195587706882,-0.047436969019031
-0.429273177973613,-0.0435351484061603
-0.42533720217401,-0.0396170208007156
-0.421387769137938,-0.0356825471354953
-0.417424987695259,-0.0317316883432982
-0.413448966675838,-0.0277644053569228
-0.409459814909537,-0.0237806591091679
-0.40545764122622,-0.0197804105328319
-0.40144255445575,-0.0157636205607137
-0.397414663427992,-0.0117302501256117
-0.393374076972807,-0.0076802601603248
-0.38932090392006,-0.00361361159765135
-0.385255253099614,0.000469734629609739
-0.381177233341333,0.00456981758866022
-0.377086953475079,0.00868667634670096
-0.372984522330716,0.0128203499709338
-0.368870048738109,0.0169708775285597
-0.364743641527119,0.0211382980867804
-0.360605409527611,0.0253226507127969
-0.356455461569447,0.0295239744738109
-0.352293906482492,0.0337423084370234
-0.348120853096609,0.0379776916696362
-0.343936410241661,0.0422301632388503
-0.339740686747511,0.0464997622118673
-0.335533791444024,0.0507865276558884
-0.331315833161061,0.0550904986381151
-0.327086920728488,0.0594117142257486
-0.322847162976166,0.0637502134859905
-0.318596668733961,0.0681060354860419
-0.314335546831734,0.0724792192931045
-0.310063906099349,0.0768698039743792
-0.305781855366671,0.0812778285970679
-0.301489503463562,0.0857033322283714
-0.297186959219885,0.0901463539354916
-0.292874331465504,0.0946069327856295
-0.288551729030283,0.0990851078459867
-0.284219260744085,0.103580918183764
-0.279877035436772,0.108094402866164
-0.27552516193821,0.112625600960387
-0.271163749078261,0.117174551533634
-0.266792905686788,0.121741293653108
-0.262412740593655,0.126325866386009
-0.258023362628726,0.130928308799539
-0.253624880621863,0.135548659960898
-0.249217403402931,0.14018695893729
-0.244801039801792,0.144843244795914
-0.24037589864831,0.149517556603972
-0.235942088772348,0.154209933428666
-0.23149971900377,0.158920414337197
-0.227048898172439,0.163649038396766
-0.22258973510822,0.168395844674575
-0.218122338640973,0.173160872237825
-0.213646817600565,0.177944160153717
-0.209163280816857,0.182745747489453
-0.204671837119714,0.187565673312234
-0.200172595338998,0.192403976689262
-0.195665664304573,0.197260696687738
-0.191151152846303,0.202135872374862
-0.186629169794051,0.207029542817838
-0.18209982397768,0.211941747083865
-0.177563224227054,0.216872524240146
-0.173019479372036,0.221821913353881
-0.168468698242489,0.226789953492272
-0.163910989668277,0.231776683722521
-0.159346462479264,0.236782143111829
-0.154775225505313,0.241806370727397
-0.150197387576287,0.246849405636426
-0.145613057522049,0.251911286906118
-0.141022344172463,0.256992053603675
-0.136425356357393,0.262091744796297
-0.131822202906701,0.267210399551186
-0.127212992650252,0.272348056935543
-0.122597834417909,0.27750475601657
-0.117976837039534,0.282680535861468
-0.113350109344992,0.287875435537439
-0.108717760164146,0.293089494111683
-0.104079898326859,0.298322750651403
-0.0994366326629952,0.303575244223799
-0.0947880720024173,0.308847013896073
-0.0901343251749886,0.314138098735426
-0.0854755010105732,0.31944853780906
-0.0808117083390339,0.324778370184176
-0.0761430559902345,0.330127634927975
-0.0714696527940382,0.33549637110766
-0.0667916075803086,0.340884617790429
-0.0621090291789087,0.346292414043487
-0.0574220264197025,0.351719798934033
-0.0527307081325529,0.35716681152927
-0.0480351831473237,0.362633490896398
-0.0433355602938779,0.368119876102619
-0.0386319484020794,0.373626006215135
-0.0339244563017911,0.379151920301146
-0.0292131928228769,0.384697657427854
-0.0244982667951998,0.39026325666246
-0.0197797870486235,0.395848757072166
-0.0150578624130111,0.401454197724174
-0.0103326017182265,0.407079617685683
-0.00560411379413249,0.412725056023897
-0.000872507470593057,0.418390551806016
0.00386210842252884,0.424076144099241
0.00859962505536939,0.429781871970774
0.0133399335980656,0.435507774487817
0.0180829252207536,0.44125389071757
0.0228284910935705,0.447020259727236
0.0275765223866523,0.452806920584014
0.0323269102701362,0.458613912355108
