0.463009549170405,0.402769568498277
0.45735237894036,0.46227127126228
0.444133661985236,0.439084147716068
0.360020925275917,0.434979007392172
0.339762753658461,0.367054862513357
0.3546253160401,0.40762433984906
0.319276698334338,0.39053816348075
0.267694719462931,0.426836921135468
0.252865927140042,0.395391244245799
0.261299064678085,0.351529496670819
0.241571940065648,0.497950890670932
0.110197622315174,0.438426526715014
0.0962680592590548,0.420282510153692
0.0339356384018672,0.392660304301152
0.0817608556707923,0.515870050957211
-0.137358838392177,0.352787736448333
-0.0779303124620414,0.44996581064366
-0.135998382890821,0.415637183062222
-0.0647865051011486,0.568636199240572
-0.17827772136678,0.473523244899951
-0.225234959458293,0.473103489230984
-0.39816919573578,0.362827693598696
-0.393714776500527,0.327945324448936
-0.215039020131932,0.582788968905545
-0.411442502705764,0.449525613345881
-0.419767364457469,0.4180102998314
-0.499052215285871,0.457539798737221
-0.437061395483813,0.519941173913778
-0.497613420162463,0.392514221412183
-0.488640401525324,0.497040580380719
-0.626819313820866,0.32813247807668
-0.595545441193834,0.33391121528653
-0.623523714038073,0.22332182956401
-0.506897288307287,0.295222475733936
-0.625921067660136,0.145584825672487
-0.625789434213445,0.086556316364996
-0.612095852362398,-0.00391998847454564
-0.637439880153307,-0.0808258767868592
-0.618558224733527,-0.142962172122583
-0.572807529652877,-0.216109169898611
-0.548173626950606,-0.300140116611352
-0.519872765094961,-0.390075131779059
-0.52362859662219,-0.513091637163295
-0.450087221701516,-0.541658813726563
-0.409328388466354,-0.577557109376631
-0.482340913503852,-0.583984307345095
-0.467997047791826,-0.656829425615359
-0.420689008785263,-0.669012968209069
-0.415125278087467,-0.683348404070369
-0.410879797215759,-0.676892588823569
-0.409650319858,-0.66753947406295
-0.369183242356619,-0.639214903726864
-0.373210988556336,-0.636430025810134
-0.418836723697814,-0.593410458426386
-0.471934303994574,-0.549330410298526
-0.380409937638896,-0.386183419103142
-0.456872332305378,-0.421116477143428
-0.37462617727625,-0.277180178969675
-0.475323649444979,-0.346430744442899
-0.476589716999226,-0.27288457984239
-0.449187836941107,-0.193134333206024
-0.533973303053923,-0.194324868776411
-0.500188576425288,-0.122681267015916
-0.587899355956316,-0.0494952455503192
-0.569901426643206,0.0288498298066672
-0.590322723171214,0.129357657127646
-0.620657142917545,0.138748411701937
-0.608429691764372,0.243669375864914
-0.624373008056011,0.307782664917631
-0.639825040185001,0.369315746316357
-0.668945074951877,0.422314758156407
-0.668646692690073,0.482273943179578
-0.715580956144563,0.492529569962142
-0.652619211475565,0.565456262469495
-0.624011953732898,0.687440505475879
-0.724436996743007,0.626354441797121
-0.721453563969581,0.678087299378299
-0.742037851987271,0.666265142931085
-0.775216439569383,0.701124447791851
-0.733853972956358,0.712531275860001
-0.718672938769005,0.683725161344835
-0.730766904467486,0.698796951429131
-0.723523661402401,0.666878143510776
-0.711354562467057,0.685824499788662
-0.695652554198316,0.681446024482053
-0.676984338461778,0.693853344209088
-0.510012616407431,0.75908007675629
-0.608201275207259,0.640520026629123
-0.598886458472332,0.675102619021607
-0.546913477907074,0.641887507389732
-0.564593081446403,0.637778431879856
-0.464158271401889,0.703828871073741
-0.488943448014364,0.65013398050199
-0.427157000729306,0.695161082833494
-0.380215717157716,0.685516319168984
-0.381340160155196,0.653386641241092
-0.154690890084924,0.853237878056931
-0.252874050508457,0.6924676173661
-0.168716988922889,0.715962689610194
-0.0623796387915477,0.804847909836934
-0.122807216060205,0.696136640591946
-0.0800488488943972,0.696054019030868
-0.0421526071656113,0.671059659877666
-0.0138672170492808,0.692223905326748
0.0250639641964164,0.726114248525479
0.065272566335008,0.705765276084677
0.14723484982162,0.728090554823971
0.152187731355094,0.673205659008109
0.280141170650709,0.726340192449572
0.214151572611186,0.654110757540202
0.264713184095014,0.592404446636836
0.303549362548948,0.656880250761218
0.328155776651059,0.639989448348886
0.407331659438153,0.684212037268327
0.315721801531624,0.571899852870269
0.276480677584997,0.576955546533111
0.355813850535234,0.48943466965495
0.329778335180341,0.493995079111335
0.32510307419116,0.462522909301047
0.279807622762005,0.442466557119376
