-0.473895979552633,-0.771473036407355
-0.93521809476597,-0.832347567060387
0.512249746554155,0.458800046990046
0.641694777699437,0.21971296211544
0.771139808844718,-0.0193741227591657
0.289893057017629,0.125132057810633
-0.205773750294558,0.68949691656899
-0.701440557606744,1.25386177532735
0.0231705955107313,-0.569254947134963
-0.439014009334677,0.128458600994729
