-0.564825403959957,-0.270352274588846
-0.560124383691603,-0.26560760024891
-0.465649469865224,-0.284954438677984
-0.499977487896033,-0.33330623102154
-0.453046490614099,-0.338255948605866
-0.475391331488718,-0.332181825276649
-0.380402190219266,-0.380486545209833
-0.384990101022807,-0.430270935803172
-0.287449016484767,-0.160362704396095
-0.316395303904637,-0.388154117698647
-0.524223548171054,-0.128812109627693
-0.489901869670006,-0.368245059506785
-0.401514932801028,-0.179475719754978
-0.411579930519978,-0.110873987931019
-0.398804525085596,-0.13129344159016
-0.249014540515372,0.0571842067676153
-0.337561627513768,-0.00211310853007163
-0.389920932602498,0.0202228292155985
-0.437957023457362,0.185312686216237
-0.461904079970822,0.000744217343145934
-0.410054657608635,0.023468911327674
-0.170280673397185,0.0819518918821049
-0.196415995730528,0.152782025118607
-0.234793510142884,0.26109036996193
-0.104551797081945,0.199381289065373
-0.0552493700598698,0.4590381872114
-0.264717202379756,0.463745076498334
-0.129193568446999,0.393095350389543
-0.219130839347615,0.539574361858295
-0.192801221456272,0.504896430208401
0.0835553263127182,0.298590715929501
0.0437028223828844,0.447259224812157
0.158061918231541,0.375107474736709
0.00576937400299377,0.414883913857559
0.251508734777799,0.572449635379914
0.128569710885087,0.520675572331879
0.135488640863418,0.562394817516497
0.318314089776764,0.42135127413086
0.381187271419771,0.389343855954004
0.447894193467634,0.349385189441609
0.4988968144833,0.338556080621211
0.540134677296978,0.297882389815668
0.626974942906061,0.216100299813379
0.715302932012858,0.164312069817164
0.736706874138499,0.134160703098813
0.735002750992554,0.0618446169214204
0.78315725553221,0.0950332299343804
0.780524324064578,0.094982077767985
0.879611487352505,0.0614499604937572
0.902953184302287,-0.0300263628404539
0.835129996179671,0.034930840428781
0.907098149815151,-0.0179578561156797
0.85984540920375,0.0101904624024399
0.823390804119465,0.00911208254020066
0.827588253878124,-0.0378034639041039
0.81017563887126,-0.0847874642833763
0.7803796669116,-0.0363633208106053
0.752156721627361,-0.033276298565593
0.718925482617064,-0.0273508884581447
0.72344396224078,-0.0368980502564357
0.629536326543493,-0.057288189857986
0.608870676588305,0.0309860624685813
0.589589669439839,0.0539689383403409
0.546845723251362,0.0349527942221561
0.452961821545756,0.0445294886746366
0.399984029495077,0.0612250294840717
0.30498130647718,0.103774652439512
0.252188154625413,0.111965567878847
0.25544115613422,0.0974462151315212
0.162020531251591,0.144107219859384
0.0744767769649867,0.188148545264597
0.0540580315954569,0.176634187822587
-0.0346623989863562,0.166561290022178
-0.0850150118352183,0.194084139451455
-0.125152141130885,0.2376765471875
-0.184067570720967,0.257561932839733
-0.253153270535274,0.280526166396289
-0.251945917542159,0.29373349367104
-0.338152165578026,0.273038081136324
-0.455679785413752,0.296488288825668
-0.455581009203432,0.34550772391247
-0.504084370131652,0.359065096792211
-0.504474991447743,0.363734770343725
-0.632632876488941,0.332496774070344
-0.629864220362786,0.365070691903512
-0.647462139744699,0.374803747661893
-0.707020018331605,0.338421622069
-0.692175373642223,0.362366389377642
-0.70863951625146,0.351767994473363
-0.721499700115384,0.338515295791502
-0.737227768869102,0.292035832919109
-0.690111532176738,0.268176166483833
-0.752163355241203,0.267897334723108
-0.741766210333528,0.262944064246079
-0.732666242371225,0.235603993382709
-0.736600683850967,0.214410007053055
-0.77388641953849,0.178836980284261
-0.728724437706436,0.176620868154152
-0.714988685401772,0.125033166282066
-0.705402792133716,0.103810211742034
-0.694675125110584,0.0745027546676087
-0.635462548368049,0.013299193766755
-0.637429183668366,0.0434712867641412
-0.703270433516405,-0.0240659429333612
-0.65398648147601,-0.0177950697232929
-0.602691847249527,-0.11945142723189
-0.610290306281747,-0.0647975261254213
-0.625951373939265,-0.0774619595278826
-0.648582092517051,-0.174284194691204
-0.60845787396676,-0.166858911464873
-0.608760494419016,-0.184852544793277
-0.584996838773337,-0.221543714005454
-0.582107970069937,-0.240885506353685
-0.581732369035429,-0.294932633667483
-0.598777289206691,-0.252739979722496
-0.553906039210587,-0.275474000059566
-0.578363103840345,-0.264857344867223
-0.60604612746907,-0.301739606559875
-0.584685200798705,-0.320596213465891
-0.667761233737251,-0.270925689079918
