0.505296047543476,0.0995801498157707
0.507381748424395,0.103185811901537
0.50944268985503,0.106732870653429
0.511478984448823,0.110221547150842
0.513490744819214,0.113652062473168
0.515478083579647,0.117024637699801
0.517441113343562,0.120339493910134
0.519379946724401,0.123596852183561
0.521294696335605,0.126796933599474
0.523185474790618,0.129939959237268
0.525052394702879,0.133026150176336
0.52689556868583,0.13605572749607
0.528715109352915,0.139028912275865
0.530511129317573,0.141945925595114
0.532283741193247,0.14480698853321
0.534033057593377,0.147612322169546
0.642505774945039,0.0469163743567613
0.63881517238651,0.0376636386967316
0.443435175806396,0.0376894517956592
0.540799620707307,0.158280785285165
0.448675147925594,0.0646817243033808
0.544046057360499,0.163286389096645
0.545635458608197,0.16570780784368
0.644256769515048,0.0512783585973402
0.441571180442365,0.0547978964118557
0.641303399193463,0.055068005746803
0.443503419028437,0.0651911848450186
0.553248798595377,0.177009913167534
0.644878356287966,0.283500550093444
0.665141450379272,0.0714704607268071
0.557553923670536,0.183155144490953
0.674105935223321,0.300118221882297
0.452177892263809,0.0755973664349088
0.561665605801408,0.188830647531183
0.673272479103891,0.297486833076705
0.677101959996682,0.100808819313104
0.681102996523741,0.0875400526871809
0.681478589692137,0.0867776417799838
0.678729579292444,0.0892901699312342
0.683361084130004,0.101042019919101
0.47186037914449,0.311641768304223
0.451855585631093,0.0967533768727293
0.572870400157546,0.203098478388949
0.463471167595999,0.313562501056473
0.576238716140514,0.206954759732634
0.479885412602316,0.323940703286617
0.483880897746582,0.321170643851679
0.579428791993818,0.210371158511235
0.580453067223277,0.211413238126809
0.581457988447651,0.21240732621939
0.582443668280381,0.213353643868374
0.58341021933491,0.214252412153154
0.584357754224679,0.215103852153122
0.586196225963702,0.216665631616198
0.587087388039841,0.217376413238093
0.587959984404986,0.218040750892751
0.588814127672579,0.218658865659564
0.589649930456061,0.219230978617925
0.590467505368875,0.21975731084723
0.591266965024463,0.22023808342687
0.592048422036265,0.22067351743624
0.592811989017723,0.221063833954731
0.59355777858228,0.221409254061739
0.594285903343376,0.221709998836657
0.594996475914453,0.221966289358876
0.595689608908954,0.222178346707792
0.596365414940319,0.222346391962798
0.59702400662199,0.222470646203286
0.597665496567409,0.22255133050865
0.598897621703258,0.222582873631581
0.599488482120571,0.222534174607935
0.600062691255399,0.222442789966737
0.600620361721182,0.222308940787383
0.601161606131364,0.222132848149266
0.602195267238687,0.221654816814314
0.602687909162712,0.221353320276266
0.603164575484901,0.221010464597027
0.603625378818696,0.220626470855993
0.604070431777539,0.220201560132555
0.604499846974871,0.219735953506107
0.604913737024135,0.219229872056042
0.605312214538771,0.218683536861755
0.605695392132221,0.218097169002637
0.606063382417927,0.217470989558083
0.606416298009331,0.216805219607486
0.607077355562998,0.215355792505736
0.607385722752145,0.21457257751337
0.607958697022272,0.212890250042623
0.608223529330136,0.211991579723029
0.608474075237789,0.211054866453145
0.608710447358673,0.210080331312365
0.60893275830623,0.209068195380083
0.6091411206939,0.208018679735691
0.609335647135126,0.206932005458583
0.60951645024335,0.205808393628153
0.609977645704421,0.20221814361086
0.610104681615051,0.200948992361073
0.610218557259886,0.199644008954931
0.610319385252369,0.198303414471826
0.61040727820594,0.196927429991152
0.610482348734042,0.195516276592303
0.610544709450116,0.194070175354672
0.610594472967604,0.192589347357651
0.610631751899947,0.191074013680636
0.610656658860588,0.189524395403018
0.610669306462968,0.187940713604192
0.610669807320527,0.18632318936355
0.610658274046709,0.184672043760487
0.610634819254955,0.182987497874395
0.610599555558706,0.181269772784667
0.610552595571405,0.179519089570698
0.610494051906491,0.177735669311881
0.610424037177409,0.175919733087608
0.610342663997598,0.174071501977274
0.610250044980501,0.172191197060272
0.610146292739559,0.170279039415994
0.610031519888214,0.168335250123835
0.609905839039908,0.166360050263188
0.609769362808082,0.164353660913446
0.609622203806178,0.162316303154003
0.609464474647637,0.160248198064252
0.609296287945902,0.158149566723586
0.609117756314413,0.156020630211399
0.608730108715943,0.151672725990034
0.608521217975844,0.149454200439643
0.608302432759759,0.147206254035304
0.60807386568113,0.144929107856411
0.607835629353397,0.142622982982357
0.607587836390002,0.140288100492535
0.607330599404387,0.137924681466339
0.607064031009994,0.135532946983162
0.606788243820264,0.133113118122398
0.605906695613471,0.125687276068513
0.605595159376811,0.123157280491332
0.605274967412023,0.120600295933531
0.604609066751827,0.115406244193639
0.604263583283303,0.112769619170336
0.603548113136611,0.107418276213981
0.603178351685327,0.104704000439717
0.602800722800005,0.101964283240585
0.602415339094089,0.0991993456959799
0.602022313181018,0.0964094088852943
0.601213785187183,0.0907554217832559
0.600798508333302,0.0878918136506898
0.600376039726034,0.0850040905696169
0.59994649197882,0.0820924736194305
0.599509977705103,0.0791571838795243
0.599066609518323,0.0761984424292914
0.598616500031923,0.0732164703481251
0.597226849909417,0.0641333811129605
0.596750901358952,0.0610606973019949
0.596268774576075,0.0579658882570629
0.595780582174227,0.054849175057558
0.59528643676685,0.0517107787828733
0.594786450967386,0.0485509205124024
0.594280737389277,0.0453698213255386
0.593769408645963,0.0421677023016752
0.593252577350887,0.0389447845202059
0.592730356117491,0.0357012890605236
0.592202857559215,0.0324374370020219
0.591670194289502,0.0291534494240943
0.591132478921794,0.025849547406134
0.590589824069531,0.0225259520275344
0.590042342346156,0.0191828843676889
0.58949014636511,0.015820565505991
0.588933348739836,0.0124392165218339
0.587806399010365,0.00562031250371567
0.587236472133053,0.00218319962854137
0.586662394065278,-0.00127205905151853
0.586084277420482,-0.00474524245707078
0.585502234812107,-0.00823612950872188
0.584916378853595,-0.0117444991270784
0.584326822158386,-0.0152701302327471
0.583733677339923,-0.0188128017463347
0.583137057011648,-0.0223722925884476
0.582537073787002,-0.0259483816796925
0.581933840279426,-0.029540847940676
0.580718072869253,-0.0367740276542855
0.58010576419354,-0.0404142989481247
0.579490655688663,-0.044070063094129
0.578872859968066,-0.0477410990129052
0.578252489645189,-0.0514271856250596
0.577629657333474,-0.0551281018511991
0.577004475646363,-0.0588436266119303
0.575747514599719,-0.066317617419594
0.57511596046707,-0.0700756413077396
0.573847268050324,-0.0776326406556922
0.57321035499311,-0.0814311739567123
0.572571880854593,-0.0852427682365703
0.57129069978741,-0.0929042554152269
0.570648218085628,-0.0967537061552388
0.569360035412892,-0.104488916539663
0.568714559668821,-0.108374234025288
0.568068311137538,-0.112271064933997
0.567421402432482,-0.116179188186398
0.566773946167097,-0.120098382703096
0.565477841409104,-0.127969101211812
0.56482941814338,-0.131920183045043
0.563532392905683,-0.139852686472283
0.562884016160594,-0.143833665907507
0.562235880149267,-0.147824169051274
0.561588097485143,-0.151823974824191
0.560940780781664,-0.155832862146866
0.560294042652272,-0.159850609939905
0.559647995710408,-0.163876997123914
0.559002752569514,-0.167911802619501
0.557715128144403,-0.176005784227832
0.556432070284472,-0.184130786129751
0.555792535350053,-0.188204366992322
0.555154479897254,-0.19228503969011
0.554518016539516,-0.196372583143722
0.553250316562993,-0.204567398000843
0.552619305171089,-0.208674227245565
0.551990336328015,-0.212787042928537
0.550738976742116,-0.221029749291657
0.550116811226175,-0.225159197813019
0.54888007181552,-0.233433180138379
0.548265723147688,-0.23757727178359
0.547045630954226,-0.245878550642108
0.546440112655479,-0.250035295696628
0.545837763039976,-0.254195816395464
0.545238694721159,-0.258359891659223
0.544643020312471,-0.262527300408512
0.543462303679244,-0.270871234046104
0.541719498391404,-0.28340660865913
0.541146552325757,-0.287589375654334
0.54057778846433,-0.291773928579315
0.539453257807901,-0.30014750790103
0.538897716239783,-0.304336092138978
0.537800643690945,-0.312715744372088
0.537259337937109,-0.316906370208463
0.536723002681584,-0.32109723441886
0.535665694119234,-0.329478793644147
0.535144946039293,-0.333669046500251
0.534119825349083,-0.342047393302411
0.533615677965699,-0.34623504508968
0.533117289374718,-0.350421387695218
0.532138239023729,-0.358789261043527
0.531657802490605,-0.362970349627511
0.53118357520365,-0.36714924471219
0.530715669776306,-0.37132572521817
0.530254198822014,-0.375499570066059
0.529351010786354,-0.383838468469989
0.528474912004204,-0.392164171288831
0.528047302616799,-0.396321521655361
0.527626803383096,-0.40047490988744
0.527213526916538,-0.404624114905673
0.526807585830565,-0.408768915630667
0.526409092738619,-0.412909090983029
0.526018160254142,-0.417044419883366
0.525634900990576,-0.421174681252284
0.525259427561362,-0.42529965401039
0.524891852579942,-0.42941911707829
0.524532288659757,-0.433532849376592
0.524180848414249,-0.437640629825901
0.52383764445686,-0.441742237346825
0.523502789401032,-0.445837450859969
0.523176395860206,-0.449926049285941
0.522858576447823,-0.454007811545348
0.522549443777326,-0.458082516558795
0.522249110462156,-0.46214994324689
0.521957689115754,-0.466209870530238
0.521675292351563,-0.470262077329448
0.521402032783024,-0.474306342565125
0.521138023023579,-0.478342445157875
0.520883375686669,-0.482370164028307
0.520638203385736,-0.486389278097025
0.520176734345566,-0.494400807511751
0.519960662833214,-0.498392780698971
0.519558408891181,-0.506348038636159
0.519372451688384,-0.51031088122734
0.519196757815655,-0.514263571461054
0.519031439886437,-0.518205888257909
0.51887661051417,-0.522137610538511
0.518732382312297,-0.526058517223466
0.518598867894258,-0.529968387233381
0.518476179873497,-0.533866999488863
0.51826373347757,-0.541629566418954
0.518174200329289,-0.545493078934775
0.518095944032051,-0.54934444937859
0.518029077199297,-0.553183456671005
0.517973712444471,-0.557009879732627
0.517929962381012,-0.560823497484061
0.517877756781967,-0.568411432738796
0.517869526473263,-0.572185308083309
0.517873361309694,-0.575945493800062
0.517889373904701,-0.579691768809661
0.517917676871727,-0.583423912032713
0.517958382824212,-0.587141702389825
0.518011604375599,-0.590844918801603
0.518077454139329,-0.594533340188653
0.518156044728844,-0.598206745471582
0.518247488757585,-0.601864913570998
0.518351898838994,-0.605507623407506
0.518469387586513,-0.609134653901714
0.518600067613583,-0.612745783974227
0.518744051533646,-0.616340792545652
0.519072381506517,-0.623481560867667
0.519455278412661,-0.630555190232612
0.519667470999313,-0.634066275107699
0.520133907506989,-0.641035879846137
0.520388376654895,-0.644493957550701
0.520657163216769,-0.647933924039637
0.520940379806052,-0.651355558233551
0.521238139036187,-0.654758639053051
0.521550553520614,-0.658142945418743
0.522219798706114,-0.664854350471129
0.522576854634069,-0.668181006999036
0.522949016270084,-0.671488004755562
0.524157261560901,-0.681288834602916
0.524590972163569,-0.684514986479982
0.525040351541505,-0.6877203741887
0.525505512308151,-0.690904776649676
0.525986567076947,-0.694067972783516
0.526483628461336,-0.697209741510828
0.526996809074759,-0.700329861752218
0.52863419242365,-0.709558120766922
0.529212976087626,-0.712589436270691
0.530420702917747,-0.718583584550168
0.532359381119976,-0.727400283958334
0.533737872382979,-0.733159155630155
0.534453267593261,-0.736002249847798
0.535186246007318,-0.738820821547406
0.535936920238593,-0.741614649649585
0.536705402900526,-0.744383513074941
0.538296243970136,-0.749845461577611
0.539118827604697,-0.75253810449614
0.539959670123682,-0.755204898420271
0.542592877121608,-0.763047975432357
0.543507881312712,-0.765609162584971
0.54444170745545,-0.768143395346222
0.545394468163263,-0.770650452636717
0.546366276049594,-0.773130113377062
0.547357243727883,-0.775582156487864
0.548367483811572,-0.77800636088973
0.549397108914103,-0.780402505503265
0.550446231648918,-0.782770369249078
0.551514964629458,-0.785109731047774
0.55371171178148,-0.789702064486242
0.554839951179846,-0.791954593967228
0.555973981479796,-0.794176628572266
0.559325834713362,-0.800653509714867
0.561519051919823,-0.804814795428062
0.562603408970073,-0.806848762923663
0.563679666732467,-0.808851753580187
0.564747876517604,-0.81082387244882
0.565808089636082,-0.812765224580752
0.566860357398499,-0.814675915027171
0.567904731115453,-0.816556048839267
0.568941262097544,-0.818405731068228
0.570991001099525,-0.822014160981501
0.572004311740613,-0.82377311876819
0.574008071855975,-0.827201045257618
0.574998623951445,-0.828870224062735
0.576957328770956,-0.832119538049716
0.577925584116194,-0.833699883333958
0.57888650983255,-0.835250827546953
0.579840157230624,-0.83677247573989
0.580786577621014,-0.838264932963957
0.581725822314318,-0.839728304270343
0.582657942621134,-0.841162694710237
0.583582989852061,-0.842568209334828
0.58541207032864,-0.845293031342855
0.586316206195488,-0.846612548828669
0.587213474228841,-0.847903610703934
0.588103925739296,-0.84916632201984
0.588987612037452,-0.850400787827576
0.589864584433906,-0.851607113178329
0.590734894239258,-0.852785403123289
0.591598592764106,-0.853935762713645
0.592455731319047,-0.855058297000585
0.59330636121468,-0.856153111035299
0.594150533761604,-0.857220309868974
0.594988300270417,-0.8582599985528
0.596644820416102,-0.860257265675659
0.597463676674172,-0.86121505421707
0.598276332136523,-0.862145752813387
0.599082838113755,-0.863049466515798
0.599883245916466,-0.863926300375492
0.603024921594062,-0.867166938410878
0.603795608183142,-0.867910948824821
0.60456050446129,-0.86862870970318
0.605319661739105,-0.869320326097143
0.606073131327185,-0.869985903057899
0.606820964536129,-0.870625545636638
0.607563212676536,-0.871239358884549
0.608299927059002,-0.871827447852818
0.609031158994127,-0.872389917592636
0.609756959792509,-0.872926873155192
0.610477380764746,-0.873438419591673
0.611902288473179,-0.87438570529117
0.613306292604214,-0.875232615100636
0.614000584104702,-0.87561869167458
0.614689803642636,-0.875979989429582
0.615374002528613,-0.876316613416832
0.616053232073232,-0.876628668687518
0.616727543587091,-0.876916260292829
0.62002712656593,-0.877990940130366
0.620673007417795,-0.878133955818392
0.621314329413088,-0.878253243199363
0.621951143862408,-0.87834890732447
0.622583502076353,-0.878421053244901
0.623835055040511,-0.878495210676489
0.624454352411921,-0.878497432290024
0.62506939879035,-0.878476555903638
0.625680245486395,-0.87843268656852
0.626286943810655,-0.878365929335859
0.626889545073728,-0.878276389256843
0.627488100586213,-0.87816417138266
0.628082661658708,-0.878029380764501
0.628673279601811,-0.877872122453554
0.62926000572612,-0.877692501501007
0.629842891342235,-0.877490622958048
0.630421987760753,-0.877266591875869
0.630997346292272,-0.877020513305655
0.632137054936708,-0.876462633905883
0.632701507670822,-0.876151043178703
0.633262427760331,-0.875817825168244
0.633819866515833,-0.875463084925695
0.634373875247926,-0.875086927502246
0.634924505267209,-0.874689457949085
0.63547180788428,-0.874270781317401
0.636015834409738,-0.873831002658383
0.63655663615418,-0.873370227023219
0.637094264428206,-0.872888559463098
0.637628770542413,-0.872386105029209
0.638160205807399,-0.871862968772741
0.638688621533764,-0.871319255744881
0.63973659961302,-0.870170519579748
0.641287202957198,-0.868295715826337
0.64230729462716,-0.866945939250792
0.642813401226088,-0.866241393894604
0.643817992504832,-0.864773514301344
0.644812763295414,-0.863227949874826
0.645798124082621,-0.861605541024564
0.647259419442574,-0.859029682850448
0.647742257586056,-0.85813355169084
0.648701851271857,-0.856285652026399
0.649653676893429,-0.854364269576253
0.650126804956625,-0.853376284934512
0.650598144935559,-0.852370244749911
0.651067748140828,-0.851346254073639
0.651535665883033,-0.850304417956885
0.652929819437234,-0.847072887475613
0.65339150843316,-0.845960720108817
0.65385176851901,-0.844831232557481
0.655224488422102,-0.84133989930813
0.656586195316067,-0.837696466240726
0.657488565714951,-0.835184411646055
0.65793827458706,-0.833903769737366
0.658387067655079,-0.832606858156026
0.659728465140572,-0.828619555887987
0.66017410809821,-0.827258616127931
0.66061909180475,-0.825881931951167
0.661063467570788,-0.824489608408885
0.661507286706923,-0.823081750552273
0.662393460331881,-0.820219852100817
0.662835917441899,-0.818766021608349
0.664602745112861,-0.81280060905462
0.665043958391315,-0.811272258526167
0.665485076835253,-0.809729319144084
0.665926151755271,-0.808171895959559
0.667249628477791,-0.803413774103219
0.667691042408115,-0.801799466220813
0.668574560666577,-0.798529079867697
0.669902333707783,-0.793520649635091
0.671234332987564,-0.788391319787497
0.671679511361077,-0.786655166829405
0.672125364559047,-0.784906000785513
0.672571943892074,-0.783143926707012
0.673019300670754,-0.781369049645088
0.673467486205686,-0.779581474650932
0.673916551807468,-0.777781306775732
0.675722641095068,-0.770456807488265
0.678006211480502,-0.761030449698094
0.678466899833696,-0.759110130827835
0.679392661300979,-0.755235286184603
0.679857837036264,-0.753280970514008
0.680324611186776,-0.751315532679012
0.680793035063114,-0.749339077730803
0.68220871815306,-0.743344660718789
0.68316169620312,-0.739295223083177
0.683641095956974,-0.737254871530657
0.684122504610841,-0.735204238223246
0.68460597347532,-0.733143428212133
0.685091553861009,-0.731072546548506
0.685579297078506,-0.728991698283554
0.68606925443841,-0.726900988468465
0.68656147725132,-0.72480052215443
0.687056016827832,-0.722690404392636
0.687552924478547,-0.720570740234273
0.688554049244974,-0.716303192932591
0.690586973334576,-0.707658163822697
0.692140122922778,-0.701081508409508
0.692663533398418,-0.698872158100829
0.69318987636484,-0.696654416958657
0.694251565012429,-0.692194182378588
0.694787013314792,-0.689951899043068
0.695867374429645,-0.685443525537003
0.696412389863332,-0.683177645468835
0.69696069696199,-0.680904109925496
0.698067391396615,-0.676334492618055
0.699753403300797,-0.669425276872825
0.70032253791185,-0.667108014553418
0.700895323362062,-0.66478383211716
0.701471810962032,-0.662452834615241
0.702052052022359,-0.660115127098849
0.702636097853641,-0.657770814619172
0.703223999766475,-0.6554200022274
0.703815809071461,-0.653062794974721
0.70501135510028,-0.648329616091399
0.706835262349602,-0.641184512589334
0.707451593530061,-0.63879114224618
0.708072191276859,-0.636392112400439
0.709326391711868,-0.631577494405959
0.710598274139415,-0.626741499015402
0.711888249044287,-0.621884966638279
0.712540149452216,-0.619449261707728
0.71385803273205,-0.614563499618588
0.714524118225153,-0.612113652562378
0.716551565844379,-0.604737507961448
0.719324857592166,-0.594844495729227
0.720031027645391,-0.592361558590231
0.721459143465561,-0.587384798773432
0.722908635641348,-0.582394225246148
0.725873390998922,-0.572374998698168
0.728156123431198,-0.564830568342893
0.728928577596404,-0.562310602222371
0.731281288503741,-0.554736706571162
0.732879732557714,-0.549676828907539
0.735323380024264,-0.542073192591654
0.736150396124998,-0.539535382072327
0.73952216353664,-0.529370615956563
0.741246987396063,-0.524281589192249
0.742119313951268,-0.521735782562645
0.74388405286566,-0.516642108064485
0.746582145406173,-0.508998018987702
0.747495310607118,-0.50644945554565
0.748415461836113,-0.503900800314018
0.749342650403758,-0.501352158343994
0.750276927620649,-0.498803634686767
0.751218344797386,-0.496255334393526
0.75312280427279,-0.491159824103757
0.754085949192654,-0.488612824209606
0.756034325949697,-0.483520860178715
0.760020863829794,-0.473348016579864
0.761036502687895,-0.470807727741863
0.762059845922423,-0.468268817830924
0.763090944843976,-0.465731391898236
0.764129850763153,-0.463195554994988
0.768364570628065,-0.45307019870017
0.771625098221116,-0.445498013796423
0.772728307302822,-0.442978670971489
0.77495958315586,-0.437947693843226
0.779523002317185,-0.427919515106404
0.780685170472517,-0.425420119787405
0.786626456969096,-0.412974291943087
0.790297432624519,-0.405551496079833
0.792789856470388,-0.400623341708867
0.797884807525073,-0.390819717700618
0.799181782801182,-0.388380400483341
0.800488155703463,-0.385945928882356
0.803129299628933,-0.381091942734015
0.81128361073569,-0.366657204403624
0.81267687125044,-0.364271070652758
0.814080042497346,-0.361890833030071
0.815493175787004,-0.359516596586753
0.816916322430015,-0.357148466373991
0.82716303291519,-0.340751353640106
0.828668133566552,-0.338435855114595
0.831709811626085,-0.333826118188528
0.839500015684216,-0.322430695657749
0.841090354222223,-0.320174552095569
0.842691578393753,-0.317926300634155
0.844303739509405,-0.315686046324696
0.845926888879775,-0.313453894218381
0.847561077815465,-0.311229949366398
0.855899411844621,-0.300237010713072
0.861038170924223,-0.293746457849145
0.864521431596475,-0.289465011096368
0.868051108196325,-0.285221015613225
0.871627611208559,-0.281015311809228
0.878922738409328,-0.272722140876709
0.878922738409328,-0.272722140876709
0.88251923928433,-0.268630988289262
0.890654654107676,-0.258536423432645
0.896297361557733,-0.250598688358039
0.897589664506381,-0.248633509594992
0.898835062297109,-0.246676056808509
0.901186031220053,-0.242784377113879
0.913484752872611,-0.212776714007847
0.913881171387319,-0.21096833233668
0.914235128820366,-0.209167916385297
0.914816549256732,-0.205591029590531
0.915230791812212,-0.202046149520838
0.915375776894153,-0.200285741975797
0.915564853802532,-0.195052793145826
0.914600259109675,-0.183125714758289
0.914305058954725,-0.181454380577372
0.91359882999812,-0.178136232707268
0.912253248003646,-0.173220491938855
0.911729279204855,-0.171598354574493
0.911167960012104,-0.16998445863462
0.910569512629204,-0.168378816106397
0.908553623377745,-0.163611528863244
0.906211579752221,-0.158918953862744
0.90447198317823,-0.155832237159365
0.903549381255582,-0.154301414758245
0.902591873180915,-0.152778965640387
0.90057302739078,-0.149759235203097
0.898417223438328,-0.146773141744785
0.894930609522034,-0.142357280668217
0.891145838912115,-0.138017642216597
0.889819028616907,-0.136588090367241
0.887068911111519,-0.133754550043271
0.884191612411587,-0.130955174133366
0.8827058256232,-0.12956832780159
0.8714461582765,-0.120101232580153
0.869717563697301,-0.11878333840888
0.862511896851705,-0.113598611218275
0.854850834143055,-0.10855341860258
0.840390952341447,-0.100062394124496
0.838219405312722,-0.098884705809153
0.822308737246003,-0.0908897720749782
0.815121829891957,-0.0875973621648484
0.807722758719918,-0.0843858139109956
0.802675138534959,-0.0822898647129507
0.797537667396041,-0.0802300937720278
0.787000282778346,-0.0762194702507024
0.784312557325361,-0.0752395756205856
0.781603924560577,-0.0742688094648767
0.764925517837631,-0.0686365817742099
0.756322064275731,-0.0659446732934296
0.753416579602676,-0.0650658511756586
0.744590235979631,-0.0624849947700672
0.741612232250033,-0.061643285907981
0.738616654265831,-0.0608108853277186
0.735603724230838,-0.0599878050164411
0.726463043859248,-0.0575746055681287
0.723382927659224,-0.0567889262044015
0.717174194367812,-0.0552457200784787
0.707743175259481,-0.0530014722008397
0.698175986037207,-0.0508421855885603
0.68847862620394,-0.0487681838949892
0.658665518067698,-0.0430611248600119
0.655291003002171,-0.0424749471007018
0.651904913184993,-0.0418984012765643
0.64509889811093,-0.0407742533824508
0.641679417261673,-0.040226675286797
0.624426168045641,-0.0376342228090002
0.620945904635178,-0.0371449038236626
0.613957541877496,-0.0361955332604979
0.592785764784962,-0.0335824239066825
0.574932265556565,-0.0316755347581614
0.564140819621587,-0.0306501970502828
0.542407396036702,-0.0288683225245954
0.535124837497313,-0.0283543606809262
0.531477417392698,-0.0281124330134839
0.527826199669885,-0.0278805568318512
0.498506408089854,-0.0263888393272623
0.491154038279787,-0.0261172639104852
0.439635418777114,-0.0253621408343016
0.435961476838605,-0.0253854476252534
0.428619754208223,-0.0254631626503095
0.417625906436438,-0.0256576686031909
0.413967175640772,-0.0257433341135415
0.410311757748925,-0.0258394346988557
0.395727659295989,-0.0263284275329689
0.373988673379376,-0.0273770068504247
0.338241303586067,-0.0299712723755127
0.331180469312099,-0.0306179835555258
0.320652950347068,-0.0316684111409576
0.306744558186225,-0.0332194915710669
0.303291852182006,-0.0336342184351799
0.289585262423484,-0.0354013125328065
0.286185784567508,-0.0358701926533121
0.259415867519143,-0.0400134385983071
0.249587020902411,-0.0417477075965791
0.233483702252644,-0.0448582851865137
0.227144891880717,-0.0461798411637308
0.220867329147676,-0.047545726667591
0.202419903086917,-0.0519103193119154
0.193423899098111,-0.0542433605732184
0.190460447133421,-0.0550434534916362
0.1759173067184,-0.059212551240849
0.173065057943772,-0.0600801813322438
0.159097931822233,-0.0645880437908369
0.150960949687856,-0.0674289624050863
0.1482905044557,-0.0683987073893181
0.13272314986235,-0.0744571235805436
0.130206550798978,-0.0755069625402235
0.12771281857497,-0.0765682914450403
0.110915629629398,-0.0843203191641182
0.0890333126843317,-0.0963804599919291
0.0869891804209004,-0.0976506577137503
0.0790857605234173,-0.102848745484615
0.0565648231610958,-0.121046608791274
0.0550422848936562,-0.122529559170283
0.0520906957039261,-0.12553127232575
0.040395081900075,-0.139632259541157
0.0350607909480346,-0.147887868437015
0.0331680246307017,-0.151274904937942
0.0276602817662233,-0.16351286304549
0.0243655662164383,-0.174479478406075
0.0235687711150266,-0.178233329573264
