0.300946821820691,-0.941210702401055
0.998568165438214,0.211630878516524
0.743819622437915,0.940363175293879
0.218462328202907,0.921762702277963
-0.306894966032101,0.903162229262046
-0.358980012777414,0.240215851179811
0.355884462436079,-0.173952846120882
1.07074893764957,-0.588121543421575
-0.976363487348011,-0.199150700937183
0.10218719088882,0.55976035715982
