-0.106032934708157,-0.657679650927835
-0.10345538364454,-0.654110555712449
-0.100865767705674,-0.650571382796586
-0.0982642872311967,-0.6470619903058
-0.0956511425607434,-0.643582236365643
-0.0930265340339513,-0.640131979101671
-0.090390661990457,-0.636711076639435
-0.0877437267698971,-0.633319387104489
-0.0850859287119083,-0.629956768622388
-0.0824174681561272,-0.626623079318685
-0.0797385454421903,-0.623318177318933
-0.0770493609097345,-0.620041920748686
-0.0743501148983964,-0.616794167733497
-0.0716410077478125,-0.613574776398921
-0.0689222397976195,-0.610383604870509
-0.0661940113874541,-0.607220511273817
-0.0634565228569529,-0.604085353734398
-0.0607099745457526,-0.600977990377805
-0.0579545667934897,-0.597898279329591
-0.0551904999398009,-0.594846078715311
-0.052417974324323,-0.591821246660518
-0.0496371902866924,-0.588823641290766
-0.0468483481665459,-0.585853120731607
-0.0440516483035201,-0.582909543108596
-0.0412472910372517,-0.579992766547287
-0.0384354767073772,-0.577102649173232
-0.0356164056535333,-0.574239049111985
-0.0327902782153567,-0.5714018244891
-0.0299572947324841,-0.56859083343013
-0.027117655544552,-0.56580593406063
-0.024271560991197,-0.563046984506152
-0.0214192114120559,-0.56031384289225
-0.0185608071467654,-0.557606367344478
-0.0156965485349619,-0.554924415988388
-0.0128266359162822,-0.552267846949536
-0.00995126963036287,-0.549636518353474
-0.00707065001684063,-0.547030288325756
-0.00418497741535207,-0.544449014991935
-0.00129445216553385,-0.541892556477566
0.00160072539297738,-0.539360770908201
0.00450035492054503,-0.536853516409394
0.00740423607753239,-0.534370651106699
0.0103121685243028,-0.531912033125669
0.0132239519212197,-0.529477520591857
0.0161393859286464,-0.527066971630819
0.0190582702069463,-0.524680244368106
0.0219804044164827,-0.522317196929272
0.024905588217619,-0.519977687439872
0.00245515242539183,-0.53194969348299
-0.0133143061892992,-0.538881861159159
0.0531466463152718,-0.536950796488654
0.0259338309264037,-0.553247191081136
0.0749696969663021,-0.4586480850146
0.0425095134283823,-0.506426982472564
0.0454504348608918,-0.504248266144695
0.048392803167908,-0.502091952770687
0.0513364180097944,-0.499957900476095
0.0378622313692214,-0.515029583714647
0.0871962280075651,-0.512070189461343
0.101455141648883,-0.507014856904486
0.0335781732876258,-0.513793991729402
0.066066178354995,-0.489616589588733
0.0690130652737324,-0.487613124407256
0.0719597963498835,-0.485630927184069
0.0749061712438115,-0.483669856044726
0.0347667080578425,-0.47946587730355
0.0881069293098043,-0.440525053542928
0.0719330815547809,-0.457416830348403
0.0499831579822756,-0.470058636974188
0.0677774022186,-0.446120129035805
0.0925657217610437,-0.47233913200038
0.0657952623104631,-0.491729362891431
0.098440307078809,-0.468724801014775
0.0637907557637367,-0.514353495563906
0.143114063806658,-0.435029054346376
0.0763369626450229,-0.41813624928609
0.0961085227948127,-0.51001420288085
0.143032738204656,-0.486489137552193
0.141763072045699,-0.421806123768536
0.158206909933923,-0.454028252936494
0.116946528890238,-0.492354688104283
0.124745919452556,-0.453426461165357
0.09800969044842,-0.444354460958806
0.131496535932056,-0.423731428645019
0.161447356621383,-0.433054617282345
0.136342964426284,-0.447116227841739
0.139230817383235,-0.445584036312005
0.142829290651145,-0.454500865551141
0.179909944159694,-0.434301427404491
0.147863790932345,-0.441094072054472
0.187409233496531,-0.435322683132048
0.107586039080309,-0.46930008646072
0.140703807771206,-0.401604275561586
0.187499058090737,-0.409891683187818
0.156472039963204,-0.449049527521905
0.164974073515431,-0.432581121331728
0.144207409235036,-0.43272083401739
0.200280305701316,-0.456024252360924
0.173440564209029,-0.42855047364641
0.176248258754066,-0.427239434540335
0.17904838488996,-0.425944414038033
0.181840742277076,-0.424665270265055
0.184625130575777,-0.423401861346957
0.187401349446425,-0.422154045409291
0.190169198549385,-0.420921680577611
0.192928477545019,-0.419704624977471
0.195678986093691,-0.418502736734424
0.198420523855765,-0.417315873974023
0.201152890491603,-0.416143894821823
0.20387588566157,-0.414986657403377
0.206589309026028,-0.413844019844238
0.20929296024534,-0.41271584026996
0.211986638979871,-0.411601976806096
0.214670144889983,-0.410502287578201
0.21734327763604,-0.409416630711827
0.220005836878405,-0.408344864332528
0.222657622277442,-0.407286846565859
0.225298433493513,-0.406242435537371
0.227928070186983,-0.405211489372619
0.230546332018215,-0.404193866197157
0.233153018647571,-0.403189424136538
0.235747929735416,-0.402198021316315
0.238330864942113,-0.401219515862043
0.240901623928024,-0.400253765899274
0.243460006353515,-0.399300629553562
0.246005811878946,-0.398359964950461
0.248538840164683,-0.397431630215525
0.251058890871089,-0.396515483474306
0.253565763658526,-0.395611382852359
0.256059258187359,-0.394719186475237
0.25853917411795,-0.393838752468494
0.261005311110663,-0.392969938957683
0.263457468825861,-0.392112604068357
0.265895446923908,-0.391266605926071
0.268319045065167,-0.390431802656378
0.270728062910001,-0.389608052384831
0.273122300118774,-0.388795213236984
0.275501556351849,-0.38799314333839
0.277865631269589,-0.387201700814604
0.280214324532358,-0.386420743791178
0.28254743580052,-0.385650130393667
0.284864764734437,-0.384889718747623
0.287166110994472,-0.384139366978601
0.28945127424099,-0.383398933212153
0.291720054134354,-0.382668275573834
0.293972250334926,-0.381947252189197
0.296207662503071,-0.381235721183796
0.298426090299151,-0.380533540683183
0.30062733338353,-0.379840568812914
0.302811191416572,-0.37915666369854
0.304977464058639,-0.378481683465617
0.307125950970096,-0.377815486239697
0.309256451811305,-0.377157930146333
0.311368766242629,-0.376508873311081
0.313462693924433,-0.375868173859492
0.31553803451708,-0.375235689917121
0.317594587680932,-0.374611279609521
0.319632153076353,-0.373994801062246
0.321650530363707,-0.37338611240085
0.323649519203357,-0.372785071750885
0.325628919255666,-0.372191537237905
0.327588530180998,-0.371605366987465
0.329528151639716,-0.371026419125117
0.331447583292183,-0.370454551776415
0.333346624798763,-0.369889623066913
0.335225075819819,-0.369331491122164
0.337082736015714,-0.368780014067722
0.338919405046812,-0.36823505002914
0.340734882573477,-0.367696457131972
0.342528968256071,-0.367164093501772
0.344301461754957,-0.366637817264093
0.3460521627305,-0.366117486544488
0.347780870843063,-0.365602959468511
0.349487385753008,-0.365094094161717
0.3511715071207,-0.364590748749657
0.352833034606502,-0.364092781357886
0.354471767870776,-0.363600050111958
0.356087506573887,-0.363112413137426
0.357680050376197,-0.362629728559843
0.359249198938071,-0.362151854504763
0.360794751919871,-0.36167864909774
0.362316508981961,-0.361209970464327
0.363814269784704,-0.360745676730078
0.365287833988463,-0.360285626020546
0.366737001253603,-0.359829676461285
0.368161571240485,-0.359377686177849
0.369561343609475,-0.35892951329579
0.370936118020934,-0.358485015940663
0.372285694135226,-0.358044052238022
0.373609871612715,-0.357606480313419
0.374908450113764,-0.357172158292408
0.376181229298737,-0.356740944300543
0.377428008827996,-0.356312696463377
0.378648588361906,-0.355887272906465
0.379842767560828,-0.355464531755358
0.381010346085128,-0.355044331135612
0.382151123595168,-0.35462652917278
0.383264899751311,-0.354210983992415
0.384351474213921,-0.35379755372007
0.385410646643361,-0.3533860964813
0.386442216699995,-0.352976470401657
0.387445984044186,-0.352568533606696
0.388421748336297,-0.35216214422197
0.389369309236692,-0.351757160373033
0.390288466405734,-0.351353440185437
0.391179019503786,-0.350950841784738
0.392040768191212,-0.350549223296487
0.392873512128376,-0.35014844284624
0.393677050975639,-0.349748358559548
0.394451184393366,-0.349348828561967
0.395195712041921,-0.348949710979049
0.395910433581666,-0.348550863936348
0.396595148672965,-0.348152145559418
0.397249656976181,-0.347753413973811
0.397873758151678,-0.347354527305083
0.398467251859819,-0.346955343678786
0.399029937760967,-0.346555721220474
0.399561615515486,-0.3461555180557
0.400062084783738,-0.345754592310017
0.400531145226088,-0.345352802108981
0.400968596502899,-0.344950005578144
0.401374238274534,-0.344546060843059
0.401747870201357,-0.34414082602928
0.40208929194373,-0.343734159262361
0.402398303162017,-0.343325918667856
0.402674703516582,-0.342915962371317
0.402918292667788,-0.342504148498299
0.403128870275998,-0.342090335174355
0.403306236001576,-0.341674380525038
0.403450189504885,-0.341256142675903
0.403560530446288,-0.340835479752502
0.403637058486148,-0.34041224988039
0.40367957328483,-0.339986311185119
0.403687874502696,-0.339557521792243
0.40366176180011,-0.339125739827317
0.403601034837435,-0.338690823415893
0.403505493275034,-0.338252630683525
0.403374936773272,-0.337811019755767
0.40320916499251,-0.337365848758172
0.403007977593113,-0.336916975816293
0.402771174235444,-0.336464259055685
0.402498554579866,-0.336007556601901
0.402189918286743,-0.335546726580494
0.401845065016437,-0.335081627117018
0.401463794429313,-0.334612116337027
0.401045906185734,-0.334138052366074
0.400591199946063,-0.333659293329712
0.400099475370663,-0.333175697353496
0.399570532119898,-0.332687122562978
0.399004169854131,-0.332193427083713
0.398400188233725,-0.331694469041254
0.397758386919045,-0.331190106561154
0.397078565570452,-0.330680197768967
0.396360523848311,-0.330164600790247
0.395604061412985,-0.329643173750547
0.394808977924837,-0.329115774775421
0.393975073044231,-0.328582261990421
0.39310214643153,-0.328042493521103
0.392189997747097,-0.327496327493019
0.391238426651296,-0.326943622031723
0.39024723280449,-0.326384235262769
0.389216215867042,-0.325818025311709
0.388145175499316,-0.325244850304099
0.387033911361675,-0.32466456836549
0.385882223114483,-0.324077037621437
0.384689910418102,-0.323482116197494
0.383456772932897,-0.322879662219213
0.38218261031923,-0.322269533812149
0.380867222237465,-0.321651589101855
0.379510408347965,-0.321025686213884
0.378111968311094,-0.320391683273791
0.376671701787215,-0.319749438407128
0.375189408436691,-0.319098809739449
0.373664887919886,-0.318439655396308
0.372097939897164,-0.317771833503259
0.370488364028886,-0.317095202185855
0.368835959975417,-0.316409619569648
0.367140527397121,-0.315714943780194
0.365401865954359,-0.315011032943046
0.363619775307497,-0.314297745183757
0.361794055116897,-0.31357493862788
0.359924505042922,-0.31284247140097
0.358010924745937,-0.31210020162858
0.356053113886303,-0.311347987436263
0.354050872124386,-0.310585686949573
0.352003999120547,-0.309813158294063
0.34991229453515,-0.309030259595288
0.34777555802856,-0.3082368489788
0.345593589261138,-0.307432784570154
0.343366187893249,-0.306617924494902
0.341093153585255,-0.305792126878599
0.338774285997521,-0.304955249846797
0.336409384790409,-0.304107151525051
0.333998249624283,-0.303247690038914
0.331540680159506,-0.30237672351394
0.329036476056442,-0.301494110075681
0.326485436975454,-0.300599707849693
0.323887362576905,-0.299693374961527
0.321242052521158,-0.298774969536739
0.318549306468578,-0.297844349700881
0.315808924079527,-0.296901373579507
0.313020705014368,-0.29594589929817
0.310184448933466,-0.294977784982424
0.307299955497183,-0.293996888757823
0.304367024365883,-0.29300306874992
0.301385455199929,-0.291996183084269
0.298355047659685,-0.290976089886423
0.295275601405513,-0.289942647281936
0.292146916097778,-0.288895713396362
0.288968791396842,-0.287835146355253
0.285741026963069,-0.286760804284165
0.282463422456822,-0.285672545308649
0.279135777538465,-0.28457022755426
0.275757891868361,-0.283453709146551
0.272329565106874,-0.282322848211075
0.268850596914366,-0.281177502873388
0.265320786951201,-0.280017531259041
0.261739934877743,-0.278842791493588
0.258107840354354,-0.277653141702584
0.254424303041399,-0.276448440011581
0.25068912259924,-0.275228544546134
0.24690209868824,-0.273993313431795
0.243063030968765,-0.272742604794118
0.239171719101175,-0.271476276758657
0.235227962745836,-0.270194187450966
0.23123156156311,-0.268896194996597
0.22718231521336,-0.267582157521106
0.223080023356951,-0.266251933150044
0.218924485654245,-0.264905380008966
0.214715501765605,-0.263542356223425
0.210452871351396,-0.262162719918974
0.20613639407198,-0.260766329221168
0.201765869587721,-0.259353042255561
0.197341097558982,-0.257922717147704
0.192861877646127,-0.256475212023152
0.188328009509518,-0.255010385007459
0.18373929280952,-0.253528094226179
0.179095527206495,-0.252028197804864
0.174396512360807,-0.250510553869068
0.16964204793282,-0.248975020544345
0.164831933582896,-0.247421455956248
0.159965968971399,-0.245849718230331
0.155043953758693,-0.244259665492148
0.15006568760514,-0.242651155867252
0.145030970171104,-0.241024047481196
0.139939601116949,-0.239378198459535
0.134791380103038,-0.237713466927821
0.129586106789733,-0.236029711011608
0.1243235808374,-0.234326788836451
0.1190036019064,-0.232604558527902
0.113625969657097,-0.230862878211515
0.108190483749855,-0.229101606012843
0.102696943845037,-0.227320600057441
0.0971451496030061,-0.225519718470861
0.0915349006841261,-0.223698819378657
0.0858659967487598,-0.221857760906383
0.0801382374572711,-0.219996401179593
0.074351422470023,-0.218114598323839
0.0685053514473791,-0.216212210464676
0.0625998240497025,-0.214289095727657
0.056634639937357,-0.212345112238336
0.0506095987707053,-0.210380118122266
0.0445245002101114,-0.208393971505
0.0383791439159382,-0.206386530512093
0.0321733295485494,-0.204357653269097
0.0259068567683079,-0.202307197901567
0.0195795252355777,-0.200235022535056
0.0131911346107215,-0.198140985295117
0.00674148455410327,-0.196024944307305
0.000230374726085739,-0.193886757697172
-0.00634239521296704,-0.191726283590272
-0.0129770256026925,-0.189543380112159
-0.0196737167827265,-0.187337905388386
-0.0264326690927063,-0.185109717544508
-0.033254082872268,-0.182858674706076
-0.0401381584610489,-0.180584634998646
-0.0470850961986849,-0.17828745654777
-0.0540950964248134,-0.175966997479002
-0.0611683594790703,-0.173623115917897
-0.0683050857010929,-0.171255669990006
-0.0755054754305173,-0.168864517820884
-0.0827697290069807,-0.166449517536084
-0.090098046770119,-0.164010527261161
-0.0974906290595697,-0.161547405121667
-0.104947676214969,-0.159060009243156
-0.112469388575953,-0.156548197751181
-0.120055966482159,-0.154011828771297
-0.127707610273224,-0.151450760429056
-0.135424520288784,-0.148864850850013
-0.143206896868476,-0.14625395815972
-0.151054940351936,-0.143617940483732
-0.158968851078802,-0.140956655947602
-0.166948829388709,-0.138269962676884
-0.174995075621294,-0.13555771879713
-0.183107790116195,-0.132819782433896
-0.191287173213047,-0.130056011712733
-0.199533425251488,-0.127266264759196
-0.207846746571153,-0.124450399698839
-0.21622733751168,-0.121608274657215
-0.224675398412706,-0.118739747759876
-0.224675398412706,-0.118739747759876
-0.233095871364857,-0.115883040909052
-0.241393934648422,-0.113076262327104
-0.249570142887532,-0.110319099619791
-0.257625050706314,-0.107611240392871
-0.2655592127289,-0.104952372252104
-0.273373183579418,-0.102342182803246
-0.281067517881997,-0.0997803596520572
-0.288642770260767,-0.0972665904042949
-0.296099495339858,-0.0948005626657176
-0.303438247743398,-0.0923819640420838
-0.310659582095517,-0.0900104821391517
-0.317764053020345,-0.0876858045626799
-0.32475221514201,-0.0854076189184264
-0.331624623084643,-0.0831756128121497
-0.338381831472373,-0.0809894738496081
-0.345024394929329,-0.0788488896365599
-0.35155286807964,-0.0767535477787636
-0.357967805547436,-0.0747031358819773
-0.364269761956846,-0.0726973415519594
-0.370459291932,-0.0707358523944684
-0.376536950097027,-0.0688183560152625
-0.382503291076056,-0.0669445400201
-0.388358869493217,-0.0651140920147393
-0.39410423997264,-0.0633266996049388
-0.399739957138453,-0.0615820503964567
-0.405266575614786,-0.0598798319950513
-0.410684650025768,-0.0582197320064811
-0.415994734995529,-0.0566014380365043
-0.421197385148198,-0.0550246376908794
-0.426293155107905,-0.0534890185753645
-0.431282599498779,-0.0519942682957181
-0.436166272944949,-0.0505400744576985
-0.440944730070545,-0.0491261246670641
-0.445618525499696,-0.047752106529573
-0.450188213856532,-0.0464177076509838
-0.454654349765182,-0.0451226156370547
-0.459017487849774,-0.0438665180935441
-0.46327818273444,-0.0426491026262103
-0.467436989043307,-0.0414700568408116
-0.471494461400507,-0.0403290683431063
-0.475451154430167,-0.0392258247388529
-0.479307622756417,-0.0381600136338096
-0.483064421003387,-0.0371313226337347
-0.486722103795206,-0.0361394393443867
-0.490281225756004,-0.0351840513715238
-0.493742341509909,-0.0342648463209044
-0.497106005681052,-0.0333815117982868
-0.500372772893561,-0.0325337354094293
-0.503543197771566,-0.0317212047600903
-0.506617834939197,-0.0309436074560281
-0.509597239020582,-0.0302006311030011
-0.512481964639852,-0.0294919633067675
-0.515272566421136,-0.0288172916730857
-0.517969598988562,-0.0281763038077141
-0.520573616966261,-0.0275686873164109
-0.523085174978361,-0.0269941298049346
-0.525504827648993,-0.0264523188790434
-0.527833129602285,-0.0259429421444957
-0.530070635462367,-0.0254656872070498
-0.532217899853369,-0.0250202416724641
-0.534275477399419,-0.0246062931464969
-0.536243922724647,-0.0242235292349065
-0.538123790453183,-0.0238716375434512
-0.539915635209156,-0.0235503056778894
-0.541620011616695,-0.0232592212439794
-0.54323747429993,-0.0229980718474796
-0.54476857788299,-0.0227665450941483
-0.546213876990005,-0.0225643285897438
-0.547573926245103,-0.0223911099400245
-0.548849280272415,-0.0222465767507486
-0.550040493696069,-0.0221304166276746
-0.551148121140195,-0.0220423171765608
-0.552172717228923,-0.0219819660031654
-0.553114836586382,-0.0219490507132469
-0.553975033836701,-0.0219432589125635
-0.554753863604009,-0.0219642782068736
-0.555451880512437,-0.0220117962019356
-0.556069639186113,-0.0220855005035078
-0.556607694249167,-0.0221850787173484
-0.557066600325728,-0.0223102184492159
-0.557446912039925,-0.0224606073048685
-0.557749184015889,-0.0226359328900647
-0.557973970877748,-0.0228358828105626
-0.558121827249632,-0.0230601446721208
-0.55819330775567,-0.0233084060804975
-0.558188967019991,-0.023580354641451
-0.558109359666725,-0.0238756779607397
-0.557955040320002,-0.0241940636441219
-0.557726563603951,-0.0245351992973559
-0.5574244841427,-0.0248987725262001
-0.557049356560381,-0.0252844709364128
-0.556601735481121,-0.0256919821337524
-0.55608217552905,-0.0261209937239772
-0.555491231328298,-0.0265711933128454
-0.554829457502995,-0.0270422685061155
-0.554097408677268,-0.0275339069095459
-0.553295639475249,-0.0280457961288947
-0.552424704521066,-0.0285776237699204
-0.551485158438848,-0.0291290774383812
-0.550477555852726,-0.0296998447400356
-0.549402451386828,-0.0302896132806419
-0.548260399665284,-0.0308980706659583
-0.547051955312223,-0.0315249045017432
-0.545777672951775,-0.032169802393755
-0.544438107208069,-0.032832451947752
-0.543033812705234,-0.0335125407694926
-0.5415653440674,-0.034209756464735
-0.540033255918696,-0.0349237866392375
-0.538438102883252,-0.0356543188987586
-0.536780439585196,-0.0364010408490566
-0.535060820648659,-0.0371636400958898
-0.53327980069777,-0.0379418042450165
-0.531437934356659,-0.0387352209021951
-0.529535776249453,-0.0395435776731838
-0.527573881000284,-0.0403665621637411
-0.52555280323328,-0.0412038619796253
-0.523473097572571,-0.0420551647265947
-0.521335318642285,-0.0429201580104076
-0.519140021066554,-0.0437985294368224
-0.516887759469505,-0.0446899666115974
-0.514579088475269,-0.0455941571404909
-0.512214562707974,-0.0465107886292613
-0.50979473679175,-0.047439548683667
-0.507320165350727,-0.0483801249094661
-0.504791403009034,-0.0493322049124172
-0.5022090043908,-0.0502954762982784
-0.499573524120154,-0.0512696266728082
-0.496885516821227,-0.0522543436417649
-0.494145537118148,-0.0532493148109068
-0.491354139635044,-0.0542542277859922
-0.488511878996048,-0.0552687701727795
-0.485619309825286,-0.0562926295770271
-0.482676986746891,-0.0573254936044932
-0.479685464384989,-0.0583670498609361
-0.476645297363711,-0.0594169859521143
-0.473557040307186,-0.0604749894837861
-0.470421247839544,-0.0615407480617097
-0.467238474584914,-0.0626139492916436
-0.464009275167425,-0.063694280779346
-0.460734204211207,-0.0647814301305753
-0.45741381634039,-0.0658750849510898
-0.454048666179102,-0.0669749328466479
-0.450639308351472,-0.0680806614230079
-0.447186297481631,-0.0691919582859281
-0.443690188193708,-0.0703085110411669
-0.440151535111832,-0.0714300072944826
-0.436570892860132,-0.0725561346516335
-0.432948816062739,-0.073686580718378
-0.42928585934378,-0.0748210331004743
-0.425582577327387,-0.0759591794036809
-0.421839524637687,-0.0771007072337561
-0.418057255898811,-0.0782453041964581
-0.414236325734888,-0.0793926578975455
-0.410377288770047,-0.0805424559427763
-0.406480699628418,-0.0816943859379091
-0.402547112934129,-0.0828481354887022
-0.398577083311312,-0.0840033922009137
-0.394571165384094,-0.0851598436803023
-0.390529913776605,-0.086317177532626
-0.386453883112975,-0.0874750813636433
-0.382343628017333,-0.0886332427791126
-0.378199703113808,-0.089791349384792
-0.37402266302653,-0.0909490887864401
-0.369813062379629,-0.0921061485898151
-0.365571455797233,-0.0932622164006753
-0.361298397903472,-0.0944169798247791
-0.356994443322475,-0.0955701264678848
-0.352660146678372,-0.0967213439357508
-0.348296062595292,-0.0978703198341353
-0.343902745697365,-0.0990167417687968
-0.33948075060872,-0.100160297345494
-0.335030631953486,-0.101300674169984
-0.330552944355793,-0.102437559848026
-0.32604824243977,-0.103570641985379
-0.321517080829546,-0.1046996081878
-0.316960014149251,-0.105824146061048
-0.312377597023015,-0.106943943210881
-0.307770384074966,-0.108058687243058
-0.303138929929235,-0.109168065763337
-0.29848378920995,-0.110271766377476
-0.293805516541241,-0.111369476691233
-0.289104666547237,-0.112460884310368
-0.284381793852067,-0.113545676840638
-0.279637453079862,-0.114623541887801
-0.27487219885475,-0.115694167057616
-0.270086585800861,-0.116757239955842
-0.265281168542325,-0.117812448188236
-0.26045650170327,-0.118859479360557
-0.255613139907826,-0.119898021078564
-0.250751637780122,-0.120927760948014
-0.245872549944288,-0.121948386574666
-0.240976431024453,-0.122959585564278
-0.236063835644747,-0.123961045522609
-0.231135318429299,-0.124952454055417
-0.226191434002238,-0.12593349876846
-0.221232736987694,-0.126903867267497
-0.216259782009797,-0.127863247158285
-0.211273123692674,-0.128811326046584
-0.206273316660457,-0.129747791538152
-0.201260915537274,-0.130672331238746
-0.196236474947255,-0.131584632754126
-0.191200549514528,-0.132484383690049
-0.186153693863225,-0.133371271652274
-0.181096462617473,-0.13424498424656
-0.176029410401403,-0.135105209078664
-0.170953091839143,-0.135951633754345
-0.165868061554823,-0.136783945879362
-0.160774874172573,-0.137601833059472
-0.155674084316522,-0.138404982900434
-0.150566246610799,-0.139193083008006
-0.145451915679533,-0.139965820987947
-0.140331646146855,-0.140722884446015
-0.135205992636893,-0.141463960987968
-0.130075509773777,-0.142188738219565
-0.124940752181636,-0.142896903746564
-0.1198022744846,-0.143588145174723
-0.114660631306798,-0.144262150109801
-0.109516377272359,-0.144918606157555
-0.104370067005413,-0.145557200923745
-0.0992222551300893,-0.146177622014129
-0.0940734962705169,-0.146779557034464
-0.0889243450508258,-0.14736269359051
-0.0837753560951448,-0.147926719288025
-0.0786270840276038,-0.148471321732766
-0.0734800834723318,-0.148996188530493
-0.0683349090534585,-0.149501007286963
-0.0631921153951129,-0.149985465607936
-0.0580522571214249,-0.150449251099168
-0.0529158888565233,-0.15089205136642
-0.0477835652245381,-0.151313554015448
-0.0426558408495982,-0.151713446652012
-0.0375332703558334,-0.152091416881869
-0.0324164083673728,-0.152447152310778
-0.027305809508346,-0.152780340544498
-0.022202028402882,-0.153090669188786
-0.0171056196751108,-0.153377825849401
-0.0120171379491613,-0.153641498132101
-0.00693713784916311,-0.153881373642645
-0.00186617399924544,-0.154097139986792
0.003195198976462,-0.154288484770298
0.00824642645383017,-0.154455095598923
0.0132869538087293,-0.154596660078425
0.0183162264170304,-0.154712865814562
0.0233336896546037,-0.154803400413093
0.0283387888973202,-0.154867951479776
0.0333309695210501,-0.15490620662037
0.0383096769016644,-0.154917853440632
0.0432743564150333,-0.154902579546321
0.0482244534370278,-0.154860072543195
0.0531594133435181,-0.154790020037013
0.0580786815103754,-0.154692109633533
0.0629817033134696,-0.154566028938513
0.0678679241286719,-0.154411465557712
0.0727367893318524,-0.154228107096888
0.0775877442988822,-0.154015641161799
0.0824202344056315,-0.153773755358204
0.0872337050279713,-0.153502137291861
0.0920276015417717,-0.153200474568529
0.0968013693229038,-0.152868454793965
0.101554453747238,-0.152505765573928
0.106286300190645,-0.152112094514176
0.110996354028995,-0.151687129220468
0.115684060638159,-0.151230557298562
0.120348865394007,-0.150742066354216
0.124990213672411,-0.150221343993189
0.129607550849241,-0.149668077821239
0.134200322300367,-0.149081955444124
0.138767973401659,-0.148462664467603
0.14330994952899,-0.147809892497434
0.147825696058228,-0.147123327139376
0.152314658365245,-0.146402655999186
0.156776281825912,-0.145647566682623
0.161210011816099,-0.144857746795445
0.165615293711676,-0.144032883943411
0.169991572888515,-0.143172665732279
0.174338294722485,-0.142276779767808
0.178654904589458,-0.141344913655755
0.182940847865303,-0.140376755001879
0.187195569925893,-0.139371991411938
0.191418516147096,-0.138330310491691
0.195609131904785,-0.137251399846897
0.199766862574829,-0.136134947083312
0.203891153533099,-0.134980639806696
0.207981450155465,-0.133788165622808
0.212037197817799,-0.132557212137404
0.216057841895971,-0.131287466956245
0.220042827765852,-0.129978617685087
0.223991600803311,-0.12863035192969
0.22790360638422,-0.127242357295811
0.23177828988445,-0.12581432138921
0.23561509667987,-0.124345931815643
0.239413472146352,-0.122836876180871
0.243172861659766,-0.12128684209065
0.246892710595983,-0.11969551715074
0.250572464330873,-0.118062588966899
0.254211568240307,-0.116387745144884
0.257809467700156,-0.114670673290455
0.26136560808629,-0.11291106100937
0.264879434774579,-0.111108595907387
0.268350393140895,-0.109262965590264
0.271777928561108,-0.10737385766376
0.275161486411089,-0.105440959733633
0.278500512066708,-0.103463959405641
0.281794450903835,-0.101442544285543
0.285042748298343,-0.0993764019790967
0.2882448496261,-0.0972652200920611
0.291400200262977,-0.0951086862301941
0.294508245584846,-0.0929064879992543
0.297568430967577,-0.0906583130049997
0.300580201787041,-0.088363848853189
0.303543003419107,-0.0860227831495802
0.306456281239647,-0.0836348034999319
0.309319480624531,-0.0811995975100022
0.312132046949631,-0.0787168527855497
0.314893425590815,-0.0761862569323324
0.317603061923956,-0.073607497556109
0.320260401324924,-0.0709802622626375
0.322864889169589,-0.0683042386576765
0.325415970833822,-0.0655791143469842
0.327913091693493,-0.0628045769363189
0.330355697124473,-0.059980314031439
0.332743232502633,-0.057106013238103
0.335075143203844,-0.0541813621620688
0.337350874603976,-0.0512060484090952
0.339569872078899,-0.0481797595849402
0.341731581004484,-0.0451021832953623
0.343835446756602,-0.0419730071461198
0.345880914711123,-0.0387919187429711
0.347867430243919,-0.0355586056916743
0.349794438730859,-0.0322727555979881
0.351661385547814,-0.0289340560676704
0.353467716070655,-0.02554219470648
0.355212875675253,-0.0220968591201748
0.356896309737478,-0.0185977369145135
0.3585174636332,-0.0150445156952542
0.36007578273829,-0.0114368830681554
0.36157071242862,-0.00777452663897512
0.363001698080058,-0.00405713401347218
0.364368185068477,-0.000284392797404373
0.365669618769747,0.00354400940346944
0.366905444559738,0.00742838498339138
0.36807510781432,0.0113690463366027
0.369178053909365,0.0153663058573455
0.370213728220744,0.019420475939861
0.371181576124326,0.0235318689783913
0.372081042995982,0.0277007973671776
0.372911574211583,0.0319275735004621
0.373672615147,0.0362125097724859
0.374363611178103,0.0405559185774913
0.374984007680763,0.0449581123097193
0.37553325003085,0.0494194033634121
0.376010783604235,0.0539401041328109
0.376416053776789,0.0585205270121579
0.376748505924381,0.0631609843956941
0.377007585422884,0.0678617886776619
0.377192737648167,0.0726232522523024
0.377303407976101,0.0774456875138577
0.377339041782557,0.082329406856569
0.377299084443404,0.0872747226746784
0.377182981334515,0.0922819473624272
0.376990177831759,0.0973513933140574
0.376720119311007,0.10248337292381
0.37637225114813,0.107678198585928
0.375946018718998,0.112936182694652
0.375440867399482,0.118257637644224
0.374856242565452,0.123642875828885
0.374191589592779,0.129092209642877
0.373446353857335,0.134605951480443
0.372619980734988,0.140184413735823
0.37171191560161,0.145827908803259
0.370721603833072,0.151536749076993
0.369648490805244,0.157311246951267
0.368492021893996,0.163151714820322
0.3672516424752,0.169058465078399
0.365926797924726,0.175031810119742
0.364516933618445,0.18107206233859
0.363021494932226,0.187179534129187
0.361439927241942,0.193354537885773
0.359771675923461,0.19959738600259
0.358016186352656,0.20590839087388
0.356172903905396,0.212287864893885
0.354241273957552,0.218736120456846
0.352220741884996,0.225253469957005
0.350110753063596,0.231840225788603
0.347910752869225,0.238496700345883
0.345620186677752,0.245223206023085
0.343238499865048,0.252020055214452
0.340765137806985,0.258887560314225
0.338199545879431,0.265826033716646
0.335541169458259,0.272835787815957
0.332789453919338,0.279917135006399
0.32994384463854,0.287070387682213
0.327003786991734,0.294295858237643
0.323968726354792,0.301593859066928
0.320838108103584,0.308964702564312
0.317611377613981,0.316408701124034
0.314287980261853,0.323926167140339
0.310867361423071,0.331517413007465
0.307348966473505,0.339182751119657
0.307348966473505,0.339182751119657
0.303799437262858,0.346825492792765
0.300285733257834,0.354349151061692
0.296807776259813,0.361754340899254
0.293365488070172,0.369041677278268
0.289958790490291,0.37621177517155
0.286587605321546,0.383265249551917
0.283251854365317,0.390202715392186
0.279951459422981,0.397024787665173
0.276686342295918,0.403732081343694
0.273456424785504,0.410325211400566
0.270261628693118,0.416804792808607
0.267101875820139,0.423171440540631
0.263977087967944,0.429425769569456
0.260887186937913,0.435568394867899
0.257832094531422,0.441599931408776
0.254811732549851,0.447520994164903
0.251826022794577,0.453332198109097
0.248874887066979,0.459034158214175
0.245958247168435,0.464627489452953
0.243076024900324,0.470112806798248
0.240228142064022,0.475490725222876
0.23741452046091,0.480761859699654
0.234635081892364,0.485926825201398
0.231889748159763,0.490986236700926
0.229178441064486,0.495940709171053
0.226501082407911,0.500790857584596
0.223857593991415,0.505537296914371
0.221247897616377,0.510180642133196
0.218671915084175,0.514721508213887
0.216129568196188,0.51916051012926
0.213620778753794,0.523498262852132
0.21114546855837,0.527735381355319
0.208703559411296,0.531872480611639
0.206294973113949,0.535910175593907
0.203919631467707,0.53984908127494
0.201577456273949,0.543689812627555
0.199268369334054,0.547432984624568
0.196992292449398,0.551079212238795
0.194749147421361,0.554629110443055
0.192538856051321,0.558083294210162
0.190361340140656,0.561442378512934
0.188216521490744,0.564706978324186
0.186104321902963,0.567877708616736
0.184024663178692,0.570955184363401
0.181977467119308,0.573940020536996
0.179962655526191,0.576832832110338
0.177980150200718,0.579634234056245
0.176029872944267,0.582344841347531
0.174111745558217,0.584965268957015
0.172225689843946,0.587496131857512
0.170371627602832,0.589938045021839
0.168549480636253,0.592291623422813
0.166759170745589,0.59455748203325
0.165000619732215,0.596736235825967
0.163273749397512,0.59882849977378
0.161578481542858,0.600834888849506
0.159914737969629,0.602756018025962
0.158282440479206,0.604592502275963
0.156681510872965,0.606344956572327
0.155111870952286,0.60801399588787
0.153573442518546,0.609600235195409
0.152066147373123,0.611104289467759
0.150589907317396,0.612526773677739
0.149144644152744,0.613868302798164
0.147730279680543,0.615129491801851
0.146346735702174,0.616310955661617
0.144993934019012,0.617413309350277
0.143671796432438,0.618437167840649
0.142380244743829,0.619383146105549
0.141119200754564,0.620251859117794
0.13988858626602,0.6210439218502
0.138688323079575,0.621759949275584
0.137518332996609,0.622400556366762
0.1363785378185,0.622966358096551
0.135268859346624,0.623457969437768
0.134189219382362,0.623876005363228
0.13313953972709,0.62422108084575
0.132119742182188,0.624493810858148
0.131129748549033,0.62469481037324
0.130169480629003,0.624824694363843
0.129238860223478,0.624884077802772
0.128337809133834,0.624873575662845
0.127466249161451,0.624793802916877
0.126624102107707,0.624645374537687
0.125811289773979,0.624428905498089
0.125027733961646,0.624145010770901
0.124273356472086,0.623794305328939
0.123548079106678,0.62337740414502
0.122851823666799,0.62289492219196
0.122184511953828,0.622347474442576
0.121546065769144,0.621735675869684
0.120936406914123,0.621060141446102
0.120355457190145,0.620321486144645
0.119803138398588,0.61952032493813
0.11927937234083,0.618657272799374
0.118784080818249,0.617732944701193
0.118317185632224,0.616747955616403
0.117878608584132,0.615702920517822
0.117468271475352,0.614598454378266
0.117086096107262,0.613435172170552
0.11673200428124,0.612213688867495
0.116405917798665,0.610934619441913
0.116107758460915,0.609598578866622
0.115837448069368,0.608206182114439
0.115594908425402,0.606758044158181
0.115380061330395,0.605254779970662
0.115192828585726,0.603697004524702
0.115033131992773,0.602085332793115
0.114900893352914,0.600420379748719
0.114796034467527,0.59870276036433
0.114718477137991,0.596933089612764
0.114668143165684,0.595111982466838
0.114644954351983,0.59324005389937
0.114648832498268,0.591317918883174
0.114679699405917,0.589346192391069
0.114737476876307,0.587325489395869
0.114822086710817,0.585256424870393
0.114933450710825,0.583139613787456
0.115071490677709,0.580975671119876
0.115236128412848,0.578765211840468
0.115427285717619,0.576508850922049
0.115644884393402,0.574207203337436
0.115888846241574,0.571860884059445
0.116159093063513,0.569470508060893
0.116455546660599,0.567036690314597
0.116778128834208,0.564560045793372
0.117126761385719,0.562041189470036
0.11750136611651,0.559480736317406
0.11790186482796,0.556879301308297
0.118328179321447,0.554237499415526
0.118780231398349,0.551555945611909
0.119257942860044,0.548835254870265
0.11976123550791,0.546076042163408
0.120290031143327,0.543278922464155
0.120844251567671,0.540444510745324
0.121423818582321,0.53757342197973
0.122028653988656,0.53466627114019
0.122658679588053,0.531723673199521
0.123313817181891,0.52874624313054
0.123993988571548,0.525734595906062
0.124699115558402,0.522689346498904
0.125429119943832,0.519611109881883
0.126183923529216,0.516500501027816
0.126963448115931,0.513358134909519
0.127767615505357,0.510184626499809
0.128596347498871,0.506980590771501
0.129449565897851,0.503746642697414
0.130327192503676,0.500483397250363
0.131229149117725,0.497191469403164
0.132155357541375,0.493871474128635
0.133105739576004,0.490524026399592
0.13408021702299,0.487149741188851
0.135078711683713,0.48374923346923
0.13610114535955,0.480323118213544
0.13714743985188,0.47687201039461
0.138217516962079,0.473396524985245
0.139311298491528,0.469897276958266
0.140428706241604,0.466374881286488
0.141569662013685,0.462829952942728
0.14273408760915,0.459263106899804
0.143921904829376,0.455674958130532
0.145133035475742,0.452066121607727
0.146367401349627,0.448437212304207
0.147624924252407,0.444788845192788
0.148905525985463,0.441121635246287
0.150209128350171,0.437436197437521
0.15153565314791,0.433733146739305
0.152885022180059,0.430013098124456
0.154257157247995,0.426276666565792
0.155651980153097,0.422524467036129
0.157069412696743,0.418757114508282
0.158509376680311,0.414975223955069
0.159971793905179,0.411179410349307
0.161456586172726,0.407370288663811
0.16296367528433,0.403548473871398
0.164492983041369,0.399714580944886
0.166044431245221,0.39586922485709
0.167617941697265,0.392013020580827
0.169213436198878,0.388146583088914
0.17083083655144,0.384270527354167
0.172470064556327,0.380385468349402
0.174131042014919,0.376492021047437
0.175813690728594,0.372590800421088
0.17751793249873,0.368682421443171
0.179243689126704,0.364767499086503
0.180990882413896,0.360846648323901
0.182759434161683,0.35692048412818
0.184549266171445,0.352989621472159
0.186360300244558,0.349054675328652
0.188192458182401,0.345116260670477
0.190045661786353,0.341174992470451
0.191919832857791,0.33723148570139
0.193814893198095,0.33328635533611
0.195730764608641,0.329340216347427
0.197667368890809,0.32539368370816
0.199624627845976,0.321447372391123
0.201602463275521,0.317501897369135
0.203600796980822,0.31355787361501
0.205619550763257,0.309615916101566
0.207658646424205,0.30567663980162
0.209718005765043,0.301740659687987
0.21179755058715,0.297808590733485
0.213897202691905,0.29388104791093
0.216016883880684,0.289958646193139
0.218156515954867,0.286042000552928
0.220316020715832,0.282131725963113
0.222495319964957,0.278228437396511
0.22469433550362,0.27433274982594
0.2269129891332,0.270445278224215
0.229151202655074,0.266566637564153
0.231408897870621,0.26269744281857
0.23368599658122,0.258838308960283
0.235982420588247,0.254989850962109
0.238298091693082,0.251152683796864
0.240632931697103,0.247327422437365
0.242986862401688,0.243514681856428
0.245359805608215,0.23971507702687
0.247751683118063,0.235929222921508
0.250162416732609,0.232157734513157
0.252591928253232,0.228401226774635
0.255040139481311,0.224660314678758
0.257506972218222,0.220935613198342
0.259992348265346,0.217227737306205
0.262496189424059,0.213537301975163
0.26501841749574,0.209864922178031
0.267558954281767,0.206211212887628
0.270117721583519,0.202576789076769
0.272694641202373,0.198962265718271
0.275289634939709,0.195368257784951
0.277902624596903,0.191795380249625
0.280533531975335,0.188244248085109
0.283182278876382,0.184715476264221
0.285848787101423,0.181209679759777
0.288532978451837,0.177727473544593
0.291234774729,0.174269472591485
0.293954097734292,0.170836291873272
0.296690869269091,0.167428546362768
0.299445011134774,0.164046851032791
0.302216445132721,0.160691820856156
0.305005093064309,0.157364070805682
0.307810876730917,0.154064215854184
0.310633717933922,0.150792870974479
0.313473538474704,0.147550651139383
0.31633026015464,0.144338171321713
0.319203804775108,0.141156046494286
0.322094094137487,0.138004891629917
0.325001050043155,0.134885321701424
0.32792459429349,0.131797951681624
0.33086464868987,0.128743396543332
0.333821135033674,0.125722271259365
0.33679397512628,0.122735190802541
0.339783090769066,0.119782770145674
0.34278840376341,0.116865624261583
0.345809835910691,0.113984368123083
0.348847309012286,0.111139616702991
0.351900744869575,0.108331984974124
0.354970065283934,0.105562087909298
0.358055192056743,0.10283054048133
0.36115604698938,0.100137957663036
0.364272551883222,0.0974849544272333
0.367404628539648,0.0948721457467377
0.370552198760037,0.0923001465943662
0.373715184345766,0.0897695719429352
0.376893507098214,0.0872810367652614
0.380087088818759,0.0848351560341611
0.383295851308779,0.0824325447224512
0.386519716369652,0.080073817802948
0.389758605802757,0.0777595902484682
0.393012441409472,0.0754904770318282
0.396281144991175,0.0732670931258448
0.399564638349245,0.0710900535033344
0.402862843285058,0.0689599731371135
0.406175681599995,0.0668774669999988
0.409503075095432,0.0648431500648068
0.412844945572749,0.0628576373043541
0.416201214833323,0.0609215436914571
0.419571804678533,0.0590354841989326
0.422956636909756,0.057200073799597
0.426355633328372,0.0554159274662669
0.429768715735758,0.0536836601717588
0.433195805933292,0.0520038868888894
0.436636825722354,0.0503772225904752
0.44009169690432,0.0488042822493326
0.443560341280569,0.0472856808382783
0.44704268065248,0.0458220333301289
0.45053863682143,0.044413954697701
0.454048131588799,0.0430620599138109
0.457571086755963,0.0417669639512754
0.461107424124302,0.040529281782911
0.464657065495193,0.0393496283815343
0.468219932670015,0.0382286187199617
0.471795947450146,0.0371668677710099
0.475385031636964,0.0361649905074954
0.478987107031848,0.0352236019022348
0.482602095436175,0.0343433169280446
0.486229918651324,0.0335247505577414
0.489870498478673,0.0327685177641418
0.493523756719601,0.0320752335200624
0.497189615175485,0.0314455127983195
0.500867995647704,0.03087997057173
0.504558819937636,0.0303792218131102
0.508262009846659,0.0299438814952767
0.511977487176151,0.0295745645910461
0.515705173727491,0.029271886073235
0.519444991302058,0.02903646091466
0.523196861701228,0.0288689040881376
0.52696070672638,0.0287698305664842
0.530736448178893,0.0287398553225166
0.534524007860145,0.0287795933290512
0.538323307571514,0.0288896595589047
0.542134269114378,0.0290706689848935
0.545956814290115,0.0293232365798343
0.549790864900105,0.0296479773165436
0.553636342745724,0.0300455061678379
0.557493169628351,0.0305164381065339
0.561361267349365,0.031061388105448
0.565240557710143,0.0316809711373969
0.569130962512064,0.032375802175197
0.573032403556506,0.033146496191665
0.576944802644847,0.0339936681596174
0.580868081578465,0.0349179330518708
0.58480216215874,0.0359199058412417
0.588746966187048,0.0370002015005467
0.592702415464768,0.0381594350026024
0.596668431793279,0.0393982213202252
0.600644936973958,0.0407171754262318
0.604631852808184,0.0421169122934387
0.608629101097335,0.0435980468946625
0.61263660364279,0.0451611942027198
0.616654282245925,0.046806969190427
0.620682058708121,0.0485359868306009
0.624719854830754,0.0503488620960577
0.628767592415204,0.0522462099596144
0.632825193262848,0.0542286453940871
0.636892579175064,0.0562967833722928
0.640969671953232,0.0584512388670478
0.645056393398728,0.0606926268511687
0.649152665312932,0.063021562297472
0.653258409497221,0.0654386601787744
0.657373547752974,0.0679445354678923
0.661498001881568,0.0705398031376425
0.665631693684383,0.0732250781608412
0.669774544962797,0.0760009755103054
0.673926477518186,0.0788681101588513
0.678087413151931,0.0818270970792956
0.682257273665409,0.0848785512444548
0.686435980859998,0.0880230876271456
0.690623456537076,0.0912613212001843
0.694819622498022,0.0945938669363877
0.699024400544214,0.0980213398085722
0.703237712477031,0.101544354789555
0.707459480097849,0.105163526852151
0.711689625208049,0.108879470969179
0.715928069609007,0.112692802113453
0.720174735102102,0.116604135257792
0.724429543488712,0.120614085375012
0.728692416570216,0.124723267437928
0.732963276147992,0.128932296419358
0.737242044023418,0.133241787292119
0.741528641997871,0.137652355029026
0.745822991872732,0.142164614602896
0.750125015449376,0.146779180986546
0.754434634529184,0.151496669152793
0.758751770913533,0.156317694074453
0.763076346403801,0.161242870724342
0.767408282801366,0.166272814075277
0.771747501907608,0.171408139100075
0.776093925523903,0.176649460771553
0.78044747545163,0.181997394062526
0.784808073492168,0.187452553945811
0.789175641446894,0.193015555394226
0.793550101117187,0.198687013380585
0.797931374304426,0.204467542877707
0.802319382809987,0.210357758858408
0.806714048435251,0.216358276295503
0.811115292981593,0.222469710161811
0.815523038250394,0.228692675430146
0.819937206043032,0.235027787073327
0.824357718160883,0.241475660064169
0.828784496405327,0.248036909375488
0.833217462577742,0.254712149980102
0.837656538479506,0.261501996850828
0.842101645911997,0.268407064960481
0.846552706676594,0.275427969281877
0.851009642574675,0.282565324787836
0.855472375407618,0.28981974645117
0.859940826976801,0.2971918492447
0.864414919083602,0.304682248141239
0.8688945735294,0.312291558113605
0.873379712115572,0.320020394134615
0.877870256643498,0.327869371177085
0.882366128914556,0.335839104213832
0.886867250730122,0.343930208217672
0.891373543891577,0.352143298161421
0.895884930200297,0.360478989017897
0.900401331457662,0.368937895759916
0.904922669465049,0.377520633360294
0.909448866023837,0.386227816791848
0.913979842935404,0.395060061027395
