0.104559615597838,0.737187122001333
-0.693122438728123,0.842017264011034
0.888528367848842,-0.79564895862832
0.659408548538198,0.146994551354002
0.430288729227554,1.08963806133632
-0.920980134035123,0.198427656311123
-0.77741823719702,-0.30347984719055
-0.633856340358916,-0.805387350692224
-0.413333565185486,-0.697064121528951
0.535559405134026,-0.843656611956552
