0.930098405792976,0.92010150762519
0.931433248850454,0.91475266925038
0.952851017739884,0.869172588376017
0.921824255548488,0.901478957469284
0.933175302143239,0.88678329737995
0.901078023038181,0.891597397198107
0.904977273831258,0.890489105520759
0.917489533334686,0.880264812968147
0.927075422803041,0.878040134356388
0.893406693799577,0.86290973877325
0.863797469953413,0.882169658344203
0.889101092615963,0.849907331874072
0.861815862836341,0.839025482534183
0.87022977842724,0.85376447062586
0.870189070428139,0.832185631779
0.845629374182886,0.836982506757904
0.859814526833365,0.838628060491563
0.849359243733228,0.786535012611703
0.852222939064402,0.803856333413973
0.84738687817201,0.802729954420273
0.872573750349732,0.756529874853609
0.843245298101836,0.736802003451221
0.843468829546374,0.784123485189038
0.839371705274969,0.781921418551821
0.824994403514872,0.774524266935673
0.820564571905888,0.769031505524646
0.816150854752079,0.763587858600036
0.821351245067924,0.703836860108682
0.838385501126812,0.755390934191059
0.81327517640906,0.769404774631224
0.803637600574085,0.740112107174354
0.81157958356292,0.75096722882926
0.790004395732618,0.731949120254054
0.769528264302685,0.742771045981787
0.784616626800339,0.687847943623058
0.777145009009193,0.716780847682322
0.772818838528632,0.744790210539485
0.782394914029541,0.722491432676563
0.764426538650604,0.702041328860149
0.760218149974207,0.697222746112679
0.755012417602582,0.679622764310154
0.751847750537327,0.687726580799073
0.745739305396187,0.65137630095212
0.778521347765727,0.65402873422326
0.740994344629131,0.646834248897868
0.759756715947106,0.65128904951158
0.731190156741873,0.664801784395252
0.727897249351627,0.62526375800839
0.75436976327845,0.659804024567266
0.664073227881903,0.696581177060791
0.723302223379987,0.630269060553292
0.725360446085624,0.659250015562513
0.679737289465503,0.659943088431807
0.703166570620392,0.642150539093603
0.68435103900949,0.626567727360725
0.691005849467244,0.622384997313989
0.708845368410771,0.645081942208207
0.732862396669008,0.654437285763862
0.660444699502048,0.603649112369453
0.710083166212916,0.590358218940735
0.666556179405008,0.568643550731817
0.66199842723576,0.622070748964969
0.682544452538043,0.628541383523468
0.623434284109751,0.588618272144679
0.677041542488981,0.589849517631279
0.639484420078851,0.589320190218659
0.651265893123733,0.572331083312042
0.663928624707072,0.556635496860445
0.614093875184769,0.552606159120333
0.628774796073506,0.582871689172368
0.629749023896382,0.563721386981181
0.632952693453109,0.537263763274402
0.618667049987616,0.553942340907839
0.615000777726165,0.5507663327379
0.608387484321953,0.534614787844506
0.618449347827356,0.585237986917883
0.604084478152398,0.54148726453833
0.60997863292445,0.506898912995634
0.59687525236407,0.535507207482912
0.59453392404185,0.531987239094873
0.589720245775203,0.529690564320744
0.597310399571292,0.516472778802824
0.603859749336833,0.499141788059547
0.579088596998606,0.521269419060745
0.575571427535673,0.518542799097248
0.601626558359779,0.490453970428778
0.568576884554922,0.51320931674646
0.560586875375787,0.52291678016498
0.544705116494947,0.52171103880532
0.596528711339811,0.487392795829115
0.559872165114459,0.478443463142725
0.570708192108048,0.48014257664541
0.573452593854246,0.473704092324547
0.532665828427395,0.449185870107708
0.522986577350207,0.517219165324041
0.490393209840877,0.502265460401064
0.527704715718811,0.484499677177226
0.556664927171288,0.467217612025327
0.503402698753014,0.486204037655118
0.524393314798323,0.482924176217124
0.51121640517668,0.474162838472394
0.50795616219058,0.472207557366894
0.52359648951715,0.427468649027448
0.471760932836115,0.463256519398844
0.471284357981015,0.457717904876679
0.495038397049584,0.464755137793407
0.509272589003017,0.489818019047421
0.4886527986473,0.461248085662496
0.47501025966968,0.459248963671315
0.482315568803766,0.457885565109168
0.460754091586948,0.467582421342468
0.476026341853938,0.454666395988693
0.490257903423443,0.419047713212768
0.447627998957094,0.459518228375217
0.466681706962609,0.450103844677985
0.447405128402312,0.452267701408993
0.455998313372928,0.403960936618707
0.452889638885907,0.394470225730359
0.454386791028393,0.44451115826122
0.450808654527978,0.421880650741303
0.448309051995315,0.441922466297559
0.454597628773884,0.430193800269393
0.440440678182778,0.468868651834091
0.4392785636803,0.438295673250919
0.459118914754614,0.440340070605865
0.414320378112571,0.444661176034624
0.430350322651672,0.434972833648712
0.427396750623385,0.433932077240092
0.424454356572173,0.432924503364043
0.429550346043918,0.415517805149359
0.415628407341919,0.435649420166014
0.404058314939539,0.423705089549221
0.412795645975481,0.429223082823751
0.409908456187694,0.428379208839198
0.4070321701282,0.427567632278669
0.392827963152273,0.479687645766129
0.423510732817772,0.392531992818119
0.395635149010543,0.424641349914986
0.387649150470953,0.421469814648013
0.359389354238584,0.434542686372254
0.347365623465409,0.422361655433221
0.378858958800657,0.421195771014725
0.37609959701577,0.420729729924458
0.370611893430046,0.419889081846629
0.382330043166156,0.423250485908461
0.365165245102183,0.419169362451796
0.362457202389624,0.418854482215276
0.357071451326595,0.41831394307357
0.363514039311386,0.430539021774236
0.378155852129224,0.40652482465053
0.363092522548716,0.462059602137878
0.37954535603811,0.409514105361948
0.333650751772235,0.418710396957224
0.323354805478119,0.442653297031882
0.368464023987706,0.382040859265985
0.362841252904259,0.41658871932746
0.330213064734903,0.399934576701742
0.323032477654927,0.37244556725321
0.320474667309915,0.41776747396963
0.317932562022852,0.417938954752796
0.315399806387644,0.418137717344887
0.302476449418797,0.415686341028764
0.27882161315429,0.396029887157651
0.294703791703687,0.417283133047123
0.318306662493263,0.443262020625308
0.321792545419511,0.439826216985696
0.317674405369043,0.41773876111869
0.292278555240825,0.415758210520077
0.306826520806394,0.406351100984295
0.304560911586004,0.421162172219153
0.290576425098829,0.421593388776664
0.300497355710255,0.406166141581442
0.286806165208008,0.419817121536566
0.283304004249279,0.423137154922843
0.314703202323582,0.432749437416894
0.269914633353328,0.450784215872655
0.276109971041968,0.424907870069868
0.273729166144308,0.42554785314575
0.268993091357371,0.426901551229277
0.265700947478705,0.420896581692937
0.261952131075962,0.429114215412608
0.237261941127161,0.421426085256632
0.241506495353166,0.428170676935817
0.265894704146413,0.40555902642057
0.216926051344625,0.418274696798514
0.253632392069281,0.433872203932073
0.227701378876325,0.452597827081445
0.230471054214055,0.425904429119903
0.239014724786816,0.438020167147104
0.27300499348059,0.453348824984279
0.242290696787858,0.451418045952611
0.204932043450192,0.454107759874916
0.208409976104605,0.437198070268476
0.224546423814737,0.451073889310957
0.241410398596138,0.442463042701529
0.219042791551488,0.447956100342683
0.214739648999853,0.432611105502215
0.212520864352423,0.451652937609569
0.208209452996495,0.454220959125095
0.183439632822967,0.447531141644162
0.214464641371766,0.477393121122986
0.183805551776291,0.445931454659924
0.232668729409678,0.466297814583057
0.189779014312477,0.433538851457767
0.181511173695094,0.450581654601491
0.181676293220877,0.464542849832138
0.151526383568308,0.474680567245664
0.16972446928021,0.468049634058711
0.195414515670776,0.493080177291747
0.191467126328431,0.508536023288256
0.180871072073813,0.472844335975927
0.202049500683525,0.475143904786206
0.174724443524759,0.477596177136355
0.172688568365173,0.479216297218984
0.170659117537087,0.480854257952704
0.132923925795754,0.442837359842729
0.166619306042888,0.484183111301054
0.164608853960515,0.485873708879501
0.162604643377118,0.487581557036675
0.158614763874732,0.491048415014837
0.159479464860065,0.504700163261223
0.170094400225515,0.502476972054147
0.133849117751158,0.483026156567065
0.190288243443172,0.516031434589447
0.141810681443808,0.455881876994038
0.142734153345962,0.481696875290568
0.140207628769615,0.506242727394064
0.13076167611241,0.514521860093261
0.156613304520611,0.514497052490054
0.118004990749776,0.506858037599935
0.116465917102835,0.510963006023797
0.165859899453282,0.50500675683203
0.131348820069056,0.517132831495884
0.144530107916993,0.480120553638047
0.117769659050557,0.523482919219263
0.102773018568118,0.486993918600232
0.105377738061056,0.537664045261991
0.112369466065485,0.542396330189841
0.120788216768649,0.514185484522894
0.153644764745453,0.539967453416586
0.113452441538721,0.563591018458176
0.105696225101265,0.492723880848494
0.108835220616461,0.541806116950418
0.106992130466595,0.543950061521007
0.125151618864677,0.556747053917868
0.0796400145541353,0.539679943440143
0.101491898714834,0.550458255376361
0.0996680153364242,0.55265261498237
0.0978488193805523,0.554859209552005
0.12970967496669,0.566466095452011
0.055360317653565,0.561417759980377
0.108049851407022,0.538909022390556
0.0743128693727834,0.583410594169244
0.0680388528660753,0.579410198870164
0.100196771844978,0.542070289852411
0.0807404723282537,0.53235622138816
0.0816794479503632,0.575244793556904
0.0580386671209399,0.613491402501534
0.0782351162644883,0.570675853685035
0.0937240146674123,0.568256385051469
0.0809192252233171,0.58877948831596
0.0728466588117007,0.586953594576696
0.0710922892182288,0.589326011429798
0.0501864202518447,0.577729659909278
0.0658527341599842,0.596501919961749
0.0641139146875245,0.598912950402978
0.0511125899048917,0.612324286615934
0.0589199129971835,0.606201159265121
0.0571959123156472,0.608648443005017
0.0554755020615155,0.611104421274353
0.0554964880741043,0.583111005620534
0.0498253379695158,0.610555301286159
0.0326307113631214,0.617928589619747
0.0484395511197323,0.633646020794599
0.0330428449793655,0.622084000810678
0.052330407062309,0.633213530546411
0.0151825675614889,0.643658513069445
0.0517662782971074,0.621313705398904
0.0147057412875908,0.625762694904673
0.0542886042059485,0.692098513627486
0.0350939945899609,0.641200637217445
0.0337818639287428,0.653012470314467
0.0238745194861499,0.651835312521516
0.0748616468346092,0.639746726738639
0.00267390707926368,0.652451265682054
0.01235369752579,0.628772764072946
0.026093457073413,0.675812735932801
-0.0101084019729755,0.667904771195084
-0.0138017407443795,0.650814291787001
0.0438246067842265,0.671702690427703
0.0151439430442522,0.672272711533107
-0.00546745198364522,0.653710553367098
0.026560782645008,0.686154642446706
0.00693998256579624,0.685446817571306
0.0144740716740521,0.654410470542634
0.0020446021456213,0.693403689179405
0.000417033734596055,0.696063829271087
-0.00283203974268806,0.701394998679379
-0.00445363622520803,0.704065732959807
-0.0195336118888741,0.704034264509815
0.0320303801289459,0.710562963514101
-0.00930721314584649,0.712096763889121
-0.0293988388786466,0.735711471993193
-0.0125340444018097,0.717464999401111
-0.00932787962642776,0.752692028177632
-0.0270622006959479,0.724764223213525
-0.0189680243477261,0.728230275515685
-0.0377270180409757,0.688226323137615
-0.00780264064729619,0.752813549793293
0.00245664374909762,0.729765329650815
-0.0153814361252374,0.719618617013456
0.00896550787138729,0.751582404691428
-0.0226369376063776,0.760964731806723
-0.00978944305016803,0.795517739428775
-0.0349552236128663,0.755256422076545
-0.0669608632427711,0.752924625045425
-0.0399268785036037,0.767384276367053
-0.0440888349842267,0.685912526676407
-0.0345426498235666,0.797205539453462
-0.0492542692557826,0.779621223893465
-0.0508393456686626,0.782325920270795
-0.0524238483907546,0.785029574983546
-0.0295249617771592,0.787864245741247
-0.0653445011249925,0.777903250413225
-0.0154244532130292,0.834954960779956
-0.0603393564239659,0.798527060445447
-0.0501216679643558,0.771311899447598
-0.0964663860776826,0.796061847960472
-0.0647109604322027,0.777661731331577
-0.0455615834240721,0.804338076858305
-0.11282402266512,0.81546121393554
-0.0698285872671045,0.814658836787609
-0.071409770933925,0.817338485114316
-0.0684717138782475,0.795556115159944
-0.055078965807264,0.786822320196687
-0.0777351678316056,0.828026009242607
-0.0788041122097437,0.842326224771343
-0.0735857566205953,0.853018245820048
-0.0824811906744401,0.836004899194805
-0.0950980127775974,0.849262402511509
-0.0856468320818948,0.841304444894417
-0.0872302777636833,0.843947860909393
-0.0718705822755211,0.843291569196942
-0.0777838383784138,0.84976260329049
-0.0935692935342912,0.854475703981643
-0.0951555842784595,0.857095471912335
-0.0991457180653158,0.860665778384088
-0.0999188761646922,0.864923152605265
-0.104229725810588,0.881642823756067
-0.0876296279904224,0.899228564091199
-0.104689757402258,0.872700300769561
-0.132004690463821,0.870919493301101
-0.114673123868501,0.867716150068224
-0.0893842456556255,0.884107934307755
-0.112402916404943,0.884831434962315
-0.0931951150975607,0.890100167010561
-0.121017607733569,0.89734535571685
-0.115983433282087,0.91695698759244
-0.123392667406062,0.917265263939848
-0.120220073008981,0.909110912250772
-0.162876517664165,0.900912586432703
-0.125368076147929,0.912930086057239
-0.128943952056663,0.907685374979064
-0.119678072673915,0.913131254887529
-0.135031847296284,0.914683686203834
-0.136193632686614,0.91591005213025
-0.172335163025556,0.90866844180382
-0.138461842524954,0.918191656530518
-0.139080804187424,0.877970977385801
-0.146221895159239,0.908999061600122
-0.141726566267802,0.92119031112321
-0.135459309803959,0.900495840206545
-0.116439195158727,0.910021017552215
-0.156688483049696,0.9243911479338
-0.146804469094063,0.92507613730692
-0.182782128364291,0.909657043325621
-0.123237761389695,0.953487541491445
-0.118969521551252,0.943450794894368
-0.154661260311702,0.95598021812779
-0.143461737839846,0.953068914605508
-0.153161954661943,0.928238170607299
-0.171503720413373,0.940761716236989
-0.17037421750846,0.916785068170403
-0.157349940627003,0.936258700812165
-0.13614433609606,0.930634943556453
-0.167611966195353,0.903937572560896
-0.1600747056448,0.928534926223887
-0.164683265121762,0.949577790925874
-0.126877850829386,0.949496042040072
-0.162069832406821,0.927722572160474
-0.162700996372864,0.927352884566111
-0.167640853546265,0.930202261976827
-0.149391701246253,0.926131574758944
-0.176858538577768,0.934862916576553
-0.126030754806973,0.920109337861023
-0.163636526994478,0.923463782579777
-0.167148287792777,0.922654171080677
-0.16762975802285,0.921853246927382
-0.168543666001555,0.920111990833098
-0.18088978264401,0.912499917861091
-0.164383243864906,0.918768475968042
-0.17916198020459,0.86602612750793
-0.183587282583101,0.926797702494656
-0.171857925664948,0.910029789344688
-0.188541473409717,0.907602875158101
-0.177986994319038,0.922695026161665
-0.183524611038314,0.918323208987992
-0.172918638709044,0.904404049408432
-0.17997916118412,0.891641157488453
-0.173851719102771,0.870306920564498
-0.1835833009601,0.863744375682107
-0.20231450337529,0.89308606695891
-0.141558779016079,0.905104373593579
-0.161867288596506,0.895476618777527
-0.174621743212101,0.883516904515968
-0.175924614002575,0.91333542310431
-0.116284823101005,0.879250401715727
-0.176880714680391,0.865130276048527
-0.202064564464087,0.863572894862891
-0.172130406772723,0.863527613095599
-0.174559234578343,0.866424046295821
-0.134446361228528,0.845642912783306
-0.172087130224638,0.829572970397902
-0.174178991937293,0.856979241481569
-0.1985771631155,0.877560263865563
-0.202667290745187,0.846677467822518
-0.17357070604305,0.846958654101588
-0.168163965342393,0.842568463299808
-0.183291440776106,0.868662938725331
-0.170776692511364,0.82956248423882
-0.171683851383739,0.8252595353556
-0.15980182397798,0.84364155198359
-0.162728256524732,0.825507121055058
-0.163889220798478,0.801780842776545
-0.141920494664973,0.827144637007597
-0.168935849040931,0.778100260419484
-0.180019324991297,0.791264391366921
-0.166303556184213,0.782328679734933
-0.147743607470628,0.751062894793341
-0.165352941845462,0.772907823916778
-0.167961424999185,0.751265510936929
-0.163218278357835,0.762150108535736
-0.185205681938485,0.753238713195532
-0.162089100724172,0.755202538743004
-0.19410841214971,0.7458109493981
-0.165007420921627,0.723754093907163
-0.160302367021615,0.744581096349756
-0.159682214211183,0.740988343263886
-0.184048381941796,0.752757857351247
-0.152248020007679,0.721489676172792
-0.181909533622876,0.71128147324147
-0.164627980279822,0.713995717368571
-0.152818759041777,0.703692908931888
-0.152067410785331,0.699832539532785
-0.123464644444776,0.662439765178718
-0.103793579482786,0.686120085209158
-0.14974396843999,0.688116303130858
-0.127815529044843,0.683644837432032
-0.168254723889404,0.704907895320809
-0.167471744781962,0.658765308031945
-0.123486045877014,0.664649127887723
-0.147167311462704,0.680834834328802
-0.125717084301962,0.681112934692817
-0.152645505800458,0.654275970442406
-0.142161720141699,0.651814879413224
-0.138504703651296,0.635163496302487
-0.149848315262718,0.628763543491362
-0.135649014607439,0.622481184160208
-0.0949506798579317,0.601492477124844
-0.121249720155394,0.578548126421039
-0.137337782962629,0.599648879532432
-0.119805768162413,0.606243810087591
-0.127572526946576,0.58790932020404
-0.127179982357176,0.534918096514909
-0.100160653988182,0.521127527839324
-0.115413179346687,0.538793899889257
-0.113076169365619,0.529692050339169
-0.114545416593208,0.522216401917072
-0.110701404400932,0.520542769683487
-0.123898952871407,0.515231894458528
-0.0991394463593654,0.505364563413226
-0.0814157845487236,0.499204267898491
-0.102797052590983,0.484173435900295
-0.12266055398333,0.47030129500417
-0.0982763998577888,0.474160810130255
-0.0866799852399948,0.45106759127464
-0.0799806148079683,0.432576331729448
-0.0936518085821061,0.47587861254066
-0.0863408371797898,0.431673637126395
-0.0608424128973068,0.397604440176433
-0.0932334708460945,0.451768161461818
-0.0794168444620194,0.407841242793474
-0.0593429456987297,0.383260131850148
-0.0693874074674571,0.374281505354995
-0.0521185547366847,0.328500850223644
-0.0649731886077343,0.359849670509727
-0.0634867271476014,0.355034501657943
-0.0448378748417568,0.343135416499914
-0.0320180711450526,0.344869171196055
-0.0743694637735798,0.33699478148952
-0.0765288951558671,0.348561906854036
-0.0712418632367983,0.311230565908879
-0.0470083505787451,0.344915814007464
-0.030807639305776,0.277219969347839
-0.046656679863746,0.302006721198838
-0.0450845390514537,0.297187524236108
-0.0426582857616538,0.301740638056305
-0.0403276027830934,0.282739576947057
-0.00483083523914492,0.270997913750134
-0.0371230913053756,0.273118359502771
-0.0162830390065666,0.239537997333362
-0.0559152212699623,0.270276723482613
-0.00702545479511077,0.258023799331864
-0.0502870183675167,0.257827687046396
-0.0181310885047815,0.213928137143419
0.000332857829990114,0.218735288838485
0.0115273815016291,0.225922146423245
-0.00150115007814288,0.204626692495895
-0.00716118863343666,0.187288438827623
-0.00602377082109172,0.212551745864939
-0.0270317980475484,0.156670276939315
-0.0101450497441425,0.183278374000266
0.00499314307974045,0.154493582299927
-0.0229272002865123,0.147670497510048
0.0232988711450726,0.108340098633012
-0.00542879169423499,0.168461349884457
0.0138308608546484,0.131350055868022
-0.0229680945705449,0.0906176084436786
0.0245970699735595,0.103941011779257
0.00646358665793404,0.109367593494356
0.0637404811688554,0.109885107582224
0.00672001089078063,0.111606717648417
0.0680340288865068,0.0866809486141379
0.0315783874788051,0.0459979403815513
0.0466114403991699,0.0505360152902731
0.0652933940456473,0.0220880350404448
0.050337929075514,0.0418436645306904
0.0384336415867713,0.0287841224976933
0.0578878171390814,0.048781964864946
0.0473323594169765,0.0478037020852045
0.0540526207054881,0.0336594015745686
0.0928705043120729,0.0270091074692673
0.0730020456761274,-0.00886218129169396
0.0749125796242668,-0.0129667897853234
0.0679462813279079,-0.0311090987902866
0.0806626268212102,-0.0251603595024057
0.0717999241289554,-0.0651684761378964
0.0338998370541244,-0.0256712634494291
0.131374154946258,-0.0701151281536661
0.142499897948904,-0.0538365375304848
0.094214271751285,-0.0853257970768941
0.107823393393852,-0.0794850409118058
0.128368964962718,-0.0828929477321795
0.115668970686246,-0.0941579652150411
0.121574074246527,-0.104895278123993
0.125519960798426,-0.111922096145081
0.127495487059661,-0.115395274655421
0.129472663191874,-0.118841271354629
0.155872778163819,-0.122320073996568
0.145776669034061,-0.0907785707893964
0.124811340043237,-0.163279706833594
0.109291782083923,-0.164583546310124
0.145342976875695,-0.145398166757945
0.147332567823299,-0.148587327285864
0.153748939638278,-0.140806622634475
0.168135454699117,-0.17726067704896
0.157296075426425,-0.164079314356542
0.161287726802421,-0.17005926789871
0.163284675061656,-0.173001694246928
0.182388643179841,-0.144925536270228
0.157128434554612,-0.197364558545054
0.169279361051399,-0.181635518301159
0.173278478493833,-0.18722747742949
0.177279219194534,-0.192685767354596
0.144406949512844,-0.178928495724134
0.185283839509637,-0.20319266413123
0.193289760274519,-0.213138857703272
0.176978721633862,-0.182025449911482
0.171180087405348,-0.239119489564784
0.163300411901541,-0.21347987090083
0.170005238116155,-0.237251719665545
0.213287534102634,-0.235437399649648
0.223754255235832,-0.221310752807235
0.199587106032045,-0.204739823580152
0.20327797911341,-0.272635407522882
0.233330343294427,-0.214999601547187
0.229239679356286,-0.250492804869209
0.204953966068686,-0.248602988317748
0.25657316889142,-0.257625045319546
0.202688299909786,-0.255951640980724
0.245016460193153,-0.256700471682674
0.212690002422302,-0.280523463500921
0.278436516455952,-0.271650129792288
0.27959427459808,-0.272419075863276
0.256634157106958,-0.292320229224186
0.258907605215047,-0.271566802251903
0.260786324128082,-0.272704020773979
0.253643032597106,-0.281639439313569
0.283279230080763,-0.257295460175532
0.240970638501276,-0.261626340150017
0.280901248728624,-0.274981869099543
0.255817956376812,-0.279823575540752
0.276315930274443,-0.284685914603149
0.241681367192938,-0.30071843826228
0.306682074998479,-0.285970663947792
0.283762644665336,-0.293705145364835
0.30381769819473,-0.304958130152017
0.26624340676617,-0.298876372641176
0.272910226516141,-0.33462944423581
0.293645526196318,-0.30592901865099
0.290475746279461,-0.311734950822494
0.306257984176646,-0.32813300094719
0.293782068729859,-0.337452130593031
0.306325406135696,-0.320578883384636
0.279254610269079,-0.29244546756795
0.289072303633278,-0.334068254188592
0.261797428327717,-0.339699305590238
0.328000177164138,-0.359265793328231
0.296352493841772,-0.323950897933075
0.26236689418321,-0.327251762716291
0.267796738459227,-0.339605569715103
0.279380767160033,-0.350531253781519
0.266447774540661,-0.354539176956679
0.2273003083549,-0.369923940581464
0.24076535718322,-0.392104954353055
0.263873574238373,-0.370793749178592
0.243480396494257,-0.398563664077009
0.251547731635033,-0.3790692490377
0.23499470040442,-0.380446868996798
0.248315417579163,-0.386576459897755
0.274856283686321,-0.3943751420699
0.236271840789599,-0.374796868646572
0.23160476922076,-0.346554496067587
0.240072648413398,-0.400148892603604
0.206656890852335,-0.394495919274614
0.20166684906217,-0.428197108359648
0.205408980851155,-0.421269466593807
0.168330727908213,-0.445487926468969
0.21140849983334,-0.431339708499967
0.195252629713602,-0.44252919064035
0.183838668344166,-0.446248769647622
0.192033379306968,-0.430657929561798
0.189261047284167,-0.432546619383604
0.225708829169357,-0.453244301919164
0.17785702679341,-0.440135450778212
0.174182628724833,-0.444537744855015
0.196904359627119,-0.441950926672271
0.156731606705422,-0.453535139153925
0.180712338310597,-0.441167043449812
0.182659171593499,-0.47458020452071
0.106232255373251,-0.484754482703482
0.113191635912047,-0.465972225157722
0.12077398163385,-0.468726317388125
0.0816404529162979,-0.496364223020855
0.0704905380605009,-0.502257671927508
0.0553221198014548,-0.510124938604965
0.0385033204994688,-0.539997663322103
0.0476135870964586,-0.514061176500302
0.0437292212480264,-0.516029675128525
0.047147765840551,-0.536805194544681
0.0200192983771772,-0.527841096170879
0.0119689192802509,-0.531776538620526
0.0249767793766311,-0.534339652876814
-0.012592027696558,-0.543569085600942
-0.00329974500294856,-0.579434197217676
-0.0220968610486609,-0.55415382637391
-0.0334956428461382,-0.55337117556011
-0.0275606098341759,-0.574265557796811
-0.0528689508323463,-0.557122122923494
-0.0168864910504707,-0.568867480896924
-0.0504787851294755,-0.56118948223838
-0.0463993760973123,-0.541720504053937
-0.0633561776622423,-0.56703632499196
-0.0708183289284026,-0.570141243195785
-0.0780398416014307,-0.553232239597532
-0.0689098056186083,-0.569000723625231
-0.102627784449014,-0.584467667347495
-0.14355262828801,-0.588354692069647
-0.143357016934337,-0.555147431377836
-0.143260534959065,-0.620874541171905
-0.169690231752861,-0.605061897963394
-0.210696804519995,-0.623143023962925
-0.154550325406291,-0.61334616563057
-0.183367058804824,-0.618650545659013
-0.154726719275972,-0.634133636025304
-0.158079540102313,-0.610772274919084
-0.223390397932883,-0.620451517578975
-0.252391569154569,-0.642489898453597
-0.260955035069603,-0.652508421457304
-0.297072649887197,-0.652991978314682
-0.274842221616032,-0.655106711677371
-0.288591518242336,-0.660400130542313
-0.293171755202845,-0.662153217266152
-0.27857730906859,-0.696825291546297
-0.329721758903216,-0.675961790314016
-0.33901491913405,-0.672386049426907
-0.337072974098088,-0.705095913290005
-0.347906337892317,-0.682713930144399
-0.365227072999239,-0.682365729801502
-0.415220997926064,-0.688676669252677
-0.391323142068272,-0.69680490020037
-0.405585986748331,-0.7093557841782
-0.43282676815863,-0.713226308834407
-0.437717669182607,-0.695768640236606
-0.458940575581852,-0.722269999025595
-0.484939604854611,-0.720346161032394
-0.442582462646165,-0.725469427067562
-0.504240860691249,-0.722514228982051
-0.50332749607629,-0.731395989630302
-0.519390979400111,-0.754739485906833
-0.503151152496162,-0.724053845327965
-0.526252834426189,-0.744811197304106
-0.541853981946245,-0.746949681689317
-0.573697547985294,-0.742882575363311
-0.59936992263452,-0.775872815238507
-0.588144258012254,-0.719999454449787
-0.602563251840374,-0.80375297537122
-0.597191716341765,-0.792989869257648
-0.600460595914894,-0.77840577090092
-0.667551313513918,-0.773453644334114
-0.650249696172324,-0.782916216343847
-0.656955626243148,-0.784816424410269
-0.639516253188074,-0.796601211513504
-0.637791919324667,-0.803084751258529
-0.685784540255114,-0.792732345073521
-0.648967821966013,-0.791327125280603
-0.680724169028741,-0.794474858957779
-0.700795292761099,-0.796666600028972
-0.726852355070247,-0.796062216534616
-0.72586965485574,-0.802876535918918
-0.742129243508673,-0.794562808555581
-0.748269184381856,-0.807917520545059
-0.752863046119164,-0.808873305179
-0.743856822814739,-0.827069903696152
-0.753777743998188,-0.788250817449551
-0.797471167861253,-0.826196063979844
-0.765192690475075,-0.862865599138237
-0.783029504861748,-0.846424686401872
-0.777901440607637,-0.817964746677327
-0.791949878662288,-0.815099172807223
-0.802283725998179,-0.799208924087686
-0.785719889559882,-0.827702759541335
-0.804212728555397,-0.815486373723172
-0.782480179697605,-0.818103803139381
-0.82520143768303,-0.853651471376905
-0.843490189232948,-0.838158852929341
-0.80780094050125,-0.855479634403938
-0.837173170023712,-0.829630370736295
-0.812630734264332,-0.812819092019175
