0.327751874323642,0.866499540542705
0.512833167270947,-0.00671807061802343
0.112039615019714,-0.056579146214748
-0.561195974029667,-0.0135220725965617
-1.23443156307905,0.0295350010216247
0.425423485706901,0.727040596119371
0.659244517651904,-0.212839456126737
0.893065549596908,-1.15271950837284
0.923287627147262,-0.686114449653776
-0.659598236327287,0.259500581242227
