0.712171524166194,-0.740546904579909
-0.308900410845693,-0.961701861849392
-0.291972847875378,-0.00552600282102778
-0.461747521802826,0.739437322912201
-0.631522195730273,1.48440064864543
0.97526926003476,0.0994475375357355
0.840760261984375,0.175498394270205
0.70625126393399,0.251549251004674
-0.0332697253394985,-0.407594119750906
0.0244007221223155,0.247589829035624
