-0.586369765626535,-0.556623123758215
-0.584378440401143,-0.546292765294892
-0.582417922267646,-0.536018090710928
-0.580488060929039,-0.525798992715308
-0.578588706088319,-0.515635364017018
-0.576719707448481,-0.505527097325041
-0.57488091471252,-0.495474085348362
-0.573072177583433,-0.485476220795965
-0.571293345764216,-0.475533396376836
-0.569544268957863,-0.465645504799958
-0.567824796867372,-0.455812438774316
-0.566134779195736,-0.446034091008894
-0.564474065645954,-0.436310354212678
-0.562842505921019,-0.426641121094652
-0.561239949723928,-0.4170262843638
-0.559666246757677,-0.407465736729107
-0.558121246725261,-0.397959370899557
-0.556604799329676,-0.388507079584135
-0.555116754273918,-0.379108755491826
-0.553656961260982,-0.369764291331613
-0.552225269993865,-0.360473579812482
-0.550821530175563,-0.351236513643417
-0.549445591509069,-0.342052985533403
-0.548097303697382,-0.332922888191424
-0.546776516443496,-0.323846114326464
-0.545483079450407,-0.314822556647508
-0.544216842421111,-0.305852107863542
-0.542977655058604,-0.296934660683548
-0.541765367065881,-0.288070107816512
-0.540579828145938,-0.279258341971419
-0.539420888001771,-0.270499255857252
-0.538288396336376,-0.261792742182997
-0.537182202852748,-0.253138693657638
-0.536102157253883,-0.244537002990159
-0.535048109242778,-0.235987562889546
-0.534019908522426,-0.227490266064782
-0.533017404795826,-0.219045005224852
-0.532040447765971,-0.21065167307874
-0.531088887135859,-0.202310162335432
-0.530162572608484,-0.194020365703911
-0.529261353886843,-0.185782175893163
-0.528385080673931,-0.177595485612172
-0.527533602672743,-0.169460187569921
-0.526706769586277,-0.161376174475397
-0.525904431117527,-0.153343339037583
-0.525126436969489,-0.145361573965464
-0.524372636845159,-0.137430771968024
-0.523642880447533,-0.129550825754249
-0.522937017479606,-0.121721628033122
-0.522254897644375,-0.113943071513628
-0.521596370644835,-0.106215048904751
-0.520961286183981,-0.0985374529154768
-0.52034949396481,-0.0909101762547893
-0.519760843690317,-0.083333111631673
-0.519195185063498,-0.0758061517551124
-0.518652367787349,-0.068329189334092
-0.518132241564866,-0.0609021170775966
-0.517634656099044,-0.0535248276946105
-0.517159461092878,-0.0461972138941183
-0.516706506249366,-0.0389191683851045
-0.516275641271502,-0.0316905838765538
-0.515866715862282,-0.0245113530774506
-0.515479579724703,-0.0173813686967793
-0.515114082561759,-0.0103005234435247
-0.514770074076447,-0.00326871002667126
-0.514447403971762,0.00371417884479655
-0.5141459219507,0.0106482504618942
-0.513865477716257,0.0175336121156371
-0.513605920971429,0.0243703710970406
-0.51336710141921,0.0311586346971204
-0.513148868762598,0.0378985102068919
-0.512951072704588,0.0445901049173704
-0.512773562948176,0.0512335261195715
-0.512616189196356,0.0578288811045107
-0.512478801152126,0.0643762771632033
-0.512361248518481,0.070875821586665
-0.512263380998416,0.077327621665911
-0.512185048294928,0.083731784691957
-0.512126100111012,0.0900884179558183
-0.512086386149663,0.0963976287485104
-0.512065756113879,0.102659524361049
-0.512064059706653,0.108874212084449
-0.512081146630983,0.115041799209726
-0.512116866589864,0.121162393027896
-0.512171069286291,0.127236100829974
-0.512243604423261,0.133263029906976
-0.512334321703769,0.139243287549917
-0.51244307083081,0.145176981049812
-0.512569701507382,0.151064217697678
-0.512714063436479,0.156905104784528
-0.512876006321097,0.16269974960138
-0.513055379864232,0.168448259439248
-0.51325203376888,0.174150741589148
-0.513465817738036,0.179807303342095
-0.513696581474696,0.185418051989105
-0.513944174681856,0.190983094821193
-0.514208447062512,0.196502539129375
-0.51448924831966,0.201976492204666
-0.514786428156294,0.207405061338082
-0.515099836275412,0.212788353820637
-0.515429322380008,0.218126476943348
-0.515774736173079,0.223419537997231
-0.51613592735762,0.228667644273299
-0.516512745636627,0.23387090306257
-0.516905040713095,0.239029421656058
-0.517312662290021,0.244143307344779
-0.517735460070401,0.249212667419748
-0.518173283757229,0.254237609171981
-0.518625983053502,0.259218239892493
-0.519093407662216,0.2641546668723
-0.519575407286366,0.269046997402417
-0.520071831628948,0.27389533877386
-0.520582530392958,0.278699798277643
-0.521107353281391,0.283460483204784
-0.521646149997243,0.288177500846296
-0.522198770243511,0.292850958493196
-0.522765063723189,0.297480963436499
-0.523344880139274,0.30206762296722
-0.523938069194761,0.306611044376375
-0.524544480592646,0.311111334954979
-0.525163964035925,0.315568601994048
-0.525796369227594,0.319982952784598
-0.526441545870648,0.324354494617643
-0.527099343668082,0.328683334784199
-0.527769612322894,0.332969580575282
-0.528452201538079,0.337213339281908
-0.529146961016631,0.34141471819509
-0.529853740461548,0.345573824605846
-0.530572389575825,0.34969076580519
-0.531302758062457,0.353765649084138
-0.53204469562444,0.357798581733706
-0.532798051964771,0.361789671044908
-0.533562676786444,0.365739024308761
-0.534338419792457,0.36964674881628
-0.535125130685803,0.37351295185848
-0.535922659169479,0.377337740726377
-0.536730854946482,0.381121222710986
-0.537549567719806,0.384863505103322
-0.538378647192447,0.388564695194402
-0.539217943067402,0.39222490027524
-0.540067305047666,0.395844227636852
-0.540926582836234,0.399422784570254
-0.541795626136102,0.402960678366461
-0.542674284650267,0.406458016316488
-0.543562408081724,0.409914905711352
-0.544459846133468,0.413331453842066
-0.545366448508496,0.416707767999648
-0.546282064909802,0.420043955475111
-0.547206545040384,0.423340123559473
-0.548139738603237,0.426596379543748
-0.549081495301356,0.429812830718951
-0.550031664837737,0.432989584376098
-0.550990096915376,0.436126747806205
-0.551956641237269,0.439224428300288
-0.552931147506411,0.44228273314936
-0.553913465425798,0.445301769644439
-0.554903444698426,0.448281645076539
-0.555900935027292,0.451222466736676
-0.556905786115389,0.454124341915866
-0.557917847665715,0.456987377905123
-0.558936969381265,0.459811681995464
-0.559963000965034,0.462597361477903
-0.560995792120019,0.465344523643457
-0.562035192549215,0.46805327578314
-0.563081051955619,0.470723725187969
-0.564133220042225,0.473355979148958
-0.565191546512029,0.475950144957124
-0.566255881068028,0.47850632990348
-0.567326073413216,0.481024641279044
-0.568401973250591,0.483505186374831
-0.569483430283147,0.485948072481855
-0.57057029421388,0.488353406891133
-0.571662414745787,0.490721296893679
-0.572759641581862,0.49305184978051
-0.573861824425102,0.495345172842641
-0.574968812978502,0.497601373371087
-0.576080456945058,0.499820558656863
-0.577196606027766,0.502002835990986
-0.578317109929621,0.504148312664471
-0.57944181835362,0.506257095968332
-0.580570581002757,0.508329293193587
-0.58170324758003,0.510365011631249
-0.582839667788433,0.512364358572335
-0.583979691330963,0.514327441307859
-0.585123167910614,0.516254367128838
-0.586269947230384,0.518145243326287
-0.587419878993267,0.520000177191222
-0.588572812902259,0.521819276014657
-0.589728598660357,0.523602647087608
-0.590887085970555,0.525350397701091
-0.59204812453585,0.527062635146122
-0.593211564059237,0.528739466713715
-0.594377254243713,0.530380999694886
-0.595545044792272,0.531987341380651
-0.596714785407911,0.533558599062025
-0.597886325793625,0.535094880030023
-0.599059515652411,0.536596291575661
-0.600234204687263,0.538062940989955
-0.601410242601178,0.53949493556392
-0.602587479097152,0.540892382588571
-0.603765763878179,0.542255389354924
-0.604944946647257,0.543584063153994
-0.60612487710738,0.544878511276797
-0.607305404961545,0.546138841014348
-0.608486379912746,0.547365159657663
-0.609667651663981,0.548557574497757
-0.610849069918244,0.549716192825645
-0.612030484378532,0.550841121932344
-0.61321174474784,0.551932469108868
-0.614392700729164,0.552990341646233
-0.6155732020255,0.554014846835455
-0.616753098339843,0.555006091967549
-0.617932239375189,0.55596418433353
-0.619110474834534,0.556889231224413
-0.620287654420874,0.557781339931216
-0.621463627837205,0.558640617744952
-0.622638244786522,0.559467171956637
-0.62381135497182,0.560261109857286
-0.624982808096097,0.561022538737917
-0.626152453862347,0.561751565889542
-0.627320141973566,0.562448298603179
-0.62848572213275,0.563112844169842
-0.629649044042895,0.563745309880547
-0.630809957406996,0.56434580302631
-0.63196831192805,0.564914430898146
-0.633123957309051,0.56545130078707
-0.634276743252997,0.565956519984098
-0.635426519462882,0.566430195780246
-0.636573135641702,0.566872435466528
-0.637716441492453,0.56728334633396
-0.638856286718131,0.567663035673558
-0.639992521021732,0.568011610776337
-0.641124994106251,0.568329178933313
-0.642253555674684,0.568615847435501
-0.643378055430027,0.568871723573917
-0.644498343075275,0.569096914639576
-0.645614268313425,0.569291527923493
-0.646725680847472,0.569455670716684
-0.647832430380411,0.569589450310165
-0.648934366615239,0.56969297399495
-0.650031339254952,0.569766349062056
-0.651123198002544,0.569809682802497
-0.652209792561013,0.56982308250729
-0.653290972633353,0.56980665546745
-0.65436658792256,0.569760508973992
-0.65543648813163,0.569684750317931
-0.65650052296356,0.569579486790284
-0.657558542121344,0.569444825682065
-0.658610395307978,0.56928087428429
-0.659655932226458,0.569087739887975
-0.66069500257978,0.568865529784135
-0.66172745607094,0.568614351263785
-0.662753142402934,0.568334311617941
-0.663771911278756,0.568025518137618
-0.664783612401403,0.567688078113833
-0.665788095473872,0.567322098837599
-0.666785210199156,0.566927687599934
-0.667774806280253,0.566504951691851
-0.668756733420157,0.566053998404367
-0.669730841321865,0.565574935028498
-0.670696979688373,0.565067868855258
-0.671654998222675,0.564532907175663
-0.672604746627769,0.563970157280728
-0.673546074606649,0.56337972646147
-0.674478831862312,0.562761722008903
-0.675402868097753,0.562116251214043
-0.676318033015968,0.561443421367905
-0.677224176319953,0.560743339761505
-0.678121147712703,0.560016113685859
-0.679008796897214,0.559261850431981
-0.679886973576482,0.558480657290888
-0.680755527453503,0.557672641553594
-0.681614308231273,0.556837910511115
-0.682463165612786,0.555976571454468
-0.68330194930104,0.555088731674666
-0.684130508999029,0.554174498462725
-0.68494869440975,0.553233979109662
-0.685756355236198,0.552267280906491
-0.686553341181369,0.551274511144228
-0.687339501948259,0.550255777113889
-0.688114687239864,0.549211186106488
-0.688878746759178,0.548140845413042
-0.689631530209199,0.547044862324565
-0.690372887292921,0.545923344132074
-0.691102667713341,0.544776398126584
-0.691820721173455,0.543604131599109
-0.692526897376257,0.542406651840667
-0.693221046024744,0.541184066142271
-0.693903016821912,0.539936481794938
-0.694572659470756,0.538664006089683
-0.695229823674272,0.537366746317522
-0.695874359135455,0.536044809769469
-0.696506115557303,0.534698303736541
-0.697124942642809,0.533327335509753
-0.697730690094971,0.53193201238012
-0.698323207616784,0.530512441638658
-0.698902344911243,0.529068730576382
-0.699467951681344,0.527600986484308
-0.700019877630084,0.526109316653451
-0.700557972460458,0.524593828374827
-0.70108208587546,0.523054628939451
-0.701592067578089,0.521491825638339
-0.702087767271338,0.519905525762505
-0.702569034658205,0.518295836602966
-0.703035719441684,0.516662865450737
-0.703487671324771,0.515006719596834
-0.703924740010462,0.513327506332271
-0.704346775201754,0.511625332948065
-0.704753626601641,0.509900306735231
-0.705145143913119,0.508152534984784
-0.705521176839184,0.506382124987739
-0.705881575082833,0.504589184035113
-0.70622618834706,0.502773819417921
-0.706554866334861,0.500936138427177
-0.706867458749233,0.499076248353899
-0.70716381529317,0.4971942564891
-0.70744378566967,0.495290270123797
-0.707707219581726,0.493364396549005
-0.707953966732336,0.491416743055739
-0.708183876824495,0.489447416935016
-0.708396799561198,0.487456525477849
-0.708592584645442,0.485444175975256
-0.708771081780222,0.483410475718251
-0.708932140668534,0.481355531997849
-0.709075611013373,0.479279452105067
-0.709201342517737,0.47718234333092
-0.709309184884619,0.475064312966423
-0.709398987817016,0.472925468302591
-0.709470601017924,0.47076591663044
-0.709523874190339,0.468585765240986
-0.709558657037256,0.466385121425244
-0.70957479926167,0.46416409247423
-0.709572150566579,0.461922785678958
-0.709550560654977,0.459661308330445
-0.70950987922986,0.457379767719706
-0.709449955994224,0.455078271137756
-0.709370640651065,0.452756925875611
-0.709271782903379,0.450415839224286
-0.70915323245416,0.448055118474797
-0.709014839006406,0.445674870918158
-0.708856452263112,0.443275203845387
-0.708677921927273,0.440856224547498
-0.708479097701885,0.438418040315506
-0.708259829289944,0.435960758440427
-0.708019966394447,0.433484486213277
-0.707759358718387,0.430989330925071
-0.707477855964762,0.428475399866824
-0.707175307836567,0.425942800329552
-0.706851564036798,0.423391639604271
-0.706506474268451,0.420822024981995
-0.706139888234521,0.418234063753741
-0.705751655638003,0.415627863210523
-0.705341626181895,0.413003530643357
-0.704909649569191,0.410361173343259
-0.704455575502888,0.407700898601245
-0.703979253685981,0.405022813708328
-0.703480533821465,0.402327025955526
-0.702959265612337,0.399613642633854
-0.702415298761593,0.396882771034326
-0.701848482972227,0.394134518447959
-0.701258667947237,0.391368992165768
-0.700645703389617,0.388586299478768
-0.700009439002363,0.385786547677974
-0.699349724488472,0.382969844054404
-0.698666409550938,0.380136295899071
-0.697959343892758,0.377286010502991
-0.697228377216928,0.37441909515718
-0.696473359226442,0.371535657152653
-0.695694139624298,0.368635803780425
-0.69489056811349,0.365719642331513
-0.694062494397015,0.362787280096931
-0.693209768177867,0.359838824367695
-0.692332239159044,0.356874382434821
-0.69142975704354,0.353894061589323
-0.690502171534352,0.350897969122218
-0.689549332334475,0.347886212324521
-0.688571089146905,0.344858898487247
-0.687567291674637,0.341816134901412
-0.686537789620668,0.338758028858031
-0.685482432687993,0.33568468764812
-0.684401070579608,0.332596218562694
-0.683293552998509,0.329492728892769
-0.682159729647692,0.326374325929359
-0.680999450230151,0.323241116963482
-0.679812564448884,0.320093209286151
-0.678598922006885,0.316930710188383
-0.67735837260715,0.313753726961192
-0.676090765952676,0.310562366895595
-0.674795951746458,0.307356737282607
-0.673473779691492,0.304136945413244
-0.672124099490773,0.30090309857852
-0.670746760847297,0.297655304069451
-0.669341613464061,0.294393669177053
-0.667908507044059,0.291118301192341
-0.666447291290287,0.287829307406331
-0.664957815905742,0.284526795110038
-0.663439930593419,0.281210871594478
-0.661893485056314,0.277881644150665
-0.660318328997422,0.274539220069616
-0.65871431211974,0.271183706642346
-0.65871431211974,0.271183706642346
-0.657077367553104,0.267840105143091
-0.655403657681228,0.264533251537647
-0.653693376087916,0.261263005154367
-0.651946716356975,0.258029225321608
-0.65016387207221,0.254831771367723
-0.648345036817428,0.251670502621067
-0.646490404176435,0.248545278409995
-0.644600167733038,0.245455958062862
-0.642674521071041,0.242402400908022
-0.64071365777425,0.239384466273829
-0.638717771426473,0.236402013488639
-0.636687055611515,0.233454901880806
-0.634621703913182,0.230542990778685
-0.63252190991528,0.22766613951063
-0.630387867201615,0.224824207404996
-0.628219769355993,0.222017053790138
-0.62601780996222,0.219244537994411
-0.623782182604103,0.216506519346168
-0.621513080865447,0.213802857173765
-0.619210698330058,0.211133410805556
-0.616875228581743,0.208498039569897
-0.614506865204306,0.205896602795141
-0.612105801781555,0.203328959809644
-0.609672231897296,0.200794969941759
-0.607206349135335,0.198294492519842
-0.604708347079476,0.195827386872248
-0.602178419313527,0.19339351232733
-0.599616759421294,0.190992728213444
-0.597023560986583,0.188624893858944
-0.594399017593199,0.186289868592185
-0.591743322824949,0.183987511741522
-0.589056670265638,0.181717682635309
-0.586339253499073,0.179480240601901
-0.583591266109061,0.177275044969652
-0.580812901679405,0.175101955066918
-0.578004353793914,0.172960830222053
-0.575165816036393,0.170851529763411
-0.572297481990648,0.168773913019347
-0.569399545240484,0.166727839318216
-0.566472199369709,0.164713167988373
-0.563515637962128,0.162729758358171
-0.560530054601546,0.160777469755967
-0.557515642871771,0.158856161510114
-0.554472596356608,0.156965692948967
-0.551401108639864,0.155105923400881
-0.548301373305343,0.153276712194211
-0.545173583936853,0.15147791865731
-0.542017934118199,0.149709402118534
-0.538834617433187,0.147971021906238
-0.535623827465624,0.146262637348776
-0.532385757799315,0.144584107774502
-0.529120602018067,0.142935292511772
-0.525828553705685,0.14131605088894
-0.522509806445976,0.13972624223436
-0.519164553822745,0.138165725876388
-0.515792989419799,0.136634361143378
-0.512395306820943,0.135132007363685
-0.508971699609984,0.133658523865663
-0.505522361370728,0.132213769977667
-0.502047485686981,0.130797605028051
-0.498547266142548,0.129409888345171
-0.495021896321236,0.128050479257381
-0.491471569806851,0.126719237093035
-0.487896480183199,0.125416021180489
-0.484296821034086,0.124140690848096
-0.480672785943317,0.122893105424213
-0.4770245684947,0.121673124237192
-0.47335236227204,0.120480606615389
-0.469656360859143,0.119315411887159
-0.465936757839814,0.118177399380856
-0.462193746797861,0.117066428424835
-0.45842752131709,0.115982358347451
-0.454638274981305,0.114925048477057
-0.450826201374314,0.11389435814201
-0.446991494079921,0.112890146670663
-0.443134346681935,0.111912273391371
-0.439254952764159,0.110960597632489
-0.435353505910401,0.110034978722371
-0.431430199704467,0.109135275989373
-0.427485227730162,0.108261348761848
-0.423518783571292,0.107413056368152
-0.419531060811664,0.106590258136639
-0.415522253035083,0.105792813395663
-0.411492553825356,0.10502058147358
-0.407442156766289,0.104273421698744
-0.403371255441687,0.10355119339951
-0.399280043435357,0.102853755904232
-0.395168714331105,0.102180968541265
-0.391037461712737,0.101532690638964
-0.386886479164058,0.100908781525684
-0.382715960268875,0.100309100529778
-0.378526098610995,0.0997335069796017
-0.374317087774222,0.09918186020351
-0.370089121342363,0.0986540195298572
-0.365842392899224,0.098149844286998
-0.361577096028611,0.0976691938032872
-0.35729342431433,0.0972119274070793
-0.352991571340187,0.096777904426729
-0.348671730689988,0.0963669841905909
-0.34433409594754,0.0959790260270198
-0.339978860696648,0.0956138892643703
-0.335606218521118,0.095271433230997
-0.331216363004756,0.0949515172552545
-0.326809487731369,0.0946540006654977
-0.322385786284762,0.0943787427900811
-0.317945452248741,0.0941256029573593
-0.313488679207113,0.093894440495687
-0.309015660743683,0.0936851147334189
-0.304526590442258,0.0934974849989097
-0.300021661886643,0.0933314106205139
-0.295501068660645,0.0931867509265862
-0.29096500434807,0.0930633652454814
-0.286413662532723,0.0929611129055541
-0.281847236798411,0.0928798532351589
-0.27726592072894,0.0928194455626504
-0.272669907908115,0.0927797492163834
-0.268059391919743,0.0927606235247125
-0.26343456634763,0.0927619278159923
-0.258795624775582,0.0927835214185775
-0.254142760787405,0.0928252636608228
-0.249476167966904,0.0928870138710828
-0.244796039897887,0.0929686313777122
-0.240102570164158,0.0930699755090656
-0.235395952349525,0.0931909055934977
-0.230676380037793,0.0933312809593632
-0.225944046812768,0.0934909609350166
-0.221199146258256,0.0936698048488127
-0.216441871958063,0.0938676720291061
-0.211672417495996,0.0940844218042515
-0.206890976455859,0.0943199135026036
-0.20209774242146,0.0945740064525169
-0.197292908976604,0.0948465599823462
-0.192476669705098,0.095137433420446
-0.187649218190747,0.0954464860951712
-0.182810748017358,0.0957735773348762
-0.177961452768736,0.0961185664679159
-0.173101526028687,0.0964813128226447
-0.168231161381018,0.0968616757274175
-0.163350552409535,0.0972595145105888
-0.158459892698043,0.0976746885005133
-0.153559375830349,0.0981070570255456
-0.148649195390259,0.0985564794140405
-0.143729544961578,0.0990228149943525
-0.138800618128113,0.0995059230948364
-0.13386260847367,0.100005663043847
-0.128915709582055,0.100521894169738
-0.123960115037074,0.101054475800866
-0.118996018422532,0.101603267265583
-0.114023613322237,0.102168127892246
-0.109043093319993,0.102748917009209
-0.104054651999608,0.103345493944826
-0.0990584829448862,0.103957718027452
-0.0940547797396348,0.104585448585442
-0.0890437359676596,0.10522854494715
-0.0840255452127664,0.105886866440932
-0.0790004010587615,0.106560272395141
-0.0739684970894509,0.107248622138132
-0.0689300268886405,0.107951774998261
-0.0638851840401364,0.108669590303881
-0.0588341621277446,0.109401927383348
-0.0537771547352714,0.110148645565015
-0.0487143554465223,0.110909604177238
-0.0436459578453038,0.111684662548372
-0.0385721555154218,0.11247368000677
-0.0334931420406824,0.113276515880788
-0.0284091110048914,0.114093029498781
-0.023320255991855,0.114923080189102
-0.0182267705853793,0.115766527280107
-0.0131288483692703,0.11662323010015
-0.00802668292733394,0.117493047977586
-0.0029204678433763,0.11837584024077
0.0021896032987965,0.119271466218056
0.00730333691537846,0.120179785237799
0.0124205394225637,0.121100656628353
0.0175410172365461,0.122033939718073
0.0226645767735194,0.122979493835315
0.0277910244496778,0.123937178308432
0.0329201666812152,0.124906852465779
0.0380518098843257,0.125888375635711
0.043185760475203,0.126881607146582
0.0483218248700412,0.127886406326748
0.0534598094850344,0.128902632504562
0.0585995207363764,0.12993014500838
0.0637407650402611,0.130968803166556
0.0688833488128825,0.132018466307444
0.0740270784704348,0.1330789937594
0.0791717604291117,0.134150244850778
0.0843172011051072,0.135232078909933
0.0894632069146153,0.13632435526522
0.0946095842738301,0.137426933244992
0.0997561395989454,0.138539672177605
0.104902679306155,0.139662431391413
0.110049009811653,0.140795070214772
0.115194937531634,0.141937447976035
0.120340268882291,0.143089424003558
0.125484810279819,0.144250857625694
0.13062836814041,0.145421608170799
0.13577074888026,0.146601534967228
0.140911758915563,0.147790497343334
0.146051204662511,0.148988354627473
0.1511888925373,0.150194966147999
0.156324628956123,0.151410191233268
0.161458220335174,0.152633889211632
0.166589473090647,0.153865919411449
0.171718193638736,0.155106141161071
0.176844188395635,0.156354413788853
0.181967263777538,0.157610596623151
0.187087226200639,0.158874548992319
0.192203882081132,0.160146130224711
0.197317037835211,0.161425199648682
0.202426499879069,0.162711616592588
0.207532074628902,0.164005240384781
0.212633568500902,0.165305930353618
0.217730787911263,0.166613545827453
0.222823539276181,0.16792794613464
0.227911629011848,0.169248990603535
0.232994863534459,0.170576538562491
0.238073049260207,0.171910449339864
0.243145992605287,0.173250582264007
0.248213499985892,0.174596796663277
0.253275377818217,0.175948951866027
0.258331432518455,0.177306907200612
0.263381470502801,0.178670521995387
0.268425298187448,0.180039655578706
0.27346272198859,0.181414167278924
0.278493548322421,0.182793916424396
0.283517583605136,0.184178762343476
0.288534634252928,0.185568564364519
0.293544506681991,0.18696318181588
0.298547007308519,0.188362474025914
0.303541942548707,0.189766300322974
0.308529118818747,0.191174520035416
0.313508342534835,0.192586992491594
0.318479420113163,0.194003577019863
0.323442157969927,0.195424132948578
0.328396362521319,0.196848519606093
0.333341840183534,0.198276596320763
0.338278397372766,0.199708222420943
0.343205840505209,0.201143257234987
0.348123975997057,0.20258156009125
0.353032610264503,0.204022990318086
0.357931549723742,0.205467407243851
0.362820600790968,0.206914670196898
0.367699569882375,0.208364638505583
0.372568263414155,0.20981717149826
0.377426487802505,0.211272128503284
0.382274049463617,0.21272936884901
0.387110754813686,0.214188751863792
0.391936410268905,0.215650136875984
0.396750822245468,0.217113383213942
0.40155379715957,0.21857835020602
0.406345141427404,0.220044897180573
0.411124661465165,0.221512883465956
0.415892163689045,0.222982168390522
0.42064745451524,0.224452611282627
0.425390340359943,0.225924071470626
0.430120627639349,0.227396408282873
0.43483812276965,0.228869481047722
0.439542632167042,0.230343149093529
0.444233962247717,0.231817271748648
0.448911919427871,0.233291708341434
0.453576310123696,0.234766318200241
0.458226940751388,0.236240960653424
0.462863617727139,0.237715495029337
0.467486147467145,0.239189780656336
0.472094336387598,0.240663676862775
0.476687990904693,0.242137042977009
0.481266917434623,0.243609738327392
0.485830922393584,0.245081622242279
0.490379812197768,0.246552554050024
0.49491339326337,0.248022393078983
0.499431472006583,0.24949099865751
0.503933854843602,0.250958230113959
0.508420348190621,0.252423946776686
0.512890758463833,0.253888007974044
0.517344892079433,0.255350273034389
0.521782555453614,0.256810601286076
0.52620355500257,0.258268852057458
0.530607697142496,0.25972488467689
0.534994788289585,0.261178558472728
0.539364634860031,0.262629732773326
0.543717043270029,0.264078266907038
0.548051819935772,0.26552402020222
0.552368771273454,0.266966851987225
0.556667703699269,0.268406621590408
0.560948423629411,0.269843188340125
0.565210737480075,0.27127641156473
0.569454451667453,0.272706150592577
0.573679372607741,0.274132264752021
0.577885306717131,0.275554613371417
0.582072060411819,0.276973055779119
0.586239440107997,0.278387451303482
0.59038725222186,0.279797659272861
0.594515303169602,0.281203539015611
0.598623399367417,0.282604949860085
0.602711347231498,0.28400175113464
0.606778953178041,0.285393802167628
0.610826023623238,0.286780962287406
0.614852364983283,0.288163090822327
0.618857783674371,0.289540047100747
0.622842086112696,0.290911690451019
0.626805078714451,0.292277880201499
0.630746567895832,0.293638475680542
0.63466636007303,0.294993336216501
0.63856426166224,0.296342321137733
0.642440079079658,0.29768528977259
0.646293618741475,0.299022101449428
0.650124687063887,0.300352615496602
0.653933090463087,0.301676691242466
0.657718635355269,0.302994188015375
0.661481128156628,0.304304965143684
0.665220375283357,0.305608881955746
0.66893618315165,0.306905797779918
0.672628358177701,0.308195571944553
0.676296706777704,0.309478063778007
0.679941035367853,0.310753132608633
0.683561150364342,0.312020637764787
0.687156858183365,0.313280438574823
0.690727965241116,0.314532394367095
0.694274277953789,0.315776364469959
0.697795602737578,0.31701220821177
0.701291746008676,0.318239784920881
0.704762514183279,0.319458953925647
0.708207713677578,0.320669574554424
0.711627150907771,0.321871506135565
0.715020632290048,0.323064607997426
0.718387964240605,0.324248739468361
0.721728953175636,0.325423759876724
0.725043405511334,0.326589528550871
0.728331127663894,0.327745904819156
0.731591926049509,0.328892748009934
0.734825607084374,0.330029917451559
0.738031977184682,0.331157272472386
0.741210842766628,0.33227467240077
0.744362010246405,0.333381976565065
0.747485286040207,0.334479044293626
0.750580476564228,0.335565734914807
0.753647388234663,0.336641907756964
0.756685827467705,0.337707422148451
0.759695600679548,0.338762137417623
0.762676514286387,0.339805912892834
0.765628374704414,0.340838607902438
0.768550988349824,0.341860081774792
0.771444161638812,0.342870193838248
0.77430770098757,0.343868803421163
0.777141412812294,0.34485576985189
0.779945103529176,0.345830952458784
0.782718579554411,0.3467942105702
0.785461647304193,0.347745403514492
0.788174113194716,0.348684390620016
0.790855783642174,0.349611031215126
0.79350646506276,0.350525184628176
0.796125963872669,0.351426710187521
0.798714086488095,0.352315467221516
0.801270639325232,0.353191315058516
0.803795428800273,0.354054113026874
0.806288261329412,0.354903720454947
0.808748943328844,0.355739996671088
0.811177281214763,0.356562801003652
0.813573081403362,0.357371992780993
0.815936150310835,0.358167431331468
0.818266294353377,0.358948975983429
0.820563319947181,0.359716486065232
0.822827033508441,0.360469820905231
0.825057241453352,0.361208839831781
0.827253750198107,0.361933402173237
0.8294163661589,0.362643367257954
0.831544895751926,0.363338594414285
0.833639145393377,0.364018942970586
0.835698921499448,0.364684272255212
0.837724030486334,0.365334441596516
0.839714278770228,0.365969310322854
0.841669472767323,0.36658873776258
0.843589418893815,0.367192583244049
0.845473923565896,0.367780706095616
0.847322793199762,0.368352965645635
0.849135834211605,0.368909221222461
0.85091285301762,0.369449332154449
0.852653656034,0.369973157769953
0.854358049676941,0.370480557397327
0.856025840362635,0.370971390364928
0.857656834507276,0.371445516001108
0.85925083852706,0.371902793634224
0.860807658838179,0.372343082592628
0.862327101856827,0.372766242204677
0.8638089739992,0.373172131798725
0.865253081681489,0.373560610703127
0.86665923131989,0.373931538246236
0.868027229330596,0.374284773756409
0.869356882129802,0.374620176561998
0.870647996133701,0.37493760599136
0.871900377758488,0.375236921372849
0.873113833420355,0.375517982034819
0.874288169535498,0.375780647305625
0.87542319252011,0.376024776513622
0.876518708790385,0.376250228987165
0.877574524762518,0.376456864054607
0.878590446852701,0.376644541044304
0.879566281477129,0.376813119284611
0.879566281477129,0.376813119284611
0.880487241102332,0.37695287960788
0.881338899977845,0.377054398553616
0.882121607194378,0.377117979010898
0.882835711842637,0.377143923868807
0.883481563013329,0.377132536016421
0.884059509797162,0.377084118342821
0.884569901284844,0.376998973737086
0.885013086567081,0.376877405088296
0.885389414734581,0.376719715285531
0.885699234878052,0.376526207217871
0.8859428960882,0.376297183774395
0.886120747455733,0.376032947844183
0.886233138071359,0.375733802316315
0.886280417025784,0.375400050079871
0.886262933409717,0.37503199402393
0.886181036313864,0.374629937037572
0.886035074828934,0.374194182009876
0.885825398045632,0.373725031829924
0.885552355054666,0.373222789386793
0.885216294946745,0.372687757569566
0.884817566812576,0.372120239267319
0.884356519742864,0.371520537369135
0.883833502828319,0.370888954764091
0.883248865159648,0.370225794341269
0.882602955827557,0.369531358989748
0.881896123922754,0.368805951598607
0.881128718535946,0.368049875056927
0.880301088757842,0.367263432253787
0.879413583679148,0.366446926078267
0.878466552390571,0.365600659419446
0.877460343982819,0.364724935166405
0.876395307546599,0.363820056208222
0.87527179217262,0.362886325433979
0.874090146951586,0.361924045732755
0.872850720974208,0.360933519993628
0.871553863331191,0.35991505110568
0.870199923113243,0.35886894195799
0.868789249411072,0.357795495439638
0.867322191315384,0.356695014439702
0.865799097916888,0.355567801847264
0.86422031830629,0.354414160551403
0.862586201574298,0.353234393441199
0.860897096811619,0.352028803405731
0.85915335310896,0.350797693334079
0.85735531955703,0.349541366115323
0.855503345246535,0.348260124638543
0.853597779268183,0.346954271792818
0.851638970712681,0.345624110467228
0.849627268670736,0.344269943550854
0.847563022233055,0.342892073932773
0.845446580490347,0.341490804502068
0.843278292533319,0.340066438147816
0.841058507452677,0.338619277759099
0.838787574339129,0.337149626224995
0.836465842283383,0.335657786434584
0.834093660376146,0.334144061276947
0.831671377708125,0.332608753641163
0.829199343370028,0.331052166416311
0.826677906452562,0.329474602491472
0.824107416046434,0.327876364755725
0.821488221242352,0.32625775609815
0.818820671131023,0.324619079407827
0.816105114803154,0.322960637573835
0.813341901349453,0.321282733485254
0.810531379860628,0.319585670031164
0.807673899427384,0.317869750100645
0.80476980914043,0.316135276582777
0.801819458090474,0.314382552366638
0.798823195368223,0.31261188034131
0.795781370064383,0.310823563395871
0.792694331269663,0.309017904419402
0.789562428074769,0.307195206300982
0.78638600957041,0.305355771929691
0.783165424847291,0.303499904194609
0.779901022996122,0.301627905984815
0.776593153107608,0.299740080189389
0.773242164272458,0.297836729697412
0.769848405581379,0.295918157397962
0.766412226125078,0.293984666180119
0.762933974994263,0.292036558932964
0.75941400127964,0.290074138545576
0.755852654071918,0.288097707907035
0.752250282461803,0.28610756990642
0.748607235540004,0.284104027432811
0.744923862397226,0.282087383375289
0.741200512124179,0.280057940622932
0.737437533811568,0.27801600206482
0.733635276550102,0.275961870590034
0.729794089430488,0.273895849087653
0.725914321543432,0.271818240446757
0.721996321979643,0.269729347556425
0.718040439829829,0.267629473305737
0.714047024184695,0.265518920583774
0.71001642413495,0.263397992279614
0.705948988771301,0.261266991282337
0.701845067184455,0.259126220481024
0.69770500846512,0.256975982764754
0.693529161704003,0.254816581022607
0.689317875991811,0.252648318143662
0.685071500419252,0.250471497017
0.680790384077033,0.2482864205317
0.676474876055861,0.246093391576841
0.672125325446444,0.243892713041504
0.66774208133949,0.241684687814768
0.663325492825705,0.239469618785714
0.658875908995797,0.23724780884342
0.654393678940473,0.235019560876966
0.649879151750441,0.232785177775433
0.645332676516408,0.2305449624279
0.640754602329081,0.228299217723447
0.636145278279167,0.226048246551153
0.631505053457375,0.223792351800099
0.626834276954412,0.221531836359364
0.622133297860984,0.219267003118027
0.617402465267799,0.216998154965169
0.612642128265565,0.21472559478987
0.607852635944988,0.212449625481208
0.603034337396777,0.210170549928265
0.598187581711638,0.207888671020118
0.593312717980279,0.20560429164585
0.588410095293408,0.203317714694538
0.583480062741731,0.201029243055263
0.578522969415956,0.198739179617105
0.573539164406791,0.196447827269143
0.568528996804942,0.194155488900457
0.563492815701117,0.191862467400127
0.558430970186024,0.189569065657232
0.553343809350369,0.187275586560853
0.548231682284861,0.184982333000069
0.543094938080207,0.18268960786396
0.537933925827113,0.180397714041605
0.532748994616287,0.178106954422085
0.527540493538437,0.175817631894479
0.52230877168427,0.173530049347867
0.517054178144494,0.171244509671328
0.511777062009815,0.168961315753943
0.506477772370941,0.166680770484791
0.501156658318579,0.164403176752951
0.495814068943437,0.162128837447505
0.490450353336223,0.15985805545753
0.485065860587643,0.157591133672108
0.479660939788405,0.155328374980318
0.474235940029215,0.153070082271239
0.468791210400783,0.150816558433952
0.463327099993814,0.148568106357536
0.457843957899017,0.14632502893107
0.452342133207098,0.144087629043636
0.446821975008766,0.141856209584311
0.441283832394727,0.139631073442177
0.435728054455688,0.137412523506313
0.430154990282357,0.135200862665798
0.424564988965442,0.132996393809713
0.41895839959565,0.130799419827137
0.413335571263688,0.12861024360715
0.407696853060263,0.126429168038831
0.402042594076084,0.124256496011261
0.396373143401856,0.122092530413519
0.390688850128289,0.119937574134685
0.384990063346088,0.117791930063839
0.379277132145961,0.11565590109006
0.373550405618616,0.113529790102428
0.367810232854761,0.111413899990023
0.362056962945101,0.109308533641925
0.356290944980345,0.107213993947213
0.350512528051201,0.105130583794967
0.344722061248375,0.103058606074268
0.338919893662575,0.100998363674194
0.333106374384508,0.098950159483825
0.327281852504881,0.0969142963922416
0.321446677114403,0.0948910772885231
0.315601197303779,0.0928808050617493
0.309745762163719,0.0908837826009999
0.303880720784928,0.0889003127953548
0.298006422258115,0.0869306985338935
0.292123215673986,0.084975242705696
0.28623145012325,0.0830342481998419
0.280331474696613,0.0811080179054111
0.274423638484783,0.0791968547114831
0.268508290578466,0.0773010615071378
0.262585780068372,0.0754209411814551
0.256656456045206,0.0735567966235146
0.250720667599677,0.0717089307223959
0.244778763822491,0.069877646367179
0.238831093804356,0.0680632464469436
0.23287800663598,0.0662660338507695
0.226919851408069,0.0644863114677362
0.220956977211331,0.0627243821869237
0.214989733136473,0.0609805488974116
0.209018468274204,0.0592551144882798
0.203043531715229,0.057548381848608
0.197065272550257,0.0558606538674758
0.191084039869995,0.0541922334339632
0.18510018276515,0.0525434234371499
0.179114050326429,0.0509145267661155
0.17312599164454,0.0493058463099398
0.167136355810191,0.0477176849577026
0.161145491914088,0.0461503455984837
0.155153749046939,0.0446041311213627
0.149161476299452,0.0430793444154195
0.143169022762333,0.0415762883697339
0.137176737526291,0.0400952658733854
0.131184969682032,0.038636579815454
0.125194068320263,0.0372005330850193
0.119204382531693,0.0357874285711612
0.113216261407028,0.0343975691629592
0.107230054036976,0.0330312577494934
0.101246109512245,0.0316887972198432
0.0952647769235407,0.0303704904630886
0.0892864053615715,0.0290766403683093
0.0833113439170449,0.027807549824585
0.0773399416806676,0.0265635217209954
0.0713725477431477,0.0253448589466204
0.0654095111951919,0.0241518643905396
0.0594511811275081,0.022984840941833
0.0534979066308031,0.02184409148958
0.0475500367957849,0.0207299189228607
0.0416079207131602,0.0196426261307545
0.035671907473637,0.0185825160023414
0.0297423461679221,0.0175498914267012
0.0238195858867233,0.0165450552929135
0.0179039757207476,0.015568310490058
0.0119958647607027,0.0146199599072146
0.00609560209729557,0.013700306433463
0.000203536821234002,0.012809652957883
-0.00567998197677511,0.0119483023695543
-0.0115546052060238,0.0111165575575566
-0.0174199837758055,0.0103147214109697
-0.0232757685954121,0.00954309681887342
-0.0291216105741367,0.00880198667034741
-0.0349571606212716,0.00809169385447151
-0.0407820696461099,0.00741252126032538
-0.0465959885579437,0.00676477177698885
-0.0523985682660663,0.00614874829354162
-0.0581894596797695,0.00556475369906349
-0.0639683137083468,0.00501309088263418
-0.0697347812610901,0.00449406273333341
-0.0754885132472927,0.00400797214024102
-0.0812291605762466,0.00355512199243671
-0.086956374157245,0.00313581517900017
-0.0926698048995801,0.00275035458901127
-0.0983691037125449,0.0023990431115497
-0.104053921505432,0.00208218363569524
-0.109723909187534,0.00180007905052762
-0.115378717668143,0.00155303224512656
-0.121017997856552,0.00134134610857189
-0.126641400662054,0.00116532352994328
-0.132248576993942,0.00102526739832055
-0.137839177761507,0.000921480602783438
-0.143412853874043,0.000854266032411641
-0.148969256240842,0.000823926576284996
-0.154508035771198,0.000830765123483163
-0.160028843374402,0.00087508456308597
-0.165531329959747,0.000957187784173151
-0.171015146436526,0.00107737767582443
-0.176479943714031,0.0012359571271196
-0.181925372701556,0.00143322902713839
-0.187351084308392,0.00166949626496052
-0.192756729443833,0.00194506172966582
-0.198141959017171,0.00226022831033395
-0.203506423937699,0.00261529889604477
-0.208849775114709,0.00301057637587795
-0.214171663457494,0.00344636363891321
-0.219471739875346,0.00392296357423046
-0.224749655277559,0.00444067907090928
-0.230005060573425,0.00499981301802949
-0.235237606672236,0.00560066830467087
-0.240446944483286,0.00624354781991314
-0.245632724915866,0.00692875445283604
-0.25079459887927,0.00765659109251933
-0.25593221728279,0.0084273606280428
-0.261045231035718,0.00924136594848623
-0.266133291047348,0.0100989099429292
-0.271196048226972,0.0110002955004516
-0.276233153483883,0.0119458255101332
-0.281244257727373,0.0129358028610538
-0.286229011866735,0.0139705304422929
-0.291187066811261,0.0150503111429305
-0.296118073470245,0.0161754478520463
-0.301021682752979,0.01734624345872
-0.305897545568755,0.0185630008520313
-0.310745312826866,0.0198260229210601
-0.315564635436605,0.0211356125548861
-0.320355164307265,0.0224920726425889
-0.325116550348137,0.0238957060732485
-0.329848444468515,0.0253468157359445
-0.334550497577692,0.0268457045197567
-0.33922236058496,0.0283926753137648
-0.343863684399611,0.0299880310070487
-0.348474119930939,0.031632074488688
-0.353053318088235,0.0333251086477623
-0.357600929780793,0.0350674363733518
-0.362116605917905,0.0368593605545359
-0.366599997408864,0.0387011840803945
-0.371050755162962,0.0405932098400073
-0.375468530089493,0.042535740722454
-0.379852973097748,0.0445290796168144
-0.384203735097021,0.0465735294121684
-0.388520466996604,0.0486693929975954
-0.392802819705789,0.0508169732621756
-0.39705044413387,0.0530165730949883
-0.401262991190139,0.0552684953851136
-0.405440111783888,0.0575730430216311
-0.40958145682441,0.0599305188936205
-0.413686677220999,0.0623412258901617
-0.417755423882946,0.0648054669003344
-0.421787347719544,0.0673235448132182
-0.425782099640086,0.0698957625178932
-0.429739330553864,0.0725224229034387
-0.433658691370171,0.0752038288589349
-0.4375398329983,0.0779402832734611
-0.441382406347544,0.0807320890360975
-0.445186062327194,0.0835795490359235
-0.448950451846544,0.0864829661620192
-0.452675225814887,0.0894426433034639
-0.456360035141514,0.0924588833493378
-0.460004530735719,0.0955319891887203
-0.463608363506794,0.0986622637106914
-0.467171184364032,0.101850009804331
-0.470692644216725,0.105095530358718
-0.474172393974166,0.108399128262933
-0.477610084545649,0.111761106406056
-0.481005366840464,0.115181767677166
-0.484357891767906,0.118661414965343
-0.487667310237266,0.122200351159666
-0.490933273157838,0.125798879149216
-0.494155431438913,0.129457301823073
-0.497333435989785,0.133175922070315
-0.500466937719747,0.136955042780024
-0.50355558753809,0.140794966841277
-0.506599036354108,0.144695997143156
-0.509596935077093,0.148658436574741
-0.512548934616338,0.15268258802511
-0.515454685881135,0.156768754383343
-0.518313839780777,0.160917238538521
-0.521126047224557,0.165128343379723
-0.523890959121768,0.169402371796028
-0.526608226381701,0.173739626676517
-0.52927749991365,0.17814041091027
-0.531898430626908,0.182605027386365
-0.534470669430766,0.187133778993883
-0.536993867234517,0.191726968621904
-0.539467674947456,0.196384899159507
-0.541891743478872,0.201107873495773
-0.544265723738061,0.20589619451978
-0.546589266634313,0.210750165120608
-0.548862023076923,0.215670088187338
-0.551083643975181,0.220656266609049
-0.553253780238382,0.225709003274821
-0.555372082775817,0.230828601073733
-0.55743820249678,0.236015362894866
-0.559451790310562,0.241269591627299
-0.561412497126458,0.246591590160111
-0.563319973853758,0.251981661382383
-0.565173871401756,0.257440108183195
-0.566973840679746,0.262967233451626
-0.568719532597018,0.268563340076755
-0.570410598062866,0.274228730947663
-0.572046687986582,0.279963708953429
-0.573627453277459,0.285768576983134
-0.57515254484479,0.291643637925856
-0.576621613597868,0.297589194670676
-0.578034310445984,0.303605550106673
-0.579390286298432,0.309693007122928
-0.580689192064505,0.315851868608519
-0.581930678653494,0.322082437452527
-0.583114396974693,0.328385016544031
-0.584239997937394,0.334759908772112
-0.58530713245089,0.341207417025848
-0.586315451424474,0.347727844194319
-0.587264605767438,0.354321493166607
-0.588154246389074,0.360988666831789
-0.588984024198676,0.367729668078946
-0.589753590105536,0.374544799797158
-0.590462595018946,0.381434364875504
-0.5911106898482,0.388398666203064
-0.59169752550259,0.395438006668918
-0.592222752891408,0.402552689162146
-0.592686022923948,0.409743016571828
-0.593086986509502,0.417009291787042
-0.593425294557362,0.424351817696869
-0.593700597976821,0.431770897190389
-0.593912547677172,0.439266833156681
-0.594060794567708,0.446839928484826
-0.594144989557721,0.454490486063902
-0.594164783556503,0.46221880878299
-0.594119827473348,0.470025199531169
-0.594009772217547,0.47790996119752
-0.593834268698395,0.485873396671122
-0.593592967825183,0.493915808841054
-0.593285520507203,0.502037500596396
-0.59291157765375,0.510238774826229
-0.592470790174114,0.518519934419631
-0.591962808977589,0.526881282265684
-0.591387284973468,0.535323121253465
-0.590743869071043,0.543845754272057
-0.590032212179607,0.552449484210536
-0.589251965208452,0.561134613957985
-0.588402779066871,0.569901446403482
-0.587484304664157,0.578750284436107
