-0.136882161376298,-0.48203282898538
-0.104450119875294,-0.456748756143224
-0.0733323541343359,-0.432761768063936
-0.0435037063479748,-0.41004722286831
-0.0149390187107602,-0.388580478677143
0.012386866582758,-0.368336893611228
0.0384991073380299,-0.349291825791362
0.0634228613605057,-0.33142063333834
0.0871832864556354,-0.314698674372958
0.109805540428869,-0.29910130701601
0.131314781085657,-0.284603889388293
0.151736166231449,-0.271181779610601
0.171094853671696,-0.25881033580373
0.189416001211847,-0.247464916088475
0.206724766657353,-0.237120878585632
0.223046307813663,-0.227753581415996
0.238405782486228,-0.219338382700362
0.252828348480499,-0.211850640559526
0.266339163601924,-0.205265713114283
0.278963385655954,-0.199558958485428
0.29072617244804,-0.194705734793758
0.301652681783631,-0.190681400160066
0.311768071468178,-0.187461312705149
0.32109749930713,-0.185020830549802
0.329666123105938,-0.183335311814821
0.337499100670051,-0.182380114621
0.344621589804921,-0.182130597089135
0.351058748315997,-0.182562117340021
0.356835734008729,-0.183650033494454
0.361977704688567,-0.18536970367323
0.366509818160962,-0.187696485997143
0.370457232231363,-0.190605738586989
0.37384510470522,-0.194072819563563
0.376698593387985,-0.198073087047661
0.379042856085106,-0.202581899160077
0.380903050602034,-0.207574614021609
0.382304334744219,-0.213026589753049
0.383271866317112,-0.218913184475195
0.383830803126161,-0.225209756308842
0.384006302976818,-0.231891663374784
0.383823523674533,-0.238934263793818
0.383307623024755,-0.246312915686738
0.382483758832935,-0.25400297717434
0.381377088904523,-0.261979806377419
0.380012771044968,-0.270218761416771
0.378415963059722,-0.278695200413191
0.376611822754234,-0.287384481487475
0.374625507933954,-0.296261962760417
0.372482176404333,-0.305303002352814
0.37020698597082,-0.31448295838546
0.367825094438865,-0.323777188979151
0.36536165961392,-0.333161052254682
0.362841839301433,-0.342609906332849
0.360290791306855,-0.352099109334447
0.357733673435636,-0.361604019380271
0.355195643493227,-0.371099994591117
0.352701859285076,-0.38056239308778
0.350277478616635,-0.389966572991056
0.347947659293354,-0.39928789242174
0.345737559120682,-0.408501709500626
0.34367233590407,-0.417583382348512
0.341777147448968,-0.426508269086191
0.340077151560825,-0.43525172783446
0.338597506045093,-0.443789116714113
0.337363368707221,-0.452095793845946
0.336399897352659,-0.460147117350755
0.335732249786858,-0.467918445349335
0.335385583815267,-0.475385135962481
0.335385057243336,-0.482522547310988
0.335755827876516,-0.489306037515652
0.336523053520258,-0.495710964697269
0.33771189198001,-0.501712686976633
0.339347501061223,-0.50728656247454
0.341455038569347,-0.512407949311786
0.344059662309833,-0.517052205609165
0.34718653008813,-0.521194689487474
0.350860799709688,-0.524810759067507
0.355107628979959,-0.52787577247006
0.35995217570439,-0.530365087815928
0.365419597688434,-0.532254063225907
0.37153505273754,-0.533518056820791
0.378323698657157,-0.534132426721377
0.385810693252737,-0.53407253104846
0.394021194329729,-0.533313727922835
0.402980359693584,-0.531831375465297
0.412713347149751,-0.529600831796642
0.42324531450368,-0.526597455037666
0.434601419560823,-0.522796603309162
0.446806820126628,-0.518173634731928
0.459886674006546,-0.512703907426758
0.473866139006027,-0.506362779514448
0.488770372930522,-0.499125609115793
0.504624533585479,-0.490967754351588
0.52145377877635,-0.481864573342629
0.539283266308584,-0.471791424209711
0.558138153987632,-0.460723665073629
0.578043599618944,-0.44863665405518
0.59902476100797,-0.435505749275158
0.621106795960159,-0.421306308854358
0.644314862280963,-0.406013690913576
0.66247500409956,-0.393812006080043
0.686224846193632,-0.377438465057767
0.708195204061931,-0.361693122451085
0.728417131444352,-0.346560751734941
0.746921682080792,-0.332026126384283
0.763739909711148,-0.318074019874055
0.778902868075317,-0.304689205679203
0.792441610913196,-0.291856457274673
0.80438719196468,-0.279560548135411
0.814770664969667,-0.267786251736361
0.823623083668054,-0.256518341552471
0.830975501799737,-0.245741591058686
0.836858973104612,-0.235440773729951
0.841304551322577,-0.225600663041212
0.844343290193528,-0.216206032467415
0.846006243457362,-0.207241655483505
0.846324464853975,-0.198692305564428
0.845329008123265,-0.190542756185131
0.843050927005128,-0.182777780820558
0.83952127523946,-0.175382152945655
0.834771106566159,-0.168340646035368
0.82883147472512,-0.161638033564643
0.821733433456241,-0.155259089008426
0.813508036499419,-0.149188585841661
0.804186337594549,-0.143411297539295
0.793799390481529,-0.137911997576274
0.782378248900256,-0.132675459427543
0.769953966590626,-0.127686456568048
0.756557597292535,-0.122929762472734
0.742220194745881,-0.118390150616548
0.72697281269056,-0.114052394474434
0.710846504866468,-0.10990126752134
0.693872325013504,-0.10592154323221
0.676081326871562,-0.102097995081989
0.65750456418054,-0.0984153965456252
0.68395521104726,-0.0602856098948108
0.575138316166307,-0.0624485551812111
0.615512978029206,-0.0671750584070468
0.607437239355243,-0.116910426608998
0.504041699190716,-0.102714793548198
0.484774822796666,-0.0864546353737693
0.460354284635512,-0.0594883952048477
0.49432337104898,-0.115550468172156
0.45185872811283,-0.0994747833171197
0.480071786304323,-0.108235928914031
0.432053554434297,-0.0277256731109896
0.384597338382423,-0.0596758288702412
0.358631526883957,-0.0564399615340611
0.332945395881419,-0.0706528976732878
0.340093917968569,-0.0673638810649803
0.248022271098331,-0.0408222013617104
0.224890048649634,-0.0726737349277134
0.224158361331667,-0.0388727682985088
0.183109004707138,-0.0141819535727612
0.209868402600889,-0.0051449936590407
0.179962274749627,-0.075548468626947
0.112870123611679,-0.0222399943412269
0.118589147097562,-0.0146068238136216
0.0121189115367176,-0.0136558791469523
0.0712195768476884,0.00335316815994349
-0.0191190042743352,0.0239825649613284
7.04686906642521e-05,-0.0413424593186375
-0.0555870141140611,0.00929151096757434
-0.0834425718733489,0.0155101091007406
-0.111152281984816,0.0220445533716799
-0.162240724383502,-0.0066928567300317
-0.166009944304703,0.0361218864270954
-0.193095789033328,0.04369522826168
-0.219911571154547,0.0516453223342551
-0.246426236928462,0.0599873951698748
-0.232451673250244,0.0832758968548393
-0.310105624507807,0.073126508391147
-0.319984488761172,0.131884643155314
-0.348852661753149,0.0975800046438864
-0.351173946378339,0.0933345223366716
-0.370499985391861,0.139103767527971
-0.462627795771199,0.133310589038229
-0.443976925829241,0.142662396330957
-0.46638412618207,0.155217471661422
-0.442794912947541,0.144257112645272
-0.524092954292364,0.23145703470615
-0.545238336726925,0.182666578769824
-0.571516739275306,0.260859041326293
-0.568624246954223,0.226461039018649
-0.59729970334807,0.206040979066184
-0.604369214322083,0.259194516758174
-0.62101367998764,0.276529886898861
-0.636798061987752,0.294531313253569
-0.651691306582524,0.313214022347355
-0.665662360032058,0.332593240705271
-0.678680168596458,0.352684194852372
-0.690713678535827,0.373502111313712
-0.701731836110269,0.395062216614345
-0.711703587579886,0.417379737279327
-0.720597879204782,0.440469899833711
-0.728383657245061,0.464347930802551
-0.735029867960825,0.489029056710902
-0.740505457612179,0.514528504083818
-0.744779372459224,0.540861499446353
-0.747820558762065,0.568043269323562
-0.749273789616655,0.588995764713202
-0.750231304502627,0.616595291746295
-0.750207539414944,0.642880043803602
-0.749231730355266,0.667869824970759
-0.747333113325254,0.691584439333403
-0.744540924326566,0.71404369097717
-0.740884399360864,0.735267383987695
-0.736392774429806,0.755275322450614
-0.731095285535052,0.774087310451565
-0.725021168678262,0.791723152076183
-0.718199659861097,0.808202651410104
-0.710659995085215,0.823545612538964
-0.702431410352277,0.8377718395484
-0.693543141663941,0.850901136524047
-0.68402442502187,0.862953307551542
-0.67390449642772,0.873948156716521
-0.663212591883154,0.88390548810462
-0.65197794738983,0.892845105801474
-0.640229798949408,0.900786813892721
-0.627997382563548,0.907750416463997
-0.615309934233909,0.913755717600937
-0.602196689962152,0.918822521389177
-0.588686885749937,0.922970631914355
-0.574809757598923,0.926219853262105
-0.560594541510769,0.928589989518064
-0.546070473487137,0.930100844767868
-0.531266789529684,0.930772223097154
-0.516212725640072,0.930623928591557
-0.50093751781996,0.929675765336713
-0.485470402071008,0.927947537418259
-0.469840614394875,0.925459048921831
-0.454077390793222,0.922230103933065
-0.438209967267707,0.918280506537597
-0.422267579819992,0.913630060821062
-0.406279464451735,0.908298570869099
-0.390274857164597,0.902305840767342
-0.374282993960237,0.895671674601427
-0.358333110840315,0.888415876456991
-0.342454443806491,0.88055825041967
-0.326676228860425,0.872118600575099
-0.311027702003776,0.863116731008916
-0.295538099238204,0.853572445806757
-0.280236656565369,0.843505549054256
-0.265152609986931,0.832935844837051
-0.250315195504549,0.821883137240777
-0.235753649119884,0.810367230351072
-0.221497206834594,0.79840792825357
-0.207575104650341,0.786025035033908
-0.194016578568783,0.773238354777722
-0.180850864591581,0.760067691570649
-0.168107198720394,0.746532849498324
-0.155814816956882,0.732653632646383
-0.144002955302704,0.718449845100463
-0.132700849759521,0.7039412909462
-0.121937736328993,0.68914777426923
-0.111742851012779,0.674089099155189
-0.102145429812538,0.658785069689713
-0.0931747087299315,0.643255489958438
-0.0848599237666182,0.627520164047001
-0.0772303109242582,0.611598896041037
-0.0703151062045111,0.595511490026183
-0.064143545609037,0.579277750088075
-0.0587448651394954,0.562917480312348
-0.0541483007975462,0.54645048478464
-0.0503830885848491,0.529896567590586
-0.047478464503064,0.513275532815823
-0.0454636645538506,0.496607184545986
-0.0443679247388688,0.479911326866711
-0.0442204810597782,0.463207763863635
-0.0450505695182387,0.446516299622394
-0.04688742611591,0.429856738228624
-0.0497602868544519,0.413248883767962
-0.0536983877355243,0.396712540326042
-0.0587309647607869,0.380267511988502
-0.0648872539318995,0.363933602840977
-0.0721964912505218,0.347730616969104
-0.0806879127183136,0.331678358458519
-0.0903907543369348,0.315796631394858
-0.101334252108045,0.300105239863757
-0.113547642033304,0.284623987950852
-0.127060160114372,0.269372679741779
-0.141901042352909,0.254371119322174
-0.158099524750573,0.239639110777675
-0.175684843309026,0.225196458193916
-0.194686234029926,0.211062965656533
-0.215132932914934,0.197258437251164
-0.237054175965709,0.183802677063444
-0.260479199183912,0.170715489179009
-0.285437238571201,0.158016677683495
-0.311957530129237,0.145726046662539
-0.34006930985968,0.133863400201776
-0.369801813764189,0.122448542386843
-0.401184277844424,0.111501277303376
-0.434245938102045,0.101041409037011
-0.469016030538711,0.0910887416733841
-0.505523791156083,0.0816630792981314
-0.54379845595582,0.0727842259968891
-0.583869260939582,0.0644719858552934
-0.625765442109029,0.0567461629589802
-0.66951623546582,0.0496265613935859
