0.649936285500861,-0.430707189585097
0.643495586240057,-0.430120573518529
0.637086272691227,-0.429529376342014
0.630708305595024,-0.428933629792016
0.624361645692101,-0.428333365604996
0.618046253723107,-0.427728615517415
0.611762090428696,-0.427119411265735
0.60550911654952,-0.426505784586418
0.593096579999477,-0.425265390890716
0.586936938809915,-0.424638687347254
0.580808329998194,-0.424007688322001
0.574710714304967,-0.423372425551418
0.568644052470886,-0.422732930771967
0.562608305236602,-0.422089235720109
0.556603433342767,-0.421441372132305
0.458169211249861,-0.530813670388571
0.544686158539054,-0.420133266294708
0.538773677110478,-0.419473087517837
0.532891913984959,-0.418808867150867
0.527040829903149,-0.418140636930259
0.63782638416164,-0.323028181143852
0.515430541833262,-0.416792273873976
0.509671259326489,-0.416112204511224
0.503942498826032,-0.41542825224068
0.498244221072543,-0.414740448798807
0.597822234240964,-0.297670661596725
0.486938956769076,-0.413353415346915
0.481331891700402,-0.41265424880982
0.475755152341304,-0.411951358047241
0.470208699432432,-0.41124477479564
0.46469249371444,-0.410534530791477
0.355842393514628,-0.524552109070803
0.5468914403966,-0.309201686217551
0.448324967112258,-0.40838215162824
0.442929357564301,-0.407657581978449
0.437563798910484,-0.406929510258405
0.432228251891456,-0.406197968204569
0.42692267724787,-0.405462987553402
0.421647035720379,-0.404724600041367
0.416401288049634,-0.403982837404925
0.411185394976287,-0.403237731380537
0.405999317240989,-0.402489313704665
0.400843015584393,-0.40173761611377
0.39571645074715,-0.400982670344315
0.390619583469913,-0.400224508132759
0.385552374493333,-0.399463161215566
0.380514784558062,-0.398698661329196
0.471957209912736,-0.283926019481302
0.473848134940405,-0.29608462262337
0.365579336406623,-0.396386561219643
0.360659830043107,-0.395609766821182
0.35576974642416,-0.394829978135853
0.350909046290432,-0.394047226900116
0.346077690382577,-0.393261544850433
0.341275639441246,-0.392472963723266
0.447084833785547,-0.289928625378108
0.331759295420764,-0.390887231182326
0.327044923822916,-0.390090143241475
0.3223597001542,-0.389290283168987
0.317703585155268,-0.388487682701321
0.31307653956677,-0.387682373574941
0.30847852412936,-0.386874387526307
0.303909499583688,-0.386063756291881
0.299369426670408,-0.385250511608124
0.29485826613017,-0.384434685211498
0.290375978703627,-0.383616308838465
0.398608431182314,-0.292272601476048
0.281497866154232,-0.381972033109023
0.16949093837602,-0.476387642898316
0.157423780583113,-0.48890745883861
0.375709826238131,-0.281221615407498
0.264086391008459,-0.378654278337556
0.25980511611603,-0.377818940750593
0.255552400262511,-0.376981307078915
0.251328204188553,-0.376141409058984
0.364542033861374,-0.280232561643539
0.242965214341929,-0.374454946920206
0.238826342050567,-0.373608446274282
0.230633646435001,-0.371909064511674
0.222554087713326,-0.370201387031128
0.218556636539326,-0.369344516737781
0.214587351810755,-0.368485667724335
0.210646194268265,-0.367624871727251
0.206733124652506,-0.366762160482989
0.202848103704131,-0.365897565728012
0.0886012905426965,-0.474664273841073
0.19516205077214,-0.364162852631759
0.191360940269828,-0.363292797763405
0.187587721397507,-0.362420986330182
0.183842354895829,-0.361547450068551
0.0646156936540727,-0.450866406442358
0.17643502196701,-0.359795330005912
0.172772977021173,-0.358916809677827
0.169138627408587,-0.358036691467181
0.165531933869903,-0.357155007110434
0.161952857145774,-0.356271788344049
0.158401357976851,-0.355387066904487
0.154877397103786,-0.354500874528209
0.151380935267231,-0.353613242951678
0.147911933207838,-0.352724203911353
0.144470351666258,-0.351833789143698
0.141056151383144,-0.350942030385174
0.137669293099148,-0.350048959372242
0.134309737554921,-0.349154607841363
0.130977445491116,-0.348259007528999
0.127672377648383,-0.347362190171613
0.124394494767375,-0.346464187505665
0.121143757588744,-0.345565031267616
0.117920126853142,-0.344664753193928
0.114723563301221,-0.343763385021064
0.111554027673632,-0.342860958485484
0.105295883154058,-0.341053057272022
0.102207195743378,-0.340147646067064
0.203537633332544,-0.223833611784741
0.0961103943234879,-0.338334061143002
0.0931022017955825,-0.337425950896819
0.0901207623765728,-0.336517004443153
0.0871660368071105,-0.335607253518462
0.181739495984188,-0.235554885957096
0.0756134878377721,-0.331960839838698
0.189550820661961,-0.225986745132764
0.0699964757073358,-0.330133631320674
0.0672276478229574,-0.329219137719743
0.0644852197133414,-0.32830409353948
0.0617691521191395,-0.327388530516348
0.0590794057810037,-0.326472480386808
0.053778719835538,-0.324639045754349
0.0511677017095117,-0.323721724724353
0.0460241188541315,-0.321886033919137
0.0434914756060815,-0.32096772761684
0.0409848787986605,-0.320049156363366
0.132670348718702,-0.213213506555801
0.0336209744266915,-0.317292170260493
0.0312181707883058,-0.316372856566924
0.0288412172938087,-0.315453436604485
0.026490074683852,-0.314533942109638
0.0241647036990875,-0.313614404818844
0.0218650650801671,-0.312694856468565
0.0195911195677427,-0.311775328795263
0.0173428279024661,-0.310855853535398
0.0151201508249893,-0.309936462425432
-0.092349219826285,-0.41866144107926
0.0107514833960422,-0.308098059601046
0.00860541452587574,-0.307179111359548
0.00648480320611643,-0.306260374213795
0.00438961017741617,-0.305341879900249
0.00231979618042684,-0.304423660155372
0.000275321955800337,-0.303505746715625
-0.00174385175581152,-0.30258817131747
-0.00570645467738377,-0.30075416159178
-0.00956832665907489,-0.298921884869995
-0.0114615866958354,-0.29800647572672
-0.01332978177567,-0.297091595043807
-0.0151729511579269,-0.296177274557715
-0.0187843698670999,-0.294350441121846
0.0900136531033117,-0.174826858446977
0.0891214500221228,-0.180255367807198
-0.0240147866827296,-0.291615185855747
-0.0257086263258308,-0.290704893016281
-0.0273777150867911,-0.289795382528868
-0.0290220922249587,-0.28888668612997
-0.0322368686703083,-0.287071862543564
-0.0353532697366647,-0.285260676148754
-0.0368746776510908,-0.284356526239352
-0.0398441045391794,-0.28255127167886
-0.152082867775189,-0.376401823058707
-0.0427159412352373,-0.280750289039195
-0.0441153614096251,-0.279851479030826
-0.0454905018140497,-0.278953832212049
-0.0468414017078591,-0.278057380319324
-0.0481681003504016,-0.277162155089114
0.0608790151883122,-0.180841379562775
-0.050749050919078,-0.275375511562083
-0.0520033813639083,-0.274484156738186
-0.053233667594864,-0.273594155522649
-0.0544399488712935,-0.272705539651933
-0.0556222644525447,-0.271818340862502
-0.0567806535979659,-0.270932590890815
-0.0579151555669051,-0.270048321473335
-0.0590258096187105,-0.269165564346524
-0.0601126550127302,-0.268284351246842
-0.0611757310083123,-0.267404713910751
-0.0622150768648051,-0.266526684074713
-0.0632307318415565,-0.265650293475189
-0.183337819967869,-0.374904882458052
-0.065191126193228,-0.26390255693153
0.0261053964092774,-0.155352568279437
-0.067057228138112,-0.262161758171466
-0.067955017606379,-0.261294039801437
-0.0696802698313035,-0.259564123763689
-0.0705078111066573,-0.258701989568895
-0.0713120148364031,-0.257841780238768
-0.0720929202798888,-0.256983527509771
-0.0735849933454729,-0.255273018801011
-0.0742962394862675,-0.254420826294172
-0.0749843443781946,-0.253570717334308
0.0296840701105469,-0.14930168991942
-0.076291287452839,-0.251876877001354
-0.0769102041542526,-0.251033209101186
-0.0775061366441912,-0.25019175169384
-0.182155857060725,-0.346848362619079
-0.0786292060270362,-0.24851559530346
-0.080142409998945,-0.246018732825591
-0.0810374039377065,-0.244366109504197
-0.0814508760723784,-0.243543478552041
-0.0818417173297085,-0.242723343720859
-0.0822099669690451,-0.241905736747115
-0.0825556642497361,-0.24109068936727
-0.0828788484311297,-0.240278233317784
-0.0831795587725742,-0.239468400335121
-0.0834578345334176,-0.23866122215574
-0.083713714973008,-0.237856730516104
0.0314296211249112,-0.137517754078555
0.0260374528824447,-0.1237362688682
-0.19106011466736,-0.352606796375168
-0.0845140687058025,-0.234666264084238
-0.08465856142935,-0.233875681190249
-0.195492531566858,-0.339528383683957
-0.0848811068403006,-0.232303178014273
-0.0849592380464,-0.231521321205209
-0.0850494137565876,-0.229966555827239
-0.085061536779372,-0.229193710731256
-0.085051735593081,-0.228423933012556
-0.0850200494570628,-0.2276572544076
-0.0849665176306655,-0.22689370665285
-0.0848911793732371,-0.226133321484768
-0.0847940739441258,-0.225376130639815
-0.0845347186082473,-0.223871458865143
0.0147363020916894,-0.121616558639977
-0.198198558023987,-0.327198739440129
-0.0837565292876136,-0.220901843597655
0.0327090941464399,-0.120799372256484
-0.179140965040367,-0.318251507505609
-0.0829470801488374,-0.218710394092202
-0.0826344622670447,-0.217986891983925
-0.0823005090663986,-0.217266933299853
-0.0819452598062472,-0.216550549776449
-0.0815687537459386,-0.215837773150174
-0.081171030144821,-0.21512863515749
-0.0807521282622425,-0.214423167534857
-0.0803120873575512,-0.213721402018738
-0.0798509466900953,-0.213023370345595
-0.0793687455192229,-0.212329104251888
-0.185961672536872,-0.328994654655198
-0.078341318704621,-0.21095199574863
-0.0777961715795879,-0.210269216812002
-0.0772301209885307,-0.209590330400657
-0.0766432061907977,-0.208915368251056
-0.0747576691510249,-0.206914344737334
-0.0740876901200698,-0.206255396999326
-0.0733970431791795,-0.20560053220537
-0.0726857675877022,-0.204949782091927
-0.0719539026049859,-0.204303178395459
0.0241886137314025,-0.109649970755588
-0.070428561503229,-0.203022537199294
-0.0696351639028847,-0.20238856317252
-0.0688213339486939,-0.201758862508567
-0.0679871109000049,-0.201133466943897
-0.0671325340161658,-0.200512408214971
-0.0662576425565246,-0.199895718058251
-0.0644470729472287,-0.198675570407274
-0.0635114733162703,-0.19807217638594
-0.0615798406984731,-0.196878906633889
-0.0605838862303305,-0.196289094376095
-0.0585318972722983,-0.195123273779277
-0.0574759413011049,-0.194547328913177
-0.055304302671104,-0.193409528727901
0.0425294382923844,-0.0816231796676014
-0.0530532901866054,-0.192290726181601
-0.0518981168972898,-0.191738528364221
-0.0507232179223941,-0.191191175165969
-0.0495286325212665,-0.190648698323308
-0.048314399953255,-0.190111129572698
-0.047080559477708,-0.189578500650602
-0.0445542118413994,-0.188528189237795
-0.0432617831993341,-0.188010570220007
-0.0419499036871258,-0.187498017976579
-0.0406186125641223,-0.186990564243971
-0.0378979525231231,-0.185991079257064
-0.0365086621238235,-0.185499111475689
-0.033672356864365,-0.184530884019399
-0.0322254205229023,-0.184054687817409
0.0650635423880794,-0.0729076335067968
-0.0277699477637584,-0.182658150153593
-0.0262466997969521,-0.182203427034578
-0.0247044720721804,-0.18175415152746
-0.0231433038487912,-0.181310355368702
-0.0215632343861327,-0.180872070294764
-0.019964302943553,-0.180439328042109
0.0888594618983401,-0.0822284926469795
-0.0167100111560227,-0.179590598946491
-0.0150547293297684,-0.179174675576452
-0.0133807425609853,-0.178764421973541
-0.0116880901090218,-0.178359869874219
-0.00997681123322587,-0.17796105101495
0.104375519555185,-0.083424018077121
-0.0980815993438298,-0.274575635447197
-0.00473160865632519,-0.176799311242064
0.00067981839853426,-0.175690313142256
0.0025203829794091,-0.175332515584269
-0.104771698433108,-0.268830620384803
0.104919975432658,-0.0740128942042709
0.109249706718896,-0.0756818225903463
0.0100653721999007,-0.173961514034371
0.125292478915969,-0.0828357927819139
0.128746471872799,-0.0546199459805704
0.0179008464068693,-0.17268833772591
0.0199048087926375,-0.17238556686623
0.0219267301933198,-0.172089068766448
0.0260242930020344,-0.171515017792422
0.0280998558913704,-0.171237528391102
0.030193220758228,-0.170966438695524
0.0323043483432592,-0.170701780442152
0.0344331993871156,-0.170443585367446
0.0387439148139122,-0.169946711699881
-0.0755423584284757,-0.284491978650049
0.0431250529638326,-0.169476071584519
-0.0542929471596794,-0.270898781674923
0.0520973411339049,-0.16861450757718
0.0543839366365239,-0.168415909251242
0.0566878630044868,-0.168224091468586
0.0613475512990523,-0.167860924478965
0.0637032347069587,-0.167689638744924
0.0660760919428164,-0.16752526050001
0.0684660837472777,-0.167367821480686
0.0708731708609942,-0.167217353423413
0.0732973140246179,-0.167073888064653
-0.0220360551088672,-0.261246897621957
0.0781966114641941,-0.166808092388516
0.0806716872214503,-0.166685825544062
0.0831636619912212,-0.166570688343967
0.0881981515309143,-0.166361929822699
-0.00656766508499072,-0.275913914274236
0.0958756469506102,-0.166103057785025
0.0984681913491581,-0.166031364916774
0.103703113478139,-0.165910066315501
0.106345412689875,-0.165860524055403
0.1116794911111,-0.165783812298589
0.114371191801892,-0.165756706274797
0.119803719847095,-0.16572515261875
0.122544468682809,-0.165720768459418
0.239686488936631,-0.0727516297414595
0.128074739683723,-0.165734944160445
0.130864183330227,-0.165753567493727
0.13366978006163,-0.165779923464137
0.136491490618586,-0.165814043808136
0.145052912649283,-0.165963308446283
0.147938685914966,-0.166028803649254
0.150840376709459,-0.166102221908121
0.156691353847488,-0.166272954539394
0.159640561672327,-0.166370332384721
0.159640561672327,-0.166370332384721
0.165471478227442,-0.166559131638666
0.168324837079193,-0.166643168412683
0.171137111939085,-0.166720415766302
0.0604244664456807,-0.286631026383986
0.176639356559333,-0.166854899657065
0.181980105840268,-0.166963298200392
0.189692568583131,-0.167078549809579
0.192184693392515,-0.167104698802479
0.197052319167987,-0.167139130640113
0.199428293572095,-0.167147592207205
0.201766024612464,-0.167150336688053
0.204065749008104,-0.167147453443837
0.0895285406936766,-0.263548195825058
0.215002556480726,-0.16705174898808
0.217079212107203,-0.16701697597825
0.219119518122022,-0.166977200771612
0.221123711244193,-0.166932512729345
0.223092028192724,-0.16688300121263
0.225024705686626,-0.166828755582646
0.226921980444909,-0.166769865200573
0.228784089186583,-0.166706419427589
0.340483508694623,-0.0616420722002024
0.239231511552399,-0.166235085806629
0.243999655750893,-0.165945159474404
0.245523123872026,-0.165841074657192
0.24701402988566,-0.165733417422045
0.251293742471666,-0.165389904820787
0.252656767245403,-0.165268851525693
0.25398841350669,-0.165144672618561
0.255288917974538,-0.165017457460571
0.155981794116765,-0.277148690477869
0.259005947807545,-0.164618488093245
0.260184252291735,-0.164480021543616
0.265631136117043,-0.163750634344646
0.266633242196045,-0.163597971542944
0.268552077420072,-0.163286575467067
0.269469280003116,-0.163128020915251
0.27035865485886,-0.162967681169091
0.271220438706314,-0.162805645589764
0.274396398393434,-0.162142332164387
0.275123777984589,-0.161973157836924
0.275824986881515,-0.161802823843371
0.27650026180322,-0.161631419544909
0.277149839468716,-0.161459034302717
0.277773956597012,-0.161285757477975
0.278372849907118,-0.161111678431862
0.180847690667924,-0.26954665924913
0.280020554118395,-0.160585521577092
0.399185138912527,-0.0680244599598378
0.281449765850322,-0.160055361732447
0.281878720565377,-0.159878169249764
0.282666876516167,-0.159523611649773
0.283026551189922,-0.159346425254824
0.283678277529201,-0.158992684080916
0.283970802632745,-0.158816308024317
0.284490360302692,-0.158464991777724
0.377171416488147,-0.0440585658337607
0.285109516249911,-0.157942947492043
0.285418261564704,-0.157599247238154
0.285542136784125,-0.157428963975719
0.285730075942066,-0.157091977985761
0.17303080368293,-0.24767887057096
0.285866007261874,-0.156596790755804
0.169268203868357,-0.25226140815542
0.285784700041441,-0.155959505561358
0.285635786381901,-0.15565231337058
0.285535093056335,-0.155501892640931
0.174382786694175,-0.274988493665053
0.177526753281401,-0.245949077614488
0.285130907724572,-0.155064404249094
0.284578535459422,-0.154649453137694
0.28436258563011,-0.15451656140394
0.393880732997316,-0.0439570162534817
0.283622572985528,-0.154135413169329
0.397817243604333,-0.0359184463000586
0.283054795782036,-0.153896813763593
0.282749286705188,-0.153782431969464
0.282429679603619,-0.153671447929402
0.282096211196339,-0.153563951004584
0.281388637340686,-0.153359775945404
0.281015005330333,-0.1532632765334
0.279817569597286,-0.152997203101886
0.279393700182308,-0.152916618096812
0.278957863213698,-0.15284023509642
0.278510295410468,-0.152768143461888
0.390110777806293,-0.0559569673642693
0.277099574183148,-0.152578510365255
0.276607450231532,-0.152524477805962
0.276104779040344,-0.152475183418428
0.274535849219453,-0.15235662289817
0.27399335626008,-0.152327174809465
0.27231064239087,-0.152270297854001
0.271732115167471,-0.152262125842997
0.269946979762422,-0.152271221788944
0.268092484854308,-0.152332612288103
0.267460011350747,-0.152365113818486
0.374284330116901,-0.0448058975245905
0.167065345711771,-0.264484651507772
0.262856680498846,-0.152770331374869
0.26217675724427,-0.152854678623322
0.261491968006361,-0.152945908711841
0.260108738456589,-0.153149374853797
0.148981720678449,-0.250996194180953
0.353579033269905,-0.0545948405163582
0.256582080204547,-0.153784745192415
0.255866884984342,-0.153934255003929
0.353051638655752,-0.0538798562457298
0.253705833126314,-0.154429264427279
0.252981116171201,-0.154610058768598
0.252254610579885,-0.154798897645317
0.250797180364686,-0.155201066449673
0.137085558352781,-0.251105861507458
0.249335436232798,-0.155636485729783
0.24860353824562,-0.155866887701195
0.2478712719363,-0.156105870375084
0.247138874023848,-0.156353523112629
0.246406581227273,-0.156609935275011
0.243483195579948,-0.157724965396489
0.24275497914791,-0.158026515100743
0.24202828814581,-0.158337360396911
0.241303359292658,-0.158657590646172
0.239141512816983,-0.159675484724305
0.23842599974972,-0.160034148397731
0.237713432426454,-0.160402643830147
0.234897354953561,-0.161976730373305
0.234203067135431,-0.162395725018365
0.230137312611198,-0.165130546977418
0.228825827077284,-0.166128433856341
0.226906139149964,-0.16770860869395
0.226279867483178,-0.168257916289663
0.222681863057523,-0.171797134969874
0.222111009293184,-0.172428400971906
0.221549019248092,-0.173071732762415
0.220996129641257,-0.173727219702583
0.220452577191688,-0.174394951153586
0.21939443064039,-0.175767505032822
0.218376473346279,-0.17719010928956
0.217883157468193,-0.17792040371244
0.217400599061433,-0.178663478813234
0.21692903484501,-0.179419423953122
0.216468701537934,-0.180188328493282
0.106501098376325,-0.30026221390006
0.108646120074649,-0.281532417153846
0.215157454262883,-0.182573692127195
0.106211643396503,-0.298510061345883
0.213955807056309,-0.185078907366026
0.213580718246937,-0.185941029821123
0.213218754098991,-0.186816826565928
0.212870151331481,-0.187706386961621
0.116531114349922,-0.306364714850241
0.212213976813811,-0.189527156150392
0.210823935007968,-0.194326198295429
0.0921048382551607,-0.310640369944997
0.210373047180173,-0.196346539407459
0.210171077762574,-0.197378651176909
0.308115657887574,-0.101601879941884
0.20952522017774,-0.201655458105133
0.209405444397972,-0.202762196605693
0.319223235961405,-0.0949888477588768
0.209217576211232,-0.205021343257273
0.209149957242281,-0.206173930130652
0.209100197314955,-0.207341978517331
0.209068533148266,-0.208525577778488
0.209127568468065,-0.213417270791491
0.209189933889704,-0.214679964842732
0.209271815386039,-0.21595874593553
0.091050469614283,-0.327211263836864
0.209799236498533,-0.221236527945864
0.307550033621342,-0.116950694278219
0.210657852326955,-0.226778851515447
0.212599906823352,-0.235600862858542
0.213002935721318,-0.237131672916212
0.21342926819814,-0.23867999979431
0.214352790764389,-0.241829561456506
0.215372368274179,-0.245050262734567
0.104383393544183,-0.351274631722479
0.218353980174668,-0.253417943211049
0.219026367985591,-0.255146353158295
0.219724663284479,-0.256893262898943
0.220449102790342,-0.258658761794173
0.224471748589631,-0.26776822123033
0.227214216569542,-0.273462685862491
0.228184606293629,-0.275399508402033
0.229183507414791,-0.277355813707952
0.230211156652037,-0.279331691141427
0.233468960250384,-0.285377649818984
0.235788909744889,-0.289507787863427
0.239495689010255,-0.29585403054279
0.240792723647713,-0.298010078377348
0.244871466273233,-0.304601373761848
0.247749360807969,-0.309099090863997
0.249236638067683,-0.311379273552355
0.155848424512359,-0.417217144379017
0.369668240540213,-0.216715105244482
0.260571832517085,-0.327933609976904
0.262326022871033,-0.330384310029714
0.264114642597306,-0.332856726878389
0.265937928414913,-0.335350949884107
0.271618149605839,-0.342965349455319
0.277618887503131,-0.350779221442387
0.279691464092356,-0.353428589660438
0.283946533520059,-0.358794978597158
0.290607479069892,-0.367015033671479
0.292902965504751,-0.369800868586101
0.295236432097083,-0.37260976071428
0.2976081155659,-0.375441799417195
0.30001825263021,-0.378297074056026
0.302467080009024,-0.381175673991953
0.307481752586203,-0.38700320719981
0.312654027049517,-0.392925113930203
0.415182686259822,-0.285893922577974
0.329135399277064,-0.411264224150954
0.332025443570078,-0.414405300192777
0.334957018805715,-0.417570773865849
0.3409457089809,-0.42397527155046
0.350246144288602,-0.433767234341234
0.35666079624547,-0.440419729591416
0.363249146981152,-0.44717267492434
0.271330766108506,-0.549374725479491
0.370013090247726,-0.454026785229442
0.373461500877623,-0.457492000649509
0.380492383725686,-0.46449919883057
0.387703593484843,-0.471609349207399
0.395097023907171,-0.478823166669432
0.398862663664549,-0.482469173960349
0.406532975866786,-0.489839832467881
0.414390243112394,-0.497315945284207
0.322859921221484,-0.627847930645901
0.430673217742045,-0.512587393400984
0.43486376728919,-0.516472281387919
0.561231238134969,-0.436571399172406
0.337091276179272,-0.644833109878456
0.456547186313806,-0.536303345128007
0.465565952613321,-0.544427196475254
0.479470090062489,-0.556820306651909
0.488992935416981,-0.565221644753964
0.626082873575516,-0.494553696205654
0.528882052405028,-0.599710630809617
0.54806758400876,-0.615806760305159
0.557175814782152,-0.62330145551382
0.474324639960423,-0.727713918786567
0.586562265192567,-0.646689152279714
0.594258730645643,-0.652573712141123
0.601649763038039,-0.658110368759675
0.612170220997224,-0.665770913775849
0.61881086345665,-0.670453569624668
0.625156627030379,-0.674800928100558
0.631210527196978,-0.678816590880642
0.657207618672835,-0.694045528043265
0.663654964219551,-0.6970820571922
0.665668953163087,-0.697941291736964
0.667616007211973,-0.698724805712022
0.671310818365079,-0.700066472791582
0.677913807067608,-0.701860969338401
0.682189617638136,-0.702443290441422
0.683488054155667,-0.702494360249636
0.684723702061577,-0.702474661794187
0.685896938290687,-0.702384645284717
0.689973305135538,-0.701330402899417
0.693709733142092,-0.698484468859129
0.694279584018342,-0.697716033339653
0.695244866524348,-0.695983515266406
0.796262226104755,-0.578283572925651
0.696785353328748,-0.685048149379696
0.696680897177913,-0.683525038720738
0.696046583409156,-0.678597728188654
0.69536002248132,-0.675019041134329
0.694466031546211,-0.671209505343632
0.691343337004717,-0.660699338651375
0.579354338572763,-0.767072914869745
0.68380724052924,-0.641069325581298
0.681453642918895,-0.63564322772609
0.565666946137207,-0.739961620168767
0.674780877079767,-0.621209835903144
0.673314121365377,-0.618177933983976
0.668656233955852,-0.608799884890838
0.561691479430239,-0.697457358490487
0.665340061475747,-0.602317068145457
0.663619831778031,-0.5990077751967
0.748963202564012,-0.454140750944458
0.633116302770148,-0.544261765821093
0.630786482978689,-0.540292000356797
0.621122018812241,-0.524042913093234
0.613521780611743,-0.511480176838791
0.70502022715903,-0.40826590706564
0.605631230391017,-0.498608729039183
0.600214604919126,-0.489862260220668
0.597460545390222,-0.485440725354699
0.586148123800695,-0.467443087737685
0.577363369135927,-0.453630392334058
0.57136945410905,-0.444278935594881
0.568332403824964,-0.439561659913185
0.562180002389601,-0.430046264973781
0.555925712696789,-0.420426079997297
0.549572550225095,-0.410704706660855
0.546359834034219,-0.40580719988175
0.492004805583229,-0.324496515266174
0.488442366893591,-0.319253147159989
0.436935883260143,-0.244340084855527
0.526706863985143,-0.13471517156031
0.429363251768103,-0.233449565999557
0.425560024742915,-0.227990447152345
0.417921632808306,-0.21704674166767
0.406389854218123,-0.200574267109632
0.501823128445779,-0.0899418625170525
0.394778093237716,-0.184044297985732
0.390891491408917,-0.178523632685896
0.386997510387154,-0.172998379939525
0.339831365349575,-0.106501402462463
0.323997822609614,-0.0843378143354083
0.320036066335045,-0.0788034570729216
0.404068559827573,0.0266540561160395
0.304186866923084,-0.056705693389292
0.300225908165775,-0.0511934198581656
0.296266239716381,-0.0456869137022324
0.284398745563893,-0.0292065015819943
0.280448007694365,-0.0237275670232367
0.272556433836184,-0.0127942033855457
0.252902850454145,0.014375247293157
0.134720430869297,-0.0730672787690286
0.229514543028937,0.0466050294026153
0.22177902099329,0.0572421231521797
0.19879641290454,0.0887844800603916
0.179945776125908,0.114593401694961
0.172493709882223,0.124782054697968
0.143264765973175,0.164675678205815
0.136117437655168,0.174415828571119
0.0355219752780815,0.0720308586652534
0.10825821937715,0.212335357672019
0.0981391275476093,0.226093548746944
0.0948088839344764,0.230620055326565
0.0915006620444016,0.235116033000775
-0.0101480226379025,0.156405940840412
0.0753030711586296,0.257122230453244
0.0250541924737855,0.325392504452353
0.0170547091372928,0.336276717399448
-0.00518464237799537,0.366600078372356
-0.00748463502392952,0.369743912283771
-0.0163249224933889,0.381847381308397
-0.020523979272061,0.387609692913126
-0.0284648415244583,0.398537461921804
-0.0424331274096063,0.417904736176602
-0.0439924280456524,0.420083591642726
-0.0511400954564356,0.430139508246101
-0.0524372232409573,0.431979867953845
-0.053689336278352,0.433762235968118
-0.0548960576337992,0.435486162079279
-0.0582401022602465,0.440302786897692
-0.0620404775024474,0.445879453960503
-0.0628704957487646,0.447119637299721
-0.0656989584324767,0.451450930661448
-0.0677227517623005,0.454753509968204
-0.160850208742391,0.342798547853093
-0.0625345533873628,0.452335361221781
-0.0606376424267364,0.450292616886689
-0.154884536003784,0.329227172375574
-0.0534654969644843,0.442293560180797
-0.0520501422371861,0.440682828405585
-0.0505709260217213,0.438991594454886
-0.0422037299031684,0.429312134731666
-0.0343220188696038,0.420073606411003
