-0.675427852914226,-0.688303805666752
-0.662986462769348,-0.685757482668256
-0.650623702038687,-0.683241580795371
-0.638339311445482,-0.680755943759511
-0.626133031712971,-0.678300415272089
-0.614004603564393,-0.675874839044517
-0.601953767722985,-0.67347905878821
-0.589980264911987,-0.671112918214579
-0.578083835854637,-0.668776261035039
-0.566264221274172,-0.666468930961003
-0.554521161893832,-0.664190771703884
-0.542854398436854,-0.661941626975094
-0.531263671626478,-0.659721340486048
-0.519748722185942,-0.657529755948159
-0.508309290838482,-0.655366717072839
-0.49694511830734,-0.653232067571501
-0.485655945315751,-0.651125651155559
-0.474441512586956,-0.649047311536427
-0.463301560844192,-0.646996892425517
-0.452235830810697,-0.644974237534243
-0.441244063209711,-0.642979190574017
-0.430325998764471,-0.641011595256254
-0.419481378198216,-0.639071295292365
-0.408709942234183,-0.637158134393764
-0.398011431595613,-0.635271956271865
-0.387385587005742,-0.633412604638081
-0.376832149187809,-0.631579923203825
-0.366350858865053,-0.629773755680509
-0.355941456760712,-0.627993945779548
-0.345603683598024,-0.626240337212355
-0.335337280100228,-0.624512773690341
-0.325141986990562,-0.622811098924922
-0.315017544992264,-0.62113515662751
-0.304963694828573,-0.619484790509518
-0.294980177222727,-0.617859844282359
-0.285066732897964,-0.616260161657447
-0.275223102577523,-0.614685586346194
-0.265449026984643,-0.613135962060015
-0.255744246842561,-0.611611132510322
-0.246108502874516,-0.610110941408527
-0.236541535803746,-0.608635232466046
-0.22704308635349,-0.60718384939429
-0.217612895246986,-0.605756635904673
-0.208250703207472,-0.604353435708608
-0.198956250958187,-0.602974092517509
-0.18972927922237,-0.601618450042788
-0.180569528723257,-0.600286351995858
-0.171476740184089,-0.598977642088133
-0.162450654328102,-0.597692164031027
-0.153491011878537,-0.596429761535951
-0.14459755355863,-0.59519027831432
-0.13577002009162,-0.593973558077546
-0.127008152200746,-0.592779444537044
-0.118311690609247,-0.591607781404225
-0.109680376040359,-0.590458412390504
-0.101113949217322,-0.589331181207292
-0.0926121508633748,-0.588225931566005
-0.0841747217017547,-0.587142507178054
-0.0758014024557004,-0.586080751754853
-0.0674919338484504,-0.585040509007815
-0.059246056603243,-0.584021622648354
-0.0510635114433164,-0.583023936387882
-0.0429440390919092,-0.582047293937812
-0.0348873802722596,-0.581091539009558
-0.026893275707606,-0.580156515314534
-0.0189614661211869,-0.579242066564152
-0.0110916922362405,-0.578348036469825
-0.00328369477600512,-0.577474268742967
0.00446278553628068,-0.57662060709499
0.0121480079773785,-0.575786895237309
0.0197722318240502,-0.574972976881336
0.0273357163530575,-0.574178695738484
0.0348387208411617,-0.573403895520167
0.0422815045651246,-0.572648419937797
0.0496643268017079,-0.571912112702789
0.0569874468276732,-0.571194817526554
0.0642511239197819,-0.570496378120507
0.071455617354796,-0.569816638196061
0.078601186409477,-0.569155441464628
0.0856880903605864,-0.568512631637622
0.092716588484886,-0.567888052426456
0.0996869400591374,-0.567281547542544
0.106599404360102,-0.566692960697297
0.113454240664542,-0.566122135602131
0.120251708249219,-0.565568915968457
0.126992066390893,-0.56503314550769
0.133675574366328,-0.564514667931241
0.140302491452285,-0.564013326950525
0.146873076925525,-0.563528966276955
0.153387590062809,-0.563061429621944
0.1598462901409,-0.562610560696904
0.166249436436559,-0.562176203213249
0.172597288226548,-0.561758200882393
0.178890104787629,-0.561356397415749
0.185128145396562,-0.560970636524729
0.19131166933011,-0.560600761920747
0.197440935865035,-0.560246617315217
0.203516204278097,-0.55990804641955
0.209537733846059,-0.559584892945161
0.215505783845683,-0.559277000603463
0.221420613553729,-0.558984213105869
0.227282482246959,-0.558706374163792
0.233091649202136,-0.558443327488645
0.238848373696021,-0.558194916791841
0.244552915005375,-0.557960985784794
0.25020553240696,-0.557741378178917
0.255806485177538,-0.557535937685623
0.26135603259387,-0.557344508016325
0.266854433932718,-0.557166932882436
0.272301948470843,-0.557003055995371
0.277698835485008,-0.55685272106654
0.283045354251974,-0.556715771807359
0.288341764048502,-0.55659205192924
0.293588324151354,-0.556481405143597
0.298785293837292,-0.556383675161841
0.303932932383078,-0.556298705695388
0.309031499065472,-0.556226340455649
0.314081253161237,-0.556166423154039
0.319082453947135,-0.55611879750197
0.324035360699926,-0.556083307210855
0.328940232696373,-0.556059795992108
0.333797329213238,-0.556048107557142
0.338606909527281,-0.55604808561737
0.343369232915264,-0.556059573884205
0.34808455865395,-0.55608241606906
0.3527531460201,-0.556116455883349
0.357375254290475,-0.556161537038485
0.361951142741837,-0.556217503245881
0.366481070650947,-0.55628419821695
0.370965297294568,-0.556361465663106
0.375404081949461,-0.556449149295761
0.379797683892388,-0.556547092826329
0.38414636240011,-0.556655139966222
0.388450376749388,-0.556773134426855
0.392709986216985,-0.55690091991964
0.396925450079662,-0.557038340155991
0.401097027614181,-0.55718523884732
0.405224978097304,-0.557341459705042
0.409309560805791,-0.557506846440568
0.413351035016405,-0.557681242765313
0.417349660005908,-0.557864492390689
0.42130569505106,-0.558056439028109
0.425219399428624,-0.558256926388988
0.429091032415361,-0.558465798184737
0.432920853288033,-0.558682898126771
0.436709121323402,-0.558908069926502
0.440456095798228,-0.559141157295344
0.444162035989275,-0.55938200394471
0.447827201173302,-0.559630453586012
0.451451850627073,-0.559886349930665
0.455036243627349,-0.560149536690081
0.45858063945089,-0.560419857575673
0.46208529737446,-0.560697156298856
0.465550476674819,-0.560981276571041
0.46897643662873,-0.561272062103642
0.472363436512953,-0.561569356608073
0.475711735604251,-0.561873003795746
0.479021593179385,-0.562182847378075
0.482293268515117,-0.562498731066472
0.485527020888208,-0.562820498572352
0.48872310957542,-0.563147993607127
0.491881793853515,-0.56348105988221
0.495003332999254,-0.563819541109015
0.498087986289399,-0.564163280998955
0.501136013000711,-0.564512123263443
0.504147672409953,-0.564865911613892
0.507123223793886,-0.565224489761715
0.510062926429271,-0.565587701418326
0.51296703959287,-0.565955390295138
0.515835822561445,-0.566327400103564
0.518669534611757,-0.566703574555016
0.521468435020569,-0.567083757360909
0.524232783064641,-0.567467792232656
0.526962838020735,-0.567855522881669
0.529658859165614,-0.568246793019363
0.532321105776037,-0.568641446357149
0.534949837128768,-0.569039326606442
0.537545312500568,-0.569440277478654
0.540107791168199,-0.569844142685198
0.542637532408421,-0.570250765937489
0.545134795497998,-0.570659990946938
0.547599839713689,-0.57107166142496
0.550032924332258,-0.571485621082967
0.552434308630465,-0.571901713632373
0.554804251885073,-0.572319782784591
0.557143013372842,-0.572739672251033
0.559450852370535,-0.573161225743114
0.561728028154914,-0.573584286972246
0.563974800002739,-0.574008699649843
0.566191427190772,-0.574434307487317
0.568378168995776,-0.574860954196083
0.570535284694511,-0.575288483487552
0.57266303356374,-0.575716739073139
0.574761674880224,-0.576145564664256
0.576831467920725,-0.576574803972317
0.578872671962003,-0.577004300708735
0.580885546280822,-0.577433898584923
0.582870350153943,-0.577863441312294
0.584827342858126,-0.578292772602261
0.586756783670134,-0.578721736166238
0.588658931866729,-0.579150175715639
0.590534046724672,-0.579577934961875
0.592382387520724,-0.58000485761636
0.594204213531648,-0.580430787390507
0.595999784034205,-0.580855567995731
0.597769358305157,-0.581279043143443
0.599513195621265,-0.581701056545057
0.601231555259291,-0.582121451911986
0.602924696495996,-0.582540072955643
0.604592878608143,-0.582956763387442
0.606236360872492,-0.583371366918796
0.607855402565806,-0.583783727261117
0.609450262964846,-0.58419368812582
0.611021201346374,-0.584601093224317
0.612568476987151,-0.585005786268021
0.614092349163939,-0.585407610968346
0.6155930771535,-0.585806411036705
0.617070920232595,-0.586202030184511
0.618526137677986,-0.586594312123178
0.619958988766434,-0.586983100564117
0.621369732774702,-0.587368239218743
0.62275862897955,-0.587749571798469
0.624125936657741,-0.588126942014708
0.625471915086036,-0.588500193578874
0.626796823541197,-0.588869170202378
0.628100921299986,-0.589233715596636
0.629384467639163,-0.589593673473058
0.63064772183549,-0.58994888754306
0.63189094316573,-0.590299201518054
0.633114390906644,-0.590644459109453
0.634318324334994,-0.590984504028671
0.635503002727541,-0.591319179987121
0.636668685361046,-0.591648330696215
0.637815631512272,-0.591971799867368
0.63894410045798,-0.592289431211991
0.640054351474932,-0.592601068441499
0.641146643839889,-0.592906555267305
0.642221236829614,-0.593205735400822
0.643278389720866,-0.593498452553462
0.644318361790409,-0.59378455043664
0.645341412315005,-0.594063872761769
0.646347800571413,-0.59433626324026
0.647337785836397,-0.594601565583529
0.648311627386717,-0.594859623502988
0.649269584499136,-0.595110280710049
0.650211916450415,-0.595353380916127
0.651138882517316,-0.595588767832635
0.6520507419766,-0.595816285170985
0.652947754105029,-0.596035776642592
0.653830178179365,-0.596247085958867
0.654698273476369,-0.596450056831225
0.655552299272803,-0.596644532971078
0.656392514845429,-0.59683035808984
0.657219179471007,-0.597007375898923
0.658032552426301,-0.597175430109742
0.658832892988071,-0.597334364433709
0.659620460433079,-0.597484022582238
0.660395514038086,-0.597624248266741
0.661158313079856,-0.597754885198632
0.661909116835148,-0.597875777089323
0.662648184580724,-0.59798676765023
0.663375775593347,-0.598087700592763
0.664092149149778,-0.598178419628337
0.664797564526779,-0.598258768468365
0.66549228100111,-0.598328590824259
0.666176557849535,-0.598387730407434
0.666850654348814,-0.598436030929303
0.667514829775708,-0.598473336101277
0.668169343406981,-0.598499489634772
0.668814454519393,-0.598514335241199
0.669450422389706,-0.598517716631972
0.670077506294682,-0.598509477518505
0.670695965511082,-0.59848946161221
0.671306059315667,-0.598457512624501
0.6719080469852,-0.59841347426679
0.672502187796443,-0.598357190250492
0.673088741026156,-0.598288504287019
0.673667965951102,-0.598207260087784
0.674240121848042,-0.598113301364201
0.674805467993737,-0.598006471827683
0.67536426366495,-0.597886615189642
0.675916768138442,-0.597753575161493
0.676463240690974,-0.597607195454648
0.677003940599309,-0.597447319780521
0.677539127140208,-0.597273791850524
0.678069059590432,-0.597086455376072
0.678593997226743,-0.596885154068576
0.679114199325903,-0.596669731639451
0.679629925164673,-0.596440031800109
0.680141434019816,-0.596195898261964
0.680648985168092,-0.595937174736429
0.681152837886264,-0.595663704934917
0.681653251451092,-0.595375332568841
0.68215048513934,-0.595071901349615
0.682644798227767,-0.594753254988651
0.683136449993136,-0.594419237197363
0.683625699712209,-0.594069691687164
0.684112806661747,-0.593704462169467
0.684598030118512,-0.593323392355686
0.685081629359266,-0.592926325957233
0.685563863660769,-0.592513106685522
0.686044992299784,-0.592083578251966
0.686525274553072,-0.591637584367978
0.687004969697396,-0.591174968744972
0.687484337009516,-0.59069557509436
0.687963635766194,-0.590199247127555
0.688443125244192,-0.589685828555972
0.688923064720272,-0.589155163091023
0.689403713471194,-0.588607094444121
0.689885330773722,-0.588041466326679
0.690368175904616,-0.587458122450111
0.690852508140638,-0.58685690652583
0.69133858675855,-0.586237662265249
0.691826671035113,-0.585600233379781
0.692317020247089,-0.58494446358084
0.69280989367124,-0.584270196579838
0.693305550584326,-0.583577276088189
0.693804250263111,-0.582865545817306
0.694306251984355,-0.582134849478602
0.694811815024821,-0.581385030783491
0.695321198661269,-0.580615933443385
0.695834662170462,-0.579827401169698
0.69635246482916,-0.579019277673843
0.696874865914127,-0.578191406667233
0.697402124702123,-0.577343631861281
0.69793450046991,-0.576475796967401
0.698472252494249,-0.575587745697005
0.699015640051902,-0.574679321761508
0.699564922419632,-0.573750368872321
0.700120358874199,-0.572800730740859
0.700682208692365,-0.571830251078534
0.701250731150892,-0.57083877359676
0.701826185526541,-0.569826142006949
0.702408831096074,-0.568792200020516
0.702998927136253,-0.567736791348873
0.70359673292384,-0.566659759703433
0.704202507735595,-0.56556094879561
0.704816510848281,-0.564440202336816
0.705439001538659,-0.563297364038466
0.706070239083491,-0.562132277611972
0.706710482759539,-0.560944786768747
0.707359991843564,-0.559734735220204
0.708019025612327,-0.558501966677758
0.708687843342591,-0.55724632485282
0.709366704311117,-0.555967653456804
0.710055867794666,-0.554665796201124
0.710755593070001,-0.553340596797192
0.711466139413883,-0.551991898956422
0.712187766103074,-0.550619546390227
0.712920732414335,-0.549223382810019
0.713665297624427,-0.547803251927213
0.714421721010113,-0.546358997453222
0.715190261848154,-0.544890463099458
0.715971179415313,-0.543397492577335
0.716764732988349,-0.541879929598265
0.717571181844025,-0.540337617873663
0.718390785259104,-0.538770401114942
0.719223802510345,-0.537178123033514
0.720070492874512,-0.535560627340792
0.720931115628365,-0.533917757748191
0.721805930048666,-0.532249357967123
0.722695195412177,-0.530555271709001
0.72359917099566,-0.528835342685239
0.724518116075875,-0.527089414607249
0.725452289929586,-0.525317331186445
0.726401951833553,-0.52351893613424
0.727367361064538,-0.521694073162048
0.728348776899302,-0.519842585981281
0.729346458614608,-0.517964318303353
0.730360665487217,-0.516059113839676
0.731391656793891,-0.514126816301665
0.73243969181139,-0.512167269400732
0.733505029816478,-0.51018031684829
0.734587930085915,-0.508165802355753
0.735688651896463,-0.506123569634533
0.736807454524884,-0.504053462396045
0.73794459724794,-0.501955324351701
0.739100339342391,-0.499828999212914
0.740274940085,-0.497674330691097
0.741468658752529,-0.495491162497665
0.742681754621738,-0.493279338344029
0.74391448696939,-0.491038701941603
0.745167115072246,-0.488769097001801
0.746439898207068,-0.486470367236035
0.747733095650618,-0.484142356355719
0.749046966679656,-0.481784908072266
0.750381770570946,-0.479397866097089
0.751737766601247,-0.476981074141601
0.753115214047323,-0.474534375917215
0.754514372185935,-0.472057615135346
0.755935500293844,-0.469550635507405
0.757378857647811,-0.467013280744805
0.7588447035246,-0.464445394558962
0.76033329720097,-0.461846820661286
0.761844897953685,-0.459217402763192
0.763379765059505,-0.456556984576093
0.764938157795191,-0.453865409811402
0.766520335437507,-0.451142522180532
0.768126557263213,-0.448388165394897
0.769757082549072,-0.445602183165908
0.769757082549072,-0.445602183165908
0.771363147472971,-0.442805561139723
0.772896107634341,-0.440019345548342
0.774356401442255,-0.437243470981952
0.775744467305788,-0.434477872030736
0.777060743634013,-0.43172248328488
0.778305668836004,-0.428977239334568
0.779479681320835,-0.426242074769984
0.780583219497578,-0.423516924181314
0.781616721775309,-0.420801722158743
0.7825806265631,-0.418096403292454
0.783475372270026,-0.415400902172633
0.78430139730516,-0.412715153389465
0.785059140077575,-0.410039091533134
0.785749038996346,-0.407372651193824
0.786371532470546,-0.404715766961721
0.786927058909249,-0.40206837342701
0.787416056721529,-0.399430405179874
0.787838964316459,-0.3968017968105
0.788196220103113,-0.39418248290907
0.788488262490565,-0.391572398065771
0.788715529887889,-0.388971476870787
0.788878460704157,-0.386379653914302
0.788977493348445,-0.383796863786502
0.789013066229825,-0.381223041077571
0.788985617757371,-0.378658120377693
0.788895586340158,-0.376102036277054
0.788743410387258,-0.373554723365838
0.788529528307746,-0.371016116234231
0.788254378510695,-0.368486149472416
0.787918399405178,-0.365964757670578
0.78752202940027,-0.363451875418902
0.787065706905045,-0.360947437307573
0.786549870328576,-0.358451377926776
0.785974958079936,-0.355963631866694
0.7853414085682,-0.353484133717514
0.784649660202441,-0.35101281806942
0.783900151391733,-0.348549619512596
0.783093320545149,-0.346094472637227
0.782229606071764,-0.343647312033497
0.78130944638065,-0.341208072291593
0.780333279880883,-0.338776688001698
0.779301544981535,-0.336353093753996
0.778214680091679,-0.333937224138673
0.777073123620391,-0.331529013745914
0.775877313976744,-0.329128397165903
0.77462768956981,-0.326735308988825
0.773324688808665,-0.324349683804865
0.771968750102381,-0.321971456204206
0.770560311860033,-0.319600560777035
0.769099812490693,-0.317236932113535
0.767587690403437,-0.314880504803892
0.766024384007337,-0.312531213438291
0.764410331711468,-0.310188992606915
0.762745971924902,-0.307853776899949
0.761031743056714,-0.305525500907579
0.759268083515977,-0.303204099219989
0.757455431711766,-0.300889506427364
0.755594226053153,-0.298581657119888
0.753684904949212,-0.296280485887747
0.751727906809019,-0.293985927321125
0.749723670041645,-0.291697916010206
0.747672633056164,-0.289416386545175
0.745575234261651,-0.287141273516218
0.743431912067179,-0.284872511513518
0.741243104881822,-0.282610035127261
0.739009251114653,-0.280353778947631
0.736730789174746,-0.278103677564813
0.734408157471176,-0.275859665568992
0.732041794413015,-0.273621677550353
0.729632138409337,-0.271389648099079
0.727179627869217,-0.269163511805356
0.724684701201727,-0.266943203259369
0.722147796815942,-0.264728657051302
0.719569353120934,-0.26251980777134
0.716949808525779,-0.260316590009668
0.714289601439549,-0.25811893835647
0.711589170271319,-0.255926787401931
0.708848953430162,-0.253740071736237
0.706069389325151,-0.25155872594957
0.703250916365361,-0.249382684632118
0.700393972959865,-0.247211882374063
0.697498997517737,-0.245046253765591
0.69456642844805,-0.242885733396886
0.691596704159879,-0.240730255858134
0.688590263062297,-0.238579755739518
0.685547543564378,-0.236434167631224
0.682468984075195,-0.234293426123437
0.679355023003822,-0.23215746580634
0.676206098759333,-0.23002622127012
0.673022649750801,-0.227899627104959
0.669805114387301,-0.225777617901044
0.666553931077906,-0.223660128248559
0.663269538231689,-0.221547092737689
0.659952374257725,-0.219438445958618
0.656602877565087,-0.217334122501531
0.653221486562849,-0.215234056956613
0.649808639660085,-0.213138183914049
0.646364775265867,-0.211046437964022
0.642890331789271,-0.208958753696719
0.639385747639369,-0.206875065702323
0.635851461225236,-0.20479530857102
0.632287910955945,-0.202719416892994
0.628695535240569,-0.20064732525843
0.625074772488183,-0.198578968257512
0.621426061107861,-0.196514280480426
0.617749839508675,-0.194453196517355
0.6140465460997,-0.192395650958485
0.61031661929001,-0.190341578394001
0.606560497488677,-0.188290913414087
0.602778619104776,-0.186243590608928
0.598971422547381,-0.184199544568708
0.595139346225565,-0.182158709883613
0.591282828548402,-0.180121021143827
0.587402307924966,-0.178086412939534
0.583498222764329,-0.17605481986092
0.579571011475567,-0.174026176498169
0.575621112467753,-0.172000417441467
0.57164896414996,-0.169977477280996
0.567655004931263,-0.167957290606943
0.563639673220734,-0.165939792009492
0.559603407427448,-0.163924916078828
0.555546645960478,-0.161912597405136
0.551469827228899,-0.159902770578599
0.547373389641783,-0.157895370189404
0.543257771608205,-0.155890330827734
0.539123411537237,-0.153887587083775
0.534970747837955,-0.151887073547711
0.530800218919431,-0.149888724809726
0.52661226319074,-0.147892475460006
0.522407319060954,-0.145898260088736
0.518185824939148,-0.143906013286099
0.513948219234396,-0.141915669642281
0.509694940355771,-0.139927163747467
0.505426426712347,-0.13794043019184
0.501143116713197,-0.135955403565587
0.496845448767396,-0.133972018458891
0.492533861284017,-0.131990209461937
0.488208792672133,-0.13000991116491
0.483870681340819,-0.128031058157995
0.479519965699148,-0.126053585031377
0.475157084156194,-0.124077426375239
0.47078247512103,-0.122102516779768
0.46639657700273,-0.120128790835147
0.461999828210369,-0.118156183131561
0.45759266715302,-0.116184628259196
0.453175532239755,-0.114214060808235
0.44874886187965,-0.112244415368864
0.444313094481778,-0.110275626531267
0.439868668455212,-0.108307628885629
0.435416022209026,-0.106340357022134
0.430955594152295,-0.104373745530968
0.426487822694091,-0.102407729002315
0.422013146243488,-0.10044224202636
0.417532003209561,-0.0984772191932868
0.413044832001382,-0.0965125950932812
0.408552071028026,-0.0945483043165277
0.404054158698566,-0.0925842814532107
0.399551533422076,-0.0906204610935152
0.39504463360763,-0.0886567778276256
0.390533897664301,-0.086693166245727
0.386019764001164,-0.084729560938004
0.38150267102729,-0.0827658964946412
0.376983057151756,-0.0808021075058233
0.372461360783634,-0.0788381285617352
0.367938020331997,-0.0768738942525615
0.36341347420592,-0.0749093391684869
0.358888160814477,-0.0729443978996961
0.354362518566741,-0.070979005036374
0.349836985871785,-0.0690130951687051
0.345312001138684,-0.0670466028868743
0.340788002776511,-0.0650794627810662
0.33626542919434,-0.0631116094414655
0.331744718801245,-0.0611429774582571
0.327226310006298,-0.0591735014216255
0.322710641218575,-0.0572031159217554
0.318198150847149,-0.0552317555488318
0.313689277301093,-0.0532593548930392
0.309184458989482,-0.0512858485445623
0.304684134321388,-0.0493111710935859
0.300188741705886,-0.0473352571302948
0.295698719552049,-0.0453580412448735
0.291214506268951,-0.0433794580275069
0.286736540265666,-0.0413994420683796
0.282265259951267,-0.0394179279576765
0.277801103734829,-0.0374348502855821
0.273344510025424,-0.0354501436422813
0.268895917232127,-0.0334637426179586
0.264455763764011,-0.031475581802799
0.26002448803015,-0.029485595786987
0.255602528439618,-0.0274937191607074
0.251190323401489,-0.0254998865141449
0.246788311324835,-0.0235040324374842
0.242396930618731,-0.0215060915209101
0.238016619692251,-0.0195059983546073
0.233647816954468,-0.0175036875287604
0.229290960814456,-0.0154990936335542
0.224946489681289,-0.0134921512591735
0.22061484196404,-0.0114827949958029
0.216296456071784,-0.00947095943362714
0.211991770413593,-0.00745657916283103
0.207701223398541,-0.0054395887735991
0.203425253435703,-0.00341992285611634
0.199164298934152,-0.00139751600056721
0.194918798302962,0.000627697202863403
0.190689189951206,0.0026557821639909
0.186475912287958,0.00468680429263044
0.182279403722291,0.00672082899859743
0.178100102663281,0.00875792169170703
0.173938447519999,0.0107981477817746
0.169794876701521,0.0128415726786154
0.165669828616919,0.0148882617920447
0.161563741675267,0.0169382805318778
0.15747705428564,0.01899169430793
0.15341020485711,0.0210485685300165
0.149363631798752,0.0231089686079527
0.145337773519639,0.0251729599515538
0.141333068428845,0.0272406079706351
0.137349954935444,0.0293119780750118
0.133388871448509,0.0313871356744994
0.129450256377114,0.0334661461789129
0.125534548130332,0.0355490749980679
0.121642185117239,0.0376359875417793
0.117773605746906,0.0397269492198628
0.113929248428408,0.0418220254421332
0.110109551570819,0.0439212816184063
0.106314953583213,0.0460247831584969
0.102545892874662,0.0481325954722208
0.0988028078542409,0.0502447839693927
0.0950861369310233,0.0523614140598283
0.091396318514083,0.0544825511533427
0.0877337910124934,0.0566082606597514
0.0840989928353287,0.0587386079888693
0.0804923623916619,0.060873658550512
0.0769143380905674,0.0630134777544946
0.0733653583411185,0.0651581310106326
0.0698458615523891,0.067307683728741
0.0663562861334528,0.0694622013186354
0.0628970704933834,0.0716217491901307
0.0594686530412545,0.0737863927530425
0.05607147218614,0.0759561974171859
0.0527059663371133,0.0781312285923763
0.0493725739032485,0.0803115516884289
0.046071733293619,0.082497232115159
0.0428038829172987,0.0846883352823819
0.0395694611833611,0.0868849265999129
0.0363689065008803,0.0890870714775671
0.0332026572789295,0.0912948353251601
0.0300711519265829,0.0935082835525069
0.0269748288529137,0.095727481569423
0.0239141264669962,0.0979524947857235
0.0208894831779036,0.100183388611224
0.0179013373947099,0.102420228455739
0.0149501275264887,0.104663079729085
0.0120362919823138,0.106912007841076
0.00916026917125873,0.109167078201528
0.00632249750239743,0.111428356220256
0.00352341538480341,0.113695907307076
0.000763461227550569,0.115969796871802
-0.00195692656028756,0.118250090324251
-0.00463730956963707,0.120536853074237
-0.00727724939142448,0.122830150531575
-0.00987630761657582,0.125130048106081
-0.0124340458360177,0.12743661120757
-0.014950025640676,0.129749905245858
-0.0174238086214774,0.132069995630759
-0.019854956369348,0.13439694777209
-0.0222430304752141,0.136730827079664
-0.024587592530002,0.139071698963298
-0.026888204124638,0.141419628832807
-0.0291444268500482,0.143774682098006
-0.0313558222971593,0.146136924168711
-0.0335219520568973,0.148506420454736
-0.0356423777201886,0.150883236365897
-0.0377166608779593,0.153267437312009
-0.0397443631211359,0.155659088702888
-0.0417250460406445,0.158058255948348
-0.0436582712274116,0.160465004458206
-0.0455436002723634,0.162879399642276
-0.0473805947664261,0.165301506910374
-0.0491688163005261,0.167731391672314
-0.0509078264655897,0.170169119337913
-0.052597186852543,0.172614755316985
-0.0542364590523126,0.175068365019346
-0.0558252046558245,0.177530013854811
-0.0573629852540052,0.179999767233195
-0.0588493624377808,0.182477690564314
-0.0602838977980777,0.184963849257982
-0.0616661529258221,0.187458308724016
-0.0629956894119405,0.18996113437223
-0.064272068847359,0.19247239161244
-0.065494852823004,0.194992145854461
-0.0666636029298017,0.197520462508109
-0.0677778807586783,0.200057406983198
-0.0688372479005603,0.202603044689543
-0.0698412659463739,0.205157441036961
-0.0707894964870453,0.207720661435266
-0.071681501113501,0.210292771294274
-0.072516841416667,0.2128738360238
-0.0732950789874699,0.215463921033659
-0.0740157754168357,0.218063091733667
-0.0746784922956909,0.220671413533638
-0.0752827912149616,0.223288951843389
-0.0758282337655744,0.225915772072734
-0.0763143815384553,0.228551939631488
-0.0767407961245307,0.231197519929468
-0.0771070391147267,0.233852578376487
-0.0774126720999699,0.236517180382363
-0.0776572566711864,0.239191391356909
-0.0778403544193026,0.241875276709941
-0.0779615269352447,0.244568901851274
-0.078020335809939,0.247272332190724
-0.0780163426343117,0.249985633138106
-0.0779491089992893,0.252708870103235
-0.0778181964957979,0.255442108495927
-0.077623166714764,0.258185413725996
-0.0773635812471136,0.260938851203258
-0.0770390016837732,0.263702486337529
-0.0766489896156691,0.266476384538623
-0.0761931066337274,0.269260611216356
-0.0756709143288745,0.272055231780544
-0.0750819742920367,0.274860311641
-0.0744258481141404,0.277675916207542
-0.0737020973861117,0.280502110889983
-0.072910283698877,0.28333896109814
-0.0720499686433624,0.286186532241827
-0.0711207138104945,0.28904488973086
-0.0701220807911994,0.291914098975054
-0.0690536311764034,0.294794225384225
-0.0679149265570327,0.297685334368187
-0.0667055285240139,0.300587491336756
-0.0654249986682729,0.303500761699748
-0.0640728985807362,0.306425210866977
-0.0626487898523301,0.309360904248259
-0.0611522340739809,0.312307907253409
-0.0595827928366147,0.315266285292242
-0.0579400277311581,0.318236103774574
-0.056223500348537,0.32121742811022
-0.054432772279678,0.324210323708995
-0.0525674051155073,0.327214855980714
-0.0506269604469512,0.330231090335193
-0.0486109998649359,0.333259092182248
-0.0465190849603879,0.336298926931692
-0.0443507773242331,0.339350659993343
-0.0421056385473982,0.342414356777014
-0.0397832302208093,0.345490082692521
-0.0373831139353927,0.34857790314968
-0.0349048512820747,0.351677883558306
-0.0323480038517816,0.354790089328213
-0.0297121332354396,0.357914585869219
-0.0269968010239752,0.361051438591136
-0.0242015688083144,0.364200712903781
-0.0213259981793837,0.36736247421697
-0.0183696507281093,0.370536787940517
-0.0153320880454177,0.373723719484237
-0.0122128717222347,0.376923334257947
-0.00901156334948717,0.380135697671461
-0.00572772451810094,0.383360875134594
-0.00236091681900263,0.386598932057163
0.00108929815688177,0.389849933848981
0.00462335881862568,0.393113945919865
0.00824170357530309,0.39639103367963
0.0119447708359874,0.39968126253809
0.0157329990097527,0.402984697905062
0.0196068265056723,0.40630140519036
0.0235666917328203,0.4096314498038
0.02761303310027,0.412974897155197
0.0317462890170956,0.416331812654366
0.0359668978923703,0.419702261711123
0.0402752981351682,0.423086309735283
0.0446719281545627,0.426484022136662
0.0491572263596279,0.429895464325073
0.0537316311594371,0.433320701710334
0.0583955809630644,0.436759799702258
0.0631495141795831,0.440212823710662
0.0679938692180673,0.443679839145361
0.0729290844875903,0.447160911416169
0.0779555983972263,0.450656105932903
0.0830738493560486,0.454165488105376
0.0882842757731312,0.457689123343406
0.0935873160575474,0.461227077056807
0.0989834086183715,0.464779414655394
0.104472991864677,0.468346201548983
0.110056504205537,0.471927503147388
0.115734384050026,0.475523384860426
0.121507069807218,0.479133912097911
0.127374999886185,0.482759150269659
0.133338612696003,0.486399164785484
0.139398346645744,0.490054021055203
0.145554640144482,0.493723784488631
0.151807931601291,0.497408520495582
0.158158659425245,0.501108294485873
0.164607262025418,0.504823171869318
0.171154177810882,0.508553218055732
0.177799845190713,0.512298498454932
0.184544702573983,0.516059078476731
0.191389188369766,0.519835023530947
0.198333740987136,0.523626399027393
0.205378798835167,0.527433270375885
0.212524800322932,0.531255702986238
0.212524800322932,0.531255702986238
0.219664426776036,0.535047464232486
0.226690436736143,0.538762483121923
0.233603384436414,0.542401067514257
0.240403824110012,0.545963525269198
0.2470923099901,0.549450164246454
0.25366939630984,0.552861292305734
0.260135637302395,0.556197217306746
0.266491587200926,0.5594582471092
0.272737800238597,0.562644689572804
0.27887483064857,0.565756852557266
0.284903232664007,0.568795043922295
0.29082356051807,0.5717595715276
0.296636368443923,0.57465074323289
0.302342210674727,0.577468866897873
0.307941641443645,0.580214250382259
0.313435214983839,0.582887201545754
0.318823485528472,0.58548802824807
0.324107007310707,0.588017038348913
0.329286334563705,0.590474539707993
0.334362021520629,0.592860840185018
0.339334622414641,0.595176247639698
0.344204691478905,0.59742106993174
0.348972782946582,0.599595614920853
0.353639451050834,0.601700190466747
0.358205250024826,0.60373510442913
0.362670734101717,0.60570066466771
0.367036457514672,0.607597179042196
0.371302974496852,0.609424955412297
0.37547083928142,0.611184301637722
0.379540606101539,0.612875525578179
0.38351282919037,0.614498935093377
0.387388062781077,0.616054838043024
0.391166861106821,0.61754354228683
0.394849778400765,0.618965355684503
0.398437368896072,0.620320586095751
0.401930186825904,0.621609541380284
0.405328786423423,0.62283252939781
0.408633721921792,0.623989858008037
0.411845547554174,0.625081835070675
0.41496481755373,0.626108768445432
0.417992086153623,0.627070965992017
0.420927907587016,0.627968735570137
0.42377283608707,0.628802385039503
0.426527425886949,0.629572222259824
0.429192231219815,0.630278555090806
0.43176780631883,0.63092169139216
0.434254705417157,0.631501939023593
0.436653482747958,0.632019605844815
0.438964692544396,0.632474999715534
0.441188889039632,0.632868428495459
0.44332662646683,0.633200200044299
0.445378459059152,0.633470622221762
0.44734494104976,0.633680002887557
0.449226626671816,0.633828649901392
0.451024070158484,0.633916871122977
0.452737825742926,0.63394497441202
0.454368447658303,0.63391326762823
0.455916490137779,0.633822058631314
0.457382507414515,0.633671655280983
0.458767053721675,0.633462365436945
0.460070683292421,0.633194496958908
0.461293950359915,0.632868357706581
0.462437409157319,0.632484255539673
0.463501613917797,0.632042498317893
0.46448711887451,0.631543393900948
0.46539447826062,0.630987250148549
0.466224246309291,0.630374374920402
0.466976977253685,0.629705076076219
0.467653225326964,0.628979661475706
0.46825354476229,0.628198438978572
0.468778489792826,0.627361716444527
0.469228614651735,0.626469801733279
0.469604473572179,0.625523002704536
0.46990662078732,0.624521627218008
0.470135610530321,0.623465983133402
0.470291997034344,0.622356378310429
0.470376334532551,0.621193120608796
0.470389177258106,0.619976517888211
0.47033107944417,0.618706878008384
0.470202595323906,0.617384508829024
0.470004279130476,0.616009718209839
0.469736685097043,0.614582814010537
0.469400367456769,0.613104104090828
0.468995880442817,0.611573896310421
0.468523778288349,0.609992498529023
0.467984615226527,0.608360218606343
0.467378945490514,0.606677364402091
0.466707323313472,0.604944243775974
0.465970302928564,0.603161164587703
0.465168438568953,0.601328434696984
0.4643022844678,0.599446361963527
0.463372394858268,0.597515254247041
0.462379323973519,0.595535419407234
0.461323626046717,0.593507165303815
0.460205855311022,0.591430799796493
0.459026565999599,0.589306630744976
0.457786312345608,0.587134966008973
0.456485648582214,0.584916113448192
0.455125128942577,0.582650380922344
0.453705307659861,0.580338076291135
0.452226738967228,0.577979507414275
0.45068997709784,0.575574982151472
0.449095576284859,0.573124808362435
0.44744409076145,0.570629293906874
0.445736074760772,0.568088746644496
0.44397208251599,0.565503474435009
0.442152668260265,0.562873785138124
0.44027838622676,0.560199986613548
0.438349790648638,0.557482386720991
0.43636743575906,0.55472129332016
0.434331875791189,0.551917014270765
0.432243664978189,0.549069857432514
0.43010335755322,0.546180130665117
0.427911507749446,0.54324814182828
0.425668669800028,0.540274198781714
0.42337539793813,0.537258609385127
0.421032246396914,0.534201681498228
0.418639769409542,0.531103722980725
0.416198521209177,0.527965041692327
0.413709056028981,0.524785945492743
0.411171928102116,0.521566742241682
0.408587691661745,0.518307739798851
0.40595690094103,0.51500924602396
0.403280110173135,0.511671568776718
0.400557873591221,0.508295015916833
0.39779074542845,0.504879895304013
0.394979279917985,0.501426514797968
0.392124031292989,0.497935182258407
0.389225553786624,0.494406205545037
0.386284401632052,0.490839892517567
0.383301129062436,0.487236551035707
0.380276290310938,0.483596488959165
0.377210439610721,0.47992001414765
0.374104131194947,0.47620743446087
0.370957919296779,0.472459057758533
0.367772358149378,0.46867519190035
0.364548001985909,0.464856144746028
0.361285405039531,0.461002224155275
0.357985121543409,0.457113737987802
0.354647705730705,0.453190994103316
0.351273711834581,0.449234300361526
0.347863694088199,0.44524396462214
0.344418206724722,0.441220294744869
0.340937803977313,0.437163598589419
0.337423040079134,0.4330741840155
0.333874469263346,0.428952358882821
0.330292645763114,0.424798431051089
0.326678123811598,0.420612708380015
0.323031457641963,0.416395498729306
0.319353201487369,0.412147109958672
0.315643909580979,0.40786784992782
0.311904136155957,0.40355802649646
0.308134435445463,0.3992179475243
0.304335361682662,0.394847920871049
0.300507469100714,0.390448254396416
0.296651311932783,0.386019255960109
0.292767444412032,0.381561233421837
0.288856420771621,0.377074494641309
0.284918795244714,0.372559347478233
0.280955122064474,0.368016099792318
0.276965955464062,0.363445059443273
0.272951849676642,0.358846534290806
0.268913358935375,0.354220832194627
0.264851037473424,0.349568261014443
0.260765439523951,0.344889128609964
0.25665711932012,0.340183742840898
0.252526631095091,0.335452411566953
0.248374529082029,0.33069544264784
0.244201367514094,0.325913143943265
0.24000770062445,0.321105823312938
0.235794082646259,0.316273788616568
0.231561067812684,0.311417347713864
0.227309210356886,0.306536808464533
0.223039064512029,0.301632478728284
0.218751184511274,0.296704666364827
0.214446124587785,0.29175367923387
0.210124438974723,0.286779825195122
0.205786681905251,0.281783412108291
0.201433407612532,0.276764747833086
0.197065170329728,0.271724140229216
0.192682524290001,0.266661897156389
0.188286023726513,0.261578326474315
0.183876222872428,0.256473736042701
0.179453675960907,0.251348433721256
0.175018937225114,0.24620272736969
0.17057256089821,0.24103692484771
0.166115101213357,0.235851334015026
0.161647112403719,0.230646262731347
0.157169148702458,0.22542201885638
0.152681764342736,0.220178910249834
0.148185513557716,0.214917244771419
0.14368095058056,0.209637330280843
0.13916862964443,0.204339474637814
0.134649104982489,0.199023985702042
0.130122930827899,0.193691171333235
0.125590661413823,0.188341339391101
0.121052850973424,0.18297479773535
0.116510053739863,0.177591854225689
0.111962823946302,0.172192816721828
0.107411715825906,0.166777993083476
0.102857283611835,0.161347691170341
0.0983000815372532,0.155902218842132
0.0937406638353216,0.150441883958557
0.0891795847392035,0.144966994379325
0.0846173984820607,0.139477857964144
0.0800546592970562,0.133974782572725
0.075491921417352,0.128458076064774
0.0709297390761109,0.122928046300002
0.066368666506495,0.117385001138116
0.061809257941667,0.111829248438825
0.0572520676147892,0.106261096061838
0.052697649759024,0.100680851866864
0.0481465586075338,0.0950888237136107
0.0435993483934813,0.0894853194617877
0.0390565733500285,0.0838706469711031
0.0345187877103383,0.0782451141012661
0.0299865457075727,0.0726090287119848
0.0254604015748945,0.0669626986629684
0.0209409095454657,0.0613064318139252
0.0164286238524492,0.0556405360245643
0.011924098729007,0.0499653191545938
0.007427888408302,0.0442810890637231
0.00294054712349626,0.0385881536116602
-0.00153737089224762,0.0328868206581143
-0.00600531140576743,0.0271773980627936
-0.0104627201839004,0.0214601936854073
-0.0149090429934845,0.0157355153856636
-0.0193437256013568,0.0100036710232717
-0.0237662137743554,0.00426496845793972
-0.0281759532793174,-0.00148028445062312
-0.0325723898830808,-0.00723177984270859
-0.0369549693524827,-0.0129892098586077
-0.0413231374543613,-0.0187522666386119
-0.0456763399555535,-0.0245206423230124
-0.0500140226228973,-0.0302940290521008
-0.05433563122323,-0.036072118966168
-0.0586406115233895,-0.0418546042055057
-0.062928409290213,-0.0476411769104049
-0.0671984702905383,-0.0534315292211573
-0.0714502402912029,-0.0592253532780537
-0.0756831650590444,-0.0650223412213859
-0.0798966903609004,-0.0708221851914449
-0.0840902619636085,-0.0766245773285223
-0.088263325634006,-0.082429209772909
-0.0924153271389309,-0.0882357746648968
-0.0965457122452203,-0.0940439641447767
-0.100653926719712,-0.0998534703528401
-0.104739416329244,-0.105663985429378
-0.108801626840653,-0.111475201514683
-0.112840004020777,-0.117286810749044
-0.116853993636454,-0.123098505272755
-0.120843041454521,-0.128909977226106
-0.124806593241816,-0.134720918749388
-0.128744094765175,-0.140531021982892
-0.132654991791438,-0.146339979066911
-0.136538730087441,-0.152147482141735
-0.140394755420023,-0.157953223347656
-0.14422251355602,-0.163756894824965
-0.14802145026227,-0.169558188713953
-0.15179101130561,-0.175356797154912
-0.155530642452879,-0.181152412288132
-0.159239789470914,-0.186944726253906
-0.162917898126552,-0.192733431192525
-0.166564414186632,-0.198518219244279
-0.17017878341799,-0.204298782549461
-0.173760451587463,-0.210074813248361
-0.177308864461891,-0.215846003481271
-0.18082346780811,-0.221612045388482
-0.184303707392958,-0.227372631110285
-0.187749028983272,-0.233127452786973
-0.19115887834589,-0.238876202558835
-0.19453270124765,-0.244618572566164
-0.197869943455389,-0.250354254949251
-0.201170050735945,-0.256082941848386
-0.204432468856155,-0.261804325403862
-0.207656643582856,-0.26751809775597
-0.210842020682887,-0.273223951045001
-0.213988045923085,-0.278921577411245
-0.217094165070288,-0.284610668994996
-0.220159823891333,-0.290290917936544
-0.223184468153057,-0.29596201637618
-0.226167543622299,-0.301623656454195
-0.229108496065896,-0.307275530310881
-0.232006771250685,-0.31291733008653
-0.234861814943503,-0.318548747921432
-0.23767307291119,-0.324169475955879
-0.240439990920581,-0.329779206330162
-0.243162014738516,-0.335377631184573
-0.24583859013183,-0.340964442659402
-0.248469162867362,-0.346539332894942
-0.25105317871195,-0.352101994031483
-0.253590083432431,-0.357652118209316
-0.256079322795642,-0.363189397568734
-0.258520342568421,-0.368713524250027
-0.260912588517606,-0.374224190393487
-0.263255506410034,-0.379721088139405
-0.265548542012543,-0.385203909628073
-0.267791141091971,-0.39067234699978
-0.269982749415154,-0.39612609239482
-0.272122812748931,-0.401564837953483
-0.274210776860139,-0.406988275816061
-0.276246087515615,-0.412396098122845
-0.278228190482198,-0.417787997014126
-0.280156531526725,-0.423163664630195
-0.282030556416033,-0.428522793111345
-0.283849710916959,-0.433865074597865
-0.285613440796343,-0.439190201230049
-0.28732119182102,-0.444497865148185
-0.28897240975783,-0.449787758492567
-0.290566540373608,-0.455059573403486
-0.292103029435193,-0.460313002021232
-0.293581322709422,-0.465547736486097
-0.295000865963134,-0.470763468938373
-0.296361104963165,-0.475959891518351
-0.297661485476353,-0.481136696366321
-0.298901453269535,-0.486293575622576
-0.30008045410955,-0.491430221427407
-0.301197933763235,-0.496546325921104
-0.302253337997427,-0.50164158124396
-0.303246112578964,-0.506715679536265
-0.304175703274683,-0.511768312938312
-0.305041555851423,-0.51679917359039
-0.30584311607602,-0.521807953632793
-0.306579829715312,-0.52679434520581
-0.307251142536137,-0.531758040449733
-0.307856500305332,-0.536698731504854
-0.308395348789736,-0.541616110511464
-0.308867133756184,-0.546509869609853
-0.309271300971516,-0.551379700940315
-0.309607296202568,-0.556225296643139
-0.309874565216179,-0.561046348858617
-0.310072553779185,-0.565842549727041
-0.310200707658425,-0.570613591388701
-0.310258472620736,-0.575359165983889
-0.310245294432955,-0.580078965652897
-0.31016061886192,-0.584772682536016
-0.310003891674469,-0.589440008773536
-0.309774558637438,-0.59408063650575
-0.309472065517667,-0.598694257872949
-0.309095858081992,-0.603280565015423
-0.308645382097251,-0.607839250073465
-0.308120083330281,-0.612370005187365
-0.30751940754792,-0.616872522497415
-0.306842800517006,-0.621346494143906
-0.306089708004376,-0.625791612267131
-0.305259575776868,-0.630207569007378
-0.304351849601319,-0.634594056504941
-0.303365975244567,-0.638950766900111
-0.30230139847345,-0.643277392333178
-0.301157565054804,-0.647573624944434
-0.299933920755468,-0.651839156874171
-0.29862991134228,-0.65607368026268
-0.297244982582076,-0.660276887250252
-0.295778580241694,-0.664448469977178
-0.294230150087972,-0.66858812058375
-0.292599137887748,-0.672695531210258
-0.290884989407858,-0.676770393996996
-0.289087150415141,-0.680812401084252
-0.287205066676434,-0.68482124461232
-0.285238183958576,-0.68879661672149
-0.283185948028402,-0.692738209552054
-0.281047804652751,-0.696645715244303
-0.27882319959846,-0.700518825938528
-0.276511578632368,-0.70435723377502
-0.274112387521311,-0.708160630894071
-0.271625072032128,-0.711928709435973
-0.269049077931654,-0.715661161541016
-0.26638385098673,-0.719357679349492
-0.263628836964191,-0.723017955001692
-0.260783481630876,-0.726641680637907
-0.257847230753621,-0.730228548398429
-0.254819530099265,-0.73377825042355
-0.251699825434645,-0.737290478853559
-0.248487562526599,-0.74076492582875
-0.245182187141964,-0.744201283489412
-0.241783145047578,-0.747599243975838
-0.238289882010279,-0.750958499428319
-0.234701843796903,-0.754278741987145
-0.231018476174289,-0.757559663792609
-0.227239224909274,-0.760800956985002
-0.223363535768696,-0.764002313704614
-0.219390854519392,-0.767163426091738
-0.2153206269282,-0.770283986286664
-0.211152298761957,-0.773363686429684
-0.206885315787501,-0.776402218661089
-0.20251912377167,-0.779399275121171
-0.198053168481301,-0.782354547950221
-0.193486895683231,-0.78526772928853
-0.188819751144299,-0.788138511276389
-0.184051180631342,-0.79096658605409
-0.179180629911197,-0.793751645761925
-0.174207544750702,-0.796493382540184
-0.169131370916694,-0.799191488529158
-0.163951554176012,-0.80184565586914
-0.158667540295492,-0.804455576700419
-0.153278775041972,-0.807020943163289
-0.147784704182291,-0.80954144739804
-0.142184773483284,-0.812016781544962
-0.136478428711791,-0.814446637744349
