-0.0229946073676421,-0.291957116826216
0.0674720151928738,0.624732407755084
-0.111930177162407,0.889523109797466
-0.648220685547264,-0.0637050811122146
-1.18451119393212,-1.0169332720219
-0.983319022710251,0.21862749035158
-0.284976393501025,-0.734814710047475
0.413366235708201,-1.68825691044653
-0.14103284135992,0.916953613533532
0.625585898232569,0.886411256360446
