0.813038587119831,0.130721723309149
0.433293522577249,0.989142135046739
-0.20999672290544,-0.78969261418219
0.501546152063586,-0.463239963633926
1.21308902703261,-0.136787313085662
-0.393451081755193,0.815324541825696
0.421256584792665,0.129336915701021
1.23596425134052,-0.556650710423654
-0.478233493708743,0.0560486181396112
-0.419194991086653,0.592924014524176
