-0.124691002404859,0.632577557095858
-0.119683617169473,0.634699412267375
-0.114696249335119,0.636756222718962
-0.109728855835034,0.638748374609745
-0.104781393602453,0.640676254098849
-0.0998538195706152,0.642540247345401
-0.0949460906727561,0.644340740508524
-0.090058163842113,0.646078119747346
-0.0851899960119228,0.647752771220991
-0.0803415441154224,0.649365081088586
-0.0755127650858485,0.650915435509255
-0.0707036158564381,0.652404220642123
-0.0659140533604282,0.653831822646319
-0.0611440345310556,0.655198627680965
-0.0563935163015572,0.656505021905188
-0.0516624556051698,0.657751391478114
-0.0469508093751305,0.658938122558867
-0.042258534544676,0.660065601306574
-0.0375855880470432,0.66113421388036
-0.032931926815469,0.662144346439351
-0.0282975077831905,0.663096385142672
-0.0236822878834443,0.663990716149448
-0.0190862240494674,0.664827725618806
-0.0145092732144967,0.66560779970987
-0.0099513923117691,0.666331324581767
-0.00541253827452146,0.666998686393622
-0.000892668035990675,0.66761027130456
0.00360826147058632,0.668166465473707
0.00809029331197271,0.668667655060189
0.0125534705549316,0.669114226223131
0.016997836266226,0.669506565121658
0.0214234335126191,0.669845057914897
0.0258303053608741,0.670130090761972
0.0302184948777539,0.67036204982201
0.0345880451300218,0.670541321254136
0.0389389991844408,0.670668291217474
0.043271400107774,0.670743345871152
0.0475852909667846,0.670766871374295
0.0518807148282357,0.670739253886027
0.0561577147588904,0.670660879565475
0.0604163338255117,0.670532134571764
0.0646566150948629,0.67035340506402
0.0688786016337069,0.670125077201368
0.073082336508807,0.669847537142933
0.0772678627869262,0.669521171047842
0.0814352235348277,0.66914636507522
0.0855844618192745,0.668723505384193
0.0897156207070298,0.668252978133885
0.0938287432648567,0.667735169483423
0.0979238725595182,0.667170465591932
0.102001051657778,0.666559252618537
0.106060323626398,0.665901916722365
0.110101731532142,0.66519884406254
0.114125318441773,0.664450420798189
0.118131127422055,0.663657033088437
0.12211920153975,0.662819067092408
0.126089583861622,0.66193690896923
0.130042317454433,0.661010944878028
0.133977445384946,0.660041560977926
0.137895010719926,0.659029143428051
0.141795056526134,0.657974078387528
0.145677625870335,0.656876752015482
0.14954276181929,0.65573755047104
0.153390507439764,0.654556859913327
0.157220905798519,0.653335066501468
0.161033999962319,0.652072556394588
0.164829832997926,0.650769715751815
0.168608447972104,0.649426930732272
0.172369887951616,0.648044587495085
0.176114196003224,0.646623072199381
0.179841415193693,0.645162771004284
0.183551588589784,0.643664070068921
0.187244759258262,0.642127355552416
0.19092097026589,0.640553013613895
0.194580264679429,0.638941430412485
0.198222685565645,0.637292992107309
0.201848275991299,0.635608084857494
0.205457079023155,0.633887094822167
0.209049137727975,0.63213040816045
0.212624495172524,0.630338411031472
0.216183194423564,0.628511489594356
0.219725278547858,0.62665003000823
0.223250790612169,0.624754418432217
0.226759773683261,0.622825041025444
0.230252270827897,0.620862283947036
0.233728325112839,0.61886653335612
0.237187979604851,0.616838175411819
0.240631277370695,0.614777596273261
0.244058261477136,0.61268518209957
0.247468974990936,0.610561319049872
0.250863460978858,0.608406393283292
0.254241762507666,0.606220790958957
0.257603922644122,0.604004898235992
0.260949984454989,0.601759101273522
0.264279991007031,0.599483786230672
0.267593985367011,0.597179339266569
0.270892010601692,0.594846146540338
0.274174109777837,0.592484594211104
0.277440325962209,0.590095068437993
0.280690702221571,0.58767795538013
0.283925281622687,0.585233641196642
0.287144107232319,0.582762512046654
0.29034722211723,0.58026495408929
0.293534669344185,0.577741353483677
0.296706491979945,0.575192096388941
0.299862733091274,0.572617568964206
0.303003435744935,0.570018157368599
0.306128643007691,0.567394247761245
0.309238397946305,0.564746226301269
0.312332743627541,0.562074479147797
0.315411723118161,0.559379392459955
0.318475379484928,0.556661352396867
0.321523755794606,0.553920745117661
0.324556895113958,0.551157956781461
0.327574840509747,0.548373373547392
0.330577635048736,0.545567381574581
0.333565321797688,0.542740367022152
0.336537943823367,0.539892716049233
0.339495544192534,0.537024814814947
0.342438165971954,0.53413704947842
0.34536585222839,0.531229806198779
0.348278646028604,0.528303471135148
0.35117659043936,0.525358430446653
0.354059728527421,0.52239507029242
0.35692810335955,0.519413776831575
0.35978175800251,0.516414936223242
0.362620735523065,0.513398934626547
0.365445078987976,0.510366158200616
0.368254831464008,0.507316993104575
0.371050036017924,0.504251825497549
0.373830735716486,0.501171041538664
0.376596973626458,0.498075027387044
0.379348792814603,0.494964169201816
0.382086236347684,0.491838853142106
0.384809347292464,0.488699465367038
0.387518168715707,0.485546392035738
0.390212743684174,0.482380019307332
0.39289311526463,0.479200733340946
0.395559326523838,0.476008920295704
0.39821142052856,0.472804966330733
0.40084944034556,0.469589257605159
0.403473429041601,0.466362180278105
0.406083429683446,0.463124120508699
0.408679485337858,0.459875464456065
0.4112616390716,0.45661659827933
0.413829933951436,0.453347908137619
0.416384413044128,0.450069780190057
0.418925119416439,0.446782600595769
0.421452096135133,0.443486755513883
0.423965386266973,0.440182631103522
0.426465032878722,0.436870613523813
0.428951079037143,0.43355108893388
0.431423567808999,0.430224443492851
0.433882542261053,0.426891063359849
0.436328045460069,0.423551334694002
0.438760120472808,0.420205643654433
0.441178810366036,0.41685437640027
0.443584158206514,0.413497919090637
0.445976207061006,0.410136657884659
0.448354999996275,0.406770978941463
0.450720580079083,0.403401268420175
0.453072990376195,0.400027912479919
0.455412273954373,0.396651297279821
0.457738473880381,0.393271808979006
0.46005163322098,0.389889833736601
0.462351795042936,0.386505757711731
0.46463900241301,0.38311996706352
0.466913298397965,0.379732847951096
0.469174726064566,0.376344786533583
0.471423328479575,0.372956168970108
0.473659148709755,0.369567381419794
0.475882229821868,0.366178810041769
0.47809261488268,0.362790840995157
0.480290346958951,0.359403860439085
0.482475469117447,0.356018254532677
0.484648024424929,0.352634409435059
0.48680805594816,0.349252711305358
0.488955606753905,0.345873546302698
0.491090719908925,0.342497300586204
0.493213438479985,0.339124360315003
0.495323805533847,0.33575511164822
0.497421864137274,0.332389940744981
0.499507657357029,0.329029233764411
0.501581228259876,0.325673376865635
0.503642619912578,0.322322756207779
0.505691875381898,0.31897775794997
0.507729037734598,0.315638768251331
0.509754150037442,0.31230617327099
0.511767255357194,0.308980359168071
0.513768396760615,0.305661712101699
0.51575761731447,0.302350618231002
0.517734960085522,0.299047463715103
0.519700468140533,0.295752634713129
0.521654184546266,0.292466517384205
0.523596152369485,0.289189497887457
0.525526414676954,0.28592196238201
0.527445014535434,0.28266429702699
0.529351995011689,0.279416887981522
0.531247399172482,0.276180121404732
0.533131270084577,0.272954383455745
0.535003650814736,0.269740060293688
0.536864584429723,0.266537538077685
0.538714113996301,0.263347202966862
0.540552282581232,0.260169441120345
0.54237913325128,0.257004638697259
0.544194709073208,0.253853181856729
0.545999053113779,0.250715456757882
0.547792208439756,0.247591849559843
0.549574218117902,0.244482746421737
0.551345125214981,0.24138853350269
0.553104972797756,0.238309596961828
0.554853803932989,0.235246322958275
0.556591661687444,0.232199097651159
0.558318589127884,0.229168307199603
0.560034629321071,0.226154337762734
0.56173982533377,0.223157575499677
0.563434220232743,0.220178406569558
0.565117857084753,0.217217217131502
0.566790778956564,0.214274393344636
0.568453028914938,0.211350321368083
0.570104650026639,0.208445387360971
0.57174568535843,0.205559977482424
0.573376177977074,0.202694477891568
0.574996170949333,0.199849274747529
0.576605707341971,0.197024754209432
0.578204830221752,0.194221302436402
0.579793582655438,0.191439305587566
0.581372007709793,0.188679149822049
0.582940148451579,0.185941221298976
0.584498047947559,0.183225906177473
0.586045749264498,0.180533590616666
0.587583295469157,0.177864660775679
0.5891107296283,0.175219502813639
0.590628094808691,0.172598502889671
0.592135434077091,0.170002047162901
0.593632790500265,0.167430521792454
0.595120207144975,0.164884312937456
0.596597727077985,0.162363806757032
0.598065393366057,0.159869389410308
0.599523249075955,0.157401447056409
0.600971337274442,0.154960365854462
0.602409701028281,0.15254653196359
0.603838383404235,0.150160331542921
0.605257427469067,0.14780215075158
0.606666876289541,0.145472375748691
0.608066772932418,0.143171392693382
0.609457160464464,0.140899587744776
0.61083808195244,0.138657347062001
0.61220958046311,0.13644505680418
0.613571699063236,0.134263103130441
0.614924480819583,0.132111872199908
0.616267968798913,0.129991750171707
0.617602206067988,0.127903123204963
0.618927235693574,0.125846377458803
0.620243100742431,0.123821899092351
0.621549844281324,0.121830074264734
0.622847509377016,0.119871289135076
0.624136139096269,0.117945929862504
0.625415776505847,0.116054382606142
0.626686464672514,0.114197033525117
0.627948246663031,0.112374268778554
0.629201165544162,0.110586474525578
0.630445264382671,0.108834036925315
0.631680586245321,0.107117342136891
0.632907174198873,0.105436776319431
0.634125071310093,0.10379272563206
0.635334320645742,0.102185576233905
0.636534965272584,0.100615714284091
0.637727048257381,0.0990835259417426
0.638910612666898,0.0975893973659864
0.640085701567897,0.0961337147159477
0.641252358027142,0.0947168641507519
0.642410625111395,0.0933392318295247
0.643560545887419,0.0920012039113915
0.644702163421978,0.0907031665554779
0.645835520781835,0.0894455059209096
0.646960661033752,0.0882286081668119
0.648077627244494,0.0870528594523105
0.649186462480822,0.0859186459365309
0.650287209809501,0.0848263537785987
0.651379912297293,0.0837763691376395
0.652464613010961,0.0827690781727786
0.653541355017269,0.0818048670431419
0.65461018138298,0.0808841219078545
0.655671135174856,0.0800072289260425
0.656724259459661,0.079174574256831
0.657769597304158,0.0783865440593458
0.658807191775111,0.0776435244927123
0.659837085939281,0.0769459017160561
0.660859322863432,0.0762940618885028
0.661873945614328,0.0756883911691779
0.662880997258732,0.075129275717207
0.663880520863406,0.0746171016917156
0.664872559495114,0.0741522552518292
0.665857156220618,0.0737351225566734
0.666834354106683,0.0733660897653738
0.667804196220071,0.0730455430370559
0.668766725627545,0.0727738685308452
0.669721985395868,0.0725514524058674
0.670670018591804,0.0723786808212479
0.671610868282114,0.0722559399361123
0.672544577533564,0.0721836159095861
0.673471189412916,0.0721620949007949
0.674390746986932,0.0721917630688643
0.675303293322376,0.0722730065729198
0.676208871486011,0.072406211572087
0.6771075245446,0.0725917642254913
0.677999295564907,0.0728300506922584
0.678884227613694,0.0731214571315137
0.679762363757725,0.073466369702383
0.680633747063762,0.0738651745639915
0.681498420598569,0.0743182578754651
0.682356427428909,0.0748260057959291
0.683207810621544,0.0753888044845092
0.684052613243239,0.0760070401003309
0.684890878360756,0.0766810988025197
0.685722649040858,0.0774113667502012
0.686547968350309,0.0781982301025008
0.687366879355871,0.0790420750185443
0.688179425124308,0.0799432876574572
0.688985648722382,0.0809022541783649
0.689785593216857,0.0819193607403931
0.690579301674496,0.0829949935026672
0.691366817162063,0.0841295386243129
0.692148182746319,0.0853233822644556
0.692923441494029,0.086576910582221
0.693692636471955,0.0878905097367345
0.69445581074686,0.0892645658871218
0.695213007385509,0.0906994651925083
0.695964269454662,0.0921955938120197
0.696709640021085,0.0937533379047815
0.69744916215154,0.0953730836299192
0.69818287891279,0.0970552171465583
0.698910833371597,0.0988001246138245
0.699633068594727,0.100608192190843
0.70034962764894,0.10247980603674
0.701060553601001,0.104415352310641
0.701765889517673,0.10641521717167
0.702465678465718,0.108479786778955
0.7031599635119,0.11060944729162
0.703848787722982,0.11280458486879
0.704532194165727,0.115065585669593
0.705210225906899,0.117392835853152
0.705882926013259,0.119786721578593
0.706550337551572,0.122247629005043
0.707212503588601,0.124775944291626
0.707869467191108,0.127372053597468
0.708521271425857,0.130036343081696
0.70916795935961,0.132769198903433
0.709809574059132,0.135571007221806
0.710446158591184,0.138442154195941
0.711077756022531,0.141383025984962
0.711704409419935,0.144394008747996
0.712326161850159,0.147475488644168
0.712943056379967,0.150627851832603
0.713555136076122,0.153851484472428
0.714162444005386,0.157146772722767
0.714765023234523,0.160514102742747
0.715362916830296,0.163953860691492
0.715956167859468,0.167466432728128
0.716544819388802,0.171052205011782
0.717128914485061,0.174711563701577
0.717708496215009,0.178444894956641
0.718283607645408,0.182252584936098
0.718854291843022,0.186135019799074
0.719420591874614,0.190092585704695
0.719982550806946,0.194125668812086
0.720540211706782,0.198234655280373
0.721093617640886,0.20241993126868
0.721642811676019,0.206681882936135
0.722187836878946,0.211020896441862
0.722728736316429,0.215437357944987
0.723265553055232,0.219931653604635
0.723798330162117,0.224504169579933
0.724327110703848,0.229155292030004
0.724851937747188,0.233885407113976
0.725372854358899,0.238694900990974
0.725889903605746,0.243584159820123
0.726403128554491,0.248553569760548
0.726912572271897,0.253603516971376
0.727418277824727,0.258734387611731
0.727920288279745,0.26394656784074
0.728418646703714,0.269240443817528
0.728913396163396,0.274616401701221
0.729404579725555,0.280074827650943
0.729892240456954,0.285616107825821
0.730376421424356,0.29124062838498
0.730857165694524,0.296948775487546
0.731334516334222,0.302740935292644
0.731808516410212,0.3086174939594
0.732279208989257,0.314578837646938
0.732746637138121,0.320625352514387
0.733210843923566,0.326757424720869
0.733671872412357,0.332975440425511
0.734129765671255,0.339279785787439
0.734584566767024,0.345670846965778
0.735036318766428,0.352149010119653
0.735485064736229,0.358714661408191
0.73593084774319,0.365368186990517
0.736373710854074,0.372109973025755
0.736373710854074,0.372109973025755
0.736784207745221,0.378852607481414
0.737133056620951,0.385508646199863
0.737420547339999,0.392078427152521
0.737646969761099,0.39856228831081
0.737812613742987,0.404960567646147
0.737917769144398,0.411273603129954
0.737962725824066,0.41750173273365
0.737947773640726,0.423645294428655
0.737873202453114,0.429704626186389
0.737739302119964,0.435680065978272
0.737546362500011,0.441571951775723
0.73729467345199,0.447380621550163
0.736984524834636,0.453106413273011
0.736616206506684,0.458749664915687
0.736190008326869,0.46431071444961
0.735706220153927,0.469789899846202
0.73516513184659,0.475187559076881
0.734567033263595,0.480504030113068
0.733912214263677,0.485739650926182
0.733200964705571,0.490894759487644
0.732433574448011,0.495969693768872
0.731610333349732,0.500964791741287
0.73073153126947,0.505880391376309
0.729797458065959,0.510716830645358
0.728808403597934,0.515474447519853
0.72776465772413,0.520153579971214
0.726666510303282,0.524754565970862
0.725514251194125,0.529277743490215
0.724308170255395,0.533723450500694
0.723048557345824,0.538092024973719
0.72173570232415,0.54238380488071
0.720369895049106,0.546599128193086
0.718951425379428,0.550738332882267
0.71748058317385,0.554801756919672
0.715957658291108,0.558789738276723
0.714382940589937,0.562702614924839
0.712756719929071,0.56654072483544
0.711079286167244,0.570304405979944
0.709350929163193,0.573993996329773
0.707571938775652,0.577609833856347
0.705742604863356,0.581152256531084
0.70386321728504,0.584621602325405
0.701934065899439,0.58801820921073
0.699955440565288,0.591342415158478
0.697927631141322,0.59459455814007
0.695850927486275,0.597774976126925
0.693725619458883,0.600884007090463
0.69155199691788,0.603921989002104
0.689330349722002,0.606889259833267
0.687060967729983,0.609786157555374
0.684744140800559,0.612613020139843
0.682380158792464,0.615370185558094
0.679969311564433,0.618057991781547
0.6775118889752,0.620676776781623
0.675008180883502,0.62322687852974
0.672458477148073,0.625708634997319
0.669863067627649,0.62812238415578
0.667222242180962,0.630468463976542
0.664536290666749,0.632747212431025
0.661805502943746,0.634958967490649
0.659030168870686,0.637104067126835
0.656210578306304,0.639182849311001
0.653347021109335,0.641195652014567
0.650439787138515,0.643142813208955
0.647489166252579,0.645024670865583
0.644495448310261,0.646841562955871
0.641458923170295,0.648593827451238
0.638379880691418,0.650281802323106
0.635258610732364,0.651905825542894
0.632095403151868,0.653466235082021
0.628890547808665,0.654963368911907
0.625644334561489,0.656397565003974
0.622357053269077,0.657769161329639
0.619028993790162,0.659078495860323
0.615660445983479,0.660325906567446
0.612251699707764,0.661511731422427
0.608803044821752,0.662636308396688
0.605314771184177,0.663699975461646
0.601787168653774,0.664703070588723
0.598220527089279,0.665645931749338
0.594615136349426,0.66652889691491
0.590971286292949,0.667352304056861
0.587289266778585,0.668116491146609
0.583569367665068,0.668821796155574
0.579811878811133,0.669468557055177
0.576017090075514,0.670057111816837
0.572185291316947,0.670587798411974
0.568316772394167,0.671060954812009
0.564411823165909,0.671476918988359
0.560470733490907,0.671836028912447
0.556493793227896,0.67213862255569
0.552481292235612,0.67238503788951
0.548433520372789,0.672575612885326
0.544350767498163,0.672710685514558
0.540233323470467,0.672790593748626
0.536081478148438,0.672815675558949
0.531895521390809,0.672786268916948
0.527675743056317,0.672702711794043
0.523422433003696,0.672565342161652
0.51913588109168,0.672374497991197
0.514816377179005,0.672130517254096
0.510464211124406,0.67183373792177
0.506079672786617,0.671484497965639
0.501663052024374,0.671083135357122
0.497214638696411,0.67062998806764
0.492734722661464,0.670125394068611
0.488223593778267,0.669569691331457
0.483681541905555,0.668963217827596
0.479108856902064,0.668306311528449
0.474505828626527,0.667599310405436
0.46987274693768,0.666842552429976
0.465209901694259,0.666036375573489
0.460517582754997,0.665181117807396
0.45579607997863,0.664277117103115
0.451045683223893,0.663324711432066
0.44626668234952,0.662324238765671
0.441459367214248,0.661276037075348
0.436624027676809,0.660180444332517
0.43176095359594,0.659037798508599
0.426870434830376,0.657848437575012
0.421952761238851,0.656612699503178
0.4170082226801,0.655330922264515
0.412037109012858,0.654003443830443
0.40703971009586,0.652630602172384
0.402016315787841,0.651212735261755
0.396967215947537,0.649750181069977
0.391892700433681,0.64824327756847
0.386793059105009,0.646692362728655
0.381668581820255,0.645097774521949
0.376519558438156,0.643459850919775
0.371346278817444,0.64177892989355
0.366149032816857,0.640055349414696
0.360928110295128,0.638289447454632
0.355683801110992,0.636481561984778
0.350416395123185,0.634632030976553
0.345126182190441,0.632741192401378
0.339813452171495,0.630809384230672
0.334478494925081,0.628836944435856
0.329121600309937,0.626824210988349
0.323743058184795,0.624771521859571
0.318343158408391,0.622679215020941
0.312922190839459,0.62054762844388
0.307480445336736,0.618377100099808
0.302018211758955,0.616167967960144
0.296535779964851,0.613920569996309
0.291033439813161,0.611635244179721
0.285511481162617,0.609312328481801
0.279970193871956,0.60695216087397
0.274409867799913,0.604555079327645
0.268830792805221,0.602121421814248
0.263233258746617,0.599651526305199
0.257617555482835,0.597145730771916
0.25198397287261,0.594604373185821
0.246332800774676,0.592027791518332
0.24066432904777,0.58941632374087
0.234978847550625,0.586770307824855
0.229276646141978,0.584090081741707
0.223558014680561,0.581375983462844
0.217823243025112,0.578628350959687
0.212072621034364,0.575847522203656
0.206306438567052,0.573033835166172
0.200524985481912,0.570187627818652
0.194728551637678,0.567309238132518
0.188917426893085,0.56439900407919
0.183091901106869,0.561457263630087
0.177252264137763,0.558484354756628
0.171398805844504,0.555480615430235
0.165531816085825,0.552446383622326
0.159651584720463,0.549381997304322
0.153758401607151,0.546287794447643
0.147852556604625,0.543164113023707
0.141934339571619,0.540011291003936
0.13600404036687,0.536829666359749
0.13006194884911,0.533619577062565
0.124108354877076,0.530381361083805
0.118143548309503,0.527115356394889
0.112167819005125,0.523821900967236
0.106181456822677,0.520501332772266
0.100184751620894,0.517153989781399
0.0941779932585109,0.513780209966056
0.0881614715942633,0.510380331297654
0.0821354764868854,0.506954691747616
0.0761002977951124,0.50350362928736
0.0700562253776794,0.500027481888306
0.0640035490933211,0.496526587521875
0.0579425588007723,0.493001284159485
0.051873544358768,0.489451909772557
0.0457967956260435,0.485878802332511
0.0397126024613334,0.482282299810766
0.0336212547233724,0.478662740178743
0.0275230422708958,0.475020461407861
0.0214182549626386,0.47135580146954
0.0153071826573356,0.4676690983352
0.0091901152137214,0.463960689976261
0.00306734249053131,0.460230914364142
-0.00306084565349971,0.456480109470264
-0.00919415935963688,0.452708613266047
-0.0153323087691455,0.448916763722909
-0.0214750040232902,0.445104898812271
-0.0276219552633362,0.441273356505554
-0.0337728726305488,0.437422474774175
-0.0399274662661926,0.433552591589557
-0.0460854463115333,0.429664044923118
-0.0522465229078353,0.425757172746278
-0.0584104061963643,0.421832313030457
-0.0645768063183849,0.417889803747076
-0.0707454334151624,0.413929982867553
-0.0769159976279617,0.409953188363308
-0.0830882090980482,0.405959758205762
-0.0892617779666866,0.401950030366335
-0.0954364143751422,0.397924342816446
-0.10161182846468,0.393883033527515
-0.107787730376565,0.389826440470961
-0.113963830252062,0.385754901618206
-0.120139838232437,0.381668754940668
-0.126315464458954,0.377568338409767
-0.132490419072879,0.373453989996924
-0.138664412215477,0.369326047673558
-0.144837154028012,0.365184849411088
-0.15100835465175,0.361030733180936
-0.157177724227956,0.35686403695452
-0.163344972897895,0.352685098703261
-0.169509810802832,0.348494256398578
-0.175671948084031,0.344291848011892
-0.181831094882759,0.340078211514621
-0.18798696134028,0.335853684878187
-0.19413925759786,0.331618606074008
-0.200287693796762,0.327373313073505
-0.206431980078254,0.323118143848097
-0.212571826583598,0.318853436369204
-0.218706943454062,0.314579528608247
-0.224837040830908,0.310296758536645
-0.230961828855404,0.306005464125817
-0.237081017668813,0.301705983347185
-0.243194317412402,0.297398654172166
-0.249301438227434,0.293083814572183
-0.255402090255175,0.288761802518653
-0.26149598363689,0.284432955982998
-0.267582828513845,0.280097612936636
-0.273662335027303,0.275756111350989
-0.279734213318531,0.271408789197474
-0.285798173528793,0.267055984447514
-0.291853925799355,0.262698035072527
-0.297901180271481,0.258335279043933
-0.303939647086436,0.253968054333152
-0.309969036385487,0.249596698911603
-0.315989058309897,0.245221550750708
-0.321999423000931,0.240842947821885
-0.327999840599856,0.236461228096555
-0.333990021247935,0.232076729546137
-0.339969675086435,0.227689790142051
-0.34593851225662,0.223300747855717
-0.351896242899754,0.218909940658554
-0.357842577157104,0.214517706521984
-0.363777225169935,0.210124383417425
-0.36969989707951,0.205730309316297
-0.375610303027096,0.20133582219002
-0.381508153153957,0.196941260010015
-0.38739315760136,0.1925469607477
-0.393265026510567,0.188153262374497
-0.399123470022846,0.183760502861823
-0.40496819827946,0.179369020181101
-0.410798921421675,0.174979152303748
-0.416615349590756,0.170591237201186
-0.422417192927968,0.166205612844834
-0.428204161574576,0.161822617206112
-0.433975965671845,0.157442588256439
-0.43973231536104,0.153065863967236
-0.445472920783427,0.148692782309922
-0.45119749208027,0.144323681255917
-0.456905739392835,0.139958898776642
-0.462597372862385,0.135598772843515
-0.468272102630188,0.131243641427957
-0.473929638837507,0.126893842501388
-0.479569691625608,0.122549714035228
-0.485191971135756,0.118211594000895
-0.490796187509215,0.113879820369811
-0.496382050887252,0.109554731113395
-0.50194927141113,0.105236664203067
-0.507497559222115,0.100925957610246
-0.513026624461473,0.096622949306353
-0.518536177270468,0.0923279772628076
-0.524025927790365,0.0880413794510292
-0.52949558616243,0.0837634938424381
-0.534944862527927,0.0794946584084538
-0.540373467028121,0.0752352111204964
-0.545781109804278,0.0709854899499856
-0.551167500997662,0.0667458328683414
-0.55653235074954,0.0625165778469833
-0.561875369201175,0.0582980628573317
-0.567196266493833,0.054090625870806
-0.572494752768779,0.0498946048588263
-0.577770538167278,0.0457103377928122
-0.583023332830594,0.0415381626441838
-0.588252846899995,0.0373784173843608
-0.593458790516743,0.0332314399847631
-0.598640873822105,0.0290975684168105
-0.603798806957344,0.024977140651923
-0.608932300063728,0.0208704946615202
-0.61404106328252,0.0167779684170222
-0.619124806754985,0.0126998998898486
-0.624183240622389,0.00863662705141954
-0.629216075025997,0.00458848787315454
-0.634223020107074,0.000555820326473749
-0.639203786006884,-0.00346103761720323
-0.644158082866694,-0.0074617479864563
-0.649085620827767,-0.0114459728098659
-0.653986110031369,-0.0154133741160119
-0.658859260618766,-0.0193636139334747
-0.663704782731222,-0.0232963542908342
-0.668522386510002,-0.0272112572166709
-0.673311782096371,-0.0311079847395645
-0.678072679631595,-0.0349861988880956
-0.682804789256939,-0.0388455616908439
-0.687507821113667,-0.04268573517639
-0.692181485343044,-0.0465063813733137
-0.696825492086337,-0.0503071623101955
-0.701439551484809,-0.0540877400156151
-0.706023373679726,-0.0578477765181531
-0.710576668812353,-0.0615869338463893
-0.715099147023954,-0.0653048740289042
-0.719590518455796,-0.0690012590942776
-0.724050493249144,-0.0726757510710899
-0.728478781545261,-0.076328011987921
-0.732875093485414,-0.0799577038733515
-0.737239139210867,-0.083564488755961
-0.741570628862885,-0.0871480286643301
-0.745869272582734,-0.0907079856270386
-0.750134780511679,-0.0942440216726669
-0.754366862790983,-0.097755798829795
-0.758565229561914,-0.101242979127003
-0.762729590965736,-0.104705224592872
-0.766859657143714,-0.10814219725598
-0.770955138237112,-0.111553559144909
-0.775015744387196,-0.114938972288239
-0.779041185735232,-0.11829809871455
-0.783031172422484,-0.121630600452421
-0.786985414590216,-0.124936139530434
-0.790903622379696,-0.128214377977168
-0.794785505932186,-0.131464977821203
-0.798630775388953,-0.13468760109112
-0.802439140891262,-0.137881909815498
-0.806210312580377,-0.141047566022919
-0.809944000597563,-0.144184231741961
-0.813639915084087,-0.147291569001205
-0.817297766181212,-0.150369239829232
-0.820917264030204,-0.153416906254621
-0.824498118772328,-0.156434230305953
-0.828040040548849,-0.159420874011808
-0.831542739501032,-0.162376499400765
-0.835005925770143,-0.165300768501406
-0.838429309497445,-0.168193343342309
-0.841812600824205,-0.171053885952057
-0.845155509891687,-0.173882058359227
-0.848457746841156,-0.176677522592402
-0.851719021813879,-0.17943994068016
-0.854939044951118,-0.182168974651082
-0.85811752639414,-0.184864286533748
-0.86125417628421,-0.187525538356738
-0.864348704762593,-0.190152392148633
-0.867400821970554,-0.192744509938013
-0.870410238049357,-0.195301553753457
-0.873376663140269,-0.197823185623546
-0.876299807384554,-0.20030906757686
-0.879179380923477,-0.202758861641979
-0.882015093898303,-0.205172229847484
-0.884806656450297,-0.207548834221954
-0.887553778720725,-0.20988833679397
-0.890256170850851,-0.212190399592112
-0.89291354298194,-0.214454684644959
-0.895525605255259,-0.216680853981093
-0.898092067812071,-0.218868569629092
-0.900612640793641,-0.221017493617539
-0.903087034341235,-0.223127287975012
-0.905514958596119,-0.225197614730091
-0.907896123699556,-0.227228135911357
-0.910230239792812,-0.229218513547391
-0.912517017017153,-0.231168409666771
-0.914756165513842,-0.233077486298079
-0.916947395424146,-0.234945405469894
-0.919090416889329,-0.236771829210797
-0.921184940050656,-0.238556419549368
-0.923230675049393,-0.240298838514187
-0.925227332026804,-0.241998748133833
-0.927174621124155,-0.243655810436888
-0.929072252482711,-0.245269687451931
-0.930919936243736,-0.246840041207543
-0.932717382548496,-0.248366533732304
-0.934464301538256,-0.249848827054793
-0.936160403354281,-0.251286583203591
-0.937805398137835,-0.252679464207279
-0.939398996030185,-0.254027132094435
-0.940940907172595,-0.255329248893641
-0.942430841706331,-0.256585476633477
-0.943868509772656,-0.257795477342522
-0.945253621512837,-0.258958913049358
-0.946585887068139,-0.260075445782563
-0.947865016579826,-0.261144737570719
-0.949090720189163,-0.262166450442405
-0.949090720189163,-0.262166450442405
-0.950268424770485,-0.263160894515814
-0.951403911967464,-0.264148584800989
-0.952497424075371,-0.265129490664284
-0.953549203389482,-0.266103581472053
-0.954559492205067,-0.267070826590652
-0.955528532817401,-0.268031195386434
-0.956456567521755,-0.268984657225753
-0.957343838613404,-0.269931181474966
-0.958190588387619,-0.270870737500424
-0.958997059139673,-0.271803294668483
-0.95976349316484,-0.272728822345498
-0.960490132758393,-0.273647289897823
-0.961177220215604,-0.274558666691812
-0.961824997831745,-0.275462922093819
-0.96243370790209,-0.276360025470199
-0.963003592721913,-0.277249946187307
-0.963534894586485,-0.278132653611497
-0.96402785579108,-0.279008117109123
-0.964482718630969,-0.279876306046539
-0.964899725401428,-0.280737189790101
-0.965279118397727,-0.281590737706162
-0.965621139915141,-0.282436919161077
-0.965926032248941,-0.2832757035212
-0.966194037694401,-0.284107060152886
-0.966425398546794,-0.284930958422489
-0.966620357101392,-0.285747367696363
-0.966779155653468,-0.286556257340864
-0.966902036498296,-0.287357596722344
-0.966989241931148,-0.28815135520716
-0.967041014247297,-0.288937502161664
-0.967057595742016,-0.289716006952212
-0.967039228710578,-0.290486838945158
-0.966986155448255,-0.291249967506856
-0.96689861825032,-0.292005362003661
-0.966776859412047,-0.292752991801927
-0.966621121228708,-0.293492826268009
-0.966431645995577,-0.29422483476826
-0.966208676007925,-0.294948986669036
-0.965952453561026,-0.295665251336691
-0.965663220950152,-0.296373598137579
-0.965341220470578,-0.297073996438054
-0.964986694417574,-0.297766415604472
-0.964599885086415,-0.298450825003185
-0.964181034772373,-0.29912719400055
-0.963730385770722,-0.29979549196292
-0.963248180376733,-0.300455688256649
-0.962734660885679,-0.301107752248093
-0.962190069592835,-0.301751653303605
-0.961614648793472,-0.302387360789539
-0.961008640782864,-0.303014844072251
-0.960372287856282,-0.303634072518095
-0.959705832309001,-0.304245015493424
-0.959009516436293,-0.304847642364594
-0.958283582533431,-0.305441922497959
-0.957528272895687,-0.306027825259873
-0.956743829818336,-0.306605320016691
-0.955930495596648,-0.307174376134767
-0.955088512525898,-0.307734962980456
-0.954218122901358,-0.308287049920111
-0.953319569018302,-0.308830606320088
-0.952393093172001,-0.30936560154674
-0.951438937657729,-0.309892004966422
-0.950457344770759,-0.310409785945489
-0.949448556806364,-0.310918913850295
-0.948412816059816,-0.311419358047194
-0.947350364826388,-0.311911087902541
-0.946261445401353,-0.31239407278269
-0.945146300079985,-0.312868282053996
-0.944005171157555,-0.313333685082812
-0.942838300929338,-0.313790251235494
-0.941645931690604,-0.314237949878396
-0.940428305736629,-0.314676750377872
-0.939185665362684,-0.315106622100276
-0.937918252864042,-0.315527534411964
-0.936626310535976,-0.315939456679288
-0.93531008067376,-0.316342358268605
-0.933969805572666,-0.316736208546268
-0.932605727527966,-0.317120976878631
-0.931218088834933,-0.31749663263205
-0.929807131788842,-0.317863145172878
-0.928373098684963,-0.318220483867469
-0.926916231818571,-0.318568618082179
-0.925436773484938,-0.318907517183362
-0.923934965979337,-0.319237150537371
-0.922411051597041,-0.319557487510562
-0.920865272633323,-0.319868497469289
-0.919297871383455,-0.320170149779906
-0.917709090142711,-0.320462413808768
-0.916099171206363,-0.320745258922229
-0.914468356869685,-0.321018654486644
-0.912816889427948,-0.321282569868366
-0.911145011176426,-0.321536974433751
-0.909452964410393,-0.321781837549152
-0.907740991425119,-0.322017128580924
-0.90600933451588,-0.322242816895422
-0.904258235977947,-0.322458871859
-0.902487938106594,-0.322665262838012
-0.900698683197092,-0.322861959198813
-0.898890713544715,-0.323048930307757
-0.897064271444737,-0.323226145531199
-0.895219599192429,-0.323393574235492
-0.893356939083065,-0.323551185786992
-0.891476533411917,-0.323698949552053
-0.88957862447426,-0.323836834897029
-0.887663454565364,-0.323964811188274
-0.885731265980503,-0.324082847792143
-0.88378230101495,-0.324190914074991
-0.881816801963979,-0.324288979403172
-0.879835011122861,-0.32437701314304
-0.87783717078687,-0.324454984660949
-0.875823523251278,-0.324522863323254
-0.873794310811358,-0.32458061849631
-0.871749775762384,-0.324628219546471
-0.869690160399628,-0.324665635840091
-0.867615707018363,-0.324692836743524
-0.865526657913862,-0.324709791623126
-0.863423255381397,-0.32471646984525
-0.861305741716242,-0.324712840776251
-0.85917435921367,-0.324698873782483
-0.857029350168953,-0.324674538230301
-0.854870956877364,-0.324639803486059
-0.852699421634176,-0.324594638916111
-0.850514986734662,-0.324539013886812
-0.848317894474096,-0.324472897764517
-0.846108387147748,-0.324396259915579
-0.843886707050894,-0.324309069706354
-0.841653096478804,-0.324211296503195
-0.839407797726753,-0.324102909672456
-0.837151053090014,-0.323983878580494
-0.834883104863858,-0.32385417259366
-0.832604195343559,-0.323713761078311
-0.83031456682439,-0.323562613400801
-0.828014461601624,-0.323400698927484
-0.825704121970533,-0.323227987024714
-0.82338379022639,-0.323044447058845
-0.821053708664469,-0.322850048396233
-0.818714119580043,-0.322644760403231
-0.816365265268382,-0.322428552446195
-0.814007388024762,-0.322201393891478
-0.811640730144455,-0.321963254105434
-0.809265533922733,-0.321714102454419
-0.80688204165487,-0.321453908304786
-0.804490495636138,-0.321182641022891
-0.802091138161811,-0.320900269975086
-0.79968421152716,-0.320606764527728
-0.79726995802746,-0.32030209404717
-0.794848619957982,-0.319986227899767
-0.792420439614,-0.319659135451872
-0.789985659290787,-0.319320786069841
-0.787544521283615,-0.318971149120028
-0.785097267887757,-0.318610193968787
-0.782644141398487,-0.318237889982473
-0.780185384111077,-0.31785420652744
-0.777721238320799,-0.317459112970042
-0.775251946322928,-0.317052578676634
-0.772777750412735,-0.316634573013571
-0.770298892885494,-0.316205065347206
-0.767815616036477,-0.315764025043895
-0.765328162160957,-0.315311421469991
-0.762836773554208,-0.314847223991849
-0.760341692511502,-0.314371401975823
-0.757843161328112,-0.313883924788267
-0.75534142229931,-0.313384761795537
-0.75283671772037,-0.312873882363987
-0.750329289886565,-0.312351255859971
-0.747819381093166,-0.311816851649843
-0.745307233635449,-0.311270639099957
-0.742793089808684,-0.310712587576669
-0.740277191908146,-0.310142666446332
-0.737759782229106,-0.309560845075302
-0.735241103066838,-0.308967092829931
-0.732721396716614,-0.308361379076576
-0.730200905473708,-0.30774367318159
-0.727679871633393,-0.307113944511327
-0.725158537490941,-0.306472162432143
-0.722637145341624,-0.30581829631039
-0.720115937480717,-0.305152315512425
-0.717595156203492,-0.304474189404601
-0.715075043805221,-0.303783887353272
-0.712555842581178,-0.303081378724794
-0.710037794826636,-0.30236663288552
-0.707521142836866,-0.301639619201805
-0.705006128907143,-0.300900307040003
-0.702492995332739,-0.300148665766469
-0.699981984408927,-0.299384664747557
-0.697473338430979,-0.298608273349621
-0.69496729969417,-0.297819460939016
-0.692464110493771,-0.297018196882097
-0.689964013125055,-0.296204450545217
-0.687467249883296,-0.295378191294731
-0.684974063063765,-0.294539388496994
-0.682484694961737,-0.29368801151836
-0.679999387872484,-0.292824029725183
-0.677518384091279,-0.291947412483818
-0.675041925913394,-0.291058129160619
-0.672570255634102,-0.290156149121941
-0.670103615548677,-0.289241441734137
-0.667642247952392,-0.288313976363563
-0.665186395140518,-0.287373722376573
-0.662736299408329,-0.28642064913952
-0.660292203051099,-0.285454726018761
-0.657854348364099,-0.284475922380648
-0.655422977642602,-0.283484207591537
-0.652998333181882,-0.282479551017781
-0.650580657277212,-0.281461922025736
-0.648170192223864,-0.280431289981756
-0.64576718031711,-0.279387624252194
-0.643371863852225,-0.278330894203406
-0.640984485124481,-0.277261069201745
-0.63860528642915,-0.276178118613567
-0.636234510061506,-0.275082011805226
-0.633872398316821,-0.273972718143075
-0.631519193490369,-0.27285020699347
-0.629175137877422,-0.271714447722765
-0.626840473773252,-0.270565409697314
-0.624515443473134,-0.269403062283472
-0.62220028927234,-0.268227374847593
-0.619895253466142,-0.267038316756031
-0.617600578349814,-0.265835857375141
-0.615316506218628,-0.264619966071278
-0.613043279367857,-0.263390612210795
-0.610781140092775,-0.262147765160048
-0.608530330688654,-0.260891394285389
-0.606291093450766,-0.259621468953175
-0.604063670674385,-0.258337958529759
-0.601848304654784,-0.257040832381496
-0.599645237687236,-0.25573005987474
-0.597454712067013,-0.254405610375846
-0.595276970089388,-0.253067453251167
-0.593112254049634,-0.251715557867059
-0.590960806243024,-0.250349893589876
-0.588822868964831,-0.248970429785972
-0.586698684510328,-0.247577135821701
-0.584588495174787,-0.246169981063418
-0.582492543253482,-0.244748934877478
-0.580411071041685,-0.243313966630234
-0.578344320834669,-0.241865045688042
-0.576292534927708,-0.240402141417255
-0.574255955616073,-0.238925223184229
-0.572234825195039,-0.237434260355317
-0.570229385959876,-0.235929222296873
-0.56823988020586,-0.234410078375253
-0.566266550228262,-0.232876797956811
-0.564309638322355,-0.2313293504079
-0.562369386783413,-0.229767705094876
-0.560446037906707,-0.228191831384093
-0.558539833987511,-0.226601698641905
-0.556651017321099,-0.224997276234667
-0.554779830202741,-0.223378533528733
-0.552926514927713,-0.221745439890457
-0.551091313791285,-0.220097964686194
-0.549274469088732,-0.218436077282299
-0.547476223115327,-0.216759747045125
-0.545696818166341,-0.215068943341027
-0.543936496537048,-0.21336363553636
-0.542195500522721,-0.211643792997478
-0.540474072418632,-0.209909385090735
-0.538772454520055,-0.208160381182486
-0.537090889122262,-0.206396750639085
-0.535429618520527,-0.204618462826886
-0.533788885010121,-0.202825487112245
-0.532168930886319,-0.201017792861515
-0.530569998444392,-0.19919534944105
-0.528992329979615,-0.197358126217206
-0.527436167787258,-0.195506092556336
-0.525901754162597,-0.193639217824796
-0.524389331400902,-0.191757471388938
-0.522899141797448,-0.189860822615119
-0.521431427647507,-0.187949240869692
-0.519986431246351,-0.186022695519011
-0.518564394889255,-0.184081155929431
-0.51716556087149,-0.182124591467307
-0.51579017148833,-0.180152971498992
-0.514438469035047,-0.178166265390842
-0.513110695806915,-0.176164442509211
-0.511807094099206,-0.174147472220452
-0.510527906207192,-0.172115323890921
-0.509273374426148,-0.170067966886972
-0.508043741051345,-0.168005370574959
-0.506839248378057,-0.165927504321237
-0.505660138701557,-0.16383433749216
-0.504506654317117,-0.161725839454082
-0.50337903752001,-0.159601979573358
-0.50227753060551,-0.157462727216343
-0.501202375868888,-0.15530805174939
-0.500153815605418,-0.153137922538854
-0.499132092110373,-0.15095230895109
-0.498137447679026,-0.148751180352452
-0.497170124606649,-0.146534506109294
-0.496230365188515,-0.144302255587971
-0.495318411719898,-0.142054398154837
-0.49443450649607,-0.139790903176246
-0.493578891812304,-0.137511740018554
-0.492751809963872,-0.135216878048113
-0.491953503246049,-0.13290628663128
-0.491184213954105,-0.130579935134408
-0.490444184383316,-0.128237792923851
-0.489733656828952,-0.125879829365964
-0.489052873586288,-0.123506013827102
-0.488402076950596,-0.121116315673619
-0.487781509217149,-0.118710704271868
-0.48719141268122,-0.116289148988206
-0.486632029638081,-0.113851619188985
-0.486103602383006,-0.111398084240561
-0.485606373211267,-0.108928513509287
-0.485140584418138,-0.106442876361519
-0.48470647829889,-0.10394114216361
-0.484304297148798,-0.101423280281916
-0.483934283263134,-0.0988892600827897
-0.48359667893717,-0.0963390509325866
-0.48329172646618,-0.0937726221976606
-0.483019668145437,-0.0911899432443664
-0.482780746270213,-0.0885909834390581
-0.482575203135781,-0.0859757121480905
-0.482403281037414,-0.0833440987378176
-0.482265222270386,-0.0806961125745941
-0.482161269129968,-0.0780317230247743
-0.482091663911433,-0.0753508994547126
-0.482056648910056,-0.0726536112307634
-0.482056466421108,-0.0699398277192811
-0.482091358739862,-0.0672095182866201
-0.482161568161592,-0.064462652299135
-0.48226733698157,-0.0616991991231799
-0.482408907495068,-0.0589191281251094
-0.482586521997361,-0.0561224086712777
-0.48280042278372,-0.0533090101280396
-0.483050852149418,-0.0504789018617491
-0.483338052389729,-0.0476320532387609
-0.483662265799926,-0.0447684336254291
-0.484023734675281,-0.0418880123881084
-0.484422701311066,-0.038990758893153
-0.484859408002556,-0.0360766425069175
-0.485334097045022,-0.0331456325957562
-0.485847010733738,-0.0301976985260235
-0.486398391363977,-0.0272328096640737
-0.486988481231011,-0.0242509353762615
-0.487617522630113,-0.021252045028941
-0.488285757856557,-0.0182361079884668
-0.488993429205614,-0.0152030936211932
-0.489740778972558,-0.0121529712934747
-0.490528049452662,-0.00908571037166557
-0.491355482941199,-0.00600128022212042
-0.492223321733441,-0.00289965021119337
-0.493131808124662,0.000219210294760831
-0.494081184410134,0.0033553319293881
-0.49507169288513,0.00650874532633378
-0.496103575844923,0.00967948111924369
-0.497177075584785,0.0128675699417632
-0.498292434399991,0.0160730424275381
-0.499449894585812,0.0192959292102137
-0.500649698437522,0.022536260923436
-0.501892088250392,0.0257940682008503
-0.503177306319698,0.0290693816761023
-0.50450559494071,0.0323622319828375
-0.505877196408702,0.0356726497547016
-0.507292353018947,0.0390006656253401
-0.508751307066717,0.0423463102283988
-0.510254300847287,0.0457096141975229
-0.511801576655927,0.0490906081663585
-0.513393376787912,0.0524893227685507
-0.515029943538514,0.0559057886377455
-0.516711519203006,0.0593400364075882
-0.518438346076662,0.0627920967117246
-0.520210666454752,0.0662620001838001
-0.522028722632552,0.0697497774574605
-0.523892756905333,0.0732554591663512
-0.525803011568368,0.076779075944118
-0.527759728916931,0.0803206584244062
-0.529763151246294,0.0838802372408618
-0.53181352085173,0.08745784302713
-0.533911080028512,0.0910535064168567
-0.536056071071912,0.0946672580436871
-0.538248736277204,0.0982991285412673
-0.54048931793966,0.101949148543243
-0.542778058354555,0.105617348683259
-0.545115199817159,0.109303759594961
-0.547500984622746,0.113008411911995
-0.549935655066589,0.116731336268007
-0.552419453443961,0.120472563296642
-0.554952622050135,0.124232123631545
-0.557535403180384,0.128010047906363
-0.560168039129979,0.131806366754741
-0.562850772194196,0.135621110810324
-0.565583844668305,0.139454310706758
-0.56836749884758,0.14330599707769
-0.571201977027295,0.147176200556763
-0.574087521502721,0.151064951777624
-0.577024374569132,0.154972281373918
-0.5800127785218,0.158898219979292
-0.583052975655999,0.16284279822739
-0.586145208267001,0.166806046751859
-0.589289718650079,0.170787996186343
-0.592486749100507,0.174788677164489
-0.595736541913556,0.178808120319942
-0.5990393393845,0.182846356286347
-0.602395383808611,0.186903415697351
-0.605804917481164,0.190979329186598
-0.609268182697429,0.195074127387735
-0.612785421752681,0.199187840934407
