-0.663299784099244,0.819908315213701
-0.658997875788501,0.742626712610912
-0.631498401774413,0.755478682990094
-0.578818804297155,0.769897305066318
-0.607857214859577,0.760163068924102
-0.593893268636624,0.709954181690674
-0.617059408346975,0.680935486630337
-0.599183669957526,0.691189167468128
-0.592809695939724,0.678629506372122
-0.57174195019336,0.67836131200987
-0.578206106130996,0.604714225376716
-0.573864276538307,0.641541197271411
-0.597361683643897,0.61040901296333
-0.56138028134782,0.617304658677321
-0.555181928735853,0.60533212131728
-0.500362604517394,0.582319371827478
-0.542872112912041,0.581676896629686
-0.536760489473621,0.569993563765525
-0.493807235995358,0.573853029905152
-0.502324949342227,0.512232471943444
-0.518597795692871,0.535516809871945
-0.499983320089261,0.545294683450896
-0.459188458887491,0.50157865294899
-0.541832502483503,0.502879627705881
-0.46051811347865,0.471986956056615
-0.488895754376107,0.479947002947422
-0.506666410578756,0.471680915807264
-0.43784377050405,0.455588239086158
-0.446172138368197,0.410769027830272
-0.486868463334311,0.412764982922079
-0.416068792851807,0.448276119149294
-0.454180007074243,0.41633442010109
-0.436856895621388,0.440878167695876
-0.491502759512535,0.359990992585257
-0.396685262978746,0.433128003883589
-0.447883417930021,0.359737519379919
-0.42601071960585,0.365835916263837
-0.40578776352313,0.314343846856847
-0.392648844936148,0.332235545151928
-0.443019784113012,0.310503168567611
-0.403965862529762,0.327052270360308
-0.387034985492049,0.309819144161243
-0.369157052126752,0.268923931092067
-0.387715022488855,0.298893154677561
-0.42930224156701,0.262978047088559
-0.377014595412834,0.28055776876684
-0.398585052553428,0.260485711717084
-0.392280620560959,0.226506545089269
-0.406441493579262,0.285240687620803
-0.352108928969575,0.213170472759802
-0.350725986443767,0.2362312284112
-0.316744085271277,0.213905201427506
-0.295589163681584,0.17703290650702
-0.304400192400668,0.176932484476287
-0.280507303941057,0.200521228745883
-0.352282851594594,0.237002963692896
-0.34901900261011,0.142821576763959
-0.296317056271936,0.150845842432068
-0.343514220695395,0.149963530526384
-0.267183347349975,0.188911107584728
-0.300096686305867,0.153920647261503
-0.3208986928613,0.191364092821505
-0.302959622591445,0.151731716403826
-0.321299226379857,0.157298804814254
-0.28055798213995,0.123307043725409
-0.314196382512074,0.161940653072688
-0.27093885555094,0.108485048141022
-0.304689763514201,0.0856272575459675
-0.261419024749506,0.0939828138171698
-0.211070263465561,0.0933023040895432
-0.299822328211283,0.123642733503083
-0.247324056166538,0.0728233662495748
-0.242674686884184,0.0659273003653436
-0.238049660869004,0.059109238186423
-0.220216545283175,0.0328705163076883
-0.222987798534793,0.0886530196455638
-0.224319841293637,0.0391198461984867
-0.185609314841854,0.0295669292010912
-0.215286875835669,0.0261776859808459
-0.210806227044508,0.019820867899409
-0.187170990701792,0.0399992750970078
-0.164580157250927,0.0458518198135192
-0.157096951227932,0.0283533164647544
-0.179319094062461,0.0369103791151645
-0.143799967663334,0.0102221244559136
-0.178053631538158,0.0116002976212018
-0.175810476269127,-0.02833399351098
-0.145917401733894,-0.0814936793823023
-0.138138619067432,-0.0164452579372784
-0.203805863050004,-0.074820422958549
-0.117906615433285,-0.0960385174002645
-0.196104886440376,-0.10827352913805
-0.146405528636503,-0.0666228343101878
-0.133229595004255,-0.114135779376804
-0.0987483896199377,-0.0933428519800398
-0.111255324386628,-0.0570843599238188
-0.157806809145437,-0.105037337643226
-0.0767198115309186,-0.112636048543134
-0.126358065234142,-0.0704676682418027
-0.0933453768601197,-0.0762926582964573
-0.0586356057456042,-0.107350801259943
-0.120756462882208,-0.132085001081666
-0.0985560337908,-0.124239253587066
-0.0947110114539221,-0.128597236926186
-0.0908875284191828,-0.132888513450628
-0.0870855045732953,-0.137113405928696
-0.0827386970923206,-0.130758704294272
-0.0795455139949288,-0.145365329818925
-0.0758073870358766,-0.149393006767694
-0.066411567201116,-0.159689827802588
-0.10025064614091,-0.132963737627409
-0.0492229498188956,-0.206542751696739
-0.0610654654238506,-0.164856012514221
-0.0538197347663334,-0.172203412914608
-0.0502278965781952,-0.175782217185646
-0.0333281028630199,-0.209116507270878
-0.0599248984364916,-0.145858815491967
-0.00246394911918293,-0.186256050072248
-0.0744096635921819,-0.200057504067842
-0.0207675687776802,-0.219252855147855
-0.0337695618397809,-0.193358479887633
-0.0122690599189233,-0.161589723745699
-0.0352302394062861,-0.174066338934993
-0.0605841691729848,-0.234455034851576
-0.0120581958036708,-0.211073055921774
-0.0560589720128711,-0.244588787963218
-0.00454141396374858,-0.192727941325468
0.0427728757287322,-0.196680549714825
0.00122518656066839,-0.222105000097479
-0.00384707933893776,-0.243445414189622
0.00775029982930667,-0.227271728689266
0.0109839923817464,-0.229768911800206
0.0575025881187695,-0.241514348911357
0.0173940498893009,-0.234592529493698
0.0530223961677859,-0.24833838933288
0.0166180730772682,-0.283592157541641
0.0268670188566204,-0.241405926237524
0.0528503094478355,-0.274212613209144
0.0330885212938367,-0.245670603166011
0.0849471211433784,-0.21271770579952
0.0600977338275305,-0.279728559296387
0.0453092657481993,-0.253545366520169
0.0751361843575543,-0.256341812358242
0.0260821140564508,-0.216283121698456
0.0529134362053207,-0.209207619131688
0.065773600624503,-0.231677240627728
0.0255690331637524,-0.292915918748103
0.0809444683310937,-0.214952218727818
0.0745288051123787,-0.280755262709573
0.0745945167274007,-0.269534330472551
0.0313632102116975,-0.271810759522606
0.083036103138546,-0.273336543892354
0.050838788175864,-0.227278080344137
0.0885776279672171,-0.275624428260352
0.0913227708877849,-0.276695261375702
0.0939277665260857,-0.272556015461707
0.0560281854434755,-0.294350023077518
0.0831278013820117,-0.327760345300694
0.136503831128138,-0.280962383530129
0.0737125586692838,-0.296485859058026
0.11264951180214,-0.265524577005237
0.0951589576899907,-0.27465971619597
0.115274892751474,-0.284197585649046
0.135383087464355,-0.245821856739591
0.155296695844176,-0.264550359612537
0.16540278058257,-0.290460260534718
0.133763862102371,-0.297395447292715
0.0948133492196038,-0.259733881988438
0.173194977690371,-0.275760157833414
0.126829860202691,-0.295407565450217
0.135420727608883,-0.245786704982518
0.165577751094423,-0.285683990710542
0.152298608101999,-0.288644916834437
0.154643463888675,-0.288604854906893
0.203184466650957,-0.27095417740116
0.15928834553743,-0.28840433437881
0.161588531626082,-0.288244521314879
0.163873988041965,-0.288045436742092
0.126905640274623,-0.302866799848386
0.155926644212102,-0.280732539233553
0.206441481754914,-0.317099037225082
0.164622162455427,-0.259001216233171
0.171049204956453,-0.261299592568485
0.179466481631719,-0.285579355022165
0.226413754286477,-0.238701416784308
0.199762916100746,-0.235752100434077
0.188064762613971,-0.283355898591896
0.159183252268721,-0.33053640931791
0.214398348003201,-0.296491096157947
0.20714644859634,-0.288203809503351
0.244447533673419,-0.247880253695594
0.198503427641562,-0.279782537309126
0.223576207501172,-0.308679981520707
0.169884500458787,-0.236164431105861
0.244023590296746,-0.270193710143306
0.218591760412019,-0.272551397146926
0.175984134257671,-0.230833848912522
0.210589571273314,-0.274383167447358
0.212558356482657,-0.273369922222755
0.214514334738114,-0.272325151928587
0.184405013538661,-0.288233502413052
0.223618303893086,-0.260779274038398
0.222211780486801,-0.267837275422355
0.224104925672122,-0.266639721304925
0.185189902372464,-0.24951626050293
0.268592286555917,-0.294816859311973
0.206275743569915,-0.25016259693578
0.223126742613091,-0.222383472377088
0.236182544819178,-0.217782425723475
0.235207748991573,-0.258844335836416
0.239818497621992,-0.285005858444388
0.224441237857987,-0.24628428786602
0.240598163596896,-0.254568985756162
0.258242725287516,-0.301311621824235
0.244133613538701,-0.251584796697119
0.265660131266823,-0.23384873210327
0.238180482571366,-0.297669673648978
0.249351151024524,-0.246914034966319
0.28266319048888,-0.278036535213446
0.234508010794149,-0.214012045599877
0.277806140843465,-0.256844899559014
0.305317309105891,-0.28269021187019
0.214544397950759,-0.228348443006966
0.213214077882422,-0.249816836851395
0.238908642638405,-0.228805825549101
0.235281667457306,-0.203962930969757
0.266026788429135,-0.229764251663011
0.277959595873053,-0.243965094282753
0.298010936042218,-0.274985661030293
0.287349563593831,-0.212134973114088
0.24749098726475,-0.219386548087913
0.266762592475182,-0.205482785519305
0.236066376896615,-0.26259748513732
0.278614396934467,-0.214456306669385
0.280143074887658,-0.212452755044903
0.283171463300208,-0.208389163247097
0.269034899780376,-0.223663309915691
0.32884805575569,-0.175593247960028
0.290577195904288,-0.197915729738503
0.260861009527063,-0.15347039159488
0.293475075954022,-0.193607352863814
0.340804036677905,-0.217439613198808
0.29916393876628,-0.184800794969088
0.322665307811968,-0.187852607274481
0.301956203341392,-0.180307778241911
0.276905623622002,-0.227244085897424
0.334113892571704,-0.129326084555802
0.30768555798144,-0.195841860462805
0.309781277488763,-0.152116679843271
0.311466188955077,-0.164155154226236
0.316326241232841,-0.196699255938085
0.320722295238194,-0.167709206417823
0.315555846682554,-0.155663859270067
0.318019832254319,-0.152256024186567
0.283001912637671,-0.188310379285406
0.365291235254999,-0.160608121533039
0.328074683443903,-0.104675871786181
0.349719647841129,-0.151174647848153
0.315102973566308,-0.144147477474361
0.328118814621859,-0.132702637276202
0.322137789090127,-0.172616472145444
0.330573172241301,-0.127731433031705
0.362769403247349,-0.146063008501215
0.309200240747926,-0.093515604686511
0.335821220568968,-0.0745721846509789
0.335401908257311,-0.117707670547439
0.33659289725072,-0.115186663992462
0.338465948375259,-0.0991463355105568
0.306381926281614,-0.10370494152571
0.335960836519946,-0.14648597163207
0.370406538001007,-0.092847066224472
0.347037111790931,-0.0922941995310936
0.348168528105603,-0.0897339091802244
0.364011837553915,-0.0838261205217088
0.308942114155917,-0.0355860056743896
0.351529997633985,-0.0820414102773219
0.349434454717808,-0.0834496828700703
0.354325526798379,-0.0852061162066542
0.387332769886343,-0.0547419021732889
0.365744148037276,-0.0785216315258944
0.368220334944323,-0.0938291051611068
0.39210826314257,-0.0143004206489596
0.356271276788975,-0.0534880195019125
0.400691732013731,-0.0314465445537198
0.326901475695582,-0.0758137838681527
0.365575402482953,-0.0486959170799997
0.375868826303657,-0.0401847484343536
0.351434695427436,-0.00915004686230396
0.369744909663038,-0.0385052216840305
0.381028898477991,0.00367474246836764
0.371805856525558,-0.033434396185776
0.375096308539229,-0.00430027576321376
0.334948648863032,-0.0372389675417822
0.394408971702639,-0.0532162520087559
0.352024539327641,0.0226023163229524
0.415304808657706,0.00588914862126334
0.344941816752514,-0.0215206757239752
0.358752963360234,-0.0462342243391502
0.380903539943297,-0.0108978747465939
0.332502362101322,-0.0149365234762037
0.383878620611863,-0.00351542921758403
0.359945995800934,0.00585383887919786
0.355589965084945,-0.00438779160441185
0.372783787292659,0.0220281599629842
0.37503029434126,0.0534309643616766
0.373467629526158,0.0462698338527133
0.35187839761232,0.0351570260972112
0.390027848331337,0.0428114151272637
0.427604773898589,0.0448428276541533
0.39842025806794,0.0320316728079701
0.39937398091899,0.0343042296826077
0.424609632952799,0.0601263588879627
0.433978365479669,0.0444163790376754
0.377010356472171,0.0299712986812722
0.404121532733054,0.0454507797706474
0.406012219767478,0.0498024654644569
0.407899106052084,0.0540891726006743
0.39501686874461,0.0605046505740315
0.410723711055603,0.0603917500641988
0.410151654639547,0.0528016866483637
0.413543369469934,0.0665336011994702
0.414482530228007,0.068543661697309
0.421325348034535,0.0259105803810673
0.437562424582702,0.0755296641795928
0.431660517558365,0.0795602384819005
0.408730799658048,0.0769288214948914
0.390867278952013,0.111792609036279
0.449878623227214,0.0508982864308199
0.423874752267975,0.0875377844282994
0.424815798410203,0.0893194475739752
0.447127113010941,0.102248497842468
0.464613106472302,0.0648172744275436
0.427643169759712,0.0945269459049438
0.475035075819782,0.13112375205974
0.424988915050765,0.112468481579117
0.43047857287248,0.0995214294424442
0.416684737565699,0.142495557087603
0.459814095301602,0.085283358234816
0.433324170807249,0.104294183442274
0.387380904343369,0.143711581043824
0.439261073621573,0.081687792383018
0.40870037984031,0.0659119807548471
0.43905460337775,0.113139643852112
0.43905460337775,0.113139643852112
0.392451529106468,0.0989949756411811
0.466521927820711,0.142365822181674
0.40951689211403,0.107609423593585
0.440622263338448,0.155973709160216
0.447270960655507,0.112243472342556
0.420018974092106,0.081565989415331
0.478493642450608,0.152035631120606
0.419229146493773,0.132591719886341
0.446716349167861,0.13170591288679
0.494725640616744,0.143203709282915
0.447063854914606,0.13463795485615
0.479646873091345,0.101766443352577
0.408509429324662,0.160049911797549
0.447184165058734,0.139071345820182
0.465783945156123,0.107543485927068
0.447000874540451,0.142049838875644
0.446831157677759,0.143545787231638
0.444758133434511,0.19472868945763
0.419319053344408,0.0996331757302736
0.445639416275914,0.149572953656252
0.410234360647736,0.181622408785372
0.493481935195863,0.202877242144709
0.437297800399139,0.151936298750814
0.442349026947803,0.158737666124173
0.410543512199503,0.129258265632335
0.440861917439792,0.161823836148993
0.439183996202508,0.1649248929057
0.420702540739678,0.153180981001047
0.481441334944899,0.129262495723579
0.435266146068238,0.171169875728688
0.434971514771231,0.149328325321852
0.384010943816832,0.168661081051396
0.429341952509386,0.179051867084683
0.473026278221149,0.143620821756479
0.440446222241016,0.163505642559857
0.441071558604125,0.197371649024118
0.422314797212328,0.187011510087663
0.418772851161075,0.194207824660473
0.417594822414431,0.176148331387321
0.385125686431171,0.190239671229408
0.37332297486122,0.227655856902846
0.414225412708769,0.195041809088852
0.445555783768493,0.219206751324347
0.408878856720701,0.199890993178815
0.407016472338544,0.201512219532536
0.371741874710236,0.21473628072939
0.382775358607484,0.252501667282669
0.401193284077225,0.206389610052237
0.445216193113185,0.201320499595993
0.395022886208957,0.21128639249075
0.398447359090574,0.235213470444996
0.390720738207411,0.214560941202119
0.414568067260745,0.208100663467537
0.38627079203007,0.217842989240266
0.381675654558966,0.221132088883671
0.379324453738886,0.222779143144369
0.386764217441899,0.243522707974949
0.339537779758053,0.247069597291316
0.419053136290012,0.276466849361733
0.378684995341419,0.273150746306781
0.401395087095926,0.257613019192419
0.313516945308784,0.222220927891795
0.356325591632074,0.253767522559667
0.343665245827932,0.288500514134199
0.328312272737245,0.254312424872091
0.325316580511748,0.255980745861522
0.280665027100002,0.288790718111859
0.284044939260342,0.300180514682248
0.350902301267516,0.280445303526548
0.315596584867196,0.272428321569165
0.272583382047142,0.30173557221536
0.256978144833105,0.268453408725415
0.301731869268465,0.228631129443692
0.32085100155593,0.314332101208938
0.305245297558633,0.288847116842364
0.280500836821384,0.279361724255652
0.266195040591617,0.300949221690159
0.273689876761616,0.282700520826839
0.252621213627288,0.299512027240738
0.234546676123943,0.318850000498341
0.215567233665241,0.244464911708634
0.259787492241515,0.289372629354442
0.27251337091812,0.275649210348743
0.22353440359388,0.329747651917703
0.206922228611876,0.256474511931196
0.267317193858601,0.297250468368342
0.273666461409889,0.319914074051486
0.234612860398496,0.30102188594613
0.25566967087096,0.263348294353459
0.220748089649518,0.299621002769699
0.230333682226817,0.322373926378276
0.219780081725904,0.307657057352388
0.208457992828247,0.312620409986197
0.191286129215176,0.306766509771844
0.168454290895804,0.335051120822055
0.196976389829729,0.317570918589255
0.1853440709572,0.322507072101428
0.1767287865333,0.293039119846732
0.215126028639903,0.31577529854711
0.219589428307214,0.335852448943606
0.161662478497498,0.332330269612572
0.157665298438609,0.333960450222536
0.157748617680637,0.294838826344229
0.167821461472877,0.386165780620706
0.133410383474715,0.34369432719865
0.137405658150201,0.363371734300612
0.12112283888311,0.348528400099359
0.117005446478761,0.350134515655758
0.093612748500599,0.346378635840093
0.141591575374951,0.345114389971784
0.0688751340471036,0.400432726821204
0.0777569183976248,0.365120101768682
0.0579058455818623,0.31311144780729
0.132509697766903,0.381466578461282
0.0923250367614432,0.35512535884151
0.0957846494402101,0.387876643550315
0.0642620908291809,0.374181465453626
0.0640653131619723,0.373940941356954
0.0516485385030415,0.334658511455418
0.032942901867392,0.381612387161176
0.0427873553043792,0.433128444982805
0.0418500105311419,0.405860571218608
0.0115934470053877,0.389259743052787
0.00303680656113817,0.392290283060157
0.00294255257347998,0.359996860337045
0.0160332595999536,0.371873654343377
-0.0332404519622221,0.420357040598948
0.00762522958835285,0.367214194627631
-0.0270590337348284,0.443134637463225
-0.0568739381009265,0.413005748814222
-0.0611403829592448,0.414449677157933
-0.0654033706900617,0.415888540649753
-0.0457290651512603,0.421207215240677
-0.0824142331332436,0.421592226794312
-0.109908554685181,0.381113320982655
-0.0680390417482782,0.447041127224142
-0.0689800617381989,0.404451484785391
-0.0548419720891707,0.37865198494085
-0.10777141672986,0.429986296372065
-0.0790986415208397,0.403532402403702
-0.095944030412842,0.394762808090552
-0.136732789569192,0.428541459423889
-0.160053335286478,0.45741096692709
-0.0827171614801814,0.485292981052315
-0.132875103075991,0.438175869066394
-0.102909757937949,0.409768133583737
-0.149456281641663,0.461295063307856
-0.16174844272514,0.447455781902027
-0.133803525212268,0.47283490242813
-0.183985569176594,0.470295137595375
-0.186061422580618,0.455160807809658
-0.153292633308481,0.505121599553269
-0.230574630716314,0.49537974450552
-0.202009761918782,0.460163361798653
-0.163433199818804,0.502219890795907
-0.217725519238951,0.465054433093907
-0.188530342255592,0.430124236014758
-0.200206521981388,0.513093136674222
-0.182748580306251,0.444365899895405
-0.284053217653837,0.516926108231692
-0.283843892619436,0.452088232696814
-0.248233713761178,0.503908713272404
-0.274232173264736,0.482341915739662
-0.28143802758415,0.484514509076235
-0.283148296002477,0.509783238459654
-0.308745441049528,0.521121720978545
-0.297674438413187,0.500252076160314
-0.342146450021885,0.519814396330695
-0.284205631128271,0.530232468144662
-0.324761302527477,0.474749456906611
-0.319471699252793,0.495869547873323
-0.299699095601833,0.466588047386077
-0.326075090078217,0.497822421816508
-0.329338524983935,0.498785581043457
-0.334071828748331,0.54953066191425
-0.287249230548244,0.538831441674593
-0.338631435753113,0.513866193113428
-0.357947974386013,0.503632072350739
-0.386234924271227,0.50607016502061
-0.354484738508309,0.506164801582482
-0.332395090651103,0.522036114545924
-0.415162188841096,0.506042724545356
-0.325635644593178,0.467505408380602
-0.374994588627467,0.512130454939211
-0.403582874113759,0.471368060277016
-0.38058196920892,0.513747873453875
-0.3842052204756,0.483487119872702
-0.440030412847714,0.490017257724605
-0.396578136801643,0.518361269513783
-0.439856620859472,0.560445299973217
-0.423028184225006,0.549832775922493
-0.360253570519519,0.476977016760407
-0.43366939394007,0.557632048012637
-0.411370598644306,0.522606974195607
-0.413714039789647,0.523277995064323
-0.425125285200851,0.554713441428665
-0.448269399945392,0.560410454994444
-0.433158628699814,0.528833223802424
-0.385235459848678,0.514636420366999
-0.440809887919215,0.531015803107633
-0.485445181072725,0.547034208302414
-0.492023756816331,0.562969825541108
-0.452648837110961,0.5343968435339
-0.417470586900921,0.581727744053296
-0.444589545780271,0.523353769734964
-0.501105138230982,0.580469705258824
-0.458862687241255,0.572029528288715
-0.452347185823522,0.497719277777113
-0.488892540333108,0.581142266608701
-0.452818734256895,0.571817401032096
-0.466297307722843,0.500915540328598
-0.447437637508217,0.530575460119762
-0.52688444344037,0.56361497451237
-0.438252070769747,0.545726950798932
-0.478666896595484,0.542200460676847
-0.439889332376587,0.574936673514999
-0.452471713988155,0.527718542711601
-0.49448606580951,0.521877776232958
-0.471630198278926,0.538973432270044
-0.477927947577859,0.542231983889694
-0.47760652156523,0.542181529380316
-0.427245823524423,0.553197921586572
-0.475168728583396,0.541719527250446
-0.456548150000522,0.521940926548405
-0.472202147080285,0.541094892135557
-0.46937065567034,0.540475295771655
-0.503813932886068,0.540281356366928
-0.466009483924834,0.539724488999703
-0.464769865920579,0.539444801036376
-0.457662906519746,0.537823199991106
-0.422693278003853,0.541900875258043
-0.481255067948626,0.502667053789435
-0.485574540641709,0.556755098763063
-0.408380053873332,0.549344613208524
-0.409914646313476,0.526029122638129
-0.429415848940438,0.53125439836847
-0.447031540355047,0.506259643425203
-0.42673325743084,0.502048906359981
-0.394451506592583,0.513434425196626
-0.413381215374234,0.527496184087326
-0.375555277484236,0.499265511983694
-0.404330400130762,0.565911905942155
-0.398143666543794,0.523919298936823
-0.351554231719426,0.544225653748678
-0.405517900711512,0.477361546256624
-0.356943377228773,0.50416277320294
-0.36714929403563,0.51646812258309
-0.351744343741554,0.497007964376339
-0.312103894934597,0.5543326377465
-0.387712617458387,0.475180479579764
-0.34720136665987,0.510897100304211
-0.347357660079832,0.49163463472076
-0.32155045837514,0.472805201221895
-0.334073151638003,0.545853653454807
-0.263943044366408,0.534125944288621
-0.348243862155596,0.541457928074888
-0.305355982461628,0.496291677908874
-0.299886960021402,0.49403794682029
-0.284200884948686,0.487050404814438
-0.278747452580042,0.497954518189211
-0.301541865712233,0.494416863466279
-0.27675149682657,0.483436207354614
-0.278721681724462,0.484369293118631
-0.271926623518864,0.480984693586033
-0.311252762546992,0.457518918051584
-0.251054098794403,0.449508920146736
-0.253716513224322,0.47086639123897
-0.255896128903609,0.451512015178094
-0.223924686142264,0.450748233121546
-0.215143293180011,0.44377490822674
-0.205329628573688,0.444458201218183
-0.255490215034526,0.434729425866713
-0.210128135869964,0.439539582373905
-0.212284893898561,0.397480104820216
-0.205295298260235,0.435270354807045
-0.175748815894811,0.395269188291904
-0.200353573945729,0.473477367094933
-0.144055639918229,0.389711550900146
-0.145882979513753,0.379037632255723
-0.219347422801054,0.387372272108196
-0.140197108794667,0.385200960286532
-0.163011892090662,0.381095983001162
-0.176024750462906,0.404752416895672
-0.222188276108413,0.42380571982926
-0.168932361015644,0.395942253421099
-0.202000864891269,0.392527614792267
-0.125479963744907,0.369042889578756
-0.148381301683348,0.391072762650707
-0.19779607061185,0.368027400251801
-0.196223137571583,0.411450899262974
-0.171248224322601,0.405723677042198
-0.166060944510277,0.376183922801951
-0.182643081561537,0.327371530596863
-0.116982415700273,0.377766196065939
-0.145166774682235,0.382285553922108
-0.0818297296964992,0.352834431567335
-0.119902067990367,0.290972466233971
-0.160380796156833,0.365908959785459
-0.154111935657671,0.340074006451957
-0.100704778604427,0.319052360909756
-0.131492597529425,0.318805181681829
-0.15056546641304,0.353458571997912
-0.156902871974838,0.285805085147976
-0.135810742065431,0.327413994157021
-0.103917615370842,0.297847597394816
-0.103079969475339,0.296796856881343
-0.0898089269548497,0.289612492389356
-0.0709076433472761,0.258864650521915
-0.119487462948179,0.321311806371679
-0.0409245874696064,0.254703426144443
-0.125920877689842,0.304661539763968
-0.09581228787146,0.289465420272753
-0.0809221769224915,0.275156930010657
-0.0777841842038196,0.27298759879615
-0.0564417384032947,0.256513594400083
-0.0507183010895887,0.293725988596103
-0.0878785710746072,0.237468567153978
-0.0565783775783453,0.278814370920761
-0.0930676238438222,0.290450417860094
-0.0160391415232159,0.303995453899932
-0.0591419346727303,0.263731669327586
-0.0578565595409456,0.263290458870282
-0.0520132570620112,0.280777539426674
-0.0511910414550575,0.261341996044607
-0.0498085252903321,0.261004796381052
-0.0455578212555196,0.260100690360607
-0.0441057327960105,0.259835616967394
-0.0786656647934535,0.271252257270972
-0.0285554536045234,0.258218753587746
-0.0285537650074534,0.2496542670074
-0.0252082924055505,0.258128195595778
-0.0509561921039297,0.306849870257336
-0.0407060656327245,0.298364196389077
-0.0293605677485093,0.310777663031429
-0.0176797317425329,0.222558463977136
0.0048958412293694,0.27985658816347
0.0410145732114025,0.268344858410211
0.0869572881440247,0.270911924214519
0.0081336387962919,0.272147068516829
0.0743758618423011,0.257880127709819
0.0954493177006979,0.283252362161104
0.0981840081060536,0.26560379440014
0.0998872269370517,0.288404261541887
0.101288870401811,0.338732755901983
0.126646242613486,0.311900479572435
0.164984412218084,0.302215444169104
0.136503418230765,0.303658139023068
0.140045023054837,0.305215863026743
0.141852349863976,0.334856281220014
0.119689661138164,0.284911311944824
0.149276574030374,0.356330481965489
0.157827567056043,0.293593331225212
0.223225155121392,0.344865798477681
0.254915837090175,0.36115767487842
0.25961417455612,0.363615991201958
0.275517345393243,0.343288300865187
0.329699731309637,0.342863098256055
0.377466874671998,0.394051467237712
0.374408163917298,0.4263311137071
0.385976419575532,0.432879207241042
0.459980831587914,0.400031400913154
0.403645888991036,0.43847712726086
0.398191179291134,0.432769196359137
0.50597618228128,0.502522736856802
0.533716276953757,0.552796302591984
0.540718164137609,0.523158994535517
0.514417632360584,0.537421429698868
0.523579822278039,0.571231748963709
0.544824685910949,0.503831929589279
0.567211074168016,0.616530533110846
0.601659374164284,0.525079678950518
0.600714188286488,0.552125283585415
0.637963204489274,0.574547717778289
0.678986204017231,0.558255781547313
