-0.756078317246969,-0.556011509328946
-0.747322478971971,-0.557456617949888
-0.738648840157559,-0.558890409189167
-0.730057017147956,-0.560312815115117
-0.721546626287386,-0.561723767796075
-0.713117283920071,-0.563123199300374
-0.704768606390236,-0.564511041696349
-0.696500210042103,-0.565887227052336
-0.688311711219896,-0.567251687436669
-0.680202726267838,-0.568604354917683
-0.672172871530153,-0.569945161563713
-0.664221763351063,-0.571274039443093
-0.656349018074793,-0.57259092062416
-0.648554252045565,-0.573895737175247
-0.640837081607603,-0.57518842116469
-0.63319712310513,-0.576468904660823
-0.625633992882369,-0.577737119731981
-0.618147307283545,-0.578992998446499
-0.610736682652879,-0.580236472872713
-0.603401735334595,-0.581467475078956
-0.596142081672918,-0.582685937133564
-0.588957338012069,-0.583891791104872
-0.581847120696273,-0.585084969061214
-0.574811046069752,-0.586265403070925
-0.567848730476731,-0.587433025202341
-0.560959790261432,-0.588587767523796
-0.554143841768078,-0.589729562103625
-0.547400501340894,-0.590858341010163
-0.540729385324102,-0.591974036311745
-0.534130110061925,-0.593076580076705
-0.527602291898588,-0.594165904373379
-0.521145547178312,-0.595241941270101
-0.514759492245323,-0.596304622835207
-0.508443743443842,-0.597353881137031
-0.502197917118093,-0.598389648243907
-0.4960216296123,-0.599411856224172
-0.489914497270686,-0.60042043714616
-0.483876136437475,-0.601415323078205
-0.477906163456888,-0.602396446088643
-0.472004194673151,-0.603363738245808
-0.466169846430486,-0.604317131618036
-0.460402735073116,-0.605256558273661
-0.454702476945265,-0.606181950281018
-0.449068688391157,-0.607093239708441
-0.443500985755014,-0.607990358624267
-0.437998985381059,-0.60887323909683
-0.432562303613517,-0.609741813194464
-0.42719055679661,-0.610596012985504
-0.421883361274562,-0.611435770538286
-0.416640333391597,-0.612261017921145
-0.411461089491936,-0.613071687202414
-0.406345245919805,-0.613867710450429
-0.401292419019425,-0.614649019733525
-0.396302225135021,-0.615415547120037
-0.391374280610816,-0.616167224678299
-0.386508201791032,-0.616903984476647
-0.381703605019894,-0.617625758583416
-0.376960106641625,-0.618332479066939
-0.372277323000448,-0.619024077995553
-0.367654870440586,-0.619700487437592
-0.363092365306263,-0.620361639461391
-0.358589423941701,-0.621007466135284
-0.354145662691125,-0.621637899527607
-0.349760697898758,-0.622252871706695
-0.345434145908823,-0.622852314740882
-0.341165623065543,-0.623436160698504
-0.336954745713141,-0.624004341647894
-0.332801130195842,-0.624556789657389
-0.328704392857868,-0.625093436795322
-0.324664150043442,-0.62561421513003
-0.320680018096788,-0.626119056729846
-0.31675161336213,-0.626607893663105
-0.31287855218369,-0.627080657998143
-0.309060450905692,-0.627537281803295
-0.305296925872359,-0.627977697146894
-0.301587593427915,-0.628401836097277
-0.297932069916582,-0.628809630722778
-0.294329971682585,-0.629201013091731
-0.290780915070146,-0.629575915272472
-0.287284516423489,-0.629934269333336
-0.283840392086837,-0.630276007342657
-0.280448158404414,-0.630601061368771
-0.277107431720442,-0.630909363480012
-0.273817828379146,-0.631200845744715
-0.270578964724748,-0.631475440231215
-0.267390457101471,-0.631733079007847
-0.26425192185354,-0.631973694142945
-0.261162975325177,-0.632197217704845
-0.258123233860606,-0.632403581761882
-0.25513231380405,-0.63259271838239
-0.252189831499733,-0.632764559634704
-0.249295403291877,-0.63291903758716
-0.246448645524706,-0.633056084308091
-0.243649174542444,-0.633175631865834
-0.240896606689313,-0.633277612328722
-0.238190558309537,-0.63336195776509
-0.235530645747339,-0.633428600243275
-0.232916485346943,-0.63347747183161
-0.230347693452572,-0.633508504598429
-0.22782388640845,-0.633521630612069
-0.225344680558799,-0.633516781940865
-0.222909692247843,-0.63349389065315
-0.220518537819805,-0.63345288881726
-0.218170833618909,-0.63339370850153
-0.215866195989377,-0.633316281774294
-0.213604241275434,-0.633220540703888
-0.211384585821303,-0.633106417358645
-0.209206845971206,-0.632973843806902
-0.207070638069368,-0.632822752116994
-0.204975578460011,-0.632653074357254
-0.202921283487359,-0.632464742596018
-0.200907369495635,-0.632257688901621
-0.198933452829063,-0.632031845342397
-0.196999149831865,-0.631787143986682
-0.195104076848266,-0.63152351690281
-0.193247850222488,-0.631240896159116
-0.191430086298755,-0.630939213823936
-0.18965040142129,-0.630618401965603
-0.187908411934316,-0.630278392652453
-0.186203734182057,-0.629919117952821
-0.184535984508737,-0.629540509935042
-0.182904779258577,-0.62914250066745
-0.181309734775803,-0.628725022218381
-0.179750467404636,-0.628288006656168
-0.178226593489301,-0.627831386049148
-0.176737729374021,-0.627355092465655
-0.175283491403018,-0.626859057974024
-0.173863495920517,-0.62634321464259
-0.172477359270741,-0.625807494539687
-0.171124697797913,-0.625251829733651
-0.169805127846256,-0.624676152292816
-0.168518265759993,-0.624080394285517
-0.167263727883349,-0.62346448778009
-0.166041130560546,-0.622828364844869
-0.164850090135807,-0.622171957548188
-0.163690222953357,-0.621495197958383
-0.162561145357418,-0.620798018143789
-0.161462473692213,-0.620080350172741
-0.160393824301966,-0.619342126113573
-0.159354813530901,-0.61858327803462
-0.15834505772324,-0.617803738004218
-0.157364173223207,-0.617003438090701
-0.156411776375025,-0.616182310362403
-0.155487483522918,-0.61534028688766
-0.154590911011108,-0.614477299734807
-0.15372167518382,-0.613593280972179
-0.152879392385276,-0.61268816266811
-0.1520636789597,-0.611761876890936
-0.151274151251315,-0.61081435570899
-0.150510425604345,-0.609845531190609
-0.149772118363013,-0.608855335404127
-0.149058845871541,-0.607843700417878
-0.148370224474154,-0.606810558300199
-0.147705870515075,-0.605755841119423
-0.147065400338527,-0.604679480943885
-0.146448430288733,-0.603581409841921
-0.145854576709917,-0.602461559881865
-0.145283455946302,-0.601319863132052
-0.144734684342112,-0.600156251660817
-0.144207878241569,-0.598970657536495
-0.143702653988897,-0.597763012827421
-0.14321862792832,-0.59653324960193
-0.14275541640406,-0.595281299928356
-0.142312635760342,-0.594007095875034
-0.141889902341387,-0.5927105695103
-0.141486832491421,-0.591391652902488
-0.141103042554665,-0.590050278119932
-0.140738148875344,-0.588686377230969
-0.14039176779768,-0.587299882303933
-0.140063515665897,-0.585890725407158
-0.139753008824218,-0.58445883860898
-0.139459863616867,-0.583004153977733
-0.139183696388067,-0.581526603581752
-0.138924123482042,-0.580026119489373
-0.138680761243013,-0.57850263376893
-0.138453226015206,-0.576956078488757
-0.138241134142843,-0.575386385717191
-0.138044101970147,-0.573793487522566
-0.137861745841342,-0.572177315973215
-0.137693682100652,-0.570537803137475
-0.137539527092299,-0.568874881083681
-0.137398897160507,-0.567188481880167
-0.137271408649499,-0.565478537595268
-0.137156677903498,-0.563744980297318
-0.137054321266728,-0.561987742054654
-0.136963955083412,-0.56020675493561
-0.136885195697774,-0.55840195100852
-0.136817659454037,-0.556573262341719
-0.136760962696424,-0.554720621003543
-0.136714721769158,-0.552843959062326
-0.136678553016462,-0.550943208586404
-0.136652072782561,-0.54901830164411
-0.136634897411678,-0.54706917030378
-0.136626643248035,-0.545095746633749
-0.136626926635856,-0.543097962702351
-0.136635363919364,-0.541075750577922
-0.136651571442783,-0.539029042328797
-0.136675165550336,-0.53695777002331
-0.136705762586247,-0.534861865729795
-0.136742978894738,-0.532741261516589
-0.136786430820033,-0.530595889452026
-0.136835734706355,-0.528425681604441
-0.136890506897928,-0.526230570042168
-0.136950363738975,-0.524010486833543
-0.13701492157372,-0.5217653640469
-0.137083796746384,-0.519495133750574
-0.137156605601193,-0.517199728012901
-0.137232964482369,-0.514879078902215
-0.137312489734136,-0.51253311848685
-0.137394797700716,-0.510161778835143
-0.137479504726334,-0.507764992015427
-0.137566227155212,-0.505342690096038
-0.137654581331574,-0.50289480514531
-0.137744183599644,-0.500421269231579
-0.137834650303643,-0.497922014423178
-0.137925597787797,-0.495396972788444
-0.138016642396328,-0.492846076395711
-0.138107400473459,-0.490269257313314
-0.138197488363414,-0.487666447609587
-0.138286522410417,-0.485037579352866
-0.138374118958689,-0.482382584611485
-0.138459894352456,-0.47970139545378
-0.138543464935939,-0.476993943948085
-0.138624447053363,-0.474260162162735
-0.138702457048951,-0.471499982166065
-0.138777111266926,-0.46871333602641
-0.138848026051511,-0.465900155812105
-0.13891481774693,-0.463060373591485
-0.138977102697406,-0.460193921432884
-0.139034497247162,-0.457300731404637
-0.139086617740422,-0.454380735575079
-0.139133080521409,-0.451433866012546
-0.139173501934347,-0.448460054785372
-0.139207498323458,-0.445459233961891
-0.139234686032966,-0.44243133561044
-0.139254681407094,-0.439376291799352
-0.139267100790066,-0.436294034596962
-0.139271560526105,-0.433184496071606
-0.139267676959434,-0.430047608291619
-0.139255066434277,-0.426883303325334
-0.139233345294857,-0.423691513241088
-0.139202129885396,-0.420472170107214
-0.13916103655012,-0.417225205992049
-0.139109681633251,-0.413950552963925
-0.139047681479011,-0.41064814309118
-0.138974652431625,-0.407317908442147
-0.138890210835316,-0.403959781085161
-0.138793973034308,-0.400573693088558
-0.138685555372823,-0.397159576520671
-0.138564574195084,-0.393717363449837
-0.138430645845316,-0.390246985944389
-0.138283386667741,-0.386748376072663
-0.138122413006583,-0.383221465902994
-0.137947341206066,-0.379666187503716
-0.137757787610411,-0.376082472943165
-0.137553368563844,-0.372470254289674
-0.137333700410586,-0.36882946361158
-0.137098399494862,-0.365160032977217
-0.136847082160895,-0.36146189445492
-0.136579364752908,-0.357734980113023
-0.136294863615124,-0.353979222019862
-0.135993195091767,-0.350194552243772
-0.13567397552706,-0.346380902853087
-0.135336821265227,-0.342538205916142
-0.13498134865049,-0.338666393501273
-0.134607174027073,-0.334765397676813
-0.134213913739199,-0.330835150511098
-0.133801184131092,-0.326875584072463
-0.133368601546975,-0.322886630429243
-0.132915782331072,-0.318868221649772
-0.132442342827605,-0.314820289802386
-0.131947899380798,-0.310742766955418
-0.131432068334874,-0.306635585177206
-0.130894466034057,-0.302498676536082
-0.13033470882257,-0.298331973100382
-0.129752413044636,-0.294135406938441
-0.129147195044479,-0.289908910118593
-0.128518671166321,-0.285652414709174
-0.127866457754387,-0.281365852778519
-0.127190171152899,-0.277049156394962
-0.126489427706081,-0.272702257626838
-0.125763843758157,-0.268325088542482
-0.125013035653349,-0.263917581210229
-0.124236619735881,-0.259479667698414
-0.123434212349975,-0.255011280075372
-0.122605429839857,-0.250512350409437
-0.121749888549748,-0.245982810768945
-0.120867204823872,-0.241422593222229
-0.119956995006453,-0.236831629837627
-0.119018875441714,-0.232209852683471
-0.118052462473878,-0.227557193828098
-0.117057372447168,-0.222873585339841
-0.116033221705808,-0.218158959287036
-0.114979626594021,-0.213413247738017
-0.11389620345603,-0.20863638276112
-0.112782568636059,-0.20382829642468
-0.111638338478332,-0.19898892079703
-0.11046312932707,-0.194118187946507
-0.109256557526498,-0.189216029941445
-0.10801823942084,-0.184282378850179
-0.106747791354317,-0.179317166741043
-0.105444829671155,-0.174320325682373
-0.104108970715575,-0.169291787742504
-0.102739830831801,-0.16423148498977
-0.101337026364058,-0.159139349492506
-0.0999001736565669,-0.154015313319048
-0.0984288890535525,-0.14885930853773
-0.0969227888992376,-0.143671267216886
-0.0953814895378457,-0.138451121424852
-0.0938046073135999,-0.133198803229963
-0.0921917585707239,-0.127914244700554
-0.0905425596534406,-0.122597377904958
-0.0888566269059737,-0.117248134911513
-0.0871335766725463,-0.111866447788551
-0.0853730252973817,-0.106452248604409
-0.0835745891247033,-0.10100546942742
-0.0817378844987346,-0.0955260423259205
-0.0798625277636986,-0.0900138993682443
-0.0779481352638188,-0.084468972622727
-0.0759943233433184,-0.0788911941577029
-0.074000708346421,-0.0732804960415074
-0.0719669066173496,-0.0676368103424748
-0.0698925345003278,-0.0619600691289407
-0.0677772083395787,-0.0562502044692392
-0.0656205444793257,-0.0505071484317058
-0.0634221592637922,-0.0447308330846749
-0.0611816690372014,-0.0389211904964819
-0.0588986901437767,-0.0330781527354611
-0.0565728389277415,-0.027201651869948
-0.0542037317333189,-0.0212916199682768
-0.0517909849047324,-0.0153479890987831
-0.0493342147862053,-0.00937069132980102
-0.0468330377219609,-0.00335965872966616
-0.0442870700562225,0.00268517663328724
-0.0416959281332135,0.00876388269072376
-0.0390592282971571,0.014876527374309
-0.0363765868922767,0.0210231786157075
-0.0336476202627956,0.0272039043465851
-0.0308719447529373,0.0334187724986063
-0.0280491767069248,0.0396678510034366
-0.0251789324689817,0.0459512077927408
-0.0222608283833311,0.0522689107981845
-0.0192944807941966,0.0586210279514321
-0.0162795060458012,0.0650076271841496
-0.0132155204823686,0.0714287764280013
-0.0101021404481217,0.077884543614653
-0.00693898228728414,0.0843749966757693
-0.00372566234407903,0.0909002035430157
-0.000461796962729959,0.097460232148057
0.00285299751254009,0.104055150422559
0.00621910473750741,0.110685026298185
0.00963690836794907,0.117349927706603
0.0131067920596414,0.124049922579476
0.0166291394683613,0.130785078848469
0.0202043342498853,0.137555464445248
0.0238327600599904,0.144361147301479
0.0275148005544528,0.151202195348825
0.0312508393890495,0.158078676518952
0.035041260219557,0.164990658743526
0.0388864467017521,0.171938209954211
0.0427867824914114,0.178921398082672
0.0467426512443117,0.185940291060576
0.0507544366162295,0.192994956819586
0.0548225222629417,0.200085463291368
0.0589472918402246,0.207211878407586
0.0631291290038554,0.214374270099907
0.0673684174096103,0.221572706299995
0.0716655407132663,0.228807254939516
0.0760208825705997,0.236077983950134
0.0804348266373877,0.243384961263515
0.0849077565694065,0.250728254811323
0.0894400560224332,0.258107932525224
0.094032108652244,0.265524062336883
0.098684298114616,0.272976712177966
0.103397008065326,0.280465949980136
0.10817062216015,0.28799184367506
0.113005524054865,0.295554461194402
0.117902097405248,0.303153870469828
0.122860725867075,0.310790139433003
0.127881793096123,0.318463336015591
0.132965682748169,0.326173528149258
0.13811277847899,0.33392078376567
0.143323463944361,0.34170517079649
0.148598122800061,0.349526757173386
0.153937138701865,0.35738561082802
0.15934089530555,0.365281799692059
0.164809776266893,0.373215391697167
0.17034416524167,0.381186454775011
0.175944445885658,0.389195056857254
0.181611001854635,0.397241265875562
0.187344216804376,0.4053251497616
0.193144474390658,0.413446776447034
0.199012158269258,0.421606213863528
0.204947652095952,0.429803529942748
0.210951339526518,0.438038792616358
0.217023604216732,0.446312069816024
0.22316482982237,0.454623429473411
0.22937539999921,0.462972939520184
0.235655698403027,0.471360667888008
0.242006108689599,0.479786682508549
0.242006108689599,0.479786682508549
0.248356737235301,0.488165503178785
0.254637614512472,0.496412007138283
0.260849010320836,0.504526798482586
0.266991194460118,0.512510481307237
0.273064436730042,0.520363659707778
0.279069006930332,0.528086937779753
0.285005174860713,0.535680919618705
0.290873210320908,0.543146209320178
0.296673383110642,0.550483410979713
0.302405963029639,0.557693128692854
0.308071219877623,0.564775966555145
0.313669423454319,0.571732528662128
0.31920084355945,0.578563419109346
0.324665749992741,0.585269241992343
0.330064412553917,0.591850601406662
0.3353971010427,0.598308101447845
0.340664085258816,0.604642346211435
0.345865635001989,0.610853939792977
0.351002020071943,0.616943486288012
0.356073510268402,0.622911589792084
0.36108037539109,0.628758854400736
0.366022885239732,0.634485884209511
0.370901309614051,0.640093283313952
0.375715918313773,0.645581655809603
0.38046698113862,0.650951605792006
0.385154767888319,0.656203737356703
0.389779548362591,0.66133865459924
0.394341592361163,0.666356961615158
0.398841169683758,0.6712592625
0.4032785501301,0.67604616134931
0.407654003499913,0.680718262258631
0.411967799592922,0.685276169323505
0.416220208208851,0.689720486639477
0.420411499147424,0.694051818302088
0.424541942208366,0.698270768406882
0.4286118071914,0.702377941049403
0.432621363896251,0.706373940325192
0.436570882122643,0.710259370329794
0.440460631670299,0.71403483515875
0.444290882338946,0.717700938907606
0.448061903928306,0.721258285671903
0.451773966238104,0.724707479547184
0.455427339068063,0.728049124628993
0.459022292217909,0.731283825012872
0.462559095487366,0.734412184794365
0.466038018676157,0.737434808069015
0.469459331584007,0.740352298932365
0.47282330401064,0.743165261479958
0.476130205755781,0.745874299807337
0.479380306619153,0.748480018010044
0.48257387640048,0.750983020183624
0.485711184899488,0.753383910423619
0.4887925019159,0.755683292825573
0.49181809724944,0.757881771485028
0.494788240699833,0.759979950497527
0.497703202066803,0.761978433958614
0.500563251150073,0.763877825963831
0.503368657749369,0.765678730608722
0.506119691664415,0.76738175198883
0.508816622694933,0.768987494199697
0.51145972064065,0.770496561336868
0.514049255301289,0.771909557495885
0.516585496476574,0.77322708677229
0.51906871396623,0.774449753261627
0.52149917756998,0.77557816105944
0.52387715708755,0.776612914261271
0.526202922318662,0.777554616962663
0.528476743063042,0.77840387325916
0.530698889120413,0.779161287246305
0.5328696302905,0.779827463019639
0.534989236373028,0.780403004674707
0.537057977167719,0.780888516307052
0.539076122474299,0.781284602012217
0.541043942092491,0.781591865885745
0.54296170582202,0.781810912023178
0.544829683462611,0.78194234452006
0.546648144813986,0.781986767471935
0.548417359675871,0.781944784974345
0.55013759784799,0.781817001122832
0.551809129130067,0.781604020012941
0.553432223321826,0.781306445740215
0.555007150222991,0.780924882400196
0.556534179633286,0.780459934088427
0.558013581352437,0.779912204900452
0.559445625180166,0.779282298931814
0.560830580916198,0.778570820278054
0.562168718360258,0.777778373034718
0.56346030731207,0.776905561297348
0.564705617571357,0.775952989161487
0.565904918937845,0.774921260722678
0.567058481211256,0.773810980076463
0.568166574191316,0.772622751318387
0.569229467677749,0.771357178543993
0.570247431470279,0.770014865848822
0.571220735368629,0.768596417328418
0.572149649172526,0.767102437078326
0.573034442681691,0.765533529194087
0.573875385695851,0.763890297771244
0.574672748014728,0.762173346905341
0.575426799438047,0.760383280691921
0.576137809765533,0.758520703226526
0.576806048796909,0.7565862186047
0.5774317863319,0.754580430921986
0.578015292170231,0.752503944273928
0.578556836111624,0.750357362756067
0.579056687955805,0.748141290463948
0.579515117502497,0.745856331493112
0.579932394551426,0.743503089939104
0.580308788902314,0.741082169897467
0.580644570354887,0.738594175463743
0.580940008708868,0.736039710733475
0.581195373763982,0.733419379802207
0.581410935319953,0.730733786765482
0.581586963176505,0.727983535718842
0.581723727133362,0.725169230757831
0.581821496990249,0.722291475977993
0.58188054254689,0.719350875474869
0.581901133603009,0.716348033344003
0.581883539958329,0.713283553680938
0.581828031412577,0.710158040581217
0.581734877765475,0.706972098140384
0.581604348816747,0.703726330453981
0.581436714366119,0.700421341617551
0.581232244213314,0.697057735726638
0.580991208158057,0.693636116876785
0.580713876000071,0.690157089163533
0.580400517539081,0.686621256682428
0.580051402574812,0.683029223529012
0.579666800906986,0.679381593798827
0.579246982335329,0.675678971587417
0.578792216659565,0.671921960990325
0.578302773679418,0.668111166103095
0.577778923194612,0.664247191021268
0.577220935004872,0.660330639840389
0.576629078909921,0.656362116655999
0.576003624709484,0.652342225563643
0.575344842203284,0.648271570658864
0.574653001191047,0.644150756037204
0.573928371472497,0.639980385794207
0.573171222847357,0.635761064025415
0.572381825115353,0.631493394826372
0.571560448076207,0.627177982292621
0.570707361529644,0.622815430519704
0.569822835275389,0.618406343603166
0.568907139113166,0.613951325638548
0.567960542842699,0.609450980721395
0.566983316263712,0.604905912947249
0.565975729175929,0.600316726411653
0.564938051379075,0.59568402521015
0.563870552672874,0.591008413438284
0.562773502857049,0.586290495191597
0.561647171731326,0.581530874565632
0.560491829095429,0.576730155655934
0.559307744749081,0.571888942558043
0.558095188492006,0.567007839367505
0.55685443012393,0.562087450179861
0.555585739444577,0.557128379090656
0.554289386253669,0.552131230195431
0.552965640350932,0.54709660758973
0.551614771536091,0.542025115369096
0.550237049608868,0.536917357629073
0.548832744368989,0.531773938465202
0.547402125616177,0.526595461973028
0.545945463150158,0.521382532248094
0.544463026770654,0.516135753385942
0.54295508627739,0.510855729482115
0.541421911470091,0.505543064632157
0.53986377214848,0.500198362931611
0.538280938112283,0.494822228476019
0.536673679161222,0.489415265360925
0.535042265095022,0.483978077681872
0.533386965713408,0.478511269534403
0.531708050816104,0.473015445014062
0.530005790202834,0.46749120821639
0.528280453673321,0.461939163236931
0.526532311027291,0.456359914171229
0.524761632064468,0.450754065114826
0.522968686584575,0.445122220163265
0.521153744387338,0.43946498341209
0.519317075272479,0.433782958956844
0.517458949039724,0.428076750893069
0.515579635488796,0.422346963316309
0.513679404419421,0.416594200322106
0.511758525631321,0.410819066006004
0.509817268924222,0.405022164463547
0.507855904097847,0.399204099790276
0.50587470095192,0.393365476081735
0.503873929286167,0.387506897433468
0.501853858900311,0.381628967941017
0.499814759594076,0.375732291699924
0.497756901167186,0.369817472805735
0.495680553419366,0.363885115353991
0.49358598615034,0.357935823440235
0.491473469159833,0.351970201160011
0.489343272247567,0.345988852608861
0.487195665213269,0.339992381882329
0.485030917856661,0.333981393075958
0.482849299977468,0.327956490285291
0.480651081375414,0.321918277605871
0.478436531850224,0.31586735913324
0.476205921201621,0.309804338962943
0.473959519229331,0.303729821190522
0.471697595733076,0.29764440991152
0.469420420512581,0.291548709221481
0.467128263367572,0.285443323215947
0.46482139409777,0.279328855990461
0.462500082502902,0.273205911640567
0.460164598382691,0.267075094261807
0.457815211536861,0.260937007949725
0.455452191765137,0.254792256799864
0.453075808867242,0.248641444907767
0.450686332642902,0.242485176368976
0.44828403289184,0.236324055279036
0.44586917941378,0.230158685733488
0.443442042008446,0.223989671827877
0.441002890475564,0.217817617657745
0.438551994614857,0.211643127318635
0.436089624226049,0.20546680490609
0.433616049108864,0.199289254515654
0.431131539063027,0.193111080242869
0.428636363888262,0.186932886183279
0.426130793384293,0.180755276432426
0.423615097350845,0.174578855085854
0.421089545587641,0.168404226239106
0.418554407894405,0.162231993987724
0.416009954070863,0.156062762427253
0.413456453916738,0.149897135653234
0.410894177231754,0.143735717761212
0.408323393815636,0.137579112846728
0.405744373468108,0.131427925005327
0.403157385988893,0.125282758332551
0.400562701177717,0.119144216923944
0.397960588834303,0.113012904875048
0.395351318758376,0.106889426281406
0.39273516074966,0.100774385238562
0.390112384607879,0.0946683858420584
0.387483260132758,0.0885720321874384
0.38484805712402,0.0824859283702456
0.382207045381389,0.0764106784860223
0.379560494704591,0.0703468866303122
0.376908674893348,0.0642951568986578
0.374251855747386,0.0582560933866028
0.371590307066429,0.0522303001896896
0.3689242986502,0.0462183814034619
0.366254100298425,0.0402209411234622
0.363579981810826,0.0342385834452342
0.360902212987129,0.0282719124643203
0.358221063627058,0.0223215322762642
0.355536803530337,0.0163880469766085
0.352849702496689,0.0104720606608965
0.35016003032584,0.00457417742467109
0.347468056817514,-0.00130499863652428
0.344774051771434,-0.00716486342714703
0.342078284987325,-0.0130048128516537
0.339381026264911,-0.0188242428145015
0.336682545403917,-0.0246225492201468
0.333983112204066,-0.0303991279730475
0.331282996465082,-0.0361533749776596
0.328582467986691,-0.0418846861384405
0.325881796568616,-0.0475924573598469
0.323181252010582,-0.0532760845463361
0.320481104112312,-0.0589349636023646
0.317781622673531,-0.0645684904323897
0.315083077493963,-0.0701760609408678
0.312385738373332,-0.0757570710322565
0.309689875111363,-0.081310916611012
0.306995757507779,-0.086836993581592
0.304303655362305,-0.0923346978484528
0.301613838474666,-0.0978034253160518
0.298926576644584,-0.103242571888845
0.296242139671785,-0.108651533471291
0.293560797355993,-0.114029705967845
0.290882819496932,-0.119376485282965
0.288208475894327,-0.124691267321108
0.2855380363479,-0.12997344798673
0.282871770657377,-0.135222423184288
0.280209948622482,-0.14043758881824
0.277552840042939,-0.145618340793043
0.274900714718472,-0.150764075013152
0.272253842448806,-0.155874187383026
0.269612493033664,-0.160948073807121
0.266976936272772,-0.165985130189893
0.264347441965852,-0.170984752435801
0.261724279912629,-0.175946336449301
0.259107719912828,-0.180869278134849
0.256498031766173,-0.185752973396903
0.253895485272388,-0.19059681813992
0.251300350231197,-0.195400208268356
0.248712896442324,-0.200162539686669
0.246133393705494,-0.204883208299316
0.243562111820431,-0.209561610010752
0.240999320586858,-0.214197140725436
0.238445289804501,-0.218789196347824
0.235900289273084,-0.223337172782374
0.23336458879233,-0.227840465933541
0.230838458161963,-0.232298471705783
0.228322167181709,-0.236710586003558
0.225815985651291,-0.241076204731321
0.223320183370434,-0.24539472379353
0.220835030138861,-0.249665539094642
0.218360795756298,-0.253888046539113
0.215897750022467,-0.258061642031401
0.213446162737094,-0.262185721475962
0.211006303699902,-0.266259680777254
0.208578442710616,-0.270282915839733
0.20616284956896,-0.274254822567856
0.203759794074659,-0.278174796866081
0.201369546027435,-0.282042234638864
0.198992375227015,-0.285856531790661
0.196628551473121,-0.289617084225931
0.194278344565478,-0.29332328784913
0.19194202430381,-0.296974538564714
0.189619860487842,-0.300570232277142
0.187312122917298,-0.304109764890868
0.185019081391901,-0.307592532310352
0.182741005711377,-0.311017930440049
0.180478165675449,-0.314385355184417
0.178230831083841,-0.317694202447912
0.175999271736278,-0.320943868134991
0.173783757432485,-0.324133748150111
0.171584557972184,-0.32726323839773
0.169401943155101,-0.330331734782304
0.167236182780959,-0.33333863320829
0.165087546649483,-0.336283329580144
0.162956304560397,-0.339165219802325
0.160842726313426,-0.341983699779289
0.158747081708293,-0.344738165415492
0.156669640544722,-0.347428012615392
0.154610672622439,-0.350052637283445
0.152570447741166,-0.352611435324109
0.150549235700629,-0.355103802641841
0.148547306300551,-0.357529135141097
0.146564929340657,-0.359886828726334
0.144602374620671,-0.362176279302009
0.142659911940317,-0.36439688277258
0.14073781109932,-0.366548035042502
0.138836341897403,-0.368629132016234
0.136955774134291,-0.370639569598232
0.135096377609707,-0.372578743692952
0.133258422123378,-0.374446050204852
0.131442177475025,-0.376240885038389
0.129647913464374,-0.37796264409802
0.127875899891149,-0.379610723288201
0.126126406555074,-0.38118451851339
0.124399703255873,-0.382683425678043
0.122696059793271,-0.384106840686617
0.121015745966992,-0.38545415944357
0.119359031576759,-0.386724777853358
0.117726186422298,-0.387918091820438
0.116117480303332,-0.389033497249267
0.114533183019585,-0.390070390044303
0.112973564370783,-0.391028166110001
0.111438894156648,-0.391906221350819
0.109929442176905,-0.392703951671213
0.108445478231279,-0.393420752975642
0.106987272119493,-0.394056021168561
0.105555093641273,-0.394609152154427
0.104149212596341,-0.395079541837699
0.102769898784423,-0.395466586122831
0.101417422005242,-0.395769680914282
0.100092052058522,-0.395988222116508
0.0987940587439891,-0.396121605633966
0.0975237118613658,-0.396169227371114
0.0962812812103769,-0.396130483232407
0.0950670365907465,-0.396004769122304
0.0938812478021988,-0.39579148094526
0.0927241846444581,-0.395490014605733
0.0915961169172486,-0.39509976600818
0.0904973144202944,-0.394620131057058
0.0894280469533199,-0.394050505656823
0.0883885843160492,-0.393390285711932
0.0873791963082065,-0.392638867126844
0.086400152729516,-0.391795645806013
0.085451723379702,-0.390860017653898
0.0845341780584886,-0.389831378574955
0.0836477865656002,-0.388709124473642
0.0827928187007607,-0.387492651254414
0.0819695442636947,-0.386181354821729
0.0811782330541261,-0.384774631080045
0.0804191548717792,-0.383271875933817
0.0796925795163783,-0.381672485287503
0.0789987767876475,-0.37997585504556
0.0783380164853111,-0.378181381112444
0.0777105684090933,-0.376288459392613
0.0771167023587182,-0.374296485790524
0.0765566881339102,-0.372204856210633
0.0760307955343933,-0.370012966557398
0.0755392943598919,-0.367720212735274
0.0750824544101301,-0.36532599064872
0.0746605454848323,-0.362829696202192
0.0742738373837224,-0.360230725300147
0.0739225999065248,-0.357528473847042
0.0736071028529637,-0.354722337747334
0.0733276160227634,-0.351811712905481
0.0730844092156479,-0.348795995225937
0.0728777522313416,-0.345674580613162
0.0727079148695686,-0.342446864971611
0.0725751669300532,-0.339112244205741
0.0724797782125195,-0.33567011422001
0.0724797782125195,-0.33567011422001
0.0724189721785779,-0.332171998592028
0.0723896616077015,-0.328669902197729
0.0723916502764085,-0.325163942889061
0.0724247419612173,-0.321654238517971
0.0724887404386463,-0.318140906936406
0.0725834494852137,-0.314624065996313
0.0727086728774378,-0.311103833549638
0.0728642143918371,-0.30758032744833
0.0730498778049298,-0.304053665544334
0.0732654668932343,-0.300523965689598
0.0735107854332688,-0.296991345736068
0.0737856372015518,-0.293455923535692
0.0740898259746015,-0.289917816940417
0.0744231555289363,-0.286377143802189
0.0747854296410744,-0.282834021972955
0.0751764520875343,-0.279288569304663
0.0755960266448343,-0.275740903649259
0.0760439570894926,-0.27219114285869
0.0765200471980276,-0.268639404784904
0.0770241007469576,-0.265085807279847
0.0775559215128011,-0.261530468195465
0.0781153132720761,-0.257973505383707
0.0787020798013012,-0.254415036696519
0.0793160248769947,-0.250855179985848
0.0799569522756748,-0.247294053103641
0.0806246657738599,-0.243731773901844
0.0813189691480683,-0.240168460232406
0.0820396661748184,-0.236604229947272
0.0827865606306284,-0.23303920089839
0.0835594562920168,-0.229473490937707
0.0843581569355017,-0.225907217917169
0.0851824663376017,-0.222340499688724
0.0860321882748349,-0.218773454104318
0.0869071265237197,-0.215206199015899
0.0878070848607745,-0.211638852275413
0.0887318670625175,-0.208071531734807
0.0896812769054672,-0.204504355246029
0.0906551181661417,-0.200937440661025
0.0916531946210595,-0.197370905831742
0.0926753100467389,-0.193804868610128
0.0937212682196981,-0.190239446848129
0.0947908729164556,-0.186674758397691
0.0958839279135296,-0.183110921110763
0.0970002369874386,-0.179548052839291
0.0981396039147008,-0.175986271435221
0.0993018324718344,-0.172425694750502
0.100486726435358,-0.168866440637079
0.10169408958179,-0.1653086269469
0.102923725687648,-0.161752371531912
0.104175438529451,-0.158197792244061
0.105449031883717,-0.154645006935295
0.106744309526965,-0.151094133457561
0.108061075235713,-0.147545289662805
0.109399132786478,-0.143998593402974
0.110758285955781,-0.140454162530016
0.112138338520138,-0.136912114895878
0.113539094256068,-0.133372568352506
0.11496035694009,-0.129835640751847
0.116401930348721,-0.126301449945848
0.117863618258481,-0.122770113786456
0.119345224445887,-0.119241750125619
0.120846552687457,-0.115716476815282
0.122367406759711,-0.112194411707394
0.123907590439166,-0.1086756726539
0.125466907502342,-0.105160377506749
0.127045161725755,-0.101648644117886
0.128642156885924,-0.0981405903392592
0.130257696759368,-0.0946363340228151
0.131891585122606,-0.0911359930205008
0.133543625752155,-0.0876396851842631
0.135213622424533,-0.084147528366049
0.13690137891626,-0.0806596404178056
0.138606699003852,-0.0771761391914797
0.14032938646383,-0.0736971425390182
0.14206924507271,-0.070222768312368
0.143826078607012,-0.0667531343634764
0.145599690843254,-0.0632883585442901
0.147389885557954,-0.0598285587067559
0.14919646652763,-0.056373852702821
0.1510192375288,-0.0529243583844324
0.152858002337984,-0.0494801936035368
0.154712564731699,-0.0460414762120813
0.156582728486463,-0.0426083240620128
0.158468297378796,-0.0391808550052783
0.160369075185215,-0.0357591868938248
0.162284865682238,-0.0323434375795991
0.164215472646384,-0.0289337249145482
0.166160699854172,-0.0255301667506191
0.168120351082119,-0.0221328809397588
0.170094230106745,-0.0187419853339141
0.172082140704566,-0.015357597785032
0.174083886652102,-0.0119798361450595
0.176099271725871,-0.00860881826594354
0.178128099702391,-0.00524466199963108
0.180170174358181,-0.00188748519806899
0.182225299469759,0.00146259428679567
0.184293278813643,0.00480545860301601
0.186373916166351,0.00814098989864513
0.188467015304403,0.011469070321736
0.190572380004315,0.0147895820203416
0.192689814042607,0.0181024071425152
0.194819121195797,0.0214074278363096
0.196960105240403,0.0247045262497781
0.199112569952944,0.0279935845309735
0.201276319109937,0.031274484827949
0.203451156487902,0.0345471092887577
0.205636885863356,0.0378113400614526
0.207833311012818,0.0410670592940866
0.210040235712806,0.0443141491347129
0.212257463739839,0.0475524917313845
0.214484798870434,0.0507819692321545
0.216722044881111,0.0540024637850759
0.218969005548387,0.0572138575382018
0.221225484648781,0.0604160326395852
0.22349128595881,0.0636088712372792
0.225766213254995,0.0667922554793368
0.228050070313852,0.0699660675138111
0.2303426609119,0.073130189488755
0.232643788825658,0.0762845035522219
0.234953257831643,0.0794288918522644
0.237270871706374,0.0825632365369358
0.23959643422637,0.0856874197542892
0.241929749168149,0.0888013236523775
0.244270620308228,0.0919048303792538
0.246618851423127,0.0949978220829713
0.248974246289364,0.0980801809115828
0.251336608683457,0.101151789013142
0.253705742381924,0.1042125285357
0.256081451161284,0.107262281627313
0.258463538798055,0.110300930436031
0.260851809068755,0.113328357109909
0.263246065749903,0.116344443796999
0.265646112618016,0.119349072645355
0.268051753449615,0.122342125803029
0.270462792021215,0.125323485418075
0.272879032109337,0.128293033638546
0.275300277490498,0.131250652612494
0.277726331941217,0.134196224487972
0.280156999238012,0.137129631413035
0.282592083157401,0.140050755535734
0.285031387475903,0.142959479004124
0.287474715970035,0.145855683966256
0.289921872416317,0.148739252570184
0.292372660591266,0.151610066963961
0.294826884271402,0.15446800929564
0.297284347233241,0.157312961713275
0.299744853253304,0.160144806364917
0.302208206108107,0.162963425398621
0.304674209574169,0.165768700962439
0.307142667428009,0.168560515204424
0.309613383446145,0.17133875027263
0.312086161405095,0.174103288315109
0.314560805081378,0.176854011479914
0.317037118251511,0.179590801915099
0.319514904692014,0.182313541768717
0.321993968179404,0.18502211318882
0.3244741124902,0.187716398323462
0.32695514140092,0.190396279320696
0.329436858688083,0.193061638328574
0.331919068128206,0.19571235749515
0.334401573497809,0.198348318968477
0.336884178573409,0.200969404896608
0.339366687131526,0.203575497427596
0.341848902948676,0.206166478709494
0.344330629801378,0.208742230890355
0.346811671466152,0.211302636118232
0.349291831719514,0.213847576541178
0.351770914337984,0.216376934307247
0.35424872309808,0.21889059156449
0.35672506177632,0.221388430460962
0.359199734149222,0.223870333144716
0.361672543993306,0.226336181763803
0.364143295085088,0.228785858466279
0.366611791201087,0.231219245400194
0.369077836117823,0.233636224713604
0.371541233611812,0.236036678554559
0.374001787459574,0.238420489071115
0.376459301437627,0.240787538411323
0.378913579322488,0.243137708723237
0.381364424890677,0.24547088215491
0.383811641918712,0.247786940854395
0.386255034183111,0.250085766969744
0.388694405460392,0.252367242649012
0.391129559527073,0.25463125004025
0.393560300159674,0.256877671291513
0.395986431134712,0.259106388550853
0.398407756228706,0.261317283966323
0.400824079218174,0.263510239685976
0.403235203879634,0.265685137857865
0.405640933989605,0.267841860630044
0.408041073324605,0.269980290150565
0.410435425661152,0.272100308567481
0.412823794775764,0.274201798028846
0.415205984444961,0.276284640682712
0.41758179844526,0.278348718677133
0.419951040553179,0.280393914160162
0.422313514545238,0.282420109279851
0.424669024197954,0.284427186184254
0.427017373287845,0.286415027021423
0.42935836559143,0.288383513939413
0.431691804885228,0.290332529086275
0.434017494945756,0.292261954610063
0.436335239549533,0.29417167265883
0.438644842473077,0.296061565380629
0.440946107492907,0.297931514923514
0.443238838385541,0.299781403435536
0.445522838927497,0.301611113064749
0.447797912895293,0.303420525959207
0.450063864065448,0.305209524266962
0.452320496214481,0.306977990136067
0.454567613118909,0.308725805714576
0.456805018555251,0.310452853150541
0.459032516300025,0.312159014592015
0.461249910129749,0.313844172187052
0.463457003820943,0.315508208083704
0.465653601150123,0.317151004430025
0.467839505893809,0.318772443374068
0.470014521828519,0.320372407063886
0.472178452730771,0.321950777647531
0.474331102377083,0.323507437273057
0.476472274543975,0.325042268088516
0.478601773007963,0.326555152241963
0.480719401545567,0.32804597188145
0.482824963933304,0.329514609155029
0.484918263947694,0.330960946210755
0.486999105365254,0.33238486519668
0.489067291962503,0.333786248260857
0.491122627515959,0.335164977551339
0.49316491580214,0.336520935216179
0.495193960597565,0.337854003403431
0.497209565678753,0.339164064261147
0.49921153482222,0.34045099993738
0.501199671804486,0.341714692580184
0.50317378040207,0.342955024337612
0.505133664391488,0.344171877357716
0.507079127549261,0.345365133788549
0.509009973651905,0.346534675778165
0.51092600647594,0.347680385474617
0.512827029797883,0.348802145025958
0.514712847394254,0.34989983658024
0.51658326304157,0.350973342285517
0.518438080516349,0.352022544289843
0.52027710359511,0.353047324741269
0.522100136054372,0.354047565787849
0.523906981670653,0.355023149577636
0.52569744422047,0.355973958258683
0.527471327480343,0.356899873979043
0.529228435226789,0.35780077888677
0.530968571236327,0.358676555129916
0.532691539285476,0.359527084856534
0.534397143150753,0.360352250214677
0.536085186608677,0.361151933352399
0.537755473435767,0.361926016417752
0.53940780740854,0.36267438155879
0.541041992303514,0.363396910923565
0.54265783189721,0.364093486660131
0.544255129966143,0.364763990916541
0.545833690286834,0.365408305840847
0.5473933166358,0.366026313581103
0.548933812789559,0.366617896285362
0.55045498252463,0.367182936101677
0.551956629617532,0.3677213151781
0.553438557844782,0.368232915662685
0.554900570982898,0.368717619703486
0.5563424728084,0.369175309448554
0.557764067097806,0.369605867045944
0.559165157627633,0.370009174643708
0.560545548174401,0.370385114389898
0.561905042514627,0.37073356843257
0.56324344442483,0.371054418919774
0.564560557681528,0.371347547999565
0.565856186061239,0.371612837819995
0.567130133340483,0.371850170529118
0.568382203295776,0.372059428274986
0.569612199703638,0.372240493205652
0.570819926340587,0.37239324746917
0.572005186983141,0.372517573213593
0.573167785407818,0.372613352586974
0.574307525391137,0.372680467737365
0.575424210709616,0.37271880081282
0.576517645139774,0.372728233961392
0.577587632458128,0.372708649331134
0.578633976441198,0.372659929070099
0.5796564808655,0.372581955326339
0.580654949507555,0.372474610247909
0.581629186143879,0.372337775982861
0.582578994550992,0.372171334679248
0.583504178505412,0.371975168485123
0.584404541783657,0.371749159548539
0.585279888162245,0.37149319001755
0.586130021417695,0.371207142040208
0.586954745326524,0.370890897764567
0.587753863665253,0.370544339338678
0.588527180210398,0.370167348910597
0.589274498738477,0.369759808628375
0.589995623026011,0.369321600640065
0.590690356849515,0.368852607093721
0.59135850398551,0.368352710137396
0.591999868210513,0.367821791919142
0.592614253301043,0.367259734587014
0.593201463033618,0.366666420289063
0.593761301184756,0.366041731173343
0.594293571530976,0.365385549387907
0.594798077848795,0.364697757080808
0.595274623914733,0.363978236400099
0.595723013505308,0.363226869493833
0.596143050397037,0.362443538510063
0.59653453836644,0.361628125596842
0.596897281190034,0.360780512902224
0.597231082644338,0.359900582574261
0.597535746505871,0.358988216761006
0.59781107655115,0.358043297610512
0.598056876556693,0.357065707270833
0.598272950299021,0.356055327890022
0.598459101554649,0.355012041616131
0.598615134100098,0.353935730597214
0.598740851711884,0.352826276981323
0.598836058166528,0.351683562916512
0.598900557240546,0.350507470550833
0.598934152710457,0.349297882032341
0.59893664835278,0.348054679509087
0.598907847944033,0.346777745129125
0.598847555260733,0.345466961040508
0.598755574079401,0.344122209391289
0.598631708176553,0.342743372329521
0.598475761328708,0.341330332003257
0.598287537312385,0.339882970560551
0.598066839904101,0.338401170149454
0.597813472880376,0.336884812918021
0.597527240017727,0.335333781014304
0.597207945092673,0.333747956586356
0.596855391881732,0.332127221782231
0.596469384161423,0.330471458749981
0.596049725708263,0.32878054963766
0.595596220298771,0.32705437659332
0.595108671709466,0.325292821765014
0.594586883716865,0.323495767300797
0.594030660097488,0.32166309534872
0.593439804627852,0.319794688056836
0.592814121084476,0.3178904275732
0.592153413243877,0.315950196045863
0.591457484882575,0.313973875622879
0.590726139777088,0.311961348452302
0.589959181703934,0.309912496682183
0.589156414439631,0.307827202460576
0.588317641760698,0.305705347935534
0.587442667443653,0.30354681525511
0.586531295265014,0.301351486567358
0.5855833290013,0.299119244020329
0.584598572429029,0.296849969762079
0.58357682932472,0.294543545940658
0.58251790346489,0.292199854704121
0.581421598626058,0.28981877820052
0.580287718584742,0.287400198577908
0.579116067117461,0.284943997984339
0.577906448000732,0.282450058567866
0.576658665011075,0.279918262476541
0.575372521925008,0.277348491858418
0.574047822519049,0.27474062886155
0.572684370569716,0.27209455563399
0.571281969853527,0.26941015432379
0.569840424147002,0.266687307079004
0.568359537226658,0.263925896047685
0.566839112869013,0.261125803377886
0.565278954850586,0.25828691121766
0.563678866947896,0.255409101715061
0.56203865293746,0.25249225701814
0.560358116595796,0.249536259274951
0.558637061699425,0.246540990633548
0.556875292024862,0.243506333241983
0.555072611348628,0.240432169248309
0.553228823447239,0.23731838080058
0.551343732097216,0.234164850046848
0.549417141075075,0.230971459135167
0.547448854157335,0.227738090213589
0.545438675120515,0.224464625430167
0.543386407741132,0.221150946932955
0.541291855795706,0.217796936870006
0.539154823060754,0.214402477389373
0.536975113312795,0.210967450639108
0.534752530328348,0.207491738767266
0.532486877883929,0.203975223921898
0.530177959756059,0.200417788251058
0.527825579721254,0.196819313902799
0.525429541556035,0.193179683025174
0.522989649036917,0.189498777766236
0.520505705940421,0.185776480274038
0.517977516043065,0.182012672696633
0.515404883121366,0.178207237182075
0.512787610951843,0.174360055878416
0.510125503311015,0.170471010933709
0.507418363975399,0.166539984496007
0.504665996721514,0.162566858713364
0.501868205325879,0.158551515733833
0.499024793565012,0.154493837705466
0.49613556521543,0.150393706776316
0.493200324053653,0.146251005094437
0.490218873856199,0.142065614807882
0.487191018399586,0.137837418064704
