-0.632678398460686,-0.378999504320164
-0.634217108738446,-0.375377528268293
-0.63568120501564,-0.371753418774798
-0.637071102890188,-0.368127286013073
-0.638387217960005,-0.364499240156511
-0.639629965823009,-0.360869391378506
-0.640799762077118,-0.357237849852453
-0.641897022320248,-0.353604725751746
-0.642922162150318,-0.349970129249779
-0.643875597165243,-0.346334170519946
-0.644757742962942,-0.342696959735641
-0.645569015141331,-0.339058607070258
-0.646309829298329,-0.335419222697192
-0.646980601031851,-0.331778916789836
-0.647581745939816,-0.328137799521584
-0.64811367962014,-0.32449598106583
-0.648576817670742,-0.32085357159597
-0.648971575689538,-0.317210681285396
-0.649298369274445,-0.313567420307503
-0.64955761402338,-0.309923898835684
-0.649749725534262,-0.306280227043335
-0.649875119405007,-0.302636515103849
-0.649934211233532,-0.29899287319062
-0.649927416617754,-0.295349411477041
-0.649855151155592,-0.291706240136509
-0.649717830444962,-0.288063469342416
-0.649515870083781,-0.284421209268156
-0.649249685669967,-0.280779570087124
-0.648919692801437,-0.277138661972714
-0.648526307076108,-0.273498595098319
-0.648069944091898,-0.269859479637335
-0.647551019446723,-0.266221425763154
-0.646969948738501,-0.262584543649171
-0.646327147565149,-0.258948943468781
-0.645623031524585,-0.255314735395376
-0.644858016214725,-0.251682029602352
-0.644032517233487,-0.248050936263103
-0.643146950178789,-0.244421565551022
-0.642201730648547,-0.240794027639503
-0.641197274240678,-0.237168432701941
-0.640133996553101,-0.233544890911731
-0.639012313183731,-0.229923512442264
-0.637832639730487,-0.226304407466937
-0.636595391791286,-0.222687686159143
-0.635300984964045,-0.219073458692276
-0.633949834846681,-0.21546183523973
-0.632542357037111,-0.2118529259749
-0.631078967133253,-0.208246841071178
-0.629560080733024,-0.204643690701961
-0.627986113434342,-0.201043585040641
-0.626357480835122,-0.197446634260613
-0.624674598533284,-0.19385294853527
-0.622937882126743,-0.190262638038007
-0.621147747213418,-0.186675812942218
-0.619304609391225,-0.183092583421298
-0.617408884258081,-0.179513059648639
-0.615460987411905,-0.175937351797637
-0.613461334450613,-0.172365570041684
-0.611410340972122,-0.168797824554177
-0.60930842257435,-0.165234225508507
-0.607155994855214,-0.161674883078071
-0.604953473412632,-0.158119907436261
-0.602701273844519,-0.154569408756471
-0.600399811748794,-0.151023497212097
-0.598049502723375,-0.147482282976531
-0.595650762366178,-0.143945876223169
-0.59320400627512,-0.140414387125404
-0.590709650048118,-0.136887925856629
-0.588168109283091,-0.13336660259024
-0.585579799577955,-0.129850527499631
-0.582945136530628,-0.126339810758195
-0.580264535739026,-0.122834562539326
-0.577538412801067,-0.11933489301642
-0.574767183314668,-0.115840912362869
-0.571951262877747,-0.112352730752067
-0.569091067088221,-0.10887045835741
-0.566187011544006,-0.105394205352291
-0.563239511843021,-0.101924081910103
-0.560248983583183,-0.0984601982042425
-0.557215842362408,-0.0950026644081017
-0.554140503778614,-0.0915515906950753
-0.551023383429718,-0.0881070872385575
-0.547864896913638,-0.0846692642119421
-0.54466545982829,-0.0812382317886233
-0.541425487771593,-0.0778141001419954
-0.538145396341463,-0.0743969794454523
-0.534825601135817,-0.070986979872388
-0.531466517752573,-0.0675842115961967
-0.528068561789648,-0.0641887847902726
-0.524632148844959,-0.0608008096280096
-0.521157694516424,-0.0574203962828019
-0.51764561440196,-0.0540476549280436
-0.514096324099483,-0.0506826957371287
-0.510510239206912,-0.0473256288834513
-0.506887775322164,-0.0439765645404056
-0.503229348043155,-0.0406356128813856
-0.499535372967803,-0.0373028840797854
-0.495806265694025,-0.0339784883089992
-0.492042441819739,-0.0306625357424209
-0.488244316942862,-0.0273551365534446
-0.484412306661311,-0.0240564009154646
-0.480546826573003,-0.0207664390018749
-0.476648292275855,-0.0174853609860694
-0.472717119367785,-0.0142132770414424
-0.46875372344671,-0.010950297341388
-0.464758520110548,-0.00769653205930017
-0.460731924957215,-0.00445209136857307
-0.456674353584629,-0.00121708544260074
-0.452586221590707,0.00200837554522268
-0.448467944573366,0.0052241814215031
-0.444319938130524,0.00843022201284649
-0.440142617860097,0.0116263871458587
-0.435936399360004,0.0148125666471456
-0.431701698228161,0.0179886503433133
-0.427438930062485,0.0211545280609675
-0.423148510460894,0.0243100896267142
-0.418830855021306,0.0274552248671592
-0.414486379341636,0.0305898236089085
-0.410115499019803,0.0337137756785681
-0.405718629653724,0.0368269709027438
-0.401296186841316,0.0399292991080414
-0.396848586180496,0.0430206501210671
-0.392376243269182,0.0461009137684266
-0.38787957370529,0.0491699798767258
-0.383358993086739,0.0522277382725708
-0.378814917011445,0.0552740787825673
-0.374247761077325,0.0583088912333212
-0.369657940882297,0.0613320654514386
-0.365045872024279,0.0643434912635253
-0.360411970101187,0.0673430584961872
-0.355756650710938,0.0703306569760302
-0.35108032945145,0.0733061765296603
-0.34638342192064,0.0762695069836834
-0.341666343716425,0.0792205381647052
-0.336929510436723,0.0821591598993319
-0.332173337679451,0.0850852620141692
-0.327398241042526,0.0879987343358231
-0.322604636123865,0.0908994666908995
-0.317792938521386,0.0937873489060043
-0.312963563833005,0.0966622708077435
-0.308116927656641,0.0995241222227229
-0.30325344559021,0.102372792977548
-0.29837353323163,0.105208172898826
-0.293477606178817,0.108030151813161
-0.288566080029689,0.110838619547161
-0.283639370382164,0.11363346592743
-0.278697892834159,0.116414580780575
-0.27374206298359,0.119181853933201
-0.268772296428375,0.121935175211915
-0.263789008766432,0.124674434443323
-0.258792615595677,0.127399521454029
-0.253783532514028,0.130110326070641
-0.248762175119402,0.132806738119764
-0.243728959009717,0.135488647428004
-0.238684299782889,0.138155943821968
-0.233628613036836,0.14080851712826
-0.228562314369475,0.143446257173486
-0.223485819378723,0.146069053784254
-0.218399543662498,0.148676796787168
-0.213303902818717,0.151269376008835
-0.208199312445297,0.15384668127586
-0.203086188140156,0.156408602414849
-0.19796494550121,0.158955029252409
-0.192836000126376,0.161485851615144
-0.187699767613573,0.164000959329662
-0.182556663560718,0.166500242222568
-0.177407103565726,0.168983590120468
-0.172251503226517,0.171450892849967
-0.167090278141007,0.173902040237672
-0.161923843907113,0.176336922110189
-0.156752616122753,0.178755428294124
-0.151577010385844,0.181157448616081
-0.146397442294303,0.183542872902669
-0.141214327446047,0.185911590980491
-0.136028081438994,0.188263492676155
-0.13083911987106,0.190598467816265
-0.125647858340164,0.192916406227429
-0.120454712444223,0.195217197736251
-0.115260097781152,0.197500732169339
-0.110064429948871,0.199766899353297
-0.104868124545296,0.202015589114732
-0.0996715971683444,0.204246691280249
-0.0944752634159332,0.206460095676454
-0.0892795388859799,0.208655692129954
-0.0840848391764019,0.210833370467355
-0.0788915798851162,0.212993020515261
-0.0737001766100401,0.21513453210028
-0.0685110449490909,0.217257795049016
-0.0633246005001859,0.219362699188077
-0.0581412588612424,0.221449134344067
-0.0529614356301773,0.223516990343593
-0.0477855464049082,0.225566157013261
-0.0426140067833524,0.227596524179676
-0.0374472323634269,0.229607981669445
-0.0322856387430489,0.231600419309173
-0.0271296415201359,0.233573726925466
-0.0219796562926051,0.235527794344931
-0.0168360986583738,0.237462511394172
-0.011699384215359,0.239377767899797
-0.00656992856147812,0.24127345368841
-0.00144814729464851,0.243149458586619
0.00366554398721289,0.245005672421028
0.00877072968618831,0.246841985018243
0.0138669942043612,0.248658286204872
0.0189539219438135,0.250454465807519
0.0240310973066288,0.25223041365279
0.0290981046948891,0.253986019567291
0.0341545285106777,0.255721173377629
0.039199953156077,0.257435764910409
0.04423396303317,0.259129683992236
0.0492561425440391,0.260802820449718
0.0542660760907675,0.26245506410946
0.0592633480754376,0.264086304798067
0.0642475429001323,0.265696432342146
0.0692182449669343,0.267285336568302
0.0741750386779264,0.268852907303142
0.0791175084351912,0.270399034373272
0.0840452386408118,0.271923607605296
0.0889578136968705,0.273426516825822
0.0938548180054505,0.274907651861455
0.098735835968634,0.276366902538801
0.103600451988504,0.277804158684466
0.108448250467144,0.279219310125056
0.113278815806635,0.280612246687176
0.118091732409062,0.281982858197434
0.122886584676506,0.283331034482433
0.12766295701105,0.284656665368782
0.132420433814777,0.285959640683084
0.13715859948977,0.287239850251947
0.141877038438112,0.288497183901977
0.146575335061885,0.289731531459778
0.151253073763172,0.290942782751957
0.155909838944056,0.292130827605121
0.160545215006619,0.293295555845874
0.165158786352944,0.294436857300823
0.169750137385115,0.295554621796573
0.174318852505214,0.296648739159732
0.178864516115323,0.297719099216903
0.183386712617525,0.298765591794694
0.187885026413903,0.299788106719711
0.19235904190654,0.300786533818558
0.196808343497519,0.301760762917843
0.201232515588922,0.302710683844171
0.205631142582832,0.303636186424148
0.210003808881331,0.30453716048438
0.214350098886504,0.305413495851472
0.218669597000431,0.306265082352031
0.222961887625197,0.307091809812663
0.227226555162883,0.307893568059973
0.231463184015573,0.308670246920568
0.235671358585349,0.309421736221053
0.239850663274294,0.310147925788034
0.244000682484491,0.310848705448117
0.248121000618022,0.311523965027909
0.252211202076971,0.312173594354014
0.256270871263419,0.31279748325304
0.260299592579451,0.313395521551591
0.264296950427148,0.313967599076273
0.268262529208593,0.314513605653694
0.272195913325869,0.315033431110458
0.276096687181059,0.315526965273171
0.279964435176245,0.31599409796844
0.283798741713511,0.31643471902287
0.287599191194939,0.316848718263067
0.291365368022611,0.317235985515637
0.295096856598611,0.317596410607186
0.298793241325021,0.31792988336432
0.302454106603924,0.318236293613645
0.306079036837403,0.318515531181766
0.309667616427541,0.31876748589529
0.313219429776419,0.318992047580823
0.316734061286122,0.31918910606497
0.320211095358731,0.319358551174337
0.32365011639633,0.319500272735531
0.327050708801001,0.319614160575157
0.330412456974827,0.319700104519821
0.333734945319891,0.319757994396129
0.337017758238275,0.319787720030687
0.340260480132063,0.3197891712501
0.343462695403336,0.319762237880976
0.346623988454178,0.319706809749919
0.349743943686672,0.319622776683535
0.3528221455029,0.319510028508431
0.355858178304945,0.319368455051212
0.358851626494889,0.319197946138485
0.361802074474817,0.318998391596855
0.364709106646809,0.318769681252928
0.367572307412949,0.318511704933309
0.37039126117532,0.318224352464606
0.373165552336005,0.317907513673424
0.375894765297085,0.317561078386368
0.378578484460645,0.317184936430045
0.381216294228766,0.31677897763106
0.383807779003532,0.31634309181602
0.386352523187025,0.315877168811531
0.388850111181328,0.315381098444197
0.391300127388523,0.314854770540626
0.393702156210695,0.314298074927423
0.396055782049924,0.313710901431194
0.398360589308294,0.313093139878545
0.400616162387888,0.312444680096081
0.402822085690788,0.31176541191041
0.404977943619078,0.311055225148136
0.407083320574839,0.310314009635865
0.409137800960156,0.309541655200204
0.411140969177109,0.308738051667759
0.413092409627783,0.307903088865134
0.41499170671426,0.307036656618937
0.416838444838622,0.306138644755773
0.418632208402953,0.305208943102248
0.420372581809335,0.304247441484968
0.422059149459851,0.303254029730539
0.423691495756584,0.302228597665566
0.425269205101616,0.301171035116657
0.42679186189703,0.300081231910415
0.42825905054491,0.298959077873449
0.429670355447337,0.297804462832362
0.431025361006394,0.296617276613762
0.432323651624164,0.295397409044254
0.433564811702731,0.294144749950445
0.434748425644176,0.292859189158939
0.435874077850582,0.291540616496343
0.436941352724033,0.290188921789263
0.437949834666611,0.288803994864305
0.438899108080398,0.287385725548074
0.439788757367478,0.285934003667177
0.440618366929932,0.28444871904822
0.441387521169845,0.282929761517808
0.442095804489299,0.281377020902547
0.442742801290375,0.279790387029044
0.443328095975158,0.278169749723903
0.44385127294573,0.276514998813732
0.444311916604174,0.274826024125135
0.444709611352572,0.27310271548472
0.445043941593007,0.271344962719091
0.445314491727562,0.269552655654855
0.445520846158319,0.267725684118617
0.445662589287362,0.265863937936984
0.445739305516773,0.263967306936562
0.445750579248635,0.262035680943955
0.445695994885031,0.260068949785771
0.445575136828043,0.258067003288615
0.445387589479754,0.256029731279094
0.445132937242247,0.253957023583812
0.444810764517605,0.251848770029376
0.44442065570791,0.249704860442391
0.443962195215246,0.247525184649465
0.443434967441694,0.245309632477202
0.442838556789337,0.243058093752208
0.44217254766026,0.24077045830109
0.441436524456543,0.238446615950453
0.44063007158027,0.236086456526904
0.439752773433524,0.233689869857047
0.438804214418387,0.23125674576749
0.437783978936942,0.228786974084838
0.436691651391272,0.226280444635696
0.43552681618346,0.223737047246672
0.434289057715588,0.221156671744369
0.432977960389739,0.218539207955396
0.431593108607996,0.215884545706357
0.430134086772442,0.213192574823859
0.428600479285159,0.210463185134507
0.42699187054823,0.207696266464907
0.425307844963738,0.204891708641665
0.423547986933766,0.202049401491388
0.421711880860396,0.19916923484068
0.419799111145711,0.196251098516148
0.417809262191794,0.193294882344398
0.415741918400728,0.190300476152036
0.413596664174595,0.187267769765667
0.411373083915478,0.184196653011898
0.409070762025459,0.181087015717334
0.406689282906623,0.177938747708582
0.404228230961051,0.174751738812247
0.401687190590826,0.171525878854935
0.39906574619803,0.168261057663252
0.396363482184748,0.164957165063804
0.39357998295306,0.161614090883197
0.390714832905051,0.158231724948037
0.387767616442803,0.15480995708493
0.384737917968398,0.151348677120481
0.381625321883919,0.147847774881297
0.37842941259145,0.144307140193983
0.375149774493072,0.140726662885146
0.371785991990869,0.13710623278139
0.368337649486924,0.133445739709323
0.364804331383318,0.12974507349555
0.361185622082135,0.126004123966677
0.357481105985458,0.122222780949311
0.353690367495369,0.118400934270055
0.349812991013951,0.114538473755518
0.345848560943287,0.110635289232304
0.34179666168546,0.10669127052702
0.337656877642552,0.102706307466271
0.333428793216646,0.0986802898766634
0.329111992809825,0.0946131075848031
0.324706060824171,0.0905046504172962
0.320210581661768,0.0863548082007482
0.315625139724697,0.0821634707617654
0.310949319415043,0.0779305279269533
0.310949319415043,0.0779305279269533
0.30623457155343,0.0736911175260291
0.301532601619797,0.0694804125362193
0.296843376005191,0.0652983555053944
0.292166861100663,0.0611448889814252
0.287503023297262,0.0570199555121823
0.282851828986037,0.0529234976455363
0.278213244558037,0.0488554579293578
0.273587236404311,0.0448157789115175
0.268973770915908,0.0408044031398859
0.264372814483879,0.0368212731623337
0.259784333499271,0.0328663315267316
0.255208294353134,0.0289395207809501
0.250644663436518,0.0250407834728599
0.246093407140471,0.0211700621503315
0.241554491856043,0.0173272993612358
0.237027883974284,0.0135124376534431
0.232513549886241,0.0097254195748243
0.228011455982965,0.00596618767324985
0.223521568655504,0.00223468449659046
0.219043854294908,-0.00146914740728328
0.214578279292227,-0.00514536549050074
0.210124810038508,-0.00879402720519127
0.205683412924802,-0.0124151900034843
0.201254054342158,-0.0160089113375091
0.196836700681625,-0.0195752486593952
0.192431318334252,-0.0231142594212718
0.188037873691088,-0.0266260010752684
0.183656333143183,-0.0301105310735143
0.179286663081586,-0.0335679068681389
0.174928829897345,-0.0369981859112716
0.170582799981511,-0.0404014256550418
0.166248539725132,-0.0437776835515788
0.161926015519258,-0.047127017053012
0.157615193754937,-0.0504494836114707
0.15331604082322,-0.0537451406790844
0.149028523115155,-0.0570140457079825
0.144752607021792,-0.0602562561502942
0.140488258934179,-0.063471829458149
0.136235445243366,-0.0666608230836763
0.131994132340402,-0.0698232944790053
0.127764286616336,-0.0729593010962656
0.123545874462218,-0.0760689003875864
0.119338862269097,-0.0791521498050972
0.115143216428022,-0.0822091068009273
0.110958903330042,-0.085239828827206
0.106785889366206,-0.0882443733360629
0.102624140927564,-0.0912227977796271
0.0984736244051648,-0.0941751596100282
0.0943343061900577,-0.0971015162793955
0.0902061526732917,-0.100001925239858
0.0860891302459162,-0.102876443943546
0.0819832052989804,-0.105725129842588
0.0778883442235335,-0.108548040389114
0.0738045134106247,-0.111345233035253
0.0697316792513032,-0.114116765233134
0.0656698081366182,-0.116862694434887
0.061618866457619,-0.119583078092641
0.0575788206053547,-0.122277973658526
0.0535496369708746,-0.124947438584671
0.0495312819452279,-0.127591530323205
0.0455237219194638,-0.130210306326257
0.0415269232846314,-0.132803824045958
0.0375408524317801,-0.135372140934436
0.0335654757519591,-0.137915314443821
0.0296007596362175,-0.140433402026242
0.0256466704756045,-0.142926461133829
0.0217031746611694,-0.14539454921871
0.0177702385839614,-0.147837723733016
0.0138478286350297,-0.150256042128876
0.00993591120542346,-0.152649561858418
0.00603445268619193,-0.155018340373773
0.00214341946838445,-0.15736243512707
-0.00173722205694991,-0.159681903570438
-0.00560750549876197,-0.161976803156006
-0.00946746446600243,-0.164247191335904
-0.0133171325676221,-0.166493125562262
-0.0171565434125717,-0.168714663287208
-0.0209857306098021,-0.170911861962873
-0.0248047277682642,-0.173084779041384
-0.0286135684969085,-0.175233471974873
-0.032412286404686,-0.177357998215468
-0.0362009151005474,-0.179458415215298
-0.0399794881934436,-0.181534780426493
-0.0437480392923252,-0.183587151301182
-0.0475066020061432,-0.185615585291495
-0.0512552099438482,-0.187620139849561
-0.0549938967143911,-0.18960087242751
-0.0587226959267227,-0.19155784047747
-0.0624416411897937,-0.193491101451571
-0.0661507661125549,-0.195400712801943
-0.0698501043039571,-0.197286731980715
-0.0735396893729511,-0.199149216440016
-0.0772195549284877,-0.200988223631975
-0.0808897345795177,-0.202803811008723
-0.0845502619349919,-0.204596036022388
-0.0882011706038609,-0.2063649561251
-0.0918424941950758,-0.208110628768988
-0.0954742663175871,-0.209833111406181
-0.0990965205803458,-0.211532461488809
-0.102709290592303,-0.213208736469002
-0.106312609962408,-0.214861993798888
-0.109906512299613,-0.216492290930598
-0.113491031212869,-0.218099685316259
-0.117066200311126,-0.219684234408002
-0.120632053203335,-0.221245995657957
-0.124188623498447,-0.222785026518252
-0.127735944805413,-0.224301384441017
-0.131274050733182,-0.225795126878381
-0.134802974890707,-0.227266311282474
-0.138322750886938,-0.228714995105424
-0.141833412330826,-0.230141235799362
-0.145334992831321,-0.231545090816417
-0.148827525997375,-0.232926617608718
-0.152311045437938,-0.234285873628395
-0.15578558476196,-0.235622916327576
-0.159251177578394,-0.236937803158392
-0.162707857496188,-0.238230591572971
-0.166155658124295,-0.239501339023443
-0.169594613071665,-0.240750102961938
-0.173024755947249,-0.241976940840584
-0.176446120359998,-0.243181910111511
-0.179858739918862,-0.244365068226849
-0.183262648232792,-0.245526472638727
-0.186657878910739,-0.246666180799274
-0.190044465561654,-0.247784250160619
-0.193422441794487,-0.248880738174893
-0.19679184121819,-0.249955702294224
-0.200152697441713,-0.251009199970741
-0.203505044074007,-0.252041288656575
-0.206848914724022,-0.253052025803854
-0.21018434300071,-0.254041468864708
-0.213511362513021,-0.255009675291267
-0.216830006869907,-0.255956702535659
-0.220140309680317,-0.256882608050014
-0.223442304553203,-0.257787449286461
-0.226736025097515,-0.25867128369713
-0.230021504922204,-0.25953416873415
-0.233298777636222,-0.26037616184965
-0.236567876848518,-0.26119732049576
-0.239828836168044,-0.26199770212461
-0.24308168920375,-0.262777364188328
-0.246326469564587,-0.263536364139044
-0.249563210859507,-0.264274759428888
-0.252791946697459,-0.264992607509988
-0.256012710687394,-0.265689965834474
-0.259225536438264,-0.266366891854476
-0.262430457559019,-0.267023443022122
-0.265627507658609,-0.267659676789543
-0.268816720345987,-0.268275650608867
-0.271998129230102,-0.268871421932225
-0.275171767919905,-0.269447048211744
-0.278337670024347,-0.270002586899556
-0.281495869152378,-0.270538095447788
-0.284646398912951,-0.271053631308571
-0.287789292915015,-0.271549251934034
-0.290924584767521,-0.272025014776305
-0.29405230807942,-0.272480977287516
-0.297172496459662,-0.272917196919794
-0.300285183517199,-0.27333373112527
-0.303390402860982,-0.273730637356073
-0.30648818809996,-0.274107973064331
-0.309578572843086,-0.274465795702175
-0.312661590699309,-0.274804162721734
-0.31573727527758,-0.275123131575137
-0.318805660186851,-0.275422759714513
-0.321866779036072,-0.275703104591993
-0.324920665434194,-0.275964223659704
-0.327967352990167,-0.276206174369778
-0.331006875312943,-0.276429014174342
-0.334039266011471,-0.276632800525527
-0.337064558694704,-0.276817590875462
-0.340082786971592,-0.276983442676276
-0.343093984451085,-0.277130413380098
-0.346098184742134,-0.277258560439059
-0.349095421453691,-0.277367941305287
-0.352085728194705,-0.277458613430911
-0.355069138574128,-0.277530634268062
-0.358045686200911,-0.277584061268867
-0.361015404684004,-0.277618951885458
-0.363978327632358,-0.277635363569963
-0.366934488654923,-0.277633353774511
-0.369883921360652,-0.277612979951233
-0.372826659358493,-0.277574299552256
-0.375762736257399,-0.277517370029712
-0.37869218566632,-0.277442248835728
-0.381615041194207,-0.277348993422435
-0.38453133645001,-0.277237661241961
-0.387441105042681,-0.277108309746437
-0.39034438058117,-0.276960996387991
-0.393241196674427,-0.276795778618754
-0.396131586931405,-0.276612713890853
-0.399015584961052,-0.276411859656419
-0.401893224372322,-0.276193273367581
-0.404764538774163,-0.275957012476469
-0.407629561775527,-0.275703134435211
-0.410488326985364,-0.275431696695938
-0.413340868012626,-0.275142756710778
-0.416187218466264,-0.274836371931861
-0.419027411955227,-0.274512599811316
-0.421861482088467,-0.274171497801273
-0.424689462474935,-0.273813123353861
-0.427511386723581,-0.27343753392121
-0.430327288443356,-0.273044786955448
-0.433137201243211,-0.272634939908705
-0.435941158732097,-0.272208050233111
-0.438739194518964,-0.271764175380794
-0.441531342212764,-0.271303372803885
-0.444317635422446,-0.270825699954513
-0.447098107756963,-0.270331214284807
-0.449872792825264,-0.269819973246896
-0.452641724236301,-0.269292034292909
-0.455404935599023,-0.268747454874977
-0.458162460522383,-0.268186292445229
-0.460914332615331,-0.267608604455793
-0.463660585486817,-0.2670144483588
-0.466401252745793,-0.266403881606378
-0.469136368001209,-0.265776961650657
-0.471865964862015,-0.265133745943767
-0.474590076937164,-0.264474291937836
-0.477308737835605,-0.263798657084995
-0.480021981166289,-0.263106898837372
-0.482729840538168,-0.262399074647097
-0.485432349560191,-0.261675241966299
-0.48812954184131,-0.260935458247108
-0.490821450990475,-0.260179780941653
-0.493508110616638,-0.259408267502063
-0.496189554328749,-0.258620975380468
-0.498865815735758,-0.257817962028997
-0.501536928446617,-0.25699928489978
-0.504202926070277,-0.256165001444945
-0.506863842215687,-0.255315169116623
-0.5095197104918,-0.254449845366942
-0.512170564507565,-0.253569087648033
-0.514816437871934,-0.252672953412023
-0.517457364193858,-0.251761500111044
-0.520093377082286,-0.250834785197223
-0.52272451014617,-0.249892866122691
-0.525350796994461,-0.248935800339577
-0.52797227123611,-0.24796364530001
-0.530588966480066,-0.24697645845612
-0.533200916335282,-0.245974297260036
-0.535808154410708,-0.244957219163887
-0.538410714315294,-0.243925281619803
-0.541008629657991,-0.242878542079913
-0.543601934047751,-0.241817057996346
-0.546190661093524,-0.240740886821233
-0.54877484440426,-0.239650086006701
-0.551354517588912,-0.238544713004881
-0.553929714256428,-0.237424825267903
-0.556500468015761,-0.236290480247894
-0.55906681247586,-0.235141735396985
-0.561628781245677,-0.233978648167306
-0.564186407934163,-0.232801276010984
-0.566739726150268,-0.231609676380151
-0.569288769502943,-0.230403906726935
-0.571833571601139,-0.229184024503465
-0.574374166053806,-0.227950087161872
-0.576910586469896,-0.226702152154284
-0.57944286645836,-0.22544027693283
-0.581971039628147,-0.224164518949641
-0.584495139588209,-0.222874935656845
-0.587015199947496,-0.221571584506572
-0.58953125431496,-0.220254522950951
-0.592043336299551,-0.218923808442111
-0.59455147951022,-0.217579498432183
-0.597055717555917,-0.216221650373295
-0.599556084045595,-0.214850321717577
-0.602052612588202,-0.213465569917158
-0.604545336792691,-0.212067452424167
-0.607034290268011,-0.210656026690734
-0.609519506623114,-0.209231350168988
-0.612001019466951,-0.207793480311059
-0.614478862408471,-0.206342474569076
-0.616953069056627,-0.204878390395168
-0.619423673020368,-0.203401285241465
-0.621890707908647,-0.201911216560096
-0.624354207330412,-0.20040824180319
-0.626814204894616,-0.198892418422878
-0.629270734210208,-0.197363803871287
-0.631723828886141,-0.195822455600548
-0.634173522531364,-0.19426843106279
-0.636619848754828,-0.192701787710142
-0.639062841165484,-0.191122582994734
-0.641502533372283,-0.189530874368695
-0.643938958984176,-0.187926719284155
-0.646372151610113,-0.186310175193242
-0.648802144859046,-0.184681299548087
-0.651228972339924,-0.183040149800818
-0.6536526676617,-0.181386783403565
-0.656073264433323,-0.179721257808457
-0.658490796263744,-0.178043630467624
-0.660905296761915,-0.176353958833195
-0.663316799536785,-0.174652300357299
-0.665725338197307,-0.172938712492067
-0.668130946352429,-0.171213252689626
-0.670533657611105,-0.169475978402107
-0.672933505582283,-0.167726947081639
-0.675330523874915,-0.165966216180351
-0.677724746097952,-0.164193843150373
-0.680116205860344,-0.162409885443834
-0.682504936771043,-0.160614400512864
-0.684890972438998,-0.158807445809591
-0.687274346473162,-0.156989078786145
-0.689655092482484,-0.155159356894656
-0.692033244075915,-0.153318337587253
-0.694408834862407,-0.151466078316065
-0.69678189845091,-0.149602636533222
-0.699152468450374,-0.147728069690853
-0.701520578469751,-0.145842435241087
-0.703886262117991,-0.143945790636054
-0.706249553004046,-0.142038193327884
-0.708610484736865,-0.140119700768704
-0.7109690909254,-0.138190370410646
-0.713325405178602,-0.136250259705838
-0.715679461105421,-0.13429942610641
-0.718031292314808,-0.132337927064491
-0.720380932415713,-0.13036582003221
-0.722728415017089,-0.128383162461697
-0.725073773727885,-0.12639001180508
-0.727417042157052,-0.124386425514491
-0.729758253913541,-0.122372461042058
-0.732097442606302,-0.120348175839909
-0.734434641844288,-0.118313627360176
-0.736769885236448,-0.116268873054986
-0.739103206391732,-0.11421397037647
-0.741434638919093,-0.112148976776757
-0.743764216427481,-0.110073949707975
-0.746091972525846,-0.107988946622256
-0.748417940823139,-0.105894024971727
-0.750742154928312,-0.103789242208518
-0.753064648450314,-0.101674655784759
-0.755385454998097,-0.0995503231525797
-0.757704608180611,-0.0974163017641081
-0.760022141606808,-0.0952726490714745
-0.762338088885638,-0.0931194225268079
-0.764652483626051,-0.0909566795822379
-0.766965359436999,-0.0887844776898937
-0.769276749927432,-0.0866028743019048
-0.771586688706302,-0.0844119268704005
-0.773895209382559,-0.0822116928475103
-0.776202345565153,-0.0800022296853634
-0.778508130863035,-0.0777835948360893
-0.780812598885158,-0.0755558457518173
-0.78311578324047,-0.0733190398846769
-0.785417717537923,-0.0710732346867973
-0.787718435386468,-0.068818487610308
-0.790017970395055,-0.0665548561073382
-0.792316356172635,-0.0642823976300176
-0.79461362632816,-0.0620011696304752
-0.796909814470579,-0.0597112295608407
-0.799204954208844,-0.0574126348732432
-0.801499079151905,-0.0551054430198123
-0.803792222908714,-0.0527897114526772
-0.80608441908822,-0.0504654976239674
-0.808375701299375,-0.0481328589858122
-0.81066610315113,-0.045791852990341
-0.812955658252435,-0.0434425370896832
-0.815244400212241,-0.0410849687359681
-0.817532362639499,-0.0387192053813251
-0.81981957914316,-0.0363453044778836
-0.822106083332174,-0.033963323477773
-0.824391908815493,-0.0315733198331226
-0.826677089202066,-0.0291753509960618
-0.828961658100846,-0.0267694744187201
-0.831245649120782,-0.0243557475532266
-0.833529095870825,-0.021934227851711
-0.835812031959927,-0.0195049727663023
-0.838094490997037,-0.0170680397491303
-0.840376506591108,-0.014623486252324
-0.842658112351088,-0.0121713697280131
-0.844939341885931,-0.0097117476283266
-0.847220228804585,-0.00724467740539423
-0.849500806716002,-0.00477021651134509
-0.851781109229133,-0.0022884223983088
-0.854061169952929,0.000200647481585499
-0.856341022496339,0.00269693567620821
-0.858620700468316,0.00520038473343018
-0.86090023747781,0.00771093720112183
-0.863179667133771,0.010228535627154
-0.865459023045151,0.0127531225593971
-0.8677383388209,0.0152846405457219
-0.870017648069969,0.0178230321339989
-0.872296984401309,0.020368239872099
-0.87457638142387,0.0229202063078924
-0.876855872746604,0.0254788739892501
-0.879135491978461,0.0280441854640425
-0.881415272728391,0.0306160832801405
-0.883695248605347,0.0331945099854143
-0.885975453218278,0.0357794081277349
-0.888255920176135,0.0383707202549727
-0.890536683087869,0.0409683889149986
-0.892817775562432,0.0435723566556828
-0.895099231208773,0.0461825660248964
-0.897381083635843,0.0487989595705096
-0.899663366452593,0.0514214798403933
-0.901946113267975,0.054050069382418
-0.904229357690938,0.0566846707444545
-0.906513133330434,0.0593252264743732
-0.908797473795414,0.0619716791200449
-0.908797473795414,0.0619716791200449
-0.911056672461287,0.064591227276458
-0.913265143286347,0.0671513631921215
-0.915423100753869,0.0696524698951867
-0.917530759347127,0.0720949304138049
-0.919588333549396,0.0744791277761273
-0.92159603784395,0.0768054450103053
-0.923554086714064,0.0790742651444901
-0.925462694643012,0.081285971206833
-0.927322076114069,0.0834409462254853
-0.929132445610509,0.0855395732285983
-0.930894017615607,0.0875822352443232
-0.932607006612638,0.0895693153008114
-0.934271627084876,0.0915011964262141
-0.935888093515594,0.0933782616486825
-0.937456620388069,0.095200893996368
-0.938977422185575,0.0969694764974219
-0.940450713391386,0.0986843921799955
-0.941876708488776,0.10034602407224
-0.943255621961021,0.101954755202307
-0.944587668291394,0.103510968598347
-0.945873061963171,0.105015047288512
-0.947112017459626,0.106467374300953
-0.948304749264032,0.107868332663821
-0.949451471859666,0.109218305405268
-0.950552399729802,0.110517675553445
-0.951607747357712,0.111766826136502
-0.952617729226674,0.112966140182593
-0.953582559819961,0.114116000719867
-0.954502453620847,0.115216790776476
-0.955377625112607,0.116268893380572
-0.956208288778516,0.117272691560305
-0.956994659101848,0.118228568343826
-0.957736950565878,0.119136906759289
-0.95843537765388,0.119998089834842
-0.959090154849129,0.120812500598638
-0.959701496634899,0.121580522078828
-0.960269617494466,0.122302537303564
-0.960794731911102,0.122978929300996
-0.961277054368083,0.123610081099275
-0.961716799348684,0.124196375726554
-0.96211418133618,0.124738196210984
-0.962469414813843,0.125235925580715
-0.96278271426495,0.125689946863898
-0.963054294172774,0.126100643088687
-0.96328436902059,0.12646839728323
-0.963473153291673,0.126793592475681
-0.963620861469298,0.127076611694189
-0.963727708036738,0.127317837966907
-0.963793907477269,0.127517654321986
-0.963819674274164,0.127676443787576
-0.963805222910698,0.12779458939183
-0.963750767870147,0.127872474162898
-0.963656523635785,0.127910481128932
-0.963522704690885,0.127908993318083
-0.963349525518722,0.127868393758503
-0.963137200602572,0.127789065478342
-0.962885944425709,0.127671391505751
-0.962595971471406,0.127515754868884
-0.962267496222939,0.127322538595889
-0.961900733163582,0.127092125714919
-0.961495896776611,0.126824899254126
-0.961053201545298,0.126521242241659
-0.960572861952919,0.126181537705671
-0.960055092482749,0.125806168674313
-0.959500107618062,0.125395518175736
-0.958908121842132,0.124949969238092
-0.958279349638234,0.124469904889531
-0.957614005489643,0.123955708158206
-0.956912303879632,0.123407762072266
-0.956174459291477,0.122826449659864
-0.955400686208453,0.122212153949151
-0.954591199113833,0.121565257968278
-0.953746212490892,0.120886144745397
-0.952865940822905,0.120175197308658
-0.951950598593146,0.119432798686213
-0.951000400284891,0.118659331906214
-0.950015560381413,0.11785517999681
-0.948996293365986,0.117020725986155
-0.947942813721885,0.116156352902399
-0.946855335932386,0.115262443773693
-0.945734074480763,0.114339381628189
-0.944579243850289,0.113387549494038
-0.94339105852424,0.112407330399391
-0.94216973298589,0.111399107372399
-0.940915481718514,0.110363263441214
-0.939628519205386,0.109300181633988
-0.93830905992978,0.10821024497887
-0.936957318374973,0.107093836504014
-0.935573509024236,0.105951339237569
-0.934157846360847,0.104783136207687
-0.932710544868077,0.10358961044252
-0.931231819029204,0.102371144970219
-0.9297218833275,0.101128122818934
-0.928180952246241,0.099860927016818
-0.926609240268701,0.0985699405920215
-0.925006961878155,0.0972555465726958
-0.923374331557876,0.0959181279869924
-0.92171156379114,0.0945580678630624
-0.920018873061222,0.093175749229057
-0.918296473851395,0.0917715551131277
-0.916544580644934,0.0903458685434257
-0.914763407925115,0.0888990725481021
-0.91295317017521,0.0874315501553085
-0.911114081878496,0.085943684393196
-0.909246357518245,0.0844358582899159
-0.907350211577734,0.0829084548736195
-0.905425858540236,0.081361857172458
-0.903473512889027,0.0797964482145828
-0.901493389107379,0.0782126110281452
-0.899485701678569,0.0766107286412963
-0.897450665085871,0.0749911840821875
-0.895388493812558,0.0733543603789701
-0.893299402341907,0.0717006405597954
-0.891183605157191,0.0700304076528147
-0.889041316741684,0.0683440446861791
-0.886872751578662,0.06664193468804
-0.884678124151398,0.0649244606865488
-0.882457648943168,0.0631920057098565
-0.880211540437246,0.0614449527861146
-0.877940013116907,0.0596836849434744
-0.875643281465424,0.0579085852100871
-0.873321559966073,0.0561200366141039
-0.870975063102128,0.0543184221836762
-0.868604005356864,0.0525041249469554
-0.866208601213554,0.0506775279320925
-0.863789065155475,0.0488390141672389
-0.861345611665899,0.0469889666805459
-0.858878455228103,0.0451277685001649
-0.85638781032536,0.043255802654247
-0.853873891440944,0.0413734521709435
-0.851336913058131,0.0394811000784057
-0.848777089660195,0.037579129404785
-0.846194635730411,0.0356679231782325
-0.843589765752052,0.0337478644268996
-0.840962694208394,0.0318193361789375
-0.838313635582711,0.0298827214624976
-0.835642804358277,0.0279384033057312
-0.832950415018368,0.0259867647367894
-0.830236682046257,0.0240281887838235
-0.82750181992522,0.0220630584749849
-0.82474604313853,0.0200917568384249
-0.821969566169462,0.0181146669022947
-0.819172603501292,0.0161321716947455
-0.816355369617293,0.0141446542439289
-0.813518079000739,0.0121524975779958
-0.810660946134906,0.0101560847250977
-0.807784185503068,0.00815579871338576
-0.8048880115885,0.00615202257101142
-0.801972638874476,0.00414513932612584
-0.79903828184427,0.00213553200688033
-0.796085154981157,0.000123583641426131
-0.793113472768412,-0.00189032274208541
-0.79012344968931,-0.00390580411550299
-0.787115300227123,-0.00592247745067545
-0.784089238865128,-0.00793995971945141
-0.7810454800866,-0.00995786789367957
-0.777984238374811,-0.0119758189452087
-0.774905728213037,-0.0139934298458875
-0.771810164084553,-0.0160103175675647
-0.768697760472633,-0.0180260990820891
-0.765568731860551,-0.0200403913613092
-0.762423292731582,-0.0220528113770739
-0.759261657569,-0.0240629761012319
-0.756084040856081,-0.0260705025056318
-0.752890657076099,-0.0280750075621225
-0.749681720712328,-0.0300761082425526
-0.746457446248042,-0.0320734215187709
-0.743218048166516,-0.034066564362626
-0.739963740951026,-0.0360551537459666
-0.736694739084845,-0.0380388066406416
-0.733411257051247,-0.0400171400184996
-0.730113509333508,-0.0419897708513894
-0.726801710414902,-0.0439563161111595
-0.723476074778704,-0.0459163927696589
-0.720136816908187,-0.0478696177987362
-0.716784151286627,-0.04981560817024
-0.713418292397299,-0.0517539808560193
-0.710039454723475,-0.0536843528279225
-0.706647852748432,-0.0556063410577985
-0.703243700955444,-0.057519562517496
-0.699827213827785,-0.0594236341788637
-0.696398605848729,-0.0613181730137503
-0.692958091501552,-0.0632027959940046
-0.689505885269528,-0.0650771200914752
-0.686042201635931,-0.0669407622780109
-0.682567255084036,-0.0687933395254604
-0.679081260097118,-0.0706344688056724
-0.675584431158451,-0.0724637670904956
-0.672076982751309,-0.0742808513517788
-0.668559129358967,-0.0760853385613707
-0.6650310854647,-0.0778768456911199
-0.661493065551782,-0.0796549897128753
-0.657945284103488,-0.0814193875984855
-0.654387955603091,-0.0831696563197992
-0.650821294533868,-0.0849054128486652
-0.647245515379092,-0.0866262741569322
-0.643660832622038,-0.0883318572164488
-0.64006746074598,-0.090021778999064
-0.636465614234193,-0.0916956564766262
-0.632855507569952,-0.0933531066209842
-0.62923735523653,-0.0949937464039869
-0.625611371717203,-0.0966171927974829
-0.621977771495245,-0.0982230627733209
-0.618336769053931,-0.0998109733033495
-0.614688578876535,-0.101380541359418
-0.611033415446332,-0.102931383913374
-0.607371493246595,-0.104463117937067
-0.603703026760601,-0.105975360402346
-0.600028230471623,-0.107467728281059
-0.596347318862935,-0.108939838545055
-0.592660506417813,-0.110391308166183
-0.588968007619531,-0.111821754116292
-0.585270036951363,-0.113230793367229
-0.581566808896585,-0.114618042890845
-0.57785853793847,-0.115983119658987
-0.574145438560292,-0.117325640643504
-0.570427725245328,-0.118645222816246
-0.56670561247685,-0.11994148314906
-0.562979314738135,-0.121214038613796
-0.559249046512455,-0.122462506182302
-0.555515022283086,-0.123686502826427
-0.551777456533303,-0.12488564551802
-0.548036563746379,-0.126059551228929
-0.544292558405589,-0.127207836931003
-0.540545654994209,-0.128330119596091
-0.536796067995512,-0.129426016196042
-0.533044011892772,-0.130495143702704
-0.529289701169266,-0.131537119087925
-0.525533350308266,-0.132551559323556
-0.521775173793048,-0.133538081381444
-0.518015386106886,-0.134496302233438
-0.514254201733055,-0.135425838851387
-0.510491835154828,-0.136326308207139
-0.506728500855482,-0.137197327272544
-0.50296441331829,-0.138038513019449
-0.499199787026527,-0.138849482419705
-0.495434836463466,-0.139629852445159
-0.491669776112384,-0.14037924006766
-0.487904820456555,-0.141097262259057
-0.484140183979252,-0.141783535991198
-0.48037608116375,-0.142437678235933
-0.476612726493325,-0.14305930596511
-0.47285033445125,-0.143648036150578
-0.469089119520801,-0.144203485764185
-0.46532929618525,-0.14472527177778
-0.461571078927875,-0.145213011163212
-0.457814682231947,-0.14566632089233
-0.454060320580744,-0.146084817936982
-0.450308208457537,-0.146468119269017
-0.446558560345604,-0.146815841860284
-0.442811590728216,-0.147127602682632
-0.439067514088651,-0.147403018707909
-0.435326544910181,-0.147641706907963
-0.431588897676082,-0.147843284254645
-0.427854786869628,-0.148007367719801
-0.424124426974093,-0.148133574275282
-0.420398032472752,-0.148221520892936
-0.416675817848881,-0.148270824544611
-0.412957997585752,-0.148281102202156
-0.409244786166641,-0.148251970837421
-0.405536398074822,-0.148183047422253
-0.40183304779357,-0.148073948928501
-0.398134949806159,-0.147924292328015
-0.394442318595864,-0.147733694592642
-0.390755368645959,-0.147501772694232
-0.387074314439719,-0.147228143604634
-0.383399370460419,-0.146912424295695
-0.379730751191333,-0.146554231739265
-0.376068671115735,-0.146153182907192
-0.3724133447169,-0.145708894771326
-0.368764986478103,-0.145220984303514
-0.365123810882618,-0.144689068475606
-0.36149003241372,-0.144112764259451
-0.357863865554683,-0.143491688626896
-0.354245524788781,-0.142825458549791
-0.350635224599291,-0.142113690999985
-0.347033179469484,-0.141356002949325
-0.343439603882637,-0.140552011369662
-0.339854712322024,-0.139701333232843
-0.33627871927092,-0.138803585510718
-0.332711839212598,-0.137858385175135
-0.329154286630334,-0.136865349197942
-0.325606276007402,-0.135824094550989
-0.322068021827077,-0.134734238206124
-0.318539738572633,-0.133595397135196
-0.315021640727344,-0.132407188310054
-0.311513942774485,-0.131169228702546
-0.308016859197332,-0.129881135284522
-0.304530604479157,-0.128542525027829
-0.301055393103237,-0.127153014904316
-0.297591439552844,-0.125712221885833
-0.294138958311255,-0.124219762944228
-0.290698163861743,-0.122675255051349
-0.287269270687583,-0.121078315179046
-0.283852493272049,-0.119428560299167
-0.280448046098417,-0.117725607383561
-0.27705614364996,-0.115969073404076
-0.273677000409953,-0.114158575332562
-0.270310830861671,-0.112293730140866
-0.266957849488388,-0.110374154800839
-0.263618270773379,-0.108399466284327
-0.260292309199918,-0.106369281563181
-0.25698017925128,-0.104283217609249
-0.253682095410739,-0.102140891394379
-0.25039827216157,-0.099941919890421
-0.247128923987047,-0.0976859200692227
-0.243874265370445,-0.095372508902633
-0.240634510795039,-0.093001303362501
-0.237409874744103,-0.090571920420675
-0.234200571700911,-0.0880839770490039
-0.231006816148739,-0.0855370902193365
-0.22782882257086,-0.0829308769035214
-0.224666805450549,-0.0802649540734073
-0.221520979271081,-0.0775389387008431
-0.21839155851573,-0.0747524477576772
-0.215278757667771,-0.0719050982157587
-0.212182791210479,-0.0689965070469359
-0.209103873627127,-0.066026291223058
-0.20604221940099,-0.0629940677159733
-0.202998043015344,-0.0598994534975308
-0.199971558953462,-0.0567420655395789
-0.196962981698619,-0.0535215208139667
-0.193972525734089,-0.0502374362925426
-0.191000405543148,-0.0468894289471556
-0.188046835609069,-0.0434771157496542
-0.185112030415127,-0.0400001136718872
-0.182196204444597,-0.0364580396857033
-0.179299572180753,-0.0328505107629513
-0.17642234810687,-0.0291771438754797
-0.173564746706222,-0.0254375559951376
-0.170726982462085,-0.0216313640937732
-0.167909269857731,-0.0177581851432357
-0.165111823376436,-0.0138176361153735
-0.162334857501475,-0.00980933398203565
-0.159578586716122,-0.00573289571507038
-0.156843225503652,-0.00158793828632696
-0.154128988347338,0.00262592133234639
-0.151436089730456,0.00690906616910054
-0.14876474413628,0.0112618792520871
-0.146115166048085,0.0156847436094571
-0.143487569949145,0.0201780422693621
-0.140882170322735,0.024742158259953
-0.138299181652129,0.0293774746093814
-0.135738818420602,0.0340843743457984
-0.133201295111428,0.0388632404973555
-0.130686826207882,0.0437144560922036
-0.128195626193239,0.0486384041584945
-0.125727909550772,0.053635467724379
-0.123283890763757,0.0587060298180087
-0.120863784315469,0.0638504734675347
-0.11846780468918,0.0690691817011084
-0.116096166368167,0.0743625375468809
-0.113749083835704,0.0797309240330038
-0.111426771575064,0.085174724187628
-0.109129444069524,0.0906943210389051
-0.106857315802356,0.0962900976149861
-0.104610601256837,0.101962436944023
-0.10238951491624,0.107711722054166
-0.100194271263839,0.113538335973567
-0.0980250847829105,0.119442661730377
-0.0958821699567275,0.125425082352747
-0.0937657412685652,0.131485980868829
-0.0916760132016978,0.137625740306775
-0.0896132002394,0.143844743694734
-0.0875775168649462,0.15014337406086
-0.0855691775616112,0.156522014433302
-0.0835883968126693,0.162981047840212
-0.0816353891013952,0.169520857309742
-0.0797103689110632,0.176141825870042
-0.0778135507249481,0.182844336549264
-0.0759451490263243,0.18962877237556
-0.0741053782984664,0.19649551637708
-0.0722944530246488,0.203444951581976
-0.0705125876881463,0.210477461018399
-0.0687599967722332,0.217593427714501
-0.0670368947601841,0.224793234698432
-0.0653434961352735,0.232077264998344
-0.0636800153807761,0.239445901642389
-0.0620466669799663,0.246899527658717
-0.0604436654161187,0.254438526075479
-0.0588712251725077,0.262063279920828
-0.057329560732408,0.269774172222914
-0.0558188865790941,0.277571586009889
-0.0543394171958405,0.285455904309904
-0.0528913670659217,0.29342751015111
-0.0514749506726123,0.301486786561659
-0.0500903824991869,0.309634116569701
-0.0487378770289199,0.317869883203388
-0.0474176487450859,0.326194469490872
-0.0461299121309595,0.334608258460303
-0.0448748816698151,0.343111633139833
-0.0436527718449274,0.351704976557614
-0.0424637971395707,0.360388671741796
-0.0413081720370198,0.36916310172053
-0.0401861110205491,0.378028649521969
-0.0390978285734332,0.386985698174263
-0.0380435391789466,0.396034630705563
-0.0370234573203638,0.405175830144021
-0.0360377974809594,0.414409679517789
