-0.0917032521273811,-0.0459995388323962
0.189794832053547,-0.820274478224901
-0.447681999266759,0.429463045083278
-0.621448214341537,0.237488497295108
-0.795214429416316,0.0455139495069388
0.340294928053602,-0.0587570628528262
-0.0498735306270965,-0.694142062449306
-0.440041989307795,-1.32952706204579
0.20118010322104,-0.176229343383719
0.502787478665596,-0.176532948468721
