-0.205620796932452,-0.75655828357752
-0.207889196990153,-0.74429467931176
-0.210102763488369,-0.732103729017621
-0.212261841207187,-0.719985235032562
-0.214366774926689,-0.70793899969404
-0.21641790942696,-0.695964825339514
-0.218415589488084,-0.684062514306442
-0.220360159890145,-0.672231868932282
-0.222251965413228,-0.660472691554492
-0.224091350837417,-0.64878478451053
-0.225878660942796,-0.637167950137854
-0.227614240509449,-0.625621990773923
-0.229298434317461,-0.614146708756195
-0.230931587146916,-0.602741906422128
-0.232514043777897,-0.591407386109181
-0.234046148990489,-0.58014295015481
-0.235528247564777,-0.568948400896474
-0.236960684280844,-0.557823540671633
-0.238343803918775,-0.546768171817743
-0.239677951258654,-0.535782096672263
-0.240963471080565,-0.524865117572651
-0.242200708164593,-0.514017036856365
-0.243390007290821,-0.503237656860864
-0.244531713239334,-0.492526779923605
-0.245626170790216,-0.481884208382047
-0.246673724723551,-0.471309744573647
-0.247674719819424,-0.460803190835865
-0.248629500857919,-0.450364349506158
-0.249538412619119,-0.439993022921984
-0.25040179988311,-0.429689013420802
-0.251220007429975,-0.419452123340069
-0.251993380039799,-0.409282155017244
-0.252722262492665,-0.399178910789786
-0.253406999568659,-0.389142192995151
-0.254047936047863,-0.379171803970798
-0.254645416710364,-0.369267546054186
-0.255199786336244,-0.359429221582773
-0.255711389705587,-0.349656632894016
-0.256180571598479,-0.339949582325375
-0.256607676795003,-0.330307872214306
-0.256993050075244,-0.320731304898269
-0.257337036219286,-0.311219682714721
-0.257639980007212,-0.30177280800112
-0.257902226219108,-0.292390483094926
-0.258124119635057,-0.283072510333595
-0.258306005035144,-0.273818692054586
-0.258448227199452,-0.264628830595358
-0.258551130908067,-0.255502728293367
-0.258615060941072,-0.246440187486074
-0.258640362078551,-0.237441010510935
-0.258627379100589,-0.228504999705409
-0.25857645678727,-0.219631957406954
-0.258487939918678,-0.210821685953028
-0.258362173274898,-0.202073987681089
-0.258199501636013,-0.193388664928596
-0.258000269782108,-0.184765520033006
-0.257764822493267,-0.176204355331779
-0.257493504549574,-0.167704973162371
-0.257186660731114,-0.159267175862241
-0.25684463581797,-0.150890765768848
-0.256467774590227,-0.142575545219649
-0.25605642182797,-0.134321316552103
-0.255610922311281,-0.126127882103667
-0.255131620820247,-0.1179950442118
-0.25461886213495,-0.109922605213961
-0.254072991035475,-0.101910367447607
-0.253494352301906,-0.0939581332501956
-0.252883290714327,-0.0860657049591862
-0.252240151052823,-0.0782328849120365
-0.251565278097478,-0.0704594754462048
-0.250859016628376,-0.0627452788991489
-0.250121711425601,-0.0550900976083273
-0.249353707269238,-0.0474937339111981
-0.248555348939371,-0.0399559901452195
-0.247726981216083,-0.0324766686478493
-0.24686894887946,-0.025055571756546
-0.245981596709585,-0.0176925018087678
-0.245065269486542,-0.0103872611419728
-0.244120311990417,-0.00313965209361894
-0.243147069001292,0.00405052299883535
-0.242145885299252,0.011183461797932
-0.241117105664382,0.0182593619662129
-0.240061074876766,0.0252784211662199
-0.238978137716488,0.0322408370604947
-0.237868638963631,0.0391468073115794
-0.236732923398281,0.0459965295820155
-0.235571335800522,0.0527902015343451
-0.234384220950437,0.0595280208311099
-0.233171923628111,0.0662101851348518
-0.231934788613629,0.0728368921081127
-0.230673160687073,0.0794083394134344
-0.22938738462853,0.0859247247133586
-0.228077805218082,0.0923862456704274
-0.226744767235815,0.0987930999471823
-0.225388615461811,0.105145485206166
-0.224009694676156,0.111443599109919
-0.222608349658934,0.117687639320984
-0.221184925190229,0.123877803501902
-0.219739766050124,0.130014289315216
-0.218273217018706,0.136097294423468
-0.216785622876056,0.142127016489198
-0.215277328402261,0.14810365317495
-0.213748678377404,0.154027402143265
-0.212200017581568,0.159898461056684
-0.21063169079484,0.16571702757775
-0.209044042797302,0.171483299369004
-0.207437418369038,0.177197474092988
-0.205812162290134,0.182859749412245
-0.204168619340674,0.188470322989315
-0.20250713430074,0.194029392486741
-0.200828051950419,0.199537155567065
-0.199131717069793,0.204993809892828
-0.197418474438948,0.210399553126573
-0.195688668837967,0.21575458293084
-0.193942645046934,0.221059096968173
-0.192180747845935,0.226313292901112
-0.190403322015052,0.2315173683922
-0.188610712334371,0.236671521103978
-0.186803263583975,0.241775948698989
-0.184981320543949,0.246830848839774
-0.183145227994377,0.251836419188874
-0.181295330715343,0.256792857408833
-0.179431973486932,0.261700361162191
-0.177555501089227,0.266559128111491
-0.175666258302312,0.271369355919275
-0.173764589906273,0.276131242248083
-0.171850840681193,0.280844984760458
-0.169925355407156,0.285510781118943
-0.167988478864247,0.290128828986078
-0.16604055583255,0.294699326024405
-0.164081931092149,0.299222469896467
-0.162112949423129,0.303698458264805
-0.160133955605572,0.308127488791962
-0.158145294419565,0.312509759140478
-0.156147310645191,0.316845466972896
-0.154140349062533,0.321134809951757
-0.152124754451677,0.325377985739605
-0.150100871592707,0.329575191998979
-0.148069045265707,0.333726626392422
-0.14602962025076,0.337832486582476
-0.143982941327952,0.341892970231684
-0.141929353277367,0.345908275002586
-0.139869200879088,0.349878598557724
-0.137802828913199,0.353804138559641
-0.135730582159787,0.357685092670877
-0.133652805398933,0.361521658553976
-0.131569843410723,0.365314033871479
-0.129482040975241,0.369062416285927
-0.12738974287257,0.372767003459863
-0.125293293882797,0.376427993055828
-0.123193038786003,0.380045582736365
-0.121089322362274,0.383619970164014
-0.118982489391694,0.387151353001319
-0.116872884654347,0.39063992891082
-0.114760852930317,0.394085895555059
-0.112646738999689,0.397489450596579
-0.110530887642547,0.400850791697922
-0.108413643638974,0.404170116521628
-0.106295351769056,0.407447622730241
-0.104176356812876,0.410683507986301
-0.102057003550519,0.413877969952351
-0.0999376367620683,0.417031206290932
-0.0978186012276089,0.420143414664586
-0.0957002417272247,0.423214792735856
-0.093582903041,0.426245538167283
-0.0914669299490191,0.429235848621408
-0.0893526672313659,0.432185921760774
-0.0872404596681249,0.435095955247923
-0.0851306520393803,0.437966146745396
-0.0830235891252163,0.440796693915735
-0.080919615705717,0.443587794421482
-0.0788190765609667,0.446339645925179
-0.0767223164710496,0.449052446089367
-0.07462968021605,0.45172639257659
-0.072541512576052,0.454361683049387
-0.0704581583311398,0.456958515170302
-0.0683799622613978,0.459517086601876
-0.06630726914691,0.462037595006651
-0.0642404237677608,0.464520238047168
-0.0621797709040342,0.46696521338597
-0.0601256553358147,0.469372718685599
-0.0580784218431863,0.471742951608596
-0.0560384152062333,0.474076109817503
-0.0540059802050398,0.476372390974861
-0.0519814616196903,0.478631992743214
-0.0499652042302688,0.480855112785102
-0.0479575528168594,0.483041948763068
-0.0459588521595466,0.485192698339653
-0.0439694470384145,0.487307559177399
-0.0419896822335473,0.489386728938848
-0.0400199025250291,0.491430405286542
-0.0380604526929443,0.493438785883023
-0.0361116775173771,0.495412068390832
-0.0341739217784117,0.497350450472512
-0.0322475302561322,0.499254129790603
-0.030332847730623,0.501123304007649
-0.0284302189819681,0.502958170786191
-0.026539988790252,0.50475892778877
-0.0246625019355586,0.506525772677929
-0.0227981031979724,0.508258903116209
-0.0209471373575774,0.509958516766153
-0.019109949194458,0.511624811290301
-0.0172868834886983,0.513257984351197
-0.0154782850203824,0.514858233611381
-0.0136844985695949,0.516425756733396
-0.0119058689164196,0.517960751379783
-0.010142740840941,0.519463415213085
-0.00839545912324317,0.520933945895842
-0.00666436854341042,0.522372541090598
-0.00494981388152687,0.523779398459893
-0.00325213991767684,0.52515471566627
-0.00157169143194439,0.526498690372271
9.11867955860624e-05,0.527811520240437
0.00173614998483048,0.52909340293331
0.00336285335570448,0.530344536113432
0.00497095212812403,0.531565117443345
0.0065601015220047,0.53275534458559
0.00812995675726244,0.53391541520271
0.00968017305381294,0.535045526957246
0.0112104056315721,0.536145877511741
0.0127203097104555,0.537216664528736
0.0142095405103792,0.538258085670772
0.0156777532512587,0.539270338600393
0.01712460315301,0.540253620980138
0.0185497454355487,0.541208130472552
0.0199528353187908,0.542134064740174
0.0213335280226518,0.543031621445548
0.0226914787670478,0.543900998251214
0.0240263427718943,0.544742392819715
0.0253377752571073,0.545556002813593
0.0266254314426024,0.54634202589539
0.0278889665482955,0.547100659727646
0.0291280357941024,0.547832101972905
0.0303422943999388,0.548536550293708
0.0315313975857206,0.549214202352596
0.0326950005713634,0.549865255812113
0.0338327585767832,0.550489908334798
0.0349443268218956,0.551088357583195
0.0360293605266164,0.551660801219845
0.0370875149108615,0.55220743690729
0.0381184451945466,0.552728462308072
0.0391218065975875,0.553224075084733
0.0400972543399,0.553694472899814
0.0410444436413999,0.554139853415858
0.0419630297220029,0.554560414295406
0.0428526678016249,0.554956353201
0.0437130131001815,0.555327867795182
0.0445437208375887,0.555675155740493
0.0453444462337621,0.555998414699476
0.0461148445086176,0.556297842334673
0.046854570882071,0.556573636308625
0.047563280574038,0.556825994283873
0.0482406288044344,0.557055113922961
0.048886270793176,0.55726119288843
0.0494998617601785,0.557444428842821
0.0500810569253579,0.557605019448677
0.0506295115086297,0.557743162368539
0.0511448807299099,0.557859055264949
0.0516268198091142,0.557952895800449
0.0520749839661584,0.558024881637581
0.0524890284209583,0.558075210438887
0.0528686083934296,0.558104079866908
0.0532133791034882,0.558111687584186
0.0535229957710498,0.558098231253264
0.0537971136160302,0.558063908536683
0.0540353878583452,0.558008917096984
0.0542374737179106,0.55793345459671
0.0544030264146421,0.557837718698403
0.0545317011684556,0.557721907064604
0.0546231531992667,0.557586217357856
0.0546770377269914,0.557430847240699
0.0546930099715454,0.557255994375676
0.0546707251528444,0.55706185642533
0.0546098384908043,0.5568486310522
0.0545100052053408,0.55661651591883
0.0543708805163697,0.556365708687762
0.0541921196438069,0.556096407021536
0.053973377807568,0.555808808582696
0.0537143102275689,0.555503111033782
0.0534145721237253,0.555179512037337
0.0530738187159531,0.554838209255902
0.0526917052241679,0.55447940035202
0.0522678868682857,0.554103282988232
0.0518020188682222,0.55371005482708
0.0512937564438931,0.553299913531105
0.0507427548152142,0.552873056762851
0.0501486692021014,0.552429682184858
0.0495111548244704,0.551969987459668
0.048829866902237,0.551494170249823
0.048104460655317,0.551002428217866
0.0473345913036261,0.550494959026337
0.0465199140670802,0.549971960337779
0.045660084165595,0.549433629814734
0.0447547568190862,0.548880165119743
0.0438035872474699,0.548311763915348
0.0428062306706615,0.547728623864091
0.0417623423085771,0.547130942628515
0.0406715773811322,0.546518917871159
0.0395335911082428,0.545892747254568
0.0383480387098245,0.545252628441282
0.0371145754057934,0.544598759093843
0.0358328564160649,0.543931336874794
0.034502536960555,0.543250559446675
0.0331232722591794,0.54255662447203
0.031694717531854,0.541849729613398
0.0302165279984944,0.541130072533324
0.0286883588790166,0.540397850894348
0.0271098653933361,0.539653262359011
0.025480702761369,0.538896504589857
0.0238005262030309,0.538127775249427
0.0220689909382376,0.537347272000262
0.0202857521869049,0.536555192504905
0.0184504651689486,0.535751734425898
0.0165627851042844,0.534937095425781
0.0146223672128282,0.534111473167098
0.0126288667144956,0.533275065312389
0.0105819388292028,0.532428069524197
0.00848123877686505,0.531570683465064
0.0063264217773985,0.530703104797531
0.00411714305071869,0.529825531184141
0.00185305781674167,0.528938160287434
-0.00046617870461705,0.528041189769954
-0.00284091129344142,0.527134817294241
-0.00527148472981601,0.526219240522838
-0.00775824379382464,0.525294657118286
-0.0103015332655518,0.524361264743127
-0.0129016979250815,0.523419261059904
-0.0155590825524983,0.522468843731158
-0.018274031927886,0.521510210419431
-0.0210468908313292,0.520543558787264
-0.0238780040429117,0.519569086497199
-0.026767716342718,0.518586991211779
-0.0297163725108323,0.517597470593546
-0.0327243173273389,0.51660072230504
-0.0357918955723217,0.515596944008804
-0.0389194520258652,0.51458633336738
-0.0421073314680535,0.513569088043309
-0.045355878678971,0.512545405699134
-0.0486654384387016,0.511515483997395
-0.0520363555273298,0.510479520600637
-0.0554689747249396,0.509437713171398
-0.0589636408116154,0.508390259372223
-0.0625206985674412,0.507337356865652
-0.0661404927725015,0.506279203314228
-0.0698233682068802,0.505215996380492
-0.073569669650662,0.504147933726986
-0.0773797418839305,0.503075213016252
-0.0812539296867703,0.501998031910832
-0.0851925778392656,0.500916588073267
-0.0891960311215005,0.4998310791661
-0.0932646343135592,0.498741702851872
-0.0973987321955262,0.497648656793125
-0.101598669547485,0.496552138652401
-0.105864791149521,0.495452346092243
-0.110197441781717,0.49434947677519
-0.114596966224159,0.493243728363787
-0.119063709256929,0.492135298520573
-0.123598015660113,0.491024384908092
-0.128200230213795,0.489911185188885
-0.132870697698059,0.488795897025494
-0.137609762892988,0.48767871808046
-0.142417770578668,0.486559846016326
-0.147295065535182,0.485439478495634
-0.152241992542615,0.484317813180924
-0.157258896381051,0.48319504773474
-0.162346121830574,0.482071379819623
-0.167504013671268,0.480947007098114
-0.172732916683218,0.479822127232756
-0.178033175646507,0.47869693788609
-0.183405135341221,0.477571636720659
-0.188849140547443,0.476446421399004
-0.194365536045257,0.475321489583667
-0.199954666614748,0.474197038937189
-0.205616877036,0.473073267122114
-0.211352512089097,0.471950371800981
-0.217161916554123,0.470828550636334
-0.223045435211162,0.469708001290714
-0.2290034128403,0.468588921426664
-0.235036194221619,0.467471508706724
-0.241144124135205,0.466355960793436
-0.247327547361141,0.465242475349344
-0.253586808679511,0.464131250036987
-0.259922252870401,0.463022482518909
-0.266334224713893,0.461916370457651
-0.272823068990073,0.460813111515754
-0.279389130479024,0.459712903355762
-0.286032753960831,0.458615943640215
-0.292754284215578,0.457522430031655
-0.299554066023348,0.456432560192625
-0.306432444164228,0.455346531785666
-0.313389763418299,0.45426454247332
-0.320426368565648,0.453186789918128
-0.327542604386358,0.452113471782633
-0.334738815660513,0.451044785729377
-0.342015347168196,0.4499809294209
-0.349372543689494,0.448922100519746
-0.35681075000449,0.447868496688456
-0.364330310893268,0.446820315589572
-0.371931571135912,0.445777754885635
-0.379614875512507,0.444741012239188
-0.379614875512507,0.444741012239188
-0.387304542926181,0.443722584152363
-0.394924770405424,0.442734675434094
-0.402475719918358,0.441777046207129
-0.409957553433107,0.440849456594215
-0.417370432917794,0.4399516667181
-0.424714520340542,0.439083436701531
-0.431989977669474,0.438244526667254
-0.439196966872714,0.437434696738017
-0.446335649918385,0.436653707036568
-0.453406188774609,0.435901317685653
-0.460408745409511,0.435177288808019
-0.467343481791213,0.434481380526414
-0.474210559887838,0.433813352963585
-0.481010141667509,0.433172966242279
-0.487742389098351,0.432559980485243
-0.494407464148485,0.431974155815225
-0.501005528786036,0.431415252354971
-0.507536744979126,0.430883030227229
-0.514001274695879,0.430377249554746
-0.520399279904417,0.429897670460269
-0.526730922572864,0.429444053066545
-0.532996364669343,0.429016157496322
-0.539195768161978,0.428613743872347
-0.545329295018891,0.428236572317366
-0.551397107208205,0.427884402954128
-0.557399366698045,0.427556995905379
-0.563336235456532,0.427254111293866
-0.569207875451791,0.426975509242337
-0.575014448651944,0.426720949873538
-0.580756117025114,0.426490193310218
-0.586433042539426,0.426282999675122
-0.592045387163001,0.426099129090999
-0.597593312863964,0.425938341680596
-0.603076981610437,0.425800397566659
-0.608496555370543,0.425685056871936
-0.613852196112406,0.425592079719174
-0.619144065804149,0.42552122623112
-0.624372326413895,0.425472256530522
-0.629537139909767,0.425444930740126
-0.634638668259888,0.42543900898268
-0.639677073432383,0.425454251380931
-0.644652517395373,0.425490418057626
-0.649565162116982,0.425547269135512
-0.654415169565333,0.425624564737337
-0.65920270170855,0.425722064985848
-0.663927920514755,0.425839530003791
-0.668590987952072,0.425976719913914
-0.673192065988624,0.426133394838965
-0.677731316592533,0.42630931490169
-0.682208901731925,0.426504240224836
-0.68662498337492,0.426717930931152
-0.690979723489644,0.426950147143383
-0.695273284044218,0.427200648984277
-0.699505827006766,0.427469196576582
-0.703677514345412,0.427755550043044
-0.707788508028278,0.428059469506411
-0.711838970023487,0.428380715089429
-0.715829062299163,0.428719046914847
-0.719758946823429,0.429074225105411
-0.723628785564409,0.429446009783868
-0.727438740490225,0.429834161072966
-0.731188973569,0.430238439095451
-0.734879646768858,0.430658603974072
-0.738510922057922,0.431094415831574
-0.742082961404315,0.431545634790706
-0.74559592677616,0.432012020974214
-0.74904998014158,0.432493334504846
-0.7524452834687,0.432989335505349
-0.755781998725641,0.43349978409847
-0.759060287880527,0.434024440406956
-0.762280312901481,0.434563064553554
-0.765442235756627,0.435115416661012
-0.768546218414087,0.435681256852077
-0.771592422841986,0.436260345249495
-0.774581011008444,0.436852441976015
-0.777512144881588,0.437457307154383
-0.780385986429538,0.438074700907346
-0.783202697620419,0.438704383357652
-0.785962440422354,0.439346114628048
-0.788665376803465,0.439999654841281
-0.791311668731877,0.440664764120098
-0.793901478175712,0.441341202587246
-0.796434967103093,0.442028730365473
-0.798912297482144,0.442727107577525
-0.801333631280988,0.443436094346151
-0.803699130467747,0.444155450794097
-0.806008957010546,0.444884937044109
-0.808263272877507,0.445624313218937
-0.810462240036754,0.446373339441326
-0.812606020456409,0.447131775834023
-0.814694776104596,0.447899382519777
-0.816728668949439,0.448675919621334
-0.81870786095906,0.449461147261441
-0.820632514101582,0.450254825562846
-0.822502790345129,0.451056714648295
-0.824318851657824,0.451866574640537
-0.82608086000779,0.452684165662317
-0.827788977363149,0.453509247836384
-0.829443365692027,0.454341581285484
-0.831044186962545,0.455180926132365
-0.832591603142827,0.456027042499773
-0.834085776200995,0.456879690510457
-0.835526868105174,0.457738630287162
-0.836915040823486,0.458603621952637
-0.838250456324055,0.459474425629629
-0.839533276575003,0.460350801440884
-0.840763663544455,0.46123250950915
-0.841941779200532,0.462119309957174
-0.843067785511359,0.463010962907704
-0.844141844445058,0.463907228483486
-0.845164117969753,0.464807866807267
-0.846134768053566,0.465712638001795
-0.847053956664622,0.466621302189817
-0.847921845771043,0.467533619494081
-0.848738597340952,0.468449350037332
-0.849504373342473,0.46936825394232
-0.850219335743728,0.470290091331789
-0.850883646512841,0.471214622328489
-0.851497467617936,0.472141607055166
-0.852060961027135,0.473070805634567
-0.852574288708561,0.474001978189439
-0.853037612630338,0.47493488484253
-0.853451094760589,0.475869285716587
-0.853814897067437,0.476804940934357
-0.854129181519005,0.477741610618587
-0.854394110083417,0.478679054892024
-0.854609844728795,0.479617033877416
-0.854776547423263,0.480555307697509
-0.854894380134944,0.481493636475051
-0.854963504831961,0.48243178033279
-0.854984083482437,0.483369499393471
-0.854956278054497,0.484306553779843
-0.854880250516261,0.485242703614653
-0.854756162835855,0.486177709020647
-0.854584176981401,0.487111330120573
-0.854364454921022,0.488043327037178
-0.854097158622841,0.48897345989321
-0.853782450054982,0.489901488811415
-0.853420491185568,0.490827173914541
-0.853011443982722,0.491750275325335
-0.852555470414568,0.492670553166543
-0.852052732449227,0.493587767560914
-0.851503392054824,0.494501678631194
-0.850907611199483,0.495412046500131
-0.850265551851325,0.496318631290472
-0.849577375978473,0.497221193124963
-0.848843245549053,0.498119492126353
-0.848063322531186,0.499013288417388
-0.847237768892996,0.499902342120816
-0.846366746602605,0.500786413359383
-0.845450417628137,0.501665262255836
-0.844488943937717,0.502538648932924
-0.843482487499465,0.503406333513394
-0.842431210281506,0.504268076119991
-0.841335274251962,0.505123636875464
-0.840194841378958,0.50597277590256
-0.839010073630616,0.506815253324026
-0.837781132975059,0.507650829262609
-0.836508181380411,0.508479263841056
-0.835191380814795,0.509300317182115
-0.833830893246334,0.510113749408532
-0.83242688064315,0.510919320643055
-0.830979504973368,0.511716791008431
-0.82948892820511,0.512505920627407
-0.827955312306501,0.513286469622731
-0.826378819245662,0.514058198117149
-0.824759610990716,0.514820866233409
-0.823097849509789,0.515574234094258
-0.821393696771002,0.516318061822443
-0.819647314742478,0.517052109540711
-0.817858865392341,0.51777613737181
-0.816028510688714,0.518489905438487
-0.81415641259972,0.519193173863488
-0.812242733093483,0.519885702769561
-0.810287634138124,0.520567252279453
-0.808291277701769,0.521237582515912
-0.80625382575254,0.521896453601684
-0.80417544025856,0.522543625659517
-0.802056283187952,0.523178858812158
-0.799896516508839,0.523801913182354
-0.797696302189346,0.524412548892852
-0.795455802197594,0.5250105260664
-0.793175178501706,0.525595604825744
-0.790854593069808,0.526167545293633
-0.788494207870021,0.526726107592812
-0.786094184870468,0.527271051846029
-0.783654686039273,0.527802138176031
-0.781175873344559,0.528319126705567
-0.778657908754449,0.528821777557382
-0.776100954237066,0.529309850854223
-0.773505171760534,0.529783106718839
-0.770870723292975,0.530241305273976
-0.768197770802514,0.530684206642382
-0.765486476257273,0.531111570946803
-0.762737001625374,0.531523158309987
-0.759949508874942,0.531918728854681
-0.7571241599741,0.532298042703632
-0.754261116890971,0.532660859979587
-0.751360541593677,0.533006940805294
-0.748422596050343,0.5333360453035
-0.745447442229091,0.533647933596952
-0.742435242098045,0.533942365808396
-0.739386157625328,0.534219102060581
-0.736300350779062,0.534477902476253
-0.733177983527372,0.53471852717816
-0.730019217838379,0.534940736289049
-0.726824215680209,0.535144289931667
-0.723593139020983,0.53532894822876
-0.720326149828824,0.535494471303078
-0.717023410071857,0.535640619277365
-0.713685081718204,0.535767152274371
-0.710311326735989,0.535873830416841
-0.706902307093334,0.535960413827523
-0.703458184758363,0.536026662629165
-0.699979121699198,0.536072336944512
-0.696465279883964,0.536097196896314
-0.692916821280784,0.536101002607316
-0.68933390785778,0.536083514200266
-0.685716701583075,0.536044491797912
-0.682065364424794,0.535983695523
-0.678380058351058,0.535900885498277
-0.674660945329992,0.535795821846491
-0.670908187329718,0.535668264690388
-0.66712194631836,0.535517974152717
-0.663302384264041,0.535344710356224
-0.659449663134884,0.535148233423657
-0.655563944899012,0.534928303477762
-0.651645391524548,0.534684680641286
-0.647694164979616,0.534417125036978
-0.643710427232339,0.534125396787584
-0.639694340250839,0.533809256015851
-0.635646066003241,0.533468462844527
-0.631565766457667,0.533102777396358
-0.627453603582241,0.532711959794092
-0.623309739345085,0.532295770160477
-0.619134335714323,0.531853968618258
-0.614927554658078,0.531386315290184
-0.610689558144474,0.530892570299001
-0.606420508141632,0.530372493767457
-0.602120566617678,0.5298258458183
-0.597789895540733,0.529252386574275
-0.593428656878922,0.52865187615813
-0.589037012600366,0.528024074692613
-0.58461512467319,0.527368742300471
-0.580163155065516,0.526685639104451
-0.575681265745468,0.525974525227299
-0.571169618681169,0.525235160791764
-0.566628375840742,0.524467305920592
-0.562057699192311,0.523670720736531
-0.557457750703997,0.522845165362327
-0.552828692343926,0.521990399920728
-0.548170686080219,0.521106184534482
-0.543483893881001,0.520192279326335
-0.538768477714393,0.519248444419034
-0.53402459954852,0.518274439935327
-0.529252421351505,0.51727002599796
-0.52445210509147,0.516234962729682
-0.51962381273654,0.515169010253239
-0.514767706254836,0.514071928691378
-0.509883947614483,0.512943478166847
-0.504972698783603,0.511783418802393
-0.50003412173032,0.510591510720762
-0.495068378422757,0.509367514044703
-0.490075630829037,0.508111188896962
-0.485056040917284,0.506822295400286
-0.48000977065562,0.505500593677423
-0.474936982012168,0.50414584385112
-0.469837836955052,0.502757806044124
-0.464712497452395,0.501336240379182
-0.459561125472321,0.499880906979041
-0.454383882982951,0.498391565966449
-0.449180931952411,0.496867977464152
-0.443952434348822,0.495309901594899
-0.438698552140308,0.493717098481436
-0.433419447294992,0.492089328246509
-0.428115281780998,0.490426351012868
-0.422786217566448,0.488727926903258
-0.417432416619465,0.486993816040427
-0.412054040908174,0.485223778547121
-0.406651252400696,0.483417574546089
-0.401224213065156,0.481574964160078
-0.395773084869677,0.479695707511833
-0.39029802978238,0.477779564724104
-0.384799209771391,0.475826295919636
-0.379276786804832,0.473835661221178
-0.373730922850825,0.471807420751476
-0.368161779877495,0.469741334633277
-0.362569519852965,0.467637162989329
-0.356954304745357,0.465494665942378
-0.351316296522796,0.463313603615173
-0.345655657153403,0.46109373613046
-0.339972548605303,0.458834823610986
-0.334267132846618,0.456536626179498
-0.328539571845472,0.454198903958745
-0.322790027569988,0.451821417071472
-0.317018661988288,0.449403925640427
-0.311225637068497,0.446946189788358
-0.305411114778738,0.444447969638011
-0.299575257087133,0.441909025312133
-0.293718225961805,0.439329116933473
-0.287840183370879,0.436708004624776
-0.281941291282477,0.434045448508791
-0.276021711664722,0.431341208708264
-0.270081606485737,0.428595045345942
-0.264121137713647,0.425806718544573
-0.258140467316573,0.422975988426904
-0.252139757262639,0.420102615115682
-0.246119169519969,0.417186358733654
-0.240078866056684,0.414226979403568
-0.23401900884091,0.41122423724817
-0.227939759840768,0.408177892390208
-0.221841281024383,0.405087704952429
-0.215723734359877,0.40195343505758
-0.209587281815373,0.398774842828409
-0.203432085358994,0.395551688387661
-0.197258306958864,0.392283731858086
-0.191066108583107,0.38897073336243
-0.184855652199844,0.385612453023439
-0.178627099777199,0.382208650963862
-0.172380613283297,0.378759087306445
-0.166116354686258,0.375263522173936
-0.159834485954208,0.371721715689081
-0.153535169055269,0.368133427974629
-0.147218565957564,0.364498419153326
-0.140884838629216,0.360816449347918
-0.134534149038349,0.357087278681155
-0.128166659153086,0.353310667275782
-0.12178253094155,0.349486375254547
-0.115381926371863,0.345614162740197
-0.108965007412151,0.341693789855479
-0.102531936030534,0.337725016723141
-0.096082874195138,0.333707603465929
-0.0896179838740843,0.329641310206591
-0.0831374270354969,0.325525897067874
-0.0766413656474985,0.321361124172525
-0.0701299616782128,0.317146751643291
-0.0636033770957626,0.31288253960292
-0.0570617738682715,0.308568248174158
-0.050505313963862,0.304203637479754
-0.0439341593506581,0.299788467642453
-0.0373484719967823,0.295322498785003
-0.0307484138703583,0.290805491030153
-0.0241341469395089,0.286237204500647
-0.0175058331723577,0.281617399319234
-0.0108636345370273,0.276945835608661
-0.00420771300164151,0.272222273491676
0.00246176946567703,0.267446473091024
0.00914465089680466,0.262618194529454
0.0158407693236186,0.257737197929713
0.0225499627779952,0.252803243414548
0.0292720692918119,0.247816091106705
0.0360069268969448,0.242775501128933
0.0427543736252714,0.237681233603978
0.0495142475086679,0.232533048654588
0.0562863865790117,0.227330706403509
0.063070628868179,0.222073966973489
0.0698668124080473,0.216762590487276
0.0766747752304927,0.211396337067616
0.0834943553673927,0.205974966837256
0.0903253908506235,0.200498239918944
0.0971677197120624,0.194965916435426
0.104021179983586,0.189377756509451
0.110885609697071,0.183733520263765
0.117760846884394,0.178032967821115
0.124646729577433,0.172275859304249
0.131543095808063,0.166461954835913
0.138449783608162,0.160591014538855
0.145366631009607,0.154662798535823
0.152293476044274,0.148677066949563
0.15923015674404,0.142633579902822
0.166176511140783,0.136532097518348
0.173132377266378,0.130372379918888
0.180097593152703,0.124154187227188
0.187071996831635,0.117877279565997
0.194055426335049,0.111541417058061
0.201047719694824,0.105146359826128
0.208048714942836,0.0986918679929443
0.215058250110961,0.0921777016812577
0.222076163231077,0.085603621013815
0.229102292335061,0.0789693861133639
0.236136475454788,0.0722747571026508
0.243178550622136,0.0655194941044237
0.250228355868983,0.0587033572414291
0.257285729227204,0.0518261066364148
0.264350508728676,0.0448875024121274
0.271422532405277,0.0378873046913146
0.278501638288882,0.030825273596723
0.28558766441137,0.0237011692511004
0.292680448804616,0.0165147517771934
0.299779829500498,0.00926578129774981
0.306885644530892,0.00195401793551613
0.313997731927675,-0.00542077818675979
0.321115929722724,-0.0128588469463314
0.328240075947916,-0.0203604282204509
0.335370008635127,-0.0279257618863718
0.342505565816235,-0.0355550878213462
0.349646585523116,-0.0432486459026276
0.356792905787647,-0.0510066760074681
0.363944364641705,-0.0588294180131212
0.363944364641705,-0.0588294180131212
0.371051954059775,-0.066648215355739
0.378067094433308,-0.0743944331823094
0.384990266419634,-0.0820683439363385
0.391821950676079,-0.0896702200613322
0.39856262785997,-0.0972003340007965
0.405212778628635,-0.104658958198238
0.411772883639402,-0.112046365097161
0.418243423549598,-0.119362827141073
0.42462487901655,-0.12660861677348
0.430917730697587,-0.133784006437888
0.437122459250035,-0.140889268577802
0.443239545331222,-0.147924675636729
0.449269469598475,-0.154890500058174
0.455212712709122,-0.161787014285644
0.461069755320491,-0.168614490762644
0.466841078089909,-0.175373201932681
0.472527161674703,-0.182063420239261
0.478128486732201,-0.188685418125889
0.483645533919731,-0.195239468036072
0.489078783894619,-0.201725842413315
0.494428717314194,-0.208144813701125
0.499695814835782,-0.214496654343008
0.504880557116712,-0.220781636782469
0.509983424814311,-0.227000033463015
0.515004898585906,-0.233152116828151
0.519945459088825,-0.239238159321383
0.524805586980395,-0.245258433386219
0.529585762917944,-0.251213211466162
0.534286467558799,-0.257102766004721
0.538908181560288,-0.2629273694454
0.543451385579738,-0.268687294231705
0.547916560274476,-0.274382812807143
0.552304186301831,-0.280014197615219
0.55661474431913,-0.28558172109944
0.560848714983699,-0.291085655703311
0.565006578952868,-0.296526273870339
0.569088816883962,-0.301903848044029
0.57309590943431,-0.307218650667888
0.57702833726124,-0.312470954185421
0.580886581022077,-0.317661031040135
0.584671121374151,-0.322789153675535
0.588382438974789,-0.327855594535128
0.592021014481317,-0.332860626062419
0.595587328551064,-0.337804520700914
0.599081861841357,-0.34268755089412
0.602505095009523,-0.347509989085543
0.605857508712891,-0.352272107718687
0.609139583608787,-0.356974179237061
0.612351800354539,-0.361616476084168
0.615494639607474,-0.366199270703516
0.61856858202492,-0.370722835538611
0.621574108264205,-0.375187443032958
0.624511698982655,-0.379593365630063
0.627381834837599,-0.383940875773433
0.630184996486364,-0.388230245906573
0.632921664586277,-0.39246174847299
0.635592319794666,-0.396635655916189
0.638197442768858,-0.400752240679676
0.640737514166181,-0.404811775206957
0.643213014643963,-0.408814531941539
0.64562442485953,-0.412760783326928
0.64797222547021,-0.416650801806629
0.650256897133331,-0.420484859824148
0.65247892050622,-0.424263229822991
0.654638776246206,-0.427986184246665
0.656736945010614,-0.431653995538675
0.658773907456773,-0.435266936142527
0.66075014424201,-0.438825278501728
0.662666136023653,-0.442329295059783
0.664522363459029,-0.445779258260199
0.666319307205465,-0.44917544054648
0.66805744792029,-0.452518114362135
0.66973726626083,-0.455807552150667
0.671359242884414,-0.459044026355584
0.672923858448367,-0.46222780942039
0.674431593610019,-0.465359173788594
0.675882929026697,-0.468438391903699
0.677278345355728,-0.471465736209213
0.678618323254438,-0.474441479148641
0.679903343380158,-0.477365893165489
0.681133886390212,-0.480239250703264
0.68231043294193,-0.483061824205471
0.683433463692638,-0.485833886115616
0.684503459299664,-0.488555708877205
0.685520900420335,-0.491227564933745
0.686486267711979,-0.493849726728741
0.687400041831924,-0.496422466705699
0.688262703437496,-0.498946057308125
0.689074733186024,-0.501420770979526
0.689836611734835,-0.503846880163407
0.690548819741256,-0.506224657303273
0.691211837862615,-0.508554374842633
0.691826146756239,-0.51083630522499
0.692392227079456,-0.513070720893852
0.692910559489593,-0.515257894292723
0.693381624643978,-0.517398097865111
0.693805903199939,-0.519491604054522
0.694183875814802,-0.52153868530446
0.694516023145895,-0.523539614058432
0.694802825850546,-0.525494662759945
0.695044764586082,-0.527404103852504
0.695242320009831,-0.529268209779615
0.695395972779119,-0.531087252984784
0.695506203551276,-0.532861505911517
0.695573492983628,-0.534591241003321
0.695598321733502,-0.5362767307037
0.695581170458226,-0.537918247456162
0.695522519815128,-0.539516063704212
0.695422850461536,-0.541070451891356
0.695282643054775,-0.5425816844611
0.695102378252175,-0.54405003385695
0.694882536711062,-0.545475772522413
0.694623599088765,-0.546859172900993
0.694326046042609,-0.548200507436197
0.693990358229924,-0.549500048571532
0.693617016308036,-0.550758068750503
0.693206500934273,-0.551974840416616
0.692759292765963,-0.553150636013376
0.692275872460432,-0.554285727984291
0.691756720675009,-0.555380388772866
0.691202318067021,-0.556434890822608
0.690613145293795,-0.557449506577021
0.689989683012659,-0.558424508479612
0.689332411880941,-0.559360168973887
0.688641812555967,-0.560256760503352
0.687918365695066,-0.561114555511514
0.687162551955564,-0.561933826441877
0.68637485199479,-0.562714845737948
0.68555574647007,-0.563457885843234
0.684705716038733,-0.564163219201239
0.683825241358105,-0.56483111825547
0.682914803085515,-0.565461855449434
0.68197488187829,-0.566055703226636
0.681005958393756,-0.566612934030581
0.680008513289242,-0.567133820304776
0.678983027222076,-0.567618634492728
0.677929980849584,-0.568067649037941
0.676849854829094,-0.568481136383923
0.675743129817934,-0.568859368974178
0.674610286473431,-0.569202619252214
0.673451805452913,-0.569511159661535
0.672268167413707,-0.569785262645648
0.67105985301314,-0.570025200648059
0.669827342908541,-0.570231246112275
0.668571117757236,-0.5704036714818
0.667291658216553,-0.570542749200141
0.665989444943819,-0.570648751710804
0.664664958596362,-0.570721951457295
0.66331867983151,-0.57076262088312
0.661951089306591,-0.570771032431784
0.66056266767893,-0.570747458546795
0.659153895605856,-0.570692171671658
0.657725253744697,-0.570605444249878
0.65627722275278,-0.570487548724963
0.654810283287432,-0.570338757540417
0.653324916005981,-0.570159343139747
0.651821601565754,-0.56994957796646
0.650300820624079,-0.569709734464059
0.648763053838284,-0.569440085076053
0.647208781865695,-0.569140902245947
0.645638485363641,-0.568812458417247
0.644052644989448,-0.568455026033458
0.642451741400445,-0.568068877538087
0.640836255253959,-0.56765428537464
0.639206667207317,-0.567211521986624
0.637563457917846,-0.566740859817542
0.635907108042875,-0.566242571310903
0.63423809823973,-0.565716928910211
0.63255690916574,-0.565164205058974
0.630864021478231,-0.564584672200696
0.629159915834531,-0.563978602778884
0.627445072891969,-0.563346269237044
0.62571997330787,-0.562687944018681
0.623985097739563,-0.562003899567303
0.622240926844375,-0.561294408326414
0.620487941279633,-0.560559742739521
0.618726621702666,-0.55980017525013
0.6169574487708,-0.559015978301746
0.615180903141364,-0.558207424337876
0.613397465471683,-0.557374785802026
0.611607616419087,-0.556518335137703
0.609811836640903,-0.55563834478841
0.608010606794457,-0.554735087197655
0.606204407537078,-0.553808834808944
0.604393719526093,-0.552859860065783
0.602579023418829,-0.551888435411678
0.600760799872614,-0.550894833290134
0.598939529544775,-0.549879326144658
0.597115693092641,-0.548842186418756
0.595289771173538,-0.547783686555934
0.593462244444793,-0.546704098999697
0.591633593563735,-0.545603696193552
0.589804299187691,-0.544482750581005
0.587974841973989,-0.543341534605561
0.586145702579954,-0.542180320710727
0.584317361662917,-0.540999381340009
0.582490299880203,-0.539798988936912
0.58066499788914,-0.538579415944943
0.578841936347056,-0.537340934807608
0.577021595911279,-0.536083817968412
0.575204457239135,-0.534808337870863
0.573391000987952,-0.533514766958464
0.571581707815058,-0.532203377674724
0.569777058377781,-0.530874442463147
0.567977533333447,-0.52952823376724
0.566183613339384,-0.528165024030508
0.564395779052919,-0.526785085696458
0.562614511131381,-0.525388691208596
0.560840290232096,-0.523976113010427
0.559073597012393,-0.522547623545458
0.557314912129598,-0.521103495257194
0.555564716241039,-0.519644000589143
0.553823490004044,-0.518169411984808
0.55209171407594,-0.516680001887698
0.550369869114054,-0.515176042741317
0.548658435775714,-0.513657806989171
0.546957894718248,-0.512125567074767
0.545268726598983,-0.510579595441611
0.543591412075246,-0.509020164533208
0.541926431804365,-0.507447546793065
0.540274266443667,-0.505862014664687
0.538635396650481,-0.504263840591581
0.537010303082133,-0.502653297017253
0.53539946639595,-0.501030656385208
0.533803367249262,-0.499396191138953
0.532222486299394,-0.497750173721993
0.530657304203674,-0.496092876577835
0.52910830161943,-0.494424572149984
0.52757595920399,-0.492745532881947
0.52606075761468,-0.491056031217229
0.524563177508829,-0.489356339599336
0.523083699543763,-0.487646730471776
0.521622804376811,-0.485927476278053
0.520180972665299,-0.484198849461673
0.518758685066556,-0.482461122466143
0.517356422237908,-0.480714567734968
0.515974664836683,-0.478959457711655
0.51461389352021,-0.477196064839709
0.513274588945814,-0.475424661562637
0.511957231770824,-0.473645520323944
0.510662302652567,-0.471858913567137
0.509390282248371,-0.470065113735721
0.508141651215563,-0.468264393273203
0.50691689021147,-0.466457024623088
0.505716479893421,-0.464643280228882
0.504540900918742,-0.462823432534092
0.503390633944761,-0.460997753982224
0.502266159628806,-0.459166517016783
0.501167958628204,-0.457329994081275
0.500096511600282,-0.455488457619207
0.499052299202368,-0.453642180074084
0.49803580209179,-0.451791433889412
0.497047500925874,-0.449936491508698
0.49608787636195,-0.448077625375447
0.495157409057343,-0.446215107933166
0.494256579669381,-0.44434921162536
0.493385868855392,-0.442480208895536
0.492545757272704,-0.440608372187199
0.491736725578644,-0.438733973943855
0.490959254430539,-0.43685728660901
0.490213824485717,-0.434978582626171
0.489500916401505,-0.433098134438844
0.488821010835231,-0.431216214490533
0.488174588444223,-0.429333095224747
0.487562129885807,-0.427449049084989
0.486984115817311,-0.425564348514767
0.486441026896063,-0.423679265957586
0.485933343779391,-0.421794073856952
0.485461547124621,-0.419909044656372
0.485026117589081,-0.418024450799351
0.484627535830099,-0.416140564729396
0.484266282505002,-0.414257658890011
0.483942838271118,-0.412376005724704
0.483657683785774,-0.410495877676981
0.483411299706298,-0.408617547190346
0.483204166690017,-0.406741286708307
0.483036765394258,-0.404867368674369
0.48290957647635,-0.402996065532039
0.482823080593619,-0.401127649724822
0.482777758403393,-0.399262393696224
0.482774090563,-0.397400569889751
0.482812557729767,-0.39554245074891
0.482893640561021,-0.393688308717205
0.48301781971409,-0.391838416238144
0.483185575846302,-0.389993045755233
0.483397389614984,-0.388152469711976
0.483653741677463,-0.386316960551881
0.483955112691068,-0.384486790718453
0.484301983313124,-0.382662232655198
0.484694834200961,-0.380843558805623
0.485134146011905,-0.379031041613233
0.485620399403284,-0.377224953521534
0.486154075032425,-0.375425566974032
0.486735653556656,-0.373633154414233
0.487365615633305,-0.371847988285644
0.488044441919698,-0.370070341031769
0.488772613073164,-0.368300485096116
0.489550609751029,-0.36653869292219
0.490378912610622,-0.364785236953498
0.491258002309269,-0.363040389633544
0.492188359504299,-0.361304423405836
0.493170464853039,-0.359577610713879
0.494204799012815,-0.357860224001179
0.495291842640957,-0.356152535711242
0.49643207639479,-0.354454818287574
0.497625980931644,-0.352767344173681
0.498874036908844,-0.35109038581307
0.50017672498372,-0.349424215649245
0.501534525813597,-0.347769106125714
0.502947920055804,-0.346125329685982
0.504417388367668,-0.344493158773555
0.505943411406517,-0.342872865831939
0.507526469829678,-0.341264723304641
0.509167044294478,-0.339669003635165
0.510865615458245,-0.338085979267018
0.512622663978307,-0.336515922643707
0.514438670511991,-0.334959106208737
0.516314115716625,-0.333415802405613
0.518249480249535,-0.331886283677843
0.52024524476805,-0.330370822468932
0.522301889929497,-0.328869691222386
0.524419896391204,-0.327383162381711
0.526599744810497,-0.325911508390413
0.528841915844705,-0.324455001691998
0.531146890151154,-0.323013914729972
0.533515148387173,-0.321588519947842
0.53594717121009,-0.320179089789112
0.53844343927723,-0.318785896697289
0.541004433245922,-0.317409213115879
0.543630633773493,-0.316049311488389
0.546322521517272,-0.314706464258323
0.549080577134584,-0.313380943869189
0.551905281282759,-0.312073022764491
0.554797114619123,-0.310782973387736
0.557756557801003,-0.309511068182431
0.560784091485728,-0.30825757959208
0.563880196330624,-0.30702278006019
0.56704535299302,-0.305806942030268
0.570280042130242,-0.304610337945818
0.573584744399619,-0.303433240250348
0.576959940458477,-0.302275921387362
0.580406110964145,-0.301138653800367
0.583923736573949,-0.300021709932869
0.587513297945217,-0.298925362228374
0.591175275735277,-0.297849883130388
0.594910150601456,-0.296795545082418
0.598718403201081,-0.295762620527967
0.602600514191481,-0.294751381910544
0.606556964229982,-0.293762101673654
0.610588233973912,-0.292795052260803
0.614694804080599,-0.291850506115497
0.61887715520737,-0.290928735681241
0.623135768011552,-0.290030013401543
0.627471123150473,-0.289154611719907
0.631883701281461,-0.288302803079841
0.636373983061842,-0.287474859924849
0.640942449148946,-0.286671054698438
0.645589580200097,-0.285891659844114
0.650315856872626,-0.285136947805383
0.655121759823858,-0.284407191025751
0.660007769711122,-0.283702661948723
0.664974367191745,-0.283023633017807
0.670022032923054,-0.282370376676507
0.675151247562376,-0.28174316536833
0.680362491767041,-0.281142271536782
0.685656246194373,-0.280567967625369
0.691032991501703,-0.280020526077597
0.696493208346356,-0.279500219336972
0.70203737738566,-0.279007319846999
0.707665979276943,-0.278542100051185
0.713379494677532,-0.278104832393036
0.719178404244755,-0.277695789316058
0.725063188635939,-0.277315243263757
0.731034328508412,-0.276963466679638
0.737092304519501,-0.276640732007209
0.743237597326534,-0.276347311689974
0.749470687586838,-0.27608347817144
0.75579205595774,-0.275849503895112
0.762202183096569,-0.275645661304498
0.768701549660651,-0.275472222843102
0.775290636307315,-0.275329460954431
0.781969923693887,-0.27521764808199
0.788739892477695,-0.275137056669287
0.795601023316066,-0.275087959159826
0.802553796866329,-0.275070627997114
0.80959869378581,-0.275085335624657
0.816736194731837,-0.27513235448596
0.823966780361737,-0.275211957024531
0.831290931332839,-0.275324415683874
0.838709128302469,-0.275470002907495
0.846221851927955,-0.275648991138902
0.853829582866624,-0.275861652821599
0.861532801775805,-0.276108260399093
0.869331989312823,-0.276389086314889
0.877227626135008,-0.276704403012494
0.885220192899685,-0.277054482935414
0.893310170264185,-0.277439598527155
0.901498038885831,-0.277860022231222
0.909784279421955,-0.278316026491122
