-0.0185503240010536,0.456676785972273
-0.0234667209960049,0.450261754662785
-0.0282974196946536,0.443879984247872
-0.0330428452935925,0.43753141477082
-0.0377034229894141,0.431215986274913
-0.0422795779787109,0.424933638803435
-0.0467717354580755,0.418684312399671
-0.0511803206241004,0.412467947106906
-0.0555057586733784,0.406284482968424
-0.0597484748025018,0.400133860027511
-0.0639088942080633,0.394016018327449
-0.0679874420866555,0.387930897911525
-0.0719845436348709,0.381878438823023
-0.075900624049302,0.375858581105227
-0.0797361085265415,0.369871264801422
-0.0834914222631819,0.363916429954893
-0.0871669904558159,0.357994016608924
-0.0907632383010358,0.3521039648068
-0.0942805909954344,0.346246214591806
-0.0977194737356042,0.340420706007226
-0.101080311718138,0.334627379096344
-0.104363530139628,0.328866173902446
-0.107569554196666,0.323137030468815
-0.110698809085846,0.317439888838738
-0.113751720003761,0.311774689055497
-0.116728712147002,0.306141371162378
-0.119630210712162,0.300539875202666
-0.122456640895833,0.294970141219645
-0.125208427894609,0.289432109256599
-0.127885996905082,0.283925719356814
-0.130489773123844,0.278450911563573
-0.133020181747489,0.273007625920163
-0.135477647972608,0.267595802469866
-0.137862596995794,0.262215381255968
-0.140175454013639,0.256866302321753
-0.142416644222737,0.251548505710506
-0.14458659281968,0.246261931465512
-0.14668572500106,0.241006519630055
-0.14871446596347,0.23578221024742
-0.150673240903503,0.230588943360892
-0.152562475017751,0.225426659013754
-0.154382593502806,0.220295297249292
-0.156134021555262,0.215194798110791
-0.157817184371711,0.210125101641534
-0.159432507148745,0.205086147884807
-0.160980415082957,0.200077876883894
-0.162461333370939,0.195100228682079
-0.163875687209284,0.190153143322648
-0.165223901794586,0.185236560848885
-0.166506402323435,0.180350421304075
-0.167723613992425,0.175494664731502
-0.168875961998149,0.170669231174451
-0.169963871537198,0.165874060676206
-0.170987767806166,0.161109093280052
-0.171948076001645,0.156374269029274
-0.172845221320227,0.151669527967156
-0.173679628958506,0.146994810136984
-0.174451724113074,0.14235005558204
-0.175161931980523,0.137735204345611
-0.175810677757445,0.133150196470981
-0.176398386640434,0.128594972001434
-0.176925483826083,0.124069470980255
-0.177392394510982,0.119573633450728
-0.177799543891726,0.115107399456139
-0.178147357164907,0.110670709039772
-0.178436259527117,0.106263502244911
-0.178666676174949,0.101885719114841
-0.178839032304995,0.0975372996928472
-0.178953753113849,0.0932181840222135
-0.179011263798102,0.0889283121462247
-0.179011989554347,0.0846676241081653
-0.178956355579176,0.0804360599513202
-0.178844787069183,0.0762335597189739
-0.17867770922096,0.072060063454411
-0.1784555472311,0.0679155112009161
-0.178178726296194,0.0637998430017737
-0.177847671612835,0.0597129989002687
-0.177462808377617,0.0556549189396856
-0.177024561787132,0.0516255431633089
-0.176533357037972,0.0476248116144232
-0.175989619326729,0.0436526643363133
-0.175393773849997,0.0397090413722638
-0.174746245804368,0.0357938827655591
-0.174047460386435,0.031907128559484
-0.173297842792789,0.0280487187973231
-0.172497818220025,0.024218593522361
-0.171647811864733,0.0204166927778823
-0.170748248923507,0.0166429566071716
-0.16979955459294,0.0128973250535136
-0.168802154069623,0.00917973816019284
-0.16775647255015,0.00549013597049386
-0.166662935231113,0.00182845852770143
-0.165521967309105,-0.00180535412489988
-0.164333993980718,-0.00541136194402542
-0.163099440442544,-0.00898962488639074
-0.161818731891177,-0.012540202908711
-0.160492293523209,-0.0160631559677017
-0.159120550535232,-0.0195585440200783
-0.15770392812384,-0.0230264270225561
-0.156242851485624,-0.0264668649318504
-0.154737745817177,-0.0298799177046766
-0.153189036315092,-0.0332656452977503
-0.151597148175961,-0.0366241076677867
-0.149962506596377,-0.0399553647715011
-0.148285536772932,-0.0432594765656091
-0.14656666390222,-0.0465365030068259
-0.144806313180832,-0.0497865040518671
-0.143004909805361,-0.0530095396574479
-0.1411628789724,-0.0562056697802837
-0.139280645878541,-0.0593749543770899
-0.137358635720377,-0.062517453404582
-0.1353972736945,-0.0656332268194752
-0.133396984997503,-0.068722334578485
-0.131358194825979,-0.0717848366383267
-0.12928132837652,-0.0748207929557158
-0.127166810845719,-0.0778302634873676
-0.125015067430168,-0.0808133081899975
-0.12282652332646,-0.0837699870203209
-0.120601603731187,-0.0867003599350531
-0.118340733840942,-0.0896044868909096
-0.116044338852318,-0.0924824278446058
-0.113712843961906,-0.0953342427528569
-0.111346674366301,-0.0981599915723785
-0.108946255262093,-0.100959734259886
-0.106512011845877,-0.103733530772094
-0.104044369314243,-0.106481441065719
-0.101543752863786,-0.109203525097477
-0.0990105876910972,-0.111899842824081
-0.0964452989927694,-0.114570454202248
-0.0938483119653953,-0.117215419188693
-0.0912200518055673,-0.119834797740132
-0.088560943709878,-0.122428649813279
-0.0858714128749202,-0.124997035364851
-0.0831518844972863,-0.127540014351562
-0.0804027837735687,-0.130057646730129
-0.0776245359003602,-0.132549992457265
-0.0748175660742534,-0.135017111489688
-0.0719822994918407,-0.137459063784112
-0.0691191613497147,-0.139875909297252
-0.066228576844468,-0.142267707985824
-0.0633109711726933,-0.144634519806544
-0.0603667695309829,-0.146976404716126
-0.0573963971159295,-0.149293422671286
-0.0544002791241257,-0.15158563362874
-0.0513788407521642,-0.153853097545202
-0.0483325071966372,-0.156095874377389
-0.0452617036541376,-0.158314024082015
-0.0421668553212578,-0.160507606615797
-0.0390483873945904,-0.162676681935449
-0.035906725070728,-0.164821309997686
-0.0327422935462632,-0.166941550759225
-0.0295555180177884,-0.16903746417678
-0.0263468236818964,-0.171109110207067
-0.0231166357351796,-0.173156548806802
-0.0198653793742306,-0.175179839932699
-0.0165934797956419,-0.177179043541474
-0.0133013621960063,-0.179154219589843
-0.00998945177191625,-0.18110542803452
-0.0066581737199642,-0.183032728832222
-0.00330795323674284,-0.184936181939663
6.07844811553182e-05,-0.18681584731356
0.0034476142371376,-0.188671784910626
0.00685211083461167,-0.190504054687579
0.0102738490769848,-0.192312716601132
0.0137124037676643,-0.194097830608002
0.0171673497100578,-0.195859456664904
0.0206382617075727,-0.197597654728554
0.0241247145636164,-0.199312484755665
0.0276262830815963,-0.201004006702955
0.0311425420649199,-0.202672280527139
0.0346730663169946,-0.204317366184931
0.0382174306412278,-0.205939323633048
0.041775209841027,-0.207538212828204
0.0453459787197995,-0.209114093727115
0.048929312080953,-0.210667026286496
0.0525247847278946,-0.212197070463063
0.056131971464032,-0.213704286213531
0.0597504470927724,-0.215188733494616
0.0633797864175235,-0.216650472263033
0.0670195642416926,-0.218089562475497
0.070669355368687,-0.219506064088723
0.0743287346019143,-0.220900037059428
0.0779972767447819,-0.222271541344326
0.0816745566006972,-0.223620636900133
0.0853601489730676,-0.224947383683564
0.0890536286653007,-0.226251841651335
0.0927545704808038,-0.22753407076016
0.0964625492229843,-0.228794130966756
0.10017713969525,-0.230032082227838
0.103897916701007,-0.231247984500121
0.107624455043665,-0.23244189774032
0.111356329526629,-0.233613881905151
0.115093114953309,-0.23476399695133
0.11883438612711,-0.235892302835571
0.122579717851441,-0.23699885951459
0.126328684929709,-0.238083726945102
0.130080862165321,-0.239146965083824
0.133835824361684,-0.240188633887469
0.137593146322207,-0.241208793312754
0.141352402850297,-0.242207503316394
0.145113168749361,-0.243184823855105
0.148875018822806,-0.244140814885601
0.15263752787404,-0.245075536364598
0.156400270706471,-0.245989048248811
0.160162822123505,-0.246881410494957
0.16392475692855,-0.24775268305975
0.167685649925014,-0.248602925899905
0.171445075916305,-0.249432198972139
0.175202609705829,-0.250240562233165
0.178957826096993,-0.251028075639701
0.182710299893207,-0.251794799148461
0.186459605897876,-0.25254079271616
0.190205318914408,-0.253266116299515
0.193947013746211,-0.253970829855239
0.197684265196692,-0.254654993340049
0.201416648069259,-0.255318666710661
0.205143737167318,-0.255961909923789
0.208865107294278,-0.256584782936148
0.212580333253546,-0.257187345704455
0.216288989848529,-0.257769658185425
0.219990651882635,-0.258331780335773
0.223684894159271,-0.258873772112214
0.227371291481845,-0.259395693471463
0.231049418653763,-0.259897604370237
0.234718850478434,-0.260379564765251
0.238379161759266,-0.260841634613219
0.242029927299664,-0.261283873870858
0.245670721903037,-0.261706342494882
0.249301120372792,-0.262109100442008
0.252920697512337,-0.26249220766895
0.256529028125079,-0.262855724132423
0.260125687014425,-0.263199709789144
0.263710248983783,-0.263524224595828
0.267282288836561,-0.26382932850919
0.270841381376165,-0.264115081485945
0.274387101406004,-0.264381543482808
0.277919023729484,-0.264628774456496
0.281436723150013,-0.264856834363724
0.284939774470999,-0.265065783161206
0.288427752495848,-0.265255680805659
0.291900232027969,-0.265426587253797
0.295356787870769,-0.265578562462336
0.298796994827655,-0.265711666387992
0.302220427702035,-0.26582595898748
0.305626661297316,-0.265921500217515
0.309015270416905,-0.265998350034812
0.31238582986421,-0.266056568396088
0.315737914442639,-0.266096215258057
0.319071098955599,-0.266117350577434
0.322384958206496,-0.266120034310936
0.32567906699874,-0.266104326415277
0.328953000135736,-0.266070286847173
0.332206332420894,-0.26601797556334
0.335438638657619,-0.265947452520492
0.338649493649319,-0.265858777675345
0.341838472199403,-0.265752010984615
0.345005149111276,-0.265627212405016
0.348149099188348,-0.265484441893265
0.351269897234024,-0.265323759406076
0.354367118051713,-0.265145224900165
0.357440336444822,-0.264948898332248
0.360489127216759,-0.264734839659039
0.36351306517093,-0.264503108837254
0.366511725110744,-0.264253765823609
0.369484681839607,-0.263986870574819
0.372431510160928,-0.263702483047599
0.375351784878113,-0.263400663198665
0.378245080794571,-0.263081470984732
0.381110972713708,-0.262744966362515
0.383949035438931,-0.26239120928873
0.386758843773649,-0.262020259720092
0.389539972521269,-0.261632177613317
0.392291996485198,-0.261227022925119
0.395014490468844,-0.260804855612215
0.397707029275613,-0.26036573563132
0.400369187708914,-0.259909722939149
0.403000540572154,-0.259436877492418
0.405600662668741,-0.258947259247841
0.408169128802081,-0.258440928162134
0.410705513775583,-0.257917944192013
0.413209392392653,-0.257378367294194
0.415680339456699,-0.25682225742539
0.418117929771129,-0.256249674542319
0.420521738139349,-0.255660678601694
0.422891339364769,-0.255055329560232
0.425226308250794,-0.254433687374649
0.427526219600832,-0.253795812001658
0.42979064821829,-0.253141763397976
0.432019168906577,-0.252471601520318
0.4342113564691,-0.2517853863254
0.436366785709266,-0.251083177769937
0.438485031430482,-0.250365035810644
0.440565668436155,-0.249631020404236
0.442608271529694,-0.24888119150743
0.444612415514506,-0.248115609076939
0.446577675193998,-0.247334333069481
0.448503625371577,-0.24653742344177
0.450389840850652,-0.245724940150521
0.452235896434629,-0.244896943152451
0.454041366926916,-0.244053492404273
0.45580582713092,-0.243194647862705
0.457528851850049,-0.24232046948446
0.45921001588771,-0.241431017226255
0.46084889404731,-0.240526351044805
0.462445061132258,-0.239606530896825
0.46399809194596,-0.238671616739031
0.465507561291824,-0.237721668528137
0.466973043973257,-0.23675674622086
0.468394114793667,-0.235776909773915
0.469770348556462,-0.234782219144017
0.471101320065048,-0.233772734287882
0.472386604122833,-0.232748515162224
0.473625775533224,-0.23170962172376
0.47481840909963,-0.230656113929204
0.475964079625456,-0.229588051735273
0.477062361914112,-0.228505495098681
0.478112830769004,-0.227408503976143
0.479115060993539,-0.226297138324376
0.480068627391126,-0.225171458100095
0.480973104765171,-0.224031523260015
0.481828067919082,-0.222877393760851
0.482633091656266,-0.221709129559318
0.483387750780132,-0.220526790612133
0.484091620094085,-0.219330436876011
0.484744274401534,-0.218120128307666
0.485345288505886,-0.216895924863815
0.485894237210549,-0.215657886501172
0.48639069531893,-0.214406073176453
0.486834237634436,-0.213140544846374
0.487224438960475,-0.21186136146765
0.487560874100455,-0.210568582996996
0.487843117857782,-0.209262269391127
0.488070745035864,-0.20794248060676
0.488243330438109,-0.206609276600609
0.488360448867923,-0.205262717329389
0.488421675128716,-0.203902862749817
0.488426584023893,-0.202529772818607
0.488374750356862,-0.201143507492475
0.488265748931031,-0.199744126728136
0.488099154549807,-0.198331690482307
0.487874542016598,-0.196906258711701
0.487591486134811,-0.195467891373034
0.487249561707854,-0.194016648423023
0.486848343539133,-0.192552589818381
0.486387406432057,-0.191075775515825
0.485866325190032,-0.18958626547207
0.485284674616466,-0.188084119643832
0.484642029514768,-0.186569397987825
0.483937964688343,-0.185042160460765
0.4831720549406,-0.183502467019368
0.482343875074945,-0.181950377620349
0.481452999894787,-0.180385952220423
0.480499004203533,-0.178809250776306
0.47948146280459,-0.177220333244712
0.478399950501366,-0.175619259582358
0.477254042097268,-0.174006089745959
0.476043312395703,-0.17238088369223
0.474767336200079,-0.170743701377887
0.473425688313804,-0.169094602759645
0.472017943540284,-0.167433647794219
0.470543676682928,-0.165760896438324
0.469002462545142,-0.164076408648677
0.467393875930335,-0.162380244381993
0.465717491641913,-0.160672463594986
0.463972884483284,-0.158953126244372
0.462159629257855,-0.157222292286867
0.460277300769034,-0.155480021679186
0.458325473820229,-0.153726374378045
0.456303723214846,-0.151961410340158
0.454211623756293,-0.150185189522242
0.452048750247978,-0.148397771881011
0.449814677493308,-0.146599217373181
0.447508980295691,-0.144789585955467
0.445131233458533,-0.142968937584585
0.442681011785243,-0.14113733221725
0.440157890079227,-0.139294829810178
0.437561443143893,-0.137441490320083
0.434891245782649,-0.135577373703682
0.432146872798902,-0.133702539917689
0.42932789899606,-0.131817048918821
0.426433899177529,-0.129920960663792
0.423464448146718,-0.128014335109317
0.420419120707034,-0.126097232212113
0.417297491661883,-0.124169711928894
0.414099135814675,-0.122231834216376
0.410823627968815,-0.120283659031275
0.407470542927712,-0.118325246330305
0.404039455494773,-0.116356656070182
0.400529940473405,-0.114377948207622
0.396941572667016,-0.11238918269934
0.393273926879013,-0.110390419502051
0.389526577912804,-0.10838171857247
0.385699100571796,-0.106363139867314
0.381791069659396,-0.104334743343296
0.377802059979013,-0.102296588957134
0.373731646334052,-0.100248736665542
0.369579403527923,-0.0981912464252352
0.365344906364032,-0.0961241781929294
0.361027729645786,-0.09404759192534
0.356627448176594,-0.0919615475791822
0.356627448176594,-0.0919615475791822
0.352191212751531,-0.0898724216298002
0.34776647262921,-0.0877865693127612
0.343353250308346,-0.0857040187251157
0.338951568287652,-0.0836247979639141
0.334561449065842,-0.0815489351262067
0.330182915141629,-0.0794764583090439
0.325815989013726,-0.0774073956094761
0.321460693180847,-0.0753417751245536
0.317117050141706,-0.0732796249513268
0.312785082395016,-0.0712209731868462
0.308464812439491,-0.0691658479281619
0.304156262773845,-0.0671142772723246
0.29985945589679,-0.0650662893163845
0.295574414307041,-0.0630219121573919
0.29130116050331,-0.0609811738923974
0.287039716984312,-0.0589441026184512
0.282790106248761,-0.0569107264326037
0.278552350795368,-0.0548810734319052
0.274326473122849,-0.0528551717134063
0.270112495729917,-0.0508330493741573
0.265910441115285,-0.0488147345112084
0.261720331777667,-0.0468002552216101
0.257542190215776,-0.0447896396024128
0.253376038928326,-0.0427829157506669
0.24922190041403,-0.0407801117634227
0.245079797171603,-0.0387812557377306
0.240949751699757,-0.0367863757706409
0.236831786497206,-0.0347954999592041
0.232725924062663,-0.0328086564004706
0.228632186894843,-0.0308258731914906
0.224550597492459,-0.0288471784293146
0.220481178354224,-0.026872600210993
0.216423951978851,-0.0249021666335761
0.212378940865055,-0.0229359057941143
0.208346167511549,-0.0209738457896579
0.204325654417047,-0.0190160147172574
0.200317424080261,-0.0170624406739632
0.196321498999906,-0.0151131517568255
0.192337901674695,-0.0131681760628948
0.188366654603342,-0.0112275416892215
0.18440778028456,-0.00929127673285584
0.180461301217062,-0.00735940929084834
0.176527239899563,-0.00543196746024929
0.172605618830776,-0.00350897933810912
0.168696460509414,-0.00159047302147816
0.164799787434191,0.00032352339259319
0.160915622103821,0.00223298180705456
0.157043987017017,0.00413787412485558
0.153184904672492,0.00603817224894588
0.14933839756896,0.00793384808227507
0.145504488205135,0.00982487352779279
0.14168319907973,0.0117112204884486
0.137874552691459,0.0135928608671923
0.134078571539036,0.0154697665669733
0.130295278121173,0.0173419094907414
0.126524694936584,0.019209261541446
0.122766844483984,0.021071794622037
0.119021749262085,0.0229294806354639
0.115289431769601,0.0247822914846762
0.111569914505246,0.0266301990726238
0.107863219967732,0.0284731753022561
0.104169370655775,0.0303111920765228
0.100488389068087,0.0321442212983735
0.0968202977033811,0.0339722348707578
0.093165119060372,0.0357952046966254
0.0895228756377727,0.037613102678926
0.0858935899342969,0.039425900720609
0.082277284448658,0.0412335707246242
0.0786739816795697,0.0430360845939211
0.0750837041257454,0.0448334142314495
0.0715064742858987,0.0466255315401588
0.0679423146587431,0.0484124084229988
0.0643912477429924,0.0501940167829191
0.0608532960373598,0.0519703285228693
0.0573284820405591,0.053741315545799
0.0538168282513037,0.0555069497546578
0.0503183571683073,0.0572672030523954
0.0468330912902832,0.0590220473419614
0.0433610531159452,0.0607714545263054
0.0399022651440067,0.062515396508377
0.0364567498731813,0.0642538451911259
0.0330245298021825,0.0659867724775017
0.0296056274297239,0.067714150270454
0.026200065254519,0.0694359504729325
0.0228078657752815,0.0711521449878867
0.0194290514907247,0.0728627057182663
0.0160636448995623,0.0745676045670209
0.0127116685005079,0.0762668134371002
0.00937314479227484,0.0779603042314538
0.00604809627357684,0.0796480488530312
0.0027365454431274,0.0813300192047821
-0.00056148520035991,0.0830061871896562
-0.00384597315817155,0.0846765247106031
-0.00711689593159401,0.0863410036705723
-0.0103742310219137,0.0879995959725135
-0.0136179559304171,0.0896522735193764
-0.0168480481583907,0.0912990082141105
-0.0200644852071209,0.0929397719596656
-0.0232672445778941,0.0945745366589911
-0.0264563037719969,0.0962032742150368
-0.0296316402907155,0.0978259565307523
-0.0327932316353368,0.0994425555090871
-0.0359410553071468,0.101053043052991
-0.039075088807432,0.102657391065413
-0.0421953096374792,0.104255571449304
-0.0453016952985745,0.105847556107613
-0.0483942232920045,0.107433316943289
-0.0514728711190557,0.109012825859282
-0.0545376162810145,0.110586054758542
-0.0575884362791673,0.112152975544019
-0.0606253086148005,0.113713560118661
-0.0636482107892008,0.115267780385419
-0.0666571203036544,0.116815608247243
-0.0696520146594478,0.118357015607081
-0.0726328713578677,0.119891974367884
-0.0755996679002002,0.1214204564326
-0.0785523817877319,0.122942433704181
-0.0814909905217494,0.124457878085575
-0.0844154716035389,0.125966761479732
-0.087325802534387,0.127469055789602
-0.0902219608155801,0.128964732918134
-0.0931039239484047,0.130453764768278
-0.0959716694341472,0.131936123242983
-0.0988251747740941,0.133411780245199
-0.101664417469532,0.134880707677876
-0.104489375021747,0.136342877443964
-0.107300024932026,0.137798261446412
-0.110096344701655,0.139246831588169
-0.11287831183192,0.140688559772185
-0.115645903824109,0.142123417901411
-0.118399098179507,0.143551377878795
-0.121137872399401,0.144972411607287
-0.123862203985078,0.146386490989836
-0.126572070437824,0.147793587929394
-0.129267449258925,0.149193674328908
-0.131948317949667,0.150586722091329
-0.134614654011338,0.151972703119606
-0.137266434945224,0.153351589316688
-0.139903638252611,0.154723352585527
-0.142526241434786,0.156087964829071
-0.145134221993034,0.157445397950269
-0.147727557428643,0.158795623852072
-0.150306225242899,0.160138614437428
-0.152870202937089,0.161474341609289
-0.155419468012499,0.162802777270602
-0.157953997970414,0.164123893324319
-0.160473770312123,0.165437661673388
-0.162978762538911,0.166744054220759
-0.165468952152064,0.168043042869382
-0.16794431665287,0.169334599522206
-0.170404833542614,0.170618696082181
-0.172850480322584,0.171895304452257
-0.175281234494064,0.173164396535383
-0.177697073558343,0.174425944234509
-0.180097975016706,0.175679919452585
-0.182483916370441,0.176926294092559
-0.184854875120832,0.178165040057383
-0.187210828769167,0.179396129250004
-0.189551754816733,0.180619533573374
-0.191877630764815,0.181835224930442
-0.1941884341147,0.183043175224156
-0.196484142367675,0.184243356357468
-0.198764733025025,0.185435740233326
-0.201030183588039,0.18662029875468
-0.203280471558001,0.18779700382448
-0.205515574436199,0.188965827345675
-0.207735469723918,0.190126741221215
-0.209940134922446,0.19127971735405
-0.212129547533069,0.192424727647129
-0.214303685057072,0.193561744003402
-0.216462524995744,0.194690738325819
-0.218606044850369,0.195811682517329
-0.220734222122235,0.196924548480881
-0.222847034312629,0.198029308119426
-0.224944458922835,0.199125933335913
-0.227026473454142,0.200214396033291
-0.229093055407835,0.201294668114511
-0.2311441822852,0.202366721482521
-0.233179831587525,0.203430528040272
-0.235199980816096,0.204486059690713
-0.237204607472199,0.205533288336794
-0.23919368905712,0.206572185881465
-0.241167203072147,0.207602724227674
-0.243125127018565,0.208624875278372
-0.245067438397661,0.209638610936508
-0.246994114710722,0.210643903105032
-0.248905133459034,0.211640723686893
-0.250800472143883,0.212629044585042
-0.252680108266555,0.213608837702427
-0.254544019328338,0.214580074941999
-0.256392182830518,0.215542728206707
-0.258224576274381,0.2164967693995
-0.260041177161213,0.217442170423329
-0.261841962992302,0.218378903181142
-0.263626911268933,0.21930693957589
-0.265395999492393,0.220226251510523
-0.267149205163968,0.221136810887988
-0.268886505784945,0.222038589611238
-0.270607878856611,0.22293155958322
-0.272313301880252,0.223815692706885
-0.274002752357153,0.224690960885182
-0.275676207788603,0.225557336021061
-0.277333645675886,0.226414790017471
-0.27897504352029,0.227263294777363
-0.280600378823102,0.228102822203685
-0.282209629085606,0.228933344199388
-0.283802771809091,0.22975483266742
-0.285379784494842,0.230567259510733
-0.286940644644146,0.231370596632274
-0.288485329758289,0.232164815934995
-0.290013817338558,0.232949889321844
-0.291526084886239,0.233725788695771
-0.293022109902619,0.234492485959725
-0.294501869888984,0.235249953016658
-0.295965342346621,0.235998161769517
-0.297412504776815,0.236737084121252
-0.298843334680855,0.237466691974814
-0.300257809560025,0.238186957233152
-0.301655906915612,0.238897851799216
-0.303037604248903,0.239599347575954
-0.304402879061185,0.240291416466317
-0.305751708853743,0.240974030373255
-0.307084071127865,0.241647161199716
-0.308399943384836,0.242310780848652
-0.309699303125943,0.24296486122301
-0.310982127852473,0.243609374225741
-0.312248395065712,0.244244291759795
-0.313498082266946,0.244869585728121
-0.314731166957463,0.245485228033669
-0.315947626638547,0.246091190579388
-0.317147438811487,0.246687445268228
-0.318330580977567,0.247273964003138
-0.319497030638076,0.247850718687069
-0.320646765294298,0.24841768122297
-0.321779762447522,0.24897482351379
-0.322895999599032,0.249522117462479
-0.323995454250116,0.250059534971987
-0.32507810390206,0.250587047945264
-0.32614392605615,0.251104628285258
-0.327192898213673,0.25161224789492
-0.328224997875916,0.252109878677199
-0.329240202544164,0.252597492535045
-0.330238489719705,0.253075061371408
-0.331219836903824,0.253542557089237
-0.332184221597808,0.253999951591481
-0.333131621302945,0.254447216781091
-0.334062013520519,0.254884324561016
-0.334975375751817,0.255311246834205
-0.335871685498127,0.255727955503609
-0.336750920260734,0.256134422472176
-0.337613057540925,0.256530619642857
-0.338458074839986,0.256916518918601
-0.339285949659204,0.257292092202358
-0.340096659499866,0.257657311397077
-0.340890181863257,0.258012148405709
-0.341666494250664,0.258356575131201
-0.342425574163374,0.258690563476505
-0.343167399102672,0.25901408534457
-0.343891946569847,0.259327112638346
-0.344599194066183,0.259629617260781
-0.345289119092968,0.259921571114826
-0.345961699151487,0.260202946103431
-0.346616911743028,0.260473714129545
-0.347254734368876,0.260733847096117
-0.347875144530319,0.260983316906097
-0.348478119728643,0.261222095462435
-0.349063637465133,0.261450154668081
-0.349631675241077,0.261667466425984
-0.350182210557762,0.261874002639093
-0.350715220916472,0.262069735210359
-0.351230683818496,0.262254636042731
-0.351728576765119,0.262428677039159
-0.352208877257628,0.262591830102592
-0.352671562797309,0.262744067135979
-0.353116610885449,0.262885360042271
-0.353543999023334,0.263015680724418
-0.35395370471225,0.263135001085368
-0.354345705453485,0.263243293028071
-0.354719978748324,0.263340528455477
-0.355076502098055,0.263426679270536
-0.355415253003963,0.263501717376197
-0.355736208967334,0.26356561467541
-0.356039347489456,0.263618343071125
-0.356324646071615,0.26365987446629
-0.356592082215097,0.263690180763856
-0.356841633421189,0.263709233866773
-0.357073277191177,0.26371700567799
-0.357286991026348,0.263713468100456
-0.357482752427988,0.263698593037121
-0.357660538897383,0.263672352390936
-0.357820327935821,0.263634718064848
-0.357962097044586,0.263585661961809
-0.358085823724967,0.263525155984768
-0.358191485478249,0.263453172036674
-0.358279059805719,0.263369682020477
-0.358348524208663,0.263274657839126
-0.358399856188367,0.263168071395572
-0.358433033246119,0.263049894592764
-0.358448032883205,0.262920099333651
-0.35844483260091,0.262778657521183
-0.358423409900522,0.26262554105831
-0.358383742283327,0.262460721847981
-0.358325807250612,0.262284171793147
-0.358249582303662,0.262095862796756
-0.358155044943765,0.261895766761758
-0.358042172672206,0.261683855591103
-0.357910942990273,0.26146010118774
-0.357761333399251,0.26122447545462
-0.357593321400428,0.260976950294691
-0.357406884495089,0.260717497610903
-0.357202000184521,0.260446089306207
-0.356978645970011,0.260162697283551
-0.356736799352844,0.259867293445886
-0.356476437834308,0.25955984969616
-0.356197538915689,0.259240337937324
-0.355900080098273,0.258908730072326
-0.355584038883347,0.258564998004118
-0.355249392772197,0.258209113635648
-0.35489611926611,0.257841048869866
-0.354524195866372,0.257460775609721
-0.354133600074269,0.257068265758164
-0.353724309391089,0.256663491218143
-0.353296301318117,0.25624642389261
-0.352849553356639,0.255817035684512
-0.352384043007944,0.255375298496799
-0.351899747773316,0.254921184232423
-0.351396645154042,0.254454664794331
-0.350874712651409,0.253975712085474
-0.350333927766703,0.253484298008801
-0.349774268001211,0.252980394467261
-0.349195710856219,0.252463973363806
-0.348598233833014,0.251935006601383
-0.347981814432882,0.251393466082943
-0.347346430157109,0.250839323711436
-0.346692058506981,0.25027255138981
-0.346018676983787,0.249693121021016
-0.345326263088811,0.249101004508003
-0.34461479432334,0.248496173753722
-0.343884248188661,0.24787860066112
-0.343134602186061,0.247248257133149
-0.342365833816825,0.246605115072757
-0.34157792058224,0.245949146382895
-0.340770839983592,0.245280322966512
-0.339944569522169,0.244598616726557
-0.339099086699256,0.24390399956598
-0.338234369016139,0.243196443387732
-0.337350393974106,0.242475920094761
-0.336447139074443,0.241742401590017
-0.335524581818437,0.240995859776449
-0.334582699707373,0.240236266557008
-0.333621470242538,0.239463593834643
-0.332640870925218,0.238677813512304
-0.331640879256701,0.237878897492939
-0.330621472738272,0.2370668176795
-0.329582628871218,0.236241545974935
-0.328524325156826,0.235403054282194
-0.327446539096381,0.234551314504227
-0.326349248191171,0.233686298543983
-0.325232429942482,0.232807978304413
-0.324096061851599,0.231916325688464
-0.322940121419811,0.231011312599088
-0.321764586148402,0.230092910939234
-0.320569433538661,0.229161092611852
-0.319354641091872,0.22821582951989
-0.318120186309322,0.227257093566299
-0.316866046692299,0.226284856654029
-0.315592199742088,0.225299090686028
-0.314298622959976,0.224299767565247
-0.312985293847249,0.223286859194635
-0.311652189905194,0.222260337477142
-0.310299288635097,0.221220174315718
-0.308926567538245,0.220166341613311
-0.307534004115924,0.219098811272873
-0.306121575869421,0.218017555197351
-0.304689260300021,0.216922545289697
-0.303237034909012,0.215813753452859
-0.30176487719768,0.214691151589788
-0.300272764667311,0.213554711603432
-0.298760674819192,0.212404405396742
-0.29722858515461,0.211240204872667
-0.29567647317485,0.210062081934156
-0.294104316381199,0.20887000848416
-0.292512092274944,0.207663956425628
-0.290899778357371,0.206443897661509
-0.289267352129766,0.205209804094754
-0.287614791093417,0.203961647628311
-0.285942072749609,0.202699400165131
-0.284249174599629,0.201423033608163
-0.282536074144763,0.200132519860357
-0.280802748886298,0.198827830824662
-0.279049176325521,0.197508938404028
-0.277275333963717,0.196175814501405
-0.275481199302173,0.194828431019742
-0.273666749842176,0.193466759861988
-0.271831963085012,0.192090772931095
-0.269976816531967,0.19070044213001
-0.268101287684329,0.189295739361684
-0.266205354043382,0.187876636529066
-0.264288993110415,0.186443105535106
-0.264288993110415,0.186443105535106
-0.262359590511668,0.184988386896578
-0.260424569595614,0.183505936942758
-0.258483964446893,0.18199605129535
-0.256537809150141,0.180459025576056
-0.254586137789995,0.17889515540658
-0.252628984451093,0.177304736408626
-0.250666383218073,0.175688064203895
-0.248698368175571,0.174045434414093
-0.246724973408226,0.172377142660921
-0.244746233000674,0.170683484566084
-0.242762181037553,0.168964755751284
-0.240772851603501,0.167221251838225
-0.238778278783154,0.16545326844861
-0.23677849666115,0.163661101204142
-0.234773539322126,0.161845045726524
-0.232763440850721,0.160005397637461
-0.230748235331571,0.158142452558654
-0.228727956849313,0.156256506111808
-0.226702639488586,0.154347853918626
-0.224672317334026,0.15241679160081
-0.222637024470271,0.150463614780064
-0.220596794981958,0.148488619078092
-0.218551662953724,0.146492100116596
-0.216501662470208,0.144474353517281
-0.214446827616046,0.142435674901848
-0.212387192475876,0.140376359892002
-0.210322791134335,0.138296704109445
-0.208253657676061,0.136197003175882
-0.20617982618569,0.134077552713014
-0.204101330747861,0.131938648342546
-0.202018205447211,0.129780585686181
-0.199930484368377,0.127603660365622
-0.197838201595996,0.125408168002572
-0.195741391214707,0.123194404218734
-0.193640087309145,0.120962664635813
-0.19153432396395,0.11871324487551
-0.189424135263757,0.11644644055953
-0.187309555293205,0.114162547309575
-0.185190618136931,0.111861860747349
-0.183067357879572,0.109544676494555
-0.180939808605766,0.107211290172896
-0.17880800440015,0.104861997404076
-0.176671979347361,0.102497093809798
-0.174531767532037,0.100116875011765
-0.172387403038816,0.0977216366316803
-0.170238919952334,0.0953116742912473
-0.168086352357228,0.0928872836121692
-0.165929734338138,0.0904487602161493
-0.163769099979699,0.0879963997248909
-0.161604483366549,0.0855304977600971
-0.159435918583326,0.0830513499434712
-0.157263439714667,0.0805592518967167
-0.15508708084521,0.0780544992415366
-0.152906876059591,0.0755373875996342
-0.150722859442448,0.0730082125927128
-0.148535065078419,0.0704672698424757
-0.14634352705214,0.0679148549706262
-0.14414827944825,0.0653512635988674
-0.141949356351386,0.0627767913489026
-0.139746791846185,0.0601917338424353
-0.137540620017284,0.0575963867011685
-0.135330874949321,0.0549910455468055
-0.133117590726934,0.0523760060010495
-0.130900801434759,0.049751563685604
-0.128680541157434,0.0471180142221721
-0.126456843979597,0.0444756532324571
-0.124229743985884,0.0418247763381622
-0.121999275260934,0.0391656791609908
-0.119765471889383,0.036498657322646
-0.117528367955869,0.0338240064448311
-0.11528799754503,0.0311420221492495
-0.113044394741503,0.0284530000576043
-0.110797593629924,0.0257572357915988
-0.108547628294933,0.0230550249729363
-0.106294532821165,0.02034666322332
-0.104038341293259,0.0176324461644533
-0.101779087795851,0.0149126694180393
-0.0995168064135795,0.0121876286057813
-0.0972515312310815,0.00945761934938263
-0.0949832963329945,0.00672293727054653
-0.0927121358039559,0.00398387799097624
-0.0904380837286028,0.00124073713237498
-0.088161174191573,-0.00150618968355392
-0.0858814412775036,-0.00425660683510721
-0.0835989190710321,-0.00701021870058161
-0.0813136416567959,-0.00976672965827394
-0.0790256431194323,-0.0125258440864809
-0.0767349575435788,-0.0152872663634991
-0.0744416190138728,-0.0180507008676255
-0.0721456616149516,-0.0208158519771567
-0.0698471194314526,-0.0235824240703895
-0.0675460265480133,-0.0263501215256206
-0.0652424170492709,-0.0291186487211467
-0.062936325019863,-0.0318877100352646
-0.0606277845444269,-0.034657009846271
-0.0583168297075999,-0.0374262525324627
-0.0560034945940196,-0.0401951424721363
-0.0536878132883232,-0.0429633840435888
-0.0513698198751481,-0.0457306816251167
-0.0490495484391319,-0.0484967395950167
-0.0467270330649118,-0.0512612623315858
-0.0444023078371252,-0.0540239542131205
-0.0420754068404095,-0.0567845196179177
-0.0397463641594022,-0.059542662924274
-0.0374152138787406,-0.0622980885104862
-0.035081990083062,-0.0650505007548511
-0.032746726857004,-0.0677996040356653
-0.0304094582852039,-0.0705451027312257
-0.028070218452299,-0.0732867012198289
-0.0257290414429268,-0.0760241038797717
-0.0233859613417246,-0.0787570150893508
-0.02104101223333,-0.081485139226863
-0.0186942282023801,-0.084208180670605
-0.0163456433335125,-0.0869258437988736
-0.0139952917113645,-0.0896378329899654
-0.0116432074205735,-0.0923438526221773
-0.00928942454577696,-0.0950436070738059
-0.00693397717161219,-0.097736800723148
-0.0045768993827166,-0.1004231379485
-0.00221822526372761,-0.10310232312816
0.000142011100717404,-0.105774060640423
0.00250377562598109,-0.108438054863586
0.004867034227426,-0.111094010175947
0.00723175282041475,-0.113741630955801
0.00959789732030995,-0.116380621581447
0.0119654336424743,-0.119010686431179
0.0143343277022702,-0.121631529883296
0.0167045454150605,-0.124242856316094
0.0190760526962076,-0.126844370107869
0.0214488154610743,-0.129435775636919
0.0238227996250231,-0.13201677728154
0.0261979711034166,-0.134587079420028
0.0285742958116174,-0.137146386430681
0.0309517396649882,-0.139694402691796
0.0333302685788915,-0.142230832581668
0.03570984846869,-0.144755380478596
0.0380904452497462,-0.147267750760875
0.0404720248374229,-0.149767647806802
0.0428545531470825,-0.152254775994674
0.0452379960940876,-0.154728839702787
0.047622319593801,-0.15718954330944
0.0500074895615852,-0.159636591192927
0.0523934719128029,-0.162069687731547
0.0547802325628165,-0.164488537303595
0.0571677374269888,-0.166892844287368
0.0595559524206823,-0.169282313061164
0.0619448434592597,-0.171656648003279
0.0643343764580835,-0.174015553492009
0.0667245173325164,-0.176358733905652
0.0691152319979211,-0.178685893622504
0.0715064863696599,-0.180996737020861
0.0738982463630957,-0.183290968479021
0.076290477893591,-0.185568292375281
0.0786831468765084,-0.187828413087937
0.0810762192272105,-0.190071034995285
0.0834696608610599,-0.192295862475623
0.0858634376934193,-0.194502599907247
0.0882575156396513,-0.196690951668455
0.0906518606151184,-0.198860622137542
0.0930464385351832,-0.201011315692805
0.0954412153152085,-0.203142736712542
0.0978361568705567,-0.205254589575049
0.10023122911659,-0.207346578658622
0.102626397968672,-0.209418408341559
0.105021629342165,-0.211469783002156
0.107416889152432,-0.213500407018711
0.109812143314834,-0.215509984769518
0.112207357744735,-0.217498220632876
0.114602498357497,-0.219464818987082
0.116997531068483,-0.221409484210431
0.119392421793055,-0.223331920681221
0.121787136446577,-0.225231832777748
0.12418164094441,-0.227108924878309
0.126575901201917,-0.228962901361201
0.128969883134462,-0.230793466604721
0.131363552657406,-0.232600324987165
0.133756875686112,-0.23438318088683
0.136149818135942,-0.236141738682012
0.13854234592226,-0.23787570275101
0.140934424960428,-0.239584777472118
0.143326021165809,-0.241268667223635
0.145717100453765,-0.242927076383856
0.148107628739658,-0.244559709331079
0.150497571938852,-0.2461662704436
0.152886895966709,-0.247746464099716
0.155275566738591,-0.249299994677724
0.157663550169862,-0.25082656655592
0.160050812175883,-0.252325884112601
0.162437318672018,-0.253797651726064
0.164823035573629,-0.255241573774606
0.167207928796078,-0.256657354636523
0.169591964254729,-0.258044698690112
0.171975107864944,-0.259403310313671
0.174357325542085,-0.260732893885494
0.176738583201515,-0.26203315378388
0.179118846758597,-0.263303794387126
0.181498082128693,-0.264544520073527
0.183876255227166,-0.26575503522138
0.186253331969378,-0.266935044208983
0.188629278270693,-0.268084251414632
0.191004060046472,-0.269202361216623
0.193377643212079,-0.270289077993254
0.195749993682875,-0.271344106122822
0.198121077374224,-0.272367149983622
0.200490860201489,-0.273357913953952
0.202859308080031,-0.274316102412109
0.205226386925213,-0.275241419736388
0.207592062652398,-0.276133570305088
0.209956301176949,-0.276992258496504
0.212319068414229,-0.277817188688934
0.214680330279599,-0.278608065260674
0.217040052688422,-0.27936459259002
0.219398201556061,-0.280086475055271
0.221754742797879,-0.280773417034722
0.224109642329239,-0.281425122906669
0.226462866065502,-0.282041297049411
0.228814379922032,-0.282621643841243
0.23116414981419,-0.283165867660463
0.233512141657341,-0.283673672885366
0.235858321366845,-0.284144763894251
0.238202654858067,-0.284578845065413
0.240545108046368,-0.284975620777149
0.242885646847111,-0.285334795407756
0.245224237175659,-0.285656073335531
0.247560844947374,-0.28593915893877
0.249895436077619,-0.286183756595771
0.252227976481757,-0.286389570684829
0.25455843207515,-0.286556305584242
0.25688676877316,-0.286683665672307
0.259212952491151,-0.28677135532732
0.261536949144485,-0.286819078927578
0.263858724648525,-0.286826540851377
0.266178244918633,-0.286793445477015
0.268495475870171,-0.286719497182788
0.270810383418503,-0.286604400346993
0.273122933478991,-0.286447859347926
0.275433091966998,-0.286249578563885
0.277740824797885,-0.286009262373165
0.280046097887017,-0.285726615154065
0.282348877149755,-0.28540134128488
0.284649128501463,-0.285033145143908
0.286946817857502,-0.284621731109444
0.289241911133235,-0.284166803559786
0.291534374244025,-0.283668066873231
0.293824173105235,-0.283125225428075
0.296111273632226,-0.282537983602615
0.298395641740363,-0.281906045775148
0.300677243345006,-0.28122911632397
0.30295604436152,-0.280506899627378
0.305232010705266,-0.279739100063669
0.307505108291608,-0.27892542201114
0.309775303035907,-0.278065569848088
0.312042560853526,-0.277159247952808
0.314306847659829,-0.276206160703598
0.316568129370177,-0.275206012478755
0.318826371899933,-0.274158507656576
0.32108154116446,-0.273063350615356
0.323333603079121,-0.271920245733394
0.325582523559277,-0.270728897388984
0.327828268520293,-0.269489009960426
0.330070803877529,-0.268200287826014
0.332310095546349,-0.266862435364046
0.334546109442116,-0.265475156952818
0.336778811480192,-0.264038156970628
0.339008167575939,-0.262551139795772
0.341234143644721,-0.261013809806547
0.3434567056019,-0.259425871381249
0.345675819362838,-0.257787028898175
0.347891450842898,-0.256096986735622
0.350103565957443,-0.254355449271887
0.352312130621835,-0.252562120885267
0.354517110751437,-0.250716705954057
0.356718472261612,-0.248818908856556
0.358916181067722,-0.246868433971059
0.36111020308513,-0.244864985675863
0.363300504229198,-0.242808268349266
0.365487050415289,-0.240697986369563
0.367669807558766,-0.238533844115052
0.36984874157499,-0.23631554596403
0.372023818379326,-0.234042796294792
0.374195003887135,-0.231715299485636
0.37636226401378,-0.229332759914859
0.378525564674624,-0.226894881960757
0.380684871785029,-0.224401370001628
0.382840151260358,-0.221851928415767
0.384991369015973,-0.219246261581471
0.387138490967237,-0.216584073877038
0.389281483029513,-0.213865069680764
0.391420311118163,-0.211088953370945
0.393554941148551,-0.208255429325879
0.395685339036037,-0.205364201923862
0.397811470695986,-0.202414975543191
0.399933302043759,-0.199407454562162
0.40205079899472,-0.196341343359074
0.404163927464231,-0.193216346312221
0.406272653367654,-0.190032167799901
0.408376942620353,-0.186788512200411
0.410476761137689,-0.183485083892047
0.412572074835026,-0.180121587253106
0.414662849627725,-0.176697726661885
0.41674905143115,-0.173213206496681
0.418830646160664,-0.16966773113579
0.420907599731628,-0.166061004957508
0.422979878059405,-0.162392732340134
0.425047447059359,-0.158662617661964
0.427110272646851,-0.154870365301293
0.429168320737245,-0.15101567963642
0.431221557245902,-0.14709826504564
0.433269948088186,-0.143117825907251
0.435313459179459,-0.139074066599549
0.437352056435083,-0.134966691500831
0.439385705770422,-0.130795404989394
0.441414373100838,-0.126559911443534
0.443438024341693,-0.122259915241548
0.44545662540835,-0.117895120761733
0.447470142216172,-0.113465232382386
0.449478540680521,-0.108969954481803
0.451481786716761,-0.104408991438282
0.453479846240252,-0.0997820476301181
0.455472685166359,-0.0950888274356091
0.457460269410444,-0.0903290352330512
0.459442564887869,-0.0855023754007416
0.461419537513997,-0.0806085523169766
0.463391153204191,-0.0756472703600533
0.465357377873813,-0.0706182339082681
0.467318177438225,-0.0655211473399183
0.469273517812791,-0.0603557150332999
0.471223364912874,-0.0551216413667103
0.473167684653834,-0.0498186307184457
0.475106442951036,-0.0444463874668033
0.477039605719842,-0.0390046159900794
0.478967138875614,-0.0334930206665712
0.480889008333716,-0.0279113058745749
0.482805180009509,-0.0222591759923878
0.484715619818356,-0.0165363353983062
0.48662029367562,-0.0107424884706272
0.488519167496664,-0.00487733958764718
0.490412207196849,0.00105940687233676
0.49229937869154,0.00706804653102833
0.494180647896098,0.0131488750101302
0.496055980725886,0.0193021879313463
0.497925343096266,0.0255282809163793
0.499788700922601,0.031827449586933
0.501646020120254,0.03819998956471
0.503497266604588,0.0446461964714144
0.505342406290964,0.0511663659287486
0.507181405094747,0.0577607935584166
0.509014228931297,0.064429774982121
0.510840843715978,0.0711736058215657
0.512661215364153,0.0779925816984534
0.514475309791183,0.0848869982344878
0.516283092912432,0.0918571510513718
0.518084530643263,0.0989033357708091
0.519879588899037,0.106025848014502
0.521668233595118,0.113224983404155
0.523450430646868,0.120501037561471
0.525226145969649,0.127854306108153
0.526995345478825,0.135285084665904
0.528757995089758,0.142793668856428
0.53051406071781,0.150380354301428
0.532263508278344,0.158045436622607
0.534006303686723,0.165789211441668
0.535742412858309,0.173611974380315
0.537471801708466,0.181514021060251
0.539194436152554,0.189495647103179
0.540910282105938,0.197557148130802
0.54261930548398,0.205698819764825
0.544321472202042,0.213920957626949
0.546016748175487,0.222223857338878
0.547705099319678,0.230607814522316
0.549386491549976,0.239073124798965
0.551060890781746,0.24762008379053
0.552728262930349,0.256248987118713
0.554388573911148,0.264960130405217
0.556041789639506,0.273753809271747
0.557687876030785,0.282630319340004
0.559326799000348,0.291589956231692
0.560958524463557,0.300633015568515
0.562583018335775,0.309759792972177
0.564200246532365,0.318970584064379
0.565810174968689,0.328265684466825
0.56741276956011,0.337645389801219
0.569007996221991,0.347109995689264
0.570595820869694,0.356659797752663
0.572176209418581,0.36629509161312
0.573749127784016,0.376016172892337
0.57531454188136,0.385823337212019
0.576872417625978,0.395716880193867
0.57842272093323,0.405697097459586
0.57996541771848,0.415764284630879
0.581500473897091,0.425918737329448
0.583027855384424,0.436160751176998
0.584547528095843,0.446490621795232
0.586059457946711,0.456908644805852
0.587563610852389,0.467415115830562
0.58905995272824,0.478010330491065
0.590548449489628,0.488694584409065
0.592029067051914,0.499468173206265
0.593501771330461,0.510331392504368
