-0.723840104836404,-0.00135392153731129
0.694027399610691,0.415611447230219
-0.178739356602554,-0.899994845489243
0.258899578120122,-0.711820674108658
0.696538512842798,-0.523646502728072
0.107794271502509,0.143717765259416
0.709090700929645,-0.0106282950055197
1.31038713035678,-0.164974355270455
0.764143936553804,0.895546226303202
-0.65472302382082,-0.437491581826983
