-0.188625848828917,-0.496807636259345
0.851889098590046,0.597394746181833
0.828567363201199,0.972298024705879
0.42075122063978,0.804888460836187
0.0129350780783608,0.637478896966495
-0.370347061638396,0.560888795818023
-0.0598036465835845,-0.241636628801541
0.250739768471227,-1.0441620534211
-0.638057366276472,-0.924639428054616
-0.756099784205847,0.509450385951349
