0.140877640860452,0.778594517191816
0.527003826006899,0.335822797829772
-0.0944195549508233,-0.952513737487133
-0.716001116024649,-0.464553772045029
-1.33758267709847,0.0234061933970742
-0.674469065809596,-0.414367575817377
0.496310706462941,0.163998150660013
1.66709047873548,0.742363877137403
0.419712900920851,-0.697683894155364
-0.490873388123706,0.459406158405015
