-0.747312207786469,0.056906715034674
-0.780229152946616,-0.499611601097142
-0.278011221950764,0.411337787515049
0.122600879529056,-0.550640932894517
0.523212981008876,-1.51261965330408
0.00425829005104861,0.0373518045054271
-0.257381048037639,0.125914477966501
-0.519020386126326,0.214477151427575
0.903365826364755,-0.97850152120515
-0.962259494252162,-0.780369429499056
