-0.0348670698328646,-0.399167991014964
-0.0300071994443499,-0.397008382817023
-0.0251739168930472,-0.394837521373016
-0.0203672141713178,-0.392655523360316
-0.0155870832715234,-0.390462505456293
-0.0108335161860253,-0.388258584338318
-0.00610650490718511,-0.386043876683761
-0.0014060414273642,-0.383818499169993
0.00326788226107592,-0.381582568474385
0.00791527416577377,-0.379336201274308
0.0125361422943679,-0.377079514247133
0.0171304946544968,-0.374812624070229
0.021698339253799,-0.372535647420969
0.026239684099913,-0.370248700976723
0.0307545372004774,-0.367951901414861
0.0352429065631307,-0.365645365412754
0.0397048001955114,-0.363329209647773
0.044140226105258,-0.361003550797289
0.0485491923000091,-0.358668505538673
0.0529317067874031,-0.356324190549295
0.0572877775750787,-0.353970722506526
0.0616174126706743,-0.351608218087737
0.0659206200818285,-0.349236793970298
0.0701974078161797,-0.346856566831581
0.0744477838813666,-0.344467653348956
0.0786717562850276,-0.342070170199794
0.0828693330348012,-0.339664234061465
0.087040522138326,-0.337249961611341
0.0911853316032406,-0.334827469526791
0.0953037694371834,-0.332396874485188
0.0993958436477929,-0.329958293163901
0.103461562242708,-0.327511842240302
0.107500933229566,-0.325057638391761
0.111513964616007,-0.322595798295649
0.115500664409669,-0.320126438629336
0.11946104061819,-0.317649676070194
0.123395101249209,-0.315165627295593
0.127302854310365,-0.312674408982904
0.131184307809295,-0.310176137809497
0.135039469753639,-0.307670930452744
0.138868348151035,-0.305158903590016
0.142670951009122,-0.302640173898682
0.146447286335537,-0.300114858056114
0.150197362137921,-0.297583072739682
0.15392118642391,-0.295044934626758
0.157618767201144,-0.292500560394712
0.161290112477261,-0.289950066720914
0.164935230259899,-0.287393570282736
0.168554128556698,-0.284831187757548
0.172146815375296,-0.282263035822721
0.175713298723331,-0.279689231155626
0.179253586608442,-0.277109890433633
0.182767687038267,-0.274525130334114
0.186255608020445,-0.271935067534439
0.189717357562614,-0.269339818711978
0.193152943672413,-0.266739500544103
0.19656237435748,-0.264134229708185
0.199945657625455,-0.261524122881593
0.203302801483975,-0.2589092967417
0.206633813940679,-0.256289867965875
0.209938703003205,-0.253665953231489
0.213217476679192,-0.251037669215913
0.216470142976279,-0.248405132596518
0.219696709902104,-0.245768460050675
0.222897185464306,-0.243127768255754
0.226071577670523,-0.240483173889127
0.229219894528393,-0.237834793628163
0.232342144045556,-0.235182744150234
0.235438334229649,-0.23252714213271
0.238508473088312,-0.229868104252962
0.241552568629182,-0.227205747188362
0.244570628859899,-0.224540187616278
0.2475626617881,-0.221871542214084
0.250528675421425,-0.219199927659148
0.253468677767511,-0.216525460628843
0.256382676833998,-0.213848257800538
0.259270680628524,-0.211168435851605
0.262132697158728,-0.208486111459413
0.264968734432247,-0.205801401301335
0.26777880045672,-0.203114422054741
0.270562903239787,-0.200425290397001
0.273321050789086,-0.197734123005486
0.276053251112254,-0.195041036557567
0.278759512216931,-0.192346147730615
0.281439842110755,-0.189649573202001
0.284094248801364,-0.186951429649094
0.286722740296398,-0.184251833749267
0.289325324603495,-0.18155090217989
0.291902009730292,-0.178848751618333
0.29445280368443,-0.176145498741967
0.296977714473546,-0.173441260228164
0.299476750105278,-0.170736152754293
0.301949918587266,-0.168030292997726
0.304397227927148,-0.165323797635833
0.306818686132561,-0.162616783345985
0.309214301211146,-0.159909366805553
0.31158408117054,-0.157201664691907
0.313928034018383,-0.154493793682419
0.316246167762311,-0.151785870454459
0.318538490409965,-0.149078011685398
0.320805009968982,-0.146370334052607
0.323045734447001,-0.143662954233456
0.325260671851661,-0.140955988905316
0.3274498301906,-0.138249554745558
0.329613217471456,-0.135543768431552
0.331750841701869,-0.13283874664067
0.333862710889476,-0.130134606050282
0.335948833041916,-0.127431463337759
0.338009216166828,-0.124729435180472
0.340043868271851,-0.122028638255791
0.342052797364622,-0.119329189241088
0.34403601145278,-0.116631204813732
0.345993518543964,-0.113934801651095
0.347925326645812,-0.111240096430547
0.349831443765964,-0.10854720582946
0.351711877912056,-0.105856246525203
0.353566637091729,-0.103167335195149
0.35539572931262,-0.100480588516667
0.357199162582368,-0.0977961231671277
0.358976944908611,-0.0951140558239028
0.360729084298989,-0.0924345031643626
0.362455588761139,-0.0897575818658779
0.3641564663027,-0.0870834086058195
0.365831724931311,-0.0844121000615582
0.367481372654609,-0.0817437729104646
0.369105417480235,-0.0790785438299095
0.370703867415825,-0.0764165294972638
0.372276730469019,-0.073757846589898
0.373824014647456,-0.0711026117851832
0.375345727958773,-0.0684509417604899
0.376841878410609,-0.0658029531931889
0.378312474010603,-0.0631587627606509
0.379757522766394,-0.0605184871402469
0.381177032685619,-0.0578822430093474
0.382571011775918,-0.0552501470453233
0.383939468044928,-0.0526223159255453
0.385282409500289,-0.0499988663273842
0.386599844149639,-0.0473799149282106
0.387891780000617,-0.0447655784053955
0.38915822506086,-0.0421559734363094
0.390399187338008,-0.0395512166983233
0.391614674839699,-0.0369514248688079
0.392804695573571,-0.0343567146251338
0.393969257547263,-0.0317672026446719
0.395108368768414,-0.0291830056047929
0.396222037244663,-0.0266042401828677
0.397310270983646,-0.0240310230562669
0.398373077993004,-0.0214634709023612
0.399410466280375,-0.0189017003985215
0.400422443853397,-0.0163458282221185
0.401409018719709,-0.013795971050523
0.402370198886949,-0.0112522455611056
0.403305992362756,-0.00871476843123727
0.404216407154768,-0.00618365633828868
0.405101451270624,-0.00365902595963057
0.405961132717962,-0.00114099397263365
0.406795459504421,0.00137032294533118
0.40760443963764,0.00387480811689325
0.408388081125257,0.00637234486468186
0.40914639197491,0.00886281651132619
0.409879380194238,0.0113461063794554
0.41058705379088,0.0138220977916989
0.411269420772473,0.0162906740706859
0.411926489146658,0.0187517185390455
0.412558266921071,0.0212051145194071
0.413164762103352,0.0236507453343998
0.413745982701139,0.026088494306653
0.414301936722071,0.0285182447587959
0.414832632173786,0.0309398800134576
0.415338077063923,0.0333532833932675
0.41581827940012,0.0357583382208549
0.416273247190016,0.0381549278188488
0.416702988441249,0.0405429355098787
0.417107511161458,0.0429222446165736
0.417486823358281,0.045292738461563
0.417840933039357,0.0476543003674759
0.418169848212325,0.0500068136569417
0.418473576884822,0.0523501616525896
0.418752127064488,0.0546842276770489
0.419005506758961,0.0570088950529487
0.41923372397588,0.0593240471029184
0.419436786722882,0.0616295671495871
0.419614703007607,0.0639253385155842
0.419767480837693,0.0662112445235388
0.419895128220779,0.0684871684960802
0.419997653164503,0.0707529937558376
0.420075063676503,0.0730086036254404
0.420127367764419,0.0752538814275177
0.420154573435888,0.0774887104846987
0.42015668869855,0.0797129741196128
0.420133721560042,0.0819265556548891
0.420085680028004,0.084129338413157
0.420012572110073,0.0863212057170455
0.419914405813889,0.0885020408891841
0.419791189147089,0.0906717272522019
0.419642930117313,0.0928301481287281
0.419469636732199,0.0949771868413921
0.419271316999386,0.097112726712823
0.419047978926511,0.0992366510656502
0.418799630521213,0.101348843222503
0.418526279791132,0.10344918650601
0.418227934743906,0.105537564238801
0.417904603387172,0.107613859743506
0.41755629372857,0.109677956342753
0.417183013775738,0.111729737359171
0.416784771536314,0.11376908611539
0.416361575017938,0.11579588593404
0.415913432228247,0.117810020137749
0.415440351174881,0.119811372049146
0.414942339865477,0.121799824990862
0.414419406307675,0.123775262285524
0.413871558509112,0.125737567255763
0.413298804477428,0.127686623224208
0.412701152220261,0.129622313513487
0.412078609745248,0.131544521446231
0.41143118506003,0.133453130345068
0.410758886172244,0.135348023532627
0.410061721089529,0.137229084331538
0.409339697819524,0.13909619606443
0.408592824369866,0.140949242053933
0.407821108748195,0.142788105622675
0.40702455896215,0.144612670093286
0.406203183019367,0.146422818788395
0.405356988927487,0.148218435030631
0.404485984694147,0.149999402142624
0.403590178326986,0.151765603447003
0.402669577833643,0.153516922266396
0.401724191221757,0.155253241923434
0.400754026498965,0.156974445740745
0.399759091672906,0.158680417040959
0.398739394751219,0.160371039146705
0.397694943741542,0.162046195380613
0.396625746651514,0.16370576906531
0.395531811488773,0.165349643523428
0.394413146260958,0.166977702077594
0.393269758975707,0.168589828050439
0.39210165764066,0.170185904764591
0.390908850263454,0.171765815542679
0.389691344851728,0.173329443707334
0.38844914941312,0.174876672581184
0.387182271955269,0.176407385486858
0.385890720485814,0.177921465746986
0.384574503012393,0.179418796684197
0.383233627542644,0.18089926162112
0.381868102084207,0.182362743880384
0.380477934644719,0.183809126784619
0.379063133231819,0.185238293656454
0.377623705853146,0.186650127818518
0.376159660516338,0.18804451259344
0.374671005229034,0.18942133130385
0.373157747998872,0.190780467272376
0.371619896833491,0.192121803821649
0.370057459740529,0.193445224274297
0.368470444727625,0.19475061195295
0.366858859802418,0.196037850180237
0.365222712972545,0.197306822278786
0.363562012245646,0.198557411571228
0.361876765629358,0.199789501380192
0.360166981131321,0.201002975028306
0.358432666759173,0.2021977158382
0.356673830520553,0.203373607132504
0.354890480423098,0.204530532233846
0.353082624474448,0.205668374464856
0.351250270682242,0.206787017148162
0.349393427054116,0.207886343606395
0.347512101597711,0.208966237162184
0.345606302320665,0.210026581138157
0.343676037230615,0.211067258856944
0.341721314335202,0.212088153641175
0.339742141642062,0.213089148813478
0.337738527158836,0.214070127696483
0.335710478893161,0.215030973612818
0.333658004852675,0.215971569885114
0.331581113045018,0.216891799835999
0.329479811477827,0.217791546788103
0.327354108158742,0.218670694064055
0.325204011095401,0.219529124986484
0.323029528295443,0.220366722878019
0.320830667766505,0.22118337106129
0.318607437516227,0.221978952858926
0.316359845552246,0.222753351593556
0.314087899882203,0.22350645058781
0.311791608513734,0.224238133164316
0.309470979454479,0.224948282645704
0.307126020712076,0.225636782354603
0.304756740294163,0.226303515613642
0.30236314620838,0.226948365745451
0.299945246462365,0.227571216072659
0.297503049063755,0.228171949917895
0.295036562020191,0.228750450603788
0.292545793339309,0.229306601452968
0.29003075102875,0.229840285788064
0.28749144309615,0.230351386931704
0.28492787754915,0.230839788206519
0.282340062395387,0.231305372935138
0.279728005642499,0.231748024440189
0.277091715298126,0.232167626044302
0.274431199369906,0.232564061070107
0.271746465865478,0.232937212840232
0.269037522792479,0.233286964677307
0.266304378158549,0.233613199903961
0.263547039971326,0.233915801842823
0.260765516238449,0.234194653816522
0.257959814967555,0.234449639147689
0.255129944166285,0.234680641158951
0.252275911842275,0.234887543172938
0.249397726003165,0.23507022851228
0.246495394656593,0.235228580499606
0.243568925810198,0.235362482457544
0.240618327471618,0.235471817708725
0.237643607648492,0.235556469575777
0.234644774348458,0.23561632138133
0.231621835579155,0.235651256448013
0.228574799348221,0.235661158098455
0.225503673663295,0.235645909655285
0.222408466532016,0.235605394441133
0.219289185962021,0.235539495778628
0.21614583996095,0.235448096990399
0.21297843653644,0.235331081399076
0.209786983696132,0.235188332327287
0.206571489447662,0.235019733097661
0.203331961798669,0.234825167032829
0.200068408756793,0.23460451745542
0.196780838329671,0.234357667688061
0.193469258524943,0.234084501053384
0.190133677350246,0.233784900874017
0.186774102813219,0.233458750472589
0.183390542921501,0.23310593317173
0.17998300568273,0.232726332294068
0.176551499104545,0.232319831162234
0.173096031194584,0.231886313098855
0.169616609960485,0.231425661426563
0.166113243409889,0.230937759467985
0.162585939550431,0.230422490545751
0.159034706389753,0.22987973798249
0.155459551935491,0.229309385100832
0.151860484195284,0.228711315223406
0.148237511176772,0.228085411672841
0.144590640887592,0.227431557771766
0.140919881335383,0.22674963684281
0.137225240527783,0.226039532208603
0.133506726472431,0.225301127191774
0.129764347176966,0.224534305114952
0.125998110649026,0.223738949300767
0.12220802489625,0.222914943071847
0.118394097926276,0.222062169750823
0.114556337746742,0.221180512660322
0.110694752365287,0.220269855122975
0.106809349789551,0.219330080461411
0.10290013802717,0.218361071998258
0.0989671250857844,0.217362713056147
0.0950103189730318,0.216334886957706
0.0910297276965511,0.215277477025564
0.0870253592639806,0.214190366582352
0.0829972216829591,0.213073438950698
0.0789453229611248,0.211926577453231
0.0748696711061166,0.21074966541258
0.0707702741255727,0.209542586151376
0.0666471400271318,0.208305222992247
0.0625002768184322,0.207037459257821
0.0583296925071128,0.20573917827073
0.0541353951008118,0.204410263353601
0.049917392607168,0.203050597829065
0.0456756930338196,0.201660065019749
0.0414103043884054,0.200238548248285
0.0371212346785637,0.1987859308373
0.0328084919119334,0.197302096109424
0.0284720840961525,0.195786927387286
0.02411201923886,0.194240307993516
0.019728305347694,0.192662121250743
0.0153209504302935,0.191052250481596
0.0108899624942965,0.189410579008704
0.006435349547342,0.187736990154696
0.00195711959706817,0.186031367242202
-0.00254471934888612,0.184293593593852
-0.00707015928288277,0.182523552532273
-0.0116191921972828,0.180721127380096
-0.0161918100844481,0.17888620145995
-0.0207880049367398,0.177018658094463
-0.0254077687465197,0.175118380606266
-0.0300510935061489,0.173185252317987
-0.0347179712079893,0.171219156552256
-0.0394083938444019,0.169219976631702
-0.0441223534077487,0.167187595878954
-0.0488598418903907,0.165121897616641
-0.0536208512846897,0.163022765167393
-0.058405373583007,0.160890081853839
-0.0632134007777042,0.158723730998609
-0.0680449248611426,0.15652359592433
-0.0728999378256839,0.154289559953633
-0.0777784316636893,0.152021506409147
-0.0826803983675206,0.149719318613501
-0.0876058299295389,0.147382879889325
-0.0925547183421061,0.145012073559247
-0.0975270555975832,0.142606782945897
-0.102522833688332,0.140166891371904
-0.107542044606714,0.137692282159897
-0.112584680345091,0.135182838632506
-0.117650732895823,0.13263844411236
-0.122740194251274,0.130058981922088
-0.122740194251274,0.130058981922088
-0.127824398728375,0.127491125656974
-0.132874729488327,0.12498144139721
-0.137891251789891,0.12252965119279
-0.142874030891829,0.120135477093705
-0.147823132052903,0.117798641149948
-0.152738620531872,0.11551886541151
-0.1576205615875,0.113295871928384
-0.162469020478546,0.111129382750563
-0.167284062463773,0.109019119928038
-0.172065752801942,0.106964805510802
-0.176814156751814,0.104966161548847
-0.181529339572151,0.103022910092165
-0.186211366521713,0.101134773190749
-0.190860302859263,0.0993014728945903
-0.195476213843561,0.0975227312536818
-0.200059164733369,0.0957982703180156
-0.204609220787449,0.0941278121375839
-0.209126447264561,0.092511078762379
-0.213610909423468,0.090947792242393
-0.21806267252293,0.0894376746276184
-0.222481801821708,0.0879804479680474
-0.226868362578565,0.086575834313672
-0.231222420052261,0.0852235557144846
-0.235544039501558,0.0839233342204776
-0.239833286185217,0.0826748918816431
-0.244090225362,0.0814779507479734
-0.248314922290667,0.0803322328694606
-0.252507442229981,0.0792374602960971
-0.256667850438702,0.0781933550778752
-0.260796212175593,0.077199639264787
-0.264892592699413,0.0762560349068248
-0.268957057268926,0.0753622640539809
-0.272989671142891,0.0745180487562476
-0.276990499580071,0.0737231110636169
-0.280959607839226,0.0729771730260813
-0.284897061179119,0.072279956693633
-0.28880292485851,0.0716311841162642
-0.29267726413616,0.0710305773439671
-0.296520144270832,0.070477858426734
-0.300331630521287,0.0699727494145573
-0.304111788146285,0.069514972357429
-0.307860682404589,0.0691042493053415
-0.311578378554959,0.068740302308287
-0.315264941856157,0.0684228534162578
-0.318920437566945,0.0681516246792461
-0.322544930946083,0.0679263381472442
-0.326138487252333,0.0677467158702442
-0.329701171744456,0.0676124798982385
-0.333233049681214,0.0675233522812194
-0.336734186321368,0.067479055069179
-0.34020464692368,0.0674793103121095
-0.343644496746911,0.0675238400600034
-0.347053801049821,0.0676123663628528
-0.350432625091173,0.06774461127065
-0.353781034129728,0.0679202968333871
-0.357099093424248,0.0681391451010565
-0.360386868233492,0.0684008781236504
-0.363644423816224,0.0687052179511611
-0.366871825431204,0.0690518866335808
-0.370069138337194,0.0694406062209017
-0.373236427792954,0.0698710987631162
-0.376373759057247,0.0703430863102164
-0.379481197388834,0.0708562909121946
-0.382558808046476,0.071410434619043
-0.385606656288934,0.072005239480754
-0.38862480737497,0.0726404275473197
-0.391613326563345,0.0733157208687324
-0.39457227911282,0.0740308414949845
-0.397501730282158,0.074785511476068
-0.400401745330118,0.0755794528619752
-0.403272389515463,0.0764123877026984
-0.406113728096954,0.0772840380482299
-0.408925826333353,0.078194125948562
-0.41170874948342,0.0791423734536867
-0.414462562805916,0.0801285026135965
-0.417187331559605,0.0811522354782835
-0.419883121003246,0.08221329409774
-0.422549996395601,0.0833114005219583
-0.425188022995431,0.0844462768009305
-0.427797266061498,0.085617644984649
-0.430377790852564,0.0868252271231061
-0.432929662627388,0.0880687452662939
-0.435452946644734,0.0893479214642046
-0.437947708163361,0.0906624777668306
-0.440414012442033,0.0920121362241642
-0.442851924739509,0.0933966188861974
-0.445261510314551,0.0948156478029227
-0.447642834425922,0.0962689450243322
-0.449995962332381,0.0977562326004182
-0.45232095929269,0.099277232581173
-0.454617890565611,0.100831667016589
-0.456886821409905,0.102419257956658
-0.459127817084333,0.104039727451372
-0.461340942847658,0.105692797550724
-0.463526263958639,0.107378190304707
-0.465683845676039,0.109095627763311
-0.467813753258618,0.11084483197653
-0.469916051965139,0.112625524994356
-0.471990807054362,0.114437428866781
-0.474038083785049,0.116280265643797
-0.476057947415962,0.118153757375396
-0.478050463205861,0.120057626111571
-0.480015696413507,0.121991593902314
-0.481953712297664,0.123955382797618
-0.483864576117091,0.125948714847474
-0.485748353130549,0.127971312101875
-0.487605108596802,0.130022896610812
-0.489434907774609,0.132103190424279
-0.491237815922732,0.134211915592268
-0.493013898299932,0.13634879416477
-0.494763220164971,0.138513548191778
-0.496485846776611,0.140705899723284
-0.498181843393612,0.142925570809281
-0.499851275274736,0.145172283499761
-0.501494207678744,0.147445759844715
-0.503110705864397,0.149745721894137
-0.504700835090458,0.152071891698018
-0.506264660615687,0.154423991306351
-0.507802247698845,0.156801742769128
-0.509313661598695,0.159204868136342
-0.510798967573997,0.161633089457984
-0.512258230883512,0.164086128784046
-0.513691516786003,0.166563708164522
-0.51509889054023,0.169065549649402
-0.516480417404955,0.17159137528868
-0.517836162638939,0.174140907132348
-0.519166191500943,0.176713867230398
-0.52047056924973,0.179309977632823
-0.521749361144059,0.181928960389613
-0.523002632442693,0.184570537550763
-0.524230448404393,0.187234431166263
-0.525432874287921,0.189920363286107
-0.526609975352037,0.192628055960286
-0.527761816855502,0.195357231238792
-0.52888846405708,0.198107611171619
-0.52998998221553,0.200878917808758
-0.531066436589614,0.203670873200202
-0.532117892438093,0.206483199395942
-0.533144415019729,0.209315618445971
-0.534146069593284,0.212167852400282
-0.535122921417517,0.215039623308866
-0.536075035751192,0.217930653221715
-0.537002477853069,0.220840664188823
-0.537905312981909,0.223769378260181
-0.538783606396475,0.226716517485781
-0.539637423355526,0.229681803915616
-0.540466829117825,0.232664959599678
-0.541271888942133,0.23566570658796
-0.542052668087212,0.238683766930452
-0.542809231811822,0.241718862677149
-0.543541645374725,0.244770715878041
-0.544249974034683,0.247839048583122
-0.544934283050456,0.250923582842383
-0.545594637680806,0.254024040705817
-0.546231103184495,0.257140144223416
-0.546843744820284,0.260271615445172
-0.547432627846934,0.263418176421078
-0.547997817523206,0.266579549201125
-0.548539379107862,0.269755455835306
-0.549057377859664,0.272945618373614
-0.549551879037372,0.27614975886604
-0.550022947899748,0.279367599362577
-0.550470649705553,0.282598861913216
-0.550895049713549,0.285843268567951
-0.551296213182498,0.289100541376774
-0.551674205371159,0.292370402389676
-0.552029091538295,0.29565257365665
-0.552360936942668,0.298946777227688
-0.552669806843037,0.302252735152783
-0.552955766498166,0.305570169481926
-0.553218881166815,0.308898802265111
-0.553459216107745,0.312238355552328
-0.553676836579718,0.315588551393571
-0.553871807841495,0.318949111838832
-0.554044195151838,0.322319758938103
-0.554194063769508,0.325700214741376
-0.554321478953266,0.329090201298644
-0.554426505961874,0.332489440659898
-0.554509210054093,0.335897654875131
-0.554569656488684,0.339314565994336
-0.554607910524409,0.342739896067503
-0.554624037420029,0.346173367144627
-0.554618102434305,0.349614701275699
-0.554590170825999,0.35306362051071
-0.554540307853873,0.356519846899655
-0.554468578776686,0.359983102492524
-0.554375048853202,0.363453109339309
-0.554259783342181,0.366929589490005
-0.554122847502385,0.370412264994601
-0.553964306592574,0.373900857903092
-0.553784225871511,0.377395090265468
-0.553582670597956,0.380894684131722
-0.553359706030671,0.384399361551847
-0.553115397428418,0.387908844575835
-0.552849810049957,0.391422855253678
-0.552563009154051,0.394941115635367
-0.55225505999946,0.398463347770897
-0.551926027844945,0.401989273710258
-0.551575977949269,0.405518615503443
-0.551204975571192,0.409051095200444
-0.550813085969476,0.412586434851254
-0.550400374402882,0.416124356505864
-0.549966906130172,0.419664582214267
-0.549512746410107,0.423206834026456
-0.549037960501448,0.426750833992422
-0.548542613662957,0.430296304162158
-0.548026771153394,0.433842966585655
-0.547490498231522,0.437390543312907
-0.546933860156102,0.440938756393906
-0.546356922185894,0.444487327878643
-0.545759749579662,0.448035979817111
-0.545142407596164,0.451584434259302
-0.544504961494164,0.455132413255208
-0.543847476532423,0.458679638854823
-0.543170017969701,0.462225833108137
-0.54247265106476,0.465770718065143
-0.541755441076362,0.469314015775835
-0.541018453263268,0.472855448290202
-0.540261752884239,0.476394737658239
-0.539485405198037,0.479931605929937
-0.538689475463423,0.483465775155288
-0.537874028939158,0.486996967384285
-0.537039130884003,0.49052490466692
-0.536184846556721,0.494049309053185
-0.535311241216072,0.497569902593073
-0.534418380120818,0.501086407336575
-0.53350632852972,0.504598545333684
-0.532575151701539,0.508106038634393
-0.531624914895037,0.511608609288693
-0.530655683368976,0.515105979346576
-0.529667522382116,0.518597870858036
-0.528660497193219,0.522084005873063
-0.527634673061045,0.525564106441652
-0.526590115244358,0.529037894613793
-0.525526889001918,0.532505092439479
-0.524445059592485,0.535965421968701
-0.523344692274823,0.539418605251454
-0.522225852307691,0.542864364337728
-0.521088604949852,0.546302421277516
-0.519933015460067,0.549732498120811
-0.518759149097097,0.553154316917604
-0.517567071119703,0.556567599717887
-0.516356846786647,0.559972068571653
-0.51512854135669,0.563367445528895
-0.513882220088593,0.566753452639604
-0.512617948241119,0.570129811953773
-0.511335791073027,0.573496245521394
-0.510035813843081,0.576852475392458
-0.50871808181004,0.58019822361696
-0.507382660232666,0.58353321224489
-0.506029614369722,0.586857163326241
-0.504659009479967,0.590169798911005
-0.503270910822163,0.593470841049175
-0.501865383655072,0.596760011790742
-0.500442493237455,0.600037033185699
-0.499002304828074,0.603301627284039
-0.49754488368569,0.606553516135753
-0.496070295069063,0.609792421790833
-0.494578604236956,0.613018066299273
-0.49306987644813,0.616230171711063
-0.491544176961346,0.619428460076198
-0.490001571035366,0.622612653444668
-0.488442123928951,0.625782473866465
-0.486865900900861,0.628937643391583
-0.48527296720986,0.632077884070014
-0.483663388114707,0.635202917951749
-0.482037228874165,0.638312467086781
-0.480394554746995,0.641406253525102
-0.478735430991957,0.644483999316705
-0.477059922867815,0.647545426511581
-0.475368095633327,0.650590257159724
-0.473660014547257,0.653618213311124
-0.471935744868365,0.656629017015775
-0.470195351855414,0.659622390323668
-0.468438900767163,0.662598055284797
-0.466666456862375,0.665555733949153
-0.464878085399811,0.668495148366728
-0.463073851638232,0.671416020587515
-0.4612538208364,0.674318072661506
-0.459418058253075,0.677201026638692
-0.45756662914702,0.680064604569068
-0.455699598776996,0.682908528502624
-0.453817032401764,0.685732520489353
-0.451918995280085,0.688536302579247
-0.450005552670721,0.691319596822299
-0.448076769832432,0.6940821252685
-0.446132712023982,0.696823609967843
-0.44417344450413,0.699543772970321
-0.442199032531639,0.702242336325925
-0.440209541365269,0.704919022084647
-0.438205036263781,0.707573552296481
-0.436185582485938,0.710205649011417
-0.434151245290501,0.712815034279449
-0.432102089936231,0.715401430150569
-0.430038181681889,0.717964558674769
-0.427959585786236,0.720504141902041
-0.425866367508035,0.723019901882377
-0.423758592106046,0.72551156066577
-0.421636324839031,0.727978840302212
-0.41949963096575,0.730421462841695
-0.417348575744967,0.732839150334211
-0.415183224435441,0.735231624829753
-0.413003642295934,0.737598608378313
-0.410809894585208,0.739939823029884
-0.408602046562023,0.742254990834457
-0.406380163485142,0.744543833842024
-0.404144310613326,0.746806074102578
-0.401894553205335,0.749041433666112
-0.399630956519932,0.751249634582617
-0.397353585815877,0.753430398902085
-0.395062506351932,0.75558344867451
-0.392757783386859,0.757708505949882
-0.390439482179418,0.759805292778195
-0.388107667988372,0.761873531209441
-0.385762406072481,0.763912943293612
-0.383403761690506,0.7659232510807
-0.38103180010121,0.767904176620697
-0.378646586563354,0.769855441963596
-0.376248186335698,0.771776769159389
-0.373836664677004,0.773667880258068
-0.371412086846034,0.775528497309625
-0.368974518101549,0.777358342364053
-0.36652402370231,0.779157137471344
-0.364060668907079,0.780924604681491
-0.361584518974617,0.782660466044484
-0.359095639163685,0.784364443610318
-0.356594094733045,0.786036259428983
-0.354079950941458,0.787675635550472
-0.351553273047685,0.789282294024778
-0.349014126310488,0.790855956901892
-0.346462575988628,0.792396346231808
-0.343898687340867,0.793903184064516
-0.341322525625966,0.79537619245001
-0.338734156102685,0.796815093438282
-0.336133644029788,0.798219609079324
-0.333521054666034,0.799589461423127
-0.330896453270185,0.800924372519686
-0.328259905101003,0.80222406441899
-0.325611475417249,0.803488259171034
-0.322951229477685,0.804716678825809
-0.320279232541071,0.805909045433307
-0.317595549866169,0.807065081043521
-0.31490024671174,0.808184507706443
-0.312193388336547,0.809267047472065
-0.309475039999349,0.810312422390379
-0.306745266958909,0.811320354511378
-0.304004134473988,0.812290565885055
-0.301251707803347,0.8132227785614
-0.298488052205747,0.814116714590406
-0.29571323293995,0.814972096022067
-0.292927315264718,0.815788644906373
-0.290130364438811,0.816566083293317
-0.287322445720991,0.817304133232892
-0.28450362437002,0.818002516775089
-0.281673965644658,0.818660955969901
-0.278833534803667,0.819279172867321
-0.275982397105808,0.81985688951734
-0.273120617809844,0.82039382796995
-0.270248262174534,0.820889710275145
-0.267365395458641,0.821344258482915
-0.264472082920925,0.821757194643254
-0.261568389820149,0.822128240806154
-0.258654381415074,0.822457119021606
-0.25573012296446,0.822743551339604
-0.252795679727069,0.822987259810139
-0.249851116961663,0.823187966483204
-0.246896499927003,0.823345393408791
-0.24393189388185,0.823459262636891
-0.240957364084966,0.823529296217499
-0.237972975795112,0.823555216200605
-0.234978794271049,0.823536744636201
-0.23197488477154,0.823473603574281
-0.228961312555344,0.823365515064837
-0.225938142881223,0.82321220115786
-0.222905441007939,0.823013383903342
-0.219863272194254,0.822768785351278
-0.216811701698928,0.822478127551657
-0.213750794780723,0.822141132554473
-0.2106806166984,0.821757522409718
-0.207601232710721,0.821327019167384
-0.204512708076446,0.820849344877464
-0.201415108054338,0.820324221589949
-0.198308497903157,0.819751371354832
-0.195192942881666,0.819130516222105
-0.192068508248625,0.818461378241761
-0.188935259262795,0.817743679463791
-0.185793261182939,0.816977141938188
-0.182642579267817,0.816161487714945
-0.179483278776191,0.815296438844053
-0.176315424966822,0.814381717375504
-0.173139083098471,0.813417045359291
-0.169954318429901,0.812402144845407
-0.166761196219871,0.811336737883843
-0.163559781727144,0.810220546524591
-0.160350140210481,0.809053292817644
-0.157132336928643,0.807834698812995
-0.153906437140392,0.806564486560635
-0.150672506104489,0.805242378110556
-0.147430609079695,0.803868095512752
-0.147430609079695,0.803868095512752
-0.144193195402554,0.802478206462359
-0.140972628480009,0.801109359021499
-0.137768844676429,0.799761395790637
-0.134581780356177,0.79843415937024
-0.131411371883619,0.797127492360773
-0.128257555623122,0.795841237362703
-0.125120267939051,0.794575236976495
-0.121999445195772,0.793329333802615
-0.118895023757649,0.792103370441531
-0.11580693998905,0.790897189493706
-0.112735130254339,0.789710633559609
-0.109679530917883,0.788543545239704
-0.106640078344046,0.787395767134457
-0.103616708897195,0.786267141844335
-0.100609358941695,0.785157511969804
-0.0976179648419122,0.78406672011133
-0.0946424629622118,0.782994608869378
-0.0916827896669596,0.781941020844415
-0.0887388813205213,0.780905798636906
-0.0858106742872626,0.779888784847319
-0.0828981049315491,0.778889822076118
-0.0800011096177465,0.777908752923769
-0.0771196247102204,0.77694541999074
-0.0742535865733365,0.775999665877495
-0.0714029315714605,0.775071333184502
-0.068567596068958,0.774160264512224
-0.0657475164301947,0.77326630246113
-0.0629426290195363,0.772389289631685
-0.0601528702013483,0.771529068624355
-0.0573781763399966,0.770685482039605
-0.0546184837998467,0.769858372477902
-0.0518737289452642,0.769047582539713
-0.049143848140615,0.768252954825502
-0.0464287777502646,0.767474331935736
-0.0437284541385786,0.766711556470881
-0.0410428136699229,0.765964471031403
-0.038371792708663,0.765232918217769
-0.0357153276191645,0.764516740630443
-0.0330733547657932,0.763815780869892
-0.0304458105129147,0.763129881536582
-0.0278326312248947,0.76245888523098
-0.0252337532660988,0.76180263455355
-0.0226491130008927,0.761160972104759
-0.0200786467936421,0.760533740485074
-0.0175222910087126,0.75992078229496
-0.0149799820104699,0.759321940134883
-0.0124516561632796,0.758737056605309
-0.00993724983150746,0.758165974306705
-0.0074366993795191,0.757608535839535
-0.00494994117168014,0.757064583804267
-0.00247691157235632,0.756533960801366
-1.75469459132785e-05,0.756016509431298
0.00242821634328337,0.75551207229453
0.0048604419308679,0.755020491991526
0.0072791934524747,0.754541611122754
0.00968453454373806,0.75407527228868
0.0120765288402923,0.753621318089769
0.0144552399777719,0.753179591126487
0.016820731591811,0.7527499339993
0.0191730673180441,0.752332189308675
0.0215123107921054,0.751926199655078
0.0238385256496293,0.751531807638973
0.0261517755262502,0.751148855860828
0.0284521240576023,0.750777186921109
0.0307396348793201,0.750416643420281
0.0330143716270378,0.750067067958811
0.0352763979363898,0.749728303137164
0.0375257774430104,0.749400191555807
0.039762573782534,0.749082575815205
0.0419868505905949,0.748775298515824
0.0441986715028274,0.748478202258131
0.0463981001548659,0.748191129642592
0.0485852001823447,0.747913923269673
0.0507600352208981,0.747646425739839
0.0529226689061606,0.747388479653557
0.0550731648737663,0.747139927611292
0.0572115867593497,0.746900612213511
0.0593379981985451,0.74667037606068
0.0614524628269869,0.746449061753264
0.0635550442803093,0.746236511891731
0.0656458061941467,0.746032569076545
0.0677248122041334,0.745837075908172
0.0697921259459039,0.74564987498708
0.0718478110550923,0.745470808913733
0.0738919311673331,0.745299720288598
0.0759245499182606,0.745136451712141
0.0779457309435091,0.744980845784827
0.079955537878713,0.744832745107124
0.0819540343595065,0.744691992279497
0.0839412840215241,0.744558429902411
0.0859173505004001,0.744431900576333
0.0878822974317688,0.744312246901729
0.0898361884512646,0.744199311479065
0.0917790871945217,0.744092936908807
0.0937110572971746,0.743992965791421
0.0956321623948575,0.743899240727373
0.0975424661232048,0.743811604317129
0.0994420321178508,0.743729899161155
0.10133092401443,0.743653967859917
0.103209205448576,0.743583653013881
0.105076940055925,0.743518797223513
0.106934191472109,0.743459243089279
0.108781023332764,0.743404833211646
0.110617499273523,0.743355410191078
0.112443682930022,0.743310816628043
0.114259637937894,0.743270895123006
0.116065427932774,0.743235488276432
0.117861116550296,0.74320443868879
0.119646767426094,0.743177588960543
0.121422444195803,0.743154781692159
0.123188210495057,0.743135859484102
0.124944129959491,0.74312066493684
0.126690266224739,0.743109040650839
0.128426682926434,0.743100829226563
0.130153443700212,0.74309587326448
0.131870612181707,0.743094015365055
0.133578252006553,0.743095098128755
0.135276426810385,0.743098964156045
0.136965200228836,0.743105456047391
0.138644635897541,0.743114416403259
0.140314797452135,0.743125687824117
0.141975748528252,0.743139112910428
0.143627552761526,0.74315453426266
0.145270273787591,0.743171794481278
0.146903975242082,0.743190736166749
0.148528720760634,0.743211201919538
0.15014457397888,0.743233034340112
0.151751598532454,0.743256076028936
0.153349858056992,0.743280169586477
0.154939416188128,0.7433051576132
0.156520336561495,0.743330882709572
0.158092682812728,0.743357187476059
0.159656518577462,0.743383914513126
0.161211907491331,0.74341090642124
0.162758913189969,0.743438005800866
0.164297599309011,0.743465055252471
0.16582802948409,0.743491897376521
0.167350267350842,0.743518374773481
0.1688643765449,0.743544330043818
0.170370420701899,0.743569605787998
0.171868463457474,0.743594044606487
0.173358568447257,0.74361748909975
0.174840799306885,0.743639781868254
0.176315219671991,0.743660765512465
0.17778189317821,0.743680282632849
0.179240883461175,0.743698175829871
0.180692254156522,0.743714287703998
0.182136068899884,0.743728460855697
0.183572391326897,0.743740537885432
0.185001285073193,0.74375036139367
0.186422813774408,0.743757773980876
0.187837041066176,0.743762618247518
0.189244030584131,0.743764736794061
0.190643845963908,0.74376397222097
0.192036550841141,0.743760167128713
0.193422208851464,0.743753164117754
0.194800883630512,0.743742805788561
0.196172638813918,0.743728934741599
0.197537538037318,0.743711393577333
0.198895644936346,0.743690024896231
0.200247023146636,0.743664671298758
0.201591736303821,0.743635175385379
0.202929848043538,0.743601379756562
0.204261422001419,0.743563127012772
0.2055865218131,0.743520259754475
0.206905211114214,0.743472620582138
0.208217553540397,0.743420052096225
0.209523612727281,0.743362396897204
0.210823452310503,0.74329949758554
0.212117135925695,0.743231196761699
0.213404727208493,0.743157337026147
0.21468628979453,0.74307776097935
0.215961887319441,0.742992311221775
0.217231583418861,0.742900830353887
0.218495441728423,0.742803160976153
0.219753525883763,0.742699145689037
0.221005899520513,0.742588627093007
0.22225262627431,0.742471447788529
0.223493769780786,0.742347450376067
0.224729393675577,0.742216477456089
0.225959561594317,0.742078371629061
0.227184337172639,0.741932975495448
0.228403784046179,0.741780131655716
0.22961796585057,0.741619682710332
0.230826946221448,0.741451471259761
0.232030788794446,0.74127533990447
0.233229557205199,0.741091131244924
0.234423315089341,0.74089868788159
0.235612126082506,0.740697852414933
0.236796053820329,0.74048846744542
0.237975161938444,0.740270375573516
0.239149514072485,0.740043419399689
0.240319173858088,0.739807441524402
0.241484204930885,0.739562284548123
0.242644670926511,0.739307791071318
0.243800635480602,0.739043803694452
0.24495216222879,0.738770165017993
0.246099314806711,0.738486717642404
0.247242156849999,0.738193304168154
0.248380751994288,0.737889767195707
0.249515163875212,0.73757594932553
0.250645456128406,0.737251693158089
0.251771692389504,0.736916841293849
0.252893936294141,0.736571236333277
0.25401225147795,0.736214720876839
0.255126701576567,0.735847137525001
0.256237350225625,0.735468328878229
0.257344261060758,0.735078137536988
0.258447497717602,0.734676406101746
0.259547123831791,0.734262977172967
0.260643203038958,0.733837693351118
0.261735798974738,0.733400397236665
0.262824975274766,0.732950931430074
0.263910795574676,0.732489138531811
0.264993323510101,0.732014861142342
0.266072622716678,0.731527941862133
0.267148756830039,0.73102822329165
0.268221789485819,0.730515548031359
0.269291784319653,0.729989758681726
0.270358804967174,0.729450697843217
0.271422915064018,0.728898208116298
0.272484178245818,0.728332132101435
0.27354265814821,0.727752312399094
0.274598418406826,0.727158591609741
0.275651522657302,0.726550812333843
0.276702034535271,0.725928817171864
0.277750017676369,0.725292448724272
0.27879553571623,0.724641549591532
0.279838652290487,0.72397596237411
0.280879431034776,0.723295529672472
0.28191793558473,0.722600094087085
0.282954229575984,0.721889498218414
0.283988376644172,0.721163584666925
0.285020440424929,0.720422196033084
0.286050484553888,0.719665174917358
0.287078572666685,0.718892363920212
0.288104768398954,0.718103605642112
0.289129135386328,0.717298742683524
0.290151737264443,0.716477617644915
0.291172637668932,0.715640073126751
0.29219190023543,0.714785951729496
0.293209588599571,0.713915096053618
0.29422576639699,0.713027348699583
0.295240497263321,0.712122552267856
0.296253844834198,0.711200549358904
0.297265872745256,0.710261182573192
0.298276644632129,0.709304294511186
0.29928622413045,0.708329727773353
0.300294674875856,0.707337324960158
0.30130206050398,0.706326928672068
0.302308444650455,0.705298381509549
0.303313890950918,0.704251526073066
0.304318463041001,0.703186204963086
0.30532222455634,0.702102260780074
0.306325239132568,0.700999536124497
0.30732757040532,0.699877873596821
0.308329282010231,0.698737115797511
0.309330437582934,0.697577105327034
0.310331100759064,0.696397684785856
0.311331335174256,0.695198696774442
0.312331204464143,0.693979983893259
0.31333077226436,0.692741388742773
0.314330102210542,0.69148275392345
0.315329257938322,0.690203922035755
0.316328303083335,0.688904735680155
0.317327301281216,0.687585037457116
0.318326316167598,0.686244669967104
0.319325411378116,0.684883475810585
0.320324650548405,0.683501297588024
0.321324097314098,0.682097977899888
0.32232381531083,0.680673359346644
0.323323868174236,0.679227284528756
0.324324319539949,0.677759596046691
0.325325233043604,0.676270136500915
0.326326672320836,0.674758748491894
0.327328701007279,0.673225274620094
0.328331382738566,0.671669557485981
0.329334781150333,0.670091439690021
0.330338959878214,0.66849076383268
0.331343982557842,0.666867372514424
0.332349912824853,0.665221108335719
0.333356814314881,0.663551813897031
0.33436475066356,0.661859331798826
0.335373785506524,0.660143504641571
0.336383982479408,0.65840417502573
0.337395405217846,0.656641185551771
0.338408117357473,0.654854378820159
0.339422182533922,0.653043597431359
0.340437664382828,0.65120868398584
0.341454626539826,0.649349481084065
0.34247313264055,0.647465831326502
0.343493246320633,0.645557577313615
0.344515031215711,0.643624561645872
0.345538550961418,0.641666626923739
0.346563869193388,0.63968361574768
0.347591049547256,0.637675370718163
0.348620155658655,0.635641734435654
0.34965125116322,0.633582549500617
0.350684399696586,0.63149765851352
0.351719664894386,0.629386904074828
0.352757110392256,0.627250128785008
0.353796799825829,0.625087175244525
0.35483879683074,0.622897886053846
0.355883165042623,0.620682103813436
0.356929968097113,0.618439671123761
0.357979269629843,0.616170430585288
0.359031133276449,0.613874224798483
0.360085622672564,0.61155089636381
0.361142801453823,0.609200287881738
0.36220273325586,0.606822241952731
0.363265481714309,0.604416601177255
0.364331110464806,0.601983208155777
0.365399683142983,0.599521905488763
0.366471263384477,0.597032535776678
0.36754591482492,0.594514941619989
0.368623701099947,0.591968965619162
0.369704685845192,0.589394450374662
0.370788932696291,0.586791238486956
0.371876505288877,0.584159172556509
0.372967467258584,0.581498095183789
0.374061882241047,0.57880784896926
0.3751598138719,0.576088276513388
0.376261325786778,0.573339220416641
0.377366481621315,0.570560523279483
0.378475345011145,0.567752027702381
0.379587979591902,0.564913576285801
0.380704448999222,0.562045011630209
0.381824816868738,0.55914617633607
0.382949146836084,0.556216913003852
0.384077502536895,0.553257064234019
0.385209947606805,0.550266472627038
0.386346545681449,0.547244980783375
0.387487360396461,0.544192431303496
0.388632455387475,0.541108666787867
0.389781894290126,0.537993529836953
0.390935740740048,0.534846863051222
0.392094058372875,0.531668509031139
0.393256910824241,0.52845831037717
0.394424361729781,0.525216109689781
0.39559647472513,0.521941749569438
0.396773313445922,0.518635072616607
0.39795494152779,0.515295921431754
0.399141422606369,0.511924138615345
0.400332820317295,0.508519566767846
0.4015291982962,0.505082048489723
0.402730620178719,0.501611426381442
0.403937149600487,0.49810754304347
0.405148850197138,0.494570241076272
0.406365785604307,0.490999363080314
0.407588019457627,0.487394751656062
0.408815615392733,0.483756249403982
0.410048637045259,0.480083698924541
0.41128714805084,0.476376942818204
0.41253121204511,0.472635823685437
0.413780892663703,0.468860184126706
0.415036253542254,0.465049866742478
0.416297358316397,0.461204714133218
0.417564270621766,0.457324568899392
0.418837054093996,0.453409273641467
0.420115772368721,0.449458670959908
0.421400489081575,0.445472603455181
0.422691267868193,0.441450913727753
0.42398817236421,0.437393444378089
0.425291266205258,0.433300038006656
0.426600613026973,0.429170537213919
0.427916276464989,0.425004784600345
0.429238320154941,0.420802622766399
0.430566807732462,0.416563894312548
0.431901802833187,0.412288441839257
0.433243369092751,0.407976107946993
0.434591570146787,0.403626735236221
0.43594646963093,0.399240166307408
0.437308131180815,0.394816243761019
0.438676618432076,0.390354810197521
0.440051995020346,0.385855708217379
0.441434324581261,0.381318780421061
0.442823670750455,0.37674386940903
0.444220097163562,0.372130817781755
0.445623667456216,0.3674794681397
0.447034445264052,0.362789663083332
0.448452494222704,0.358061245213117
0.449877877967807,0.35329405712952
0.451310660134994,0.348487941433008
0.452750904359901,0.343642740724047
0.45419867427816,0.338758297603103
0.455654033525408,0.333834454670641
0.457117045737278,0.328871054527129
0.458587774549404,0.323867939773031
0.460066283597421,0.318824953008814
0.461552636516963,0.313741936834944
0.463046896943664,0.308618733851886
0.464549128513159,0.303455186660108
0.466059394861083,0.298251137860075
0.467577759623069,0.293006430052252
0.469104286434752,0.287720905837107
0.470639038931765,0.282394407815104
0.472182080749745,0.27702677858671
0.473733475524324,0.271617860752392
0.475293286891137,0.266167496912614
