0.419378352007912,0.141253638660669
-0.697954629575514,0.375610762251585
-0.696864673847734,-0.87323485756969
-0.545873418258785,0.0989185167747422
-0.394882162669836,1.07107189111917
-0.800789544492516,-0.260971458670989
0.467389461093994,-0.640616996103214
1.7355684666805,-1.02026253353544
0.378863242269813,-0.0258534036907949
-0.854661878968776,-0.931128182758401
