-0.735898539312829,-0.584551494556915
0.992719370481285,-0.669204600114091
-0.186687799663162,-0.792517488981703
-0.420439998320216,0.536496237543763
-0.65419219697727,1.86550996406923
0.875707632999094,-0.944252716030894
0.148884096955923,-0.494089326594134
-0.577939439087247,-0.0439259371573744
0.0446949357436455,-0.687798188729899
0.688772861117845,0.228497830361196
