-0.628490629795201,-0.545425137952922
0.852970145325262,0.824167559052759
-0.858534031207107,-0.542056021710201
-0.755182434942819,0.30500278628946
-0.651830838678531,1.15206159428912
-0.989507202997542,0.0404119224690775
0.109528713817089,0.0592881277213748
1.20856463063172,0.0781643329736721
-0.610186637389722,-0.21125518186755
0.308218103336379,0.65564052763062
