-0.487706196729981,0.640160534500253
-0.410538507152246,0.633384394423126
-0.339850611737705,0.625120646164998
-0.275404306882406,0.615383740625063
-0.216961388982398,0.604188128702515
-0.164283654433729,0.591548261296551
-0.117132899632448,0.577478589306365
-0.0752709209746029,0.561993563631152
-0.0384595148562433,0.545107635170108
-0.00646047767341719,0.526835254822426
0.0209643941778266,0.507190873487302
0.0440533043014394,0.486188942063932
0.0630444563013729,0.463843911451509
0.078176053781578,0.440170232549229
0.0896863003460065,0.415182356256287
0.0978133995986097,0.388894733471878
0.102795555143339,0.361321815095197
0.104870970584145,0.332478052025439
0.104277849524981,0.302377895161799
0.101254395569796,0.271035795403471
0.0960388123225435,0.238466203649651
0.0888693033871736,0.204683570799534
0.079984072367638,0.169702347752315
0.0696213228678882,0.133536985407188
0.0580192584918755,0.0962019346633489
0.0454160828435513,0.0577116464199925
0.032049999526867,0.0180805715763137
0.018159212145774,-0.0226768389684925
0.00398192430422369,-0.0645461343152312
-0.0102436603938326,-0.107512863564707
-0.0242793383444434,-0.151562575817726
-0.0378869059436574,-0.196680820175092
-0.0508281595875233,-0.242853145737611
-0.0628648956720894,-0.290065101606087
-0.0737589105934046,-0.338302236881326
-0.0832720007475174,-0.387550100664132
-0.0911659625304765,-0.437794242055311
-0.0972025923383304,-0.489020210155668
-0.101143686567128,-0.541213554066007
-0.102751041612917,-0.594359822887135
-0.10200543887399,-0.642994271956688
-0.0980920790104472,-0.692108144870246
-0.0906139647432911,-0.730890120416893
-0.0798136339130453,-0.759870798724733
-0.0659336243602331,-0.779580779921871
-0.0492164739253779,-0.790550664136413
-0.0299047204490029,-0.793311051496464
-0.00824090177163161,-0.788392542130127
0.0155324442662128,-0.776325736165509
0.0411727798240069,-0.757641233730713
0.0684375670612273,-0.732869634953846
0.0970842681373508,-0.702541539963012
0.126870345211854,-0.667187548886315
0.157553260444213,-0.627338261851862
0.188890475993906,-0.583524278987756
0.220639454020408,-0.536276200422103
0.252557656683197,-0.486124626283007
0.284402546141748,-0.433600156698574
0.31593158455554,-0.379233391796909
0.346902234084047,-0.323554931706116
0.377071956886748,-0.2670953765543
0.406198215123118,-0.210385326469567
0.434038470952634,-0.153955381580021
0.460350186534774,-0.0983361420137666
0.484890824029013,-0.0440582078989097
0.507417845594828,0.00834782063644515
0.527688713391697,0.0583513434641931
0.545460889579095,0.105421760456229
0.560491836316499,0.149028471484448
0.572539015763386,0.188640876420745
0.581359890079233,0.223728375137016
0.586711921423516,0.253760367505155
0.588352571955712,0.278206253397058
0.586039303835298,0.296535432684619
0.57952957922175,0.308217305239733
0.568580860274544,0.312721270934296
0.552950609153159,0.309516729640203
0.532396288017069,0.298073081229348
0.506675359025753,0.277859725573628
0.475545284338686,0.248346062544936
0.442702940025266,0.213393462009344
0.403347164902358,0.169925926889303
0.363575592384645,0.126463122706275
0.323531142279118,0.0832045715437189
0.28335673439277,0.0403497954850897
0.243195288532592,-0.00190168338615571
0.203189724505577,-0.0433503429865609
0.163482962118717,-0.0837966612326693
0.124217921179002,-0.123041116041025
0.0855375214934258,-0.16088418532817
0.0475846828689796,-0.197126347010649
0.0105023251126553,-0.231568079005006
-0.0255666319685551,-0.264009859227783
-0.0604792685676597,-0.294252165595525
-0.0940926648776667,-0.322095476024775
-0.126263901091584,-0.347340268432076
-0.15685005740242,-0.369787020733972
-0.185708214003182,-0.389236210847006
-0.21269545108688,-0.405488316687723
-0.237668848846519,-0.418343816172664
-0.26048548747511,-0.427603187218375
-0.28100244716566,-0.433066907741398
-0.299076808111177,-0.434535455658277
-0.314565650504669,-0.431809308885556
-0.327326054539144,-0.424688945339778
-0.337215100407611,-0.412974842937486
-0.344089868303077,-0.396467479595224
-0.347807438418551,-0.374967333229536
-0.34822489094704,-0.348274881756965
-0.345199306081553,-0.316190603094054
-0.338587764015098,-0.278514975157348
-0.328247344940683,-0.235048475863389
-0.314035129051315,-0.185591583128722
-0.295808196540004,-0.129944774869889
-0.273423627599757,-0.0679085290034338
-0.246738502423583,0.000716676554099405
-0.215609901204488,0.0761303638861673
-0.179894904135483,0.158532055076226
-0.139450591409573,0.248121272207733
-0.094134043219769,0.345097537364145
