-0.159040024617649,0.554972814666248
-0.636639906852571,-0.230745105037921
0.689339730504618,0.591520536092973
0.794652593360116,0.595160912573658
0.899965456215613,0.598801289054342
0.924947101602639,-0.985169301886849
0.475328282369733,-0.348365685487267
0.025709463136826,0.288437930912314
0.293102263249571,-0.607381649400564
-0.230542385466195,-0.728474528033575
