0.500870712204308,-0.387468658319528
0.807050623418286,0.849804455139383
0.988012127669122,0.732206453350674
0.656140986586627,0.448094926828942
0.324269845504132,0.16398340030721
-0.705964192780179,0.0315880077807118
-0.0792324227505741,0.00646111810541772
0.547499347279031,-0.0186657715698764
-0.337316115270352,0.185596152806074
0.129869745974518,-0.685744002352827
