0.36665478408547,0.00987993813589849
0.359919032887582,0.011895383107115
0.353228500788392,0.0138957019145619
0.3465830108898,0.0158809804080388
0.339982386293704,0.0178513044373449
0.333426450102005,0.0198067598522799
0.3269150254166,0.0217474325026431
0.320447935339389,0.023673408238234
0.314025002972272,0.025584772908852
0.307646051417147,0.0274816123642966
0.301310903775915,0.0293640124543672
0.295019383150473,0.0312320590288633
0.288771312642721,0.0330858379375842
0.282566515354558,0.0349254350303296
0.276404814387884,0.0367509361568987
0.270286032844598,0.038562427167091
0.264209993826598,0.040359993910706
0.258176520435785,0.0421437222375432
0.252185435774057,0.0439136979974019
0.246236562943313,0.0456700070400817
0.240329725045452,0.0474127352153819
0.234464745182375,0.049141968373102
0.228641446455979,0.0508577923630415
0.222859651968165,0.0525602930349998
0.217119184820831,0.0542495562387763
0.211419868115876,0.0559256678241705
0.2057615249552,0.0575887136409819
0.200143978440702,0.0592387795390098
0.194567051674281,0.0608759513680538
0.189030567757836,0.0625003149779132
0.183534349793267,0.0641119562183875
0.178078220882472,0.0657109609392762
0.172662004127351,0.0672974149903787
0.167285522629803,0.0688714042214945
0.161948599491727,0.0704330144824229
0.156651057815023,0.0719823316229635
0.151392720701589,0.0735194414929157
0.146173411253324,0.0750444299420789
0.140992952572129,0.0765573828202526
0.135851167759901,0.0780583859772361
0.130747879918541,0.0795475252628291
0.125682912149948,0.0810248865268309
0.12065608755602,0.0824905556190409
0.115667229238656,0.0839446183892586
0.110716160299757,0.0853871606872835
0.105802703841221,0.0868182683629149
0.100926682964947,0.0882380272659524
0.0960879207728346,0.0896465232461954
0.0912862403667831,0.0910438421534433
0.0865214648486914,0.0924300698374955
0.0817934173204588,0.0938052921481516
0.0771019208839845,0.0951695949352109
0.0724467986411677,0.096523064048473
0.0678278736939074,0.0978657853377372
0.0632449691441029,0.099197844652803
0.0586979080936535,0.10051932784347
0.0541865136444583,0.101830320759537
0.0497106088984164,0.103130909250804
0.045270016957427,0.104421179167071
0.0408645609233894,0.105701216358136
0.0364940638982027,0.1069711066738
0.0321583489837661,0.108230935963861
0.0278572392819788,0.10948079007812
0.0235905578947399,0.110720754866375
0.0193581279239487,0.111950916178426
0.0151597724715043,0.113171359864073
0.0109953146393059,0.114382171773115
0.00686457752925275,0.115583437755351
0.00276738424324401,0.11677524366058
-0.0012964421168212,0.117957675338604
-0.0053270784490437,0.119130818639219
-0.00932470165152428,0.120294759412227
-0.0132894886223637,0.121449583507427
-0.0172216162596628,0.122595376774618
-0.0211212614615225,0.123732225063599
-0.0249886011260435,0.12486021422417
-0.0288238121513267,0.12597943010613
-0.0326270714354728,0.127089958559279
-0.0363985558765828,0.128191885433417
-0.0401384423727572,0.129285296578342
-0.0438469078220972,0.130370277843855
-0.0475241291227033,0.131446915079754
-0.0511702831726766,0.132515294135839
-0.0547855468701177,0.133575500861909
-0.0583700971131275,0.134627621107765
-0.0619241107998068,0.135671740723205
-0.0654477648282564,0.136707945558029
-0.0689412360965772,0.137736321462036
-0.0724047015028698,0.138756954285025
-0.0758383379452353,0.139769929876797
-0.0792423223217744,0.140775334087151
-0.0826168315305879,0.141773252765885
-0.0859620424697766,0.142763771762801
-0.0892781320374413,0.143746976927696
-0.0925652771316829,0.14472295411037
-0.0958236546506021,0.145691789160623
-0.0990534414922999,0.146653567928255
-0.102254814554877,0.147608376263064
-0.105427950736434,0.148556300014851
-0.108573026935072,0.149497425033414
-0.111690220048892,0.150431837168553
-0.114779706975995,0.151359622270068
-0.11784166461448,0.152280866187757
-0.12087626986245,0.153195654771421
-0.123883699618005,0.154104073870859
-0.126864130779246,0.15500620933587
-0.129817740244274,0.155902147016254
-0.132744704911189,0.15679197276181
-0.135645201678092,0.157675772422338
-0.138519407443085,0.158553631847637
-0.141367499104267,0.159425636887506
-0.14418965355974,0.160291873391745
-0.146986047707605,0.161152427210154
-0.149756858445962,0.162007384192531
-0.152502262672912,0.162856830188677
-0.155222437286556,0.16370085104839
-0.157917559184995,0.164539532621471
-0.16058780526633,0.165372960757719
-0.163233352428661,0.166201221306932
-0.165854377570089,0.167024400118911
-0.168451057588716,0.167842583043455
-0.171023569382641,0.168655855930363
-0.173572089849966,0.169464304629435
-0.176096795888792,0.170268014990471
-0.178597864397219,0.171067072863269
-0.181075472273348,0.171861564097629
-0.18352979641528,0.172651574543351
-0.185961013721116,0.173437190050234
-0.188369301088957,0.174218496468078
-0.190754835416903,0.174995579646681
-0.193117793603055,0.175768525435844
-0.195458352545515,0.176537419685366
-0.197776689142382,0.177302348245046
-0.200072980291758,0.178063396964684
-0.202347402891743,0.178820651694079
-0.204600133840439,0.179574198283031
-0.206831350035946,0.180324122581339
-0.209041228376365,0.181070510438802
-0.211229945759797,0.181813447705221
-0.213397679084342,0.182553020230393
-0.215544605248102,0.18328931386412
-0.217670901149177,0.1840224144562
-0.219776743685668,0.184752407856432
-0.221862309755676,0.185479379914617
-0.223927776257302,0.186203416480554
-0.225973320088646,0.186924603404041
-0.22799911814781,0.18764302653488
-0.230005347332893,0.188358771722868
-0.231992184541998,0.189071924817805
-0.233959806673224,0.189782571669492
-0.235908390624673,0.190490798127726
-0.237838113294445,0.191196690042309
-0.239749151580642,0.191900333263039
-0.241641682381364,0.192601813639715
-0.243515882594711,0.193301217022137
-0.245371929118785,0.193998629260105
-0.247209998851687,0.194694136203418
-0.249030268691517,0.195387823701876
-0.250832915536376,0.196079777605277
-0.252618116284365,0.196770083763421
-0.254386047833585,0.197458828026109
-0.256136887082136,0.198146096243138
-0.25787081092812,0.198831974264309
-0.259587996269637,0.199516547939422
-0.261288620004788,0.200199903118274
-0.262972859031674,0.200882125650667
-0.264640890248395,0.2015633013864
-0.266292890553053,0.202243516175271
-0.267929036843749,0.20292285586708
-0.269549506018582,0.203601406311627
-0.271154474975654,0.204279253358712
-0.272744120613066,0.204956482858133
-0.274318619828919,0.20563318065969
-0.275878149521313,0.206309432613183
-0.277422886588349,0.20698532456841
-0.278953007928128,0.207660942375173
-0.280468690438751,0.208336371883269
-0.281970111018319,0.209011698942498
-0.283457446564932,0.20968700940266
-0.284930873976691,0.210362389113555
-0.286390570151698,0.211037923924981
-0.287836711988052,0.211713699686738
-0.289269476383855,0.212389802248626
-0.290689040237208,0.213066317460443
-0.292095580446211,0.21374333117199
-0.293489273908965,0.214420929233066
-0.294870297523571,0.215099197493471
-0.29623882818813,0.215778221803003
-0.297595042800743,0.216458088011462
-0.29893911825951,0.217138881968648
-0.300271231462532,0.21782068952436
-0.301591559307911,0.218503596528398
-0.302900278693746,0.219187688830561
-0.304197566518139,0.219873052280648
-0.305483599679191,0.220559772728459
-0.306758555075001,0.221247936023793
-0.308022609603673,0.221937628016451
-0.309275940163305,0.22262893455623
-0.310518723651998,0.223321941492931
-0.311751136967855,0.224016734676353
-0.312973357008975,0.224713399956296
-0.314185560673459,0.225412023182559
-0.315387924859408,0.226112690204941
-0.316580626464923,0.226815486873242
-0.317763842388105,0.227520499037262
-0.318937749527054,0.228227812546799
-0.320102524779872,0.228937513251653
-0.321258345044658,0.229649687001625
-0.322405387219515,0.230364419646512
-0.323543828202542,0.231081797036115
-0.324673844891841,0.231801905020232
-0.325795614185513,0.232524829448665
-0.326909312981658,0.233250656171211
-0.328015118178376,0.233979471037671
-0.32911320667377,0.234711359897843
-0.330203755365939,0.235446408601528
-0.331286941152985,0.236184702998524
-0.332362940933008,0.236926328938631
-0.333431931604109,0.237671372271649
-0.334494090064389,0.238419918847377
-0.335549593211949,0.239172054515615
-0.33659861794489,0.239927865126161
-0.337641341161312,0.240687436528816
-0.338677939759316,0.241450854573378
-0.339708590637003,0.242218205109648
-0.340733470692474,0.242989573987425
-0.341752756823829,0.243765047056507
-0.342766625929171,0.244544710166695
-0.343775254906598,0.245328649167789
-0.344778820654213,0.246116949909586
-0.345777500070115,0.246909698241888
-0.346771470052406,0.247706980014493
-0.347760907499187,0.2485088810772
-0.348745989308558,0.24931548727981
-0.34972689237862,0.250126884472122
-0.350703793607475,0.250943158503935
-0.351676869893222,0.251764395225048
-0.352646298133963,0.252590680485262
-0.353612255227798,0.253422100134375
-0.354574918072829,0.254258740022186
-0.355534463567155,0.255100685998497
-0.356491068608879,0.255948023913105
-0.3574449100961,0.25680083961581
-0.35839616492692,0.257659218956412
-0.359345009999439,0.25852324778471
-0.360291622211759,0.259393011950503
-0.361236178461979,0.260268597303592
-0.362178855648201,0.261150089693775
-0.363119830668526,0.262037574970852
-0.364059280421055,0.262931138984623
-0.364997381803887,0.263830867584886
-0.365934311715125,0.264736846621442
-0.366870247052868,0.265649161944089
-0.367805364715218,0.266567899402627
-0.368739841600276,0.267493144846856
-0.369673854606142,0.268424984126575
-0.370607580630918,0.269363503091584
-0.371541196572703,0.270308787591681
-0.372474879329599,0.271260923476667
-0.373408805799707,0.272219996596341
-0.374343152881127,0.273186092800501
-0.37527809747196,0.274159297938949
-0.376213816470308,0.275139697861483
-0.37715048677427,0.276127378417902
-0.378088285281948,0.277122425458007
-0.379027388891442,0.278124924831595
-0.379967974500854,0.279134962388468
-0.380910219008284,0.280152623978424
-0.381854299311833,0.281177995451263
-0.382800392309602,0.282211162656785
-0.383748674899691,0.283252211444788
-0.384699323980202,0.284301227665072
-0.385652516449235,0.285358297167436
-0.386608429204891,0.286423505801681
-0.387567239145271,0.287496939417606
-0.388529123168475,0.288578683865009
-0.389494258172606,0.28966882499369
-0.390462821055762,0.29076744865345
-0.391434988716046,0.291874640694087
-0.392410938051557,0.2929904869654
-0.393390845960397,0.29411507331719
-0.394374889340667,0.295248485599255
-0.395363245090467,0.296390809661395
-0.396356090107899,0.29754213135341
-0.397353601291062,0.298702536525098
-0.398355955538059,0.29987211102626
-0.399363329746989,0.301050940706695
-0.400375900815953,0.302239111416203
-0.401393845643053,0.303436709004581
-0.402417341126389,0.304643819321631
-0.403446564164061,0.305860528217152
-0.404481691654172,0.307086921540943
-0.405522900494821,0.308323085142803
-0.40657036758411,0.309569104872532
-0.407624269820138,0.31082506657993
-0.408684784101008,0.312091056114795
-0.40975208732482,0.313367159326928
-0.410826356389674,0.314653462066127
-0.411907768193672,0.315950050182193
-0.412996499634914,0.317257009524924
-0.414092727611501,0.318574425944121
-0.415196629021534,0.319902385289581
-0.416308380763113,0.321240973411106
-0.417428159734341,0.322590276158494
-0.418556142833316,0.323950379381545
-0.419692506958141,0.325321368930059
-0.420837429006916,0.326703330653834
-0.421991085877741,0.32809635040267
-0.423153654468719,0.329500514026366
-0.424325311677948,0.330915907374723
-0.425506234403531,0.33234261629754
-0.426696599543568,0.333780726644615
-0.42789658399616,0.335230324265749
-0.429106364659408,0.33669149501074
-0.430326118431412,0.338164324729389
-0.431556022210274,0.339648899271495
-0.432796252894094,0.341145304486857
-0.434046987380972,0.342653626225274
-0.435308402569011,0.344173950336547
-0.43658067535631,0.345706362670474
-0.43786398264097,0.347250949076854
-0.439158501321093,0.348807795405489
-0.440464408294779,0.350376987506176
-0.441781880460129,0.351958611228716
-0.443111094715243,0.353552752422907
-0.444452227958223,0.35515949693855
-0.44580545708717,0.356778930625443
-0.447170959000183,0.358411139333386
-0.448548910595365,0.360056208912178
-0.449939488770815,0.36171422521162
-0.451342870424635,0.36338527408151
-0.452759232454925,0.365069441371648
-0.454188751759787,0.366766812931833
-0.45563160523732,0.368477474611865
-0.457087969785626,0.370201512261543
-0.458558022302807,0.371939011730667
-0.460041939686961,0.373690058869036
-0.461539898836191,0.37545473952645
-0.463052076648597,0.377233139552707
-0.46457865002228,0.379025344797608
-0.466119795855341,0.380831441110951
-0.46767569104588,0.382651514342537
-0.469246512491999,0.384485650342165
-0.470832437091798,0.386333934959634
-0.472433641743378,0.388196454044744
-0.47405030334484,0.390073293447293
-0.475682598794284,0.391964539017082
-0.477330704989812,0.393870276603911
-0.478994798829525,0.395790592057577
-0.480675057211522,0.397725571227882
-0.482371657033905,0.399675299964623
-0.484084775194776,0.401639864117602
-0.485814588592233,0.403619349536617
-0.487561274124379,0.405613842071467
-0.489325008689315,0.407623427571952
-0.49110596918514,0.409648191887873
-0.492904332509956,0.411688220869026
-0.494720275561864,0.413743600365214
-0.496553975238964,0.415814416226234
-0.498405608439358,0.417900754301887
-0.500275352061145,0.420002700441971
-0.502163383002428,0.422120340496287
-0.504069878161306,0.424253760314633
-0.505995014435881,0.426403045746809
-0.507938968724253,0.428568282642615
-0.509901917924524,0.43074955685185
-0.511884038934793,0.432946954224313
-0.513885508653163,0.435160560609804
-0.515906503977732,0.437390461858123
-0.517947201806604,0.439636743819068
-0.520007779037877,0.441899492342439
-0.522088412569654,0.444178793278037
-0.524189279300035,0.446474732475659
-0.52631055612712,0.448787395785106
-0.528452419949011,0.451116869056176
-0.530615047663808,0.453463238138671
-0.532798616169612,0.455826588882388
-0.535003302364525,0.458207007137127
-0.537229283146646,0.460604578752688
-0.539476735414077,0.463019389578871
-0.541745836064918,0.465451525465474
-0.544036761997271,0.467901072262297
-0.546349690109235,0.470368115819139
-0.548684797298913,0.472852741985801
-0.551042260464404,0.475355036612081
-0.553422256503809,0.477875085547779
-0.55582496231523,0.480412974642695
-0.558250554796767,0.482968789746627
-0.560699210846522,0.485542616709375
-0.563171107362594,0.488134541380739
-0.565666421243084,0.490744649610518
-0.568185329386094,0.493373027248512
-0.570728008689724,0.49601976014452
-0.573294636052076,0.498684934148341
-0.575885388371248,0.501368635109775
-0.578500442545344,0.504070948878621
-0.581139975472464,0.506791961304679
-0.583804164050707,0.509531758237749
-0.586493185178176,0.512290425527629
-0.589207215752971,0.515068049024119
-0.589207215752971,0.515068049024119
-0.591890409153724,0.517818847631601
-0.594487090467705,0.520497253355022
-0.596997694155968,0.523103671695031
-0.599422654679568,0.52563850815228
-0.601762406499559,0.528102168227417
-0.604017384076997,0.530495057421092
-0.606188021872936,0.532817581233956
-0.608274754348432,0.535070145166657
-0.610278015964538,0.537253154719845
-0.612198241182311,0.53936701539417
-0.614035864462803,0.541412132690282
-0.615791320267071,0.543388912108831
-0.617465043056169,0.545297759150465
-0.619057467291152,0.547139079315836
-0.620569027433074,0.548913278105592
-0.622000157942992,0.550620761020383
-0.623351293281958,0.55226193356086
-0.624622867911028,0.553837201227671
-0.625815316291258,0.555346969521467
-0.626929072883701,0.556791643942897
-0.627964572149412,0.558171629992611
-0.628922248549447,0.559487333171258
-0.62980253654486,0.560739158979488
-0.630605870596705,0.561927512917952
-0.631332685166039,0.563052800487299
-0.631983414713914,0.564115427188178
-0.632558493701387,0.565115798521239
-0.633058356589512,0.566054319987132
-0.633483437839344,0.566931397086506
-0.633834171911938,0.567747435320012
-0.634110993268347,0.568502840188299
-0.634314336369629,0.569198017192016
-0.634444635676836,0.569833371831814
-0.634502325651024,0.570409309608342
-0.634487840753247,0.57092623602225
-0.634401615444561,0.571384556574187
-0.634244084186021,0.571784676764804
-0.63401568143868,0.57212700209475
-0.633716841663594,0.572411938064674
-0.633347999321817,0.572639890175227
-0.632909588874405,0.572811263927058
-0.632402044782412,0.572926464820817
-0.631825801506893,0.572985898357153
-0.631181293508903,0.572989970036717
-0.630468955249497,0.572939085360158
-0.629689221189729,0.572833649828125
-0.628842525790654,0.572674068941268
-0.627929303513327,0.572460748200238
-0.626949988818802,0.572194093105684
-0.625905016168136,0.571874509158255
-0.624794820022381,0.571502401858601
-0.623619834842594,0.571078176707373
-0.622380495089829,0.570602239205219
-0.62107723522514,0.570074994852789
-0.619710489709583,0.569496849150734
-0.618280693004213,0.568868207599702
-0.616788279570083,0.568189475700344
-0.615233683868249,0.567461058953309
-0.613617340359766,0.566683362859247
-0.611939683505689,0.565856792918808
-0.610201147767072,0.564981754632641
-0.60840216760497,0.564058653501396
-0.606543177480438,0.563087895025723
-0.604624611854531,0.562069884706271
-0.602646905188303,0.561005028043691
-0.600610491942809,0.559893730538632
-0.598515806579105,0.558736397691743
-0.596363283558244,0.557533435003674
-0.594153357341282,0.556285247975076
-0.591886462389274,0.554992242106597
-0.589563033163274,0.553654822898888
-0.587183504124337,0.552273395852598
-0.584748309733517,0.550848366468378
-0.582257884451871,0.549380140246875
-0.579712662740451,0.547869122688741
-0.577113079060315,0.546315719294625
-0.574459567872515,0.544720335565177
-0.571752563638107,0.543083377001047
-0.568992500818145,0.541405249102883
-0.566179813873686,0.539686357371337
-0.563314937265782,0.537927107307057
-0.560398305455489,0.536127904410693
-0.557430352903862,0.534289154182895
-0.554411514071956,0.532411262124313
-0.551342223420826,0.530494633735597
-0.548222915411525,0.528539674517396
-0.545054024505109,0.526546789970359
-0.541835985162634,0.524516385595138
-0.538569231845152,0.52244886689238
-0.535254199013721,0.520344639362737
-0.531891321129393,0.518204108506857
-0.528481032653225,0.516027679825391
-0.52502376804627,0.513815758818988
-0.521519961769584,0.511568750988298
-0.517970048284221,0.50928706183397
-0.514374462051236,0.506971096856655
-0.510733637531685,0.504621261557002
-0.507048009186621,0.50223796143566
-0.503318011477099,0.49982160199328
-0.499544078864175,0.497372588730511
-0.495726645808904,0.494891327148003
-0.491866146772339,0.492378222746406
-0.487963016215535,0.489833681026368
-0.484017688599549,0.487258107488541
-0.480030598385434,0.484651907633574
-0.476002180034245,0.482015486962116
-0.471932868007036,0.479349250974816
-0.467823096764864,0.476653605172326
-0.463673300768782,0.473928955055295
-0.459483914479845,0.471175706124372
-0.455255372359109,0.468394263880206
-0.450988108867627,0.465585033823448
-0.446682558466456,0.462748421454748
-0.442339155616648,0.459884832274755
-0.43795833477926,0.456994671784119
-0.433540530415346,0.454078345483489
-0.429086176985961,0.451136258873516
-0.42459570895216,0.448168817454848
-0.420069560774997,0.445176426728136
-0.415508166915527,0.44215949219403
-0.410911961834806,0.439118419353179
-0.406281379993887,0.436053613706232
-0.401616855853826,0.43296548075384
-0.396918823875678,0.429854425996652
-0.392187718520496,0.426720854935319
-0.387423974249337,0.423565173070488
-0.382628025523255,0.420387785902812
-0.377800306803304,0.417189098932938
-0.37294125255054,0.413969517661517
-0.368051297226017,0.410729447589199
-0.36313087529079,0.407469294216633
-0.358180421205914,0.404189463044468
-0.353200369432443,0.400890359573356
-0.348191154431433,0.397572389303945
-0.343153210663938,0.394235957736885
-0.338086972591014,0.390881470372825
-0.332992874673714,0.387509332712417
-0.327871351373093,0.384119950256308
-0.322722837150207,0.380713728505149
-0.31754776646611,0.37729107295959
-0.312346573781858,0.373852389120281
-0.307119693558504,0.37039808248787
-0.301867560257103,0.366928558563008
-0.296590608338711,0.363444222846345
-0.291289272264383,0.35994548083853
-0.285963986495172,0.356432738040212
-0.280615185492133,0.352906399952043
-0.275243303716323,0.34936687207467
-0.269848775628795,0.345814559908745
-0.264432035690604,0.342249868954917
-0.258993518362805,0.338673204713835
-0.253533658106453,0.335084972686149
-0.248052889382602,0.331485578372509
-0.242551646652308,0.327875427273565
-0.237030364376624,0.324254924889965
-0.231489477016607,0.320624476722362
-0.225929419033311,0.316984488271402
-0.22035062488779,0.313335365037738
-0.214753529041099,0.309677512522017
-0.209138565954294,0.30601133622489
-0.203506170088428,0.302337241647007
-0.197856775904557,0.298655634289017
-0.192190817863736,0.29496691965157
-0.186508730427019,0.291271503235316
-0.180810948055461,0.287569790540905
-0.175097905210117,0.283862187068985
-0.169370036352041,0.280149098320208
-0.163627775942289,0.276430929795222
-0.157871558441916,0.272708086994677
-0.152101818311976,0.268980975419223
-0.146318990013523,0.26525000056951
-0.140523508007613,0.261515567946187
-0.134715806755301,0.257778083049905
-0.128896320717641,0.254037951381312
-0.123065484355687,0.250295578441059
-0.117223732130496,0.246551369729796
-0.111371498503122,0.242805730748171
-0.105509217934618,0.239059066996835
-0.0996373248860415,0.235311783976437
-0.0937562538184459,0.231564287187628
-0.0878664391928858,0.227816982131056
-0.0819683154704165,0.224070274307372
-0.0760623171120926,0.220324569217225
-0.070148878578969,0.216580272361265
-0.0642284343321005,0.212837789240142
-0.0583014188325416,0.209097525354505
-0.0523682665413473,0.205359886205004
-0.0464294119195727,0.201625277292289
-0.0404852894282721,0.19789410411701
-0.0345363335285006,0.194166772179816
-0.0285829786813127,0.190443686981357
-0.0226256593477637,0.186725254022282
-0.016664809988908,0.183011878803242
-0.0107008650658004,0.179303966824886
-0.00473425903949584,0.175601923587864
0.00123457362895088,0.171906154592825
0.007205198478485,0.16821706534042
0.0131771810480518,0.164535061331297
0.0191500868765965,0.160860548066107
0.0251234815030641,0.1571939310455
0.0310969304664001,0.153535615770125
0.0370699993055494,0.149886007740631
0.0430422535594574,0.146245512457669
0.0490132587670691,0.142614535421888
0.05498258046733,0.138993482133938
0.060949784199185,0.135382758094469
0.0669144355015798,0.13178276880413
0.0728760999134588,0.128193919763571
0.0788343429737681,0.124616616473442
0.0847887302214521,0.121051264434393
0.0907388271954566,0.117498269147072
0.0966841994347264,0.113958036112131
0.102624412478207,0.110430970830218
0.108559031864843,0.106917478801984
0.114487623133581,0.103417965528077
0.120409751823365,0.0999328365091485
0.12632498347314,0.0964624972458473
0.132232883621852,0.0930073532388233
0.138133017808446,0.0895678099887262
0.144024951571867,0.0861442729962058
0.149908250451061,0.0827371477619116
0.155782479984971,0.0793468397864935
0.161647205712545,0.0759737545706011
0.167501993172727,0.0726182976148843
0.173346407904461,0.0692808744199925
0.179180015446694,0.0659618904865757
0.185002381338371,0.0626617513152835
0.190813071118436,0.0593808624067656
0.196611650325835,0.0561196292616717
0.202397684499513,0.0528784573806516
0.208170739178416,0.0496577522643549
0.213930379901488,0.0464579194134314
0.219676172207676,0.0432793643285306
0.225407681635922,0.0401224925103026
0.231124473725175,0.0369877094593968
0.236826114014377,0.0338754206764631
0.242512168042475,0.030786031662151
0.248182201348414,0.0277199479171105
0.253835779471139,0.0246775749419909
0.259472467949595,0.0216593182374424
0.265091832322727,0.0186655833041143
0.270693438129481,0.0156967756426566
0.276276850908802,0.0127533007537188
0.281841636199635,0.00983556413795085
0.287387359540925,0.00694397129600216
0.292913586471617,0.00407892772852277
0.298419882530657,0.00124083893616203
0.30390581325699,-0.00156988958042996
0.309370944189561,-0.00435285232060385
0.314814840867315,-0.00710764378370962
0.320237068829197,-0.00983385846909782
0.325637193614153,-0.0125310908761185
0.331014780761128,-0.0151989355041222
0.336369395809067,-0.0178369868524589
0.341700604296916,-0.0204448394204792
0.347007971763618,-0.0230220877075331
0.352291063748121,-0.0255683262129712
0.357549445789368,-0.0280831494361434
0.362782683426305,-0.0305661518764005
0.367990342197877,-0.0330169280330922
0.373171987643031,-0.0354350724055693
0.378327185300709,-0.0378201794931817
0.383455500709859,-0.04017184379528
0.388556499409424,-0.0424896598112142
0.393629746938351,-0.0447732220403349
0.398674808835584,-0.0470221249819921
0.40369125064007,-0.0492359631355364
0.408678637890751,-0.0514143310003177
0.413636536126576,-0.0535568230756866
0.418564510886487,-0.0556630338609931
0.423462127709431,-0.0577325578555879
0.428328952134352,-0.0597649895588208
0.433164549700197,-0.0617599234700426
0.437968485945909,-0.0637169540886031
0.442740326410435,-0.0656356759138529
0.44747963663272,-0.0675156834451422
0.452185982151708,-0.0693565711818213
0.456858928506345,-0.0711579336232405
0.461498041235576,-0.07291936526875
0.466102885878347,-0.0746404606177002
0.470673027973602,-0.0763208141694413
0.475208033060287,-0.0779600204233237
0.479707466677347,-0.0795576738786975
0.484170894363726,-0.0811133690349131
0.488597881658372,-0.0826267003913209
0.492987994100228,-0.084097262447271
0.497340797228239,-0.0855246497021138
0.501655856581352,-0.0869084566551996
0.505932737698511,-0.0882482778058786
0.510171006118661,-0.0895437076535011
0.514370227380748,-0.0907943406974174
0.518529967023716,-0.0919997714369779
0.522649790586512,-0.0931595943715327
0.52672926360808,-0.0942734040004322
0.530767951627365,-0.0953407948230267
0.534765420183312,-0.0963613613386664
0.538721234814868,-0.0973346980467017
0.542634961060977,-0.0982603994464828
0.546506164460583,-0.09913806003736
0.550334410552633,-0.0999672743186837
0.554119264876072,-0.100747636789804
0.557860292969845,-0.101478741950071
0.561557060372897,-0.102160184298836
0.565209132624172,-0.102791558335448
0.568816075262618,-0.103372458559258
0.572377453827178,-0.103902479469616
0.575892833856798,-0.104381215565873
0.579361780890423,-0.104808261347378
0.582783860466998,-0.105183211313482
0.586158638125468,-0.105505659963536
0.589485679404779,-0.105775201796889
0.592764549843876,-0.105991431312892
0.595994814981705,-0.106153943010895
0.599176040357209,-0.106262331390248
0.602307791509335,-0.106316190950303
0.605389633977028,-0.106315116190408
0.608421133299232,-0.106258701609914
0.611401855014894,-0.106146541708173
0.614331364662958,-0.105978230984533
0.617209227782369,-0.105753363938345
0.620035009912073,-0.105471535068959
0.622808276591015,-0.105132338875727
0.62552859335814,-0.104735369857997
0.628195525752393,-0.104280222515121
0.63080863931272,-0.103766491346448
0.633367499578066,-0.103193770851329
0.635871672087375,-0.102561655529115
0.638320722379594,-0.101869739879155
0.640714215993667,-0.101117618400799
0.643051718468539,-0.100304885593399
0.645332795343157,-0.0994311359563039
0.647557012156464,-0.0984959639888645
0.649723934447407,-0.0974989641904309
0.651833127754929,-0.0964397310603536
0.653884157617977,-0.0953178590979828
0.655876589575496,-0.0941329428026687
0.657809989166431,-0.0928845766737616
0.659683921929728,-0.0915723552106119
0.66149795340433,-0.0901958729125699
0.663251649129184,-0.0887547242789858
0.664944574643235,-0.0872485038092098
0.666576295485428,-0.0856768060025924
0.668146377194708,-0.0840392253584837
0.66965438531002,-0.0823353563762342
0.67109988537031,-0.0805647935551939
0.672482442914523,-0.0787271313947133
0.673801623481604,-0.0768219643941426
0.675056992610498,-0.0748488870528322
0.67624811584015,-0.0728074938701322
0.677374558709506,-0.0706973793453931
0.678435886757511,-0.068518137977965
0.67943166552311,-0.0662693642671983
0.680361460545248,-0.0639506527124433
0.681224837362871,-0.0615615978130503
0.682021361514923,-0.0591017940683693
0.68275059854035,-0.0565708359777511
0.683412113978097,-0.0539683180405455
0.684005473367109,-0.0512938347561031
0.684530242246332,-0.048546980623774
0.68498598615471,-0.0457273501429087
0.685372270631189,-0.0428345378128572
0.685688661214715,-0.0398681381329701
0.685934723444231,-0.0368277456025975
0.686110022858684,-0.0337129547210897
0.686214124997019,-0.030523359987797
0.686246595398181,-0.0272585559020697
0.686206999601114,-0.0239181369632581
0.686094903144765,-0.0205016976707126
0.685909871568078,-0.0170088325237831
0.685651470409999,-0.0134391360218204
0.685319265209473,-0.00979220266417429
0.684912821505446,-0.00606762695019555
0.684431704836861,-0.00226500337923402
0.683875480742665,0.00161607354935962
0.683243714761802,0.00557600933623548
0.682535972433219,0.00961520948204285
0.68175181929586,0.0137340794874319
0.680890820888669,0.0179330248530518
0.679952542750594,0.0222124510795528
0.678936550420578,0.0265727636675842
0.677842409437567,0.0310143681177961
0.676669685340507,0.0355376699308377
0.675417943668341,0.0401430746073593
0.674086749960016,0.0448309876480101
0.672675669754477,0.0496018145534402
0.671184268590669,0.054455960824299
0.669612112007537,0.0593938319612365
0.667958765544026,0.0644158334649021
0.666223794739082,0.0695223708359459
0.66440676513165,0.0747138495750172
0.662507242260675,0.0799906751827661
0.660524791665102,0.0853532531598419
0.658458978883876,0.0908019890068947
0.656309369455943,0.0963372882245739
0.654075528920247,0.10195955631353
0.651757022815735,0.107669198774411
0.64935341668135,0.113466621107868
0.64686427605604,0.119352228814551
0.644289166478747,0.125326427395108
0.644289166478747,0.125326427395108
0.641673797160102,0.131297425985271
0.639064107324,0.137173445802303
0.636460007529289,0.142954910469156
0.633861408334815,0.148642243608783
0.631268220299427,0.154235868844134
0.628680353981972,0.159736209798162
0.626097719941297,0.165143690093818
0.623520228736249,0.170458733354055
0.620947790925675,0.175681763201823
0.618380317068424,0.180813203260075
0.615817717723342,0.185853477151763
0.613259903449276,0.190803008499838
0.610706784805075,0.195662220927252
0.608158272349585,0.200431538056957
0.605614276641654,0.205111383511905
0.603074708240128,0.209702180915047
0.600539477703856,0.214204353889335
0.598008495591685,0.218618326057722
0.595481672462462,0.222944521043158
0.592958918875034,0.227183362468596
0.590440145388249,0.231335273956987
0.587925262560953,0.235400679131284
0.585414180951995,0.239380001614437
0.582906811120222,0.243273665029399
0.580403063624481,0.247082092999122
0.577902849023619,0.250805709146557
0.575406077876484,0.254444937094656
0.572912660741923,0.258000200466371
0.570422508178783,0.261471922884654
0.567935530745912,0.264860527972456
0.565451639002157,0.268166439352729
0.562970743506366,0.271390080648426
0.560492754817385,0.274531875482497
0.558017583494062,0.277592247477895
0.555545140095244,0.280571620257571
0.553075335179779,0.283470417444477
0.550608079306515,0.286289062661566
0.548143283034297,0.289027979531788
0.545680856921975,0.291687591678095
0.543220711528394,0.29426832272344
0.540762757412403,0.296770596290774
0.538306905132848,0.299194836003049
0.535853065248578,0.301541465483217
0.533401148318439,0.303810908354229
0.530951064901278,0.306003588239037
0.528502725555944,0.308119928760593
0.526056040841283,0.310160353541849
0.523610921316143,0.312125286205757
0.521167277539371,0.314015150375268
0.518725020069814,0.315830369673334
0.51628405946632,0.317571367722908
0.513844306287736,0.31923856814694
0.51140567109291,0.320832394568382
0.508968064440688,0.322353270610187
0.506531396889918,0.323801619895305
0.504095578999448,0.32517786604669
0.501660521328125,0.326482432687293
0.499226134434795,0.327715743440064
0.496792328878307,0.328878221927957
0.494359015217508,0.329970291773923
0.491926104011245,0.330992376600914
0.489493505818365,0.331944900031882
0.487061131197716,0.332828285689777
0.484628890708145,0.333642957197553
0.482196694908499,0.334389338178161
0.479764454357626,0.335067852254553
0.477332079614374,0.33567892304968
0.474899481237588,0.336222974186495
0.472466569786118,0.336700429287948
0.470033255818809,0.337111711976993
0.46759944989451,0.337457245876579
0.465165062572068,0.337737454609661
0.46273000441033,0.337952761799189
0.460294185968144,0.338103591068114
0.457857517804356,0.33819036603939
0.455419910477814,0.338213510335967
0.452981274547366,0.338173447580797
0.450541520571858,0.338070601396833
0.448100559110138,0.337905395407025
0.445658300721055,0.337678253234327
0.443214655963453,0.337389598501689
0.440769535396182,0.337039854832063
0.438322849578089,0.336629445848401
0.43587450906802,0.336158795173655
0.433424424424823,0.335628326430776
0.430972506207346,0.335038463242717
0.428518664974435,0.33438962923243
0.426062811284939,0.333682248022865
0.423604855697704,0.332916743236975
0.421144708771578,0.332093538497712
0.418682281065408,0.331213057428027
0.416217483138042,0.330275723650872
0.413750225548326,0.329281960789199
0.411280418855108,0.328232192465959
0.408807973617236,0.327126842304106
0.406332800393557,0.325966333926589
0.403854809742918,0.324751090956362
0.401373912224166,0.323481537016375
0.398890018396149,0.322158095729581
0.396403038817715,0.320781190718932
0.393912884047709,0.319351245607379
0.391419464644981,0.317868684017873
0.388922691168377,0.316333929573368
0.386422474176744,0.314747405896814
0.38391872422893,0.313109536611163
0.381411351883782,0.311420745339368
0.378900267700148,0.309681455704379
0.376385382236875,0.30789209132915
0.373866606052809,0.30605307583663
0.371343849706799,0.304164832849773
0.368817023757692,0.30222778599153
0.366286038764336,0.300242358884853
0.363750805285576,0.298208975152694
0.361211233880262,0.296128058418003
0.35866723510724,0.294000032303735
0.356118719525357,0.291825320432839
0.353565597693461,0.289604346428268
0.351007780170399,0.287337533912973
0.348445177515019,0.285025306509907
0.345877700286167,0.282668087842021
0.343305259042692,0.280266301532266
0.340727764343441,0.277820371203596
0.33814512674726,0.275330720478961
0.335557256812997,0.272797772981313
0.3329640650995,0.270221952333604
0.330365462165616,0.267603682158786
0.327761358570191,0.264943386079811
0.325151664872075,0.26224148771963
0.322536291630113,0.259498410701196
0.319915149403154,0.256714578647459
0.317288148750044,0.253890415181372
0.314655200229631,0.251026343925887
0.312016214400762,0.248122788503955
0.309371101822284,0.245180172538528
0.306719773053046,0.242198919652558
0.304062138651893,0.239179453468997
0.301398109177675,0.236122197610796
0.298727595189237,0.233027575700907
0.296050507245427,0.229896011362283
0.293366755905093,0.226727928217874
0.290676251727082,0.223523749890633
0.287978905270241,0.220283900003511
0.285274627093417,0.217008802179461
0.282563327755459,0.213698880041433
0.279844917815212,0.210354557212381
0.277119307831525,0.206976257315254
0.274386408363246,0.203564403973007
0.27164612996922,0.200119420808589
0.268898383208296,0.196641731444953
0.26614307863932,0.193131759505051
0.263380126821141,0.189589928611834
0.260609438312606,0.186016662388255
0.257830923672561,0.182412384457264
0.255044493459855,0.178777518441815
0.252250058233334,0.175112487964857
0.249447528551847,0.171417716649345
0.246636814974239,0.167693628118229
0.243817828059359,0.16394064599446
0.240990478366054,0.160159193900991
0.238154676453171,0.156349695460774
0.235310332879558,0.15251257429676
0.232457358204061,0.148648254031902
0.229595662985529,0.14475715828915
0.226725157782809,0.140839710691457
0.223845753154747,0.136896334861774
0.220957359660192,0.132927454423053
0.21805988785799,0.128933492998247
0.215153248306989,0.124914874210306
0.212237351566037,0.120872021682183
0.20931210819398,0.11680535903683
0.206377428749665,0.112715309897197
0.203433223791942,0.108602297886238
0.200479403879656,0.104466746626903
0.197515879571654,0.100309079742145
0.194542561426785,0.0961297208549148
0.191559360003896,0.091929093588165
0.188566185861834,0.0877076215648471
0.185562949559445,0.0834657284079128
0.182549561655579,0.0792038377403139
0.179525932709081,0.0749223731850024
0.1764919732788,0.07062175836493
0.173447593923582,0.0663024169030482
0.170392705202275,0.0619647724223089
0.167327217673727,0.0576092485456642
0.164251041896784,0.0532362688960656
0.161164088430294,0.0488462570964649
0.158066267833105,0.0444396367698139
0.154957490664063,0.0400168315390646
0.151837667482016,0.0355782650271686
0.148706708845811,0.0311243608570776
0.145564525314296,0.0266555426517434
0.142411027446318,0.022172234034118
0.139246125800724,0.017674858627153
0.136069730936362,0.0131638400538001
0.132881753412078,0.00863960193701135
0.129682103786721,0.00410256789973842
0.126470692619138,-0.000446838435066876
0.123247430468176,-0.00500819344445291
0.120012227892682,-0.00958107350546783
0.116764995451503,-0.0141650549951597
0.113505643703488,-0.018759714290577
0.110234083207483,-0.0233646277687675
0.106950224522336,-0.02797937180678
0.103653978206893,-0.0326035227816622
0.100345254820003,-0.0372366570704627
0.0970239649205126,-0.0418783510502293
0.0936900190672691,-0.0465281810980108
0.09034332781912,-0.0511857235908547
0.0869838017349124,-0.0558505549058099
0.083611351373494,-0.0605222514199241
0.0802258872937118,-0.0652003895102459
0.0768273200544134,-0.0698845455538232
0.0734155602144458,-0.0745742959277045
0.0699905183326567,-0.0792692170089377
0.0665521049678932,-0.0839688851745713
0.0631002306790028,-0.0886728768016532
0.0596348060248326,-0.093380768267232
0.0561557415642301,-0.0980921359483555
0.0526629478560426,-0.102806556222073
0.0491563354591176,-0.107523605465431
0.0456358149323021,-0.112242860055478
0.0421012968344437,-0.116963896369264
0.0385526917243895,-0.121686290783835
0.0349899101609872,-0.126409619676241
0.0314128627030838,-0.131133459423529
0.0278214599095268,-0.135857386402748
0.0242156123391634,-0.140580976990946
0.0205952305508412,-0.14530380756517
0.0169602251034071,-0.15002545450247
0.013310506555709,-0.154745494179894
0.00964598546659368,-0.159463502974489
0.00596657239490887,-0.164179057263304
0.00227217789950164,-0.168891733423387
-0.00143728746078044,-0.173601107831787
-0.00516191312709025,-0.178306756865551
-0.00890178854058023,-0.183008256901728
-0.0126570031424033,-0.187705184317366
-0.0164276463737119,-0.192397115489514
-0.0202138076756589,-0.197083626795218
-0.0240155764893967,-0.201764294611529
-0.0278330422560783,-0.206438695315493
-0.031666294416856,-0.211106405284159
-0.0355154224128829,-0.215767000894576
-0.0393805156853111,-0.220420058523791
-0.0432616636752939,-0.225065154548852
-0.0471589558239834,-0.229701865346809
-0.0510724815725327,-0.234329767294709
-0.0550023303620941,-0.2389484367696
-0.0589485916338206,-0.243557450148531
-0.0629113548288645,-0.24815638380855
-0.0668907093883789,-0.252744814126704
-0.0708867447535161,-0.257322317480043
-0.074899550365429,-0.261888470245615
-0.07892921566527,-0.266442848800467
-0.0829758300941922,-0.270985029521647
-0.0870394830933478,-0.275514588786205
-0.0911202641038897,-0.280031102971189
-0.0952182625669705,-0.284534148453645
-0.099333567923743,-0.289023301610624
-0.10346626961536,-0.293498138819172
-0.107616457082973,-0.297958236456339
-0.111784219767736,-0.302403170899172
-0.115969647110802,-0.306832518524719
-0.120172828553322,-0.31124585571003
-0.12439385353645,-0.315642758832151
-0.128632811501338,-0.320022804268132
-0.132889791889139,-0.32438556839502
-0.137164884141006,-0.328730627589863
-0.141458177698091,-0.333057558229711
-0.145769762001547,-0.337365936691611
-0.150099726492526,-0.341655339352611
-0.154448160612182,-0.345925342589759
-0.158815153801666,-0.350175522780104
-0.163200795502132,-0.354405456300695
-0.167605175154733,-0.358614719528578
-0.17202838220062,-0.362802888840803
-0.176470506080947,-0.366969540614417
-0.180931636236866,-0.371114251226469
-0.18541186210953,-0.375236597054007
-0.189911273140091,-0.37933615447408
-0.194429958769703,-0.383412499863735
-0.198968008439517,-0.38746520960002
-0.203525511590688,-0.391493860059985
-0.208102557664366,-0.395498027620676
-0.212699236101705,-0.399477288659143
-0.217315636343858,-0.403431219552433
-0.221951847831977,-0.407359396677596
-0.226607960007215,-0.411261396411678
-0.231284062310724,-0.415136795131728
-0.235980244183658,-0.418985169214795
-0.240696595067168,-0.422806095037926
-0.245433204402408,-0.42659914897817
-0.250190161630531,-0.430363907412575
-0.254967556192688,-0.434099946718189
-0.259765477530032,-0.437806843272061
-0.264584015083717,-0.441484173451239
-0.269423258294895,-0.44513151363277
-0.274283296604718,-0.448748440193704
-0.27916421945434,-0.452334529511087
-0.284066116284912,-0.45588935796197
-0.288989076537588,-0.459412501923399
-0.29393318965352,-0.462903537772423
-0.29889854507386,-0.46636204188609
-0.303885232239763,-0.469787590641449
-0.308893340592379,-0.473179760415547
-0.313922959572863,-0.476538127585433
-0.318974178622366,-0.479862268528155
-0.324047087182041,-0.483151759620762
-0.329141774693041,-0.486406177240301
-0.334258330596518,-0.48962509776382
-0.339396844333626,-0.492808097568369
-0.344557405345516,-0.495954753030994
-0.349740103073342,-0.499064640528745
-0.354945026958256,-0.502137336438669
-0.360172266441411,-0.505172417137816
-0.365421910963959,-0.508169459003232
-0.370694049967054,-0.511128038411966
-0.375988772891848,-0.514047731741067
-0.381306169179493,-0.516928115367583
-0.386646328271142,-0.519768765668561
-0.392009339607948,-0.52256925902105
-0.397395292631063,-0.525329171802098
-0.402804276781641,-0.528048080388755
-0.408236381500833,-0.530725561158066
-0.413691696229793,-0.533361190487082
-0.419170310409673,-0.53595454475285
-0.424672313481626,-0.538505200332418
-0.430197794886804,-0.541012733602834
-0.43574684406636,-0.543476720941148
-0.441319550461447,-0.545896738724406
-0.446916003513218,-0.548272363329658
-0.452536292662825,-0.55060317113395
-0.458180507351421,-0.552888738514333
-0.463848737020158,-0.555128641847853
-0.469541071110189,-0.55732245751156
-0.475257599062667,-0.559469761882501
-0.480998410318745,-0.561570131337724
-0.486763594319575,-0.563623142254278
-0.492553240506309,-0.565628371009211
-0.498367438320101,-0.567585393979571
-0.504206277202103,-0.569493787542406
-0.510069846593468,-0.571353128074765
-0.515958235935348,-0.573162991953696
-0.521871534668896,-0.574922955556246
-0.527809832235266,-0.576632595259465
-0.533773218075608,-0.5782914874404
-0.539761781631077,-0.579899208476101
-0.545775612342824,-0.581455334743613
-0.551814799652004,-0.582959442619987
-0.557879432999767,-0.58441110848227
-0.563969601827267,-0.585809908707511
-0.570085395575656,-0.587155419672757
-0.576226903686087,-0.588447217755057
-0.582394215599713,-0.58968487933146
-0.588587420757687,-0.590867980779012
-0.594806608601161,-0.591996098474764
-0.601051868571287,-0.593068808795762
-0.607323290109219,-0.594085688119055
-0.613620962656109,-0.595046312821691
-0.61994497565311,-0.595950259280719
-0.626295418541374,-0.596797103873186
-0.632672380762054,-0.597586422976141
-0.639075951756303,-0.598317792966632
-0.645506220965274,-0.598990790221708
-0.651963277830118,-0.599604991118416
-0.658447211791989,-0.600159972033805
-0.66495811229204,-0.600655309344923
-0.671496068771423,-0.601090579428817
-0.67806117067129,-0.601465358662538
-0.684653507432795,-0.601779223423131
-0.69127316849709,-0.602031750087647
-0.697920243305328,-0.602222515033132
-0.704594821298661,-0.602351094636636
-0.711296991918242,-0.602417065275206
-0.718026844605224,-0.602420003325891
-0.72478446880076,-0.602359485165739
-0.731569953946001,-0.602235087171798
-0.738383389482101,-0.602046385721116
-0.745224864850213,-0.601792957190741
-0.752094469491488,-0.601474377957723
-0.758992292847081,-0.601090224399108
-0.765918424358142,-0.600640072891945
-0.772872953465826,-0.600123499813283
-0.779855969611284,-0.599540081540169
-0.786867562235671,-0.598889394449653
-0.793907820780136,-0.598171014918781
-0.800976834685835,-0.597384519324602
-0.808074693393919,-0.596529484044165
-0.815201486345541,-0.595605485454517
-0.822357302981854,-0.594612099932708
-0.82954223274401,-0.593548903855784
-0.836756365073162,-0.592415473600795
-0.843999789410463,-0.591211385544788
-0.851272595197065,-0.589936216064812
-0.858574871874122,-0.588589541537915
-0.865906708882785,-0.587170938341145
-0.873268195664207,-0.585679982851551
-0.880659421659541,-0.58411625144618
-0.888080476309941,-0.58247932050208
