0.0970144785146025,0.0917089200982075
-0.693445576643449,0.230499943722552
-0.583436947794074,0.137697373976267
-0.515487535790969,0.752976926352032
-0.447538123787863,1.3682564787278
-0.934385047267843,-0.0332560252956706
0.326282169091789,-0.575918436362298
1.58694938545142,-1.11858084742892
0.184610494320568,0.992884802734835
-0.0700681149656261,0.830907445610636
