0.804012235013364,-0.764426436621649
0.798695894396608,-0.761558872308474
0.793429595557023,-0.758691848227184
0.788213051816391,-0.755825420874542
0.783045976496496,-0.752959646747311
0.77792808291912,-0.750094582342252
0.772859084406044,-0.747230284156128
0.767838694279053,-0.744366808685701
0.762866625859929,-0.741504212427734
0.757942592470455,-0.738642551878989
0.753066307432412,-0.735781883536228
0.748237484067584,-0.732922263896213
0.743455835697754,-0.730063749455707
0.738721075644703,-0.727206396711472
0.734032917230216,-0.724350262160271
0.729391073776073,-0.721495402298865
0.72479525860406,-0.718641873624018
0.720245185035957,-0.715789732632491
0.715740566393547,-0.712939035821047
0.711281115998613,-0.710089839686447
0.706866547172938,-0.707242200725456
0.702496573238305,-0.704396175434834
0.698170907516495,-0.701551820311344
0.693889263329293,-0.698709191851748
0.68965135399848,-0.69586834655281
0.685456892845839,-0.69302934091129
0.681305593193153,-0.690192231423951
0.677197168362204,-0.687357074587556
0.673131331674775,-0.684523926898868
0.66910779645265,-0.681692844854648
0.665126276017609,-0.678863884951658
0.661186483691436,-0.676037103686661
0.657288132795915,-0.67321255755642
0.653430936652827,-0.670390303057696
0.649614608583955,-0.667570396687252
0.645838861911082,-0.66475289494185
0.64210340995599,-0.661937854318253
0.638407966040462,-0.659125331313223
0.634752243486281,-0.656315382423522
0.63113595561523,-0.653508064145913
0.62755881574909,-0.650703432977158
0.624020537209646,-0.647901545414019
0.620520833318679,-0.645102457953258
0.617059417397972,-0.642306227091638
0.613636002769308,-0.639512909325922
0.610250302754469,-0.63672256115287
0.606902030675238,-0.633935239069247
0.603590899853398,-0.631150999571814
0.600316623610732,-0.628369899157333
0.597078915269021,-0.625591994322568
0.59387748815005,-0.622817341564279
0.590712055575599,-0.62004599737923
0.587582330867453,-0.617278018264182
0.584488027347394,-0.614513460715899
0.581428858337204,-0.611752381231142
0.578404537158666,-0.608994836306674
0.575414777133563,-0.606240882439257
0.572459291583678,-0.603490576125654
0.569537793830792,-0.600743973862626
0.56664999719669,-0.598001132146936
0.563795615003152,-0.595262107475346
0.560974360571963,-0.59252695634462
0.558185947224905,-0.589795735251518
0.55543008828376,-0.587068500692803
0.552706497070311,-0.584345309165239
0.550014886906341,-0.581626217165586
0.547354971113632,-0.578911281190608
0.544726463013968,-0.576200557737066
0.54212907592913,-0.573494103301723
0.539562523180902,-0.570791974381342
0.537026518091066,-0.568094227472684
0.534520773981404,-0.565400919072512
0.5320450041737,-0.562712105677588
0.529598921989736,-0.560027843784675
0.527182240751295,-0.557348189890535
0.524794673780159,-0.55467320049193
0.522435934398112,-0.552002932085623
0.520105735926935,-0.549337441168375
0.517803791688411,-0.54667678423695
0.515529815004324,-0.544021017788109
0.513283519196455,-0.541370198318615
0.511064617586588,-0.538724382325231
0.508872823496505,-0.536083626304718
0.506707850247989,-0.533447986753838
0.504569411162822,-0.530817520169355
0.502457219562788,-0.52819228304803
0.500370988769668,-0.525572331886626
0.498310432105245,-0.522957723181905
0.496275262891303,-0.52034851343063
0.494265194449623,-0.517744759129563
0.492279940101989,-0.515146516775465
0.490319213170183,-0.5125538428651
0.488382726975987,-0.509966793895229
0.486470194841185,-0.507385426362616
0.484581330087559,-0.504809796764022
0.482715846036892,-0.50223996159621
0.480873456010967,-0.499675977355942
0.479053873331565,-0.497117900539981
0.47725681132047,-0.494565787645087
0.475481983299465,-0.492019695168025
0.473729102590331,-0.489479679605557
0.471997882514853,-0.486945797454444
0.470288036394812,-0.484418105211449
0.468599277551991,-0.481896659373334
0.466931319308173,-0.479381516436862
0.46528387498514,-0.476872732898795
0.463656657904675,-0.474370365255895
0.462049381388561,-0.471874470004924
0.460461758758581,-0.469385103642646
0.458893503336516,-0.466902322665822
0.45734432844415,-0.464426183571215
0.455813947403266,-0.461956742855586
0.454302073535646,-0.459494057015699
0.452808420163073,-0.457038182548315
0.451332700607329,-0.454589175950197
0.449874628190197,-0.452147093718107
0.44843391623346,-0.449711992348808
0.4470102780589,-0.447283928339062
0.4456034269883,-0.444862958185631
0.444213076343443,-0.442449138385277
0.442838939446112,-0.440042525434763
0.441480729618089,-0.437643175830851
0.440138160181156,-0.435251146070304
0.438810944457097,-0.432866492649884
0.437498795767694,-0.430489272066352
0.43620142743473,-0.428119540816472
0.434918552779987,-0.425757355397006
0.433649885125248,-0.423402772304716
0.432395137792296,-0.421055848036365
0.431154024102913,-0.418716639088714
0.429926257378883,-0.416385201958526
0.428711550941987,-0.414061593142563
0.427509618114009,-0.411745869137589
0.42632017221673,-0.409438086440364
0.425142926571935,-0.407138301547652
0.423977594501404,-0.404846570956214
0.422823889326923,-0.402562951162813
0.421681524370271,-0.400287498664212
0.420550212953234,-0.398020269957172
0.419429668397592,-0.395761321538457
0.418319604025129,-0.393510709904827
0.417219733157627,-0.391268491553046
0.41612976911687,-0.389034722979877
0.415049425224639,-0.38680946068208
0.413978414802718,-0.384592761156419
0.412916451172888,-0.382384680899656
0.411863247656934,-0.380185276408553
0.410818517576637,-0.377994604179873
0.40978197425378,-0.375812720710378
0.408753331010146,-0.37363968249683
0.407732301167517,-0.371475546035991
0.406718598047676,-0.369320367824624
0.405711934972406,-0.367174204359492
0.40471202526349,-0.365037112137356
0.403718582242709,-0.362909147654979
0.402731319231847,-0.360790367409123
0.401749949552687,-0.35868082789655
0.400774186527011,-0.356580585614024
0.399803743476601,-0.354489697058305
0.398838333723241,-0.352408218726157
0.397877670588713,-0.350336207114341
0.3969214673948,-0.348273718719621
0.395969437463284,-0.346220810038758
0.395021294115948,-0.344177537568515
0.394076750674576,-0.342143957805655
0.393135520460948,-0.340120127246938
0.392197316796849,-0.338106102389128
0.39126185300406,-0.336101939728987
0.390328842404365,-0.334107695763278
0.389397998319545,-0.332123426988762
0.388469034071385,-0.330149189902203
0.387541662981666,-0.328185041000361
0.386615598372171,-0.326231036780001
0.385690553564683,-0.324287233737883
0.384766241880984,-0.322353688370771
0.383842376642857,-0.320430457175426
0.382918671172085,-0.318517596648611
0.38199483879045,-0.316615163287089
0.381070592819736,-0.314723213587621
0.380145646581724,-0.31284180404697
0.379219713398198,-0.310970991161899
0.378292506590939,-0.309110831429169
0.377363739481732,-0.307261381345542
0.376433125392358,-0.305422697407782
0.3755003776446,-0.303594836112651
0.37456520956024,-0.301777853956911
0.373627334461062,-0.299971807437324
0.372686465668848,-0.298176753050652
0.371742316505382,-0.296392747293658
0.370794600292444,-0.294619846663105
0.369843030351818,-0.292858107655753
0.368887320005287,-0.291107586768367
0.367927182574634,-0.289368340497708
0.366962331381641,-0.287640425340538
0.36599247974809,-0.28592389779362
0.365017340995765,-0.284218814353717
0.364036628446448,-0.282525231517589
0.363050055421921,-0.280843205782001
0.362057335243968,-0.279172793643713
0.361058181234371,-0.277514051599489
0.360052306714913,-0.275867036146091
0.359039425007376,-0.274231803780281
0.358019249433544,-0.272608410998821
0.356991493315198,-0.270996914298474
0.355955869974121,-0.269397370176002
0.354912092732097,-0.267809835128167
0.353859874910907,-0.266234365651732
0.352798929832335,-0.26467101824346
0.351728970818162,-0.263119849400111
0.350649711190173,-0.261580915618449
0.349560864270149,-0.260054273395236
0.348462143379873,-0.258539979227234
0.347353261841127,-0.257038089611206
0.346233932975696,-0.255548661043914
0.34510387010536,-0.25407175002212
0.343962786551903,-0.252607413042587
0.342810395637107,-0.251155706602077
0.341646410682755,-0.249716687197352
0.340470545010631,-0.248290411325175
0.339282511942515,-0.246876935482307
0.338082024800192,-0.245476316165512
0.336868796905443,-0.244088609871551
0.335642541580052,-0.242713873097187
0.334402972145801,-0.241352162339183
0.333149801924472,-0.240003534094299
0.331882744237849,-0.2386680448593
0.330601512407714,-0.237345751130947
0.32930581975585,-0.236036709406002
0.327995379604039,-0.234740976181229
0.326669905274064,-0.233458607953388
0.325329110087708,-0.232189661219243
0.323972707366753,-0.230934192475555
0.322600410432983,-0.229692258219088
0.321211932608179,-0.228463914946603
0.319806987214125,-0.227249219154863
0.318385287572602,-0.22604822734063
0.316946547005395,-0.224860996000667
0.315490478834284,-0.223687581631735
0.314016796381054,-0.222528040730597
0.312525212967487,-0.221382429794016
0.311015441915365,-0.220250805318753
0.309487196546471,-0.219133223801571
0.307940190182588,-0.218029741739233
0.306374136145498,-0.2169404156285
0.304788747756984,-0.215865301966136
0.303183738338829,-0.214804457248902
0.301558821212815,-0.21375793797356
0.299913709700726,-0.212725800636873
0.298248117124343,-0.211708101735604
0.296561756805449,-0.210704897766514
0.294854342065828,-0.209716245226367
0.293125586227261,-0.208742200611923
0.291375202611532,-0.207782820419946
0.289602904540423,-0.206838161147198
0.287808405335716,-0.205908279290441
0.285991418319195,-0.204993231346438
0.284151656812642,-0.204093073811951
0.28228883413784,-0.203207863183742
0.280402663616571,-0.202337655958574
0.278492858570618,-0.201482508633208
0.276559132321764,-0.200642477704407
0.274601198191791,-0.199817619668935
0.272618769502483,-0.199007991023551
0.270611559575621,-0.198213648265021
0.268579281732988,-0.197434647890104
0.266521649296368,-0.196671046395564
0.264438375587542,-0.195922900278164
0.262329173928294,-0.195190266034665
0.260193757640406,-0.19447320016183
0.25803184004566,-0.193771759156421
0.25584313446584,-0.1930859995152
0.253627354222728,-0.19241597773493
0.251384212638106,-0.191761750312373
0.249113423033758,-0.191123373744292
0.246814698731467,-0.190500904527448
0.244487753053013,-0.189894399158604
0.242132299320182,-0.189303914134523
0.239748050854754,-0.188729505951966
0.237334720978513,-0.188171231107697
0.234892023013241,-0.187629146098476
0.232419670280722,-0.187103307421068
0.229917376102737,-0.186593771572233
0.227384853801069,-0.186100595048735
0.224821816697502,-0.185623834347335
0.222227978113817,-0.185163545964797
0.219603051371798,-0.184719786397881
0.216946749793227,-0.184292612143352
0.214258786699886,-0.18388207969797
0.211538875413559,-0.183488245558498
0.208786729256028,-0.183111166221699
0.206002061549076,-0.182750898184335
0.203184585614485,-0.182407497943168
0.200334014774038,-0.182081021994961
0.197450062349518,-0.181771526836476
0.194532441662707,-0.181479068964475
0.191580866035388,-0.18120370487572
0.188595048789344,-0.180945491066974
0.185574703246357,-0.180704484035
0.182519542728211,-0.180480740276559
0.179429280556687,-0.180274316288413
0.176303630053569,-0.180085268567326
0.173142304540638,-0.17991365361006
0.169945017339679,-0.179759527913376
0.166711481772472,-0.179622947974037
0.163441411160802,-0.179503970288806
0.16013451882645,-0.179402651354445
0.1567905180912,-0.179319047667715
0.153409122276834,-0.17925321572538
0.149990044705135,-0.179205212024202
0.146532998697885,-0.179175093060943
0.143037697576867,-0.179162915332365
0.139503854663864,-0.179168735335231
0.135931183280658,-0.179192609566303
0.132319396749032,-0.179234594522344
0.128668208390769,-0.179294746700115
0.124977331527651,-0.179373122596379
0.121246479481462,-0.179469778707898
0.117475365573983,-0.179584771531435
0.113663703126997,-0.179718157563753
0.109811205462288,-0.179869993301612
0.105917585901637,-0.180040335241776
0.101982557766828,-0.180229239881007
0.0980058343796424,-0.180436763716067
0.0939871290618637,-0.180662963243719
0.0899261551352745,-0.180907894960725
0.0858226259216573,-0.181171615363847
0.0816762547427949,-0.181454180949848
0.0774867549204697,-0.181755648215489
0.0732538397764648,-0.182076073657534
0.0689772226325623,-0.182415513772744
0.0646566168105455,-0.182774025057883
0.0602917356321965,-0.183151664009711
0.0558822924192984,-0.183548487124992
0.0514280004936335,-0.183964550900488
0.0469285731769848,-0.184399911832961
0.0423837237911347,-0.184854626419173
0.0377931656578661,-0.185328751155887
0.0331566120989614,-0.185822342539866
0.0284737764362036,-0.186335457067871
0.023744371991375,-0.186868151236664
0.0189681120862586,-0.187420481543009
0.0141447100426367,-0.187992504483667
0.00927387918229242,-0.188584276555401
0.00435533282700799,-0.189195854254973
-0.000611215701433548,-0.189827294079146
-0.00562605308124996,-0.190478652524681
-0.010689465990658,-0.191149986088341
-0.0158017411078757,-0.191841351266889
-0.0209631651111197,-0.192552804557087
-0.0261740246786079,-0.193284402455696
-0.0314346064885571,-0.19403620145948
-0.0367451972191853,-0.1948082580652
-0.0421060835487091,-0.19560062876962
-0.0475175521553464,-0.1964133700695
-0.0529798897173142,-0.197246538461605
-0.0584933829128301,-0.198100190442695
-0.0640583184201111,-0.198974382509534
-0.069674982917375,-0.199869171158883
-0.0753436630828386,-0.200784612887506
-0.0810646455947197,-0.201720764192163
-0.0868382171312352,-0.202677681569618
-0.0926646643706029,-0.203655421516634
-0.0985442739910397,-0.204654040529971
-0.104477332670763,-0.205673595106393
-0.110464127087991,-0.206714141742662
-0.11650494392094,-0.20777573693554
-0.122600069847827,-0.208858437181789
-0.12874979154687,-0.209962298978173
-0.134954395696287,-0.211087378821452
-0.141214168974294,-0.21223373320839
-0.147529398059109,-0.213401418635749
-0.15390036962895,-0.214590491600292
-0.160327370362033,-0.215801008598779
-0.166810686936576,-0.217033026127975
-0.173350606030796,-0.21828660068464
-0.179947414322912,-0.219561788765538
-0.186601398491138,-0.220858646867431
-0.193312845213695,-0.222177231487081
-0.200082041168798,-0.22351759912125
-0.206909273034665,-0.224879806266701
-0.213794827489513,-0.226263909420197
-0.22073899121156,-0.227669965078498
-0.227742050879022,-0.229098029738368
-0.234804293170118,-0.23054815989657
-0.241926004763065,-0.232020412049865
-0.24910747233608,-0.233514842695015
-0.25634898256738,-0.235031508328784
-0.263650822135182,-0.236570465447932
-0.271013277717705,-0.238131770549224
-0.278436635993165,-0.23971548012942
-0.285921183639779,-0.241321650685284
-0.293467207335766,-0.242950338713578
-0.301074993759341,-0.244601600711063
-0.308744829588724,-0.246275493174503
-0.31647700150213,-0.247972072600659
-0.324271796177778,-0.249691395486294
-0.332129500293884,-0.251433518328171
-0.340050400528666,-0.253198497623051
-0.348034783560342,-0.254986389867697
-0.356082936067128,-0.256797251558871
-0.356082936067128,-0.256797251558871
-0.364121708243651,-0.258606935683617
-0.372077924562121,-0.260391319814409
-0.379951833117134,-0.26215049732616
-0.387743682003286,-0.263884561593779
-0.395453719315173,-0.26559360599218
-0.403082193147388,-0.267277723896271
-0.410629351594529,-0.268937008680966
-0.41809544275119,-0.270571553721174
-0.425480714711968,-0.272181452391808
-0.432785415571457,-0.273766798067778
-0.440009793424253,-0.275327684123995
-0.447154096364952,-0.276864203935371
-0.454218572488149,-0.278376450876817
-0.461203469888439,-0.279864518323244
-0.468109036660418,-0.281328499649563
-0.474935520898682,-0.282768488230685
-0.481683170697826,-0.284184577441522
-0.488352234152446,-0.285576860656985
-0.494942959357136,-0.286945431251985
-0.501455594406493,-0.288290382601433
-0.507890387395112,-0.28961180808024
-0.514247586417588,-0.290909801063318
-0.520527439568517,-0.292184454925577
-0.526730194942495,-0.293435863041929
-0.532856100634117,-0.294664118787285
-0.538905404737978,-0.295869315536556
-0.544878355348674,-0.297051546664654
-0.550775200560801,-0.298210905546489
-0.556596188468953,-0.299347485556973
-0.562341567167727,-0.300461380071017
-0.568011584751717,-0.301552682463532
-0.573606489315521,-0.302621486109429
-0.579126528953732,-0.30366788438362
-0.584571951760946,-0.304691970661015
-0.589943005831759,-0.305693838316526
-0.595239939260766,-0.306673580725064
-0.600463000142564,-0.30763129126154
-0.605612436571747,-0.308567063300865
-0.61068849664291,-0.309480990217951
-0.61569142845065,-0.310373165387709
-0.620621480089562,-0.31124368218505
-0.62547889965424,-0.312092633984884
-0.630263935239282,-0.312920114162124
-0.634976834939282,-0.313726216091681
-0.639617846848836,-0.314511033148465
-0.644187219062539,-0.315274658707387
-0.648685199674986,-0.31601718614336
-0.653112036780774,-0.316738708831294
-0.657467978474498,-0.3174393201461
-0.661753272850753,-0.318119113462689
-0.665968168004135,-0.318778182155973
-0.670112912029239,-0.319416619600864
-0.67418775302066,-0.320034519172271
-0.678192939072995,-0.320631974245106
-0.682128718280838,-0.321209078194281
-0.685995338738786,-0.321765924394706
-0.689793048541433,-0.322302606221293
-0.693522095783376,-0.322819217048953
-0.697182728559209,-0.323315850252597
-0.700775194963528,-0.323792599207137
-0.704299743090929,-0.324249557287483
-0.707756621036007,-0.324686817868546
-0.711146076893357,-0.325104474325238
-0.714468358757576,-0.325502620032471
-0.717723714723258,-0.325881348365154
-0.720912392885,-0.3262407526982
-0.724034641337395,-0.32658092640652
-0.727090708175042,-0.326901962865024
-0.730080841492533,-0.327203955448624
-0.733005289384466,-0.327486997532231
-0.735864299945435,-0.327751182490756
-0.738658121270036,-0.327996603699111
-0.741387001452865,-0.328223354532207
-0.744051188588516,-0.328431528364954
-0.746650930771586,-0.328621218572264
-0.749186476096671,-0.328792518529049
-0.751658072658364,-0.328945521610219
-0.754065968551263,-0.329080321190685
-0.756410411869962,-0.329197010645359
-0.758691650709057,-0.329295683349152
-0.760909933163144,-0.329376432676975
-0.763065507326817,-0.329439352003739
-0.765158621294673,-0.329484534704356
-0.767189523161307,-0.329512074153736
-0.769158461021314,-0.329522063726791
-0.77106568296929,-0.329514596798432
-0.77291143709983,-0.32948976674357
-0.774695971507531,-0.329447666937117
-0.776419534286987,-0.329388390753983
-0.778082373532794,-0.329312031569079
-0.779684737339546,-0.329218682757318
-0.781226873801842,-0.329108437693609
-0.782709031014274,-0.328981389752865
-0.784131457071439,-0.328837632309996
-0.785494400067932,-0.328677258739914
-0.786798108098349,-0.328500362417529
-0.788042829257286,-0.328307036717754
-0.789228811639337,-0.328097375015498
-0.790356303339099,-0.327871470685674
-0.791425552451166,-0.327629417103192
-0.792436807070135,-0.327371307642964
-0.7933903152906,-0.327097235679901
-0.794286325207158,-0.326807294588913
-0.795125084914404,-0.326501577744913
-0.795906842506932,-0.326180178522812
-0.79663184607934,-0.325843190297519
-0.797300343726221,-0.325490706443948
-0.797912583542173,-0.325122820337009
-0.798468813621789,-0.324739625351612
-0.798969282059667,-0.32434121486267
-0.7994142369504,-0.323927682245093
-0.799803926388585,-0.323499120873793
-0.800138598468817,-0.323055624123681
-0.800418501285692,-0.322597285369668
-0.800643882933805,-0.322124197986665
-0.800814991507752,-0.321636455349583
-0.800932075102128,-0.321134150833334
-0.800995381811528,-0.320617377812828
-0.801005159730549,-0.320086229662978
-0.800961656953785,-0.319540799758693
-0.800865121575833,-0.318981181474886
-0.800715801691286,-0.318407468186467
-0.800513945394742,-0.317819753268347
-0.800259800780796,-0.317218130095439
-0.799953615944043,-0.316602692042652
-0.799595638979078,-0.315973532484899
-0.799186117980497,-0.31533074479709
-0.798725301042896,-0.314674422354136
-0.79821343626087,-0.314004658530949
-0.797650771729014,-0.31332154670244
-0.797037555541924,-0.31262518024352
-0.796374035794196,-0.3119156525291
-0.795660460580425,-0.311193056934092
-0.794897077995206,-0.310457486833406
-0.794084136133135,-0.309709035601954
-0.793221883088808,-0.308947796614647
-0.79231056695682,-0.308173863246396
-0.791350435831766,-0.307387328872112
-0.790341737808242,-0.306588286866707
-0.789284720980843,-0.305776830605092
-0.788179633444166,-0.304953053462177
-0.787026723292805,-0.304117048812874
-0.785826238621355,-0.303268910032095
-0.784578427524414,-0.30240873049475
-0.783283538096575,-0.30153660357575
-0.781941818432434,-0.300652622650007
-0.780553516626587,-0.299756881092432
-0.77911888077363,-0.298849472277936
-0.777638158968157,-0.297930489581431
-0.776111599304765,-0.297000026377827
-0.774539449878049,-0.296058176042035
-0.772921958782604,-0.295105031948967
-0.771259374113026,-0.294140687473535
-0.76955194396391,-0.293165235990648
-0.767799916429851,-0.292178770875219
-0.766003539605447,-0.291181385502158
-0.764163061585291,-0.290173173246378
-0.762278730463979,-0.289154227482787
-0.760350794336107,-0.288124641586299
-0.75837950129627,-0.287084508931825
-0.756365099439064,-0.286033922894274
-0.754307836859084,-0.28497297684856
-0.752207961650926,-0.283901764169592
-0.750065721909186,-0.282820378232282
-0.747881365728458,-0.281728912411541
-0.745655141203338,-0.280627460082281
-0.743387296428421,-0.279516114619412
-0.741078079498304,-0.278394969397845
-0.738727738507582,-0.277264117792493
-0.73633652155085,-0.276123653178266
-0.733904676722703,-0.274973668930074
-0.731432452117738,-0.273814258422831
-0.728920095830549,-0.272645515031446
-0.726367855955732,-0.27146753213083
-0.723775980587883,-0.270280403095896
-0.721144717821598,-0.269084221301553
-0.71847431575147,-0.267879080122714
-0.715765022472097,-0.26666507293429
-0.713017086078073,-0.265442293111191
-0.710230754663995,-0.264210834028329
-0.707406276324457,-0.262970789060615
-0.704543899154055,-0.26172225158296
-0.701643871247385,-0.260465314970275
-0.698706440699042,-0.259200072597472
-0.695731855603621,-0.257926617839462
-0.692720364055718,-0.256645044071156
-0.689672214149929,-0.255355444667465
-0.686587653980848,-0.2540579130033
-0.683466931643073,-0.252752542453573
-0.680310295231197,-0.251439426393194
-0.677117992839817,-0.250118658197075
-0.673890272563528,-0.248790331240127
-0.670627382496925,-0.247454538897261
-0.667329570734604,-0.246111374543388
-0.66399708537116,-0.24476093155342
-0.66063017450119,-0.243403303302268
-0.657229086219288,-0.242038583164843
-0.65379406862005,-0.240666864516056
-0.650325369798071,-0.239288240730818
-0.646823237847947,-0.23790280518404
-0.643287920864274,-0.236510651250634
-0.639719666941646,-0.235111872305511
-0.63611872417466,-0.233706561723582
-0.632485340657911,-0.232294812879758
-0.628819764485994,-0.23087671914895
-0.625122243753505,-0.22945237390607
-0.621393026555039,-0.228021870526028
-0.617632360985192,-0.226585302383737
-0.613840495138559,-0.225142762854106
-0.610017677109737,-0.223694345312048
-0.606164154993319,-0.222240143132473
-0.602280176883903,-0.220780249690292
-0.598365990876082,-0.219314758360418
-0.594421845064454,-0.21784376251776
-0.590447987543612,-0.21636735553723
-0.586444666408154,-0.21488563079374
-0.582412129752673,-0.2133986816622
-0.578350625671767,-0.211906601517522
-0.574260402260029,-0.210409483734617
-0.570141707612057,-0.208907421688396
-0.565994789822444,-0.20740050875377
-0.561819896985787,-0.20588883830565
-0.557617277196682,-0.204372503718948
-0.553387178549723,-0.202851598368575
-0.549129849139506,-0.201326215629441
-0.544845537060627,-0.199796448876459
-0.540534490407681,-0.198262391484539
-0.536196957275264,-0.196724136828592
-0.531833185757971,-0.19518177828353
-0.527443423950398,-0.193635409224264
-0.52302791994714,-0.192085123025705
-0.518586921842792,-0.190531013062764
-0.51412067773195,-0.188973172710352
-0.509629435709211,-0.187411695343381
-0.505113443869168,-0.185846674336762
-0.500572950306418,-0.184278203065406
-0.496008203115555,-0.182706374904223
-0.491419450391177,-0.181131283228126
-0.486806940227877,-0.179553021412025
-0.482170920720252,-0.177971682830832
-0.477511639962897,-0.176387360859458
-0.472829346050408,-0.174800148872814
-0.468124287077379,-0.173210140245811
-0.463396711138408,-0.17161742835336
-0.458646866328087,-0.170022106570372
-0.453875000741015,-0.16842426827176
-0.449081362471786,-0.166824006832433
-0.444266199614995,-0.165221415627303
-0.439429760265238,-0.163616588031282
-0.43457229251711,-0.16200961741928
-0.429694044465208,-0.160400597166208
-0.424795264204126,-0.158789620646979
-0.419876199828459,-0.157176781236502
-0.414937099432805,-0.155562172309689
-0.409978211111757,-0.153945887241452
-0.404999782959911,-0.152328019406701
-0.400002063071864,-0.150708662180348
-0.39498529954221,-0.149087908937304
-0.389949740465544,-0.147465853052479
-0.384895633936464,-0.145842587900786
-0.379823228049563,-0.144218206857136
-0.374732770899437,-0.142592803296438
-0.369624510580682,-0.140966470593606
-0.364498695187894,-0.13933930212355
-0.359355572815667,-0.13771139126118
-0.354195391558598,-0.136082831381409
-0.349018399511281,-0.134453715859148
-0.343824844768313,-0.132824138069307
-0.338614975424288,-0.131194191386797
-0.333389039573803,-0.129563969186531
-0.328147285311453,-0.127933564843419
-0.322889960731833,-0.126303071732373
-0.317617313929538,-0.124672583228303
-0.312329592999165,-0.12304219270612
-0.307027046035309,-0.121411993540737
-0.301709921132565,-0.119782079107063
-0.296378466385528,-0.118152542780011
-0.291032929888795,-0.116523477934492
-0.285673559736961,-0.114894977945415
-0.28030060402462,-0.113267136187694
-0.27491431084637,-0.111640046036239
-0.269514928296804,-0.110013800865961
-0.26410270447052,-0.108388494051771
-0.258677887462111,-0.106764218968581
-0.253240725366174,-0.105141068991301
-0.247791466277304,-0.103519137494843
-0.242330358290097,-0.101898517854119
-0.236857649499148,-0.100279303444038
-0.231373587999053,-0.0986615876395133
-0.225878421884406,-0.0970454638154549
-0.220372399249804,-0.0954310253467742
-0.214855768189843,-0.0938183656083826
-0.209328776799117,-0.092207577975191
-0.203791673172222,-0.0905987558221108
-0.198244705403753,-0.088991992524053
-0.192688121588307,-0.0873873814559289
-0.187122169820478,-0.0857850159926496
-0.181547098194863,-0.0841849895091265
-0.175963154806055,-0.0825873953802704
-0.170370587748652,-0.0809923269809928
-0.164769645117248,-0.0793998776862048
-0.15916057500644,-0.0778101408708175
-0.153543625510821,-0.0762232099097421
-0.147919044724989,-0.0746391781778898
-0.142287080743538,-0.0730581390501718
-0.136647981661065,-0.0714801859014994
-0.131001995572163,-0.0699054121067835
-0.12534937057143,-0.0683339110409354
-0.11969035475346,-0.0667657760788664
-0.114025196212849,-0.0652011005954876
-0.108354143044192,-0.06363997796571
-0.102677443342085,-0.0620825015644451
-0.0969953452011241,-0.0605287647666039
-0.0913080967159038,-0.0589788609470976
-0.0856159459810197,-0.0574328834808373
-0.0799191410910677,-0.0558909257427344
-0.0742179301406428,-0.0543530811076998
-0.068512561224341,-0.0528194429506449
-0.0628032824367573,-0.0512901046464808
-0.0570903418724877,-0.0497651595701187
-0.0513739876261273,-0.0482447010964697
-0.0456544677922718,-0.0467288226004451
-0.0399320304655165,-0.0452176174569559
-0.0342069237404572,-0.0437111790409135
-0.028479395711689,-0.042209600727229
-0.0227496944738078,-0.0407129758908135
-0.0170180681214086,-0.0392213979065782
-0.0112847647490874,-0.0377349601494344
-0.0055500324514393,-0.0362537559942932
0.000185880676939837,-0.0347778788160657
0.005922726541455,-0.0333074219896632
0.0116602570475101,-0.0318424788899969
0.0173982241005103,-0.0303831428919778
0.0231363796058595,-0.0289295073705173
0.0288744754689627,-0.0274816657005264
0.034612263595224,-0.0260397112569164
0.0403494958900484,-0.0246037374145983
0.0460859242588398,-0.0231738375484836
0.0518213006070033,-0.0217501050334832
0.0575553768399429,-0.0203326332445084
0.0632879048630635,-0.0189215155564703
0.0690186365817693,-0.0175168453442802
0.0747473239014652,-0.0161187159828491
0.0804737187275552,-0.0147272208470884
0.0861975729654443,-0.0133424533119091
0.0919186385205365,-0.0119645067522225
0.0976366672982369,-0.0105934745429397
0.103351411203949,-0.00922945005897195
0.109062622143079,-0.00787252667523033
0.11477005202103,-0.00652279776662613
0.120473452743207,-0.00518035670807042
0.126172576215014,-0.0038452968744745
0.131867174341857,-0.00251771164074942
0.137556999029139,-0.00119769438180649
0.143241802182264,0.00011466152744323
0.148921335706639,0.00141926271208846
0.154595351507666,0.00271601579721811
0.16026360149075,0.00400482740792091
0.165925837561297,0.00528560416928578
0.17158181162471,0.00655825270640143
0.177231275586395,0.00782267964435678
0.182873981351754,0.00907879160824056
0.188509680826194,0.0103264952231417
0.194138125915119,0.0115656971141489
0.199759068523932,0.0127963039063511
0.205372260558039,0.014018222224837
0.210977453922844,0.0152313586946955
0.216574400523752,0.0164356199410154
0.222162852266166,0.0176309125888856
0.227742561055493,0.0188171432633947
0.233313278797135,0.0199942185896318
0.238874757396498,0.0211620451926854
0.244426748758986,0.0223205296976447
0.249969004790004,0.0234695787295982
0.255501277394956,0.0246090989136349
0.261023318479246,0.0257389968748435
0.26653487994828,0.026859179238313
0.272035713707462,0.027969552629132
0.277525571662195,0.0290700236723894
0.283004205717885,0.0301604989931741
0.288471367779937,0.0312408852165749
0.293926809753754,0.0323110889676805
0.299370283544741,0.0333710168715799
0.304801541058303,0.0344205755533618
0.310220334199845,0.035459671638115
0.31562641487477,0.0364882117509284
0.321019534988483,0.0375061025168908
0.326399446446389,0.038513250561091
0.331765901153893,0.0395095625086179
0.337118651016398,0.0404949449845601
0.342457447939309,0.0414693046140067
0.347782043828031,0.0424325480220463
0.353092190587969,0.0433845818337679
0.358387640124526,0.0443253126742601
0.363668144343108,0.045254647168612
0.368933455149118,0.0461724919419122
0.374183324447962,0.0470787536192496
0.379417504145044,0.047973338825713
0.384635746145768,0.0488561541863912
0.384635746145768,0.0488561541863912
0.389828038634873,0.0497409420708982
0.394984536417701,0.0506414322191093
0.400105241330561,0.0515575123115056
0.405190155209763,0.0524890700285679
0.410239279891615,0.0534359930507773
0.415252617212428,0.0543981690586148
0.420230169008511,0.0553754857325612
0.425171937116172,0.0563678307530978
0.430077923371722,0.0573750918007053
0.43494812961147,0.0583971565558648
0.439782557671724,0.0594339126990573
0.444581209388795,0.0604852479107637
0.449344086598991,0.061551049871465
0.454071191138622,0.0626312062616423
0.458762524843998,0.0637256047617765
0.463418089551427,0.0648341330523485
0.468037887097219,0.0659566788138395
0.472621919317684,0.0670931297267302
0.47717018804913,0.0682433734715018
0.481682695127867,0.0694072977286352
0.486159442390204,0.0705847901786115
0.490600431672452,0.0717757385019114
0.495005664810917,0.0729800303790162
0.499375143641912,0.0741975534904066
0.503708870001744,0.0754281955165639
0.508006845726723,0.0766718441379688
0.512269072653158,0.0779283870351024
0.51649555261736,0.0791977118884456
0.520686287455636,0.0804797063784796
0.524841279004296,0.0817742581856851
0.52896052909965,0.0830812549905433
0.533044039578007,0.0844005844735351
0.537091812275677,0.0857321343151415
0.541103849028968,0.0870757921958434
0.54508015167419,0.0884314457961219
0.549020722047653,0.089798982796458
0.552925561985665,0.0911782908773325
0.556794673324536,0.0925692577192265
0.560628057900576,0.093971771002621
0.564425717550093,0.095385718407997
0.568187654109398,0.0968109876158355
0.571913869414799,0.0982474663066173
0.575604365302605,0.0996950421608236
0.579259143609127,0.101153602858935
0.582878206170673,0.102623036081433
0.586461554823553,0.104103229508799
0.590009191404075,0.105594070821512
0.593521117748551,0.107095447700055
0.596997335693288,0.108607247824909
0.600437847074595,0.110129358876553
0.603842653728784,0.11166166853547
0.607211757492162,0.113204064482141
0.610545160201039,0.114756434397045
0.613842863691725,0.116318665960665
0.617104869800528,0.11789064685348
0.620331180363759,0.119472264755974
0.623521797217726,0.121063407348625
0.626676722198739,0.122663962311915
0.629795957143106,0.124273817326325
0.632879503887139,0.125892860072337
0.635927364267145,0.127520978230431
0.638939540119434,0.129158059481087
0.641916033280316,0.130803991504788
0.644856845586099,0.132458661982014
0.647761978873094,0.134121958593246
0.650631434977609,0.135793769018965
0.653465215735954,0.137473980939652
0.656263322984438,0.139162482035788
0.65902575855937,0.140859159987854
0.66175252429706,0.14256390247633
0.664443622033817,0.144276597181699
0.667099053605951,0.145997131784441
0.669718820849771,0.147725393965036
0.672302925601586,0.149461271403966
0.674851369697705,0.151204651781713
0.677364154974438,0.152955422778756
0.679841283268095,0.154713472075577
0.682282756414983,0.156478687352656
0.684688576251414,0.158250956290476
0.687058744613696,0.160030166569516
0.689393263338138,0.161816205870258
0.69169213426105,0.163608961873182
0.693955359218741,0.165408322258771
0.696182940047521,0.167214174707504
0.698374878583699,0.169026406899863
0.700531176663584,0.170844906516328
0.702651836123485,0.172669561237381
0.704736858799713,0.174500258743503
0.706786246528575,0.176336886715174
0.708800001146382,0.178179332832876
0.710778124489443,0.18002748477709
0.712720618394067,0.181881230228296
0.714627484696564,0.183740456866975
0.716498725233242,0.185605052373609
0.718334341840412,0.187474904428679
0.720134336354383,0.189349900712665
0.721898710611463,0.191229928906049
0.723627466447962,0.19311487668931
0.72532060570019,0.195004631742932
0.726978130204456,0.196899081747394
0.728600041797069,0.198798114383177
0.730186342314339,0.200701617330763
0.731737033592574,0.202609478270632
0.733252117468085,0.204521584883265
0.734731595777181,0.206437824849144
0.73617547035617,0.208358085848749
0.737583743041363,0.210282255562561
0.738956415669068,0.212210221671061
0.740293490075596,0.214141871854731
0.741594968097254,0.216077093794051
0.742860851570353,0.218015775169503
0.744091142331202,0.219957803661566
0.74528584221611,0.221903066950723
0.746444953061387,0.223851452717454
0.747568476703342,0.22580284864224
0.748656414978284,0.227757142405562
0.749708769722523,0.229714221687901
0.750725542772367,0.231673974169738
0.751706735964127,0.233636287531555
0.752652351134112,0.235601049453831
0.753562390118631,0.237568147617049
0.754436854753992,0.239537469701689
0.755275746876507,0.241508903388231
0.756079068322484,0.243482336357158
0.756846820928232,0.245457656288949
0.75757900653006,0.247434750864087
0.758275626964278,0.249413507763051
0.758936684067196,0.251393814666324
0.759562179675123,0.253375559254385
0.760152115624367,0.255358629207716
0.760706493751239,0.257342912206799
0.761225315892047,0.259328295932113
0.761708583883102,0.261314668064139
0.762156299560712,0.26330191628336
0.762568464761186,0.265289928270255
0.762945081320835,0.267278591705307
0.763286151075967,0.269267794268995
0.763591675862891,0.2712574236418
0.763861657517918,0.273247367504205
0.764096097877356,0.275237513536689
0.764294998777514,0.277227749419734
0.764458362054703,0.279217962833821
0.764586189545231,0.28120804145943
0.764678483085408,0.283197872977043
0.764735244511543,0.28518734506714
0.764756475659945,0.287176345410204
0.764742178366924,0.289164761686713
0.764692354468789,0.291152481577151
0.764607005801849,0.293139392761997
0.764486134202414,0.295125382921732
0.764329741506793,0.297110339736838
0.764137829551296,0.299094150887795
0.763910400172231,0.301076704055085
0.763647455205909,0.303057886919189
0.763348996488637,0.305037587160587
0.763015025856727,0.30701569245976
0.762645545146487,0.30899209049719
0.762240556194226,0.310966668953357
0.761800060836253,0.312939315508743
0.761324060908879,0.314909917843827
0.760812558248413,0.316878363639093
0.760265554691163,0.318844540575019
0.759683052073439,0.320808336332088
0.759065052231551,0.322769638590781
0.758411557001807,0.324728335031577
0.757722568220517,0.326684313334959
0.756998087723991,0.328637461181407
0.756238117348538,0.330587666251402
0.755442658930467,0.332534816225426
0.754611714306087,0.334478798783958
0.753745285311708,0.336419501607481
0.75284337378364,0.338356812376475
0.751905981558191,0.340290618771421
0.75093311047167,0.342220808472801
0.749924762360388,0.344147269161094
0.748880939060653,0.346069888516782
0.747801642408775,0.347988554220347
0.746686874241063,0.349903153952269
0.745536636393826,0.351813575393028
0.744350930703375,0.353719706223107
0.743129759006018,0.355621434122986
0.741873123138064,0.357518646773145
0.740581024935822,0.359411231854067
0.739253466235604,0.361299077046232
0.737890448873716,0.36318207003012
0.73649197468647,0.365060098486213
0.735058045510173,0.366933050094993
0.733588663181136,0.368800812536939
0.732083829535669,0.370663273492533
0.730543546410078,0.372520320642256
0.728967815640676,0.374371841666589
0.727356639063771,0.376217724246012
0.725710018515672,0.378057856061008
0.724027955832688,0.379892124792056
0.722310452851129,0.381720418119638
0.720557511407304,0.383542623724234
0.718769133337524,0.385358629286327
0.716945320478095,0.387168322486396
0.715086074665329,0.388971591004923
0.713191397735535,0.390768322522388
0.711261291525021,0.392558404719273
0.709295757870098,0.394341725276059
0.707294798607074,0.396118171873226
0.705258415572259,0.397887632191256
0.703186610601963,0.39964999391063
0.701079385532494,0.401405144711828
0.698936742200162,0.403152972275331
0.696758682441276,0.404893364281622
0.694545208092145,0.406626208411179
0.69229632098908,0.408351392344486
0.690012022968389,0.410068803762021
0.687692315866382,0.411778330344267
0.685337201519367,0.413479859771705
0.682946681763655,0.415173279724815
0.680520758435554,0.416858477884078
0.678059433371374,0.418535341929976
0.675562708407424,0.420203759542989
0.673030585380015,0.421863618403599
0.670463066125454,0.423514806192286
0.667860152480051,0.425157210589531
0.665221846280116,0.426790719275816
0.662548149361958,0.42841521993162
0.659839063561886,0.430030600237427
0.65709459071621,0.431636747873715
0.654314732661239,0.433233550520966
0.651499491233282,0.434820895859662
0.648648868268648,0.436398671570283
0.645762865603648,0.43796676533331
0.64284148507459,0.439525064829225
0.639884728517784,0.441073457738507
0.636892597769539,0.442611831741639
0.633865094666164,0.444140074519101
0.630802221043968,0.445658073751374
0.627703978739262,0.447165717118938
0.624570369588354,0.448662892302276
0.621401395427554,0.450149486981869
0.61819705809317,0.451625388838196
0.614957359421513,0.453090485551739
0.611682301248892,0.454544664802979
0.608371885411616,0.455987814272397
0.605026113745994,0.457419821640474
0.601644988088336,0.458840574587691
0.59822851027495,0.460249960794529
0.594776682142147,0.461647867941468
0.591289505526236,0.463034183708991
0.587766982263526,0.464408795777577
0.584209114190326,0.465771591827709
0.580615903142946,0.467122459539866
0.576987350957695,0.46846128659453
0.573323459470883,0.469787960672182
0.569624230518818,0.471102369453302
0.56588966593781,0.472404400618373
0.562119767564168,0.473693941847874
0.558314537234202,0.474970880822287
0.554473976784222,0.476235105222092
0.550598088050536,0.477486502727772
0.546686872869453,0.478724961019806
0.542740333077284,0.479950367778675
0.538758470510336,0.481162610684861
0.534741287004921,0.482361577418845
0.530688784397347,0.483547155661108
0.526600964523923,0.48471923309213
0.522477829220959,0.485877697392393
0.518319380324764,0.487022436242377
0.514125619671647,0.488153337322563
0.509896549097919,0.489270288313434
0.505632170439887,0.490373176895468
0.501332485533862,0.491461890749149
0.496997496216152,0.492536317554955
0.492627204323068,0.49359634499337
0.488221611690918,0.494641860744872
0.483780720156012,0.495672752489944
0.479304531554658,0.496688907909067
0.474793047723168,0.49769021468272
0.470246270497849,0.498676560491387
0.465664201715012,0.499647833015546
0.461046843210964,0.50060391993568
0.456394196822017,0.501544708932269
0.451706264384479,0.502470087685795
0.446983047734659,0.503379943876737
0.442224548708867,0.504274165185578
0.437430769143413,0.505152639292799
0.432601710874604,0.506015253878879
0.427737375738752,0.506861896624301
0.422837765572164,0.507692455209545
0.417902882211152,0.508506817315092
0.412932727492022,0.509304870621423
0.407927303251087,0.510086502809019
0.402886611324653,0.510851601558362
0.397810653549032,0.511600054549931
0.392699431760531,0.512331749464209
0.387552947795462,0.513046573981675
0.382371203490132,0.513744415782812
0.377154200680851,0.5144251625481
0.371901941203929,0.51508870195802
0.366614426895674,0.515734921693053
0.361291659592397,0.516363709433679
0.355933641130406,0.516974952860381
0.350540373346012,0.517568539653639
0.345111858075522,0.518144357493933
0.339648097155247,0.518702294061746
0.334149092421496,0.519242237037557
0.328614845710578,0.519764074101849
0.323045358858803,0.520267692935101
0.317440633702479,0.520752981217795
0.311800672077917,0.521219826630412
0.306125475821425,0.521668116853432
0.300415046769313,0.522097739567338
0.294669386757891,0.522508582452609
0.288888497623467,0.522900533189727
0.283072381202351,0.523273479459172
0.277221039330852,0.523627308941427
0.27133447384528,0.523961909316971
0.265412686581943,0.524277168266286
0.259455679377152,0.524572973469852
0.253463454067216,0.524849212608151
0.247436012488443,0.525105773361664
0.241373356477144,0.525342543410871
0.235275487869627,0.525559410436254
0.229142408502202,0.525756262118294
0.222974120211179,0.525932986137471
0.216770624832866,0.526089470174266
0.210531924203573,0.526225601909162
0.204258020159609,0.526341269022637
0.197948914537284,0.526436359195175
0.191604609172907,0.526510760107254
0.185225105902787,0.526564359439357
0.178810406563234,0.526597044871965
0.172360512990557,0.526608704085558
0.165875427021065,0.526599224760617
0.159355150491068,0.526568494577624
0.152799685236875,0.526516401217059
0.146209033094794,0.526442832359403
0.139583195901137,0.526347675685138
0.132922175492212,0.526230818874744
0.126225973704328,0.526092149608703
0.119494592373794,0.525931555567494
0.112728033336921,0.5257489244316
0.105926298430017,0.525544143881502
0.0990893894893917,0.525317101597679
0.0922173083513542,0.525067685260614
0.0853100568522143,0.524795782550787
0.0783676368282808,0.524501281148679
0.0713900501158636,0.524184068734771
0.0643772985512714,0.523844032989544
0.0573293839708143,0.52348106159348
0.0502463082108008,0.523095042227058
0.043128073107541,0.522685862570761
0.0359746804973437,0.522253410305069
0.0287861322165186,0.521797573110462
0.0215624301013747,0.521318238667423
0.0143035759882217,0.520815294656432
0.00700957171336841,0.52028862875797
-0.000319580886875157,0.519738128652518
-0.00768387997620029,0.519163682020557
-0.0150833237182971,0.518565176542568
-0.0225179102768568,0.517942499899031
-0.0299876378155694,0.517295539770429
-0.0374925044981264,0.516624183837241
-0.0450325084882175,0.51592831977995
-0.0526076479495344,0.515207835279035
-0.0602179210457668,0.514462618014978
-0.0678633259406061,0.51369255566826
-0.0755438607977424,0.512897535919362
-0.0832595237808669,0.512077446448764
-0.0910103130536696,0.511232174936949
-0.0987962267798419,0.510361609064396
-0.106617263123074,0.509465636511587
-0.114473420247057,0.508544144959002
-0.12236469631548,0.507597022087124
-0.130291089492036,0.506624155576431
-0.138252597940415,0.505625433107407
-0.146249219824306,0.504600742360532
-0.154280953307402,0.503549971016285
-0.162347796553392,0.50247300675515
-0.170449747725967,0.501369737257606
-0.178586804988818,0.500240050204135
-0.186758966505636,0.499083833275217
-0.194966230440111,0.497900974151334
-0.203208594955933,0.496691360512966
-0.211486058216795,0.495454880040595
-0.219798618386385,0.494191420414702
-0.228146273628396,0.492900869315767
-0.236529022106516,0.491583114424271
-0.244946861984439,0.490238043420696
-0.253399791425852,0.488865543985522
-0.261887808594449,0.487465503799231
-0.270410911653918,0.486037810542303
-0.278969098767952,0.484582351895219
-0.28756236810024,0.483099015538461
-0.296190717814473,0.481587689152509
-0.304854146074342,0.480048260417844
-0.313552651043538,0.478480617014948
-0.32228623088575,0.476884646624301
-0.331054883764671,0.475260236926384
-0.33985860784399,0.473607275601679
-0.348697401287398,0.471925650330666
-0.357571262258586,0.470215248793826
-0.366480188921244,0.46847595867164
