-0.874814929671364,-0.894192468868981
-0.872349826345982,-0.891389231340905
-0.869862275083908,-0.888610805245466
-0.867352400960977,-0.88585707100879
-0.864820329053024,-0.883127909056999
-0.862266184435883,-0.880423199816217
-0.859690092185387,-0.877742823712568
-0.857092177377372,-0.875086661172173
-0.854472565087673,-0.872454592621159
-0.851831380392123,-0.869846498485647
-0.849168748366557,-0.86726225919176
-0.846484794086808,-0.864701755165624
-0.843779642628713,-0.86216486683336
-0.841053419068105,-0.859651474621093
-0.838306248480819,-0.857161458954946
-0.835538255942688,-0.854694700261041
-0.832749566529548,-0.852251078965504
-0.829940305317233,-0.849830475494457
-0.827110597381576,-0.847432770274023
-0.824260567798413,-0.845057843730326
-0.821390341643578,-0.842705576289489
-0.818500043992906,-0.840375848377637
-0.81558979992223,-0.838068540420892
-0.812659734507386,-0.835783532845377
-0.809709972824207,-0.833520706077217
-0.806740639948529,-0.831279940542535
-0.803751860956184,-0.829061116667453
-0.800743760923009,-0.826864114878096
-0.797716464924837,-0.824688815600587
-0.794670098037503,-0.82253509926105
-0.79160478533684,-0.820402846285607
-0.788520651898684,-0.818291937100383
-0.785417822798869,-0.8162022521315
-0.78229642311323,-0.814133671805083
-0.775998412287813,-0.810059346784137
-0.772822051299706,-0.808053362941855
-0.769627620029112,-0.806068005446533
-0.766415243551865,-0.804103154724293
-0.7631850469438,-0.802158691201258
-0.759937155280751,-0.800234495303553
-0.756671693638553,-0.798330447457301
-0.753388787093039,-0.796446428088624
-0.750088560720045,-0.794582317623647
-0.746771139595405,-0.792737996488494
-0.743436648794953,-0.790913345109286
-0.740085213394524,-0.789108243912149
-0.736716958469952,-0.787322573323204
-0.733332009097071,-0.785556213768577
-0.729930490351716,-0.78380904567439
-0.726512527309722,-0.782080949466766
-0.723078245046922,-0.78037180557183
-0.719627768639151,-0.778681494415703
-0.716161223162244,-0.777009896424511
-0.712678733692034,-0.775356892024377
-0.709180425304357,-0.773722361641422
-0.705666423075047,-0.772106185701773
-0.702136852079938,-0.770508244631551
-0.698591837394865,-0.76892841885688
-0.695031504095661,-0.767366588803884
-0.691455977258162,-0.765822634898686
-0.687865381958201,-0.764296437567409
-0.684259843271614,-0.762787877236177
-0.680639486274235,-0.761296834331113
-0.677004436041897,-0.759823189278342
-0.673354817650436,-0.758366822503985
-0.669690756175686,-0.756927614434167
-0.666012376693481,-0.755505445495011
-0.662319804279655,-0.754100196112641
-0.658613164010044,-0.75271174671318
-0.654892580960482,-0.751339977722751
-0.651158180206802,-0.749984769567478
-0.647410086824839,-0.748646002673484
-0.639873322479403,-0.746017314373828
-0.636084901667599,-0.744727153820413
-0.63228328853085,-0.743452956232771
-0.62846860814499,-0.742194602037025
-0.624640985585854,-0.740951971659299
-0.620800545929276,-0.739724945525716
-0.616947414251091,-0.738513404062401
-0.613081715627132,-0.737317227695476
-0.609203575133235,-0.736136296851064
-0.605313117845234,-0.734970491955289
-0.601410468838963,-0.733819693434275
-0.597495753190257,-0.732683781714145
-0.59356909597495,-0.731562637221022
-0.589630622268876,-0.73045614038103
-0.58568045714787,-0.729364171620293
-0.581718725687767,-0.728286611364933
-0.5777455529644,-0.727223340041075
-0.573761064053604,-0.726174238074841
-0.569765384031213,-0.725139185892355
-0.561740950954987,-0.723110752583121
-0.557712448052819,-0.72211713230862
-0.553673254342395,-0.721137083522361
-0.549623494899549,-0.720170486650468
-0.545563294800114,-0.719217222119062
-0.541492779119926,-0.718277170354269
-0.537412072934818,-0.717350211782212
-0.533321301320626,-0.716436226829014
-0.529220589353183,-0.715535095920798
-0.525110062108324,-0.714646699483687
-0.520989844661884,-0.713770917943807
-0.516860062089697,-0.712907631727279
-0.512720839467596,-0.712056721260227
-0.508572301871418,-0.711218066968775
-0.504414574376995,-0.710391549279046
-0.500247782060163,-0.709577048617164
-0.496072049996756,-0.708774445409251
-0.491887503262608,-0.707983620081432
-0.487694266933554,-0.70720445305983
-0.479282225794065,-0.70568061563977
-0.475063671135298,-0.704935706093559
-0.470836927184963,-0.704201976558059
-0.466602119018894,-0.703479307459393
-0.462359371712924,-0.702767579223684
-0.458108810342889,-0.702066672277056
-0.453850559984624,-0.701376467045632
-0.449584745713962,-0.700696843955537
-0.445311492606737,-0.700027683432892
-0.441030925738785,-0.699368865903822
-0.436743170185939,-0.698720271794451
-0.428146593328905,-0.697453275539296
-0.423838022176386,-0.696834634245759
-0.419522762642311,-0.696225738076414
-0.410872678732831,-0.695036702814794
-0.402197342207141,-0.693885213163423
-0.393497753671917,-0.692770312531288
-0.389139177590315,-0.692226284162743
-0.384774913733833,-0.691691044327377
-0.380405087178305,-0.691164473451314
-0.376029822999565,-0.690646451960677
-0.371649246273448,-0.69013686028159
-0.367263482075788,-0.689635578840176
-0.36287265548242,-0.689142488062559
-0.358476891569178,-0.688657468374862
-0.354076315411896,-0.688180400203208
-0.349671052086409,-0.687711163973721
-0.345261226668551,-0.687249640112524
-0.340846964234157,-0.686795709045741
-0.336428389859061,-0.686349251199496
-0.332005628619097,-0.685910146999911
-0.3275788055901,-0.68547827687311
-0.323148045847905,-0.685053521245217
-0.318713474468345,-0.684635760542355
-0.314275216527255,-0.684224875190647
-0.30983339710047,-0.683820745616217
-0.305388141263824,-0.683423252245188
-0.300939574093151,-0.683032275503684
-0.296487820664286,-0.682647695817829
-0.292033006053063,-0.682269393613745
-0.287575255335317,-0.681897249317555
-0.283114693586881,-0.681531143355385
-0.278651445883591,-0.681170956153356
-0.274185637301281,-0.680816568137593
-0.269717392915785,-0.680467859734219
-0.265246837802937,-0.680124711369356
-0.256299295698526,-0.679454616459663
-0.251822558858631,-0.679127430767078
-0.242863778982634,-0.678488185037049
-0.238381986098201,-0.678175885851853
-0.233898758017257,-0.677868309688033
-0.229414219815637,-0.677565336971713
-0.220441713353707,-0.676972723586065
-0.215953995245066,-0.676682843768984
-0.211465467319086,-0.676397089103897
-0.206976254651602,-0.676115340016928
-0.202486482318448,-0.675837476934198
-0.193505758958469,-0.675292930485954
-0.189015058083313,-0.675026007972686
-0.184524297845825,-0.674762493168153
-0.180033603321839,-0.674502266498477
-0.17554309958719,-0.674245208389782
-0.16656316478924,-0.673740119559829
-0.162073983877608,-0.673491849690818
-0.15758549405865,-0.673246270087281
-0.153097820408201,-0.673003261175343
-0.148611088002096,-0.672762703381127
-0.144125421916168,-0.672524477130756
-0.139640947226252,-0.672288462850353
-0.135157789008183,-0.672054540966042
-0.130676072337795,-0.671822591903947
-0.121717463943399,-0.671364133950896
-0.11724082237106,-0.671137385912187
-0.112766122649739,-0.670912132400188
-0.108293489855272,-0.670688253841022
-0.103823049063492,-0.670465630660811
-0.0993549253502332,-0.67024414328568
-0.0948892437913309,-0.670023672141752
-0.0904261294626195,-0.66980409765515
-0.0859657074399328,-0.669585300251998
-0.0815081027991058,-0.669367160358419
-0.0770534406159724,-0.669149558400537
-0.0726018459663675,-0.668932374804476
-0.068153443926125,-0.668715489996357
-0.054828644219918,-0.668065432560899
-0.0503942633754702,-0.667848547165789
-0.0459637005195574,-0.66763136268924
-0.0415370807280135,-0.667413759557376
-0.0371145290766733,-0.667195618196319
-0.0326961706413708,-0.666976819032193
-0.0282821304979409,-0.666757242491122
-0.0238725337222176,-0.666536768999228
-0.0194675053900356,-0.666315278982636
-0.0150671705772289,-0.666092652867469
-0.0106716543596325,-0.665868771079851
-0.00628108181308029,-0.665643514045904
-0.00189557801340706,-0.665416762191752
0.00248473196355312,-0.665188395943518
0.00685972304196553,-0.664958295727327
0.0112292701459961,-0.664726341969301
0.01559324819981,-0.664492415095565
0.0199515321275732,-0.66425639553224
0.0243039968534509,-0.664018163705451
0.0286505173016092,-0.663777600041322
0.0329909683962132,-0.663534584965975
0.0416531622214215,-0.663040722286123
0.045974654800357,-0.662789635533865
0.0502895777224006,-0.662535619074884
0.0545978059117181,-0.662278553335302
0.058899214292475,-0.662018318741244
0.0631936777888371,-0.661754795718832
0.0717612698250386,-0.661217406093442
0.0760341482132092,-0.660943300342712
0.0802995814136474,-0.660665427868121
0.0845574443505184,-0.660383669095795
0.0888076119479881,-0.660097904451856
0.101510691945644,-0.659215379551598
0.105728827427164,-0.658912395682443
0.109938642190111,-0.658604808072292
0.114140011158649,-0.65829249714727
0.118332809256945,-0.657975343333499
0.126692192539474,-0.657326028744205
0.130858527572036,-0.656993628820929
0.135015791431019,-0.656655907713399
0.139163859040588,-0.656312745847737
0.143302605324908,-0.655964023650067
0.147431905208145,-0.655609621546512
0.151551633614464,-0.655249419963197
0.155661665468031,-0.654883299326244
0.159761875693012,-0.654511140061777
0.163852139213572,-0.654132822595919
0.172002325838092,-0.653357234764525
0.176061998790383,-0.652959725251236
0.180111224734916,-0.652555579241049
0.184149878595856,-0.652144677160089
0.192194969763619,-0.651302126490343
0.200196271686999,-0.650431116650984
0.204180188992458,-0.649984640608008
0.208152783759318,-0.649530691050999
0.212113930911745,-0.649069148406081
0.216063505373903,-0.648599893099377
0.223927435924078,-0.647637766205105
0.231743574803167,-0.64664335377717
0.235633409676469,-0.646133741553387
0.243375984911414,-0.64508910721681
0.247228475121388,-0.644553845956262
0.251068266958585,-0.644009795869038
0.262510201475164,-0.642323716908553
0.266297949062905,-0.641743315775863
0.270072372898697,-0.641153527947117
0.281314451136028,-0.639326648545763
0.285034329205676,-0.638698118194019
0.288740258144202,-0.638059603276835
0.292432112875772,-0.637410984220333
0.303421981070399,-0.635403306476159
0.307056288215799,-0.634713075123622
0.310675895775071,-0.634012141762386
0.31428067867238,-0.633300386818573
0.3285490621253,-0.630342759740025
0.332077845575279,-0.629575103275181
0.335591053908289,-0.628795907784501
0.339088562048495,-0.628005053694108
0.342570244920063,-0.627202421430126
0.346035977447159,-0.626387891418679
0.349485634553947,-0.62556134408589
0.352919091164595,-0.624722659857881
0.356336222203266,-0.623871719160778
0.363121007261345,-0.622132590063779
0.369838989121508,-0.62034300020388
0.373172616162785,-0.619428983553151
0.376489167177079,-0.618501992990068
0.379788517088558,-0.617561908940754
0.383070540821385,-0.616608611831331
0.386335113299727,-0.615641982087925
0.389582109447749,-0.614661900136657
0.392811404189617,-0.613668246403652
0.396022872449496,-0.612660901315034
0.399216389151552,-0.611639745296924
0.402391829219951,-0.610604658775447
0.405549067578858,-0.609555522176727
0.411808438864858,-0.607414620452049
0.414910321640283,-0.606322616178338
0.417993502402878,-0.605216083531877
0.421057856076809,-0.604094902938789
0.424103257586242,-0.602958954825199
0.427129581855343,-0.601808119617229
0.430136703808276,-0.600642277741002
0.433124498369208,-0.599461309622643
0.436092840462303,-0.598265095688275
0.439041605011729,-0.59705351636402
0.441970666941649,-0.595826452076003
0.44487990117623,-0.594583783250348
0.450638386256038,-0.592051153690613
0.453487386949595,-0.59076095380878
0.456316059644476,-0.589454671093803
0.459124279264845,-0.588132185971804
0.461911920734869,-0.586793378868906
0.464678858978712,-0.585438130211233
0.467424968920541,-0.584066320424909
0.470150125484522,-0.582677829936057
0.472854203594819,-0.5812725391708
0.475537078175598,-0.579850328555263
0.478198624151025,-0.578411078515567
0.480838716445266,-0.576954669477837
0.483457229982485,-0.575480981868196
0.48605403968685,-0.573989896112768
0.488629020482524,-0.572481292637675
0.491182047293675,-0.570955051869043
0.493712995044466,-0.569411054232993
0.496221738659065,-0.567849180155649
0.501172113176347,-0.564671324381575
0.50361349392736,-0.563055103537091
0.506032170238843,-0.561420527955807
0.508428017034961,-0.559767478063847
0.510800909239879,-0.558095834287333
0.513150721777763,-0.55640547705239
0.51547732957278,-0.554696286785141
0.517780607549093,-0.55296814391171
0.52006043063087,-0.551220928858218
0.522316673742275,-0.549454522050792
0.526757919750633,-0.545863654878624
0.533239812089524,-0.54033042661894
0.535351948786177,-0.53844635823649
0.537439629981618,-0.536542261082969
0.541541125565526,-0.532673502167204
0.543554689802323,-0.530708601257208
0.545543298234571,-0.528723193280634
0.547506825786434,-0.526717158663605
0.549445147382079,-0.524690377832245
0.55135813794567,-0.522642731212678
0.553245672401373,-0.520574099231026
0.555107625673355,-0.518484362313414
0.55694387268578,-0.516373400885964
0.560538747628623,-0.512087326206046
0.565735136200354,-0.505496041015474
0.567414519062917,-0.503255221477592
0.570693414341018,-0.498707278247032
0.576928220985751,-0.489342827098182
0.578409544491964,-0.486970503405025
0.579844904447766,-0.484626127889109
0.581234497126701,-0.482309538303748
0.582578518802315,-0.480020572402256
0.585130634237753,-0.475524862664135
0.586339120544667,-0.473317794334132
0.587502820942438,-0.471137700701254
0.58862193170461,-0.468984419518814
0.589696649104728,-0.466857788540125
0.590727169416335,-0.464757645518501
0.591713688912978,-0.462683828207256
0.5926564038682,-0.460636174359704
0.593555510555546,-0.458614521729159
0.594411205248561,-0.456618708068934
0.595223684220789,-0.454648571132343
0.595993143745776,-0.4527039486727
0.596719780097064,-0.450784678443318
0.5974037895482,-0.448890598197511
0.59971748382211,-0.441562932116313
0.600191302875652,-0.439792368088089
0.600623672670309,-0.438046020563324
0.601014789479625,-0.436323727295329
0.601364849577145,-0.43462532603742
0.601674049236415,-0.43295065454291
0.601942584730978,-0.431299550565113
0.602170652334379,-0.429671851857342
0.602358448320162,-0.428067396172912
0.602506168961874,-0.426486021265135
0.602614010533057,-0.424927564887327
0.602682169307257,-0.4233918647928
0.602710841558018,-0.421878758734869
0.602700223558885,-0.420388084466846
0.602650511583402,-0.418919679742047
0.602561901905114,-0.417473382313784
0.602434590797567,-0.416049029935371
0.602268774534304,-0.414646460360122
0.602064649388869,-0.413265511341352
0.601822411634809,-0.411906020632372
0.601224383394987,-0.409250765157044
0.600868985456315,-0.407954675897322
0.600046403309171,-0.405424763100332
0.59957961164779,-0.404190615069691
0.597959589594939,-0.400609457488951
0.597347020799569,-0.399455626310144
0.596014218683467,-0.397206822494573
0.593748798299079,-0.393978329426029
0.592923452009065,-0.392940106124385
0.592063329760684,-0.391920582938868
0.590239542482996,-0.389936987929463
0.589276270000779,-0.388972591612204
0.586183292463172,-0.386187060449964
0.583953970097749,-0.38441813203289
0.582789696533567,-0.383559608791619
0.581592609746462,-0.382718163199612
0.580362906009981,-0.381893633010181
0.579100781597667,-0.38108585597664
0.577806432783066,-0.380294669852304
0.57512184704118,-0.378761421344499
0.573732002660984,-0.378019034467658
0.572310718972679,-0.377292589513276
0.570858192249809,-0.376581924234667
0.567860194794554,-0.375207283718023
0.559832187199664,-0.372035469484402
0.558136782047885,-0.371445200731272
0.556411900323443,-0.370869251433738
0.552874492250749,-0.369759662218716
0.551062358449586,-0.369225697807855
0.549221533169939,-0.368705403865845
0.547352212685352,-0.368198618146002
0.54545459326937,-0.367705178401637
0.543528871195538,-0.367224922386066
0.541575242737399,-0.366757687852601
0.5395939041685,-0.366303312554556
0.537585051762384,-0.365861634245246
0.533485590532681,-0.365015719606084
0.522769184455255,-0.36311177304299
0.520547287199013,-0.362765829762849
0.518299642567456,-0.362431123251266
0.516026446834128,-0.362107491261554
0.513727896272574,-0.361794771547028
0.51140418715634,-0.361492801861002
0.509055515758969,-0.361201419956789
0.506682078354006,-0.360920463587702
0.501861690615483,-0.360389178468164
0.499415132829013,-0.36013852522434
0.494450270789376,-0.359666386135152
0.489391055284443,-0.359232055266001
0.484239056502571,-0.358834234643396
0.481628754066644,-0.358648610057834
0.476340524472532,-0.358303121104757
0.473662989861436,-0.35814293224387
0.470963437072373,-0.357990897464502
0.468242062378888,-0.357846854519968
0.465499062054525,-0.35771064116358
0.462734632372828,-0.357582095148653
0.459948969607343,-0.3574610542285
0.457142270031614,-0.357347356156435
0.451466545543603,-0.357141339569825
0.445709029097151,-0.356962747415332
0.442800089573372,-0.356883329883414
0.439871290880616,-0.356810281719466
0.433954901082355,-0.356682644508738
0.430967702523938,-0.356627730968585
0.427961429890724,-0.356578537809657
0.421892447494081,-0.356496663648734
0.415749524080782,-0.356435724052478
0.406399934341637,-0.356380727649836
0.403248134957648,-0.356371456660009
0.400079027960762,-0.356366445831231
0.396892809624526,-0.356365532916816
0.387233449315152,-0.356385759192887
0.383980748356956,-0.356399615469062
0.377427152799223,-0.356437025817521
0.374126650746775,-0.356460255396433
0.367479219462441,-0.35651495213019
0.354004143835268,-0.356652752994222
0.350598975470297,-0.356692174978835
0.347179639869143,-0.356733261177517
0.340299252052468,-0.356819777230345
0.336838592384036,-0.356864882591118
0.329877322894706,-0.356957976747952
0.3086880449022,-0.357248644939338
0.297931294838865,-0.357392352292061
0.294323003520336,-0.357438932099435
0.287073536578417,-0.357529134268765
0.283432753502117,-0.357572432137349
0.279781532386983,-0.357614311532963
0.276120069506559,-0.357654610208922
0.27244856113439,-0.357693165918539
0.268767203544022,-0.357729816415128
0.261375725802861,-0.357796752782477
0.253947206471435,-0.357854121337479
0.250219546893234,-0.357878812068635
0.2464832157381,-0.357900624106644
0.242738409279579,-0.357919395204823
0.238985323791214,-0.357934963116483
0.23522415554655,-0.357947165594938
0.231455100819133,-0.357955840393504
0.227678355882506,-0.357960825265493
0.220102580475801,-0.357959076242995
0.212498399514795,-0.357940620553955
0.197211101683304,-0.357848397282289
0.1933739771733,-0.357812871714206
0.189531125189533,-0.357772033752684
0.185682742005548,-0.357725721151036
0.181829023894888,-0.357673771662577
0.1779701671311,-0.357616023040619
0.174106367987726,-0.357552313038478
0.170237822738313,-0.357482479409465
0.166364727656404,-0.357406359906897
0.158605673089278,-0.357234614294344
0.154720106151151,-0.357138663690988
0.146937874333489,-0.356925795656684
0.143041602001045,-0.356808553732364
0.135239725856652,-0.356551642835956
0.131334514591792,-0.356411649370496
0.119604143309097,-0.355943569944855
0.115689761297308,-0.355770969637601
0.111773577282649,-0.355589812003183
0.107855787538664,-0.355399934794914
0.103936588338897,-0.355201175766109
0.100016175956894,-0.35499337267008
0.0960947466661979,-0.354776363260143
0.0882496224529086,-0.354314076511795
0.0843263200774043,-0.354068474680013
0.0804027858873861,-0.353813017547576
0.0764792161563991,-0.353547542867799
0.0686327551656963,-0.352985891879479
0.0529480427286257,-0.35173524048056
0.0451129316589719,-0.351043644122981
0.0333737376453472,-0.349919760713521
0.0294650507592125,-0.349521420224133
0.0255588798881887,-0.349110952980482
0.0138574261012305,-0.347805168257099
0.00996328202609729,-0.34734457152954
0.0060726353337985,-0.346871036814288
0.00218568229787841,-0.346384401864657
-0.00557635771064662,-0.345371182275512
-0.00945105213616228,-0.344844273142626
-0.0171868084619771,-0.343749044966796
-0.0210474778151871,-0.343180401430479
-0.0249030795972056,-0.34259752193298
-0.0287534175344884,-0.342000244227611
-0.0364375167806679,-0.340761845206521
-0.0440982053653685,-0.339463906393721
-0.0479192799758026,-0.338792203948713
-0.0517339131002333,-0.338105129815719
-0.074475449322242,-0.333650793755606
-0.0782394963853977,-0.332851574899492
-0.0819955317741931,-0.3320356863819
-0.0894827824345233,-0.330353251375543
-0.0932136051589689,-0.329486380393404
-0.0969356311148755,-0.328602190763044
-0.100648664028698,-0.327700520237777
-0.111731841782218,-0.324889000825664
-0.119072063392495,-0.322924275553803
-0.122727016309378,-0.321914312478677
-0.133628888224473,-0.318772074536287
-0.140842351069461,-0.316582002843653
-0.151576942218436,-0.313150780774415
-0.155131526675648,-0.311967427223181
-0.162204099060134,-0.309540327348365
-0.165721694440319,-0.308296256531409
-0.169226567581072,-0.307031622132507
-0.176197362050105,-0.304440013602118
-0.179662890831296,-0.303112714977259
-0.186553230119302,-0.300394317774781
-0.189977648079028,-0.299002894703789
-0.193387969884511,-0.297589772324047
-0.200165539938565,-0.294697780651567
-0.203532395640048,-0.293218586865457
-0.210221267024201,-0.290192992160064
-0.213542890159782,-0.28864626674741
-0.226672719276097,-0.28222939227439
-0.22991502933095,-0.280566869217103
-0.245875882582631,-0.271896314962168
-0.249016539913638,-0.270089480590677
-0.255244771067966,-0.266401790353701
-0.258331952344197,-0.264520609994843
-0.261400915721747,-0.262614323146824
-0.264451464927071,-0.260682767562957
-0.267483403686625,-0.258725780996556
-0.270496535726864,-0.256743201200935
-0.273490664774243,-0.254734865929408
-0.276465594555218,-0.252700612935288
-0.282357071223777,-0.248553704792526
-0.285273225564272,-0.24644072515051
-0.288169395544184,-0.244301178799158
-0.291045384889968,-0.242134903491781
-0.293900997328081,-0.239941736981694
-0.296736036584976,-0.237721517022211
-0.299550306387111,-0.235474081366645
-0.307866536329501,-0.22856685775659
-0.310595765577144,-0.226208936849832
-0.318652163290989,-0.218966363565728
-0.321293211607427,-0.216495361460797
-0.329080355962585,-0.208909650661705
-0.336659377682073,-0.201061475955755
-0.341593818161319,-0.195681382914384
-0.353504627734555,-0.181703767923343
-0.358094713169461,-0.17589836179147
-0.360351633993937,-0.172949075424048
-0.364788250489216,-0.166956524852801
-0.371247168244776,-0.157730320704631
-0.373347087205822,-0.154590969457482
-0.375420152232223,-0.151419372866977
-0.38343994752049,-0.138407288137671
-0.389163210269235,-0.128301698397824
-0.391014377970872,-0.124866298179764
-0.392836925275964,-0.121397192398172
-0.394630655910964,-0.117894218806361
-0.396395373602329,-0.114357215157645
-0.398130882076514,-0.110786019205338
-0.401513486279165,-0.103540401403205
-0.403160189460542,-0.0998656550600064
-0.40477689833056,-0.0961560674264717
-0.406363416615675,-0.0924114762559148
-0.412403658436209,-0.077079831269737
-0.419251119726197,-0.0571082258516595
-0.419251119726197,-0.0571082258516595
-0.421774058199018,-0.0489565691884465
-0.42534565732197,-0.0368012534584856
-0.426479640724162,-0.0327693046892802
-0.429712639625783,-0.0207349508162106
-0.431727677766607,-0.0127647369383346
-0.435422841201582,0.00304403589603387
-0.437103763765929,0.0108802828385821
-0.440134283763832,0.0264107177395457
-0.442725694488002,0.0417440339485181
-0.443305310065429,0.0455454794486012
-0.444881185019224,0.0568709834097222
-0.445796456800225,0.0643541805924809
-0.446603944438283,0.0717823180673811
-0.446967393777176,0.0754753781622055
-0.447613952641629,0.0828187585622452
-0.448153723950885,0.0901041892369961
-0.448587106340041,0.0973305141794861
-0.448914498444196,0.104496577382743
-0.449038572712866,0.10805664957998
-0.449271887250534,0.122140503985986
-0.449231452608583,0.129086547547022
-0.448975556918387,0.139382507066507
-0.448675378649596,0.146162723687951
-0.447765821229167,0.159516939559753
-0.447157239347727,0.166088626796166
-0.446053233722747,0.175811130506818
-0.445634462417885,0.179015379835158
-0.445190389447066,0.182201095707773
-0.443162077491977,0.194755734623556
-0.439369030576501,0.213007124177333
-0.437137661595639,0.221863109684284
-0.435526978953414,0.227664558517408
-0.43381827872815,0.233382625471856
-0.432011959554946,0.239016154540656
-0.431072317436334,0.241800856115759
-0.42601127469867,0.255397954363448
-0.424926848527926,0.258051080581319
-0.421530031698248,0.265875271355914
-0.416667880148417,0.275986692638458
-0.41409496025522,0.280902302371078
-0.411428009129964,0.285722970155302
-0.410059396428783,0.288097339564586
-0.407252145896251,0.292773426913142
-0.404351860719405,0.29735168229587
-0.402866954712834,0.29960376174787
-0.396696737251258,0.30836171960644
-0.395096783673977,0.310487896579368
-0.390159962103806,0.316712165504092
-0.388468867398929,0.318735019478074
-0.38501874569327,0.322702006919423
-0.383259818351263,0.324645851385047
-0.381478379788986,0.32656307034614
-0.379674479835828,0.328453519301833
-0.375999495074414,0.332153529193528
-0.368382181354045,0.339225950873759
-0.356293829806106,0.348998248031624
-0.352089338905883,0.352028033626362
-0.349954497615969,0.353499592396456
-0.34561987250347,0.356355319377736
-0.338956325943858,0.360418265939315
-0.336692247370639,0.361713165080264
-0.334406803653058,0.362978115196638
-0.332100044620502,0.364212971787567
-0.320248263761655,0.369930794330017
-0.30787107443653,0.374874603605589
-0.294974705318533,0.379026337005345
-0.289672182552174,0.380461203095616
-0.284287986241799,0.381765291021354
-0.281565385081073,0.382367931920345
-0.276059425895483,0.38347368508621
-0.267649342397558,0.384881325741649
-0.259059081141481,0.385984311464138
-0.256155853758117,0.386283597938024
-0.250289987520707,0.386778740730148
-0.247327448325435,0.386974308046644
-0.244345238184967,0.387135013308935
-0.235281080386268,0.387406511761854
-0.207042520671112,0.386291637911115
-0.200556751429816,0.385643450801316
-0.193995288170976,0.384847145422401
-0.187358529529689,0.383901565767399
-0.17726308473995,0.382200778251981
-0.163542678442652,0.379399812200045
-0.153059257815,0.376894093107056
-0.138826433680435,0.373005723866283
-0.0673361509186032,0.345718820392394
-0.0514884327303025,0.338058143757037
-0.0353706265498708,0.329710201473505
0.0145714291363613,0.300450300176086
0.0274221792010787,0.292126591029066
0.0535525449481117,0.274241381483111
0.0623882764958661,0.267908653312032
0.0802457622289012,0.254679773444397
0.0847485977068858,0.251254330654598
0.0938000767108145,0.244260566181428
0.107491067895798,0.233410554724677
0.125956005642481,0.218266989551342
0.130609458389196,0.214359262913329
0.144658343303249,0.202341366158117
0.158838971811034,0.189878359622841
0.168365250643134,0.181320478709892
0.173149998519094,0.176966341783973
0.211940007085527,0.140309456994913
0.216852013910366,0.135497205210494
0.221777911471477,0.130633329270773
0.251622211854173,0.100357874322305
0.256643949346346,0.095128583271068
0.276865322032909,0.0736821724346657
0.302440751802274,0.0456725164030233
0.307595167983763,0.0399089211898276
0.338792790997471,0.00418356378937648
0.344037117412938,-0.00196264213904554
0.365140374796839,-0.0271012776323482
0.381098671920057,-0.0465408026453222
0.407941093317853,-0.080066901342375
0.413345918061792,-0.0869424551409438
0.418762740025288,-0.0938751241279318
0.468045790727876,-0.158863171133508
0.512636003320551,-0.220609142079427
0.518260254410836,-0.228594594106997
0.529541858145614,-0.244745224777944
0.557936634510696,-0.286176950088187
0.598137395729436,-0.346742044412248
0.603922171652032,-0.355640579606003
0.615522582729004,-0.373623879148538
0.621338118224605,-0.382708932499061
0.627163807252435,-0.39185644757025
0.644701297235414,-0.419675208116525
0.656442811346437,-0.438536006266682
0.733705658262768,-0.567357404079009
0.739714796819338,-0.577719147008434
0.782032370715143,-0.652089288229902
