-0.803102952257415,-0.804653808233612
-0.761083151718859,-0.702339965117606
0.735291291276791,-0.973194785037057
0.350741596070049,0.215420293909851
-0.0338080991366931,1.40403537285676
0.294723345778225,0.269811466975366
-0.632614257591582,0.075778037176373
-1.55995186096139,-0.11825539262262
0.423401190467034,-0.147140201874936
0.441585432690784,0.698494978631337
