-0.836631577030597,0.389509448105171
-0.493870857857092,-0.528614136732422
0.175225060272338,-0.929475837483557
-0.255044035856042,0.346898739949716
-0.685313131984421,1.62327331738299
-0.142019198870496,-0.453179715218415
-0.769541147797142,-0.00246922254716586
-1.39706309672379,0.448241270124083
0.624796975317351,0.572814615676882
0.960691200771071,-0.280849059159785
