-0.608421983726071,-0.58077672833242
-0.602618339356259,-0.579015675959821
-0.513907818202009,-0.43676566319097
-0.483304460509042,-0.456475304455679
-0.612116141138753,-0.562237905295824
-0.5795874872954,-0.571627923815226
-0.57779624991703,-0.557785441631341
-0.562492079150071,-0.574150834541491
-0.528231808317087,-0.55917452086723
-0.556850381066329,-0.563700495935953
-0.543242937610001,-0.575470722518781
-0.657785981785272,-0.659614523089044
-0.568875151356457,-0.535184418348493
-0.50434415816574,-0.580543452269091
-0.523459176916958,-0.527314974985076
-0.523294868547538,-0.550826606941304
-0.392093484954958,-0.411781220656234
-0.528268106824674,-0.565203726785699
-0.506764416525938,-0.543959604588943
-0.628832770779819,-0.631522789721941
-0.495835627284308,-0.539226138918111
-0.486052192720902,-0.537440884045706
-0.521300451032651,-0.535901133215543
-0.607506978245831,-0.644051532323714
-0.486327341445132,-0.51477846676085
-0.470258192784314,-0.530332661479774
-0.474919162025699,-0.535027604353232
-0.434318861496212,-0.519413106510804
-0.556402705071523,-0.630730729001737
-0.447561011641258,-0.516434537747899
-0.432993831808418,-0.517313264706677
-0.46233731635742,-0.516483211688639
-0.451035118862942,-0.506984122644675
-0.427662950149157,-0.493079802243392
-0.421380798946724,-0.502757150446589
-0.41761048085069,-0.502123693797407
-0.380759259729921,-0.509888856621072
-0.405891458937231,-0.494216741558402
-0.392440794573658,-0.502088337961346
-0.380954408916132,-0.475808207323957
-0.416142464620728,-0.451727197434997
-0.38549400715576,-0.482451548379561
-0.373726648085006,-0.507457243249318
-0.340464692301061,-0.477701708605926
-0.376100669891918,-0.500434745689921
-0.365387723154403,-0.470266589610506
-0.356628427901861,-0.47866657918001
-0.351317391403151,-0.466510746398872
-0.31057225257327,-0.446077895820258
-0.346015500573422,-0.407358932125618
-0.340663886454537,-0.454465393078025
-0.33378012440191,-0.425510281554453
-0.330901487034478,-0.447972924950025
-0.326047512691288,-0.444690668699288
-0.321211682624945,-0.441384675227173
-0.201898450386946,-0.347812537928924
-0.299346154266153,-0.431735120419992
-0.316100950489937,-0.417732164885763
-0.286714554416324,-0.432775738648003
-0.297304539793495,-0.42450593575261
-0.277242608602464,-0.442102734196478
-0.291755539923556,-0.430516201085011
-0.292890812724761,-0.420140669593791
-0.265940099378714,-0.402975479193246
-0.279846725934218,-0.387782681362262
-0.269213794092827,-0.403511629140468
-0.264595346237488,-0.399937026843869
-0.259169789014067,-0.405845488278339
-0.255412704325985,-0.392724937679901
-0.238604498405221,-0.399603676748859
-0.225052040944899,-0.379162235940836
-0.333791531609015,-0.475278109074322
-0.223165415363358,-0.358513935891018
-0.255556119429889,-0.37390122545375
-0.356293807694559,-0.542616417316535
-0.205196590944872,-0.348511416762119
-0.219404864220642,-0.363068652756091
-0.214985117205361,-0.359274160136484
-0.210583407048107,-0.355460926551518
-0.142171684581555,-0.216083597062201
-0.201834079404546,-0.347779069194844
-0.19748645296667,-0.343910861777805
-0.186045845710157,-0.319249699513226
-0.287836843025043,-0.451092867651355
-0.198753587000266,-0.337179735904436
-0.170473355128416,-0.33624620725306
-0.303831300201983,-0.398650236179615
-0.156116962646576,-0.292992392891639
-0.069213609565243,-0.206864724688125
-0.140375659664198,-0.260294738694498
-0.159168130901787,-0.308316104783507
-0.155000492602534,-0.304278182786273
-0.153723475304633,-0.29996627004676
-0.146719134119394,-0.296155067521095
-0.161762312456973,-0.300875410660736
-0.138509636618178,-0.287970311743863
-0.122382881417735,-0.277961548828379
-0.162134374370968,-0.271071390167248
-0.126330051381241,-0.275581245221262
-0.13795251214047,-0.273240775402013
-0.275291629334551,-0.380811400883538
-0.0828168069483395,-0.266526025193982
-0.110341783643511,-0.258862291973222
-0.118183824620177,-0.22509080614231
-0.0747009790974659,-0.257521278395193
-0.0827919660262894,-0.29280401043455
-0.0946403153205621,-0.241926754213083
-0.0907597270800032,-0.237660589773039
-0.0725224220280289,-0.208686788177214
-0.0830522538766106,-0.229090982134279
-0.0792253599622083,-0.224787955290231
-0.0720490047163169,-0.235314118613429
-0.0798395772990623,-0.232815508362742
0.0232110172460465,-0.0760819463455285
-0.0829269137230036,-0.189950887821296
-0.0702233519715913,-0.193421494029027
-0.0566395121235121,-0.198727787052642
-0.0704183470168022,-0.175209904303443
0.0742433515960314,-0.0737110148372856
-0.0391988184424182,-0.209972699593373
-0.0419395859570834,-0.181139124876563
-0.0383092266032093,-0.176716965539228
-0.0412953486135292,-0.189279012373732
-0.0311020231902515,-0.167844111553921
-0.0363404385549384,-0.160550716529193
-0.0239661436651202,-0.158934598336656
-0.0258369711406191,-0.16545515620637
-0.00864048239835533,-0.141073388161725
0.0238959212872963,-0.133404314185022
-0.0115812006457513,-0.149611500325289
-0.0334486684954838,-0.165376958318464
-0.00298609035395234,-0.132002757479848
0.0112619914173136,-0.104211518782733
-0.000164383464555352,-0.112555825884187
0.110217847780572,-0.00175432389327944
0.0106446488627033,-0.11389543342453
0.0132336733515254,-0.104227662080411
0.00672308843505228,-0.0746583180628839
0.0129084561366212,-0.117881460468051
0.031840811769145,-0.0972256005173117
0.00121794254948396,-0.130675511172978
0.0305575293269668,-0.0865386104888444
-0.0527605315609223,-0.164942529762762
0.0370531051439557,-0.0773741080242527
0.0402742786301477,-0.07278425081133
0.00935217602821051,-0.0677933995227144
-0.0234753535517705,-0.151837876562173
0.0498313951089239,-0.0589867533780633
-0.0390454119500868,-0.164908626165682
-0.067675304621046,-0.164683805671174
0.0592289996094677,-0.0451517389770661
0.0455748891093188,0.00819878381279141
-0.0381531837663464,-0.112592073521948
0.18608451995996,0.105357953548908
0.0730305928654609,-0.00147326335334561
0.0617435156310877,-0.0145391929934664
0.0778795436059599,-0.0276439948279334
0.0878661268236676,-0.0196247919762758
0.0657056666621371,0.00209819720615201
0.0858069634409786,-0.0191874238694394
0.0894038685958864,0.00116376342847832
0.0982667000581217,0.0176658378653122
0.0585734876333184,0.0102374622463933
0.112782799002058,0.00489097475225942
0.100978935244139,0.0197425652269441
-0.0341739453261909,-0.0615602589794436
0.078501931762666,0.0121012329474478
0.109474921184617,0.0336840053380056
0.100791980915544,0.0316381095914933
0.115050734164693,0.04297867073404
0.107555734950226,0.057790823646795
0.120556046801227,0.052271690732551
0.0866622211214074,0.0716033324556257
0.125990894900491,0.061561399914865
0.00917469901028076,-0.0336415874737053
0.13135531426876,0.0708461328623093
0.134011124368231,0.0754861128046199
0.0904720590887013,-0.0133567767740476
0.139269967776768,0.0847602587397474
0.141873010037403,0.089394008377896
0.144986528991108,0.106280090708129
0.11200334030224,0.102441778439403
0.139024502018155,0.114994597944412
0.172809522526689,0.12141944140128
0.162094141105678,0.127189100454591
0.179123741814238,0.123247138044523
0.212980835598205,0.114795467757038
0.184607647107739,0.141644664022993
0.129935644188753,0.116381567966027
0.230710333572791,0.228871077113622
0.154856467181696,0.138106745566203
0.155024922065474,0.152659420928774
0.174114378759072,0.149330102956475
0.155643195667268,0.145789987273197
0.178811511020757,0.158484498916336
0.173484704815252,0.175793338757931
0.160945304833821,0.181608192145924
0.18494074609358,0.156947561059876
0.199337065562283,0.17405913646085
0.210048998192364,0.186604360624416
0.196835964622923,0.153970566761038
0.194700043389948,0.190337058309676
0.186017989902753,0.186408989508879
0.103310989140556,0.102344885832149
0.185550558255414,0.206949240029483
0.204401463549362,0.179222362574048
0.219877510297922,0.245848831762868
0.197253122474004,0.213989190556333
0.326550711116442,0.33306219542774
0.203941667630231,0.247106035964271
0.213869677296618,0.230771098712942
0.309621754110449,0.342295749675449
0.196171560351385,0.221318682218689
0.232100176498336,0.225849389549404
0.221935839590707,0.248518192232336
0.223908809785772,0.252931037731977
0.225864360781022,0.257333895724867
0.227802497052242,0.261726558033672
0.22018577365573,0.247748261621863
0.32905489593338,0.352767678356547
0.351980719155876,0.3799112363434
0.250438172365577,0.301636192471959
0.144264444441934,0.181311014176914
0.249080577802965,0.245990269969116
0.240882214643801,0.292172228144851
0.242407581179386,0.304963208761304
0.244462799416241,0.300767363768946
0.246227034615286,0.30504661948352
0.177522339913284,0.210766391620032
0.183871895526069,0.22985466854318
0.254915898156959,0.297998471562459
0.253110365265259,0.322036704220869
0.24135522890311,0.327118556162642
0.259678420569775,0.309687851645719
0.258090697921179,0.334640153781528
0.276499946011502,0.358076590938125
0.258357961101372,0.34659470436469
0.27874199465605,0.365754862141419
0.238617790623565,0.327982064712067
0.246468601058401,0.355882494334421
0.260398236014637,0.377057217393373
0.292595580091169,0.360647065763216
0.274777030282907,0.355747488307173
0.278046583717166,0.358541145871589
0.285388253386599,0.396518723371758
0.266390338562602,0.383903238169278
0.178473384969476,0.286878732580736
0.283515802500311,0.35288949285642
0.279271438219331,0.391706214765275
0.316665660106303,0.367114725808937
0.271758659569641,0.414911477064479
0.302619266694049,0.397921005344236
0.27328563230404,0.374500161298063
0.28684921922652,0.409398429570178
0.287311892285396,0.415184964890828
0.260510040536036,0.398688338614481
0.293628143998016,0.415795010465485
0.291099256198203,0.426682713640052
0.291376005853666,0.400129156347248
0.293538001929367,0.434254571661168
0.29031061067967,0.463073521893071
0.295907858599283,0.441749840444471
0.283041191881014,0.416686554115572
0.263454432903466,0.447735510034555
0.188808308505345,0.3451499917345
0.300441047980467,0.456503948622947
0.312946012142614,0.462190373205942
0.290201360968529,0.46152994518391
0.303660372539738,0.467356096456165
0.200776858266282,0.372515072443265
0.277066448510117,0.476454984274353
0.306725059249719,0.47801905614024
0.342619321552723,0.492313861280166
0.31718022617538,0.494240821721853
0.29196091741883,0.476438232652006
0.310570969300725,0.491932328100303
0.311489558992103,0.495354971166655
0.296561658765701,0.525071721986508
0.313275304319699,0.502131990149627
0.215441869827277,0.41163100528716
0.314992500745643,0.508816598417391
0.303551901703708,0.511168508659703
0.343121278445417,0.545212367026443
0.372719177311423,0.512780449500292
0.341398681453581,0.514930964464882
0.318985825344446,0.52511289289773
0.319733154676299,0.528299304742712
0.320463382589011,0.53146094849022
0.321176513558368,0.534597615962919
0.469944888226472,0.644476901942237
0.330566345422349,0.54992311490004
0.296674456031703,0.510881432156381
0.323858157517925,0.546890359558941
0.303498228581182,0.536576707821869
0.295745807603756,0.574997514422426
0.343624110628576,0.558949834952555
0.320824756515565,0.583430105957455
0.357746264945018,0.555638385032881
0.336271315048961,0.533017401322913
0.314873522312108,0.543264120132122
0.328402152794355,0.570213699650582
0.328893430796448,0.573006731413358
0.329367674516164,0.575771872418648
0.329824888429286,0.578508914489117
0.45952838034056,0.7091269523173
0.303767095700227,0.582033598484488
0.454294926356071,0.733373184181874
0.209500325520465,0.477570993477395
0.331855667548445,0.591765354612451
0.344842944348168,0.595305712052367
0.332548927202401,0.596863951911343
0.322167578259724,0.627860754366681
0.294985567971348,0.619959768399068
0.31344237941356,0.602129405122368
0.329036863458717,0.597407508690205
0.333984759657914,0.609085925869081
0.334220993381683,0.611438737649471
0.318658481797986,0.598723336538625
0.334642563868158,0.616051112780421
0.353289343572321,0.635420083044515
0.323200982981053,0.628004642306281
0.312656265210697,0.635573524029431
0.33528224231882,0.624897040357641
0.325037758596866,0.57966999823844
0.335500421895553,0.629127261966565
0.335584112437015,0.631193458605437
0.335650876114919,0.633226768230802
0.339635559628898,0.613244132492419
0.32806846011531,0.646394695849186
0.335749650725126,0.63912729325252
0.317551753006131,0.676771032208707
0.22074730329409,0.531206758478251
0.335696244691544,0.644724340768655
0.333209422412087,0.656066429108704
0.365082755335157,0.63037249816966
0.336110372902206,0.615030693062313
0.232905181875433,0.559228779264628
0.325506649136228,0.650649918681229
0.308269922501439,0.686712708592196
0.313218161359251,0.666093665086868
0.243698447428839,0.567231146732823
0.237530256754568,0.552185190209016
0.257803519013097,0.58415902521826
0.358122033095116,0.646983080708813
0.335213812619148,0.590421002988607
0.31195063722061,0.678824775620756
0.30880490623394,0.651704244752191
0.353901610374596,0.659608959008786
0.25695929553874,0.541515538106134
0.33252492066833,0.67043726601802
0.354984113007267,0.662449625067924
0.324421032862975,0.696358047943946
0.331460065300545,0.673867487803044
0.32368519416897,0.654862785817892
0.315777268441686,0.662128155136701
0.410615758489784,0.771279784123228
0.330359177759459,0.670616493823112
0.329349245683648,0.678811592383076
0.358836976988672,0.653582361118963
0.342546806822638,0.687275550884754
0.327881314445658,0.681305136291387
0.386733838006438,0.783156311586785
0.358589394364103,0.689126560196988
0.238702177678577,0.561079138622431
0.428319121790627,0.776820685323185
0.336790323440094,0.652817331311125
0.319212026427824,0.673640118745284
0.453325772859422,0.755644362958576
0.323229270079578,0.686171698686878
0.320587377164375,0.709162544610668
0.321898825423984,0.686974116443694
0.321208512678388,0.687312046920456
0.207905255464546,0.609240174584471
0.299409773221585,0.676340087755806
0.319933591546214,0.674733672543188
0.322829133342579,0.707691616945637
0.306858471670484,0.70733564034564
0.289047175507552,0.705412899096194
0.315908386733503,0.688476933542542
0.318585604573335,0.670918460079517
0.441843364000295,0.835003851603298
0.313006533060559,0.682458643393705
0.315469641745045,0.65135173306349
0.317211571970201,0.641813942607094
0.310036236167879,0.678775550746613
0.309790468085735,0.68748971996608
0.328350094101675,0.7029840604283
0.339836928734897,0.627813808289404
0.266291000119025,0.691780222064983
0.333784610373762,0.691585456172935
0.305583595187011,0.694264950825067
0.299588848079837,0.668966308786093
0.323852213838412,0.689019145209224
0.301799151584883,0.68363465311876
0.324294738371377,0.697769593924945
0.263093664964761,0.690833302137076
0.326588535460282,0.661781303954209
0.29530617209347,0.689796363553667
0.295945599199921,0.691371631422882
0.295107393457404,0.67877337291508
0.40142375942836,0.76609211677606
0.279736808592108,0.688518257824871
0.305955176329962,0.67771971729669
0.291239790813103,0.659977897390214
0.365194410982019,0.801827393101069
0.316287157909285,0.653024640760151
0.272743998295806,0.613297876218258
0.267357562973618,0.667188831757364
0.285537922246811,0.669670627429303
0.284308448317979,0.668329127728966
0.182782417753973,0.568864629900071
0.270716168113663,0.649601423804434
0.308851257231241,0.689500168381338
0.279321940597591,0.662521300003441
0.259468862483577,0.679927846298449
0.383922193308387,0.776584321507574
0.273409227098511,0.674316182644139
0.274231597361979,0.656018443842272
0.25826817825875,0.620080001884171
0.287165605909159,0.676306282721961
0.298490976723984,0.640365843131118
0.269045343534979,0.648836423036179
0.274889811576725,0.628513238722028
0.258082311383889,0.635639712298463
0.301800732365056,0.65655293926352
0.247736773463579,0.63084819699474
0.261080338789603,0.639030575977268
0.149577686021194,0.527925730106579
0.251122100910832,0.635887788717276
0.280190551111077,0.627987832577133
0.265784062540277,0.623524868814234
0.260978181095728,0.629326049125034
0.25435330609736,0.625713436097949
0.274013239383446,0.612255057087145
0.260103109094671,0.643260541119599
0.267939788384379,0.60242321517457
0.238969518141375,0.572782779230764
0.214115333097518,0.643777120126915
0.24501767669506,0.588577530660321
0.282258502024559,0.631208256419385
0.23252545851051,0.600824285372417
0.208532531562833,0.609860330256322
0.240558188650544,0.600617243363246
0.247493178312548,0.593230294878905
0.213148630023098,0.556116589312143
0.236357493888467,0.59237021293649
0.222213772582734,0.579466566279358
0.21194554145014,0.568847979635244
0.241023940131985,0.577542691956404
0.215211994278307,0.592792447866997
0.22369903978719,0.553168102126618
0.358070540819991,0.670080818114593
0.226473197344783,0.571895950922744
0.225952438047739,0.552700796893741
0.180254160447459,0.571632923342933
0.222209686677327,0.562609725571596
0.211483588928117,0.548356801848149
0.219360694911953,0.556253352228441
0.217934575113949,0.553026242239336
0.216507537808314,0.549766847200852
0.216027688621079,0.524450181008177
0.215622878793483,0.502233063936307
0.191074207927885,0.539549243028606
0.219448560471811,0.553183998249343
0.102000426793844,0.421348296897107
0.239920058851929,0.513431175701633
0.206502987917731,0.526067921774203
0.205073068320703,0.522559169722974
0.203643345658459,0.519020363467938
0.196779820175022,0.519238468291162
0.209145819226797,0.496429654675825
0.203832684907623,0.521388270848468
0.163938214285123,0.487163622254965
0.219183621510888,0.557093749340665
0.289545634267609,0.612725209334555
0.189401783802036,0.499019931935237
0.192227513244875,0.489657706698149
0.190805135207747,0.485859566836688
0.227335145917561,0.509078738063721
0.187964808572822,0.478180808525972
0.206035851601147,0.489119600328097
0.208526137005175,0.449319867366233
0.12008002087995,0.317382671497356
0.182305340214471,0.4625003179618
0.180895608971899,0.458514355001111
0.0590688117804661,0.331961621637092
0.165083935480323,0.442518720995402
0.17668072250798,0.446402415299575
0.152397113235079,0.486637999720371
0.15549840243469,0.442665685399537
0.170026170294481,0.404415204100796
0.153501398388543,0.421093260012256
0.173768580689362,0.400269051157429
0.196186120254952,0.411307181028532
0.16441451933865,0.417037333006213
0.167811812547273,0.402005828697845
0.164193803993156,0.408738140804554
0.162823657156296,0.404435586841626
0.161457422062265,0.40011041482679
0.160095222538,0.395762872631775
0.167054583488504,0.349567624221225
0.182146363314028,0.394061747735658
0.181819087750603,0.351920985844819
0.154689256677282,0.378153959484532
0.13056580167322,0.367976326306444
0.233480355226163,0.446563703157433
0.150683223284083,0.364724533446996
0.138851813203286,0.381906178891124
0.148037458903278,0.355669233604062
0.12767093048919,0.349045967620774
0.14723810644819,0.300037656921802
0.14089820545065,0.375282590998015
0.126824958673636,0.342290263732824
0.0277143494187937,0.190658894753471
0.109933632237882,0.333562321958326
0.254899550923692,0.431253720367393
0.154258686530177,0.33660005330875
0.131701991840508,0.312556534796053
0.11093085267516,0.282736644919438
0.0864223921507899,0.280505626792101
0.132640546645763,0.299735955749063
0.148944591329202,0.29748908581358
0.117584347631295,0.263131626714466
0.128935054915758,0.28535527239587
0.239691041672156,0.400063863029512
0.126500176933215,0.275686870106215
0.0910026391411529,0.262052896892367
0.119765711585211,0.269484443940645
0.122903511254289,0.261067304025042
0.0996172377197903,0.271092258798336
0.109589955280385,0.244109692624812
0.020656236703014,0.129808169000339
0.11133171020953,0.274506070299178
0.174649463440303,0.340591494266708
0.0125309238527468,0.126702339482946
0.132375785668712,0.225959117690487
0.206709915983106,0.328652138076182
0.0854152492143563,0.260271674732107
0.0443305120136393,0.116998155546813
0.000699896377596418,0.101831843404865
0.118410957322913,0.171619134063891
0.0876276513147148,0.234094255171796
0.105273129917557,0.203246259498548
0.0949261363596498,0.183697473078312
0.208910629343155,0.272725866522293
0.117323215581007,0.203696221812821
0.0834838709736725,0.207039940006831
0.125580479841573,0.135022791846996
0.0989189890326828,0.176921569384144
0.0904574390234585,0.152652125424768
0.101241073014968,0.142566160239905
0.0978932657050643,0.145012780595838
0.0930976047537358,0.178161820269262
0.0814524253256644,0.141223482265931
-0.017441818196512,0.0309029063090453
0.134800304207353,0.0993709720228399
0.0931461363023922,0.119033121751281
0.0561011366858275,0.138735809685394
0.0940982824301456,0.120869801387487
0.090431478429173,0.10334742003264
0.0630037384056006,0.101603732879154
0.0886794451994353,0.0928536224107508
0.196903224775663,0.182812030293172
0.0869747586363498,0.082332807744106
0.0692865779948568,0.0974887346045874
0.10427480568925,0.0918473223220508
-0.0112650972376452,-0.0178860242361051
0.119657792195591,0.0569121662495061
0.0944416939808435,0.0453261968346478
0.04874421408443,0.0679075132350793
0.100692604917264,0.0536165312530267
0.0806492913601147,0.0400190381067678
0.0670388317179791,0.0296857773904308
0.0791961973624784,0.0293928828239432
0.0784895723350155,0.0240740115460222
0.170839159619971,0.143104086080707
0.086146991653602,-0.00336566297915359
0.0837489497429489,-0.0136757010087305
0.0757987746626801,0.00276568586464793
0.0866634943898624,-0.00256954169284257
0.0774891371700062,0.0575088322756455
0.0567164857247405,-0.0286730995207782
0.0716372250192642,-0.00595952872456951
0.0727498950767895,-0.0239250221391246
0.0790809186191451,0.0171105411394055
0.105566962853979,-0.0592347860946971
0.054689726170354,-0.045470779209772
0.0937603995384085,-0.0414009421303362
0.172689728755857,0.0435911836123422
0.0695731100246203,-0.0559940808978829
0.0690964868984123,-0.0613397184273897
0.0686352914199795,-0.0666849219379158
0.0480909318510433,-0.0369806664296186
0.0677596787141785,-0.0773730354151052
0.0726415249525789,-0.114502668950938
-7.76778485074431e-05,-0.199980288348325
0.0665650626871622,-0.0933957536952837
0.0661990334610124,-0.0987331477855949
0.0599863998374194,-0.091394749220411
0.0655159821446056,-0.109401180731215
0.0524348282492804,-0.108667156223109
0.0673095634004792,-0.102385934692768
0.17805694312869,-0.0592988946723519
-0.0510815616863936,-0.222857708287173
0.057514323249911,-0.116481905771278
0.0874063675478091,-0.171257735300424
0.167039035351682,-0.0643758236976463
0.0634553666413344,-0.151946888193267
0.0462109117442409,-0.165300860908374
0.0536733040908473,-0.171315997383497
0.0671273151884275,-0.169943446811677
0.124497118356104,-0.0460410792651599
0.0664611349104419,-0.151100771800409
-0.0157347808410259,-0.31980233521115
0.0768175388104611,-0.209495731901242
0.0726852906392025,-0.181335015687627
0.0916176108697512,-0.237644228649291
0.0481231625251189,-0.22801057034627
0.0624671279813665,-0.209935634245979
0.0634584536557093,-0.208757082549159
0.0617974464614412,-0.219416898566885
0.0217522194642327,-0.1994630820981
0.0591117554660098,-0.233803990045969
0.0627638145137648,-0.236019007820606
0.0628811983223846,-0.241210832664239
0.18293579335045,-0.152171871819702
0.0547047115627152,-0.2755791970304
0.0800109747203832,-0.23612613548625
0.101891935675829,-0.247640858823555
0.0440961224925384,-0.264415754256599
0.0640022281516162,-0.27216701140168
0.0642596766707992,-0.27729159933438
0.064537629742088,-0.282405590507169
0.0648362111924174,-0.287508737048318
0.0624985198022341,-0.323774222821027
0.0594153573800552,-0.273910452600692
0.079765993411912,-0.287330738531784
0.0640756577472999,-0.318375048674974
0.100223986389976,-0.326728776881001
0.0670678301626016,-0.317885998213883
0.0555806102066143,-0.338765190521247
-0.0383309143007499,-0.428855592579182
0.0684721527464689,-0.33290814865939
0.068983828468624,-0.337889215938985
0.0695174946661036,-0.342856711997909
-0.0221543553265471,-0.471462111568557
0.0706512937947758,-0.352749998966826
0.0806924991721325,-0.357718091103254
0.0616203406393709,-0.345744651802775
0.205433726220511,-0.249544234508252
0.211675954812241,-0.282176034108109
0.0699863875595676,-0.401367569949431
0.101917659928667,-0.388772239329621
0.0753304932772798,-0.386912572762612
0.0760908747094235,-0.391730723669683
-0.0235963276717299,-0.479243030150174
0.0776818191154709,-0.401317884182994
0.0804475273898027,-0.39368068891329
0.0268303091932124,-0.504058670447903
0.134180376042475,-0.413084994307066
0.055689548424501,-0.46085785570199
0.12679324392096,-0.43091069445109
0.0803297597367759,-0.423214469515244
0.0840000325532799,-0.434330935789209
0.0948069664194566,-0.418912554316987
0.200906763562849,-0.340659821478615
0.0593445346339232,-0.434011099030717
0.0881459903479529,-0.452793359469161
0.0930723183039315,-0.43758141273694
0.0768706340872295,-0.42598772235933
0.121914888677484,-0.5001288344637
0.200025310101771,-0.318737962859966
0.118429920213176,-0.482591993736828
-0.022338137482638,-0.57364644066599
-0.0271765978352402,-0.585477418296447
0.109404172368858,-0.477295944116589
0.0989467643351951,-0.493167716937252
0.100275583128859,-0.497548306673528
0.101630602513634,-0.501906897550314
-0.0260497099295444,-0.581686305815057
0.11834123403924,-0.499417669675275
0.0806148238996052,-0.530422661093183
0.107315162502541,-0.519116315027957
0.0811250193752835,-0.524992364941687
0.237374962982412,-0.448977792955037
0.111859756220696,-0.531780244396773
0.11089240677653,-0.528299783223304
0.115025235020858,-0.540103367928883
0.135513361362021,-0.567542079262399
0.11830046926286,-0.548328581153834
0.119979554241888,-0.552403851721799
0.121686449562181,-0.556453901097784
0.101064571643665,-0.568658663378947
0.123090208944229,-0.561429883341775
0.230012871089159,-0.452032395916937
0.0128438895533282,-0.678166609200699
0.237331456281611,-0.487004520810779
0.00393105692862629,-0.683599773772704
0.112901241815316,-0.590154610963886
0.122199907579269,-0.56033078788089
0.135714107075819,-0.587817178216168
0.140312213460334,-0.595512697518138
0.14632459343067,-0.59205433639634
0.126834415057313,-0.567048020366105
0.152923466515107,-0.572297089883395
0.0439856468772586,-0.707775282796455
0.140330165682727,-0.604595664487559
0.152880023877716,-0.617622345672593
0.155078640520545,-0.62120571041023
0.157307296389467,-0.624759392264746
0.0445700808667696,-0.705617880197906
0.064312591522406,-0.71471074140233
0.193634427775376,-0.668346902609025
0.146559972127177,-0.641424723220607
0.068873535125429,-0.747652651926801
0.218051445054111,-0.661586035068134
0.165970250392818,-0.640623850248569
0.240400345664399,-0.563676939570142
0.160787970927139,-0.644168681024534
0.245848801742195,-0.656235209014618
0.172211065457146,-0.674358736487778
0.191913351796553,-0.644115237541844
0.145353297123285,-0.650486362324495
0.191731940377645,-0.671255427331595
0.209632585652139,-0.660887068672934
0.298250862194478,-0.561953132185713
0.199910436053231,-0.680390314967824
0.309092326179954,-0.567470460915541
0.195762773301662,-0.665200029590043
0.208379344727105,-0.689217901435716
0.206559142175773,-0.69390935250254
0.214188275423423,-0.694928931253278
0.204822373795451,-0.700834628177858
0.220128755102122,-0.700498425339202
0.211371724332737,-0.742499094350661
0.198443277502704,-0.723435590932667
0.225018928295696,-0.750598206755075
0.238065264572253,-0.724603095091908
0.273123817083781,-0.687877886237275
0.238749394187298,-0.716337863468742
0.267188380956746,-0.707964647479881
0.220432783651265,-0.694548376419278
0.267921026360651,-0.730154201924631
0.251839059773105,-0.726153455709843
0.244086043108456,-0.725747696238118
0.276443403829522,-0.741135473487971
0.262016793840736,-0.733113254308193
0.157676714101577,-0.867284282488875
0.267501381656439,-0.727118833448216
0.311500590958733,-0.711638993054911
0.276074108884601,-0.741844400913886
0.279676227971626,-0.743927573505186
0.253411346483989,-0.730866585173808
0.28698668132549,-0.747972646713526
0.290695263246199,-0.749934051587107
0.299654690788335,-0.789304141509773
0.277835424372937,-0.764939474306122
0.250695231508042,-0.736618706968569
0.288514189158701,-0.741942056182201
0.330376378201984,-0.751416527507873
0.218116788503344,-0.855934791580817
0.4428184945459,-0.647329242666385
0.186674109531388,-0.851531390128052
0.353816938834428,-0.773516919099871
0.329766953477929,-0.767247527438995
0.445682057689058,-0.659692873900432
0.33802101147572,-0.77019539010474
0.355931806437989,-0.780946888359578
0.451718670113131,-0.673680281535142
0.330814937265728,-0.810490124569561
0.383533483485956,-0.785344104436742
0.482943242337048,-0.686888144166384
0.363680456450608,-0.777973619563588
0.356494550757643,-0.780538968138735
0.37253599715434,-0.780204633290942
0.457829072439474,-0.66481080326465
0.296457097777423,-0.857764325196418
0.388181560376338,-0.773050316259949
0.376481750638601,-0.804555446098145
0.40420165662259,-0.7483730297694
0.403675411569281,-0.771377586881458
0.40474056235105,-0.786549831925929
0.409496538275889,-0.787267161769987
0.289214084105361,-0.885953847616099
0.419126221210328,-0.788557497412955
0.418062686802481,-0.798995052171703
0.420489854098695,-0.807174957454701
0.433866930727909,-0.790128472688589
0.420417248117103,-0.818690423135002
0.447535943451552,-0.785528046777217
0.531640717571364,-0.676012047314954
0.435260094499328,-0.754259993677681
0.47541686170835,-0.765952352109174
0.55648294467355,-0.691692970424605
0.618604199073569,-0.710251444425956
0.458189611860916,-0.766667376656186
0.480252796502887,-0.792154331880031
0.462537298695366,-0.816336895299618
0.621788432809936,-0.698206456863473
0.484047088215343,-0.796823587998701
0.499704942663593,-0.780816436506097
0.411775999649487,-0.890943250039678
0.501844284533175,-0.789232066958726
0.521840733410004,-0.785752598030605
0.52221118544029,-0.818025917902537
0.550798501867418,-0.750757870533363
0.527321304196038,-0.790846704019213
0.558091585160084,-0.795394256581657
0.557268246486885,-0.794893134321012
0.541363163960067,-0.790229935020853
0.545840156797731,-0.790011751071763
0.550216104188226,-0.789787244022907
0.56439346731523,-0.809629250443154
0.560409156321781,-0.782356127212687
0.562742282244724,-0.789075628528061
0.543487269562631,-0.78598879466704
0.58964936842161,-0.789326998804304
0.567278275883469,-0.795438702491778
0.556563771352703,-0.781284044832953
0.545211060160942,-0.801282636831536
0.609303422092873,-0.783726076183329
0.588519466995426,-0.787190976554185
0.591814331016024,-0.786895887459991
0.595013679871082,-0.786594288366411
0.600773632646377,-0.751083164754117
0.603520425671518,-0.798693196307128
0.502964061644709,-0.890613056159079
0.606865140771962,-0.785322480498858
0.608167632083896,-0.787366238488284
0.624323611779615,-0.774350658833071
0.614773409192771,-0.784299506431183
0.639635846924627,-0.758439587380406
0.598709066697472,-0.745807669914487
0.612464413827702,-0.821336014307623
0.624034321396571,-0.782842583936557
0.600801420844846,-0.808786874569458
0.628123024767796,-0.782074003595073
0.630033551269548,-0.7816796291384
0.631322147838717,-0.770821338588388
0.633589258189342,-0.780870633778346
0.613076991123226,-0.768753513093384
0.626773682774553,-0.768997288724721
0.657167323165179,-0.757434100983167
0.62414212705685,-0.772630796629927
0.672605981281815,-0.779514586333849
0.642390516949681,-0.77003566352278
0.630772384582175,-0.776471879956934
0.644341730416752,-0.777362415386683
0.665517942431681,-0.785173454095421
0.64618069388276,-0.77641667855217
0.646975337139549,-0.775933422137097
0.647687369221266,-0.775443219623522
0.74642655130525,-0.683698806001243
0.648865443286693,-0.774441914000994
0.660165646154154,-0.773229263968299
0.680731487638552,-0.750930413940471
0.670190541927399,-0.745989866792503
0.565102893488981,-0.872172781429213
0.683265927175068,-0.75889385949215
0.639950519259979,-0.778183920451085
0.659775510879189,-0.811657033643293
0.753027601330417,-0.679101477580859
0.674081123077031,-0.746931017060103
0.654874251526773,-0.737009879628395
0.653142500463716,-0.725367165806109
0.649239724792041,-0.767842322108484
0.667191708715759,-0.786372706092309
0.777608289830026,-0.649839127929774
0.553613497624453,-0.884961326054141
0.637854044801939,-0.745617918314154
0.646132795057314,-0.764788898442288
0.645775011626702,-0.751953525864596
0.66681925260391,-0.714654135658149
0.646875126797693,-0.761381841463975
0.663296618934359,-0.780880908813125
0.641191014346977,-0.761554034829345
0.613049289044506,-0.809346773551871
0.659522457627098,-0.761462561732959
0.608197608051314,-0.782672911769017
0.648226452304153,-0.768558685906342
0.633583879785515,-0.752952677841895
0.600109932152581,-0.741662353190785
0.731836940578208,-0.637257800834197
0.622881362962753,-0.70085400184969
0.627855866473993,-0.755267837247856
0.626033328400676,-0.754532200279021
0.59502174517917,-0.776853082378307
0.617824266383551,-0.742064456811942
0.620168670486003,-0.752280279738266
0.618082972805547,-0.751514584430036
0.615932637365312,-0.750741335599537
0.504932402096577,-0.869451622517059
0.607262146016115,-0.744390587435275
0.635989404330559,-0.742461528690033
0.606694135142633,-0.74757249355548
0.718600117762959,-0.620656550639143
0.62855816757656,-0.729818632675402
0.568827274934293,-0.713490097247952
0.625856577759319,-0.745018521008986
0.592738380824503,-0.774272934049338
0.585137428403612,-0.750437471199833
0.529092003363783,-0.765584081551152
0.611110425114004,-0.737854296835877
0.681804352072819,-0.663766060207134
0.561035627707545,-0.728154390374357
0.568750496878382,-0.738094685086999
0.573112594142412,-0.73732936610869
0.601017963883513,-0.726396801329382
0.554426688976452,-0.737660034953073
0.586520791437438,-0.709021581139073
0.570481230453628,-0.722217112196536
0.578701435851543,-0.681150350675545
0.498205846937433,-0.751802462786651
0.575436354127855,-0.731074886900742
0.667344996626853,-0.623793437718443
0.43125629676405,-0.844774909391715
0.429701096892445,-0.805232075928785
0.611566679350501,-0.62152542957294
0.522472453553068,-0.718208231575389
0.495246742046655,-0.719035661556814
0.523651865601099,-0.723954230985984
0.519726344581717,-0.722939097780804
0.607496149854566,-0.636118391418835
0.383857552138266,-0.832844667550319
0.507652282898172,-0.719845324337838
0.503529965651198,-0.718797889997814
0.493964840919476,-0.713656758426172
0.495141651269376,-0.7166786630794
0.501812591813165,-0.69481454179824
0.45896077342898,-0.751042400226583
0.478940401840641,-0.714061787306858
0.504885043952638,-0.707249551070629
0.471535861608767,-0.728411446988452
0.468860450710693,-0.710124995019521
0.57403750116201,-0.634562278072678
0.459740254234791,-0.707874694565524
0.42764969005412,-0.700566676915879
0.452940243413578,-0.694990507754574
0.445735324061432,-0.704437180165987
0.453341676454022,-0.718300530632249
0.41706812624058,-0.691831202217709
0.414338282733074,-0.676933886521753
0.426309401168093,-0.691458326014176
0.530697860913678,-0.635718137385695
0.416602400883938,-0.697337180058295
0.42097835995907,-0.692042349747992
0.400561291211542,-0.707038813676671
0.408515423158452,-0.689222203549427
0.414952501859136,-0.660549060189256
0.415480028125224,-0.704822302398816
0.386055014823174,-0.689934414711464
0.483595007329011,-0.574968812989351
0.382795701970724,-0.656116081218057
0.359891932885038,-0.688150278871502
0.390147376513479,-0.713168494145315
0.319660701641541,-0.646594830845641
0.354192710948461,-0.682225519932321
0.340917970857659,-0.696030629031073
0.396064134842578,-0.68684769024841
0.337799572665035,-0.678255222695264
0.327249267522198,-0.696982658792961
0.349152148276321,-0.689305294200215
0.310947278546136,-0.685807643951108
0.299887826365118,-0.65424809781398
0.309836264611151,-0.671464977566105
0.30415153907437,-0.670080825905448
0.298437200894793,-0.668687937024923
0.286163790221901,-0.664662014648797
0.276642524745845,-0.681236168883198
0.379785220178762,-0.574336017742302
0.263923965556471,-0.694170475722976
0.24124782930645,-0.650684303783315
0.263555114299553,-0.660146249926312
0.235365461778246,-0.651446964375717
0.266224718692958,-0.686882275077886
0.151074065794306,-0.782916622422848
0.264342785832482,-0.629741597079525
0.244361956123206,-0.636981726556612
0.212768648010143,-0.667283289585505
0.221665743910964,-0.649778207959478
0.190280504909352,-0.655219882305217
0.208008873906714,-0.673593735079282
0.208225610737879,-0.648041882545747
0.232898914378975,-0.636665568332418
0.189710670590808,-0.634134345591542
0.184851312898817,-0.640542261812037
0.178641501791828,-0.638971357790786
0.183754485953384,-0.600625207379276
0.158548209963576,-0.645858825808899
0.166863449005463,-0.621142162878919
0.0287467261461935,-0.761290077460696
0.122351287438621,-0.587772428619525
0.158165554444611,-0.625162309555228
0.1137774265972,-0.641493261727606
0.125472028098822,-0.624258956691848
0.121911445397676,-0.624423459364116
0.123969785860524,-0.65493008891283
0.000250767445529002,-0.740308486854925
0.118990639715742,-0.627209310215308
0.056668324646276,-0.606833353286479
0.00868251408838343,-0.732038990753888
0.0828110077793413,-0.650769550454706
0.076886794313075,-0.612593558460444
0.0591556778224037,-0.621649089831682
0.0639026469669058,-0.609129998954916
0.039936208478119,-0.599102173031438
0.0483969542226201,-0.615357756570191
0.0624921930327711,-0.614322042077046
0.0441756106474424,-0.606070484185171
0.025412259639407,-0.599658828326211
-0.0810767800304231,-0.689434598799172
-0.00307832140717979,-0.572934316599292
0.0340676116202018,-0.557312032524354
-0.112134154614001,-0.696259780696187
0.0154731668805835,-0.599019439651034
-0.00824351441930504,-0.589408938823833
-0.0148508923156074,-0.587559330865192
-0.0214643791577832,-0.585700191363295
-0.046058496242679,-0.56271534314467
-0.0490970679336148,-0.559454474596765
-0.0473387969080556,-0.57663370562078
-0.0479701988491692,-0.57816800642377
-0.0297144153437135,-0.57246015778065
-0.0645993282754794,-0.57790312043033
-0.101586549784531,-0.578866432433559
-0.0730038218243689,-0.562524941718623
-0.081184621929259,-0.568536446529882
-0.106400334258198,-0.570532074656022
-0.0944841198038555,-0.564616120546522
0.0289170303094691,-0.452574542278954
-0.100767091811134,-0.534431205980269
-0.114436554455577,-0.55866270431248
-0.121086372669561,-0.556658722665526
-0.141959007530661,-0.555345030503914
-0.149534333660633,-0.558691003225915
-0.141026395306512,-0.550588030968282
-0.155809460944067,-0.571085110572025
-0.125706268034913,-0.534800394629543
-0.173637357377665,-0.548689833824814
-0.167573878823487,-0.542356118141584
-0.207464070924386,-0.527076202251794
-0.0889269869313333,-0.429229974214266
-0.187438951473914,-0.536078395474887
-0.189475278119804,-0.514936520907479
-0.200653734680589,-0.531843590526528
-0.207251164145436,-0.529711244376275
-0.216940175611103,-0.521530186456317
-0.0897305386172955,-0.385430550597865
-0.255149943998502,-0.51297901969227
-0.214003462481494,-0.506029782450363
-0.226677085549939,-0.487531851948367
-0.338702500788932,-0.593782527725734
-0.224779802627718,-0.518480902844293
-0.239005836474762,-0.519666467237518
-0.286892929161297,-0.49502499507873
-0.2728980039844,-0.511433927280634
-0.279242610270051,-0.505593117885986
-0.28572255236918,-0.503339945179735
-0.292189708285284,-0.501076602356523
-0.213156628624876,-0.418197245722181
-0.416615962191259,-0.608549947376436
-0.321891886959268,-0.521322571384614
-0.300020110163904,-0.507215017128025
-0.346070537759159,-0.479469653344951
-0.330698325957437,-0.48728210076284
-0.453036579868202,-0.587734589620233
-0.22326021458557,-0.458543552544858
-0.344159943402611,-0.472581931272146
-0.359648368492059,-0.498189325390641
-0.347103917070739,-0.482937690007774
-0.337653147389037,-0.471412012130505
-0.367627418633713,-0.477390881456934
-0.371948846734451,-0.520064424360737
-0.387349322438147,-0.465895454994507
-0.384632475293002,-0.465696557973748
-0.410254411553408,-0.461666430993577
-0.416812831731546,-0.455291717088588
-0.42052766324321,-0.453987765522859
-0.427358016653059,-0.436089943841916
-0.467454847563479,-0.4322686105475
-0.43029945996605,-0.448678496918671
-0.436958062984925,-0.451014714625264
-0.480612761232348,-0.467996891914062
-0.45119124922594,-0.408505589809666
-0.464175096364373,-0.402695524387935
-0.460285770080463,-0.436065130983984
-0.374646051469408,-0.337834619812917
-0.483226341103557,-0.469579189690884
-0.507864235695928,-0.404325668677932
-0.593729266631334,-0.520718041143589
-0.518474733256539,-0.42505212930478
-0.468815042924606,-0.387771039875413
-0.501174712963473,-0.417960521501101
-0.394356466442926,-0.320128551535693
-0.508274369243737,-0.421812817409488
-0.537628008749273,-0.386361410104545
-0.532513150634716,-0.40406129789392
-0.608948434254752,-0.515952035423978
-0.519596099780952,-0.394219227085881
-0.540646763462108,-0.399330865216316
-0.543278528437248,-0.426191460476418
-0.569105163480046,-0.389031795654652
-0.532184309764993,-0.384396381895328
-0.573761752943614,-0.399838559309149
-0.449857728567808,-0.2827618449273
-0.534766743656794,-0.371011835149806
-0.572032999842812,-0.343826830258073
-0.59826106491953,-0.366636992925336
-0.601831977278741,-0.332115541038836
-0.614877998739625,-0.404407201339653
-0.604129068952245,-0.344618111128426
-0.709716065395093,-0.478911205091926
-0.613459413241064,-0.360315829064547
-0.614707891773354,-0.360475043384391
-0.60193640233016,-0.350215724727024
-0.612705033721618,-0.373725696058143
-0.614125271314498,-0.395613537789993
-0.64844936407457,-0.358129322808535
-0.639390744047889,-0.346075673620101
-0.657340991994602,-0.329684355400241
-0.640650352980228,-0.342295633454509
-0.615461296185922,-0.35197135470228
-0.658403618944832,-0.334356107837874
-0.663051135123119,-0.331398299104971
-0.627555594661579,-0.307082382371594
-0.678172710518766,-0.315752952297367
-0.70392826463476,-0.288869956788976
-0.758632580698172,-0.417775443600568
-0.647196775455477,-0.329263722495428
-0.681500869885434,-0.361033667278058
-0.693947937698359,-0.320441218914351
-0.730191252742744,-0.290188082217447
-0.727430394075158,-0.341458994398033
-0.691226573583175,-0.304643673581585
-0.842330248256697,-0.379633431037173
-0.588579676837906,-0.172063781341435
-0.719369644954204,-0.291922092385044
-0.729409193600786,-0.277611325889275
-0.835963313927077,-0.364843128366182
-0.731222439800213,-0.282539831576915
-0.704068698601742,-0.294903203898242
-0.754683569412749,-0.274807632952617
-0.647050004001782,-0.171813260733718
-0.736277410134667,-0.255085841877669
-0.759090333680998,-0.261542992341202
-0.75355002245635,-0.263465813298519
-0.75708727902799,-0.260246508606471
-0.769820880267131,-0.255615760906967
-0.763999923999149,-0.253773214779959
-0.747024752289756,-0.22177388852352
-0.77069367236213,-0.247253571197104
-0.766882356932427,-0.262465944023766
-0.656773591777609,-0.154830545156346
-0.805439484284786,-0.24000467437019
-0.802001871508237,-0.235671647712523
-0.78644617562668,-0.230750864370127
-0.884256567459814,-0.33607348000655
-0.790064632133061,-0.23504707912081
-0.795205962643894,-0.220709007307314
-0.778900200507441,-0.216526264826386
-0.77995963231375,-0.221491285447501
-0.791988077638631,-0.216259227466631
-0.806052869920809,-0.207155387230935
-0.774011764767848,-0.21130259969062
-0.891673945548062,-0.294273100718736
-0.813547313830884,-0.196866269055286
-0.957752212801841,-0.304662208314447
-0.69324637201786,-0.0393688798426829
-0.820478729281791,-0.1864704809577
-0.842076355804895,-0.179971109208654
-0.845031789997964,-0.169370847122656
-0.844133139716559,-0.151891911283669
-0.947402333518768,-0.28647945434847
-0.829339504823314,-0.180268730424134
-0.829986027274405,-0.168593847839183
-0.834392580266557,-0.161796452385595
-0.836538413853562,-0.164566875952761
-0.837770373542856,-0.154638891891855
-0.84144898919895,-0.141673012166042
-0.854216743328079,-0.147118743085519
-0.821750717647357,-0.175993708131643
-0.937789224427725,-0.24983130873612
-0.811059162566244,-0.138068874441783
-0.846254869970536,-0.132876773295583
-0.881932738777569,-0.135578492018209
-0.895382745337156,-0.117976105058271
-0.849546808859472,-0.121832134659294
-0.850500262877115,-0.118126250638052
-0.867617514506473,-0.109555619183713
-0.855846793713874,-0.115558541576785
-0.852922596098807,-0.106935367097333
-0.853582494706283,-0.103180610174868
-0.855385145532972,-0.12633474778221
-0.84122122155169,-0.0804564423967974
-0.855113101134214,-0.0918427341312356
-0.859356303512775,-0.102850886766683
-0.843429106018591,-0.102389984684024
-0.881726019416138,-0.108311338434859
-0.855638235604039,-0.0711681244498781
-0.856139495790966,-0.0726999886396267
