0.980735115531962,0.37049892152795
-0.174047170744717,0.358827964211242
-0.111250124565649,0.640942249123319
0.243128822164771,-0.131668296909406
0.597507768895192,-0.904278842942131
-0.0068614756777754,-0.208612838548669
-0.334513364278927,-0.261360827211753
-0.662165252880078,-0.314108815874838
-0.2543431559388,0.244122234923425
0.786632341488915,-0.503892480623679
