-0.463363690451366,0.82169697525551
-0.725131143882978,0.708416034489209
0.873970280397349,-0.39484448687634
0.726943130398523,-0.659349629448431
0.579915980399696,-0.923854772020522
-0.193059599044776,-0.639770706427957
-0.411537655669894,0.194691293338188
-0.630015712295013,1.02915329310433
0.167576398765572,-0.672281763853261
0.105381303850617,0.762447383790295
