-0.428872365638762,-0.105962256315437
-0.426359953249846,-0.109161361121323
-0.423880901190923,-0.112341543223769
-0.421434988178254,-0.115502864673651
-0.419021992928098,-0.118645387521847
-0.416641694156714,-0.121769173819235
-0.414293870580363,-0.12487428561669
-0.411978300915304,-0.127960784965091
-0.409694763877797,-0.131028733915315
-0.407443038184102,-0.134078194518239
-0.405222902550477,-0.13710922882474
-0.403034135693184,-0.140121898885695
-0.400876516328481,-0.143116266751982
-0.398749823172628,-0.146092394474477
-0.396653834941885,-0.149050344104059
-0.394588330352512,-0.151990177691604
-0.392553088120768,-0.154911957287989
-0.390547886962913,-0.157815744944092
-0.388572505595206,-0.16070160271079
-0.386626722733908,-0.16356959263896
-0.384710317095278,-0.166419776779479
-0.382823067395576,-0.169252217183224
-0.38096475235106,-0.172066975901074
-0.379135150677992,-0.174864114983904
-0.377334041092631,-0.177643696482593
-0.375561202311236,-0.180405782448016
-0.373816413050067,-0.183150434931053
-0.372099452025384,-0.185877715982579
-0.370410097953446,-0.188587687653472
-0.368748129550513,-0.191280411994609
-0.367113325532845,-0.193955951056868
-0.365505464616702,-0.196614366891126
-0.363924325518343,-0.199255721548259
-0.362369686954027,-0.201880077079145
-0.360841327640016,-0.204487495534662
-0.359339026292567,-0.207078038965686
-0.357862561627941,-0.209651769423095
-0.356411712362398,-0.212208748957766
-0.354986257212197,-0.214749039620576
-0.353585974893598,-0.217272703462402
-0.352210644122861,-0.219779802534122
-0.350860043616244,-0.222270398886612
-0.349533952090009,-0.224744554570751
-0.348232148260415,-0.227202331637415
-0.34695441084372,-0.229643792137481
-0.345700518556186,-0.232068998121827
-0.344470250114072,-0.23447801164133
-0.343263384233637,-0.236870894746866
-0.342079699631141,-0.239247709489314
-0.340918975022844,-0.241608517919551
-0.339780989125005,-0.243953382088453
-0.338665520653884,-0.246282364046898
-0.337572348325741,-0.248595525845764
-0.336501250856835,-0.250892929535926
-0.335452006963427,-0.253174637168263
-0.334424395361775,-0.255440710793652
-0.33341819476814,-0.25769121246297
-0.332433183898782,-0.259926204227095
-0.331469141469959,-0.262145748136902
-0.330525846197931,-0.26434990624327
-0.329603076798959,-0.266538740597076
-0.328700611989302,-0.268712313249198
-0.327818230485219,-0.270870686250511
-0.326955711002971,-0.273013921651894
-0.326112832258816,-0.275142081504223
-0.325289372969016,-0.277255227858377
-0.324485111849828,-0.279353422765231
-0.323699827617514,-0.281436728275664
-0.322933298988332,-0.283505206440553
-0.322185304678543,-0.285558919310774
-0.321455623404405,-0.287597928937205
-0.320744033882179,-0.289622297370724
-0.320050314828125,-0.291632086662207
-0.319374244958502,-0.293627358862531
-0.31871560298957,-0.295608176022574
-0.318074167637588,-0.297574600193214
-0.317449717618816,-0.299526693425326
-0.316842031649514,-0.30146451776979
-0.316250888445941,-0.30338813527748
-0.315676066724358,-0.305297607999276
-0.315117345201024,-0.307192997986054
-0.314574502592198,-0.309074367288691
-0.31404731761414,-0.310941777958065
-0.31353556898311,-0.312795292045052
-0.313039035415368,-0.314634971600531
-0.312557495627173,-0.316460878675377
-0.312090728334785,-0.318273075320469
-0.311638512254464,-0.320071623586684
-0.311200626102469,-0.321856585524898
-0.31077684859506,-0.32362802318599
-0.310366958448496,-0.325385998620836
-0.309970734379038,-0.327130573880313
-0.309587955102945,-0.328861811015299
-0.309218399336477,-0.330579772076671
-0.308861845795893,-0.332284519115306
-0.308518073197453,-0.333976114182081
-0.308186860257417,-0.335654619327874
-0.307867985692045,-0.337320096603561
-0.307561228217595,-0.338972608060021
-0.307266366550328,-0.340612215748129
-0.306983179406504,-0.342238981718765
-0.306711445502382,-0.343852968022803
-0.306450943554222,-0.345454236711123
-0.306201452278283,-0.3470428498346
-0.305962750390826,-0.348618869444113
-0.305734616608109,-0.350182357590539
-0.305516829646393,-0.351733376324754
-0.305309168221937,-0.353271987697635
-0.305111411051002,-0.354798253760061
-0.304923336849845,-0.356312236562909
-0.304744724334728,-0.357813998157055
-0.30457535222191,-0.359303600593376
-0.304414999227651,-0.360781105922751
-0.30426344406821,-0.362246576196056
-0.304120465459847,-0.363700073464168
-0.303985842118822,-0.365141659777964
-0.303859352761394,-0.366571397188323
-0.303740776103823,-0.367989347746121
-0.303629890862369,-0.369395573502234
-0.303526475753292,-0.370790136507542
-0.30343030949285,-0.37217309881292
-0.303341170797305,-0.373544522469245
-0.303258838382914,-0.374904469527396
-0.303183090965939,-0.37625300203825
-0.303113707262639,-0.377590182052682
-0.303050465989273,-0.378916071621572
-0.302993145862102,-0.380230732795795
-0.302941525597384,-0.38153422762623
-0.30289538391138,-0.382826618163753
-0.302854499520349,-0.384107966459242
-0.302818651140551,-0.385378334563573
-0.302787617488246,-0.386637784527625
-0.302761177279693,-0.387886378402273
-0.302739109231152,-0.389124178238397
-0.302721192058882,-0.390351246086871
-0.302707204479144,-0.391567643998575
-0.302696925208197,-0.392773434024385
-0.3026901329623,-0.393968678215178
-0.302686606457714,-0.395153438621832
-0.302686124410698,-0.396327777295223
-0.302688465537512,-0.39749175628623
-0.302693408554415,-0.398645437645728
-0.302700732177667,-0.399788883424596
-0.302710215123528,-0.40092215567371
-0.302721636108258,-0.402045316443949
-0.302734773848115,-0.403158427786188
-0.302749407059361,-0.404261551751305
-0.302765314458254,-0.405354750390178
-0.302782274761054,-0.406438085753684
-0.302800066684021,-0.4075116198927
-0.302818468943414,-0.408575414858102
-0.302837260255494,-0.409629532700769
-0.30285621933652,-0.410674035471578
-0.302875124902751,-0.411708985221405
-0.302893755670447,-0.412734444001128
-0.302911890355869,-0.413750473861624
-0.302929307675275,-0.414757136853771
-0.302945786344925,-0.415754495028445
-0.30296110508108,-0.416742610436524
-0.302975042599998,-0.417721545128885
-0.302987377617939,-0.418691361156405
-0.302997888851163,-0.419652120569962
-0.303006355015931,-0.420603885420432
-0.3030125548285,-0.421546717758693
-0.303016267005132,-0.422480679635623
-0.303017270262085,-0.423405833102097
-0.30301534331562,-0.424322240208994
-0.303010264881996,-0.425229963007191
-0.303001813677473,-0.426129063547565
-0.30298976841831,-0.427019603880993
-0.302973907820768,-0.427901646058352
-0.302954010601105,-0.42877525213052
-0.302929855475582,-0.429640484148374
-0.302901221160458,-0.43049740416279
-0.302867886371993,-0.431346074224647
-0.302829629826446,-0.432186556384822
-0.302786230240078,-0.433018912694191
-0.302737466329148,-0.433843205203631
-0.302683116809915,-0.434659495964021
-0.30262296039864,-0.435467847026237
-0.302556775811581,-0.436268320441157
-0.302484341764999,-0.437060978259658
-0.302405436975154,-0.437845882532616
-0.302319840158305,-0.438623095310909
-0.302227330030711,-0.439392678645415
-0.302127685308633,-0.440154694587011
-0.30202068470833,-0.440909205186573
-0.301906106946061,-0.441656272494979
-0.301783730738087,-0.442395958563107
-0.301653334800667,-0.443128325441833
-0.301514697850061,-0.443853435182034
-0.301367598602528,-0.444571349834588
-0.301211815774329,-0.445282131450373
-0.301047128081722,-0.445985842080265
-0.300873314240968,-0.446682543775141
-0.300690152968326,-0.447372298585879
-0.300497422980056,-0.448055168563356
-0.300294902992418,-0.448731215758449
-0.30008237172167,-0.449400502222035
-0.299859607884074,-0.450063090004992
-0.299626390195888,-0.450719041158197
-0.299382497373373,-0.451368417732526
-0.299127708132787,-0.452011281778858
-0.298861801190392,-0.452647695348069
-0.298584555262445,-0.453277720491037
-0.298295749065208,-0.453901419258639
-0.297995161314939,-0.454518853701752
-0.297682570727899,-0.455130085871253
-0.297357756020346,-0.45573517781802
-0.297020495908542,-0.456334191592929
-0.296670569108744,-0.456927189246858
-0.296307754337214,-0.457514232830685
-0.295931830310211,-0.458095384395286
-0.295542575743994,-0.458670705991538
-0.295139769354824,-0.459240259670319
-0.294723189858959,-0.459804107482506
-0.294292615972659,-0.460362311478976
-0.293847826412185,-0.460914933710607
-0.293388599893796,-0.461462036228275
-0.292914715133751,-0.462003681082859
-0.29242595084831,-0.462539930325234
-0.291922085753734,-0.463070846006278
-0.291402898566281,-0.463596490176869
-0.290868168002211,-0.464116924887884
-0.290317672777784,-0.4646322121902
-0.28975119160926,-0.465142414134693
-0.289168503212898,-0.465647592772242
-0.288569386304958,-0.466147810153724
-0.2879536196017,-0.466643128330015
-0.287320981819383,-0.467133609351994
-0.286671251674268,-0.467619315270536
-0.286004207882613,-0.46810030813652
-0.285319629160678,-0.468576650000823
-0.284617294224723,-0.469048402914321
-0.283896981791009,-0.469515628927893
-0.283158470575793,-0.469978390092415
-0.282401539295337,-0.470436748458764
-0.2816259666659,-0.470890766077818
-0.280831531403741,-0.471340505000454
-0.28001801222512,-0.471786027277549
-0.279185187846297,-0.47222739495998
-0.278332836983532,-0.472664670098625
-0.277460738353084,-0.47309791474436
-0.276568670671212,-0.473527190948064
-0.275656412654178,-0.473952560760613
-0.274723743018239,-0.474374086232884
-0.273770440479657,-0.474791829415755
-0.27279628375469,-0.475205852360102
-0.271801051559599,-0.475616217116804
-0.270784522610642,-0.476022985736737
-0.26974647562408,-0.476426220270778
-0.268686689316173,-0.476825982769805
-0.267604942403179,-0.477222335284695
-0.26650101360136,-0.477615339866326
-0.265374681626973,-0.478005058565573
-0.26422572519628,-0.478391553433315
-0.263053923025539,-0.478774886520429
-0.261859053831011,-0.479155119877791
-0.260640896328955,-0.47953231555628
-0.259399229235631,-0.479906535606773
-0.258133831267298,-0.480277842080146
-0.256844481140217,-0.480646297027276
-0.255530957570646,-0.481011962499042
-0.254193039274846,-0.48137490054632
-0.252830504969076,-0.481735173219987
-0.251443133369596,-0.482092842570922
-0.250030703192665,-0.48244797065
-0.248592993154544,-0.482800619508099
-0.247129781971492,-0.483150851196096
-0.245640848359768,-0.483498727764869
-0.244125971035633,-0.483844311265295
-0.242584928715345,-0.484187663748251
-0.241017500115165,-0.484528847264614
-0.239423463951353,-0.484867923865261
-0.237802598940167,-0.48520495560107
-0.236154683797868,-0.485540004522918
-0.234479497240716,-0.485873132681682
-0.23277681798497,-0.486204402128239
-0.231046424746889,-0.486533874913466
-0.229288096242734,-0.486861613088241
-0.227501611188764,-0.487187678703441
-0.225686748301239,-0.487512133809944
-0.223843286296418,-0.487835040458625
-0.221971003890561,-0.488156460700363
-0.220069679799928,-0.488476456586035
-0.218139092740779,-0.488795090166517
-0.216179021429373,-0.489112423492688
-0.21418924458197,-0.489428518615425
-0.212169540914829,-0.489743437585603
-0.21011968914421,-0.490057242454102
-0.208039467986374,-0.490369995271798
-0.205928656157579,-0.490681758089568
-0.203787032374085,-0.490992592958289
-0.201614375352153,-0.491302561928839
-0.199410463808041,-0.491611727052095
-0.197175076458009,-0.491920150378934
-0.194907992018317,-0.492227893960233
-0.192608989205225,-0.49253501984687
-0.190277846734992,-0.492841590089722
-0.187914343323879,-0.493147666739666
-0.185518257688144,-0.493453311847578
-0.183089368544047,-0.493758587464337
-0.180627454607849,-0.49406355564082
-0.178132294595808,-0.494368278427904
-0.175603667224185,-0.494672817876465
-0.173041351209239,-0.494977236037382
-0.17044512526723,-0.495281594961531
-0.167814768114417,-0.49558595669979
-0.16515005846706,-0.495890383303036
-0.16245077504142,-0.496194936822146
-0.159716696553754,-0.496499679307997
-0.156947601720324,-0.496804672811466
-0.154143269257389,-0.497109979383432
-0.151303477881209,-0.49741566107477
-0.148428006308043,-0.497721779936359
-0.145516633254151,-0.498028398019075
-0.142569137435792,-0.498335577373795
-0.139585297569227,-0.498643380051397
-0.136564892370714,-0.498951868102759
-0.133507700556515,-0.499261103578756
-0.130413500842887,-0.499571148530267
-0.127282071946092,-0.499882065008169
-0.124113192582389,-0.500193915063338
-0.120906641468036,-0.500506760746653
-0.117662197319295,-0.50082066410899
-0.114379638852425,-0.501135687201226
-0.111058744783685,-0.501451892074239
-0.107699293829335,-0.501769340778906
-0.104301064705636,-0.502088095366104
-0.100863836128845,-0.502408217886711
-0.0973873868152239,-0.502729770391603
-0.0938714954810314,-0.503052814931658
-0.0903159408425276,-0.503377413557753
-0.0867205016159718,-0.503703628320765
-0.0830849565176241,-0.504031521271572
-0.0794090842637437,-0.50436115446105
-0.0756926635705908,-0.504692589940077
-0.0719354731544247,-0.50502588975953
-0.0681372917315053,-0.505361115970287
-0.0642978980180921,-0.505698330623224
-0.060417070730445,-0.506037595769218
-0.0564945885848235,-0.506378973459148
-0.0525302302974874,-0.50672252574389
-0.0485237745846962,-0.507068314674321
-0.0444750001627098,-0.507416402301319
-0.0403836857477877,-0.50776685067576
-0.0362496100561898,-0.508119721848523
-0.0320725518041754,-0.508475077870483
-0.0278522897080047,-0.50883298079252
-0.0235886024839369,-0.509193492665508
-0.0192812688482321,-0.509556675540327
-0.0149300675171496,-0.509922591467853
-0.0105347772069493,-0.510291302498963
-0.00609517663389078,-0.510662870684534
-0.00161104451423395,-0.511037358075444
0.00291784043576185,-0.511414826722571
0.00749169949983666,-0.51179533867679
0.0121107539617311,-0.51217895598898
0.016775225105185,-0.512565740710017
0.0214853342139393,-0.512955754890779
0.0262413025717337,-0.513349060582143
0.0310433514623091,-0.513745719834986
0.0358917021694053,-0.514145794700186
0.040786575976763,-0.514549347228619
0.0457281941681222,-0.514956439471163
0.0507167780272236,-0.515367133478695
0.0557525488378072,-0.515781491302093
0.0608357278836135,-0.516199574992233
0.0659665364483826,-0.516621446599993
0.0711451958158552,-0.517047168176249
0.0763719272697711,-0.51747680177188
0.0816469520938712,-0.517910409437762
0.0869704915718953,-0.518348053224773
0.0923427669875841,-0.518789795183789
0.0977639996246776,-0.519235697365688
0.103234410766916,-0.519685821821348
0.108754221698041,-0.520140230601645
0.114323653701791,-0.520598985757457
0.119942928061907,-0.52106214933966
0.12561226606213,-0.521529783399133
0.131331888986199,-0.522001949986752
0.137102018117856,-0.522478711153394
0.142922874740839,-0.522960128949937
0.148794680138891,-0.523446265427258
0.154717655595751,-0.523937182636234
0.160692022395159,-0.524432942627742
0.166718001820856,-0.52493360745266
0.172795815156582,-0.525439239161865
0.178925683686077,-0.525949899806234
0.185107828693081,-0.526465651436644
0.191342471461336,-0.526986556103972
0.197629833274581,-0.527512675859096
0.203970135416557,-0.528044072752893
0.210363599171003,-0.52858080883624
0.216810445821661,-0.529122946160014
0.22331089665227,-0.529670546775093
0.229865172946571,-0.530223672732353
0.236473495988305,-0.530782386082672
0.24313608706121,-0.531346748876927
0.249853167449029,-0.531916823165996
0.249853167449029,-0.531916823165996
0.256573843227171,-0.532480311062561
0.263247154963838,-0.533024901137651
0.269873225681956,-0.533550635129658
0.276452178404452,-0.534057554776977
0.282984136154251,-0.534545701818002
0.289469221954279,-0.535015117991126
0.295907558827464,-0.535465845034744
0.302299269796731,-0.535897924687248
0.308644477885006,-0.536311398687034
0.314943306115216,-0.536706308772494
0.321195877510287,-0.537082696682024
0.327402315093146,-0.537440604154015
0.333562741886717,-0.537780072926863
0.339677280913929,-0.538101144738961
0.345746055197706,-0.538403861328703
0.351769187760976,-0.538688264434483
0.357746801626664,-0.538954395794694
0.363679019817697,-0.539202297147731
0.369565965357,-0.539432010231987
0.375407761267501,-0.539643576785856
0.381204530572125,-0.539837038547732
0.386956396293799,-0.540012437256009
0.392663481455448,-0.54016981464908
0.39832590908,-0.54030921246534
0.40394380219038,-0.540430672443182
0.409517283809515,-0.540534236321001
0.415046476960331,-0.540619945837189
0.420531504665753,-0.540687842730141
0.425972489948709,-0.540737968738251
0.431369555832125,-0.540770365599912
0.436722825338926,-0.540785075053518
0.44203242149204,-0.540782138837463
0.447298467314391,-0.540761598690142
0.452521085828907,-0.540723496349947
0.457700400058514,-0.540667873555272
0.462836533026139,-0.540594772044512
0.467929607754706,-0.540504233556061
0.472979747267143,-0.540396299828311
0.477987074586375,-0.540271012599657
0.48295171273533,-0.540128413608494
0.487873784736933,-0.539968544593213
0.49275341361411,-0.53979144729221
0.497590722389788,-0.539597163443878
0.502385834086893,-0.539385734786612
0.507138871728351,-0.539157203058804
0.511849958337088,-0.538911609998849
0.516519216936031,-0.53864899734514
0.521146770548106,-0.538369406836073
0.52573274219624,-0.538072880210039
0.530277254903357,-0.537759459205433
0.534780431692386,-0.537429185560649
0.539242395586251,-0.537082101014081
0.543663269607879,-0.536718247304122
0.548043176780197,-0.536337666169167
0.55238224012613,-0.535940399347609
0.556680582668605,-0.535526488577842
0.560938327430549,-0.53509597559826
0.565155597434886,-0.534648902147257
0.569332515704544,-0.534185309963226
0.573469205262449,-0.533705240784561
0.577565789131528,-0.533208736349657
0.581622390334705,-0.532695838396907
0.585639131894908,-0.532166588664704
0.589616136835062,-0.531621028891444
0.593553528178095,-0.531059200815519
0.597451428946932,-0.530481146175323
0.601309962164499,-0.52988690670925
0.605129250853724,-0.529276524155695
0.608909418037531,-0.52865004025305
0.612650586738847,-0.52800749673971
0.616352879980599,-0.527348935354069
0.620016420785713,-0.52667439783452
0.623641332177115,-0.525983925919457
0.627227737177731,-0.525277561347274
0.630775758810487,-0.524555345856365
0.63428552009831,-0.523817321185123
0.637757144064126,-0.523063529071944
0.641190753730861,-0.522294011255219
0.644586472121441,-0.521508809473344
0.647944422258793,-0.520707965464711
0.651264727165843,-0.519891520967716
0.654547509865517,-0.519059517720751
0.657792893380742,-0.518211997462211
0.661001000734443,-0.517349001930489
0.664171954949547,-0.516470572863979
0.66730587904898,-0.515576752001075
0.670402896055669,-0.514667581080171
0.673463128992539,-0.51374310183966
0.676486700882517,-0.512803356017938
0.679473734748529,-0.511848385353396
0.682424353613501,-0.510878231584429
0.68533868050036,-0.509892936449432
0.688216838432031,-0.508892541686798
0.691058950431442,-0.507877089034919
0.693865139521518,-0.506846620232192
0.696635528725185,-0.505801177017009
0.69937024106537,-0.504740801127764
0.702069399565,-0.503665534302851
0.704733127246999,-0.502575418280663
0.707361547134295,-0.501470494799596
0.709954782249814,-0.500350805598041
0.712512955616481,-0.499216392414395
0.715036190257224,-0.498067296987049
0.717524609194968,-0.496903561054398
0.719978335452641,-0.495725226354836
0.722397492053166,-0.494532334626757
0.724782202019472,-0.493324927608554
0.727132588374485,-0.492103047038621
0.72944877414113,-0.490866734655353
0.731730882342334,-0.489616032197142
0.733979036001023,-0.488350981402383
0.736193358140124,-0.48707162400947
0.738373971782562,-0.485778001756796
0.740520999951264,-0.484470156382756
0.742634565669156,-0.483148129625742
0.744714791959165,-0.48181196322415
0.746761801844216,-0.480461698916372
0.748775718347236,-0.479097378440803
0.750756664491151,-0.477719043535837
0.752704763298888,-0.476326735939866
0.754620137793372,-0.474920497391286
0.75650291099753,-0.47350036962849
0.758353205934287,-0.472066394389871
0.760171145626571,-0.470618613413824
0.761956853097308,-0.469157068438743
0.763710451369423,-0.46768180120302
0.765432063465844,-0.466192853445051
0.767121812409496,-0.464690266903229
0.768779821223305,-0.463174083315947
0.770406212930198,-0.4616443444216
0.7720011105531,-0.460101091958582
0.773564637114939,-0.458544367665286
0.775096915638641,-0.456974213280106
0.776598069147131,-0.455390670541435
0.778068220663336,-0.453793781187668
0.779507493210183,-0.452183586957199
0.780916009810597,-0.450560129588422
0.782293893487504,-0.448923450819729
0.783641267263832,-0.447273592389516
0.784958254162505,-0.445610596036176
0.786244977206451,-0.443934503498102
0.787501559418596,-0.442245356513689
0.788728123821865,-0.44054319682133
0.789924793439186,-0.43882806615942
0.791091691293484,-0.437100006266351
0.792228940407685,-0.435359058880518
0.793336663804717,-0.433605265740316
0.794414984507504,-0.431838668584136
0.795464025538974,-0.430059309150374
0.796483909922052,-0.428267229177424
0.797474760679665,-0.426462470403678
0.79843670083474,-0.424645074567531
0.799369853410201,-0.422815083407377
0.800274341428977,-0.420972538661609
0.801150287913991,-0.419117482068622
0.801997815888172,-0.417249955366809
0.802817048374445,-0.415370000294564
0.803608108395737,-0.413477658590281
0.804371118974973,-0.411572971992354
0.805106203135081,-0.409655982239176
0.805813483898986,-0.407726731069141
0.806493084289613,-0.405785260220644
0.807145127329891,-0.403831611432077
0.807769736042745,-0.401865826441836
0.808367033451101,-0.399887946988313
0.808937142577885,-0.397898014809903
0.809480186446024,-0.395896071644999
0.809996288078444,-0.393882159231995
0.810485570498072,-0.391856319309285
0.810948156727832,-0.389818593615263
0.811384169790652,-0.387769023888323
0.811793732709459,-0.385707651866858
0.812176968507177,-0.383634519289263
0.812534000206733,-0.381549667893931
0.812864950831054,-0.379453139419256
0.813169943403066,-0.377344975603631
0.813449100945696,-0.375225218185452
0.813702546481868,-0.37309390890311
0.81393040303451,-0.370951089495001
0.814132793626548,-0.368796801699518
0.814309841280908,-0.366631087255056
0.814461669020516,-0.364453987900007
0.814588399868299,-0.362265545372765
0.814690156847183,-0.360065801411726
0.814767062980093,-0.357854797755281
0.814819241289957,-0.355632576141826
0.814846814799701,-0.353399178309753
0.81484990653225,-0.351154645997458
0.814828639510531,-0.348899020943333
0.81478313675747,-0.346632344885772
0.814713521295994,-0.34435465956317
0.814619916149029,-0.34206600671392
0.814502444339501,-0.339766428076416
0.814361228890335,-0.337455965389052
0.814196392824459,-0.335134660390221
0.814008059164799,-0.332802554818318
0.813796350934281,-0.330459690411736
0.813561391155831,-0.328106108908869
0.813303302852375,-0.325741852048111
0.81302220904684,-0.323366961567856
0.812718232762152,-0.320981479206498
0.812391497021238,-0.31858544670243
0.812042124847022,-0.316178905794046
0.811670239262432,-0.31376189821974
0.811275963290394,-0.311334465717907
0.810859419953834,-0.308896650026939
0.810420732275679,-0.306448492885231
0.809960023278854,-0.303990036031176
0.809477415986285,-0.301521321203168
0.8089730334209,-0.299042390139602
0.808446998605625,-0.29655328457887
0.807899434563384,-0.294054046259368
0.807330464317106,-0.291544716919487
0.806740210889715,-0.289025338297624
0.806128797304139,-0.28649595213217
0.805496346583304,-0.283956600161521
0.804842981750135,-0.281407324124069
0.804168825827559,-0.27884816575821
0.803474001838502,-0.276279166802336
0.802758632805892,-0.273700368994841
0.802022841752652,-0.271111814074119
0.801266751701711,-0.268513543778565
0.800490485675994,-0.265905599846572
0.799694166698427,-0.263288024016533
0.798877917791937,-0.260660858026843
0.79804186197945,-0.258024143615895
0.797186122283892,-0.255377922522084
0.796310821728189,-0.252722236483802
0.795416083335269,-0.250057127239445
0.794502030128056,-0.247382636527405
0.793568785129477,-0.244698806086076
0.792616471362459,-0.242005677653854
0.791645211849927,-0.23930329296913
0.790655129614808,-0.236591693770299
0.789646347680028,-0.233870921795756
0.788618989068514,-0.231141018783893
0.787573176803191,-0.228402026473104
0.786509033906986,-0.225653986601784
0.785426683402825,-0.222896940908327
0.784326248313635,-0.220130931131125
0.783207851662341,-0.217355999008573
0.78207161647187,-0.214572186279065
0.780917665765147,-0.211779534680994
0.7797461225651,-0.208978085952755
0.778557109894655,-0.206167881832741
0.777350750776738,-0.203348964059346
0.776127168234274,-0.200521374370964
0.774886485290191,-0.197685154505988
0.773628824967414,-0.194840346202813
0.77235431028887,-0.191986991199833
0.771063064277485,-0.18912513123544
0.769755209956185,-0.18625480804803
0.768430870347897,-0.183376063375996
0.767090168475546,-0.180488938957731
0.765733227362059,-0.17759347653163
0.764360170030363,-0.174689717836086
0.762971119503383,-0.171777704609493
0.761566198804045,-0.168857478590245
0.760145530955277,-0.165929081516736
0.758709238980003,-0.16299255512736
0.757257445901151,-0.16004794116051
0.755790274741647,-0.157095281354581
0.754307848524417,-0.154134617447966
0.752810290272386,-0.151165991179059
0.751297723008482,-0.148189444286253
0.749770269755631,-0.145205018507944
0.748228053536758,-0.142212755582523
0.746671197374791,-0.139212697248387
0.745099824292655,-0.136204885243927
0.743514057313276,-0.133189361307538
0.741914019459582,-0.130166167177614
0.740299833754497,-0.127135344592549
0.738671623220949,-0.124096935290736
0.737029510881863,-0.12105098101057
0.735373619760166,-0.117997523490444
0.733704072878784,-0.114936604468751
0.732020993260643,-0.111868265683887
0.73032450392867,-0.108792548874244
0.728614727905791,-0.105709495778217
0.726891788214931,-0.102619148134199
0.725155807879018,-0.0995215476805838
0.723406909920977,-0.0964167361557659
0.721645217363735,-0.0933047552981387
0.719870853230218,-0.0901856468460963
0.718083940543352,-0.0870594525380322
0.716284602326064,-0.0839262141123405
0.714472961601279,-0.0807859733074148
0.712649141391924,-0.0776387718616493
0.710813264720925,-0.0744846515134373
0.708965454611209,-0.0713236540011732
0.707105834085701,-0.0681558210632503
0.705234526167328,-0.0649811944380629
0.703351653879017,-0.0617998158640044
0.701457340243693,-0.058611727079469
0.699551708284282,-0.0554169698228503
0.697634881023711,-0.0522155858325424
0.695706981484906,-0.0490076168469387
0.693768132690794,-0.0457931046044334
0.6918184576643,-0.0425720908434202
0.689858079428351,-0.039344617302293
0.687887121005873,-0.0361107257194454
0.685905705419793,-0.0328704578332715
0.683913955693036,-0.029623855382165
0.681911994848529,-0.0263709601045199
0.679899945909197,-0.0231118137387297
0.677877931897969,-0.0198464580231885
0.675846075837768,-0.01657493469629
0.673804500751523,-0.0132972854964283
0.671753329662158,-0.0100135521619968
0.6696926855926,-0.00672377643138966
0.667622691565776,-0.00342800004300052
0.665543470604612,-0.000126264735223411
0.663455145732034,0.00318138775354809
0.661357839970968,0.00649491568491981
0.65925167634434,0.00981427732049833
0.657136777875078,0.0131394309218895
0.655013267586106,0.0164703347506997
0.652881268500351,0.0198069470685348
0.650740903640739,0.0231492261370014
0.648592296030198,0.0264971302177052
0.646435568691652,0.0298506175722528
0.644270844648028,0.03320964646225
0.642098246922253,0.0365741751493033
0.639917898537252,0.0399441618950185
0.637729922515952,0.0433195649610022
0.63553444188128,0.0467003426088601
0.63333157965616,0.0500864531001989
0.631121458863521,0.0534778546966243
0.628904202526287,0.0568745056597427
0.626679933667385,0.0602763642511601
0.624448775309741,0.063683388732483
0.622210850476282,0.0670955373653171
0.619966282189934,0.0705127684112691
0.617715193473623,0.0739350401319446
0.615457707350275,0.0773623107889503
0.613193946842817,0.080794538643892
0.610924034974174,0.0842316819583761
0.608648094767274,0.0876736989940085
0.606366249245041,0.0911205480123957
0.604078621430403,0.0945721872751436
0.601785334346286,0.0980285750438586
0.599486511015616,0.101489669580147
0.597182274461319,0.104955429145614
0.594872747706322,0.108425812001867
0.59255805377355,0.111900776410511
0.59023831568593,0.115380280633153
0.587913656466389,0.1188642829314
0.585584199137852,0.122352741566856
0.583250066723245,0.125845614801129
0.580911382245496,0.129342860895824
0.578568268727529,0.132844438112548
0.576220849192272,0.136350304712907
0.57386924666265,0.139860418958506
0.571513584161591,0.143374739110953
0.569153984712019,0.146893223431853
0.566790571336862,0.150415830182813
0.564423467059046,0.153942517625438
0.562052794901496,0.157473244021336
0.55967867788714,0.161007967632111
0.557301239038902,0.16454664671937
0.554920601379711,0.16808923954472
0.552536887932491,0.171635704369766
0.550150221720169,0.175185999456115
0.547760725765672,0.178740083065373
0.545368523091924,0.182297913459145
0.542973736721854,0.185859448899039
0.540576489678387,0.189424647646661
0.538176904984449,0.192993467963615
0.535775105662966,0.19656586811151
0.533371214736866,0.20014180635195
0.530965355229073,0.203721240946542
0.528557650162515,0.207304130156893
0.526148222560117,0.210890432244608
0.523737195444805,0.214480105471293
0.521324691839507,0.218073108098556
0.518910834767148,0.221669398388
0.516495747250654,0.225268934601235
0.514079552312952,0.228871674999864
0.511662372976968,0.232477577845494
0.509244332265628,0.236086601399732
0.506825553201858,0.239698703924184
0.504406158808585,0.243313843680456
0.501986272108735,0.246931978930154
0.499566016125234,0.250553067934884
0.497145513881009,0.254177068956252
0.494724888398985,0.257803940255865
0.492304262702088,0.261433640095329
0.489883759813246,0.265066126736249
0.487463502755385,0.268701358440233
0.48504361455143,0.272339293468886
0.482624218224307,0.275979890083814
0.480205436796944,0.279623106546624
0.477787393292266,0.283268901118922
0.4753702107332,0.286917232062313
0.472954012142671,0.290568057638404
0.470538920543606,0.294221336108802
0.468125058958932,0.297877025735112
0.465712550411574,0.301535084778941
0.463301517924459,0.305195471501895
0.463301517924459,0.305195471501895
0.460889156185419,0.308817474417987
0.45847264518133,0.312360663528587
0.45605208588368,0.315825419326333
0.453627579263962,0.319212122303863
0.451199226293664,0.322521152953818
0.448767127944277,0.325752891768833
0.446331385187291,0.328907719241549
0.443892098994197,0.331986015864604
0.441449370336484,0.334988162130637
0.439003300185642,0.337914538532285
0.436553989513161,0.340765525562188
0.434101539290533,0.343541503712984
0.431646050489247,0.346242853477311
0.429187624080793,0.348869955347808
0.426726361036661,0.351423189817114
0.424262362328341,0.353902937377867
0.421795728927324,0.356309578522706
0.4193265618051,0.358643493744269
0.416854961933158,0.360905063535194
0.41438103028299,0.363094668388121
0.411904867826085,0.365212688795688
0.409426575533933,0.367259505250533
0.406946254378024,0.369235498245295
0.40446400532985,0.371141048272612
0.401979929360899,0.372976535825123
0.399494127442662,0.374742341395467
0.397006700546629,0.376438845476281
0.39451774964429,0.378066428560205
0.392027375707136,0.379625471139877
0.389535679706656,0.381116353707936
0.387042762614341,0.38253945675702
0.384548725401681,0.383895160779767
0.382053669040166,0.385183846268817
0.379557694501286,0.386405893716807
0.377060902756531,0.387561683616376
0.374563394777392,0.388651596460164
0.372065271535358,0.389676012740807
0.36956663400192,0.390635312950946
0.367067583148568,0.391529877583217
0.364568219946792,0.392360087130261
0.362068645368082,0.393126322084715
0.359568960383929,0.393828962939218
0.357069265965822,0.394468390186409
0.354569663085252,0.395044984318926
0.352070252713709,0.395559125829407
0.349571135822682,0.396011195210491
0.347072413383663,0.396401572954817
0.344574186368141,0.396730639555023
0.342076555747607,0.396998775503748
0.33957962249355,0.39720636129363
0.337083487577461,0.397353777417308
0.33458825197083,0.39744140436742
0.332094016645146,0.397469622636605
0.329600882571901,0.397438812717501
0.327108950722585,0.397349355102747
0.324618322068686,0.397201630284982
0.322129097581697,0.396996018756844
0.319641378233106,0.396732901010971
0.317155264994404,0.396412657540002
0.314670858837082,0.396035668836576
0.312188260732629,0.39560231539333
0.309707571652535,0.395112977702905
0.30722889256829,0.394568036257937
0.304752324451385,0.393967871551066
0.302277968273311,0.393312864074931
0.299805925005556,0.392603394322169
0.297336295619611,0.391839842785419
0.294869181086967,0.391022589957321
0.292404682379113,0.390152016330511
0.28994290046754,0.38922850239763
0.287483936323737,0.388252428651315
0.285027890919196,0.387224175584205
0.282574865225406,0.386144123688938
0.280124960213857,0.385012653458154
0.277678276856039,0.383830145384489
0.275234916123443,0.382596979960584
0.272794978987558,0.381313537679077
0.270358566419875,0.379980199032606
0.267925779391885,0.378597344513809
0.265496718875076,0.377165354615326
0.26307148584094,0.375684609829795
0.260650181260966,0.374155490649853
0.258232906106645,0.372578377568141
0.255819761349467,0.370953651077295
0.253410847960921,0.369281691669956
0.251006266912499,0.367562879838761
0.248606119175689,0.365797596076349
0.246210505721984,0.363986220875359
0.243819527522871,0.362129134728429
0.241433285549843,0.360226718128197
0.239051880774388,0.358279351567302
0.236675414167997,0.356287415538383
0.23430398670216,0.354251290534077
0.231937699348368,0.352171357047025
0.22957665307811,0.350047995569864
0.227220948862876,0.347881586595232
0.224870687674158,0.345672510615769
0.222525970483444,0.343421148124113
0.220186898262225,0.341127879612901
0.217853571981992,0.338793085574774
0.215526092614233,0.33641714650237
0.213204561130441,0.334000442888326
0.210889078502104,0.331543355225281
0.208579745700712,0.329046264005875
0.206276663697757,0.326509549722745
0.203979933464728,0.32393359286853
0.201689655973115,0.321318773935869
0.199405932194408,0.3186654734174
0.197128863100098,0.315974071805761
0.194858549661675,0.313244949593592
0.192595092850628,0.31047848727353
0.190338593638449,0.307675065338215
0.188089152996627,0.304835064280285
0.185846871896652,0.301958864592377
0.183611851310014,0.299046846767132
0.181384192208205,0.296099391297187
0.179163995562713,0.293116878675181
0.176951362345029,0.290099689393752
0.174746393526642,0.28704820394554
0.172549190079045,0.283962802823182
0.170359852973725,0.280843866519317
0.168178483182174,0.277691775526583
0.166005181675882,0.27450691033762
0.163840049426339,0.271289651445066
0.161683187405035,0.268040379341558
0.159534696583459,0.264759474519736
0.157394677933103,0.261447317472239
0.155263232425457,0.258104288691704
0.15314046103201,0.254730768670771
0.151026464724253,0.251327137902077
0.148921344473676,0.247893776878262
0.146825201251769,0.244431066091964
0.144738136030022,0.240939386035821
0.142660249779925,0.237419117202472
0.140591643472969,0.233870640084556
0.138532418080644,0.230294335174711
0.136482674574439,0.226690582965575
0.134442513925846,0.223059763949787
0.132412037106353,0.219402258619986
0.130391345087452,0.21571844746881
0.128380538840633,0.212008710988898
0.126379719337384,0.208273429672888
0.124388987549198,0.204512984013419
0.122408444447563,0.20072775450313
0.120438191003971,0.196918121634658
0.11847832818991,0.193084465900642
0.116528956976872,0.189227167793721
0.114590178336347,0.185346607806534
0.112662093239824,0.181443166431719
0.110744802658794,0.177517224161914
0.108838407564747,0.173569161489759
0.106943008929173,0.169599358907891
0.105058707723562,0.165608196908948
0.103185604919405,0.161596055985571
0.101323801488191,0.157563316630397
0.0994733984014109,0.153510359336064
0.0976344966305547,0.149437564595212
0.0958071971471125,0.145345312900478
0.0939916009225744,0.141233984744502
0.0921878089284307,0.137103960619922
0.0903959221361715,0.132955621019376
0.0886160415172868,0.128789346435502
0.0868482680432669,0.12460551736094
0.085092702685602,0.120404514288329
0.0833494464157821,0.116186717710305
0.0816186002052975,0.111952508119509
0.0799002650256382,0.107702266008578
0.0781945418482945,0.103436371870152
0.0765015316447565,0.0991552061968678
0.0748213353865143,0.0948591494813649
0.0731540540450581,0.0905485822162816
0.071499788591878,0.0862238848942568
0.0698586399984643,0.0818854380079286
0.0682307092363069,0.0775336220499356
0.0666160972768961,0.0731688175129165
0.0650149050917222,0.0687914048895098
0.0634272336522752,0.064401764672354
0.0618531839300451,0.0600002773540874
0.0602928568965223,0.0555873234273489
0.0587463535231968,0.051163283384777
0.0572137747815589,0.04672853771901
0.0556952216430986,0.0422834669226864
0.0541907950793061,0.0378284514884451
0.0527005960616717,0.0333638719089244
0.0512247255616853,0.0288901086767628
0.0497632845508371,0.0244075422845988
0.0483163740006175,0.0199165532250709
0.0468840948825164,0.0154175219908181
0.045466548168024,0.0109108290744784
0.0440638348286305,0.00639685496869047
0.042676055835826,0.00187598016609289
0.0413033121611007,-0.0026514148406758
0.0399457047759448,-0.00718494955897703
0.0386033346518483,-0.0117242434961724
0.0372763027603014,-0.0162689161596233
0.0359647100727944,-0.0208185870566912
0.0346686575608174,-0.0253728756947374
0.0333882461958603,-0.0299314015811237
0.0321235769494136,-0.0344937842232114
0.0308747507929672,-0.0390596431283619
0.0296418686980114,-0.0436285978039369
0.0284250316360363,-0.0482002677572974
0.0272243405785321,-0.0527742724958054
0.0260398964969889,-0.0573502315268219
0.0248718003628968,-0.0619277643577088
0.0237201531477461,-0.0665064904958273
0.0225850558230268,-0.071086029448539
0.0214666093602291,-0.0756660007232053
0.0203649147308432,-0.0802460238271877
0.0192800729063592,-0.0848257182678474
0.0182121848582673,-0.0894047035525464
0.0171613515580576,-0.0939825991886456
0.0161276739772203,-0.098559024683507
0.0151112530872456,-0.103133599544492
0.0141121898596234,-0.107705943278961
0.0131305852658442,-0.112275675394277
0.0121665402773979,-0.116842415397801
0.0112201558657748,-0.121405782796894
0.0102915330024649,-0.125965397098917
0.00938077265895853,-0.130520877811233
0.00848797580674571,-0.135071844441203
0.00761324341731666,-0.139617916496188
0.00675667646216147,-0.144158713483549
0.00591837591277038,-0.148693854910648
0.00509844274063345,-0.153222960284848
0.0042969779172409,-0.157745649113507
0.00351408241408283,-0.16226154090399
0.00274985720264944,-0.166770255163656
0.00200440325443085,-0.171271411399868
0.00127782154091723,-0.175764629119987
0.0005702130335987,-0.180249527831374
-0.000118321296034517,-0.184725727041391
-0.000787680476492348,-0.189192846257399
-0.0014377635362846,-0.19365050498676
-0.00206846950392115,-0.198098322736835
-0.00267969740791179,-0.202535919014986
-0.00327134627676641,-0.206962913328574
-0.00384331513899485,-0.211378925184961
-0.00439550302310698,-0.215783574091508
-0.0049278089576126,-0.220176479555576
-0.00544013197102161,-0.224557261084527
-0.00593237109184381,-0.228925538185723
-0.0064044253485891,-0.233280930366525
-0.00685619376976727,-0.237623057134294
-0.00728757538388821,-0.241951537996392
-0.00769846921946174,-0.24626599246018
-0.00808877430499775,-0.250566040033021
-0.00845838966900602,-0.254851300222274
-0.00880721433999647,-0.259121392535302
-0.0091351473464789,-0.263375936479467
-0.00944208771696319,-0.267614551562129
-0.00972793447995916,-0.27183685729065
-0.00999258666397665,-0.276042473172392
-0.0102359432975256,-0.280231018714717
-0.0104579034091157,-0.284402113424984
-0.0106583660272569,-0.288555376810557
-0.0108372301804591,-0.292690428378796
-0.010994394897232,-0.296806887637063
-0.0111297592060855,-0.30090437409272
-0.0112432221355296,-0.304982507253127
-0.0113346827140739,-0.309040906625647
-0.0114040399702284,-0.313079191717641
-0.011451192932503,-0.31709698203647
-0.0114760406294074,-0.321093897089496
-0.0114784820894515,-0.32506955638408
-0.0114584163411452,-0.329023579427584
-0.0114157424129983,-0.332955585727369
-0.0113503593335206,-0.336865194790796
-0.0112621661312221,-0.340752026125228
-0.0111510618346125,-0.344615699238025
-0.0110169454722017,-0.34845583363655
-0.0108597160724996,-0.352272048828162
-0.010679272664016,-0.356063964320225
-0.0104755142752607,-0.359831199620099
-0.0102483399347436,-0.363573374235146
-0.00999764867097454,-0.367290107672728
-0.00972333951246337,-0.370981019440205
-0.00942531148771996,-0.37464572904494
-0.0091034636252541,-0.378283855994293
-0.00875769495357569,-0.381895019795627
-0.00838790450119458,-0.385478839956302
-0.00799399129662057,-0.389034935983681
-0.00757585436836354,-0.392562927385124
-0.00713339274493337,-0.396062433667994
-0.00666650545483984,-0.399533074339651
-0.00617509152659283,-0.402974468907457
-0.0056590499887022,-0.406386236878773
-0.0051182798696778,-0.409767997760962
-0.00455268019802944,-0.413119371061384
-0.003962150002267,-0.4164399762874
-0.00334658831090031,-0.419729432946374
-0.00270589415243927,-0.422987360545665
-0.00203996655539364,-0.426213378592635
-0.00134870454827336,-0.429407106594646
-0.00063200715958818,-0.43256816405906
0.000110226582151964,-0.435696170493237
0.000878097648437281,-0.43879074540454
0.00167170701075789,-0.441851508300329
0.00249115564060397,-0.444878078687966
0.00333654450946561,-0.447870076074813
0.00420797458883309,-0.45082711996823
0.00510554685019641,-0.453748829875581
0.00602936226504584,-0.456634825304225
0.00697952180487145,-0.459484725761525
0.00795612644116346,-0.462298150754842
0.00895927714541199,-0.465074719791537
0.00998907488910719,-0.467814052378972
0.0110456206437392,-0.470515768024508
0.0121290153807982,-0.473179486235508
0.0132393600717743,-0.475804826519331
0.0143767556881577,-0.47839140838334
0.0155413032014385,-0.480938851334897
0.016733103583107,-0.483446774881362
0.0179522578046531,-0.485914798530097
0.0191988668375672,-0.488342541788464
0.0204730316533392,-0.490729624163823
0.0217748532234596,-0.493075665163538
0.0231044325194181,-0.495380284294968
0.0244618705127053,-0.497643101065476
0.025847268174811,-0.499863734982423
0.0272607264772257,-0.50204180555317
0.0287023463914392,-0.504176932285079
0.0301722288889418,-0.506268734685511
0.0316704749412237,-0.508316832261829
0.033197185519775,-0.510320844521392
0.0347524615960859,-0.512280390971564
0.0363364041416465,-0.514195091119704
0.0379491141279469,-0.516064564473175
0.0395906925264774,-0.517888430539339
0.041261240308728,-0.519666308825555
0.042960858446189,-0.521397818839187
0.0446896479103504,-0.523082580087596
0.0464477096727025,-0.524720212078142
0.0482351447047353,-0.526310334318189
0.0500520539779391,-0.527852566315095
0.0518985384638039,-0.529346527576225
0.05377469913382,-0.530791837608938
0.0556806369594775,-0.532188115920597
0.0576164529122665,-0.533534982018562
0.0595822479636772,-0.534832055410196
0.0615781230851998,-0.536078955602859
0.0636041792483243,-0.537275302103914
0.065660517424541,-0.538420714420722
0.06774723858534,-0.539514812060643
0.0698644437022115,-0.54055721453104
0.0720122337466455,-0.541547541339275
0.0741907096901323,-0.542485411992707
0.076399972504162,-0.5433704459987
0.0786401231602248,-0.544202262864614
0.0809112626298107,-0.544980482097812
0.0832134918844102,-0.545704723205654
0.085546911895513,-0.546374605695501
0.0879116236346096,-0.546989749074716
0.0903077280731899,-0.54754977285066
0.0927353261827442,-0.548054296530694
0.0951945189347626,-0.54850293962218
0.0976854073007354,-0.548895321632479
0.100208092252153,-0.549231062068953
0.102762674760504,-0.549509780438963
0.105349255797281,-0.54973109624987
0.107967936333972,-0.549894629009037
0.110618817342068,-0.549999998223824
0.11330199979306,-0.550046823401594
0.116017584658437,-0.550034724049706
0.118765672909689,-0.549963319675524
0.121546365518307,-0.549832229786408
0.124359763455781,-0.54964107388972
0.127205967693601,-0.549389471492822
0.130085079203257,-0.549077042103074
0.132997198956239,-0.548703405227839
0.135942427924038,-0.548268180374477
0.138920867078143,-0.547770987050351
0.141932617390045,-0.547211444762821
0.144977779831233,-0.54658917301925
0.148056455373199,-0.545903791326998
0.151168744987432,-0.545154919193427
0.154314749645422,-0.544342176125899
0.15749457031866,-0.543465181631775
0.160708307978635,-0.542523555218416
0.163956063596838,-0.541516916393184
0.167237938144759,-0.540444884663441
0.170554032593888,-0.539307079536548
0.173904447915716,-0.538103120519866
0.177289285081731,-0.536832627120757
0.180708645063426,-0.535495218846582
0.184162628832288,-0.534090515204703
0.18765133735981,-0.532618135702482
0.191174871617481,-0.531077699847279
0.194733332576791,-0.529468827146456
0.19832682120923,-0.527791137107375
0.201955438486289,-0.526044249237396
0.205619285379457,-0.524227783043883
0.209318462860225,-0.522341358034196
0.213053071900083,-0.520384593715696
0.216823213470521,-0.518357109595745
0.220628988543029,-0.516258525181704
0.224470498089097,-0.514088459980936
0.228347843080216,-0.511846533500801
0.232261124487876,-0.509532365248661
