0.482996986375591,0.328388867759095
0.314309784098295,-0.0151348638147566
0.485308230693053,0.803717246918331
-0.0224241907124803,0.334488492363
-0.530156612118014,-0.13474026219233
-0.869370898150524,0.865858491947121
0.181304549220739,-0.463062362077966
1.231979996592,-1.79198321610305
0.825024986245063,0.751265331920139
0.795929038276995,-0.597156005045292
