0.0172446130694996,0.923389713358465
0.0164911054650717,0.918783718308816
0.0157164582015813,0.914155662837391
0.0149207881270937,0.909505750486818
0.014104212089674,0.904834184799725
0.0132668469373875,0.900141169318742
0.0124088095182994,0.895426907586496
0.0115302166804749,0.890691603145618
0.0106311852719792,0.885935459538736
0.00971183214087749,0.881158680308478
0.008772274135235,0.876361468997472
0.00781262810311694,0.871544029148349
0.00683301089258852,0.866706564303736
0.00583353935171493,0.861849278006264
0.00481433032856139,0.856972373798559
0.00377550067119311,0.85207605522325
0.00271716722767529,0.847160525822968
0.00163944684607315,0.842225989140341
0.00054245637445189,0.837272648717996
-0.000573687339123286,0.832300708098563
-0.00170886744658717,0.827310370824671
-0.00286296709987453,0.822301840438949
-0.0040358694509202,0.817275320484024
-0.00522745765165894,0.812231014502527
-0.00643761485402555,0.807169126037085
-0.00766622420995483,0.802089858630328
-0.00891316887138155,0.796993415824884
-0.0101783319902405,0.791880001163381
-0.0114615967184666,0.78674981818845
-0.0127628462079944,0.781603070442718
-0.0140819636107589,0.776439961468815
-0.0154188320786948,0.771260694809368
-0.0167733347637369,0.766065474007007
-0.01814535481782,0.76085450260436
-0.0195347753928788,0.755627984144057
-0.0209414796408483,0.750386122168726
-0.0223653507136632,0.745129120220995
-0.0238062717632582,0.739857181843494
-0.0252641259415681,0.734570510578852
-0.0267387964005279,0.729269309969696
-0.0282301662920721,0.723953783558656
-0.0297381187681357,0.71862413488836
-0.0312625369806535,0.713280567501438
-0.0328033040815601,0.707923284940517
-0.0343603032227905,0.702552490748228
-0.0359334175562794,0.697168388467198
-0.0375225302339615,0.691771181640056
-0.0391275244077718,0.686361073809432
-0.0407482832296449,0.680938268517953
-0.0423846898515157,0.675502969308248
-0.044036627425319,0.670055379722947
-0.0457039791029895,0.664595703304678
-0.0473866280364621,0.65912414359607
-0.0490844573776715,0.653640904139751
-0.0507973502785525,0.648146188478351
-0.05252518989104,0.642640200154497
-0.0542678593670687,0.63712314271082
-0.0560252418585733,0.631595219689947
-0.0577972205174888,0.626056634634507
-0.0595836784957499,0.620507591087129
-0.0613844989452914,0.614948292590443
-0.063199565018048,0.609378942687075
-0.0650287598659546,0.603799744919656
-0.066871966640946,0.598210902830814
-0.0687290684949569,0.592612619963178
-0.0705999485799222,0.587005099859377
-0.0724844900477765,0.581388546062039
-0.0743825760504549,0.575763162113793
-0.0762940897398919,0.570129151557268
-0.0782189142680225,0.564486717935092
-0.0801569327867813,0.558836064789895
-0.0821080284481033,0.553177395664304
-0.0840720844039232,0.54751091410095
-0.0860489838061757,0.54183682364246
-0.0880386098067957,0.536155327831464
-0.0900408455577179,0.530466630210589
-0.0920555742108772,0.524770934322466
-0.0940826789182084,0.519068443709722
-0.0961220428316462,0.513359361914987
-0.0981735491031255,0.507643892480888
-0.100237080884581,0.501922238950056
-0.102312521327947,0.496194604865119
-0.10439975358516,0.490461193768704
-0.106498660808153,0.484722209203441
-0.108609126148861,0.47897785471196
-0.110731032759219,0.473228333836888
-0.112864263791163,0.467473850120855
-0.115008702396626,0.461714607106488
-0.117164231727544,0.455950808336418
-0.119330734935851,0.450182657353273
-0.121508095173482,0.44441035769968
-0.123696195592372,0.43863411291827
-0.125894919344456,0.432854126551671
-0.128104149581669,0.427070602142511
-0.130323769455944,0.42128374323342
-0.132553662119218,0.415493753367026
-0.134793710723425,0.409700836085958
-0.1370437984205,0.403905194932845
-0.139303808362376,0.398107033450315
-0.141573623700991,0.392306555180997
-0.143853127588277,0.38650396366752
-0.14614220317617,0.380699462452513
-0.148440733616605,0.374893255078604
-0.150748602061516,0.369085545088423
-0.153065691662838,0.363276536024597
-0.155391885572507,0.357466431429756
-0.157727066942456,0.351655434846529
-0.160071118924621,0.345843749817543
-0.162423924670936,0.340031579885429
-0.164785367333337,0.334219128592815
-0.167155330063757,0.328406599482329
-0.169533696014133,0.3225941960966
-0.171920348336397,0.316782121978257
-0.174315170182487,0.310970580669929
-0.176718044704335,0.305159775714244
-0.179128855053877,0.299349910653831
-0.181547484383048,0.29354118903132
-0.183973815843783,0.287733814389338
-0.186407732588016,0.281927990270515
-0.188849117767682,0.276123920217479
-0.191297854534715,0.270321807772859
-0.193753826041052,0.264521856479284
-0.196216915438626,0.258724269879382
-0.198687005879372,0.252929251515782
-0.201163980515226,0.247137004931114
-0.203647722498121,0.241347733668005
-0.206138114979993,0.235561641269085
-0.208635041112776,0.229778931276982
-0.211138384048406,0.223999807234325
-0.213648026938817,0.218224472683743
-0.216163852935943,0.212453131167864
-0.21868574519172,0.206685986229317
-0.221213586858083,0.200923241410732
-0.223747261086966,0.195165100254736
-0.226286651030303,0.189411766303959
-0.228831639840031,0.183663443101029
-0.231382110668083,0.177920334188576
-0.233937946666394,0.172182643109227
-0.2364990309869,0.166450573405611
-0.239065246781534,0.160724328620358
-0.241636477202233,0.155004112296096
-0.244212605400929,0.149290127975454
-0.24679351452956,0.14358257920106
-0.249379087740058,0.137881669515544
-0.251969208184359,0.132187602461534
-0.254563759014398,0.126500581581658
-0.257162623382109,0.120820810418546
-0.259765684439428,0.115148492514827
-0.262372825338289,0.109483831413128
-0.264983929230626,0.10382703065608
-0.267598879268376,0.0981782937863096
-0.270217558603471,0.0925378243464468
-0.272839850387848,0.0869058258791202
-0.275465637773442,0.0812825019269585
-0.278094803912185,0.0756680560325902
-0.280727231956015,0.0700626917386442
-0.283362805056865,0.0644666125877496
-0.28600140636667,0.0588800221225348
-0.288642919037365,0.0533031238856284
-0.291287226220885,0.0477361214196594
-0.293934211069164,0.0421792182672567
-0.296583756734138,0.0366326179710487
-0.299235746367741,0.0310965240736643
-0.301890063121908,0.0255711401177323
-0.304546590148574,0.0200566696458815
-0.307205210599673,0.0145533162007407
-0.309865807627141,0.00906128332493827
-0.312528264382912,0.00358077456110328
-0.315192464018921,-0.00188800654813548
-0.317858289687102,-0.00734485646014929
-0.320525624539391,-0.0127895716323096
-0.323194351727722,-0.0182219485219875
-0.32586435440403,-0.0236417835865542
-0.328535515720251,-0.029048873283381
-0.331207718828318,-0.0344430140698392
-0.333880846880166,-0.0398240024032999
-0.33655478302773,-0.0451916347411344
-0.339229410422946,-0.050545707540714
-0.341904612217747,-0.0558860172594101
-0.34458027156407,-0.0612123603545937
-0.347256271613847,-0.066524533283636
-0.349932495519015,-0.0718223325039084
-0.352608826431508,-0.0771055544727823
-0.35528514750326,-0.0823739956476287
-0.357961341886207,-0.0876274524858188
-0.360637292732284,-0.092865721444724
-0.363312883193425,-0.0980885989817156
-0.365987996421564,-0.103295881554165
-0.368662515568638,-0.108487365619443
-0.37133632378658,-0.11366284763492
-0.374009304227325,-0.11882212405797
-0.376681340042808,-0.123964991345962
-0.379352314384965,-0.129091245956267
-0.382022110405729,-0.134200684346258
-0.384690611257036,-0.139293102973305
-0.38735770009082,-0.144368298294779
-0.390023260059016,-0.149426066768052
-0.392687174313559,-0.154466204850495
-0.395349326006383,-0.15948850899948
-0.398009598289424,-0.164492775672377
-0.400667874314617,-0.169478801326558
-0.403324037233895,-0.174446382419394
-0.405977970199194,-0.179395315408255
-0.408629556362449,-0.184325396750515
-0.411278678875595,-0.189236422903543
-0.413925220890565,-0.194128190324712
-0.416569065559296,-0.199000495471391
-0.419210096033721,-0.203853134800953
-0.421848195465776,-0.208685904770769
-0.424483247007396,-0.21349860183821
-0.427115133810514,-0.218291022460647
-0.429743739027067,-0.223062963095451
-0.432368945808988,-0.227814220199994
-0.434990637308213,-0.232544590231648
-0.437608696676676,-0.237253869647782
-0.440223007066312,-0.241941854905769
-0.442833451629057,-0.246608342462979
-0.445439913516844,-0.251253128776785
-0.448042275881608,-0.255876010304557
-0.450640421875285,-0.260476783503666
-0.453234234649809,-0.265055244831484
-0.455823597357115,-0.269611190745382
-0.458408393149138,-0.274144417702731
-0.460988505177812,-0.278654722160903
-0.463563816595072,-0.283141900577268
-0.466134210552854,-0.287605749409198
-0.468699570203091,-0.292046065114064
-0.471259778697719,-0.296462644149238
-0.473814719188672,-0.300855282972091
-0.476364274827886,-0.305223778039993
-0.478908328767294,-0.309567925810317
-0.481446764158833,-0.313887522740433
-0.483979464154436,-0.318182365287712
-0.486506311906038,-0.322452249909527
-0.489027190565575,-0.326696973063247
-0.49154198328498,-0.330916331206246
-0.49405057321619,-0.335110120795892
-0.496552843511138,-0.339278138289559
-0.499048677321759,-0.343420180144617
-0.501537957799989,-0.347536042818437
-0.504020568097761,-0.351625522768391
-0.506496391367011,-0.35568841645185
-0.508965310759674,-0.359724520326185
-0.511427209427684,-0.363733630848767
-0.513881970522976,-0.367715544476968
-0.516329477197485,-0.371670057668159
-0.518769612603146,-0.375596966879711
-0.521202259891893,-0.379496068568995
-0.523627302215661,-0.383367159193383
-0.526044622726386,-0.387210035210246
-0.528454104576001,-0.391024493076955
-0.530855630916443,-0.394810329250881
-0.533249084899644,-0.398567340189396
-0.535634349677541,-0.402295322349871
-0.538011308402068,-0.405994072189677
-0.540379844225159,-0.409663386166185
-0.542739840298751,-0.413303060736767
-0.545091179774776,-0.416912892358793
-0.547433745805171,-0.420492677489636
-0.54976742154187,-0.424042212586666
-0.552092090136808,-0.427561294107255
-0.554407634741919,-0.431049718508773
-0.556713938509138,-0.434507282248593
-0.559010884590401,-0.437933781784085
-0.561298356137642,-0.44132901357262
-0.563576236302796,-0.444692774071571
-0.565844408237796,-0.448024859738307
-0.56810275509458,-0.451325067030201
-0.57035116002508,-0.454593192404623
-0.572589506181233,-0.457829032318945
-0.574817676714972,-0.461032383230538
-0.577035554778232,-0.464203041596773
-0.579243023522949,-0.467340803875022
-0.581439966101057,-0.470445466522656
-0.583626265664491,-0.473516825997046
-0.585801805365186,-0.476554678755563
-0.587966468355075,-0.479558821255578
-0.590120137786096,-0.482529049954464
-0.592262696810181,-0.48546516130959
-0.594394028579266,-0.488366951778329
-0.596514016245286,-0.491234217818051
-0.598622542960175,-0.494066755886128
-0.600719491875868,-0.496864362439931
-0.6028047461443,-0.499626833936831
-0.604878188917407,-0.5023539668342
-0.606939703347121,-0.505045557589409
-0.60898917258538,-0.507701402659828
-0.611026479784116,-0.51032129850283
-0.613051508095265,-0.512905041575785
-0.615064140670762,-0.515452428336065
-0.617064260662541,-0.517963255241041
-0.619051751222538,-0.520437318748085
-0.621026495502687,-0.522874415314566
-0.622988376654923,-0.525274341397858
-0.624937277831181,-0.52763689345533
-0.626873082183395,-0.529961867944355
-0.628795672863501,-0.532249061322303
-0.630704933023432,-0.534498270046546
-0.632600745815124,-0.536709290574455
-0.634482994390513,-0.538881919363401
-0.636351561901531,-0.541015952870756
-0.638206331500115,-0.54311118755389
-0.640047186338199,-0.545167419870175
-0.641874009567718,-0.547184446276983
-0.643686684340606,-0.549162063231683
-0.645485093808799,-0.551100067191649
-0.647269121124231,-0.552998254614251
-0.649038649438837,-0.554856421956859
-0.650793561904552,-0.556674365676846
-0.65253374167331,-0.558451882231583
-0.654259071897047,-0.560188768078441
-0.655969435727697,-0.561884819674791
-0.657664716317195,-0.563539833478004
-0.659344796817475,-0.565153605945452
-0.661009560380473,-0.566725933534506
-0.662658890158124,-0.568256612702538
-0.664292669302362,-0.569745439906917
-0.665910780965122,-0.571192211605016
-0.667513108298338,-0.572596724254206
-0.669099534453946,-0.573958774311859
-0.67066994258388,-0.575278158235344
-0.672224215840075,-0.576554672482035
-0.673762237374466,-0.577788113509301
-0.675283890338988,-0.578978277774514
-0.676789057885576,-0.580124961735046
-0.678277623166163,-0.581227961848268
-0.679749469332686,-0.58228707457155
-0.681204479537079,-0.583302096362264
-0.682642536931276,-0.584272823677782
-0.684063524667213,-0.585199052975475
-0.685467325896823,-0.586080580712713
-0.686853823772043,-0.586917203346868
-0.688222901444807,-0.587708717335312
-0.689574442067049,-0.588454919135416
-0.690908328790705,-0.58915560520455
-0.692224444767709,-0.589810572000086
-0.693522673149995,-0.590419615979396
-0.6948028970895,-0.59098253359985
-0.696064999738157,-0.591499121318821
-0.697308864247902,-0.591969175593678
-0.698534373770668,-0.592392492881794
-0.699741411458392,-0.592768869640539
-0.700929860463007,-0.593098102327285
-0.702099603936449,-0.593379987399403
-0.703250525030652,-0.593614321314264
-0.704382506897552,-0.59380090052924
-0.705495432689082,-0.593939521501702
-0.706589185557178,-0.594029980689021
-0.707663648653774,-0.594072074548569
-0.708718705130806,-0.594065599537715
-0.709754238140208,-0.594010352113833
-0.710770130833914,-0.593906128734293
-0.71176626636386,-0.593752725856466
-0.712742527881981,-0.593549939937723
-0.713698798540211,-0.593297567435437
-0.714634961490485,-0.592995404806977
-0.715550899884737,-0.592643248509716
-0.716446496874904,-0.592240895001024
-0.717321635612919,-0.591788140738273
-0.718176199250717,-0.591284782178834
-0.719010070940233,-0.590730615780079
-0.719823133833401,-0.590125437999377
-0.720615271082158,-0.589469045294102
-0.721386365838436,-0.588761234121624
-0.722136301254172,-0.588001800939314
-0.7228649604813,-0.587190542204543
-0.723572226671754,-0.586327254374684
-0.72425798297747,-0.585411733907106
-0.724922112550383,-0.584443777259181
-0.725564498542426,-0.583423180888281
-0.726185024105535,-0.582349741251777
-0.726783572391645,-0.58122325480704
-0.727360026552691,-0.580043518011441
-0.727914269740607,-0.578810327322351
-0.728446185107328,-0.577523479197143
-0.728955655804788,-0.576182770093186
-0.729442564984924,-0.574787996467853
-0.729906795799669,-0.573338954778513
-0.730348231400958,-0.57183544148254
-0.730766754940726,-0.570277253037304
-0.731162249570908,-0.568664185900176
-0.731534598443439,-0.566996036528527
-0.731883684710253,-0.565272601379729
-0.732209391523285,-0.563493676911153
-0.73251160203447,-0.56165905958017
-0.732790199395743,-0.559768545844152
-0.733045066759039,-0.55782193216047
-0.733276087276292,-0.555819014986494
-0.733483144099437,-0.553759590779597
-0.733666120380409,-0.551643455997149
-0.733824899271143,-0.549470407096521
-0.733959363923573,-0.547240240535086
-0.734069397489635,-0.544952752770214
-0.734154883121263,-0.542607740259276
-0.734215703970392,-0.540204999459644
-0.734251743188956,-0.537744326828689
-0.734262883928891,-0.535225518823782
-0.734249009342131,-0.532648371902294
-0.734210002580612,-0.530012682521598
-0.734145746796267,-0.527318247139063
-0.734145746796267,-0.527318247139063
-0.734071688628531,-0.524599690648566
-0.734003307839703,-0.521891760480075
-0.733940537266013,-0.519194436895092
-0.733883309743693,-0.516507700155123
-0.733831558108975,-0.513831530521673
-0.73378521519809,-0.511165908256244
-0.733744213847268,-0.508510813620343
-0.733708486892742,-0.505866226875474
-0.733677967170743,-0.50323212828314
-0.733652587517501,-0.500608498104847
-0.733632280769249,-0.497995316602099
-0.733616979762218,-0.495392564036401
-0.733606617332638,-0.492800220669257
-0.733601126316742,-0.490218266762172
-0.73360043955076,-0.487646682576649
-0.733604489870925,-0.485085448374194
-0.733613210113467,-0.482534544416311
-0.733626533114617,-0.479993950964505
-0.733644391710607,-0.47746364828028
-0.733666718737669,-0.47494361662514
-0.733693447032033,-0.472433836260591
-0.73372450942993,-0.469934287448136
-0.733759838767594,-0.46744495044928
-0.733799367881253,-0.464965805525528
-0.733843029607141,-0.462496832938384
-0.733890756781487,-0.460038012949352
-0.733942482240525,-0.457589325819937
-0.733998138820484,-0.455150751811644
-0.734057659357596,-0.452722271185978
-0.734120976688093,-0.450303864204441
-0.734188023648205,-0.44789551112854
-0.734258733074165,-0.445497192219779
-0.734333037802203,-0.443108887739661
-0.734410870668551,-0.440730577949692
-0.73449216450944,-0.438362243111376
-0.734576852161101,-0.436003863486218
-0.734664866459767,-0.433655419335722
-0.734756140241667,-0.431316890921393
-0.734850606343033,-0.428988258504734
-0.734948197600098,-0.426669502347251
-0.735048846849091,-0.424360602710449
-0.735152486926245,-0.42206153985583
-0.73525905066779,-0.419772294044901
-0.735368470909959,-0.417492845539166
-0.735480680488982,-0.415223174600128
-0.73559561224109,-0.412963261489294
-0.735713199002516,-0.410713086468166
-0.73583337360949,-0.40847262979825
-0.735956068898243,-0.40624187174105
-0.736081217705008,-0.40402079255807
-0.736208752866014,-0.401809372510816
-0.736338607217495,-0.399607591860791
-0.73647071359568,-0.397415430869501
-0.736605004836801,-0.395232869798449
-0.73674141377709,-0.393059888909139
-0.736879873252778,-0.390896468463078
-0.737020316100097,-0.388742588721769
-0.737162675155276,-0.386598229946716
-0.737306883254549,-0.384463372399425
-0.737452873234146,-0.382337996341399
-0.737600577930298,-0.380222082034143
-0.737749930179238,-0.378115609739161
-0.737900862817195,-0.376018559717959
-0.738053308680402,-0.373930912232041
-0.73820720060509,-0.37185264754291
-0.738362471427489,-0.369783745912072
-0.738519053983833,-0.367724187601031
-0.738676881110351,-0.365673952871292
-0.738835885643275,-0.363633021984359
-0.738996000418837,-0.361601375201737
-0.739157158273267,-0.359578992784929
-0.739319292042798,-0.357565854995441
-0.73948233456366,-0.355561942094778
-0.739646218672084,-0.353567234344443
-0.739810877204303,-0.351581712005941
-0.739976242996547,-0.349605355340776
-0.740142248885048,-0.347638144610454
-0.740308827706037,-0.345680060076478
-0.740475912295745,-0.343731082000354
-0.740643435490404,-0.341791190643585
-0.740811330126245,-0.339860366267676
-0.740979529039499,-0.337938589134131
-0.741147965066398,-0.336025839504456
-0.741316571043173,-0.334122097640155
-0.741485279806055,-0.332227343802731
-0.741654024191276,-0.33034155825369
-0.741822737035066,-0.328464721254537
-0.741991351173658,-0.326596813066774
-0.742159799443283,-0.324737813951908
-0.742328014680171,-0.322887704171443
-0.742495929720555,-0.321046463986883
-0.742663477400665,-0.319214073659732
-0.742830590556734,-0.317390513451495
-0.742997202024991,-0.315575763623677
-0.743163244641669,-0.313769804437782
-0.743328651242999,-0.311972616155315
-0.743493354665212,-0.31018417903778
-0.743657287744539,-0.308404473346681
-0.743820383317212,-0.306633479343524
-0.743982574219463,-0.304871177289812
-0.744143793287522,-0.30311754744705
-0.744303973357621,-0.301372570076743
-0.74446304726599,-0.299636225440395
-0.744620947848863,-0.297908493799511
-0.744777607942469,-0.296189355415594
-0.74493296038304,-0.294478790550151
-0.745086938006808,-0.292776779464684
-0.745239473650003,-0.291083302420699
-0.745390500148858,-0.2893983396797
-0.745539950339602,-0.287721871503192
-0.745687757058469,-0.286053878152679
-0.745833853141688,-0.284394339889665
-0.745978171425492,-0.282743236975656
-0.746120644746112,-0.281100549672155
-0.746261205939779,-0.279466258240668
-0.746399787842724,-0.277840342942697
-0.746536323291179,-0.27622278403975
-0.746670745121374,-0.274613561793328
-0.746802986169542,-0.273012656464938
-0.746932979271914,-0.271420048316083
-0.74706065726472,-0.269835717608269
-0.747185952984193,-0.268259644602999
-0.747308799266564,-0.266691809561778
-0.747429128948063,-0.265132192746111
-0.747546874864923,-0.263580774417502
-0.747661969853374,-0.262037534837456
-0.747774346749648,-0.260502454267476
-0.747883938389976,-0.258975512969069
-0.747990677610591,-0.257456691203737
-0.748094497247721,-0.255945969232986
-0.7481953301376,-0.254443327318321
-0.748293109116459,-0.252948745721244
-0.748387767020528,-0.251462204703262
-0.748479236686039,-0.249983684525879
-0.748567450949224,-0.248513165450599
-0.748652342646314,-0.247050627738926
-0.74873384461354,-0.245596051652366
-0.748811889687134,-0.244149417452422
-0.748886410703326,-0.242710705400599
-0.748957340498348,-0.241279895758402
-0.749024611908432,-0.239856968787334
-0.749088157769808,-0.238441904748902
-0.749147910918709,-0.237034683904609
-0.749203804191365,-0.235635286515959
-0.749255770424008,-0.234243692844457
-0.749303742452869,-0.232859883151608
-0.749347653114179,-0.231483837698917
-0.74938743524417,-0.230115536747886
-0.749423021679073,-0.228754960560022
-0.749454345255119,-0.227402089396829
-0.74948133880854,-0.22605690351981
-0.749503935175567,-0.224719383190472
-0.749522067192431,-0.223389508670317
-0.749535667695364,-0.222067260220851
-0.749544669520597,-0.220752618103578
-0.749549005504361,-0.219445562580003
-0.749548608482888,-0.21814607391163
-0.749543411292408,-0.216854132359964
-0.749533346769154,-0.215569718186508
-0.749518347749357,-0.214292811652769
-0.749498347069247,-0.213023393020249
-0.749473277565057,-0.211761442550454
-0.749443072073017,-0.210506940504889
-0.749407663429359,-0.209259867145057
-0.749366984470315,-0.208020202732462
-0.749320968032115,-0.206787927528611
-0.74926954695099,-0.205563021795007
-0.749212654063173,-0.204345465793154
-0.749150222204895,-0.203135239784558
-0.749082184212386,-0.201932324030722
-0.749008472921878,-0.200736698793151
-0.748929021169604,-0.19954834433335
-0.748843761791792,-0.198367240912823
-0.748752627624676,-0.197193368793075
-0.748655551504486,-0.196026708235609
-0.748552466267454,-0.194867239501932
-0.748443304749812,-0.193714942853547
-0.748327999787789,-0.192569798551958
-0.748206484217618,-0.19143178685867
-0.748078690875531,-0.190300888035188
-0.747944552597758,-0.189177082343016
-0.74780400222053,-0.188060350043659
-0.747656972580079,-0.186950671398621
-0.747503396512638,-0.185848026669406
-0.747343206854435,-0.18475239611752
-0.747176336441704,-0.183663760004466
-0.747002718110675,-0.18258209859175
-0.746822284697579,-0.181507392140875
-0.746634969038649,-0.180439620913346
-0.746440703970115,-0.179378765170668
-0.746239422328208,-0.178324805174345
-0.746031056949161,-0.177277721185882
-0.745815540669204,-0.176237493466783
-0.745592806324568,-0.175204102278552
-0.745362786751485,-0.174177527882695
-0.745125414786186,-0.173157750540715
-0.744880623264904,-0.172144750514117
-0.744628345023868,-0.171138508064406
-0.74436851289931,-0.170139003453086
-0.744101059727461,-0.169146216941662
-0.743825918344554,-0.168160128791638
-0.743543021586819,-0.167180719264519
-0.743252302290487,-0.166207968621808
-0.74295369329179,-0.165241857125012
-0.74264712742696,-0.164282365035633
-0.742332537532227,-0.163329472615177
-0.742009856443822,-0.162383160125148
-0.741679016997978,-0.161443407827051
-0.741339952030925,-0.16051019598239
-0.740992594378895,-0.15958350485267
-0.740636876878119,-0.158663314699395
-0.740272732364829,-0.15774960578407
-0.739900093675255,-0.156842358368198
-0.73951889364563,-0.155941552713286
-0.739129065112183,-0.155047169080836
-0.738730540911148,-0.154159187732354
-0.738323253878755,-0.153277588929344
-0.737907136851234,-0.152402352933311
-0.737482122664819,-0.151533460005759
-0.73704814415574,-0.150670890408193
-0.736605134160228,-0.149814624402117
-0.736153025514515,-0.148964642249035
-0.735691751054831,-0.148120924210453
-0.735221243617409,-0.147283450547874
-0.73474143603848,-0.146452201522804
-0.734252261154275,-0.145627157396746
-0.733753651801024,-0.144808298431205
-0.733245540814961,-0.143995604887686
-0.732727861032315,-0.143189057027693
-0.732200545289319,-0.142388635112731
-0.731663526422203,-0.141594319404304
-0.7311167372672,-0.140806090163916
-0.730560110660539,-0.140023927653073
-0.729993579438453,-0.139247812133278
-0.729417076437173,-0.138477723866037
-0.72883053449293,-0.137713643112853
-0.728233886441956,-0.136955550135231
-0.727627065120481,-0.136203425194676
-0.727010003364738,-0.135457248552692
-0.726382634010957,-0.134717000470784
-0.72574488989537,-0.133982661210456
-0.725096703854208,-0.133254211033212
-0.724438008723703,-0.132531630200558
-0.723768737340085,-0.131814898973998
-0.723088822539587,-0.131103997615035
-0.722398197158438,-0.130398906385175
-0.721696794032872,-0.129699605545923
-0.720984545999119,-0.129006075358782
-0.72026138589341,-0.128318296085257
-0.719527246551977,-0.127636247986853
-0.718782060811051,-0.126959911325074
-0.718025761506864,-0.126289266361424
-0.717258281475646,-0.125624293357409
-0.716479553553629,-0.124964972574533
-0.715689510577045,-0.124311284274299
-0.714888085382124,-0.123663208718214
-0.714075210805098,-0.12302072616778
-0.713250819682199,-0.122383816884503
-0.712414844849657,-0.121752461129887
-0.711567219143704,-0.121126639165437
-0.710707875400571,-0.120506331252658
-0.70983674645649,-0.119891517653052
-0.708953765147693,-0.119282178628126
-0.708058864310409,-0.118678294439384
-0.707151976780871,-0.11807984534833
-0.70623303539531,-0.117486811616468
-0.705301972989957,-0.116899173505304
-0.704358722401043,-0.116316911276341
-0.703403216464801,-0.115740005191084
-0.702435388017461,-0.115168435511038
-0.701455169895254,-0.114602182497708
-0.700462494934412,-0.114041226412597
-0.699457295971167,-0.11348554751721
-0.698439505841749,-0.112935126073051
-0.697409057382389,-0.112389942341626
-0.69636588342932,-0.111849976584439
-0.695309916818773,-0.111315209062994
-0.694241090386978,-0.110785620038795
-0.693159336970167,-0.110261189773348
-0.692064589404572,-0.109741898528156
-0.690956780526424,-0.109227726564724
-0.689835843171953,-0.108718654144557
-0.688701710177392,-0.10821466152916
-0.687554314378972,-0.107715728980036
-0.686393588612924,-0.10722183675869
-0.68521946571548,-0.106732965126627
-0.684031878522869,-0.106249094345351
-0.682830759871326,-0.105770204676366
-0.681616042597079,-0.105296276381178
-0.680387659536361,-0.10482728972129
-0.679145543525403,-0.104363224958208
-0.677889627400437,-0.103904062353435
-0.676619843997693,-0.103449782168477
-0.675336126153403,-0.103000364664837
-0.674038406703799,-0.10255579010402
-0.672726618485111,-0.102116038747531
-0.671400694333571,-0.101681090856875
-0.67006056708541,-0.101250926693554
-0.66870616957686,-0.100825526519075
-0.667337434644152,-0.100404870594942
-0.665954295123517,-0.0999889391826591
-0.664556683851187,-0.0995777125437306
-0.663144533663393,-0.0991711709396614
-0.661717777396366,-0.0987692946319558
-0.660276347886337,-0.0983720638821184
-0.658820177969539,-0.0979794589516537
-0.657349200482201,-0.0975914601020661
-0.655863348260556,-0.0972080475948603
-0.654362554140835,-0.0968292016915406
-0.652846750959269,-0.0964549026536115
-0.65131587155209,-0.0960851307425777
-0.649769848755528,-0.0957198662199436
-0.648208615405816,-0.0953590893472136
-0.646632104339184,-0.0950027803858923
-0.645040248391863,-0.0946509195974842
-0.643432980400086,-0.0943034872434938
-0.641810233200084,-0.0939604635854255
-0.640171939628087,-0.0936218288847839
-0.638518032520327,-0.0932875634030735
-0.636848444713036,-0.0929576474017988
-0.635163109042444,-0.0926320611424643
-0.633461958344784,-0.0923107848865745
-0.631744925456285,-0.0919937988956338
-0.630011943213181,-0.0916810834311468
-0.628262944451701,-0.0913726187546181
-0.626497862008078,-0.091068385127552
-0.624716628718543,-0.090768362811453
-0.622919177419326,-0.0904725320678258
-0.62110544094666,-0.0901808731581747
-0.619275352136776,-0.0898933663440044
-0.617428843825904,-0.0896099918868192
-0.615565848850277,-0.0893307300481237
-0.613686300046126,-0.0890555610894224
-0.611790130249681,-0.0887844652722198
-0.609877272297175,-0.0885174228580204
-0.607947659024838,-0.0882544141083287
-0.606001223268902,-0.0879954192846491
-0.604037897865599,-0.0877404186484862
-0.602057615651159,-0.0874893924613445
-0.600060309461814,-0.0872423209847285
-0.598045912133795,-0.0869991844801427
-0.596014356503333,-0.0867599632090916
-0.593965575406661,-0.0865246374330797
-0.591899501680008,-0.0862931874136115
-0.589816068159608,-0.0860655934121914
-0.58771520768169,-0.0858418356903241
-0.585596853082486,-0.0856218945095139
-0.583460937198228,-0.0854057501312654
-0.581307392865146,-0.0851933828170832
-0.579136152919473,-0.0849847728284716
-0.576947150197439,-0.0847799004269352
-0.574740317535276,-0.0845787458739785
-0.572515587769214,-0.084381289431106
-0.570272893735487,-0.0841875113598222
-0.568012168270324,-0.0839973919216316
-0.565733344209957,-0.0838109113780386
-0.563436354390618,-0.0836280499905479
-0.561121131648537,-0.0834487880206639
-0.558787608819946,-0.083273105729891
-0.556435718741077,-0.0831009833797339
-0.55406539424816,-0.0829324012316969
-0.551676568177428,-0.0827673395472847
-0.54926917336511,-0.0826057785880016
-0.54684314264744,-0.0824476986153523
-0.544398408860647,-0.0822930798908411
-0.541934904840964,-0.0821419026759727
-0.539452563424621,-0.0819941472322514
-0.536951317447851,-0.0818497938211818
-0.534431099746883,-0.0817088227042684
-0.53189184315795,-0.0815712141430158
-0.529333480517283,-0.0814369483989283
-0.526755944661114,-0.0813060057335105
-0.524159168425673,-0.0811783664082669
-0.521543084647192,-0.0810540106847021
-0.518907626161902,-0.0809329188243204
-0.516252725806034,-0.0808150710886264
-0.513578316415821,-0.0807004477391247
-0.510884330827493,-0.0805890290373196
-0.508170701877281,-0.0804807952447157
-0.505437362401417,-0.0803757266228175
-0.502684245236132,-0.0802738034331296
-0.499911283217658,-0.0801750059371563
-0.497118409182225,-0.0800793143964023
-0.494305555966066,-0.0799867090723719
-0.491472656405411,-0.0798971702265697
-0.488619643336492,-0.0798106781205003
-0.48574644959554,-0.0797272130156681
-0.482853008018787,-0.0796467551735775
-0.479939251442463,-0.0795692848557332
-0.4770051127028,-0.0794947823236396
-0.47405052463603,-0.0794232278388012
-0.471075420078383,-0.0793546016627224
-0.468079731866092,-0.0792888840569079
-0.465063392835387,-0.0792260552828621
-0.4620263358225,-0.0791660956020895
-0.458968493663661,-0.0791089852760946
-0.455889799195103,-0.0790547045663819
-0.452790185253057,-0.079003233734456
-0.449669584673754,-0.0789545530418212
-0.449669584673754,-0.0789545530418212
-0.446555775729991,-0.0788916783644556
-0.443476432808749,-0.0787978250725271
-0.440431332917538,-0.0786732726688257
-0.437420253063864,-0.0785183006561411
-0.434442970255236,-0.078333188537263
-0.431499261499161,-0.0781182158149813
-0.428588903803146,-0.0778736619920857
-0.425711674174701,-0.0775998065713662
-0.422867349621331,-0.0772969290556123
-0.420055707150546,-0.076965308947614
-0.417276523769853,-0.0766052257501609
-0.41452957648676,-0.076216958966043
-0.411814642308775,-0.07580078809805
-0.409131498243405,-0.0753569926489716
-0.406479921298158,-0.0748858521215977
-0.403859688480542,-0.074387646018718
-0.401270576798065,-0.0738626538431224
-0.398712363258234,-0.0733111550976006
-0.396184824868558,-0.0727334292849424
-0.393687738636543,-0.0721297559079376
-0.391220881569699,-0.071500414469376
-0.388784030675533,-0.0708456844720474
-0.386376962961552,-0.0701658454187415
-0.383999455435264,-0.0694611768122483
-0.381651285104177,-0.0687319581553573
-0.379332228975799,-0.0679784689508584
-0.377042064057638,-0.0672009887015415
-0.374780567357201,-0.0663997969101963
-0.372547515881997,-0.0655751730796126
-0.370342686639532,-0.0647273967125802
-0.368165856637315,-0.0638567473118888
-0.366016802882854,-0.0629635043803283
-0.363895302383656,-0.0620479474206885
-0.361801132147229,-0.061110355935759
-0.359734069181082,-0.0601510094283298
-0.357693890492721,-0.0591701874011907
-0.355680373089654,-0.0581681693571313
-0.35369329397939,-0.0571452347989414
-0.351732430169435,-0.056101663229411
-0.349797558667299,-0.0550377341513297
-0.347888456480488,-0.0539537270674874
-0.346004900616511,-0.0528499214806739
-0.344146668082875,-0.0517265968936788
-0.342313535887088,-0.0505840328092921
-0.340505281036658,-0.0494225087303034
-0.338721680539092,-0.0482423041595027
-0.336962511401899,-0.0470436985996796
-0.335227550632586,-0.045826971553624
-0.333516575238661,-0.0445924025241257
-0.331829362227631,-0.0433402710139744
-0.330165688607005,-0.0420708565259599
-0.328525331384291,-0.0407844385628721
-0.326908067566995,-0.0394812966275007
-0.325313674162626,-0.0381617102226354
-0.323741928178692,-0.0368259588510661
-0.322192606622701,-0.0354743220155827
-0.32066548650216,-0.0341070792189748
-0.319160344824576,-0.0327245099640322
-0.317676958597459,-0.0313268937535447
-0.316215104828315,-0.0299145100903022
-0.314774560524653,-0.0284876384770944
-0.313355102693979,-0.0270465584167111
-0.311956508343803,-0.0255915494119421
-0.310578554481632,-0.0241228909655771
-0.309221018114973,-0.0226408625804061
-0.307883676251334,-0.0211457437592186
-0.306566305898223,-0.0196378140048046
-0.305268684063149,-0.0181173528199539
-0.303990587753618,-0.0165846397074562
-0.302731793977138,-0.0150399541701012
-0.301492079741218,-0.0134835757106789
-0.300271222053364,-0.0119157838319789
-0.299068997921086,-0.0103368580367912
-0.29788518435189,-0.00874707782790533
-0.296719558353285,-0.00714672270811122
-0.295571896932778,-0.00553607218019869
-0.294441977097877,-0.00391540574695746
-0.293329575856089,-0.00228500291117734
-0.292234470214923,-0.000645143175648108
-0.291156437181887,0.00100389395684043
-0.290095253764487,0.00266182898349849
-0.289050696970233,0.00432838240153628
-0.288022543806631,0.00600327470816404
-0.287010571281189,0.00768622640059196
-0.286014556401416,0.00937695797603024
-0.285034276174819,0.0110751899316891
-0.284069507608906,0.0127806427647788
-0.283120027711185,0.0144930369725095
-0.282185613489163,0.0162120930520914
-0.281266041950348,0.0179375315007347
-0.280361090102248,0.0196690728156497
-0.279470534952371,0.0214064374940465
-0.278594153508224,0.0231493460331354
-0.277731722777316,0.0248975189301266
-0.276883019767154,0.0266506766822303
-0.276047821485246,0.0284085397866567
-0.275225904939099,0.030170828740616
-0.274417047136223,0.0319372640413184
-0.273621025084123,0.0337075661859742
-0.272837615790308,0.0354814556717935
-0.272066596262287,0.0372586529959866
-0.271307743507566,0.0390388786557637
-0.270560834533653,0.0408218531483349
-0.269825646348057,0.0426072969709106
-0.269101955958284,0.0443949306207009
-0.268389540371844,0.0461844745949159
-0.267688176596243,0.0479756493907661
-0.266997641638989,0.0497681755054614
-0.266317712507591,0.0515617734362123
-0.265648166209555,0.0533561636802288
-0.264988779752391,0.0551510667347212
-0.264339330143604,0.0569462030968997
-0.263699594390704,0.0587412932639745
-0.263069349501199,0.0605360577331558
-0.262448372482595,0.0623302170016539
-0.2618364403424,0.0641234915666788
-0.261233330088123,0.065915601925441
-0.260638818727272,0.0677062685751505
-0.260052683267353,0.0694952120130176
-0.259474700715876,0.0712821527362525
-0.258904648080346,0.0730668112420654
-0.258342302368274,0.0748489080276665
-0.257787440587165,0.076628163590266
-0.257239839744528,0.0784042984270742
-0.256699276847872,0.0801770330353012
-0.256165528904702,0.0819460879121573
-0.255638372922528,0.0837111835548526
-0.255117585908857,0.0854720404605975
-0.254602944871197,0.087228379126602
-0.254094226817056,0.0889799200500765
-0.253591208753941,0.0907263837282311
-0.25309366768936,0.0924674906582759
-0.252601380630822,0.0942029613374214
-0.252114124585833,0.0959325162628776
-0.251631676561902,0.0976558759318548
-0.251153813566536,0.0993727608415632
-0.250680312607244,0.101082891489213
-0.250210950691532,0.102785988372014
-0.249745504826909,0.104481771987178
-0.249283752020883,0.106169962831913
-0.248825469280961,0.10785028140343
-0.248370433614651,0.10952244819894
-0.247918422029461,0.111186183715653
-0.247469211532899,0.112841208450778
-0.247022579132473,0.114487242901527
-0.246578301835689,0.116124007565108
-0.246136156650057,0.117751222938734
-0.245695920583083,0.119368609519613
-0.245257370642276,0.120975887804956
-0.244820283835144,0.122572778291973
-0.244384437169194,0.124159001477875
-0.243949607651933,0.125734277859871
-0.243515572290871,0.127298327935172
-0.243082108093514,0.128850872200987
-0.24264899206737,0.130391631154529
-0.242216001219948,0.131920325293005
-0.241782912558755,0.133436675113627
-0.241349503091298,0.134940401113605
-0.240915549825085,0.136431223790149
-0.240480829767625,0.13790886364047
-0.240045119926426,0.139373041161776
-0.239608197308993,0.14082347685128
-0.239169838922837,0.14225989120619
-0.238729821775464,0.143682004723718
-0.238287922874382,0.145089537901073
-0.2378439192271,0.146482211235465
-0.237397587841124,0.147859745224105
-0.236948705723962,0.149221860364203
-0.236497049883123,0.150568277152969
-0.236042397326115,0.151898716087614
-0.235584525060444,0.153212897665347
-0.235123210093619,0.154510542383379
-0.234658229433147,0.15579137073892
-0.234189360086537,0.157055103229181
-0.233716379061295,0.158301460351371
-0.233239063364931,0.1595301626027
-0.232757190004951,0.160740930480379
-0.232270535988864,0.161933484481619
-0.231778878324177,0.163107545103628
-0.231281994018398,0.164262832843619
-0.230779660079035,0.165399068198799
-0.230271653513595,0.166515971666381
-0.229757751329587,0.167613263743574
-0.229237730534518,0.168690664927589
-0.228711368135896,0.169747895715634
-0.228178441141229,0.170784676604922
-0.227638726558024,0.171800728092662
-0.22709200139379,0.172795770676064
-0.226538042656033,0.173769524852338
-0.225976627352263,0.174721711118695
-0.225407532489986,0.175652049972345
-0.224830535076711,0.176560261910497
-0.224245412119945,0.177446067430363
-0.223651940627196,0.178309187029153
-0.223049897605972,0.179149341204076
-0.22243906006378,0.179966250452343
-0.221819205008129,0.180759635271164
-0.221190109446526,0.18152921615775
-0.220551550386479,0.18227471360931
-0.219903304835496,0.182995848123055
-0.219245149801084,0.183692340196195
-0.218576862290752,0.18436391032594
-0.217898219312007,0.1850102790095
-0.217208997872356,0.185631166744086
-0.216508974979309,0.186226294026908
-0.215797927640372,0.186795381355175
-0.215075632863053,0.187338149226099
-0.21434186765486,0.18785431813689
-0.213596409023301,0.188343608584757
-0.212839033975884,0.188805741066911
-0.212069519520116,0.189240436080562
-0.211287642663505,0.18964741412292
-0.21049318041356,0.190026395691196
-0.209685909777787,0.190377101282599
-0.208865607763694,0.190699251394341
-0.20803205137879,0.19099256652363
-0.207185017630582,0.191256767167678
-0.206324283526579,0.191491573823695
-0.205449626074286,0.19169670698889
-0.204560822281214,0.191871887160474
-0.203657649154868,0.192016834835657
-0.202739883702758,0.19213127051165
-0.20180730293239,0.192214914685663
-0.200859683851274,0.192267487854905
-0.199896803466915,0.192288710516587
-0.198918438786823,0.19227830316792
-0.197924366818505,0.192235986306113
-0.196914364569468,0.192161480428377
-0.195888209047222,0.192054506031921
-0.194845677259272,0.191914783613957
-0.193786546213128,0.191742033671694
-0.192710592916297,0.191535976702343
-0.191617594376286,0.191296333203113
-0.190507327600604,0.191022823671215
-0.189379569596758,0.19071516860386
-0.188234097372256,0.190373088498256
-0.187070687934607,0.189996303851616
-0.185889118291316,0.189584535161148
-0.184689165449894,0.189137502924063
-0.183470606417846,0.188654927637572
-0.182233218202682,0.188136529798883
-0.180976777811908,0.187582029905209
-0.179701062253033,0.186991148453758
-0.178405848533565,0.186363605941742
-0.17709091366101,0.185699122866369
-0.175756034642878,0.184997419724851
-0.174400988486675,0.184258217014398
-0.17302555219991,0.18348123523222
-0.17162950279009,0.182666194875527
-0.170212617264723,0.181812816441529
-0.168774672631317,0.180920820427437
-0.16731544589738,0.179989927330461
-0.165834714070419,0.17901985764781
-0.164332254157943,0.178010331876696
-0.162807843167458,0.176961070514328
-0.161261258106473,0.175871794057917
-0.159692275982496,0.174742223004673
-0.158100673803035,0.173572077851805
-0.156486228575596,0.172361079096525
-0.154848717307689,0.171108947236043
-0.15318791700682,0.169815402767568
-0.151503604680498,0.168480166188311
-0.14979555733623,0.167102957995481
-0.148063551981524,0.165683498686291
-0.146307365623889,0.164221508757949
-0.144526775270831,0.162716708707665
-0.142721557929858,0.161168819032651
-0.140891490608479,0.159577560230115
-0.1390363503142,0.157942652797269
-0.137155914054531,0.156263817231323
-0.135249958836978,0.154540774029486
-0.13331826166905,0.15277324368897
-0.131360599558254,0.150960946706983
-0.129376749512097,0.149103603580738
-0.127366488538089,0.147200934807442
-0.125329593643736,0.145252660884308
-0.123265841836547,0.143258502308544
-0.121175010124028,0.141218179577362
-0.119056875513689,0.139131413187972
-0.116911215013036,0.136997923637583
-0.114737805629578,0.134817431423406
-0.112536424370822,0.132589657042651
-0.110306848244276,0.130314320992528
-0.108048854257448,0.127991143770248
-0.105762219417846,0.125619845873021
-0.103446720732977,0.123200147798057
-0.101102135210349,0.120731770042565
-0.0987282398574706,0.118214433103758
-0.0963248116818486,0.115647857478844
-0.0938916276909914,0.113031763665033
-0.0914284648924064,0.110365872159537
-0.0889351002936016,0.107649903459565
-0.0864113109020847,0.104883578062328
-0.0838568737253637,0.102066616465035
-0.081271565770946,0.0991987391648966
-0.0786551640463398,0.0962796666591238
-0.0760074455590525,0.093309119444926
-0.0733281873165922,0.090286818019514
-0.0706171663264665,0.0872124828800976
-0.0678741595961833,0.0840858345238872
-0.0650989441332503,0.0809065934480928
-0.0622912969451754,0.0776744801499249
-0.0594509950394662,0.0743892151265935
-0.0565778154236306,0.071050518875309
-0.0536715351051764,0.0676581118932814
-0.0507319310916115,0.064211714677721
-0.0477587803904434,0.0607110477258381
-0.0447518600091801,0.0571558315348428
-0.0417109469553293,0.0535457866019452
-0.0386358182363989,0.0498806334243559
-0.0355262508598966,0.0461600924992847
-0.0323820218333302,0.0423838843239421
-0.0292029081642073,0.038551729395538
-0.0259886868600361,0.0346633482112831
-0.022739134928324,0.030718461268387
-0.019454029376579,0.0267167890640604
-0.0161331472123088,0.0226580520955133
-0.0127762654430213,0.018541970859956
-0.00938316107622406,0.0143682658545986
-0.00595361111942513,0.0101366575766514
-0.00248739258013204,0.00584686652332457
0.00101571753414711,0.00149861319182848
0.00455594221590493,-0.00290838192062699
0.00813350445763321,-0.00737439831683126
0.0117486272518245,-0.0118997154995746
0.0154015335909708,-0.0164846129716461
0.0190924464675645,-0.0211293702358362
0.0228215888740976,-0.0258342667949343
0.0265891838030625,-0.0305995821517304
0.0303954542469513,-0.0354255958090141
0.0342406231982564,-0.0403125872695756
0.0381249136494696,-0.0452608360362039
0.0420485485930837,-0.0502706216116897
0.0460117510215903,-0.055342223498822
0.0500147439274822,-0.0604759212003913
0.0540577503032511,-0.0656719942191867
0.0581409931413896,-0.0709307220579986
0.0622646954343895,-0.0762523842196162
0.0664290801747435,-0.08163726020683
0.0706343703549434,-0.087085629522429
0.0748807889674818,-0.0925977716692037
0.0791685590048505,-0.0981739661499432
0.0834979034595421,-0.103814492467438
0.0878690453240484,-0.109519630124477
0.0922822075908621,-0.115289658623851
0.0967376132524749,-0.121124857468349
0.10123548530138,-0.127025506160762
0.105776046730068,-0.132991884203878
0.110359520531032,-0.139024271100488
0.114986129696764,-0.145122946353381
0.119656097219757,-0.151288189465348
0.124369646092503,-0.157520279939178
0.129126999307493,-0.16381949727766
0.133928379857221,-0.170186120983585
0.138774010734177,-0.176620430559743
0.143664114930856,-0.183122705508922
0.148598915439748,-0.189693225333914
0.153578635253345,-0.196332269537507
0.158603497364141,-0.203040117622493
0.163673724764627,-0.209817049091659
0.168789540447296,-0.216663343447797
0.17395116740464,-0.223579280193695
0.179158828629151,-0.230565138832144
0.18441274711332,-0.237621198865934
0.189713145849641,-0.244747739797854
0.195060247830606,-0.251945041130694
0.200454276048707,-0.259213382367244
0.205895453496435,-0.266553043010293
0.211384003166284,-0.273964302562632
0.216920148050746,-0.28144744052705
0.222504111142312,-0.289002736406337
0.228136115433475,-0.296630469703283
0.233816383916727,-0.304330919920678
0.23954513958456,-0.312104366561311
0.245322605429467,-0.319951089127972
0.251149004443939,-0.327871367123451
0.25702455962047,-0.335865480050538
0.262949493951551,-0.343933707412022
0.268924030429674,-0.352076328710694
0.274948392047332,-0.360293623449343
0.281022801797017,-0.368585871130759
0.28714748267122,-0.376953351257731
0.293322657662435,-0.38539634333305
0.299548549763153,-0.393915126859505
0.305825381965867,-0.402509981339886
0.312153377263069,-0.411181186276983
0.318532758647251,-0.419929021173586
0.324963749110905,-0.428753765532484
0.331446571646524,-0.437655698856467
0.3379814492466,-0.446635100648325
0.344568604903624,-0.455692250410848
0.35120826161009,-0.464827427646826
0.357900642358489,-0.474040911859048
0.364645970141313,-0.483332982550304
0.371444467951056,-0.492703919223384
0.378296358780208,-0.502154001381078
0.385201865621263,-0.511683508526175
0.392161211466712,-0.521292720161465
0.399174619309048,-0.530981915789739
