-0.832681705265312,0.129337310422647
-0.828084317412199,0.13394796018922
-0.82348854868514,0.138535537303353
-0.818894472921795,0.143100096875364
-0.814302163959821,0.147641694015575
-0.809711695636877,0.152160383834304
-0.805123141790621,0.156656221441871
-0.80053657625871,0.161129261948597
-0.795952072878803,0.165579560464801
-0.791369705488558,0.170007172100802
-0.786789547925632,0.174412151966921
-0.782211674027685,0.178794555173478
-0.777636157632373,0.183154436830791
-0.773063072577355,0.187491852049182
-0.768492492700289,0.191806855938969
-0.763924491838833,0.196099503610473
-0.759359143830645,0.200369850174013
-0.754796522513383,0.204617950739909
-0.750236701724704,0.208843860418482
-0.745679755302268,0.21304763432005
-0.741125757083733,0.217229327554933
-0.736574780906755,0.221388995233452
-0.732026900608994,0.225526692465927
-0.727482190028106,0.229642474362676
-0.722940723001751,0.233736396034019
-0.718402573367587,0.237808512590278
-0.71386781496327,0.24185887914177
-0.70933652162646,0.245887550798817
-0.704808767194815,0.249894582671738
-0.700284625505992,0.253880029870852
-0.695764170397649,0.25784394750648
-0.691247475707445,0.261786390688941
-0.686734615273037,0.265707414528556
-0.682225662932085,0.269607074135643
-0.677720692522244,0.273485424620523
-0.673219777881174,0.277342521093516
-0.668722992846534,0.28117841866494
-0.664230411255979,0.284993172445117
-0.65974210694717,0.288786837544366
-0.655258153757763,0.292559469073006
-0.650778625525417,0.296311122141358
-0.646303596087791,0.300041851859742
-0.64183313928254,0.303751713338476
-0.637367328947325,0.307440761687881
-0.632906238919803,0.311109052018277
-0.628449943037632,0.314756639439983
-0.62399851513847,0.31838357906332
-0.619552029059975,0.321989925998606
-0.615110558639805,0.325575735356163
-0.610674177715619,0.329141062246309
-0.606242960125073,0.332685961779365
-0.601816979705827,0.33621048906565
-0.597396310295538,0.339714699215484
-0.592981025731865,0.343198647339186
-0.588571199852465,0.346662388547078
-0.584166906494996,0.350105977949477
-0.579768219497116,0.353529470656706
-0.575375212696484,0.356932921779082
-0.570987959930758,0.360316386426926
-0.566606535037595,0.363679919710557
-0.562231011854653,0.367023576740296
-0.557861464219591,0.370347412626462
-0.553497965970067,0.373651482479376
-0.549140590943739,0.376935841409356
-0.544789412978264,0.380200544526722
-0.540444505911301,0.383445646941795
-0.536105943580507,0.386671203764895
-0.531773799823542,0.38987727010634
-0.527448148478062,0.393063901076451
-0.523129063381726,0.396231151785548
-0.518816618372192,0.39937907734395
-0.514510887287118,0.402507732861977
-0.510211943964163,0.405617173449949
-0.505919862240983,0.408707454218186
-0.501634715955237,0.411778630277008
-0.497356578944583,0.414830756736733
-0.493085525046679,0.417863888707684
-0.488821628099184,0.420878081300178
-0.484564961939755,0.423873389624536
-0.48031560040605,0.426849868791077
-0.476073617335727,0.429807573910122
-0.471839086566445,0.43274656009199
-0.46761208193586,0.435666882447001
-0.463392677281633,0.438568596085474
-0.459180946441419,0.44145175611773
-0.454976963252879,0.444316417654089
-0.450780801553668,0.44716263580487
-0.446592535181446,0.449990465680392
-0.442412237973871,0.452799962390976
-0.438239983768601,0.455591181046943
-0.434075846403293,0.45836417675861
-0.429919899715605,0.461119004636298
-0.425772217543197,0.463855719790327
-0.421632873723725,0.466574377331017
-0.417501942094848,0.469275032368688
-0.413379496494223,0.471957740013658
-0.40926561075951,0.474622555376249
-0.405160358728365,0.47726953356678
-0.401063814238448,0.479898729695571
-0.396976051127415,0.482510198872941
-0.392897143232925,0.48510399620921
-0.388827164392637,0.487680176814698
-0.384766188444207,0.490238795799726
-0.380714289225295,0.492779908274611
-0.376671540573557,0.495303569349676
-0.372638016326653,0.497809834135239
-0.36861379032224,0.50029875774162
-0.364598936397976,0.502770395279138
-0.36059352839152,0.505224801858115
-0.356597640140529,0.507662032588869
-0.352611345482661,0.51008214258172
-0.348634718255575,0.512485186946988
-0.344667832296928,0.514871220794993
-0.340710761444378,0.517240299236055
-0.336763579535584,0.519592477380493
-0.332826360408204,0.521927810338627
-0.328899177899895,0.524246353220778
-0.324982105848316,0.526548161137264
-0.321075218091124,0.528833289198406
-0.317178588465978,0.531101792514523
-0.313292290810536,0.533353726195936
-0.309416398962455,0.535589145352964
-0.305550986759394,0.537808105095926
-0.301696128039011,0.540010660535143
-0.297851896638964,0.542196866780934
-0.294018366396911,0.54436677894362
-0.29019561115051,0.54652045213352
-0.286383704737418,0.548657941460953
-0.282582720995295,0.550779302036241
-0.278792733761798,0.552884588969701
-0.275013816874585,0.554973857371655
-0.271246044171313,0.557047162352422
-0.267489489489643,0.559104559022321
-0.26374422666723,0.561146102491674
-0.260010329541733,0.563171847870798
-0.256287871950811,0.565181850270015
-0.252576927732121,0.567176164799643
-0.248877570723321,0.569154846570004
-0.24518987476207,0.571117950691416
-0.241513913686025,0.573065532274199
-0.237849761332844,0.574997646428674
-0.234197491540186,0.57691434826516
-0.230557178145708,0.578815692893976
-0.226928894987069,0.580701735425443
-0.223312715901927,0.58257253096988
-0.219708714727939,0.584428134637608
-0.216116965302764,0.586268601538945
-0.212537541464059,0.588093986784212
-0.208970517049483,0.589904345483729
-0.205415965896694,0.591699732747815
-0.20187396184335,0.59348020368679
-0.198344578727108,0.595245813410974
-0.194827890385628,0.596996617030687
-0.191323970656566,0.598732669656248
-0.187832893377581,0.600454026397978
-0.184354732386331,0.602160742366196
-0.180889561520474,0.603852872671222
-0.177437454617669,0.605530472423375
-0.173998485515572,0.607193596732976
-0.170572728051842,0.608842300710344
-0.167160256064138,0.6104766394658
-0.163761143390117,0.612096668109662
-0.160375463867436,0.613702441752251
-0.157003291333755,0.615294015503886
-0.153644699626732,0.616871444474888
-0.150299762584024,0.618434783775576
-0.146968554043289,0.61998408851627
-0.143651147842185,0.621519413807289
-0.140347617818371,0.623040814758954
-0.137058037809505,0.624548346481585
-0.133782481653244,0.6260420640855
-0.130521023187246,0.62752202268102
-0.12727373624917,0.628988277378465
-0.124040694676674,0.630440883288154
-0.120821972307415,0.631879895520408
-0.117617642979052,0.633305369185545
-0.114427780529243,0.634717359393887
-0.111252458795645,0.636115921255752
-0.108091751615917,0.637501109881461
-0.104945732827717,0.638872980381333
-0.101814476268703,0.640231587865688
-0.0986980557765333,0.641576987444845
-0.0955965451888651,0.642909234229126
-0.0925100183433567,0.644228383328849
-0.0894385490776665,0.645534489854334
-0.0863822112294523,0.646827608915901
-0.0833410786363721,0.64810779562387
-0.080315225136084,0.64937510508856
-0.0773047245662462,0.650629592420292
-0.0743096507645165,0.651871312729386
-0.071330077568553,0.65310032112616
-0.0683660788160137,0.654316672720935
-0.0654177283445568,0.65552042262403
-0.0624850999918402,0.656711625945766
-0.0595682675955219,0.657890337796462
-0.05666730499326,0.659056613286439
-0.0537822860227126,0.660210507526015
-0.0509132845215377,0.66135207562551
-0.0480603743273932,0.662481372695245
-0.0452236292779373,0.66359845384554
-0.042403123210828,0.664703374186713
-0.0395989299637232,0.665796188829085
-0.0368111233742813,0.666876952882975
-0.0340397772801598,0.667945721458704
-0.0312849655190172,0.669002549666591
-0.0285467619285112,0.670047492616956
-0.0258252403463002,0.671080605420119
-0.0231204746100419,0.672101943186399
-0.0204325385573945,0.673111561026117
-0.017761506026016,0.674109514049592
-0.0151074508535645,0.675095857367144
-0.0124704468776978,0.676070646089093
-0.00985056793607428,0.677033935325758
-0.00724788786635167,0.677985780187459
-0.00466248050618825,0.678926235784517
-0.00209441969324185,0.67985535722725
0.000456220734829302,0.68077319962598
0.00298936694036736,0.681679818091024
0.00550494508571409,0.682575267732705
0.00800288133321167,0.68345960366134
0.0104831018452018,0.68433288098725
0.0129455327840268,0.685195154820755
0.0153901003120283,0.686046480272174
0.0178167305915484,0.686886912451828
0.0202253497849291,0.687716506470036
0.0226158840545124,0.688535317437118
0.02498825956264,0.689343400463393
0.0273424024716542,0.690140810659182
0.0296782389438967,0.690927603134804
0.0319956951417098,0.69170383300058
0.034294697227435,0.692469555366828
0.0365751713634147,0.693224825343869
0.0388370437119905,0.693969698042022
0.0410802404355047,0.694704228571608
0.043304687696299,0.695428472042946
0.0455103116567155,0.696142483566355
0.0476970384790961,0.696846318252156
0.0498647943257829,0.697540031210669
0.0520135053591176,0.698223677552213
0.0541430977414425,0.698897312387108
0.0562534976350992,0.699560990825674
0.05834463120243,0.700214767978231
0.0604164246057766,0.700858698955098
0.0624688040074812,0.701492838866595
0.0645016955698856,0.702117242823043
0.0665150254553318,0.70273196593476
0.0685087198261617,0.703337063312067
0.0704827048447175,0.703932590065283
0.0724369066733409,0.704518601304728
0.074371251474374,0.705095152140723
0.0762856654101586,0.705662297683586
0.0781800746430369,0.706220093043638
0.0800544053353508,0.706768593331199
0.0819085836494422,0.707307853656587
0.083742535747653,0.707837929130124
0.0855561877923253,0.708358874862128
0.087349465945801,0.70887074596292
0.0891222963704222,0.70937359754282
0.0908746052285306,0.709867484712146
0.0926063186824683,0.71035246258122
0.0943173628945773,0.71082858626036
0.0960076640271996,0.711295910859888
0.097677148242677,0.711754491490121
0.0993257417033517,0.71220438326138
0.100953370571565,0.712645641283986
0.10255996100966,0.713078320668257
0.104145439179978,0.713502476524514
0.105709731244861,0.713918163963077
0.107252763366651,0.714325438094264
0.10877446170769,0.714724354028397
0.11027475243032,0.715114966875794
0.111753561696882,0.715497331746776
0.11321081566972,0.715871503751662
0.114646440511174,0.716237538000772
0.116060362383587,0.716595489604426
0.117452507449301,0.716945413672944
0.118822801870657,0.717287365316646
0.120171171809998,0.717621399645851
0.121497543429666,0.717947571770879
0.122801842892002,0.71826593680205
0.124083996359349,0.718576549849683
0.125343929994049,0.7188794660241
0.126581569958443,0.719174740435618
0.127796842414873,0.719462428194559
0.128989673525682,0.719742584411241
0.130159989453211,0.720015264195986
0.131307716359802,0.720280522659112
0.132432780407798,0.720538414910939
0.13353510775954,0.720788996061787
0.134614624577371,0.721032321221976
0.135671257023631,0.721268445501826
0.136704931260664,0.721497424011656
0.13771557345081,0.721719311861787
0.138703109756413,0.721934164162538
0.139667466339814,0.722142036024228
0.140608569363355,0.722342982557179
0.141526344989378,0.722537058871708
0.142420719380225,0.722724320078137
0.143291618698237,0.722904821286785
0.144138969105758,0.723078617607972
0.144962696765129,0.723245764152018
0.145762727838691,0.723406316029242
0.146538988488787,0.723560328349965
0.147291404877759,0.723707856224505
0.148019903167948,0.723848954763183
0.148724409521697,0.723983679076319
0.149404850101348,0.724112084274233
0.150061151069242,0.724234225467243
0.150693238587722,0.724350157765671
0.151301038819129,0.724459936279836
0.151884477925806,0.724563616120057
0.152443482070094,0.724661252396654
0.152977977414336,0.724752900219949
0.153487890120873,0.724838614700258
0.153973146352048,0.724918450947904
0.154433672270201,0.724992464073205
0.154869394037676,0.725060709186482
0.155280237816814,0.725123241398054
0.155666129769958,0.725180115818241
0.156026996059448,0.725231387557363
0.156362762847628,0.725277111725739
0.156673356296839,0.72531734343369
0.156958702569422,0.725352137791535
0.157218727827721,0.725381549909594
0.157453358234077,0.725405634898187
0.157662519950832,0.725424447867633
0.157846139140327,0.725438043928253
0.158004141964906,0.725446478190366
0.158136454586909,0.725449805764292
0.158243003168679,0.725448081760351
0.158323713872558,0.725441361288862
0.158378512860888,0.725429699460146
0.15840732629601,0.725413151384522
0.158410080340267,0.72539177217231
0.158386701156001,0.725365616933829
0.158337114905553,0.7253347407794
0.158261247751265,0.725299198819343
0.158159025855481,0.725259046163976
0.15803037538054,0.725214337923621
0.157875222488786,0.725165129208596
0.157693493342561,0.725111475129222
0.157485114104206,0.725053430795818
0.157250010936063,0.724991051318705
0.156988110000475,0.724924391808201
0.156699337459782,0.724853507374627
0.156383619476328,0.724778453128303
0.156040882212454,0.724699284179548
0.155671051830503,0.724616055638682
0.155274054492815,0.724528822616025
0.154849816361734,0.724437640221896
0.1543982635996,0.724342563566616
0.153919322368757,0.724243647760505
0.153412918831545,0.724140947913882
0.152878979150308,0.724034519137066
0.152317429487386,0.723924416540378
0.151728196005122,0.723810695234138
0.151111204865859,0.723693410328665
0.150466382231936,0.723572616934279
0.149793654265698,0.7234483701613
0.149092947129485,0.723320725120047
0.148364186985641,0.723189736920842
0.147607299996505,0.723055460674002
0.146822212324421,0.722917951489848
0.146008850131731,0.722777264478701
0.145167139580777,0.722633454750879
0.1442970068339,0.722486577416702
0.143398378053442,0.722336687586491
0.142471179401746,0.722183840370565
0.141515337041153,0.722028090879243
0.140530777134006,0.721869494222847
0.139517425842646,0.721708105511695
0.138475209329415,0.721543979856106
0.137404053756655,0.721377172366403
0.136303885286709,0.721207738152902
0.135174630081918,0.721035732325926
0.134016214304624,0.720861209995793
0.132828564117169,0.720684226272823
0.131611605681895,0.720504836267336
0.130365265161145,0.720323095089652
0.129089468717259,0.720139057850091
0.12778414251258,0.719952779658972
0.12644921270945,0.719764315626615
0.125084605470211,0.719573720863341
0.123690246957205,0.719381050479468
0.122266063332774,0.719186359585317
0.120811980759259,0.718989703291207
0.119327925399004,0.718791136707458
0.117813823414349,0.71859071494439
0.116269600967636,0.718388493112323
0.114695184221209,0.718184526321577
0.113090499337408,0.717978869682471
0.111455472478575,0.717771578305326
0.109790029807053,0.71756270730046
0.108094097485184,0.717352311778194
0.106367601675309,0.717140446848847
0.10461046853977,0.71692716762274
0.10282262424091,0.716712529210193
0.10100399494107,0.716496586721524
0.0991545068025926,0.716279395267054
0.0972740859878194,0.716061009957102
0.0972740859878194,0.716061009957102
0.0953973710306991,0.715845421486933
0.0935589451541418,0.715636487041199
0.0917586515539316,0.715434061464302
0.089996333425853,0.715237999600646
0.0882718339656902,0.715048156294634
0.0865849963692272,0.714864386390668
0.0849356638322484,0.714686544733151
0.0833236795505382,0.714514486166487
0.0817488867198805,0.714348065535077
0.0802111285360598,0.714187137683326
0.0787102481948602,0.714031557455635
0.077246088892066,0.713881179696408
0.0758184938234615,0.713735859250047
0.0744273061848308,0.713595450960956
0.0730723691719583,0.713459809673537
0.0717535259806281,0.713328790232194
0.0704706198066246,0.713202247481328
0.0692234938457318,0.713080036265344
0.0680119912937341,0.712962011428643
0.0668359553464159,0.712848027815629
0.0656952291995611,0.712737940270704
0.0645896560489541,0.712631603638272
0.0635190790903792,0.712528872762735
0.0624833415196205,0.712429602488497
0.0614822865324624,0.71233364765996
0.060515757324689,0.712240863121526
0.0595835970920847,0.712151103717599
0.0586856490304336,0.712064224292583
0.05782175633552,0.711980079690878
0.0569917622031281,0.711898524756889
0.0561955098290421,0.711819414335019
0.0554328424090464,0.71174260326967
0.0547036031389251,0.711667946405245
0.0540076352144625,0.711595298586147
0.0533447818314428,0.711524514656778
0.0527148861856504,0.711455449461543
0.0521177914728693,0.711387957844843
0.0515533408888839,0.711321894651082
0.0510213776294783,0.711257114724662
0.0505217448904369,0.711193472909986
0.0500542858675439,0.711130824051458
0.0496188437565834,0.711069022993479
0.0492152617533399,0.711007924580453
0.0488433830535974,0.710947383656783
0.0485030508531402,0.710887255066872
0.0481941083477526,0.710827393655122
0.0479163987332189,0.710767654265937
0.0476697652053232,0.710707891743719
0.0474540509598498,0.710647960932872
0.0472690991925829,0.710587716677797
0.0471147530993068,0.710527013822898
0.0469908558758057,0.710465707212578
0.0468972507178639,0.71040365169124
0.0468337808212655,0.710340702103286
0.0468002893817949,0.710276713293119
0.0467966195952363,0.710211540105143
0.0468226146573739,0.71014503738376
0.046878117763992,0.710077059973373
0.0469629721108747,0.710007462718386
0.0470770208938064,0.7099361004632
0.0472201073085713,0.709862828052218
0.0473920745509536,0.709787500329845
0.0475927658167376,0.709709972140481
0.0478220243017075,0.709630098328532
0.0480796932016475,0.709547733738398
0.0483656157123419,0.709462733214483
0.0486796350295749,0.70937495160119
0.0490215943491308,0.709284243742923
0.0493913368667937,0.709190464484083
0.0497887057783481,0.709093468669073
0.050213544279578,0.708993111142297
0.0506656955662677,0.708889246748158
0.0511450028342015,0.708781730331057
0.0516513092791636,0.708670416735399
0.0521844580969383,0.708555160805586
0.0527442924833098,0.70843581738602
0.0533306556340622,0.708312241321106
0.05394339074498,0.708184287455245
0.0545823410118472,0.70805181063284
0.0552473496304482,0.707914665698295
0.0559382597965672,0.707772707496013
0.0566549147059885,0.707625790870395
0.0573971575544962,0.707473770665845
0.0581648315378746,0.707316501726767
0.0589577798519079,0.707153838897562
0.0597758456923805,0.706985637022634
0.0606188722550765,0.706811750946385
0.0614867027357801,0.706632035513219
0.0623791803302757,0.706446345567537
0.0632961482343475,0.706254535953745
0.0642374496437796,0.706056461516243
0.0652029277543563,0.705851977099435
0.066192425761862,0.705640937547724
0.0672057868620807,0.705423197705512
0.0682428542507968,0.705198612417203
0.0693034711237946,0.7049670365272
0.0703874806768581,0.704728324879905
0.0714947261057717,0.704482332319721
0.0726250506063197,0.704228913691052
0.0737782973742862,0.703967923838299
0.0749543096054555,0.703699217605866
0.0761529304956118,0.703422649838156
0.0773740032405394,0.703138075379571
0.0786173710360226,0.702845349074515
0.0798828770778455,0.70254432576739
0.0811703645617924,0.702234860302599
0.0824796766836476,0.701916807524546
0.0838106566391952,0.701590022277632
0.0851631476242196,0.701254359406261
0.0865369928345049,0.700909673754836
0.0879320354658354,0.70055582016776
0.0893481187139954,0.700192653489435
0.090785085774769,0.699820028564265
0.0922427798439406,0.699437800236652
0.0937210441172944,0.699045823350998
0.0952197217906146,0.698643952751708
0.0967386560596853,0.698232043283184
0.0982776901202911,0.697809949789829
0.0998366671682158,0.697377527116045
0.101415430399244,0.696934630106236
0.10301382300916,0.696481113604804
0.104631688193748,0.696016832456152
0.106268869148791,0.695541641504684
0.107925209070075,0.695055395594801
0.109600551153384,0.694557949570908
0.111294738594501,0.694049158277406
0.113007614589212,0.693528876558699
0.1147390223333,0.692996959259189
0.116488805022549,0.692453261223281
0.118256805852744,0.691897637295375
0.120042868019669,0.691329942319875
0.121846834719109,0.690750031141184
0.123668549146847,0.690157758603706
0.125507854498667,0.689552979551842
0.127364593970355,0.688935548829996
0.129238610757694,0.68830532128257
0.131129748056468,0.687662151753968
0.133037849062462,0.687005895088592
0.13496275697146,0.686336406130846
0.136904314979246,0.685653539725132
0.138862366281604,0.684957150715852
0.140836754074319,0.68424709394741
0.142827321553175,0.683523224264209
0.144833911913957,0.682785396510652
0.146856368352447,0.682033465531141
0.148894534064431,0.68126728617008
0.150948252245693,0.68048671327187
0.153017366092018,0.679691601680916
0.155101718799188,0.67888180624162
0.157201153562989,0.678057181798385
0.159315513579205,0.677217583195613
0.16144464204362,0.676362865277708
0.163588382152018,0.675492882889073
0.165746577100184,0.674607490874109
0.167919070083902,0.673706544077222
0.170105704298955,0.672789897342812
0.172306322941129,0.671857405515283
0.174520769206208,0.670908923439038
0.176748886289975,0.66994430595848
0.178990517388215,0.668963407918012
0.181245505696712,0.667966084162036
0.183513694411251,0.666952189534956
0.185794926727616,0.665921578881173
0.18808904584159,0.664874107045093
0.190395894948959,0.663809628871116
0.192715317245506,0.662727999203645
0.195047155927016,0.661629072887085
0.197391254189273,0.660512704765838
0.19974745522806,0.659378749684306
0.202115602239164,0.658227062486892
0.204495538418367,0.657057498018
0.206887106961453,0.655869911122032
0.209290151064208,0.654664156643391
0.211704513922415,0.65344008942648
0.214130038731859,0.652197564315701
0.216566568688324,0.650936436155459
0.219013946987594,0.649656559790155
0.221472016825453,0.648357790064192
0.223940621397685,0.647039981821974
0.226419603900076,0.645702989907903
0.228908807528408,0.644346669166382
0.231408075478467,0.642970874441814
0.233917250946036,0.641575460578602
0.2364361771269,0.640160282421149
0.238964697216843,0.638725194813857
0.241502654411649,0.63727005260113
0.244049891907103,0.635794710627369
0.246606252898989,0.63429902373698
0.24917158058309,0.632782846774363
0.251745718155192,0.631246034583923
0.254328508811078,0.629688442010061
0.256919795746532,0.628109923897181
0.25951942215734,0.626510335089686
0.262127231239285,0.624889530431978
0.264743066188151,0.62324736476846
0.267366770199723,0.621583692943536
0.269998186469785,0.619898369801609
0.272637158194121,0.618191250187079
0.275283528568515,0.616462188944352
0.277937140788752,0.61471104091783
0.280597838050615,0.612937660951915
0.28326546354989,0.611141903891011
0.28593986048236,0.60932362457952
0.28862087204381,0.607482677861846
0.291308341430024,0.605618918582391
0.294002111836785,0.603732201585557
0.296702026459879,0.601822381715749
0.299407928495089,0.599889313817369
0.3021196611382,0.597932852734819
0.304837067584997,0.595952853312502
0.307559991031262,0.593949170394823
0.310288274672781,0.591921658826182
0.313021761705338,0.589870173450984
0.315760295324716,0.58779456911363
0.318503718726701,0.585694700658525
0.321251875107076,0.583570422930071
0.324004607661626,0.58142159077267
0.326761759586135,0.579248059030726
0.329523174076387,0.577049682548641
0.332288694328167,0.574826316170819
0.335058163537258,0.572577814741661
0.337831424899445,0.570304033105572
0.340608321610512,0.568004826106954
0.343388696866244,0.56568004859021
0.346172393862424,0.563329555399742
0.348959255794837,0.560953201379955
0.351749125859267,0.558550841375249
0.354541847251499,0.556122330230029
0.357337263167316,0.553667522788697
0.360135216802503,0.551186273895657
0.362935551352844,0.54867843839531
0.365738110014123,0.54614387113206
0.368542735982125,0.54358242695031
0.371349272452633,0.540993960694463
0.374157562621433,0.538378327208921
0.376967449684308,0.535735381338087
0.379778776837042,0.533064977926365
0.38259138727542,0.530366971818157
0.385405124195227,0.527641217857866
0.388219830792245,0.524887570889895
0.39103535026226,0.522105885758646
0.393851525801055,0.519296017308524
0.396668200604416,0.516457820383929
0.399485217868125,0.513591149829267
0.402302420787968,0.510695860488938
0.405119652559729,0.507771807207347
0.407936756379192,0.504818844828895
0.410753575442141,0.501836828197987
0.41356995294436,0.498825612159025
0.416385732081634,0.495785051556411
0.419200756049746,0.492715001234549
0.422014868044482,0.489615316037841
0.424827911261625,0.48648585081069
0.42763972889696,0.4833264603975
0.430450164146271,0.480136999642673
0.433259060205341,0.476917323390612
0.436066260269956,0.473667286485719
0.4388716075359,0.470386743772399
0.441674945198956,0.467075550095052
0.44447611645491,0.463733560298084
0.447274964499544,0.460360629225895
0.450071332528644,0.45695661172289
0.452865063737994,0.453521362633471
0.455656001323378,0.450054736802041
0.45844398848058,0.446556589073003
0.461228868405385,0.44302677429076
0.464010484293577,0.439465147299714
0.466788679340939,0.435871562944269
0.469563296743256,0.432245876068827
0.472334179696313,0.428587941517791
0.475101171395894,0.424897614135565
0.477864115037782,0.42117474876655
0.480622853817763,0.41741920025515
0.48337723093162,0.413630823445769
0.486127089575138,0.409809473182807
0.488872272944101,0.40595500431067
0.491612624234293,0.402067271673758
0.494347986641498,0.398146130116476
0.497078203361501,0.394191434483226
0.499803117590085,0.390203039618412
0.502522572523036,0.386180800366435
0.505236411356137,0.382124571571699
0.507944477285172,0.378034208078606
0.510646613505927,0.37390956473156
0.513342663214184,0.369750496374963
0.516032469605729,0.365556857853219
0.518715875876345,0.36132850401073
0.521392725221817,0.357065289691899
0.524062860837929,0.352767069741129
0.526726125920465,0.348433699002823
0.52938236366521,0.344065032321383
0.532031417267948,0.339660924541214
0.534673129924462,0.335221230506716
0.537307344830538,0.330745805062294
0.539933905181959,0.32623450305235
0.54255265417451,0.321687179321287
0.545163435003974,0.317103688713508
0.547766090866137,0.312483886073416
0.550360464956783,0.307827626245413
0.552946400471695,0.303134764073904
0.555523740606658,0.29840515440329
0.558092328557456,0.293638652077974
0.560652007519873,0.288835111942359
0.563202620689694,0.283994388840848
0.565744011262703,0.279116337617845
0.568276022434684,0.274200813117751
0.570798497401422,0.26924767018497
0.573311279358699,0.264256763663904
0.575814211502302,0.259227948398958
0.578307137028014,0.254161079234532
0.580789899131619,0.249056011015031
0.583262341008902,0.243912598584857
0.585724305855646,0.238730696788413
0.588175636867636,0.233510160470101
0.590616177240657,0.228250844474326
0.593045770170492,0.222952603645489
0.595464258852926,0.217615292827994
0.597871486483743,0.212238766866243
0.600267296258727,0.206822880604639
0.602651531373663,0.201367488887586
0.605024035024334,0.195872446559486
0.607384650406526,0.190337608464741
0.609733220716021,0.184762829447756
0.612069589148605,0.179147964352932
0.614393598900061,0.173492868024672
0.616705093166175,0.16779739530738
0.61900391514273,0.162061401045458
0.621289908025509,0.15628474008331
0.623562915010299,0.150467267265337
0.625822779292882,0.144608837435944
0.628069344069044,0.138709305439532
0.630302452534568,0.132768526120505
0.632521947885239,0.126786354323266
0.63472767331684,0.120762644892217
0.636919472025156,0.114697252671761
0.639097187205972,0.108590032506302
0.641260662055072,0.102440839240242
0.643409739768239,0.0962495277179834
0.645544263541258,0.0900159527839298
0.647664076569913,0.0837399692824841
0.649769022049989,0.0774214320580489
0.65185894317727,0.0710601959550273
0.653933683147539,0.0646561158178219
0.655993085156582,0.0582090464908359
0.658036992400183,0.0517188428184719
0.660065248074125,0.045185359645133
0.662077695374193,0.0386084518152217
0.664074177496171,0.0319879741731415
0.666054537635844,0.0253237815632946
0.668018618988995,0.0186157288300846
0.669966264751409,0.0118636708179136
0.671897318118871,0.00506746237118523
0.673811622287164,-0.00177304166569839
0.675709020452072,-0.00865798644833361
0.677589355809381,-0.0155875171323183
0.679452471554873,-0.0225617788732488
0.681298210884334,-0.0295809168267231
0.683126416993547,-0.0366450761483375
0.684936933078298,-0.0437544019936898
0.686729602334369,-0.0509090395183764
0.688504267957546,-0.0581091338779952
0.690260773143612,-0.0653548302281427
0.691998961088352,-0.0726462737244166
0.693718674987551,-0.0799836095224133
0.695419758036991,-0.0873669827777307
0.697102053432458,-0.0947965386459652
0.698765404369736,-0.102272422282715
0.700409654044608,-0.109794778843575
0.70203464565286,-0.117363753484145
0.703640222390276,-0.124979491360021
0.705226227452639,-0.1326421376268
0.706792504035734,-0.140351837440078
0.708338895335345,-0.148108735955455
0.709865244547257,-0.155912978328525
0.711371394867254,-0.163764709714887
0.712857189491119,-0.171664075270138
0.714322471614638,-0.179611220149875
0.715767084433594,-0.187606289509694
0.717190871143771,-0.195649428505193
0.718593674940955,-0.20374078229197
0.719975339020929,-0.211880496025621
0.721335706579477,-0.220068714861743
0.722674620812383,-0.228305583955934
0.723991924915433,-0.23659124846379
0.72528746208441,-0.24492585354091
0.726561075515098,-0.253309544342889
0.727812608403281,-0.261742466025325
0.729041903944745,-0.270224763743815
0.730248805335272,-0.278756582653956
0.731433155770648,-0.287338067911346
0.732594798446656,-0.295969364671581
0.733733576559081,-0.304650618090259
0.734849333303707,-0.313381973322977
0.735941911876319,-0.322163575525331
0.737011155472699,-0.33099556985292
0.738056907288634,-0.339878101461339
0.739079010519907,-0.348811315506187
0.740077308362301,-0.35779535714306
0.741051644011603,-0.366830371527556
0.741051644011603,-0.366830371527556
0.741978951620808,-0.375822173960046
0.742836559545899,-0.384676899889192
0.743624902287134,-0.393395174693024
0.744344414344774,-0.401977623749572
0.744995530219077,-0.410424872436867
0.745578684410304,-0.41873754613294
0.746094311418713,-0.42691627021582
0.746542845744566,-0.434961670063538
0.746924721888119,-0.442874371054125
0.747240374349635,-0.45065499856561
0.74749023762937,-0.458304177976025
0.747674746227587,-0.4658225346634
0.747794334644544,-0.473210694005765
0.747849437380499,-0.48046928138115
0.747840488935714,-0.487598922167587
0.747767923810447,-0.494600241743105
0.747632176504958,-0.501473865485734
0.747433681519507,-0.508220418773506
0.747172873354352,-0.51484052698445
0.746850186509755,-0.521334815496598
0.746466055485973,-0.527703909687979
0.746020914783267,-0.533948434936624
0.745515198901895,-0.540069016620563
0.744949342342119,-0.546066280117827
0.744323779604196,-0.551940850806446
0.743638945188387,-0.55769335406445
0.742895273594951,-0.563324415269871
0.742093199324148,-0.568834659800737
0.741233156876237,-0.574224713035081
0.740315580751477,-0.579495200350931
0.739340905450129,-0.584646747126319
0.738309565472451,-0.589679978739275
0.737221995318704,-0.59459552056783
0.736078629489146,-0.599393997990013
0.734879902484037,-0.604076036383856
0.733626248803637,-0.608642261127388
0.732318102948206,-0.61309329759864
0.730955899418002,-0.617429771175643
0.729540072713285,-0.621652307236426
0.728071057334316,-0.625761531159021
0.726549287781352,-0.629758068321457
0.724975198554655,-0.633642544101766
0.723349224154482,-0.637415583877977
0.721671799081095,-0.641077813028121
0.719943357834752,-0.644629856930228
0.718164334915712,-0.648072340962329
0.716335164824236,-0.651405890502454
0.714456282060583,-0.654631130928634
0.712528121125013,-0.657748687618899
0.710551116517784,-0.660759185951279
0.708525702739157,-0.663663251303805
0.70645231428939,-0.666461509054507
0.704331385668745,-0.669154584581416
0.702163351377479,-0.671743103262562
0.699948645915852,-0.674227690475975
0.697687703784125,-0.676608971599686
0.695380959482556,-0.678887572011726
0.693028847511405,-0.681064117090123
0.690631802370932,-0.68313923221291
0.688190258561396,-0.685113542758117
0.685704650583057,-0.686987674103774
0.683175412936173,-0.68876225162791
0.680602980121005,-0.690437900708558
0.677987786637812,-0.692015246723747
0.675330266986854,-0.693494915051508
0.67263085566839,-0.69487753106987
0.669889987182679,-0.696163720156864
0.667108096029982,-0.697354107690522
0.664285616710558,-0.698449319048873
0.661422983724665,-0.699449979609947
0.658520631572565,-0.700356714751775
0.655578994754515,-0.701170149852388
0.652598507770777,-0.701890910289816
0.649579605121608,-0.702519621442088
0.646522721307269,-0.703056908687237
0.64342829082802,-0.703503397403292
0.64029674818412,-0.703859712968283
0.637128527875827,-0.704126480760241
0.633924064403403,-0.704304326157196
0.630683792267106,-0.70439387453718
0.627408145967196,-0.704395751278221
0.624097560003932,-0.704310581758351
0.620752468877574,-0.7041389913556
0.617373307088381,-0.703881605447998
0.613960509136613,-0.703539049413576
0.61051450952253,-0.703111948630364
0.60703574274639,-0.702600928476393
0.603524643308455,-0.702006614329693
0.599981645708982,-0.701329631568294
0.596407184448231,-0.700570605570227
0.592801694026463,-0.699730161713523
0.589165608943936,-0.698808925376211
0.58549936370091,-0.697807521936322
0.581803392797644,-0.696726576771887
0.578078130734399,-0.695566715260935
0.574324012011433,-0.694328562781498
0.570541471129007,-0.693012744711606
0.566730942587378,-0.691619886429288
0.562892860886808,-0.690150613312577
0.559027660527556,-0.688605550739501
0.55513577600988,-0.686985324088092
0.551217641834041,-0.685290558736379
0.547273692500299,-0.683521880062394
0.543304362508912,-0.681679913444166
0.53931008636014,-0.679765284259727
0.535291298554243,-0.677778617887105
0.53124843359148,-0.675720539704333
0.527181925972111,-0.67359167508944
0.523092210196396,-0.671392649420457
0.518979720764592,-0.669124088075413
0.514844892176961,-0.66678661643234
0.510688158933762,-0.664380859869268
0.506509955535255,-0.661907443764228
0.502310716481698,-0.659366993495249
0.498090876273351,-0.656760134440362
0.493850869410474,-0.654087491977598
0.489591130393327,-0.651349691484986
0.485312093722168,-0.648547358340559
0.481014193897258,-0.645681117922344
0.476697865418856,-0.642751595608375
0.472363542787221,-0.639759416776679
0.468011660502613,-0.636705206805289
0.463642653065291,-0.633589591072234
0.459256954975515,-0.630413194955545
0.454855000733545,-0.627176643833253
0.45043722483964,-0.623880563083387
0.446004061794059,-0.620525578083977
0.441555946097062,-0.617112314213056
0.437093312248909,-0.613641396848653
0.432616594749859,-0.610113451368797
0.428126228100171,-0.606529103151521
0.423622646800105,-0.602888977574853
0.419106285349921,-0.599193700016826
0.414577578249878,-0.595443895855468
0.410036960000236,-0.59164019046881
0.405484865101254,-0.587783209234884
0.400921728053191,-0.583873577531718
0.396347983356307,-0.579911920737344
0.391764065510862,-0.575898864229792
0.387170409017116,-0.571835033387093
0.382567448375327,-0.567721053587276
0.377955618085755,-0.563557550208373
0.37333535264866,-0.559345148628413
0.368707086564301,-0.555084474225428
0.364071254332938,-0.550776152377447
0.35942829045483,-0.5464208084625
0.354778629430236,-0.542019067858619
0.350122705759418,-0.537571555943834
0.345460953942632,-0.533078898096175
0.340793808480141,-0.528541719693673
0.336121703872202,-0.523960646114357
0.331445074619075,-0.519336302736259
0.32676435522102,-0.514669314937409
0.322079980178297,-0.509960308095837
0.317392383991164,-0.505209907589573
0.312702001159882,-0.500418738796648
0.308009266184709,-0.495587427095094
0.303314613565906,-0.490716597862938
0.298618477803732,-0.485806876478213
0.293921293398447,-0.480858888318949
0.289223494850309,-0.475873258763176
0.284525516659579,-0.470850613188924
0.279827793326516,-0.465791576974224
0.275130759351379,-0.460696775497106
0.270434849234429,-0.455566834135602
0.265740497475924,-0.45040237826774
0.261048138576123,-0.445204033271552
0.256358207035288,-0.439972424525067
0.251671137353676,-0.434708177406318
0.246987364031548,-0.429411917293332
0.242307321569164,-0.424084269564142
0.237631444466781,-0.418725859596778
0.232960167224661,-0.41333731276927
0.228293924343063,-0.407919254459648
0.223633150322245,-0.402472310045943
0.218978279662469,-0.396997104906185
0.214329746863992,-0.391494264418405
0.209687986427076,-0.385964413960633
0.205053432851978,-0.3804081789109
0.200426520638959,-0.374826184647235
0.195807684288278,-0.36921905654767
0.191197358300195,-0.363587419990234
0.18659597717497,-0.357931900352959
0.182003975412861,-0.352253123013874
0.177421787514128,-0.34655171335101
0.172849847979032,-0.340828296742397
0.16828859130783,-0.335083498566066
0.163738452000783,-0.329317944200048
0.159199864558151,-0.323532259022372
0.154673263480193,-0.317727068411069
0.150159083267167,-0.311902997744169
0.145657758419335,-0.306060672399704
0.141169723436955,-0.300200717755702
0.136695412820287,-0.294323759190195
0.132235261069591,-0.288430422081213
0.127789702685125,-0.282521331806787
0.12335917216715,-0.276597113744947
0.118944104015925,-0.270658393273723
0.114544932731709,-0.264705795771145
0.110162092814763,-0.258739946615245
0.105796018765344,-0.252761471184052
0.101447145083714,-0.246770994855598
0.0971159062701315,-0.240769143007911
0.092802736824856,-0.234756541019024
0.0885080712481468,-0.228733814266965
0.084232344040264,-0.222701588129766
0.0799759897014665,-0.216660487985457
0.0757394427320143,-0.210611139212069
0.0715231376321666,-0.204554167187631
0.0673275089021831,-0.198490197290175
0.0631529910423232,-0.192419854897731
0.0590000185528465,-0.186343765388328
0.0548690259340124,-0.180262554139998
0.0507604476860806,-0.174176846530771
0.0466747183093103,-0.168087267938677
0.0426122723039614,-0.161994443741747
0.0385735441702931,-0.15589899931801
0.0345589684085652,-0.149801560045499
0.0305689795190368,-0.143702751302242
0.0266040120019679,-0.137603198466271
0.0226645003576176,-0.131503526915616
0.0187508790862458,-0.125404362028306
0.0148635826881115,-0.119306329182374
0.0110030456634748,-0.113210053755848
0.00716970251259479,-0.10711616112676
0.00336398773573124,-0.10102527667314
-0.000413664166856578,-0.0949380257730172
-0.00416281869490885,-0.0888550338044239
-0.00788304134816641,-0.0827769261453893
-0.0115738976263694,-0.0767043281739444
-0.0152349530292586,-0.0706378652681192
-0.0188657730565743,-0.0645781628059446
-0.0224659232080572,-0.0585258461654503
-0.0260349689834474,-0.0524815407246676
-0.0295724758824858,-0.0464458718616259
-0.0330780094049126,-0.0404194649543566
-0.0365511350504686,-0.0344029453808894
-0.0399914183188938,-0.0283969385192552
-0.0433984247099292,-0.0224020697474839
-0.0467717197233149,-0.0164189644436065
-0.0501108688587917,-0.0104482479856528
-0.0534154376160998,-0.00449054575165381
-0.0566849914949799,0.00145351688036069
-0.0599190959951723,0.00738331453235958
-0.0631173166164177,0.0132982218263132
-0.0662792188584563,0.0191976133841904
-0.069404368221029,0.0250808638279613
-0.0724923302038759,0.0309473477795952
-0.0755426703067378,0.0367964398610621
-0.0785549540293548,0.0426275146943309
-0.0815287468714678,0.0484399469013719
-0.0844636143328169,0.0542331111041542
-0.087359121913143,0.0600063819246477
-0.0902148351121861,0.0657591339848216
-0.0930303194296871,0.071490741906646
-0.0958051403653863,0.07720058031209
-0.0985388634190243,0.0828880238231236
-0.101231054090341,0.0885524470617159
-0.103881277879078,0.0941932246498371
-0.106489100284975,0.0998097312094563
-0.109054086807773,0.105401341362543
-0.111575802947212,0.110967429731068
-0.114053814203032,0.116507370936999
-0.116487686074975,0.122020539602307
-0.11887698406278,0.127506310348961
-0.121221273666189,0.13296405779893
-0.123520120384941,0.138393156574186
-0.125773089718777,0.143792981296695
-0.127979747167437,0.14916290658843
-0.130139658230663,0.154502307071358
-0.132252388408194,0.15981055736745
-0.134317503199771,0.165087032098675
-0.136334568105135,0.170331105887003
-0.138303148624025,0.175542153354404
-0.140222810256183,0.180719549122846
-0.14209311850135,0.1858626678143
-0.143913638859264,0.190970884050736
-0.145683936829668,0.196043572454122
-0.1474035779123,0.201080107646428
-0.149072127606903,0.206079864249624
-0.150689151413216,0.21104221688568
-0.15225421483098,0.215966540176565
-0.153766883359936,0.220852208744249
-0.155226722499823,0.225698597210701
-0.156633297750383,0.230505080197891
-0.157986174611355,0.235271032327788
-0.159284918582481,0.239995828222362
-0.160529095163501,0.244678842503583
-0.161718269854154,0.249319449793421
-0.162852008154183,0.253917024713844
-0.163929875563327,0.258470941886822
-0.164951437581326,0.262980575934326
-0.165916259707922,0.267445301478324
-0.166823907442855,0.271864493140786
-0.167673946285864,0.276237525543682
-0.168465941736692,0.280563773308981
-0.169199459295078,0.284842611058654
-0.169874064460762,0.289073413414669
-0.170489322733485,0.293255554998996
-0.171044799612988,0.297388410433604
-0.171540060599011,0.301471354340464
-0.171974671191295,0.305503761341545
-0.17234819688958,0.309485006058817
-0.172660203193606,0.313414463114248
-0.172910255603115,0.317291507129809
-0.173097919617846,0.32111551272747
-0.17322276073754,0.324885854529199
-0.173284344461937,0.328601907156966
-0.173282236290779,0.332263045232742
-0.173216001723805,0.335868643378495
-0.173085206260756,0.339418076216196
-0.172889415401373,0.342910718367813
-0.172628194645395,0.346345944455316
-0.172301109492564,0.349723129100676
-0.17190772544262,0.353041646925861
-0.171447607995303,0.356300872552841
-0.170920322650354,0.359500180603586
-0.170325434907514,0.362638945700065
-0.169662510266522,0.365716542464248
-0.16893111422712,0.368732345518104
-0.168130812289048,0.371685729483604
-0.167261169952045,0.374576068982716
-0.166321752715854,0.37740273863741
-0.165312126080214,0.380165113069657
-0.164231855544866,0.382862566901424
-0.16308050660955,0.385494474754683
-0.161857644774007,0.388060211251402
-0.160562835537977,0.390559151013552
-0.159195644401201,0.392990668663101
-0.157755636863419,0.39535413882202
-0.156242378424372,0.397648936112277
-0.1546554345838,0.399874435155843
-0.152994370841443,0.402030010574688
-0.151258752697043,0.40411503699078
-0.149448145650339,0.406128889026089
-0.147562115201073,0.408070941302585
-0.145600226848984,0.409940568442238
-0.143562046093813,0.411737145067016
-0.141447138435301,0.413460045798891
-0.139255069373188,0.41510864525983
-0.136985404407215,0.416682318071805
-0.134637709037121,0.418180438856784
-0.132211548762648,0.419602382236737
-0.129706489083536,0.420947522833633
-0.127122095499526,0.422215235269443
-0.124457933510358,0.423404894166135
-0.121713568615772,0.42451587414568
-0.118888566315509,0.425547549830047
-0.115982492109309,0.426499295841205
-0.112994911496914,0.427370486801124
-0.109925389978063,0.428160497331775
-0.106773493052497,0.428868702055125
-0.103538786219956,0.429494475593145
-0.100220834980181,0.430037192567805
-0.0968192048329125,0.430496227601074
-0.0933334612778909,0.430870955314922
-0.0897631698148565,0.431160750331317
-0.0861078959435501,0.431364987272231
-0.0823672051637118,0.431483040759632
-0.0785406629750826,0.43151428541549
-0.0746278348774024,0.431458095861775
-0.0706282863704122,0.431313846720456
-0.0665415829538521,0.431080912613502
-0.0623672901274629,0.430758668162885
-0.0581049733909848,0.430346487990571
-0.0537541982441585,0.429843746718533
-0.0493145301867243,0.429249818968739
-0.044785534718423,0.428564079363158
-0.0401667773389946,0.427785902523761
-0.0354578235481801,0.426914663072516
-0.0306582388457196,0.425949735631394
-0.0257675887313539,0.424890494822365
-0.0207854387048231,0.423736315267396
-0.0157113542658682,0.422486571588459
-0.0105449009142291,0.421140638407523
-0.00528564414964686,0.419697890346558
6.68505281385748e-05,0.418157702027532
0.00551301761938622,0.416519448072416
0.0110532916243561,0.414782503103179
0.0166881070433071,0.412946241741791
0.0224178983764994,0.411010038610221
0.028243100124192,0.40897326833044
0.0341641467866448,0.406835305524415
0.0401814728641169,0.404595524814118
0.0462955128568683,0.402253300821518
0.0525067012651579,0.399808008168584
0.058815472589246,0.397259021477286
0.0652222613293913,0.394605715369593
0.071727501985854,0.391847464467476
0.078331629058893,0.388983643392903
0.0850350770487684,0.386013626767844
0.0918382804557392,0.382936789214269
0.0987416737800654,0.379752505354148
0.105745691522006,0.37646014980945
0.112850768181821,0.373059097202144
0.12005733825977,0.3695487221542
0.127365836256112,0.365928399287588
0.134776696671106,0.362197503224278
0.142290354005013,0.358355408586239
