-0.385582866505662,0.576895387671609
-0.376877601202358,0.568643285034646
-0.368244559652572,0.560423128477528
-0.35968354257736,0.552234855099808
-0.351194350697777,0.544078402001039
-0.342776784734876,0.535953706280773
-0.334430645409714,0.527860705038564
-0.326155733443344,0.519799335373963
-0.317951849556823,0.511769534386524
-0.309818794471204,0.503771239175799
-0.301756368907543,0.495804386841341
-0.293764373586895,0.487868914482702
-0.285842609230314,0.479964759199435
-0.277990876558856,0.472091858091094
-0.270208976293575,0.46425014825723
-0.262496709155526,0.456439566797396
-0.254853875865765,0.448660050811146
-0.247280277145346,0.440911537398031
-0.239775713715324,0.433193963657604
-0.232339986296753,0.425507266689419
-0.22497289561069,0.417851383593027
-0.217674242378189,0.410226251467981
-0.210443827320304,0.402631807413835
-0.203281451158091,0.39506798853014
-0.196186914612604,0.38753473191645
-0.189160018404899,0.380031974672316
-0.18220056325603,0.372559653897293
-0.175308349887052,0.365117706690932
-0.168483179019021,0.357706070152786
-0.16172485137299,0.350324681382408
-0.155033167670016,0.342973477479351
-0.148407928631153,0.335652395543167
-0.141848934977455,0.328361372673408
-0.135355987429978,0.321100345969629
-0.128928886709777,0.31386925253138
-0.122567433537906,0.306668029458215
-0.116271428635421,0.299496613849688
-0.110040672723376,0.292354942805349
-0.103874966522827,0.285242953424752
-0.0977741107548275,0.27816058280745
-0.0917379061404335,0.271107768052996
-0.0857661534006994,0.264084446260941
-0.0798586532566803,0.257090554530839
-0.074015206429431,0.250126029962242
-0.0682356136400065,0.243190809654704
-0.0625196756094619,0.236284830707777
-0.0568671930588517,0.229408030221012
-0.051277966709231,0.222560345293964
-0.0457517972816548,0.215741713026185
-0.040288485497178,0.208952070517227
-0.0348878320768554,0.202191354866643
-0.029549637741742,0.195459503173987
-0.0242737032128926,0.18875645253881
-0.0190598292113622,0.182082140060665
-0.0139078164582059,0.175436502839104
-0.00881746567447828,0.168819477973682
-0.00378857758123438,0.16223100256395
0.00117904710047076,0.15567101370946
0.00608560764958241,0.149139448509767
0.0109313033450456,0.142636244064421
0.0157163334658054,0.136161337472977
0.0204408972908068,0.129714665834987
0.0251051940989951,0.123296166250002
0.0297094231693152,0.116905775817577
0.0342537837807123,0.110543431637264
0.0387384752121315,0.104209070808615
0.0431636967425177,0.0979026304311826
0.0475296476508162,0.0916240476045203
0.051836527215972,0.0853732594281807
0.0560845347169302,0.0791502030017162
0.0602738694326359,0.0729548154246794
0.0644047306420341,0.0667870337966231
0.06847731762407,0.0606467952171001
0.0724918296576887,0.054534036785663
0.0764484660218352,0.0484486956018643
0.0803474259954545,0.042390708765257
0.0841889088574919,0.0363600133753935
0.0879731138868924,0.0303565465318267
0.0917002403626011,0.0243802453341092
0.095370487563563,0.0184310468817935
0.0989840547687233,0.0125088882744327
0.102541141257027,0.00661370661157917
0.106041946307419,0.000745438992785563
0.109486669198845,-0.00509597748239535
0.11287550921025,-0.0109106057144108
0.116208665620578,-0.0166985086037082
0.119486337708775,-0.0224597490507348
0.122708724753786,-0.0281943899559381
0.125876026034557,-0.0339024942197652
0.128988440830031,-0.0395841247426635
0.132046168419155,-0.0452393444250803
0.135049408080873,-0.0508682161674629
0.13799835909413,-0.0564708028702587
0.140893220737872,-0.062047167433915
0.143734192291043,-0.0675973727588791
0.146521473032589,-0.0731214817455983
0.149255262241455,-0.0786195572945199
0.151935759196586,-0.0840916623060912
0.154563163176926,-0.0895378596807596
0.157137673461422,-0.0949582123189723
0.159659489329017,-0.100352783121177
0.162128810058658,-0.10572163498782
0.164545834929289,-0.11106483081935
0.166910763219856,-0.116382433516214
0.169223794209302,-0.121674505978858
0.171485127176575,-0.126941111107731
0.173694961400618,-0.132182311803279
0.175853496160377,-0.13739817096595
0.177960930734796,-0.142588751496191
0.180017464402822,-0.14775411629445
0.182023296443398,-0.152894328261174
0.18397862613547,-0.15800945029681
0.185883652757984,-0.163099545301806
0.187738575589884,-0.168164676176608
0.189543593910115,-0.173204905821665
0.191298906997622,-0.178220297137422
0.193004714131351,-0.183210913024329
0.194661214590247,-0.188176816382832
0.196268607653254,-0.193118070113378
0.197827092599318,-0.198034737116415
0.199336868707384,-0.20292688029239
0.200798135256397,-0.20779456254175
0.202211091525302,-0.212637846764943
0.203575936793044,-0.217456795862416
0.204892870338568,-0.222251472734617
0.206162091440819,-0.227021940281991
0.207383799378743,-0.231768261404988
0.208558193431284,-0.236490499004054
0.209685472877387,-0.241188715979637
0.210765836995999,-0.245862975232184
0.211799485066063,-0.250513339662142
0.212786616366524,-0.255139872169958
0.213727430176329,-0.25974263565608
0.214622125774422,-0.264321693020955
0.215470902439748,-0.268877107165031
0.216273959451251,-0.273408940988755
0.217031496087878,-0.277917257392574
0.217743711628574,-0.282402119276935
0.218410805352283,-0.286863589542286
0.21903297653795,-0.291301731089074
0.219610424464521,-0.295716606817746
0.22014334841094,-0.30010827962875
0.220631947656154,-0.304476812422533
0.221076421479106,-0.308822268099543
0.221476969158742,-0.313144709560226
0.221833789974007,-0.31744419970503
0.222147083203846,-0.321720801434402
0.222417048127205,-0.32597457764879
0.222643884023027,-0.330205591248641
0.222827790170259,-0.334413905134402
0.222968965847846,-0.338599582206521
0.223067610334732,-0.342762685365444
0.223123922909862,-0.34690327751162
0.223138102852183,-0.351021421545495
0.223110349440638,-0.355117180367517
0.223040861954173,-0.359190616878134
0.222929839671733,-0.363241793977791
0.222777481872263,-0.367270774566938
0.222583987834708,-0.371277621546021
0.222349556838013,-0.375262397815487
0.222074388161124,-0.379225166275783
0.221758681082986,-0.383165989827358
0.221402634882542,-0.387084931370658
0.221006448838739,-0.390982053806131
0.220570322230522,-0.394857420034224
0.220094454336836,-0.398711092955384
0.219579044436626,-0.402543135470059
0.219024291808836,-0.406353610478696
0.218430395732413,-0.410142580881742
0.2177975554863,-0.413910109579645
0.217125970349444,-0.417656259472851
0.216415839600789,-0.421381093461809
0.21566736251928,-0.425084674446965
0.214880738383863,-0.428767065328767
0.214056166473483,-0.432428329007663
0.213193846067084,-0.436068528384098
0.212293976443612,-0.439687726358522
0.211356756882011,-0.443285985831381
0.210382386661228,-0.446863369703122
0.209371065060206,-0.450419940874193
0.208322991357892,-0.453955762245041
0.207238364833229,-0.457470896716114
0.206117384765164,-0.460965407187858
0.204960250432641,-0.464439356560721
0.203767161114606,-0.46789280773515
0.202538316090003,-0.471325823611594
0.201273914637778,-0.474738467090498
0.199974156036875,-0.47813080107231
0.19863923956624,-0.481502888457479
0.197269364504818,-0.48485479214645
0.195864730131554,-0.488186575039671
0.194425535725393,-0.49149830003759
0.19295198056528,-0.494790030040654
0.191444263930161,-0.49806182794931
0.189902585098979,-0.501313756664005
0.188327143350681,-0.504545879085187
0.186718137964211,-0.507758258113304
0.185075768218515,-0.510950956648802
0.183400233392538,-0.514124037592129
0.181691732765224,-0.517277563843732
0.179950465615519,-0.520411598304058
0.178176631222368,-0.523526203873555
0.176370428864716,-0.52662144345267
0.174532057821508,-0.529697379941851
0.17266171737169,-0.532754076241544
0.170759606794205,-0.535791595252197
0.168825925368,-0.538809999874258
0.166860872372019,-0.541809353008173
0.164864647085208,-0.54478971755439
0.162837448786511,-0.547751156413356
0.160779476754874,-0.550693732485519
0.158690930269241,-0.553617508671326
0.156572008608559,-0.556522547871225
0.154422911051772,-0.559408912985661
0.152243836877824,-0.562276666915084
0.150034985365662,-0.56512587255994
0.14779655579423,-0.567956592820676
0.145528747442473,-0.57076889059774
0.143231759589336,-0.573562828791579
0.140905791513765,-0.576338470302641
0.138551042494705,-0.579095878031373
0.1361677118111,-0.581835114878221
0.133755998741896,-0.584556243743634
0.131316102566037,-0.587259327528059
0.12884822256247,-0.589944429131943
0.126352558010139,-0.592611611455733
0.123829308187988,-0.595260937399877
0.121278672374964,-0.597892469864822
0.118700849850011,-0.600506271751015
0.116096039892074,-0.603102405958904
0.113464441780099,-0.605680935388935
0.110806254793031,-0.608241922941557
0.108121678209813,-0.610785431517217
0.105410911309393,-0.613311524016361
0.102674153370714,-0.615820263339438
0.0999116036727225,-0.618311712386894
0.0971234614943627,-0.620785934059177
0.0943099261145799,-0.623242991256735
0.0914711968123192,-0.625682946880013
0.0886074728665257,-0.628105863829461
0.0857189535561445,-0.630511805005525
0.0828058381601206,-0.632900833308652
0.0798683259573993,-0.63527301163929
0.0769066162269255,-0.637628402897885
0.0739209082476444,-0.639967069984887
0.0709114012985008,-0.642289075800741
0.0678782946584403,-0.644594483245895
0.0648217876064075,-0.646883355220796
0.0617420794213478,-0.649155754625892
0.0586393693822061,-0.65141174436163
0.0555138567679277,-0.653651387328458
0.0523657408574573,-0.655874746426822
0.0491952209297405,-0.658081884557169
0.0460024962637219,-0.660272864619949
0.042787766138347,-0.662447749515606
0.0395512298325605,-0.66460660214459
0.0362930866253079,-0.666749485407347
0.0330135357955339,-0.668876462204324
0.0297127766221839,-0.670987595435969
0.0263910083842027,-0.673082948002729
0.0230484303605357,-0.675162582805052
0.0196852418301277,-0.677226562743384
0.016301642071924,-0.679274950718174
0.0128978303648695,-0.681307809629868
0.00947400598790944,-0.683325202378914
0.00603036821998877,-0.685327191865759
0.00256711634005276,-0.68731384099085
-0.000915550372953725,-0.689285212654635
-0.00441743264008529,-0.691241369757561
-0.00793833118239726,-0.693182375200075
-0.0114780467209441,-0.695108291882625
-0.0150363799767812,-0.697019182705658
-0.018613131670963,-0.698915110569621
-0.0222081025245448,-0.700796138374962
-0.0258210932585811,-0.702662329022127
-0.0294519045941274,-0.704513745411565
-0.033100337252238,-0.706350450443723
-0.0367661919539682,-0.708172507019047
-0.0404492694203728,-0.709979978037985
-0.0441493703725068,-0.711772926400985
-0.0478662955314248,-0.713551415008494
-0.0515998456181821,-0.715315506760959
-0.0553498213538334,-0.717065264558827
-0.0591160234594337,-0.718800751302546
-0.0628982526560378,-0.720522029892563
-0.0666963096647008,-0.722229163229326
-0.0705099952064773,-0.723922214213281
-0.0743391100024226,-0.725601245744877
-0.0781834547735914,-0.727266320724559
-0.0820428302410387,-0.728917502052777
-0.0859170371258192,-0.730554852629976
-0.089805876148988,-0.732178435356605
-0.0937091480316,-0.73378831313311
-0.0976266534947102,-0.73538454885994
-0.101558193259373,-0.73696720543754
-0.105503568046644,-0.738536345766359
-0.109462578577578,-0.740092032746844
-0.11343502557323,-0.741634329279442
-0.117420709754654,-0.743163298264601
-0.121419431842906,-0.744679002602768
-0.12543099255904,-0.746181505194389
-0.129455192624112,-0.747670868939913
-0.133491832759176,-0.749147156739787
-0.137540713685287,-0.750610431494459
-0.1416016361235,-0.752060756104374
-0.145674400794871,-0.753498193469982
-0.149758808420453,-0.754922806491728
-0.153854659721303,-0.756334658070061
-0.157961755418473,-0.757733811105427
-0.162079896233021,-0.759120328498274
-0.166208882886,-0.76049427314905
-0.170348516098466,-0.761855707958202
-0.174498596591474,-0.763204695826176
-0.178658925086077,-0.764541299653421
-0.182829302303332,-0.765865582340383
-0.187009528964293,-0.767177606787511
-0.191199405790015,-0.76847743589525
-0.195398733501554,-0.769765132564049
-0.199607312819963,-0.771040759694355
-0.203824944466298,-0.772304380186615
-0.208051429161613,-0.773556056941277
-0.212286567626965,-0.774795852858787
-0.216530160583406,-0.776023830839594
-0.220782008751994,-0.777240053784144
-0.225041912853782,-0.778444584592885
-0.229309673609825,-0.779637486166264
-0.233585091741178,-0.780818821404728
-0.237867967968896,-0.781988653208725
-0.242158103014035,-0.783147044478702
-0.246455297597648,-0.784294058115107
-0.250759352440791,-0.785429757018386
-0.255070068264519,-0.786554204088987
-0.259387245789887,-0.787667462227358
-0.263710685737949,-0.788769594333945
-0.268040188829761,-0.789860663309196
-0.272375555786378,-0.790940732053558
-0.276716587328853,-0.792009863467479
-0.281063084178243,-0.793068120451406
-0.285414847055602,-0.794115565905786
-0.289771676681985,-0.795152262731067
-0.294133373778447,-0.796178273827695
-0.298499739066043,-0.797193662096119
-0.302870573265828,-0.798198490436785
-0.307245677098857,-0.799192821750141
-0.311624851286184,-0.800176718936634
-0.316007896548865,-0.801150244896712
-0.320394613607954,-0.802113462530821
-0.324784803184507,-0.803066434739409
-0.329178265999578,-0.804009224422924
-0.333574802774222,-0.804941894481813
-0.337974214229494,-0.805864507816522
-0.34237630108645,-0.8067771273275
-0.346780864066143,-0.807679815915194
-0.351187703889629,-0.80857263648005
-0.355596621277963,-0.809455651922517
-0.3600074169522,-0.810328925143041
-0.364419891633394,-0.811192519042071
-0.368833846042601,-0.812046496520052
-0.373249080900875,-0.812890920477434
-0.377665396929272,-0.813725853814662
-0.382082594848845,-0.814551359432184
-0.386500475380651,-0.815367500230448
-0.390918839245744,-0.8161743391099
-0.39533748716518,-0.816971938970989
-0.399756219860011,-0.817760362714161
-0.404174838051295,-0.818539673239864
-0.408593142460086,-0.819309933448546
-0.413010933807438,-0.820071206240652
-0.417428012814406,-0.820823554516632
-0.421844180202047,-0.821567041176931
-0.426259236691413,-0.822301729121998
-0.430672983003561,-0.823027681252279
-0.435085219859545,-0.823744960468223
-0.43949574798042,-0.824453629670275
-0.443904368087242,-0.825153751758885
-0.448310880901064,-0.825845389634498
-0.452715087142942,-0.826528606197563
-0.45711678753393,-0.827203464348526
-0.461515782795085,-0.827870026987836
-0.46591187364746,-0.828528357015938
-0.470304860812111,-0.829178517333281
-0.474694545010092,-0.829820570840312
-0.479080726962458,-0.830454580437478
-0.483463207390265,-0.831080609025227
-0.487841787014566,-0.831698719504005
-0.492216266556418,-0.832308974774261
-0.496586446736875,-0.83291143773644
-0.500952128276992,-0.833506171290992
-0.505313111897823,-0.834093238338363
-0.509669198320425,-0.834672701779
-0.514020188265851,-0.835244624513351
-0.518365882455156,-0.835809069441863
-0.522706081609396,-0.836366099464984
-0.527040586449626,-0.83691577748316
-0.531369197696899,-0.837458166396839
-0.535691716072272,-0.837993329106468
-0.540007942296799,-0.838521328512495
-0.544317677091535,-0.839042227515367
-0.548620721177535,-0.839556089015532
-0.552916875275854,-0.840062975913435
-0.552916875275854,-0.840062975913435
-0.557175522099245,-0.840557192329913
-0.561366336526133,-0.841033042933772
-0.565489557526076,-0.841490591447416
-0.569545424068632,-0.84192990159325
-0.573534175123359,-0.842351037093678
-0.577456049659816,-0.842754061671106
-0.581311286647561,-0.843139039047939
-0.585100125056153,-0.84350603294658
-0.588822803855151,-0.843855107089435
-0.592479562014111,-0.844186325198908
-0.596070638502593,-0.844499750997405
-0.599596272290156,-0.844795448207329
-0.603056702346358,-0.845073480551086
-0.606452167640756,-0.845333911751081
-0.60978290714291,-0.845576805529717
-0.613049159822378,-0.8458022256094
-0.616251164648719,-0.846010235712535
-0.61938916059149,-0.846200899561526
-0.62246338662025,-0.846374280878778
-0.625474081704558,-0.846530443386696
-0.628421484813972,-0.846669450807684
-0.63130583491805,-0.846791366864147
-0.634127370986351,-0.84689625527849
-0.636886331988433,-0.846984179773119
-0.639582956893855,-0.847055204070436
-0.642217484672175,-0.847109391892848
-0.644790154292951,-0.847146806962758
-0.647301204725742,-0.847167513002572
-0.649750874940106,-0.847171573734694
-0.652139403905602,-0.84715905288153
-0.654467030591787,-0.847130014165483
-0.656733993968222,-0.847084521308958
-0.658940533004463,-0.847022638034361
-0.66108688667007,-0.846944428064096
-0.6631732939346,-0.846849955120568
-0.665199993767612,-0.846739282926181
-0.667167225138665,-0.84661247520334
-0.669075227017316,-0.846469595674451
-0.670924238373125,-0.846310708061916
-0.67271449817565,-0.846135876088143
-0.674446245394449,-0.845945163475534
-0.67611971899908,-0.845738633946495
-0.677735157959102,-0.845516351223431
-0.679292801244074,-0.845278379028746
-0.680792887823553,-0.845024781084846
-0.682235656667098,-0.844755621114133
-0.683621346744268,-0.844470962839015
-0.684950197024621,-0.844170869981895
-0.686222446477715,-0.843855406265178
-0.68743833407311,-0.843524635411268
-0.688598098780362,-0.84317862114257
-0.689701979569031,-0.842817427181491
-0.690750215408675,-0.842441117250433
-0.691743045268852,-0.842049755071801
-0.692680708119121,-0.841643404368001
-0.69356344292904,-0.841222128861437
-0.694391488668168,-0.840785992274514
-0.695165084306063,-0.840335058329637
-0.695884468812284,-0.839869390749209
-0.696549881156388,-0.839389053255637
-0.697161560307935,-0.838894109571325
-0.697719745236482,-0.838384623418677
-0.698224674911588,-0.837860658520098
-0.698676588302812,-0.837322278597993
-0.699075724379712,-0.836769547374768
-0.699422322111846,-0.836202528572825
-0.699716620468772,-0.83562128591457
-0.69995885842005,-0.835025883122409
-0.700149274935238,-0.834416383918745
-0.700288108983893,-0.833792852025983
-0.700375599535575,-0.833155351166529
-0.700411985559841,-0.832503945062786
-0.700397506026251,-0.83183869743716
-0.700332399904362,-0.831159672012056
-0.700216906163733,-0.830466932509877
-0.700051263773922,-0.829760542653029
-0.699835711704488,-0.829040566163917
-0.69957048892499,-0.828307066764944
-0.699255834404985,-0.827560108178517
-0.698891987114032,-0.826799754127039
-0.698479186021689,-0.826026068332916
-0.698017670097515,-0.825239114518552
-0.697507678311069,-0.824438956406352
-0.696949449631908,-0.82362565771872
-0.696343223029591,-0.822799282178062
-0.695689237473677,-0.821959893506782
-0.694987731933723,-0.821107555427285
-0.694238945379289,-0.820242331661975
-0.693443116779932,-0.819364285933257
-0.692600485105211,-0.818473481963537
-0.691711289324685,-0.817569983475218
-0.690775768407912,-0.816653854190706
-0.68979416132445,-0.815725157832405
-0.688766707043858,-0.81478395812272
-0.687693644535694,-0.813830318784055
-0.686575212769516,-0.812864303538817
-0.685411650714884,-0.811885976109408
-0.684203197341354,-0.810895400218234
-0.682950091618487,-0.809892639587699
-0.681652572515839,-0.80887775794021
-0.680310879002971,-0.807850818998169
-0.678925250049439,-0.806811886483981
-0.677495924624802,-0.805761024120053
-0.67602314169862,-0.804698295628787
-0.674507140240449,-0.80362376473259
-0.672948159219849,-0.802537495153865
-0.671346437606378,-0.801439550615018
-0.669702214369595,-0.800329994838453
-0.668015728479057,-0.799208891546575
-0.666287218904323,-0.798076304461789
-0.664516924614952,-0.796932297306499
-0.662705084580502,-0.79577693380311
-0.660851937770532,-0.794610277674028
-0.6589577231546,-0.793432392641655
-0.657022679702263,-0.792243342428398
-0.655047046383082,-0.791043190756661
-0.653031062166613,-0.789832001348849
-0.650974966022416,-0.788609837927366
-0.648878996920049,-0.787376764214618
-0.64674339382907,-0.786132843933008
-0.644568395719038,-0.784878140804943
-0.642354241559511,-0.783612718552825
-0.640101170320047,-0.782336640899061
-0.637809420970206,-0.781049971566055
-0.635479232479545,-0.779752774276212
-0.633110843817622,-0.778445112751936
-0.630704493953997,-0.777127050715632
-0.628260421858227,-0.775798651889705
-0.625778866499871,-0.774459979996559
-0.623260066848488,-0.7731110987586
-0.620704261873635,-0.771752071898231
-0.618111690544871,-0.770382963137859
-0.615482591831755,-0.769003836199888
-0.612817204703846,-0.767614754806721
-0.6101157681307,-0.766215782680764
-0.607378521081877,-0.764806983544422
-0.604605702526936,-0.7633884211201
-0.601797551435434,-0.761960159130201
-0.59895430677693,-0.760522261297132
-0.596076207520983,-0.759074791343296
-0.59316349263715,-0.757617812991099
-0.590216401094991,-0.756151389962945
-0.587235171864063,-0.754675585981238
-0.584220043913926,-0.753190464768384
-0.581171256214137,-0.751696090046788
-0.578089047734255,-0.750192525538853
-0.574973657443838,-0.748679834966985
-0.571825324312445,-0.747158082053589
-0.568644287309634,-0.745627330521069
-0.565430785404963,-0.74408764409183
-0.562185057567992,-0.742539086488276
-0.558907342768277,-0.740981721432813
-0.555597879975379,-0.739415612647846
-0.552256908158855,-0.737840823855778
-0.548884666288263,-0.736257418779015
-0.545481393333162,-0.734665461139961
-0.54204732826311,-0.733065014661021
-0.538582710047667,-0.7314561430646
-0.535087777656389,-0.729838910073103
-0.531562770058836,-0.728213379408933
-0.528007926224566,-0.726579614794498
-0.524423485123138,-0.724937679952199
-0.520809685724109,-0.723287638604443
-0.517166766997039,-0.721629554473635
-0.513494967911485,-0.719963491282178
-0.509794527437006,-0.718289512752478
-0.50606568454316,-0.716607682606939
-0.502308678199507,-0.714918064567967
-0.498523747375604,-0.713220722357966
-0.494711131041009,-0.71151571969934
-0.490871068165282,-0.709803120314494
-0.48700379771798,-0.708082987925834
-0.483109558668662,-0.706355386255763
-0.479188589986886,-0.704620379026687
-0.47524113064221,-0.70287802996101
-0.471267419604194,-0.701128402781137
-0.467267695842396,-0.699371561209474
-0.463242198326373,-0.697607568968423
-0.459191166025685,-0.69583648978039
-0.455114837909889,-0.694058387367781
-0.451013452948545,-0.692273325452999
-0.44688725011121,-0.69048136775845
-0.442736468367443,-0.688682578006537
-0.438561346686803,-0.686877019919667
-0.434362124038847,-0.685064757220244
-0.430139039393134,-0.683245853630671
-0.425892331719223,-0.681420372873355
-0.421622239986673,-0.679588378670699
-0.41732900316504,-0.677749934745109
-0.413012860223884,-0.67590510481899
-0.408674050132764,-0.674053952614745
-0.404312811861237,-0.67219654185478
-0.399929384378862,-0.6703329362615
-0.395524006655197,-0.668463199557308
-0.391096917659802,-0.666587395464611
-0.386648356362234,-0.664705587705812
-0.382178561732051,-0.662817840003317
-0.377687772738812,-0.66092421607953
-0.373176228352076,-0.659024779656855
-0.368644167541401,-0.657119594457699
-0.364091829276345,-0.655208724204464
-0.359519452526467,-0.653292232619557
-0.354927276261325,-0.651370183425381
-0.350315539450477,-0.649442640344342
-0.345684481063482,-0.647509667098844
-0.341034340069899,-0.645571327411293
-0.336365355439286,-0.643627685004092
-0.3316777661412,-0.641678803599646
-0.326971811145201,-0.639724746920361
-0.322247729420847,-0.63776557868864
-0.317505759937697,-0.635801362626889
-0.312746141665308,-0.633832162457513
-0.307969113573239,-0.631858041902916
-0.303174914631049,-0.629879064685502
-0.298363783808296,-0.627895294527677
-0.293535960074539,-0.625906795151846
-0.288691682399335,-0.623913630280412
-0.283831189752243,-0.621915863635781
-0.278954721102822,-0.619913558940358
-0.27406251542063,-0.617906779916547
-0.269154811675226,-0.615895590286753
-0.264231848836167,-0.613880053773381
-0.259293865873013,-0.611860234098835
-0.254341101755321,-0.60983619498552
-0.24937379545265,-0.607808000155841
-0.244392185934559,-0.605775713332203
-0.239396512170606,-0.603739398237011
-0.234387013130349,-0.601699118592668
-0.229363927783346,-0.59965493812158
-0.224327495099157,-0.597606920546152
-0.219277954047339,-0.595555129588788
-0.214215543597452,-0.593499628971893
-0.209140502719052,-0.591440482417872
-0.2040530703817,-0.589377753649129
-0.198953485554952,-0.58731150638807
-0.193841987208368,-0.585241804357098
-0.188718814311506,-0.58316871127862
-0.183584205833924,-0.581092290875038
-0.178438400745181,-0.579012606868759
-0.173281638014836,-0.576929722982187
-0.168114156612445,-0.574843702937726
-0.162936195507569,-0.572754610457782
-0.157747993669766,-0.570662509264759
-0.152549790068593,-0.568567463081062
-0.147341823673609,-0.566469535629095
-0.142124333454373,-0.564368790631263
-0.136897558380443,-0.562265291809972
-0.131661737421377,-0.560159102887625
-0.126417109546734,-0.558050287586628
-0.121163913726073,-0.555938909629385
-0.115902388928951,-0.553825032738301
-0.110632774124927,-0.551708720635781
-0.10535530828356,-0.549590037044229
-0.100070230374408,-0.54746904568605
-0.0947777793670284,-0.545345810283649
-0.0894781942309811,-0.543220394559431
-0.0841717139358237,-0.5410928622358
-0.078858577451115,-0.538963277035161
-0.073539023746413,-0.536831702679919
-0.0682132917912765,-0.534698202892478
-0.0628816205552636,-0.532562841395244
-0.057544249007933,-0.530425681910621
-0.0522014161188427,-0.528286788161014
-0.0468533608575516,-0.526146223868827
-0.0415003221936177,-0.524004052756465
-0.0361425390965998,-0.521860338546333
-0.0307802505360558,-0.519715144960836
-0.0254136954815447,-0.517568535722378
-0.0200431129026243,-0.515420574553365
-0.0146687417688534,-0.5132713251762
-0.00929082104979029,-0.511120851313289
-0.00390958971499356,-0.508969216687036
0.00147471326597884,-0.506816485019846
0.00686184892356789,-0.504662720034125
0.0122515782882158,-0.502507985452275
0.0176436623903636,-0.500352344996703
0.0230378622604533,-0.498195862389813
0.0284339389289262,-0.49603860135401
0.0338316534262243,-0.493880625611698
0.0392307667827887,-0.491721998885282
0.0446310400290614,-0.489562784897167
0.0500322341954835,-0.487403047369758
0.0554341103124973,-0.48524285002546
0.0608364294105436,-0.483082256586676
0.0662389525200647,-0.480921330775812
0.0716414406715017,-0.478760136315273
0.0770436548952965,-0.476598736927464
0.0824453562218903,-0.474437196334788
0.0878463056817254,-0.472275578259651
0.0932462643052426,-0.470113946424458
0.098644993122884,-0.467952364551612
0.104042253165091,-0.46579089636352
0.109437805462305,-0.463629605582586
0.114831411044968,-0.461468555931214
0.120222830943522,-0.459307811131809
0.125611826188407,-0.457147434906776
0.130998157810066,-0.45498749097852
0.13638158683894,-0.452828043069445
0.141761874305472,-0.450669154901956
0.147138781240101,-0.448510890198459
0.15251206867327,-0.446353312681356
0.157881497635421,-0.444196486073054
0.163246829156995,-0.442040474095958
0.168607824268434,-0.43988534047247
0.173964244000179,-0.437731148924998
0.179315849382672,-0.435577963175944
0.184662401446355,-0.433425846947715
0.190003661221669,-0.431274863962714
0.195339389739055,-0.429125077943347
0.200669348028956,-0.426976552612018
0.205993297121813,-0.424829351691132
0.211310998048067,-0.422683538903093
0.21662221183816,-0.420539177970307
0.221926699522534,-0.418396332615178
0.227224222131631,-0.416255066560111
0.23251454069589,-0.41411544352751
0.237797416245756,-0.411977527239781
0.243072609811669,-0.409841381419328
0.24833988242407,-0.407707069788555
0.253598995113401,-0.405574656069868
0.258849708910105,-0.403444203985671
0.264091784844621,-0.40131577725837
0.269324983947393,-0.399189439610367
0.274549067248861,-0.39706525476407
0.279763795779468,-0.394943286441881
0.284968930569654,-0.392823598366207
0.290164232649861,-0.390706254259451
0.295349463050532,-0.388591317844018
0.300524382802107,-0.386478852842313
0.305688752935028,-0.384368922976742
0.310842334479738,-0.382261591969707
0.315984888466676,-0.380156923543616
0.321116175926285,-0.378054981420871
0.326235957889007,-0.375955829323878
0.331343995385283,-0.373859530975041
0.336440049445555,-0.371766150096766
0.341523881100264,-0.369675750411456
0.346595251379852,-0.367588395641518
0.35165392131476,-0.365504149509354
0.356699651935431,-0.363423075737371
0.361732204272305,-0.361345238047973
0.366751339355824,-0.359270700163564
0.371756818216431,-0.35719952580655
0.376748401884565,-0.355131778699335
0.38172585139067,-0.353067522564323
0.386688927765187,-0.351006821123921
0.391637392038556,-0.348949738100531
0.396571005241221,-0.346896337216559
0.401489528403622,-0.344846682194411
0.406392722556201,-0.342800836756489
0.411280348729399,-0.3407588646252
0.416152167953659,-0.338720829522948
0.421007941259421,-0.336686795172137
0.425847429677128,-0.334656825295173
0.430670394237221,-0.33263098361446
0.435476595970141,-0.330609333852403
0.440265795906331,-0.328591939731407
0.445037755076231,-0.326578864973876
0.449792234510284,-0.324570173302214
0.454528995238931,-0.322565928438828
0.459247798292613,-0.320566194106121
0.463948404701772,-0.318571034026499
0.46863057549685,-0.316580511922365
0.473294071708288,-0.314594691516126
0.477938654366528,-0.312613636530185
0.482564084502012,-0.310637410686947
0.487170123145181,-0.308666077708816
0.491756531326476,-0.306699701318199
0.49632307007634,-0.304738345237499
0.500869500425213,-0.302782073189121
0.505395583403539,-0.30083094889547
0.509901080041757,-0.29888503607895
0.514385751370309,-0.296944398461967
0.518849358419638,-0.295009099766925
0.523291662220185,-0.293079203716229
0.527712423802391,-0.291154774032283
0.532111404196699,-0.289235874437492
0.536488364433548,-0.287322568654262
0.540843065543382,-0.285414920404996
0.545175268556642,-0.2835129934121
0.549484734503769,-0.281616851397977
0.553771224415205,-0.279726558085034
0.558034499321392,-0.277842177195675
0.562274320252771,-0.275963772452303
0.566490448239784,-0.274091407577325
0.570682644312871,-0.272225146293145
0.574850669502476,-0.270365052322167
0.57899428483904,-0.268511189386797
0.583113251353003,-0.266663621209439
0.587207330074808,-0.264822411512497
0.591276282034897,-0.262987624018377
0.595319868263711,-0.261159322449483
0.59933784979169,-0.259337570528221
0.603329987649279,-0.257522431976994
0.607296042866917,-0.255713970518207
0.611235776475045,-0.253912249874265
0.615148949504107,-0.252117333767574
0.619035322984543,-0.250329285920537
0.622894657946796,-0.248548170055559
0.622894657946796,-0.248548170055559
0.626700418112442,-0.246759426398637
0.630426513759207,-0.244948635367493
0.634073375751757,-0.243116070972125
0.637641434954757,-0.241262007222527
0.641131122232873,-0.239386718128696
0.644542868450769,-0.237490477700629
0.647877104473111,-0.235573559948322
0.651134261164563,-0.23363623888177
0.654314769389792,-0.231678788510971
0.657419060013463,-0.229701482845919
0.660447563900239,-0.227704595896612
0.663400711914788,-0.225688401673046
0.666278934921774,-0.223653174185216
0.669082663785862,-0.221599187443119
0.671812329371718,-0.219526715456751
0.674468362544006,-0.217436032236109
0.677051194167393,-0.215327411791188
0.679561255106542,-0.213201128131985
0.68199897622612,-0.211057455268496
0.684364788390792,-0.208896667210716
0.686659122465223,-0.206719037968643
0.688882409314077,-0.204524841552273
0.691035079802021,-0.202314351971601
0.693117564793719,-0.200087843236624
0.695130295153838,-0.197845589357338
0.697073701747041,-0.195587864343739
0.698948215437994,-0.193314942205823
0.700754267091362,-0.191027096953587
0.702492287571812,-0.188724602597027
0.704162707744007,-0.186407733146138
0.705765958472613,-0.184076762610918
0.707302470622296,-0.181731965001362
0.70877267505772,-0.179373614327467
0.71017700264355,-0.177001984599228
0.711515884244453,-0.174617349826642
0.712789750725093,-0.172219984019705
0.713999032950136,-0.169810161188414
0.715144161784246,-0.167388155342763
0.716225568092088,-0.164954240492751
0.717243682738329,-0.162508690648372
0.718198936587634,-0.160051779819624
0.719091760504666,-0.157583782016501
0.719922585354093,-0.155104971249001
0.720691842000578,-0.152615621527119
0.721399961308788,-0.150116006860853
0.722047374143387,-0.147606401260197
0.722634511369041,-0.145087078735148
0.723161803850414,-0.142558313295702
0.723629682452173,-0.140020378951857
0.724038578038982,-0.137473549713606
0.724388921475506,-0.134918099590948
0.724681143626412,-0.132354302593878
0.724915675356363,-0.129782432732391
0.725092947530025,-0.127202764016486
0.725213391012064,-0.124615570456157
0.725277436667145,-0.122021126061401
0.725285515359932,-0.119419704842213
0.725238057955091,-0.116811580808591
0.725135495317288,-0.114197027970531
0.724978258311187,-0.111576320338028
0.724766777801454,-0.108949731921078
0.724501484652754,-0.106317536729679
0.724182809729752,-0.103680008773826
0.723811183897114,-0.101037422063515
0.723387038019504,-0.0983900506087422
0.722910802961588,-0.0957381684195044
0.722382909588031,-0.0930820495057975
0.721803788763498,-0.0904219678776177
0.721173871352655,-0.0877581975449612
0.720493588220167,-0.085091012517824
0.719763370230699,-0.0824206868062025
0.718983648248916,-0.0797474944200928
0.718154853139483,-0.0770717093694911
0.717277415767066,-0.0743936056643936
0.71635176699633,-0.0717134573147964
0.71537833769194,-0.0690315383306959
0.714357558718561,-0.0663481227220881
0.713289860940858,-0.0636634844989692
0.712175675223498,-0.0609778976713354
0.711015432431144,-0.058291636249183
0.709809563428463,-0.0556049742425081
0.708558499080119,-0.0529181856613068
0.707262670250778,-0.0502315445155754
0.705922507805104,-0.0475453248153101
0.704538442607764,-0.0448598005705071
0.703110905523422,-0.0421752457911625
0.701640327416743,-0.0394919344872725
0.700127139152394,-0.0368101406688333
0.698571771595038,-0.0341301383458411
0.696974655609341,-0.0314522015282922
0.695336222059969,-0.0287766042261825
0.693656901811587,-0.0261036204495085
0.691937125728859,-0.0234335242082662
0.690177324676451,-0.0207665895124519
0.688377929519029,-0.0181030903720616
0.686539371121257,-0.0154433007970918
0.684662080347802,-0.0127874947975384
0.682746488063326,-0.0101359463833976
0.680793025132498,-0.00748892956466582
0.67880212241998,-0.00484671835133907
0.67677421079044,-0.00220958675341357
0.674709721108541,0.000422191219114507
0.672609084238949,0.00304834155624895
0.67047273104633,0.00566859024799359
0.668301092395348,0.0082826632843522
0.666094599150668,0.0108902866553286
0.663853682176957,0.0134911863509267
0.661578772338879,0.0160850883611502
0.6592703005011,0.0186717186760029
0.656928697528284,0.0212508032854887
0.654554394285097,0.0238220681796114
0.652147821636204,0.0263852393483747
0.64970941044627,0.0289400427817825
0.647239591579961,0.0314862044698387
0.644738795901941,0.034023450402547
0.642207454276877,0.0365515065699112
0.639645997569433,0.0390700989619351
0.637054856644274,0.0415789535686226
0.634434462366066,0.0440777963799775
0.631785245599474,0.0465663533860035
0.629107637209163,0.0490443505767046
0.626402068059798,0.0515115139420845
0.623668969016045,0.0539675694721469
0.620908770942568,0.0564122431568958
0.618121904704034,0.058845260986335
0.615308801165106,0.0612663489504682
0.612469891190451,0.0636752330392993
0.609605605644734,0.0660716392428321
0.60671637539262,0.0684552935510703
0.603802631298774,0.0708259219540179
0.600864804227861,0.0731832504416786
0.597903325044546,0.0755270050040562
0.594918624613496,0.0778569116311546
0.591911133799374,0.0801726963129775
0.588881283466846,0.0824740850395288
0.585829504480578,0.0847608038008123
0.582756227705235,0.0870325785868317
0.579661884005482,0.089289135387591
0.576546904245983,0.0915302001930939
0.573411719291405,0.0937554989933442
0.570256760006412,0.0959647577783457
0.567082457255671,0.0981577025381024
0.563889241903844,0.100334059262618
0.5606775448156,0.102493553941896
0.557447796855602,0.104635912565941
0.554200428888515,0.106760861124756
0.550935871779006,0.108868125608345
0.547654556391738,0.110957432006712
0.544356913591378,0.113028506309861
0.54104337424259,0.115081074507795
0.53771436921004,0.117114862590519
0.534370329358393,0.119129596548035
0.531011685552315,0.121125002370349
0.527638868656469,0.123100806047464
0.524252309535522,0.125056733569383
0.52085243905414,0.126992510926111
0.517439688076986,0.128907864107651
0.514014487468727,0.130802519104007
0.510577268094027,0.132676201905183
0.507128460817552,0.134528638501182
0.503668496503967,0.136359554882009
0.500197806017937,0.138168677037668
0.496716820224128,0.139955730958161
0.493225969987204,0.141720442633494
0.489725686171831,0.143462538053669
0.486216399642674,0.14518174320869
0.482698541264399,0.146877784088562
0.47917254190167,0.148550386683289
0.475638832419153,0.150199276982873
0.472097843681513,0.151824180977319
0.468550006553414,0.153424824656631
0.464995751899524,0.155000934010812
0.461435510584506,0.156552235029866
0.457869713473026,0.158078453703797
0.454298791429749,0.15957931602261
0.450723175319341,0.161054547976307
0.447143296006466,0.162503875554892
0.44355958435579,0.16392702474837
0.439972471231977,0.165323721546743
0.436382387499694,0.166693691940017
0.432789764023606,0.168036661918195
0.429195031668377,0.16935235747128
0.425598621298673,0.170640504589276
0.422000963779159,0.171900829262188
0.4184024899745,0.173133057480018
0.414803630749362,0.174336915232772
0.41120481696841,0.175512128510452
0.407606479496309,0.176658423303062
0.404009049197724,0.177775525600607
0.40041295693732,0.17886316139309
0.396818633579763,0.179921056670514
0.393226509989718,0.180948937422884
0.38963701703185,0.181946529640204
0.386050585570824,0.182913559312477
0.382467646471306,0.183849752429707
0.378888630597961,0.184754834981898
0.375313968815453,0.185628532959054
0.371744091988449,0.186470572351179
0.368179430981613,0.187280679148275
0.364620416659611,0.188058579340348
0.361067479887108,0.188803998917401
0.357521051528769,0.189516663869438
0.353981562449259,0.190196300186462
0.350449443513244,0.190842633858478
0.346925125585389,0.191455390875489
0.343409039530359,0.192034297227499
0.339901616212818,0.192579078904512
0.336403286497434,0.193089461896532
0.33291448124887,0.193565172193562
0.329435631331791,0.194005935785606
0.325967167610864,0.194411478662669
0.322509520950754,0.194781526814753
0.319063122216124,0.195115806231863
0.315628402271642,0.195414042904003
0.312205791981971,0.195675962821176
0.308795722211778,0.195901291973386
0.305398623825727,0.196089756350637
0.302014927688484,0.196241081942933
0.298645064664714,0.196354994740278
0.295289465619082,0.196431220732675
0.291948561416253,0.196469485910128
0.288622782920893,0.196469516262642
0.285312560997667,0.196431037780219
0.282018326511239,0.196353776452864
0.278740510326276,0.19623745827058
0.275479543307442,0.196081809223372
0.272235856319403,0.195886555301243
0.269009880226824,0.195651422494196
0.26580204589437,0.195376136792237
0.262612784186706,0.195060424185368
0.259442525968498,0.194704010663593
0.25629170210441,0.194306622216917
0.253160743459109,0.193867984835342
0.250050080897259,0.193387824508873
0.246960145283525,0.192865867227514
0.243891367482573,0.192301838981269
0.240844178359068,0.19169546576014
0.237819008777675,0.191046473554133
0.234816289603059,0.190354588353251
0.231836451699886,0.189619536147497
0.22887992593282,0.188841042926875
0.225947143166528,0.18801883468139
0.223038534265674,0.187152637401045
0.220154530094923,0.186242177075844
0.217295561518941,0.185287179695791
0.214462059402393,0.184287371250889
0.211654454609944,0.183242477731143
0.208873178006259,0.182152225126556
0.206118660456004,0.181016339427132
0.203391332823843,0.179834546622874
0.200691625974443,0.178606572703787
0.198019970772468,0.177332143659875
0.195376798082583,0.176010985481141
0.192762538769454,0.174642824157589
0.190177623697746,0.173227385679222
0.187622483732124,0.171764396036046
0.185097549737253,0.170253581218063
0.182603252577799,0.168694667215277
0.180140023118427,0.167087380017692
0.177708292223801,0.165431445615313
0.175308490758588,0.163726589998142
0.172941049587452,0.161972539156183
0.170606399575059,0.160169019079441
0.168304971586074,0.158315755757919
0.166037196485162,0.156412475181621
0.163803505136989,0.154458903340551
0.161604328406219,0.152454766224712
0.159440097157517,0.150399789824109
0.15731124225555,0.148293700128745
0.155218194564982,0.146136223128625
0.153161384950478,0.143927084813751
0.151141244276705,0.141666011174127
0.149158203408326,0.139352728199758
0.147212693210007,0.136986961880648
0.145305144546413,0.134568438206799
0.14343598828221,0.132096883168217
0.141605655282063,0.129572022754904
0.139814576410637,0.126993582956865
0.138063182532597,0.124361289764103
0.136351904512608,0.121674869166622
0.134681173215336,0.118934047154427
0.133051419505446,0.11613854971752
0.131463074247603,0.113288102845905
0.129916568306473,0.110382432529588
0.12841233254672,0.10742126475857
0.12695079783301,0.104404325522856
0.125532395030008,0.10133134081245
0.124157555002379,0.0982020366173563
0.122826708614788,0.0950161389275776
0.121540286731902,0.0917733737331184
0.120298720218384,0.0884734670239821
0.1191024399389,0.0851161447901729
0.117951876758116,0.0817011330216943
0.116847461540696,0.0782281577085503
0.115789625151306,0.0746969448407446
0.114778798454611,0.0711072204082812
0.113815412315276,0.0674587104011636
0.112899897597967,0.063751140809396
0.112032685167348,0.0599842376229817
0.111214205888085,0.0561577268319251
0.110444890624844,0.0522713344262296
0.109725170242288,0.0483247863958993
0.109055475605085,0.0443178087309376
0.108436237577898,0.0402501274213488
0.107867887025393,0.0361214684571364
0.107350854812235,0.0319315578283043
0.10688557180309,0.0276801215248562
0.106472468862622,0.0233668855367961
0.106111976855498,0.0189915758541277
0.105804526646381,0.014553918466855
0.105550549099938,0.0100536393649815
0.105350475080833,0.00549046453851122
0.105204735453733,0.0008641199774478
0.105113761083301,-0.00382566832820459
0.105077982834203,-0.00857917438844258
0.105097831571105,-0.013396672213262
0.105173738158672,-0.0182784358126594
0.105306133461568,-0.0232247391966305
0.10549544834446,-0.028235856375172
0.105742113672012,-0.0333120613582796
0.106046560308889,-0.03845362815595
0.106409219119758,-0.0436608307781787
0.106830520969282,-0.0489339432349627
0.107310896722128,-0.0542732395362975
0.10785077724296,-0.0596789936921799
0.108450593396444,-0.0651514797126053
0.109110776047244,-0.0706909716075707
0.109831756060027,-0.0762977433870717
0.110613964299457,-0.081972069061105
0.1114578316302,-0.0877142226396663
0.11236378891692,-0.0935244781327521
0.113332267024284,-0.0994031095503583
0.114363696816956,-0.105350390902482
0.115458509159601,-0.111366596199117
0.116617134916885,-0.117451999450263
0.117840004953472,-0.123606874665913
0.119127550134029,-0.129831495856065
0.120480201323221,-0.136126137030715
0.121898389385712,-0.142491072199859
0.123382545186167,-0.148926575373493
0.124933099589253,-0.155432920561613
0.126550483459634,-0.162010381774215
0.128235127661975,-0.168659233021296
0.129987463060942,-0.175379748312852
0.1318079205212,-0.182172201658879
0.133696930907414,-0.189036867069373
0.13565492508425,-0.195974018554331
0.137682333916372,-0.202983930123748
0.139779588268446,-0.210066875787621
0.141947119005137,-0.217223129555946
0.14418535699111,-0.224452965438719
0.14649473309103,-0.231756657445936
0.148875678169564,-0.239134479587594
0.151328623091375,-0.246586705873689
0.153853998721129,-0.254113610314217
0.156452235923492,-0.261715466919173
0.159123765563128,-0.269392549698555
0.161869018504703,-0.277145132662358
0.164688425612882,-0.28497348982058
0.16758241775233,-0.292877895183214
0.170551425787713,-0.300858622760259
0.173595880583696,-0.30891594656171
0.176716213004943,-0.317050140597564
0.179912853916121,-0.325261478877816
0.183186234181894,-0.333550235412463
0.186536784666927,-0.3419166842115
0.189964936235886,-0.350361099284925
0.193471119753437,-0.358883754642733
0.197055766084243,-0.367484924294921
0.200719306092971,-0.376164882251485
0.204462170644286,-0.38492390252242
0.208284790602852,-0.393762259117724
0.212187596833336,-0.402680226047392
0.216171020200402,-0.41167807732142
0.220235491568716,-0.420756086949805
0.224381441802942,-0.429914528942542
0.228609301767747,-0.439153677309629
0.232919502327795,-0.448473806061061
0.237312474347751,-0.457875189206835
0.241788648692281,-0.467358100756945
0.24634845622605,-0.47692281472139
0.250992327813722,-0.486569605110165
0.255720694319965,-0.496298745933266
0.260533986609442,-0.506110511200689
0.265432635546819,-0.51600517492243
0.27041707199676,-0.525983011108487
0.275487726823932,-0.536044293768854
0.280645030893,-0.546189296913528
0.285889415068628,-0.556418294552506
0.291221310215482,-0.566731560695783
0.296641147198227,-0.577129369353356
0.302149356881529,-0.587611994535221
0.307746370130052,-0.598179710251374
0.313432617808462,-0.60883279051181
0.319208530781424,-0.619571509326528
0.325074539913603,-0.630396140705521
0.331031076069665,-0.641306958658788
0.337078570114274,-0.652304237196324
0.343217452912097,-0.663388250328125
