-0.0246252946113292,-0.0508764093996592
-0.0234370036213923,-0.0535817586034116
-0.0222929701466304,-0.0562594226121148
-0.0211929673347503,-0.0589094863527163
-0.0201367683334586,-0.0615320347521632
-0.0191241462904619,-0.0641271527374027
-0.018154874353467,-0.0666949252353822
-0.0172287256701805,-0.0692354371730487
-0.0163454733883091,-0.0717487734773497
-0.0155048906555595,-0.0742350190752323
-0.0147067506196382,-0.0766942588936438
-0.013950826428252,-0.0791265778595313
-0.0132368912291075,-0.0815320608998423
-0.0125647181699114,-0.0839107929415238
-0.0119340803983704,-0.0862628589115232
-0.0113447510621911,-0.0885883437367877
-0.0107965033090802,-0.0908873323442645
-0.0102891102867444,-0.0931599096609008
-0.00982234514289027,-0.095406160613644
-0.00939598102522455,-0.0976261701294412
-0.00900979108145388,-0.0998200231352397
-0.00866354845928494,-0.101987804557987
-0.00835702630642437,-0.10412959932463
-0.00808999777057885,-0.106245492362115
-0.00786223599945506,-0.108335568597392
-0.00767351414075964,-0.110399912957405
-0.00752360534219927,-0.112438610369104
-0.0074122827514806,-0.114451745759434
-0.00733931951631031,-0.116439404055344
-0.00730448878439507,-0.11840167018378
-0.00730756370344152,-0.120338629071689
-0.00734831742115635,-0.12225036564602
-0.00742652308524622,-0.124136964833719
-0.00754195384341779,-0.125998511561734
-0.00769438284337772,-0.127835090757011
-0.00788358323283268,-0.129646787346498
-0.00810932815948935,-0.131433686257142
-0.00837139077105437,-0.133195872415891
-0.00866954421523442,-0.134933430749691
-0.00900356163973616,-0.13664644618549
-0.00937321619226627,-0.138335003650235
-0.00977828102053139,-0.139999188070874
-0.0102185292722382,-0.141639084374353
-0.0106937340950934,-0.143254777487621
-0.0112036686368035,-0.144846352337623
-0.0117481060450754,-0.146413893851308
-0.0123268194676156,-0.147957486955622
-0.0129395820521309,-0.149477216577513
-0.0135861669463278,-0.150973167643928
-0.014266347297913,-0.152445425081815
-0.0149798962545933,-0.15389407381812
-0.0157265869640752,-0.155319198779791
-0.0165061925740655,-0.156720884893775
-0.0173184862322708,-0.158099217087019
-0.0181632410863977,-0.159454280286471
-0.019040230284153,-0.160786159419077
-0.0199492269732433,-0.162094939411786
-0.0208900043013752,-0.163380705191544
-0.0218623354162555,-0.164643541685298
-0.0228659934655908,-0.165883533819996
-0.0239007515970877,-0.167100766522585
-0.024966382958453,-0.168295324720013
-0.0260626606973932,-0.169467293339226
-0.0271893579616151,-0.170616757307171
-0.0283462478988254,-0.171743801550797
-0.0295331036567306,-0.172848510997049
-0.0307496983830375,-0.173930970572877
-0.0319958052254527,-0.174991265205225
-0.0332711973316828,-0.176029479821043
-0.0345756478494346,-0.177045699347277
-0.0359089299264148,-0.178040008710874
-0.0372708167103299,-0.179012492838782
-0.0386610813488866,-0.179963236657948
-0.0400794969897917,-0.180892325095319
-0.0415258367807517,-0.181799843077843
-0.0429998738694734,-0.182685875532466
-0.0445013814036634,-0.183550507386136
-0.0460301325310283,-0.1843938235658
-0.0475859003992749,-0.185215908998405
-0.0491684581561098,-0.186016848610899
-0.0507775789492396,-0.186796727330229
-0.0524130359263711,-0.187555630083342
-0.0540746022352108,-0.188293641797185
-0.0557620510234655,-0.189010847398706
-0.0574751554388419,-0.189707331814852
-0.0592136886290465,-0.19038317997257
-0.0609774237417861,-0.191038476798807
-0.0627661339247673,-0.19167330722051
-0.0645795923256968,-0.192287756164627
-0.0664175720922813,-0.192881908558106
-0.0682798463722274,-0.193455849327892
-0.0701661883132417,-0.194009663400934
-0.072076371063031,-0.194543435704179
-0.0740101677693019,-0.195057251164574
-0.0759673515797611,-0.195551194709066
-0.0779476956421152,-0.196025351264603
-0.0799509731040709,-0.196479805758131
-0.0819769571133349,-0.196914643116598
-0.0840254208176139,-0.197329948266952
-0.0860961373646144,-0.197725806136138
-0.0881888799020432,-0.198102301651106
-0.090303421577607,-0.198459519738802
-0.0924395355390123,-0.198797545326172
-0.0945969949339659,-0.199116463340165
-0.0967755729101745,-0.199416358707728
-0.0989750426153446,-0.199697316355808
-0.101195177197183,-0.199959421211351
-0.103435749803396,-0.200202758201307
-0.105696533581691,-0.20042741225262
-0.107977301679774,-0.20063346829224
-0.110277827245352,-0.200821011247113
-0.112597883426132,-0.200990126044186
-0.11493724336982,-0.201140897610407
-0.117295680224123,-0.201273410872722
-0.119672967136747,-0.20138775075808
-0.1220688772554,-0.201484002193427
-0.124483183727787,-0.20156225010571
-0.126915659701617,-0.201622579421878
-0.129366078324594,-0.201665075068876
-0.131834212744426,-0.201689821973653
-0.13431983610882,-0.201696905063155
-0.136822721565482,-0.20168640926433
-0.139342642262119,-0.201658419504125
-0.141879371346438,-0.201613020709487
-0.144432681966144,-0.201550297807364
-0.147002347268946,-0.201470335724703
-0.149588140402549,-0.20137321938845
-0.152189834514661,-0.201259033725554
-0.154807202752987,-0.201127863662961
-0.157440018265235,-0.200979794127619
-0.160088054199111,-0.200814910046475
-0.162751083702322,-0.200633296346476
-0.165428879922575,-0.20043503795457
-0.168121216007576,-0.200220219797703
-0.170827865105031,-0.199988926802823
-0.173548600362649,-0.199741243896878
-0.176283194928134,-0.199477256006814
-0.179031421949194,-0.199197048059578
-0.181793054573536,-0.198900704982118
-0.184567865948866,-0.198588311701382
-0.187355629222891,-0.198259953144316
-0.190156117543318,-0.197915714237867
-0.192969104057852,-0.197555679908984
-0.195794361914202,-0.197179935084612
-0.198631664260073,-0.1967885646917
-0.201480784243172,-0.196381653657194
-0.204341495011207,-0.195959286908043
-0.207213569711882,-0.195521549371192
-0.210096781492906,-0.19506852597359
-0.212990903501985,-0.194600301642183
-0.215895708886825,-0.194116961303919
-0.218810970795134,-0.193618589885745
-0.221736462374617,-0.193105272314608
-0.224671956772982,-0.192577093517456
-0.227617227137935,-0.192034138421236
-0.230572046617183,-0.191476491952895
-0.233536188358432,-0.19090423903938
-0.23650942550939,-0.190317464607638
-0.239491531217762,-0.189716253584618
-0.242482278631256,-0.189100690897265
-0.245481440897578,-0.188470861472527
-0.248488791164435,-0.187826850237352
-0.251504102579534,-0.187168742118687
-0.25452714829058,-0.186496622043478
-0.257557701445282,-0.185810574938674
-0.260595535191345,-0.185110685731222
-0.263640422676476,-0.184397039348067
-0.266692137048382,-0.183669720716159
-0.269750451454769,-0.182928814762444
-0.272815139043345,-0.18217440641387
-0.275885972961815,-0.181406580597383
-0.278962726357887,-0.180625422239931
-0.282045172379268,-0.179831016268461
-0.285133084173663,-0.179023447609921
-0.288226234888779,-0.178202801191257
-0.291324397672324,-0.177369161939417
-0.294427345672003,-0.176522614781348
-0.297534852035524,-0.175663244643998
-0.300646689910593,-0.174791136454313
-0.303762632444917,-0.173906375139241
-0.306882452786202,-0.173009045625729
-0.310005924082156,-0.172099232840724
-0.313132819480484,-0.171177021711174
-0.316262912128894,-0.170242497164026
-0.319395975175092,-0.169295744126227
-0.322531781766785,-0.168336847524724
-0.325670105051679,-0.167365892286464
-0.328810718177481,-0.166382963338396
-0.331953394291898,-0.165388145607465
-0.335097906542637,-0.16438152402062
-0.338244028077404,-0.163363183504807
-0.341391532043905,-0.162333208986974
-0.344540191589848,-0.161291685394068
-0.347689779862939,-0.160238697653036
-0.350840070010885,-0.159174330690826
-0.353990835181393,-0.158098669434384
-0.357141848522168,-0.157011798810658
-0.360292883180919,-0.155913803746596
-0.36344371230535,-0.154804769169144
-0.36659410904317,-0.153684780005249
-0.369743846542085,-0.15255392118186
-0.372892697949801,-0.151412277625923
-0.376040436414025,-0.150259934264385
-0.379186835082464,-0.149096976024194
-0.382331667102825,-0.147923487832296
-0.385474705622813,-0.14673955461564
-0.388615723790137,-0.145545261301172
-0.391754494752502,-0.14434069281584
-0.394890791657614,-0.143125934086591
-0.398024387653182,-0.141901070040372
-0.401155055886911,-0.14066618560413
-0.404282569506508,-0.139421365704813
-0.40740670165968,-0.138166695269367
-0.410527225494134,-0.136902259224741
-0.413643914157575,-0.135628142497881
-0.416756540797712,-0.134344430015735
-0.419864878562249,-0.133051206705249
-0.422968700598895,-0.131748557493371
-0.426067780055355,-0.130436567307049
-0.429161890079338,-0.12911532107323
-0.432250803818547,-0.12778490371886
-0.435334294420692,-0.126445400170887
-0.438412135033479,-0.125096895356258
-0.441484098804613,-0.123739474201921
-0.444549958881802,-0.122373221634822
-0.447609488412752,-0.12099822258191
-0.450662460545171,-0.119614561970131
-0.453708648426764,-0.118222324726432
-0.456747825205239,-0.116821595777761
-0.459779764028302,-0.115412460051065
-0.462804238043659,-0.113995002473291
-0.465821020399018,-0.112569307971387
-0.468829884242085,-0.111135461472299
-0.471830602720567,-0.109693547902975
-0.47482294898217,-0.108243652190363
-0.477806696174601,-0.106785859261409
-0.480781617445567,-0.10532025404306
-0.483747485942774,-0.103846921462264
-0.48670407481393,-0.102365946445969
-0.48965115720674,-0.100877413921121
-0.492588506268911,-0.0993814088146674
-0.495515895148151,-0.0978780160535557
-0.498433096992165,-0.0963673205647333
-0.501339884948661,-0.0948494072751471
-0.504236032165344,-0.0933243611117445
-0.507121311789923,-0.0917922670014728
-0.509995496970102,-0.0902532098712792
-0.51285836085359,-0.0887072746481108
-0.515709676588093,-0.0871545462589151
-0.518549217321317,-0.0855951096306391
-0.521376756200969,-0.0840290496902303
-0.524192066374756,-0.0824564513646356
-0.526994920990384,-0.0808773995808026
-0.52978509319556,-0.0792919792656783
-0.53256235613799,-0.07770027534621
-0.535326482965383,-0.076102372749345
-0.538077246825443,-0.0744983564020305
-0.540814420865878,-0.0728883112312137
-0.543537778234394,-0.071272322163842
-0.546247092078698,-0.0696504741268625
-0.548942135546497,-0.0680228520472224
-0.551622681785498,-0.066389540851869
-0.554288503943406,-0.0647506254677497
-0.556939375167929,-0.0631061908218115
-0.559575068606774,-0.0614563218410017
-0.562195357407646,-0.0598011034522677
-0.564800014718253,-0.0581406205825566
-0.567388813686302,-0.0564749581588156
-0.569961527459498,-0.0548042011079921
-0.572517929185549,-0.0531284343570331
-0.575057792012162,-0.0514477428328862
-0.577580889087042,-0.0497622114624983
-0.580086993557898,-0.0480719251728169
-0.582575878572434,-0.046376968890789
-0.585047317278359,-0.044677427543362
-0.587501082823378,-0.0429733860574832
-0.589936948355198,-0.0412649293600997
-0.592354687021527,-0.0395521423781587
-0.59475407197007,-0.0378351100386077
-0.597134876348535,-0.0361139172683937
-0.599496873304627,-0.034388648994464
-0.601839835986055,-0.0326593901437659
-0.604163537540523,-0.0309262256432466
-0.60646775111574,-0.0291892404198533
-0.608752249859411,-0.0274485194005334
-0.611016806919243,-0.0257041475122339
-0.613261195442944,-0.0239562096819023
-0.615485188578219,-0.0222047908364856
-0.617688559472776,-0.0204499759029313
-0.61987108127432,-0.0186918498081864
-0.622032527130559,-0.0169304974791983
-0.6241726701892,-0.0151660038429141
-0.626291283597948,-0.0133984538262813
-0.628388140504511,-0.0116279323562468
-0.630463014056596,-0.00985452435975815
-0.632515677401908,-0.00807831476376235
-0.634545903688155,-0.00629938849520682
-0.636553466063043,-0.00451783048103868
-0.63853813767428,-0.0027337256482053
-0.640499691669571,-0.000947158923653768
-0.642437901196623,0.000841784765668527
-0.644352539403143,0.00263302049281447
-0.646243379436838,0.00442646333083669
-0.648110194445414,0.00622202835278809
-0.649952757576578,0.00801963063172127
-0.651770841978037,0.00981918524068916
-0.653564220797496,0.0116206072527443
-0.655332667182664,0.0134238117409397
-0.657075954281247,0.0152287137783279
-0.658793855240951,0.0170352284379618
-0.660486143209483,0.0188432707928941
-0.662152591334549,0.0206527559161776
-0.663792972763857,0.0224635988808649
-0.665407060645112,0.024275714760009
-0.666994628126023,0.0260890186266624
-0.668555448354294,0.0279034255538782
-0.670089294477634,0.0297188506147087
-0.671595939643748,0.0315352088822071
-0.673075157000343,0.0333524154294259
-0.674526719695127,0.0351703853294179
-0.675950400875805,0.0369890336552359
-0.677345973690084,0.0388082754799327
-0.678713211285671,0.0406280258765609
-0.680051886810273,0.0424481999181735
-0.681361773411596,0.0442687126778229
-0.682642644237347,0.0460894792285622
-0.683894272435232,0.047910414643444
-0.685116431152959,0.0497314339955212
-0.686308893538233,0.0515524523578463
-0.687471432738763,0.0533733848034722
-0.688603821902253,0.0551941464054517
-0.689705834176412,0.0570146522368375
-0.690777242708945,0.0588348173706824
-0.691817820647559,0.0606545568800391
-0.692827341139961,0.0624737858379604
-0.693805577333858,0.0642924193174991
-0.694752302376956,0.0661103723917078
-0.695667289416962,0.0679275601336394
-0.696550311601583,0.0697438976163466
-0.697401142078525,0.0715592999128822
-0.698219553995494,0.0733736820962989
-0.699005320500199,0.0751869592396496
-0.699758214740344,0.0769990464159868
-0.700478009863638,0.0788098586983635
-0.701164479017786,0.0806193111598323
-0.701817395350495,0.0824273188734461
-0.702436532009472,0.0842337969122575
-0.703021662142423,0.0860386603493194
-0.703572558897056,0.0878418242576845
-0.704088995421077,0.0896432037104055
-0.704570744862192,0.0914427137805352
-0.705017580368109,0.0932402695411264
-0.705429275086534,0.0950357860652318
-0.705805602165173,0.0968291784259043
-0.706146334751733,0.0986203616961964
-0.706451245993921,0.100409250949161
-0.706720109039444,0.102195761257851
-0.706952697036008,0.103979807695319
-0.707148783131319,0.105761305334617
-0.707308140473086,0.1075401692488
-0.707430542209013,0.109316314510918
-0.707515761486809,0.111089656194026
-0.707563571454179,0.112860109371175
-0.70757374525883,0.114627589115419
-0.707546056048469,0.11639201049981
-0.707480276970802,0.118153288597401
-0.707376181173537,0.119911338481246
-0.70723354180438,0.121666075224395
-0.707052132011037,0.123417413899903
-0.706831724941215,0.125165269580822
-0.706572093742622,0.126909557340205
-0.706273011562963,0.128650192251105
-0.705934251549944,0.130387089386574
-0.705555586851274,0.132120163819665
-0.705136790614659,0.133849330623431
-0.704677635987804,0.135574504870925
-0.704177896118418,0.137295601635199
-0.703637344154205,0.139012535989306
-0.703055753242875,0.140725223006299
-0.702432896532131,0.142433577759231
-0.701768547169683,0.144137515321154
-0.701062478303236,0.145836950765122
-0.700314463080496,0.147531799164186
-0.699524274649171,0.149221975591401
-0.698691686156967,0.150907395119817
-0.697816470751591,0.152587972822489
-0.69689840158075,0.154263623772469
-0.695937251792149,0.155934263042809
-0.694932794533497,0.157599805706563
-0.693884802952499,0.159260166836784
-0.692793050196862,0.160915261506523
-0.691657309414293,0.162565004788834
-0.690477353752499,0.16420931175677
-0.689252956359185,0.165848097483383
-0.68798389038206,0.167481277041725
-0.686669928968829,0.169108765504851
-0.685310845267199,0.170730477945813
-0.683906412424877,0.172346329437662
-0.682456403589569,0.173956235053453
-0.680960591908983,0.175560109866237
-0.680960591908983,0.175560109866237
-0.679419854159373,0.177160209186473
-0.677835439731951,0.178758824968623
-0.676207680696856,0.180355927251748
-0.67453690912423,0.181951486074909
-0.672823457084213,0.183545471477167
-0.671067656646946,0.185137853497583
-0.669269839882568,0.186728602175218
-0.667430338861222,0.188317687549132
-0.665549485653047,0.189905079658387
-0.663627612328182,0.191490748542043
-0.661665050956771,0.193074664239162
-0.659662133608952,0.194656796788804
-0.657619192354866,0.19623711623003
-0.655536559264653,0.197815592601902
-0.653414566408455,0.19939219594348
-0.651253545856412,0.200966896293825
-0.649053829678664,0.202539663691997
-0.646815749945351,0.204110468177059
-0.644539638726615,0.20567927978807
-0.642225828092595,0.207246068564092
-0.639874650113433,0.208810804544186
-0.637486436859269,0.210373457767412
-0.635061520400242,0.211933998272832
-0.632600232806495,0.213492396099506
-0.630102906148167,0.215048621286496
-0.627569872495399,0.216602643872862
-0.625001463918331,0.218154433897664
-0.622398012487104,0.219703961399965
-0.619759850271859,0.221251196418825
-0.617087309342735,0.222796108993305
-0.614380721769874,0.224338669162465
-0.611640419623416,0.225878846965368
-0.608866734973501,0.227416612441073
-0.60605999989027,0.228951935628641
-0.603220546443864,0.230484786567135
-0.600348706704422,0.232015135295613
-0.597444812742087,0.233542951853138
-0.594509196626997,0.23506820627877
-0.591542190429293,0.23659086861157
-0.588544126219117,0.2381109088906
-0.585515336066608,0.239628297154919
-0.582456152041907,0.241143003443589
-0.579366906215155,0.242654997795672
-0.576247930656492,0.244164250250227
-0.573099557436059,0.245670730846315
-0.569922118623995,0.247174409622998
-0.566715946290443,0.248675256619337
-0.563481372505541,0.250173241874393
-0.560218729339431,0.251668335427225
-0.556928348862254,0.253160507316896
-0.553610563144149,0.254649727582466
-0.550265704255257,0.256135966262997
-0.546894104265719,0.257619193397548
-0.543496095245675,0.259099379025181
-0.540072009265266,0.260576493184957
-0.536622178394632,0.262050505915937
-0.533146934703914,0.263521387257182
-0.529646610263252,0.264989107247752
-0.526121537142787,0.266453635926709
-0.52257204741266,0.267914943333113
-0.51899847314301,0.269372999506026
-0.515401146403979,0.270827774484508
-0.511780399265706,0.272279238307621
-0.508136563798333,0.273727361014424
-0.504469972072,0.27517211264398
-0.500780956156847,0.276613463235348
-0.497069848123015,0.278051382827591
-0.493336980040644,0.279485841459768
-0.489582683979876,0.280916809170941
-0.48580729201085,0.282344256000171
-0.482011136203706,0.283768151986518
-0.478194548628587,0.285188467169044
-0.474357861355631,0.28660517158681
-0.47050140645498,0.288018235278875
-0.466625515996774,0.289427628284302
-0.462730522051153,0.290833320642151
-0.458816756688259,0.292235282391483
-0.454884551978231,0.29363348357136
-0.45093423999121,0.295027894220841
-0.446966152797337,0.296418484378988
-0.442980622466752,0.297805224084862
-0.438977981069595,0.299188083377523
-0.434958560676007,0.300567032296034
-0.43092269335613,0.301942040879453
-0.426870711180102,0.303313079166844
-0.422802946218065,0.304680117197265
-0.41871973054016,0.306043125009779
-0.414621396216526,0.307402072643446
-0.410508275317304,0.308756930137327
-0.406380699912635,0.310107667530484
-0.402239002072659,0.311454254861976
-0.398083513867517,0.312796662170865
-0.39391456736735,0.314134859496212
-0.389732494642297,0.315468816877078
-0.385537627762499,0.316798504352523
-0.381330298798097,0.318123891961609
-0.377110839819232,0.319444949743397
-0.372879582896044,0.320761647736947
-0.368636860098672,0.32207395598132
-0.364383003497259,0.323381844515577
-0.360118345161944,0.32468528337878
-0.355843217162868,0.325984242609989
-0.351557951570171,0.327278692248265
-0.347262880453995,0.328568602332668
-0.342958335884479,0.329853942902261
-0.338644649931763,0.331134683996103
-0.33432215466599,0.332410795653256
-0.329991182157298,0.333682247912781
-0.325652064475829,0.334949010813738
-0.321305133691722,0.336211054395189
-0.31695072187512,0.337468348696194
-0.312589161096161,0.338720863755814
-0.308220783424987,0.339968569613111
-0.303845920931738,0.341211436307144
-0.299464905686554,0.342449433876976
-0.295078069759577,0.343682532361666
-0.290685745220947,0.344910701800277
-0.286288264140803,0.346133912231868
-0.281885958589287,0.347352133695501
-0.277479160636539,0.348565336230237
-0.2730682023527,0.349773489875136
-0.26865341580791,0.350976564669259
-0.26423513307231,0.352174530651668
-0.25981368621604,0.353367357861424
-0.255389407309241,0.354555016337587
-0.250962628422053,0.355737476119217
-0.246533681624617,0.356914707245377
-0.242102898987073,0.358086679755127
-0.237670612579562,0.359253363687528
-0.233237154472224,0.36041472908164
-0.228802856735199,0.361570745976526
-0.22436805143863,0.362721384411245
-0.219933070652655,0.363866614424858
-0.215498246447415,0.365006406056427
-0.211063910893052,0.366140729345013
-0.206630396059704,0.367269554329676
-0.202198034017514,0.368392851049477
-0.197767156836621,0.369510589543477
-0.193338096587166,0.370622739850738
-0.188911185339289,0.371729272010319
-0.184486755163132,0.372830156061283
-0.180065138128834,0.373925362042689
-0.175646666306535,0.375014859993599
-0.171231671766378,0.376098619953074
-0.166820486578501,0.377176611960174
-0.162413442813046,0.378248806053961
-0.158010872540153,0.379315172273496
-0.153613107829962,0.380375680657838
-0.149220480752615,0.38143030124605
-0.144833323378251,0.382479004077193
-0.140451967777011,0.383521759190326
-0.136076746019036,0.384558536624512
-0.131707990174466,0.38558930641881
-0.127346032313441,0.386614038612282
-0.122991204506103,0.38763270324399
-0.118643838822591,0.388645270352993
-0.114304267333047,0.389651709978352
-0.10997282210761,0.390651992159129
-0.105649835216421,0.391646086934385
-0.101335638729622,0.39263396434318
-0.0970305647173512,0.393615594424575
-0.0927349452497503,0.394590947217632
-0.0884491123969596,0.395559992761411
-0.0841733982291199,0.396522701094973
-0.0799081348163714,0.397479042257379
-0.0756536542288547,0.398428986287689
-0.0714102885367103,0.399372503224966
-0.0671783698100787,0.400309563108269
-0.0629582301191006,0.401240135976661
-0.0587502015339162,0.4021641918692
-0.0545546161246662,0.403081700824949
-0.0503718059614911,0.403992632882969
-0.0462021031145315,0.40489695808232
-0.0420458396539277,0.405794646462064
-0.0379033476498204,0.40668566806126
-0.03377495917235,0.407569992918971
-0.0296610062916571,0.408447591074257
-0.0255618210778822,0.409318432566178
-0.0214777356011656,0.410182487433797
-0.0174090819316482,0.411039725716173
-0.0133561921394703,0.411890117452368
-0.00931939829477235,0.412733632681443
-0.00529903246769498,0.413570241442458
-0.00129542672837871,0.414399913774475
0.00269108685303598,0.415222619716554
0.00666017620640869,0.416038329307756
0.0106115092615988,0.416847012587143
0.0145447539484657,0.417648639593775
0.018459578196869,0.418443180366713
0.0223556499366682,0.419230604945017
0.0262326370977227,0.42001088336775
0.030090207609892,0.420783985673972
0.0339280294030356,0.421549881902743
0.0377457704070131,0.422308542093125
0.0415430985516839,0.423059936284179
0.0453196817669074,0.423804034514965
0.0490751879825432,0.424540806824544
0.0528092851284507,0.425270223251978
0.0565216411344895,0.425992253836327
0.0602119239305189,0.426706868616653
0.0638798014463987,0.427414037632015
0.067524941611988,0.428113730921476
0.0711470123571466,0.428805918524095
0.0747456816117338,0.429490570478934
0.0783206173056092,0.430167656825054
0.0818714873686321,0.430837147601516
0.0853979597306623,0.43149901284738
0.0888997023215589,0.432153222601708
0.0923763830711819,0.43279974690356
0.0958276699093901,0.433438555791998
0.0992532307660437,0.434069619306082
0.102652733571002,0.434692907484873
0.106025846254124,0.435308390367433
0.109372236745269,0.435916037992821
0.112691572974298,0.4365158204001
0.115983522871069,0.437107707628329
0.119247754365442,0.43769166971657
0.122483935387276,0.438267676703884
0.125691733866432,0.438835698629331
0.128870817732768,0.439395705531973
0.132020854916144,0.439947667450871
0.135141513346419,0.440491554425085
0.138232460953453,0.441027336493676
0.141293365667105,0.441554983695705
0.144323895417236,0.442074466070234
0.147323718133703,0.442585753656323
0.150292501746368,0.443088816493033
0.153229914185089,0.443583624619424
0.156135623379726,0.444070148074559
0.159009297260138,0.444548356897497
0.161850603756184,0.4450182211273
0.164659210797725,0.445479710803029
0.16743478631462,0.445932795963744
0.170176998236728,0.446377446648506
0.172885514493909,0.446813632896377
0.175560003016022,0.447241324746417
0.178200131732927,0.447660492237687
0.180805568574483,0.448071105409249
0.183375981470549,0.448473134300162
0.185911038350986,0.448866548949489
0.188410407145652,0.449251319396289
0.190873755784408,0.449627415679624
0.193300752197112,0.449994807838555
0.195691064313624,0.450353465912143
0.198044360063804,0.450703359939448
0.200360307377511,0.451044459959531
0.202638574184604,0.451376736011454
0.204878828414943,0.451700158134277
0.207080737998388,0.452014696367062
0.209243970864798,0.452320320748868
0.211368194944033,0.452617001318758
0.213453078165951,0.452904708115791
0.215498288460414,0.45318341117903
0.217503493757278,0.453453080547534
0.219468361986406,0.453713686260365
0.221392561077655,0.453965198356584
0.223275758960886,0.454207586875251
0.225117623565957,0.454440821855428
0.22691782282273,0.454664873336176
0.228676024661061,0.454879711356554
0.230391897010813,0.455085305955625
0.232065107801843,0.455281627172449
0.233695324964011,0.455468645046087
0.235282216427177,0.4556463296156
0.236825450121201,0.455814650920049
0.238324693975941,0.455973578998495
0.239779615921258,0.456123083889999
0.24118988388701,0.456263135633622
0.242555165803058,0.456393704268424
0.243875129599261,0.456514759833466
0.245149443205477,0.45662627236781
0.246377774551568,0.456728211910516
0.247559791567391,0.456820548500646
0.248695162182807,0.45690325217726
0.249783554327676,0.456976292979419
0.250824635931856,0.457039640946184
0.251818074925207,0.457093266116616
0.252763539237589,0.457137138529776
0.253660696798861,0.457171228224725
0.254509215538882,0.457195505240523
0.255308763387513,0.457209939616232
0.256059008274612,0.457214501390913
0.256759618130039,0.457209160603626
0.257410260883654,0.457193887293433
0.258010604465316,0.457168651499394
0.258560316804884,0.45713342326057
0.259059065832218,0.457088172616022
0.259506519477178,0.457032869604811
0.259902345669623,0.456967484265999
0.260246212339412,0.456891986638645
0.260537787416405,0.456806346761811
0.260776738830461,0.456710534674558
0.260962734511441,0.456604520415946
0.261095442389203,0.456488274025038
0.261174530393607,0.456361765540892
0.261199666454512,0.456224965002571
0.261170518501778,0.456077842449136
0.261086754465264,0.455920367919647
0.26094804227483,0.455752511453165
0.260754049860336,0.45557424308875
0.26050444515164,0.455385532865466
0.260198896078603,0.455186350822371
0.259837070571083,0.454976666998526
0.259418636558941,0.454756451432994
0.258943261972035,0.454525674164835
0.258410614740226,0.454284305233108
0.257820362793372,0.454032314676877
0.257172174061333,0.453769672535201
0.25646571647397,0.453496348847141
0.25570065796114,0.453212313651759
0.254876666452704,0.452917536988115
0.253993409878521,0.45261198889527
0.253050556168451,0.452295639412285
0.252047773252353,0.451968458578221
0.250984729060087,0.451630416432139
0.249861091521511,0.4512814830131
0.248676528566486,0.450921628360165
0.247430708124872,0.450550822512394
0.246123298126527,0.450169035508849
0.244753966501311,0.44977623738859
0.243322381179083,0.449372398190679
0.241828210089703,0.448957487954176
0.240271121163031,0.448531476718142
0.238650782328926,0.448094334521639
0.236966861517247,0.447646031403726
0.235219026657855,0.447186537403466
0.233406945680607,0.446715822559918
0.231530286515365,0.446233856912145
0.229588717091987,0.445740610499206
0.227581905340333,0.445236053360163
0.225509519190263,0.444720155534076
0.223371226571635,0.444192887060007
0.221166695414309,0.443654217977017
0.218895593648146,0.443104118324166
0.216557589203003,0.442542558140515
0.214152350008742,0.441969507465125
0.211679543995221,0.441384936337057
0.209138839092299,0.440788814795373
0.206529903229837,0.440181112879132
0.203852404337694,0.439561800627397
0.201106010345729,0.438930848079227
0.198290389183802,0.438288225273683
0.195405208781771,0.437633902249828
0.192450137069498,0.436967849046721
0.189424841976841,0.436290035703424
0.186328991433659,0.435600432258996
0.183162253369813,0.434899008752501
0.179924295715161,0.434185735222997
0.176614786399563,0.433460581709547
0.173233393352879,0.432723518251211
0.169779784504968,0.431974514887049
0.16625362778569,0.431213541656124
0.162654591124903,0.430440568597495
0.158982342452469,0.429655565750224
0.155236549698245,0.428858503153372
0.151416880792092,0.428049350846
0.147523003663869,0.427228078867168
0.143554586243435,0.426394657255937
0.13951129646065,0.425549056051369
0.135392802245374,0.424691245292524
0.131198771527466,0.423821195018463
0.126928872236785,0.422938875268247
0.122582772303191,0.422044256080938
0.118160139656544,0.421137307495595
0.113660642226702,0.42021799955128
0.109083947943526,0.419286302287054
0.104429724736875,0.418342185741978
0.0996976405366084,0.417385619955112
0.0948873632725853,0.416416574965518
0.0899985608746657,0.415435020812256
0.0850309012727087,0.414440927534388
0.0799840523965742,0.413434265170974
0.0748576821761214,0.412415003761075
0.06965145854121,0.411383113343752
0.0643650494216992,0.410338563958067
0.0589981227474488,0.409281325643079
0.053550346448318,0.40821136843785
0.0480213884541666,0.407128662381441
0.0424109166948536,0.406033177512913
0.0367185991002392,0.404924883871327
0.0309441036001821,0.403803751495743
0.0250870981245425,0.402669750425222
0.0191472506031792,0.401522850698826
0.0131242289659524,0.400363022355615
0.00701770114272093,0.399190235434651
0.000827335063344845,0.398004459974994
-0.00544720134231692,0.396805666015704
-0.0118062401444043,0.395593823595844
-0.0182501134130584,0.394368902754474
-0.0247791532184192,0.393130873530655
-0.0313936916306278,0.391879705963447
-0.038094060719824,0.390615370091912
-0.044880592556149,0.389337835955111
-0.0517536192097427,0.388047073592104
-0.0587134727507462,0.386743053041952
-0.0657604852492994,0.385425744343717
-0.0728949887755435,0.384095117536459
-0.0801173153996183,0.38275114265924
-0.087427797191665,0.381393789751119
-0.087427797191665,0.381393789751119
-0.0947477812060025,0.380031880931888
-0.101998536042595,0.37867430490481
-0.109180276090052,0.377321131584161
-0.116293215736982,0.375972430884216
-0.123337569371993,0.374628272719251
-0.130313551383695,0.37328872700354
-0.137221376160694,0.371953863651359
-0.144061258091601,0.370623752576982
-0.150833411565024,0.369298463694685
-0.157538050969572,0.367978066918743
-0.164175390693852,0.366662632163431
-0.170745645126474,0.365352229343024
-0.177249028656046,0.364046928371798
-0.183685755671178,0.362746799164027
-0.190056040560477,0.361451911633986
-0.196360097712552,0.360162335695951
-0.202598141516012,0.358878141264197
-0.208770386359465,0.357599398252998
-0.21487704663152,0.356326176576631
-0.220918336720786,0.355058546149369
-0.226894471015871,0.353796576885489
-0.232805663905384,0.352540338699265
-0.238652129777933,0.351289901504973
-0.244434083022128,0.350045335216887
-0.250151738026576,0.348806709749283
-0.255805309179887,0.347574095016435
-0.261395010870669,0.346347560932619
-0.26692105748753,0.345127177412111
-0.272383663419079,0.343913014369184
-0.277783043053925,0.342705141718115
-0.283119410780677,0.341503629373178
-0.288392980987943,0.340308547248649
-0.293603968064331,0.339119965258802
-0.298752586398451,0.337937953317913
-0.30383905037891,0.336762581340256
-0.308863574394318,0.335593919240108
-0.313826372833283,0.334432036931743
-0.318727660084414,0.333277004329435
-0.32356765053632,0.332128891347461
-0.328346558577608,0.330987767900096
-0.333064598596888,0.329853703901614
-0.337721984982768,0.328726769266291
-0.342318932123857,0.327607033908401
-0.346855654408763,0.32649456774222
-0.351332366226096,0.325389440682024
-0.355749281964463,0.324291722642086
-0.360106616012473,0.323201483536682
-0.364404582758736,0.322118793280088
-0.368643396591859,0.321043721786579
-0.372823271900451,0.319976338970429
-0.376944423073121,0.318916714745913
-0.381007064498477,0.317864919027308
-0.385011410565128,0.316821021728887
-0.388957675661683,0.315785092764926
-0.39284607417675,0.314757202049701
-0.396676820498939,0.313737419497485
-0.400450129016856,0.312725815022556
-0.404166214119112,0.311722458539186
-0.407825290194314,0.310727419961652
-0.411427571631072,0.309740769204229
-0.414973272817994,0.308762576181192
-0.418462608143688,0.307792910806816
-0.421895791996763,0.306831842995376
-0.425273038765829,0.305879442661147
-0.428594562839492,0.304935779718404
-0.431860578606363,0.304000924081423
-0.435071300455049,0.303074945664478
-0.43822694277416,0.302157914381845
-0.441327719952304,0.301249900147799
-0.444373846378089,0.300350972876614
-0.447365536440124,0.299461202482567
-0.450303004527018,0.298580658879932
-0.453186465027379,0.297709411982984
-0.456016132329817,0.296847531705998
-0.458792220822938,0.29599508796325
-0.461514944895354,0.295152150669014
-0.464184518935671,0.294318789737567
-0.466801157332498,0.293495075083181
-0.469365074474444,0.292681076620134
-0.471876484750119,0.2918768642627
-0.474335602548129,0.291082507925154
-0.476742642257085,0.290298077521772
-0.479097818265594,0.289523642966827
-0.481401344962265,0.288759274174597
-0.483653436735707,0.288005041059355
-0.485854307974528,0.287261013535376
-0.488004173067337,0.286527261516937
-0.490103246402743,0.285803854918312
-0.492151742369355,0.285090863653775
-0.49414987535578,0.284388357637603
-0.496097859750627,0.28369640678407
-0.497995909942506,0.283015081007452
-0.499844240320025,0.282344450222023
-0.501643065271791,0.281684584342059
-0.503392599186415,0.281035553281835
-0.505093056452504,0.280397426955625
-0.506744651458668,0.279770275277706
-0.508347598593514,0.279154168162352
-0.509902112245651,0.278549175523838
-0.511408406803689,0.277955367276439
-0.512866696656236,0.277372813334431
-0.514277196191899,0.276801583612089
-0.515640119799289,0.276241748023687
-0.516955681867013,0.275693376483501
-0.51822409678368,0.275156538905806
-0.519445578937899,0.274631305204877
-0.520620342718278,0.27411774529499
-0.521748602513427,0.273615929090418
-0.522830572711953,0.273125926505438
-0.523866467702465,0.272647807454325
-0.524856501873572,0.272181641851353
-0.525800889613882,0.271727499610798
-0.526699845312005,0.271285450646935
-0.527553583356548,0.270855564874039
-0.52836231813612,0.270437912206385
-0.529126264039331,0.270032562558249
-0.529845635454788,0.269639585843904
-0.5305206467711,0.269259051977628
-0.531151512376876,0.268891030873693
-0.531738446660724,0.268535592446377
-0.532281664011253,0.268192806609953
-0.532781378817072,0.267862743278697
-0.533237805466789,0.267545472366884
-0.533651158349013,0.26724106378879
-0.534021651852353,0.266949587458689
-0.534349500365416,0.266671113290856
-0.534634918276813,0.266405711199566
-0.53487811997515,0.266153451099096
-0.535079319849038,0.265914402903719
-0.535238732287084,0.265688636527711
-0.535356571677898,0.265476221885347
-0.535433052410087,0.265277228890902
-0.535468388872261,0.265091727458651
-0.535462795453027,0.264919787502869
-0.535416486540995,0.264761478937832
-0.535329676524774,0.264616871677815
-0.535202579792972,0.264486035637092
-0.535035410734196,0.264369040729939
-0.534828383737058,0.264265956870631
-0.534581713190164,0.264176853973443
-0.534295613482123,0.264101801952651
-0.533970299001544,0.264040870722528
-0.533605984137036,0.263994130197351
-0.533202883277207,0.263961650291394
-0.532761210810666,0.263943500918933
-0.532281181126021,0.263939751994243
-0.531763008611881,0.263950473431598
-0.531206907656856,0.263975735145275
-0.530613092649552,0.264015607049547
-0.529981777978579,0.264070159058691
-0.529313178032546,0.264139461086981
-0.528607507200061,0.264223583048692
-0.527864979869733,0.264322594858101
-0.52708581043017,0.26443656642948
-0.526270213269981,0.264565567677107
-0.525418402777775,0.264709668515255
-0.52453059334216,0.2648689388582
-0.523606999351745,0.265043448620218
-0.522647835195138,0.265233267715583
-0.521653315260949,0.26543846605857
-0.520623653937785,0.265659113563454
-0.519559065614256,0.265895280144511
-0.518459764678969,0.266147035716016
-0.517325965520534,0.266414450192244
-0.51615788252756,0.26669759348747
-0.514955730088654,0.266996535515968
-0.513719722592425,0.267311346192015
-0.512450074427483,0.267642095429885
-0.511146999982435,0.267988853143854
-0.50981071364589,0.268351689248196
-0.508441429806458,0.268730673657187
-0.507039362852746,0.269125876285101
-0.505604727173363,0.269537367046215
-0.504137737156917,0.269965215854802
-0.502638607192018,0.270409492625138
-0.501107551667274,0.270870267271499
-0.499544784971294,0.271347609708159
-0.497950521492686,0.271841589849393
-0.496324975620059,0.272352277609477
-0.494668361742021,0.272879742902686
-0.492980894247181,0.273424055643295
-0.491262787524148,0.273985285745578
-0.48951425596153,0.274563503123812
-0.487735513947937,0.27515877769227
-0.485926775871975,0.275771179365229
-0.484088256122255,0.276400778056963
-0.482220169087385,0.277047643681748
-0.480322729155973,0.277711846153858
-0.478396150716628,0.27839345538757
-0.476440648157959,0.279092541297157
-0.474456435868573,0.279809173796895
-0.472443728237081,0.280543422801059
-0.47040273965209,0.281295358223924
-0.46833368450221,0.282065049979765
-0.466236777176048,0.282852567982858
-0.464112232062213,0.283657982147478
-0.461960263549315,0.284481362387899
-0.45978108602596,0.285322778618397
-0.457574913880759,0.286182300753247
-0.45534196150232,0.287059998706723
-0.453082443279252,0.287955942393102
-0.450796573600162,0.288870201726659
-0.44848456685366,0.289802846621667
-0.446146637428354,0.290753946992403
-0.443782999712853,0.291723572753142
-0.441393868095766,0.292711793818158
-0.438979456965701,0.293718680101728
-0.436539980711266,0.294744301518125
-0.434075653721071,0.295788727981625
-0.431586690383724,0.296852029406503
-0.429073305087833,0.297934275707035
-0.426535712222008,0.299035536797495
-0.423974126174857,0.300155882592159
-0.421388761334988,0.301295383005301
-0.41877983209101,0.302454107951197
-0.416147552831531,0.303632127344122
-0.413492137945161,0.30482951109835
-0.410813801820508,0.306046329128158
-0.408112758846181,0.307282651347821
-0.405389223410788,0.308538547671612
-0.402643409902937,0.309814088013808
-0.399875532711238,0.311109342288684
-0.397085806224298,0.312424380410514
-0.394274444830728,0.313759272293574
-0.391441662919134,0.315114087852139
-0.388587674878127,0.316488897000484
-0.385712695096314,0.317883769652884
-0.382816937962304,0.319298775723614
-0.379900617864706,0.32073398512695
-0.376963949192128,0.322189467777166
-0.374007146333179,0.323665293588538
-0.371030423676468,0.325161532475341
-0.368033995610603,0.326678254351849
-0.365018076524192,0.328215529132339
-0.361982880805845,0.329773426731084
-0.35892862284417,0.331352017062361
-0.355855517027776,0.332951370040444
-0.352763777745271,0.334571555579609
-0.349653619385264,0.33621264359413
-0.346525256336363,0.337874703998282
-0.343378902987178,0.339557806706342
-0.340214773726316,0.341262021632583
-0.337033082942387,0.342987418691282
-0.333834045023999,0.344734067796712
-0.33061787435976,0.34650203886315
-0.327384785338279,0.34829140180487
-0.324134992348165,0.350102226536148
-0.320868709778027,0.351934582971258
-0.317586152016473,0.353788541024476
-0.314287533452111,0.355664170610077
-0.310973068473551,0.357561541642335
-0.307642971469401,0.359480724035527
-0.304297456828269,0.361421787703927
-0.300936738938764,0.36338480256181
-0.297561032189495,0.365369838523452
-0.294170550969071,0.367376965503127
-0.290765509666099,0.369406253415111
-0.287346122669189,0.371457772173678
-0.28391260436695,0.373531591693105
-0.280465169147989,0.375627781887665
-0.277004031400916,0.377746412671635
-0.273529405514339,0.379887553959289
-0.270041505876866,0.382051275664902
-0.266540546877107,0.384237647702749
-0.26302674290367,0.386446739987106
-0.259500308345163,0.388678622432248
-0.255961457590195,0.39093336495245
-0.252410405027376,0.393211037461986
-0.248847365045312,0.395511709875133
-0.245272552032614,0.397835452106165
-0.24168618037789,0.400182334069357
-0.238088464469747,0.402552425678984
-0.234479618696796,0.404945796849322
-0.230859857447644,0.407362517494645
-0.2272293951109,0.40980265752923
-0.223588446075173,0.41226628686735
-0.219937224729071,0.414753475423281
-0.216275945461204,0.417264293111298
-0.212604822660179,0.419798809845676
-0.208924070714605,0.422357095540691
-0.205233904013091,0.424939220110617
-0.201534536944245,0.42754525346973
-0.197826183896676,0.430175265532304
-0.194109059258994,0.432829326212615
-0.190383377419805,0.435507505424938
-0.186649352767719,0.438209873083548
-0.182907199691345,0.44093649910272
-0.179157132579291,0.44368745339673
-0.175399365820166,0.446462805879852
-0.171634113802578,0.449262626466361
-0.167861590915136,0.452086985070533
-0.164082011546449,0.454935951606642
-0.160295590085125,0.457809595988964
-0.156502540919773,0.460707988131775
-0.152703078439001,0.463631197949348
-0.148897417031419,0.46657929535596
-0.145085771085634,0.469552350265885
-0.141268354990255,0.472550432593398
-0.137445383133891,0.475573612252775
-0.133617069905152,0.47862195915829
-0.129783629692644,0.481695543224219
-0.125945276884977,0.484794434364837
-0.122102225870759,0.487918702494419
-0.118254691038599,0.491068417527241
-0.114402886777106,0.494243649377576
-0.110547027474889,0.497444467959701
-0.106687327520555,0.50067094318789
-0.102824001302714,0.503923144976419
-0.0989572632099734,0.507201143239562
-0.095087327630943,0.510505007891596
-0.0912144089542308,0.513834808846794
-0.0873387215684458,0.517190616019432
-0.0834604798621962,0.520572499323786
-0.079579898224091,0.523980528674129
-0.0756971910427384,0.527414773984738
-0.0718125727067474,0.530875305169888
-0.0679262576047264,0.534362192143853
-0.0640384601252842,0.537875504820909
-0.060149394657029,0.541415313115331
-0.05625927558857,0.544981686941393
-0.0523683173085154,0.548574696213372
-0.0484767342054741,0.552194410845542
-0.0445847406680543,0.555840900752179
-0.0406925510848652,0.559514235847556
-0.0368003798445148,0.563214486045951
-0.0329084413356122,0.566941721261637
-0.0290169499467657,0.570696011408889
-0.0251261200665842,0.574477426401984
-0.0212361660836761,0.578286036155196
-0.0173473023866502,0.5821219105828
-0.0134597433641148,0.585985119599071
-0.00957370340467889,0.589875733118284
-0.00568939689695083,0.593793821054715
-0.00180703822953944,0.597739453322639
0.00207315820894693,0.60171269983633
0.00595097802989934,0.605713630510064
0.00982620684470946,0.609742315258116
0.0136986302647685,0.613798823994761
0.0175680339014679,0.617883226634275
0.021434203366199,0.621995593090931
0.0252969242703533,0.626135993279006
0.029155982225322,0.630304497112774
0.0330111628424967,0.634501174506512
0.0368622517332685,0.638726095374493
0.0407090345090291,0.642979329630993
0.0445512967811696,0.647260947190286
0.0483888241610817,0.651571017966649
0.0522214022601564,0.655909611874356
0.0560488166897854,0.660276798827683
0.0598708530613598,0.664672648740904
0.0636872969862713,0.669097231528294
0.0674979340759111,0.673550617104129
0.0713025499416706,0.678032875382684
0.0751009301949411,0.682544076278234
0.0788928604471142,0.687084289705054
0.082678126309581,0.691653585577419
0.0864565133937332,0.696252033809605
0.0902278073109619,0.700879704315886
0.0939917936726587,0.705536667010537
0.0977482580902148,0.710222991807834
0.101496986175022,0.714938748622052
0.105237763538471,0.719684007367465
0.108970375791953,0.72445883795835
0.112694608546861,0.72926331030898
0.116410247414585,0.734097494333632
0.120117078006516,0.73896145994658
0.123814885934047,0.7438552770621
0.127503456808567,0.748779015594465
0.13118257624147,0.753732745457953
0.134852029844146,0.758716536566838
0.138511603227987,0.763730458835394
0.142161082004383,0.768774582177898
0.145800251784727,0.773848976508623
0.14942889818041,0.778953711741846
0.153046806802823,0.784088857791842
0.156653763263357,0.789254484572884
0.160249553173404,0.79445066199925
0.163833962144355,0.799677459985213
0.167406775787603,0.804934948445048
0.170967779714537,0.810223197293032
0.174516759536549,0.815542276443439
0.178053500865031,0.820892255810544
0.181577789311375,0.826273205308623
0.185089410486971,0.831685194851949
0.188588150003211,0.8371282943548
0.192073793471486,0.842602573731449
0.195546126503188,0.848108102896171
0.199004934709708,0.853644951763243
0.202450003702438,0.859213190246938
0.205881119092768,0.864812888261533
0.209298066492091,0.870444115721302
0.212700631511797,0.87610694254052
0.216088599763279,0.881801438633463
0.219461756857926,0.887527673914405
0.222819888407132,0.893285718297622
0.226162780022286,0.899075641697389
0.229490217314781,0.904897514027981
0.232801985896008,0.910751405203673
0.236097871377359,0.91663738513874
