-0.678543842310145,0.368557991787337
-0.676647580456695,0.360838625851598
-0.674773885936485,0.353216086130054
-0.672922650724693,0.345689885943718
-0.671093766796493,0.338259538613608
-0.669287126127062,0.330924557460738
-0.667502620691576,0.323684455806123
-0.66574014246521,0.316538746970779
-0.66399958342314,0.309486944275722
-0.662280835540543,0.302528561041966
-0.660583790792594,0.295663110590527
-0.658908341154469,0.28889010624242
-0.657254378601345,0.282209061318662
-0.655621795108396,0.275619489140266
-0.6540104826508,0.269120903028249
-0.652420333203731,0.262712816303626
-0.650851238742367,0.256394742287412
-0.649303091241882,0.250166194300622
-0.647775782677452,0.244026685664273
-0.646269205024255,0.237975729699379
-0.644783250257465,0.232012839726956
-0.643317810352258,0.226137529068018
-0.641872777283811,0.220349311043583
-0.640448043027299,0.214647698974664
-0.639043499557898,0.209032206182277
-0.637659038850784,0.203502345987439
-0.636294552881134,0.198057631711163
-0.634949933624122,0.192697576674465
-0.633625073054925,0.187421694198361
-0.632319863148719,0.182229497603867
-0.63103419588068,0.177120500211996
-0.629767963225984,0.172094215343766
-0.628521057159806,0.167150156320191
-0.627293369657323,0.162287836462286
-0.62608479269371,0.157506769091068
-0.624895218244143,0.152806467527551
-0.623724538283799,0.14818644509275
-0.622572644787853,0.143646215107682
-0.621439429731482,0.139185290893361
-0.62032478508986,0.134803185770803
-0.619228602838164,0.130499413061023
-0.61815077495157,0.126273486085037
-0.617091193405254,0.12212491816386
-0.616049750174392,0.118053222618507
-0.61502633723416,0.114057912769994
-0.614020846559733,0.110138501939336
-0.613033170126287,0.106294503447548
-0.612063199908999,0.102525430615647
-0.611110827883045,0.0988307967646462
-0.6101759460236,0.0952101152155623
-0.60925844630584,0.0916628992894104
-0.608358220704941,0.0881886623072058
-0.607475161196079,0.084786917589964
-0.606609159754431,0.0814571784587002
-0.605760108355171,0.0781989582344298
-0.604927898973475,0.0750117702381683
-0.604112423584521,0.0718951277909311
-0.603313574163484,0.0688485442137335
-0.602531242685539,0.0658715328275907
-0.601765321125862,0.0629636069535183
-0.601015701459631,0.0601242799125316
-0.600282275662019,0.057353065025646
-0.599564935708204,0.0546494756138769
-0.598863573573361,0.0520130249982395
-0.598178081232666,0.0494432264997495
-0.597508350661295,0.0469395934394219
-0.596854273834424,0.0445016391382723
-0.596215742727229,0.042128876917316
-0.595592649314887,0.0398208200975685
-0.594984885572572,0.037576982000045
-0.59439234347546,0.0353968759457609
-0.593814914998728,0.0332800152557317
-0.593252492117552,0.0312259132509727
-0.592704966807107,0.0292340832524992
-0.592172231042569,0.0273040385813267
-0.591654176799115,0.0254352925584705
-0.59115069605192,0.023627358504946
-0.59066168077616,0.0218797497417686
-0.590187022947012,0.0201919795899535
-0.58972661453965,0.0185635613705163
-0.589280347529251,0.0169940084044724
-0.588848113890991,0.0154828340128369
-0.588429805600046,0.0140295515166254
-0.588025314631592,0.0126336742368532
-0.587634532960804,0.0112947154945357
-0.587257352562859,0.0100121886106882
-0.586893665412932,0.00878560690632615
-0.586543363486199,0.00761448370246491
-0.586206338757837,0.00649833232011989
-0.585882483203021,0.0054366660803064
-0.585571688796928,0.00442899830403981
-0.585273847514732,0.00347484231233552
-0.58498885133161,0.00257371142620891
-0.584716592222739,0.00172511896667539
-0.584456962163293,0.000928578254750255
-0.584209853128449,0.000183602611448903
-0.583975157093383,-0.000510294642213228
-0.58375276603327,-0.00115360018522085
-0.583542571923287,-0.00174680069655856
-0.583344466738609,-0.00229038285521099
-0.583158342454413,-0.00278483334016272
-0.582984091045874,-0.00323063883039842
-0.582821604488168,-0.00362828600490274
-0.582670774756472,-0.00397826154266025
-0.58253149382596,-0.00428105212265556
-0.58240365367181,-0.00453714442387338
-0.582287146269196,-0.00474702512529826
-0.582181863593296,-0.00491118090591488
-0.582087697619284,-0.00503009844470783
-0.582004540322337,-0.00510426442066176
-0.58193228367763,-0.00513416551276128
-0.58187081966034,-0.00512028839999103
-0.581820040245643,-0.0050631197613356
-0.581779837408714,-0.00496314627577968
-0.581750103124729,-0.00482085462230785
-0.581730729368864,-0.00463673147990472
-0.581721608116296,-0.00441126352755495
-0.5817226313422,-0.00414493744424314
-0.581733691021752,-0.00383823990895395
-0.581754679130127,-0.00349165760067199
-0.581785487642503,-0.00310567719838188
-0.581826008534054,-0.00268078538106823
-0.581876133779957,-0.00221746882771573
-0.581935755355388,-0.00171621421730896
-0.582004765235522,-0.00117750822883253
-0.582083055395536,-0.000601837541271077
-0.582170517810605,1.03111663907612e-05
-0.582267044455906,0.000658451215168377
-0.582372527306614,0.00134209592607711
-0.582486858337905,0.00206075862013234
-0.582609929524955,0.00281395261834946
-0.582741632842939,0.00360119124174387
-0.582881860267036,0.00442198781133086
-0.583030503772419,0.00527585564812591
-0.583187455334264,0.00616230807314433
-0.583352606927748,0.00708085840740149
-0.583525850528048,0.00803101997191277
-0.583707078110337,0.00901230608769355
-0.583896181649793,0.0100242300757592
-0.584093053121591,0.0110663052571252
-0.584297584500908,0.0121380449528067
-0.58450966776292,0.0132389624838193
-0.584729194882801,0.0143685711711782
-0.584956057835728,0.0155263843358988
-0.585190148596877,0.0167119152989966
-0.585431359141425,0.0179246773814869
-0.585679581444546,0.0191641839043851
-0.585934707481417,0.0204299481887065
-0.586196629227214,0.0217214835554665
-0.586465238657112,0.0230383033256805
-0.586740427746288,0.0243799208203638
-0.587022088469917,0.0257458493605319
-0.587310112803176,0.0271356022672001
-0.58760439272124,0.0285486928613838
-0.587904820199286,0.0299846344640984
-0.588211287212488,0.0314429403963592
-0.588523685736024,0.0329231239791816
-0.588841907745069,0.034424698533581
-0.589165845214798,0.0359471773805727
-0.589495390120389,0.0374900738411722
-0.589830434437016,0.0390529012363948
-0.590170870139857,0.0406351728872558
-0.590516589204085,0.0422364021147707
-0.590867483604878,0.0438561022399549
-0.591223445317412,0.0454937865838236
-0.591584366316863,0.0471489684673923
-0.591950138578405,0.0488211612116764
-0.592320654077216,0.0505098781376911
-0.592695804788471,0.052214632566452
-0.593075482687346,0.0539349378189743
-0.593459579749017,0.0556703072162736
-0.59384798794866,0.0574202540793649
-0.594240599261451,0.059184291729264
-0.594637305662566,0.0609619334869859
-0.595037999127181,0.0627526926735462
-0.595442571630471,0.0645560826099602
-0.595850915147613,0.0663716166172434
-0.596262921653782,0.0681988080164109
-0.596678483124155,0.0700371701284783
-0.597097491533907,0.0718862162744609
-0.597519838858214,0.0737454597753741
-0.597945417072253,0.0756144139522333
-0.598374118151198,0.0774925921260538
-0.598805834070227,0.079379507617851
-0.599240456804514,0.0812746737486402
-0.599677878329237,0.083177603839437
-0.60011799061957,0.0850878112112565
-0.60056068565069,0.0870048091851143
-0.601005855397773,0.0889281110820256
-0.601453391835994,0.0908572302230059
-0.60190318694053,0.0927916799290705
-0.602355132686556,0.0947309735212348
-0.602809121049249,0.0966746243205141
-0.603265044003784,0.0986221456479239
-0.603722793525337,0.10057305082448
-0.604182261589084,0.102526853171196
-0.604643340170201,0.10448306600909
-0.605105921243864,0.106441202659175
-0.605569896785249,0.108400776442468
-0.606035158769532,0.110361300679983
-0.606501599171889,0.112322288692737
-0.606969109967495,0.114283253801743
-0.607437583131527,0.116243709328019
-0.60790691063916,0.118203168592579
-0.608376984465571,0.120161144916438
-0.608847696585935,0.122117151620613
-0.609318938975428,0.124070702026117
-0.609790603609227,0.126021309453968
-0.610262582462507,0.127968487225179
-0.610734767510443,0.129911748660767
-0.611207050728213,0.131850607081746
-0.611679324090992,0.133784575809133
-0.612151479573955,0.135713168163942
-0.612623409152279,0.13763589746719
-0.61309500480114,0.13955227703989
-0.613566158495713,0.141461820203059
-0.614036762211175,0.143364040277713
-0.614506707922702,0.145258450584865
-0.614975887605469,0.147144564445533
-0.615444193234651,0.149021895180731
-0.615911516785427,0.150889956111474
-0.61637775023297,0.152748260558778
-0.616842785552457,0.154596321843658
-0.617306514719065,0.15643365328713
-0.617768829707968,0.158259768210209
-0.618229622494343,0.160074179933911
-0.618688785053366,0.16187640177925
-0.619146209360212,0.163665947067243
-0.619601787390059,0.165442329118904
-0.62005541111808,0.167205061255249
-0.620506972519453,0.168953656797293
-0.620956363569354,0.170687629066052
-0.621403476242957,0.172406491382541
-0.62184820251544,0.174109757067775
-0.622290434361978,0.17579693944277
-0.622730063757747,0.177467551828541
-0.623166982677923,0.179121107546104
-0.623601083097682,0.180757119916474
-0.6240322569922,0.182375102260665
-0.624460396336653,0.183974567899695
-0.624885393106216,0.185555030154577
-0.625307139276066,0.187116002346329
-0.625725526821378,0.188656997795963
-0.626140447717329,0.190177529824497
-0.626551793939094,0.191677111752946
-0.626959457461849,0.193155256902324
-0.627363330260771,0.194611478593647
-0.627763304311035,0.196045290147932
-0.628159271587817,0.197456204886192
-0.628551124066292,0.198843736129444
-0.628938753721638,0.200207397198702
-0.62932205252903,0.201546701414982
-0.629700912463643,0.2028611620993
-0.630075225500654,0.204150292572671
-0.630444883615239,0.20541360615611
-0.630809778782573,0.206650616170633
-0.631169802977832,0.207860835937255
-0.631524848176193,0.209043778776991
-0.631874806352831,0.210198958010857
-0.632219569482923,0.211325886959868
-0.632559029541643,0.21242407894504
-0.632893078504169,0.213493047287387
-0.633221608345675,0.214532305307926
-0.633544511041339,0.215541366327671
-0.633861678566335,0.216519743667638
-0.63417300289584,0.217466950648843
-0.63447837600503,0.2183825005923
-0.634777689869081,0.219265906819026
-0.635070836463168,0.220116682650035
-0.635357707762467,0.220934341406343
-0.635638195742155,0.221718396408965
-0.635912192377407,0.222468360978917
-0.636179589643399,0.223183748437214
-0.636440279515307,0.223864072104871
-0.636694153968308,0.224508845302904
-0.636941104977576,0.225117581352327
-0.637181024518289,0.225689793574158
-0.637413804565621,0.22622499528941
-0.637639337094749,0.2267226998191
-0.637857514080848,0.227182420484242
-0.638068227499096,0.227603670605852
-0.638271369324667,0.227985963504945
-0.638466831532737,0.228328812502538
-0.638654506098483,0.228631730919644
-0.638834284997079,0.22889423207728
-0.639006060203704,0.22911582929646
-0.639169723693531,0.229296035898201
-0.639325167441737,0.229434365203518
-0.639472283423498,0.229530330533425
-0.639610963613991,0.229583445208939
-0.63974109998839,0.229593222551074
-0.639862584521872,0.229559175880847
-0.639975309189612,0.229480818519272
-0.640079165966787,0.229357663787365
-0.640174046828573,0.229189225006141
-0.640259843750145,0.228975015496616
-0.64033644870668,0.228714548579804
-0.640403753673353,0.228407337576722
-0.64046165062534,0.228052895808385
-0.640510031537817,0.227650736595808
-0.640548788385961,0.227200373260006
-0.640577813144946,0.226701319121995
-0.640596997789949,0.226153087502791
-0.640606234296146,0.225555191723407
-0.640605414638713,0.224907145104861
-0.640594430792826,0.224208460968168
-0.64057317473366,0.223458652634341
-0.640541538436391,0.222657233424398
-0.640499413876197,0.221803716659354
-0.640446693028251,0.220897615660223
-0.640383267867731,0.219938443748021
-0.640309030369812,0.218925714243764
-0.64022387250967,0.217858940468467
-0.640127686262482,0.216737635743146
-0.640020363603422,0.215561313388815
-0.639901796507667,0.21432948672649
-0.639771876950393,0.213041669077186
-0.639630496906776,0.21169737376192
-0.639477548351992,0.210296114101705
-0.639312923261216,0.208837403417558
-0.639136513609625,0.207320755030494
-0.638948211372394,0.205745682261528
-0.6387479085247,0.204111698431676
-0.638535497041718,0.202418316861953
-0.638310868898624,0.200665050873375
-0.638073916070594,0.198851413786956
-0.637824530532804,0.196976918923713
-0.637562604260431,0.19504107960466
-0.637288029228649,0.193043409150813
-0.637000697412635,0.190983420883187
-0.636700500787565,0.188860628122798
-0.636387331328615,0.186674544190661
-0.63606108101096,0.184424682407792
-0.635721641809777,0.182110556095205
-0.635368905700241,0.179731678573916
-0.635002764657529,0.177287563164941
-0.634623110656816,0.174777723189295
-0.634229835673278,0.172201671967993
-0.633822831682092,0.169558922822051
-0.633401990658432,0.166848989072484
-0.632967204577475,0.164071384040307
-0.632518365414398,0.161225621046537
-0.632055365144375,0.158311213412187
-0.631578095742583,0.155327674458274
-0.631086449184198,0.152274517505812
-0.630580317444395,0.149151255875818
-0.630059592498351,0.145957402889307
-0.629524166321242,0.142692471867294
-0.628973930888243,0.139355976130794
-0.62840877817453,0.135947429000823
-0.627828600155279,0.132466343798396
-0.627233288805667,0.128912233844529
-0.626622736100868,0.125284612460236
-0.62599683401606,0.121582992966534
-0.625355474526418,0.117806888684438
-0.624698549607117,0.113955812934962
-0.624025951233334,0.110029279039123
-0.623337571380245,0.106026800317936
-0.622633302023026,0.101947890092415
-0.621913035136852,0.0977920616835777
-0.6211766626969,0.0935588284124381
-0.620424076678345,0.0892477036000115
-0.619655169056363,0.0848582005673137
-0.618869831806131,0.0803898326353598
-0.618067956902823,0.0758421131251655
-0.617249436321617,0.0712145553577457
-0.616414162037688,0.0665066726541164
-0.615562026026212,0.0617179783352923
-0.614692920262365,0.0568479857222893
-0.613806736721322,0.0518962081361223
-0.612903367378261,0.0468621588978073
-0.611982704208355,0.041745351328359
-0.611044639186783,0.0365452987487933
-0.610089064288719,0.0312615144801251
-0.609115871489339,0.0258935118433704
-0.60812495276382,0.0204408041595438
-0.607116200087337,0.0149029047496614
-0.606089505435065,0.00927932693473803
-0.605044760782183,0.00356958403578954
-0.603981858103864,-0.00222681062616923
-0.602900689375285,-0.00811034373012232
-0.601801146571622,-0.014081501955055
-0.600683121668051,-0.0201407719799512
-0.599546506639747,-0.0262886404837962
-0.598391193461887,-0.0325255941455741
-0.597217074109647,-0.0388521196442699
-0.596024040558202,-0.0452687036588679
-0.594811984782729,-0.0517758328683532
-0.593580798758403,-0.0583739939517098
-0.5923303744604,-0.065063673587923
-0.591060603863896,-0.0718453584559767
-0.589771378944068,-0.0787195352348563
-0.58846259167609,-0.0856866906035457
-0.58713413403514,-0.0927473112410301
-0.585785897996392,-0.0999018838262936
-0.584417775535023,-0.107150895038322
-0.583029658626209,-0.114494831556098
-0.581621439245125,-0.121934180058607
-0.580193009366948,-0.129469427224835
-0.578744260966854,-0.137101059733765
-0.578744260966854,-0.137101059733765
-0.577264438363951,-0.144751262980442
-0.575743047460712,-0.152342043541855
-0.574180372607358,-0.159873619869901
-0.57257669815411,-0.167346210416479
-0.57093230845119,-0.174760033633487
-0.569247487848819,-0.182115307972825
-0.567522520697218,-0.18941225188639
-0.565757691346609,-0.196651083826081
-0.563953284147212,-0.203832022243796
-0.562109583449249,-0.210955285591434
-0.56022687360294,-0.218021092320894
-0.558305438958509,-0.225029660884074
-0.556345563866175,-0.231981209732872
-0.554347532676159,-0.238875957319187
-0.552311629738684,-0.245714122094917
-0.55023813940397,-0.252495922511961
-0.548127346022239,-0.259221577022218
-0.545979533943711,-0.265891304077585
-0.543794987518609,-0.272505322129962
-0.541573991097152,-0.279063849631247
-0.539316829029564,-0.285567105033338
-0.537023785666064,-0.292015306788133
-0.534695145356874,-0.298408673347533
-0.532331192452215,-0.304747423163433
-0.529932211302309,-0.311031774687735
-0.527498486257376,-0.317261946372335
-0.525030301667638,-0.323438156669132
-0.522527941883317,-0.329560624030025
-0.519991691254633,-0.335629566906912
-0.517421834131808,-0.341645203751692
-0.514818654865063,-0.347607753016264
-0.512182437804618,-0.353517433152525
-0.509513467300697,-0.359374462612374
-0.506812027703519,-0.36517905984771
-0.504078403363305,-0.370931443310431
-0.501312878630279,-0.376631831452436
-0.498515737854659,-0.382280442725623
-0.495687265386668,-0.387877495581891
-0.492827745576527,-0.393423208473138
-0.489937462774457,-0.398917799851262
-0.48701670133068,-0.404361488168163
-0.484065745595415,-0.409754491875738
-0.481084879918886,-0.415097029425887
-0.478074388651313,-0.420389319270507
-0.475034556142918,-0.425631579861497
-0.47196566674392,-0.430824029650756
-0.468868004804543,-0.435966887090181
-0.465741854675007,-0.441060370631673
-0.462587500705533,-0.446104698727129
-0.459405227246342,-0.451100089828447
-0.456195318647657,-0.456046762387526
-0.452958059259697,-0.460944934856264
-0.449693733432685,-0.465794825686561
-0.446402625516841,-0.470596653330314
-0.443085019862387,-0.475350636239422
-0.439741200819544,-0.480056992865784
-0.436371452738533,-0.484715941661298
-0.432976059969575,-0.489327701077862
-0.429555306862893,-0.493892489567375
-0.426109477768706,-0.498410525581736
-0.422638857037237,-0.502882027572843
-0.419143729018705,-0.507307213992594
-0.415624378063334,-0.511686303292888
-0.412081088521344,-0.516019513925623
-0.408514144742956,-0.520307064342699
-0.404923831078391,-0.524549172996012
-0.40131043187787,-0.528746058337463
-0.397674231491616,-0.532897938818949
-0.394015514269849,-0.537005032892369
-0.39033456456279,-0.541067559009621
-0.386631666720661,-0.545085735622604
-0.382907105093683,-0.549059781183217
-0.379161164032077,-0.552989914143357
-0.375394127886064,-0.556876352954924
-0.371606281005866,-0.560719316069815
-0.367797907741704,-0.56451902193993
-0.363969292443798,-0.568275689017167
-0.360120719462371,-0.571989535753424
-0.356252473147644,-0.5756607806006
-0.352364837849837,-0.579289642010593
-0.348458097919173,-0.582876338435302
-0.344532537705872,-0.586421088326624
-0.340588441560155,-0.58992411013646
-0.336626093832244,-0.593385622316707
-0.332645778872361,-0.596805843319264
-0.328647781030725,-0.600184991596029
-0.324632384657559,-0.603523285598901
-0.320599874103083,-0.606820943779777
-0.31655053371752,-0.610078184590558
-0.31248464785109,-0.613295226483141
-0.308402500854014,-0.616472287909424
-0.304304377076514,-0.619609587321307
-0.300190560868811,-0.622707343170687
-0.296061336581127,-0.625765773909463
-0.291916988563681,-0.628785097989534
-0.287757801166697,-0.631765533862799
-0.283584058740394,-0.634707299981154
-0.279396045634994,-0.6376106147965
-0.275194046200719,-0.640475696760735
-0.27097834478779,-0.643302764325756
-0.266749225746427,-0.646092035943464
-0.262506973426853,-0.648843730065755
-0.258251872179288,-0.651558065144528
-0.253984206353954,-0.654235259631683
-0.249704260301071,-0.656875531979118
-0.245412318370861,-0.65947910063873
-0.241108664913546,-0.662046184062419
-0.236793584279347,-0.664577000702083
-0.232467360818484,-0.66707176900962
-0.22813027888118,-0.66953070743693
-0.223782622817654,-0.67195403443591
-0.21942467697813,-0.674341968458459
-0.215056725712827,-0.676694727956475
-0.210679053371967,-0.679012531381857
-0.206291944305771,-0.681295597186504
-0.201895682864461,-0.683544143822314
-0.197490553398258,-0.685758389741185
-0.193076840257383,-0.687938553395016
-0.188654827792057,-0.690084853235705
-0.184224800352502,-0.692197507715152
-0.179787042288938,-0.694276735285253
-0.175341837951587,-0.696322754397909
-0.170889471690671,-0.698335783505017
-0.16643022785641,-0.700316041058476
-0.161964390799025,-0.702263745510184
-0.157492244868739,-0.70417911531204
-0.153014074415772,-0.706062368915942
-0.148530163790345,-0.70791372477379
-0.14404079734268,-0.70973340133748
-0.139546259422998,-0.711521617058912
-0.13504683438152,-0.713278590389985
-0.130542806568467,-0.715004539782597
-0.126034460334061,-0.716699683688645
-0.121522080028523,-0.71836424056003
-0.117005950002074,-0.719998428848648
-0.112486354604936,-0.7216024670064
-0.107963578187329,-0.723176573485183
-0.103437905099475,-0.724720966736895
-0.0989096196915952,-0.726235865213436
-0.0943790063139107,-0.727721487366703
-0.0898463493166428,-0.729178051648596
-0.0853119330500126,-0.730605776511012
-0.0807760418642415,-0.73200488040585
-0.0762389601095508,-0.733375581785009
-0.0717009721361617,-0.734718099100388
-0.0671623622942952,-0.736032650803883
-0.0626234149341728,-0.737319455347395
-0.0580844144060158,-0.738578731182822
-0.0535456450600454,-0.739810696762062
-0.0490073912464826,-0.741015570537014
-0.0444699373155488,-0.742193570959575
-0.0399335676174653,-0.743344916481645
-0.0353985665024534,-0.744469825555123
-0.030865218320734,-0.745568516631905
-0.0263338074225288,-0.746641208163892
-0.0218046181580588,-0.747688118602982
-0.0172779348775453,-0.748709466401072
-0.0127540419312093,-0.749705470010062
-0.00823322366927232,-0.75067634788185
-0.00371576444195568,-0.751622318468335
0.000798051400519556,-0.752543600221414
0.00530793950793224,-0.753440411592987
0.00981361553006099,-0.754312971034952
0.0143147951166845,-0.755161496999208
0.0188111939175816,-0.755986207937653
0.0233025275825311,-0.756787322302185
0.0277885117613117,-0.757565058544702
0.0322688621037022,-0.758319635117105
0.0367432942594812,-0.75905127047129
0.0412115238784277,-0.759760183059157
0.0456732666103204,-0.760446591332604
0.0501282381049378,-0.761110713743529
0.0545761540120589,-0.761752768743831
0.0590167299814626,-0.762372974785408
0.0634496816629274,-0.762971550320159
0.067874724706232,-0.763548713799983
0.0722915747611554,-0.764104683676778
0.0766999474774762,-0.764639678402442
0.0810995585049733,-0.765153916428873
0.0854901234934252,-0.765647616207971
0.0898713580926109,-0.766120996191634
0.0942429779523091,-0.76657427483176
0.0986046987222986,-0.767007670580248
0.102956236052358,-0.767421401888997
0.107297305592266,-0.767815687209904
0.111627622991802,-0.768190744994868
0.115946903900744,-0.768546793695788
0.120254863968871,-0.768884051764562
0.124551218845961,-0.76920273765309
0.128835684181795,-0.769503069813268
0.133107975626149,-0.769785266696996
0.137367808828804,-0.770049546756172
0.141614899439537,-0.770296128442695
0.145848963108128,-0.770525230208463
0.150069715484356,-0.770737070505375
0.154276872217998,-0.770931867785329
0.158470148958834,-0.771109840500224
0.162649261356643,-0.771271207101958
0.166813925061203,-0.771416186042429
0.170963855722294,-0.771544995773537
0.175098768989693,-0.77165785474718
0.17921838051318,-0.771754981415255
0.183322405942533,-0.771836594229662
0.187410560927531,-0.771902911642299
0.191482561117954,-0.771954152105065
0.195538122163579,-0.771990534069858
0.199576959714185,-0.772012275988576
0.203598789419552,-0.772019596313119
0.207603326929457,-0.772012713495384
0.21159028789368,-0.77199184598727
0.215559387962,-0.771957212240676
0.219510342784195,-0.771909030707499
0.223442868010043,-0.77184751983964
0.227356679289325,-0.771772898088995
0.231251492271818,-0.771685383907464
0.235127022607301,-0.771585195746944
0.238982985945554,-0.771472552059336
0.242819097936353,-0.771347671296536
0.24663507422948,-0.771210771910443
0.250430630474712,-0.771062072352957
0.254205482321827,-0.770901791075975
0.257959345420606,-0.770730146531396
0.261691935420826,-0.770547357171118
0.265402967972266,-0.77035364144704
0.269092158724706,-0.770149217811061
0.272759223327923,-0.769934304715079
0.276403877431697,-0.769709120610992
0.280025836685806,-0.769473883950699
0.28362481674003,-0.769228813186098
0.287200533244146,-0.768974126769088
0.290752701847934,-0.768710043151568
0.294281038201172,-0.768436780785435
0.297785257953639,-0.768154558122589
0.301265076755114,-0.767863593614927
0.304720210255376,-0.767564105714349
0.308150374104203,-0.767256312872752
0.311555283951374,-0.766940433542036
0.314934655446668,-0.766616686174099
0.318288204239864,-0.766285289220839
0.32161564598074,-0.765946461134155
0.324916696319076,-0.765600420365944
0.328191070904649,-0.765247385368107
0.331438485387239,-0.764887574592541
0.334658655416625,-0.764521206491145
0.337851296642585,-0.764148499515817
0.341016124714897,-0.763769672118455
0.344152855283342,-0.763384942750959
0.347261203997697,-0.762994529865227
0.350340886507741,-0.762598651913156
0.353391618463253,-0.762197527346647
0.356413115514012,-0.761791374617596
0.359405093309797,-0.761380412177903
0.362367267500386,-0.760964858479466
0.365299353735557,-0.760544931974185
0.368201067665091,-0.760120851113956
0.371072124938765,-0.759692834350678
0.373912241206358,-0.759261100136251
0.37672113211765,-0.758825866922572
0.379498513322418,-0.758387353161541
0.382244100470442,-0.757945777305055
0.3849576092115,-0.757501357805013
0.387638755195371,-0.757054313113314
0.390287254071835,-0.756604861681855
0.392902821490668,-0.756153221962537
0.395485173101652,-0.755699612407256
0.398034024554563,-0.755244251467912
0.400549091499181,-0.754787357596402
0.403030089585285,-0.754329149244627
0.405476734462653,-0.753869844864483
0.407888741781064,-0.75340966290787
0.410265827190298,-0.752948821826686
0.412607706340131,-0.752487540072829
0.414914094880345,-0.752026036098198
0.417184708460716,-0.751564528354692
0.419419262731025,-0.751103235294208
0.421617473341049,-0.750642375368646
0.423779055940568,-0.750182167029904
0.425903726179359,-0.74972282872988
0.427991199707203,-0.749264578920474
0.430041192173878,-0.748807636053582
0.432053419229162,-0.748352218581105
0.434027596522834,-0.74789854495494
0.435963439704673,-0.747446833626985
0.437860664424459,-0.74699730304914
0.439718986331968,-0.746550171673303
0.441538121076981,-0.746105657951373
0.443317784309276,-0.745663980335247
0.445057691678632,-0.745225357276824
0.446757558834827,-0.744790007228003
0.448417101427641,-0.744358148640683
0.450036035106851,-0.743929999966761
0.451614075522238,-0.743505779658136
0.453150938323579,-0.743085706166708
0.454646339160653,-0.742669997944373
0.45609999368324,-0.742258873443031
0.457511617541117,-0.741852551114581
0.458880926384064,-0.74145124941092
0.460207635861859,-0.741055186783947
0.461491461624281,-0.740664581685562
0.46273211932111,-0.740279652567661
0.463929324602123,-0.739900617882144
0.465082793117099,-0.739527696080909
0.466192240515818,-0.739161105615855
0.467257382448057,-0.73880106493888
0.468277934563596,-0.738447792501883
0.469253612512214,-0.738101506756762
0.470184131943689,-0.737762426155415
0.471069208507799,-0.737430769149742
0.471908557854325,-0.73710675419164
0.472701895633044,-0.736790599733009
0.473448937493735,-0.736482524225745
0.474149399086177,-0.73618274612175
0.474802996060149,-0.735891483872919
0.475409444065429,-0.735608955931153
0.475968458751797,-0.735335380748349
0.47647975576903,-0.735070976776406
0.476943050766908,-0.734815962467223
0.47735805939521,-0.734570556272698
0.477724497303714,-0.734334976644729
0.4780420801422,-0.734109442035216
0.478310523560445,-0.733894170896055
0.478529543208228,-0.733689381679147
0.478698854735329,-0.73349529283639
0.478818173791526,-0.733312122819681
0.478887216026598,-0.73314009008092
0.478905697090323,-0.732979413072005
0.478873332632481,-0.732830310244834
0.47878983830285,-0.732693000051306
0.478654929751208,-0.73256770094332
0.478468322627336,-0.732454631372773
0.47822973258101,-0.732354009791565
0.477938875262011,-0.732266054651594
0.477595466320117,-0.732190984404758
0.477199221405106,-0.732129017502956
0.476749856166758,-0.732080372398086
0.476247086254851,-0.732045267542047
0.475690627319163,-0.732023921386738
0.475080195009475,-0.732016552384056
0.474415504975564,-0.732023378985901
0.473696272867209,-0.732044619644171
0.472922214334189,-0.732080492810763
0.472093045026283,-0.732131216937578
0.471208480593269,-0.732197010476513
0.470268236684927,-0.732278091879467
0.469272028951034,-0.732374679598338
0.46821957304137,-0.732486992085025
0.467110584605714,-0.732615247791426
0.465944779293844,-0.73275966516944
0.464721872755539,-0.732920462670965
0.463441580640578,-0.7330978587479
0.462103618598739,-0.733292071852143
0.460707702279802,-0.733503320435592
0.459253547333544,-0.733731822950147
0.457740869409746,-0.733977797847706
0.456169384158185,-0.734241463580167
0.45453880722864,-0.734523038599428
0.45284885427089,-0.734822741357389
0.451099240934714,-0.735140790305947
0.449289682869891,-0.735477403897001
0.447419895726199,-0.73583280058245
0.445489595153418,-0.736207198814192
0.443498496801325,-0.736600817044126
0.4414463163197,-0.73701387372415
0.439332769358321,-0.737446587306163
0.437157571566967,-0.737899176242062
0.434920438595417,-0.738371858983747
0.43262108609345,-0.738864853983116
0.430259229710844,-0.739378379692068
0.427834585097379,-0.739912654562501
0.425346867902832,-0.740467897046313
0.422795793776983,-0.741044325595404
0.42018107836961,-0.741642158661671
0.417502437330493,-0.742261614697012
0.41475958630941,-0.742902912153328
0.411952240956139,-0.743566269482515
0.40908011692046,-0.744251905136473
0.406142929852151,-0.7449600375671
0.403140395400991,-0.745690885226294
0.400072229216758,-0.746444666565954
0.396938146949233,-0.747221600037979
0.393737864248192,-0.748021904094267
0.390471096763416,-0.748845797186716
0.387137560144682,-0.749693497767225
0.38373697004177,-0.750565224287692
0.380269042104458,-0.751461195200016
0.376733491982525,-0.752381628956096
0.37313003532575,-0.75332674400783
0.369458387783912,-0.754296758807115
0.365718265006789,-0.755291891805852
0.36190938264416,-0.756312361455938
0.358031456345804,-0.757358386209272
0.354084201761499,-0.758430184517752
0.350067334541025,-0.759527974833278
0.34598057033416,-0.760651975607746
0.341823624790682,-0.761802405293056
0.337596213560372,-0.762979482341107
0.333298052293007,-0.764183425203796
0.328928856638366,-0.765414452333023
0.324488342246227,-0.766672782180685
0.324488342246227,-0.766672782180685
0.320026357269945,-0.767911459227164
0.315592948178081,-0.769083645305085
0.311188128093227,-0.770189734894711
0.306811910137976,-0.771230122476307
0.30246430743492,-0.772205202530136
0.29814533310665,-0.773115369536462
0.293855000275759,-0.77396101797555
0.289593322064839,-0.774742542327664
0.285360311596483,-0.775460337073067
0.281155981993282,-0.776114796692023
0.276980346377828,-0.776706315664797
0.272833417872714,-0.777235288471652
0.268715209600533,-0.777702109592852
0.264625734683875,-0.778107173508662
0.260565006245333,-0.778450874699345
0.2565330374075,-0.778733607645165
0.252529841292968,-0.778955766826387
0.248555431024328,-0.779117746723273
0.244609819724173,-0.779219941816089
0.240693020515095,-0.779262746585098
0.236805046519686,-0.779246555510565
0.232945910860539,-0.779171763072752
0.229115626660245,-0.779038763751925
0.225314207041396,-0.778847952028347
0.221541665126586,-0.778599722382282
0.217798014038406,-0.778294469293994
0.214083266899447,-0.777932587243747
0.210397436832304,-0.777514470711805
0.206740536959566,-0.777040514178433
0.203112580403827,-0.776511112123893
0.199513580287679,-0.77592665902845
0.195943549733714,-0.775287549372368
0.192402501864524,-0.774594177635911
0.188890449802702,-0.773846938299343
0.185407406670838,-0.773046225842928
0.181953385591527,-0.77219243474693
0.178528399687359,-0.771285959491614
0.175132462080927,-0.770327194557241
0.171765585894823,-0.769316534424078
0.16842778425164,-0.768254373572387
0.165119070273969,-0.767141106482434
0.161839457084402,-0.765977127634481
0.158588957805532,-0.764762831508793
0.155367585559951,-0.763498612585633
0.152175353470251,-0.762184865345267
0.149012274659025,-0.760821984267957
0.145878362248863,-0.759410363833968
0.142773629362359,-0.757950398523563
0.139698089122105,-0.756442482817008
0.136651754650693,-0.754887011194564
0.133634639070715,-0.753284378136498
0.130646755504763,-0.751634978123072
0.127688117075429,-0.749939205634551
0.124758736905305,-0.748197455151198
0.121858628116985,-0.746410121153278
0.118987803833059,-0.744577598121055
0.11614627717612,-0.742700280534792
0.11333406126876,-0.740778562874753
0.110551169233572,-0.738812839621203
0.107797614193147,-0.736803505254406
0.105073409270078,-0.734750954254625
0.102378567586956,-0.732655581102124
0.0997131022663745,-0.730517780277168
0.097077026430925,-0.72833794626002
0.0944703532031997,-0.726116473530945
0.0918930957057909,-0.723853756570206
0.0893452670612905,-0.721550189858067
0.086826880392291,-0.719206167874793
0.0843379488213844,-0.716822085100647
0.0818784854711628,-0.714398336015893
0.0794485034642184,-0.711935315100796
0.0770480159231435,-0.709433416835619
0.07467703597053,-0.706893035700626
0.0723355767289703,-0.704314566176081
0.0700236513210565,-0.701698402742248
0.0677412728693806,-0.699044939879392
0.065488454496535,-0.696354572067776
0.0632652093251116,-0.693627693787664
0.0610715504777028,-0.69086469951932
0.0589074910769007,-0.688065983743009
0.0567730442452974,-0.685231940938993
0.0546682231054851,-0.682362965587537
0.0525930407800558,-0.679459452168906
0.050547510391602,-0.676521795163362
0.0485316450627156,-0.673550389051171
0.0465454579159888,-0.670545628312595
0.0445889620740139,-0.6675079074279
0.0426621706593828,-0.664437620877348
0.040765096794688,-0.661335163141205
0.0388977536025213,-0.658200928699733
0.037060154205475,-0.655035312033198
0.0352523117261414,-0.651838707621862
0.0334742392871126,-0.64861150994599
0.0317259500109806,-0.645354113485846
0.0300074570203377,-0.642066912721694
0.0283187734377761,-0.638750302133797
0.0266599123858879,-0.635404676202421
0.0250308869872652,-0.632030429407828
0.0234317103645002,-0.628627956230283
0.0218623956401851,-0.62519765115005
0.0203229559369121,-0.621739908647392
0.0188134043772732,-0.618255123202574
0.0173337540838607,-0.61474368929586
0.0158840181792667,-0.611206001407514
0.0144642097860834,-0.607642454017799
0.013074342026903,-0.60405344160698
0.0117144280243175,-0.60043935865532
0.0103844809009192,-0.596800599643084
0.00908451377930025,-0.593137559050536
0.00781453978205275,-0.589450631357939
0.00657457203176889,-0.585740211045558
0.00536462365104085,-0.582006692593656
0.00418470776246079,-0.578250470482498
0.00303483748862082,-0.574471939192347
0.00191502595211316,-0.570671493203468
0.000825286275529913,-0.566849526996124
-0.00023436841853668,-0.56300643505058
-0.00126392500749455,-0.559142611847099
-0.00226337036875146,-0.555258451865945
-0.00323269137971527,-0.551354349587383
-0.00417187491779387,-0.547430699491677
-0.00508090786039503,-0.543487896059089
-0.00595977708492666,-0.539526333769885
-0.00680846946879651,-0.535546407104328
-0.00762697188941251,-0.531548510542683
-0.00841527122418241,-0.527533038565213
-0.00917335435051415,-0.523500385652182
-0.0099012081458155,-0.519450946283854
-0.0105988194874943,-0.515385114940494
-0.0112661752529584,-0.511303286102365
-0.0119032623196157,-0.50720585424973
-0.0125100675648739,-0.503093213862856
-0.013086577866141,-0.498965759422004
-0.0136327801008248,-0.494823885407439
-0.014148661146333,-0.490667986299426
-0.0146342078800736,-0.486498456578227
-0.0150894071794543,-0.482315690724108
-0.0155142459218831,-0.478120083217332
-0.0159087109847678,-0.473912028538162
-0.0162727892455161,-0.469691921166864
-0.016606467581536,-0.465460155583701
-0.0169097328702353,-0.461217126268937
-0.0171825719890218,-0.456963227702835
-0.0174249718153033,-0.452698854365661
-0.0176369192264878,-0.448424400737678
-0.017818401099983,-0.444140261299149
-0.0179694043131967,-0.43984683053034
-0.0180899157435369,-0.435544502911513
-0.0181799222684113,-0.431233672922933
-0.0182394107652279,-0.426914735044864
-0.0182683681113943,-0.42258808375757
-0.0182667811843186,-0.418254113541315
-0.0182346368614084,-0.413913218876362
-0.0181719220200717,-0.409565794242976
-0.0180786235377163,-0.405212234121421
-0.0179547282917501,-0.400852932991961
-0.0178002231595807,-0.39648828533486
-0.0176150950186162,-0.39211868563038
-0.0173993307462644,-0.387744528358788
-0.017152917219933,-0.383366208000346
-0.0168758413170301,-0.37898411903532
-0.0165680899149632,-0.374598655943971
-0.0162296498911404,-0.370210213206565
-0.0158605081229693,-0.365819185303366
-0.015460651487858,-0.361425966714638
-0.0150300668632142,-0.357030951920644
-0.0145687411264458,-0.352634535401648
-0.0140766611549606,-0.348237111637915
-0.0135538138261665,-0.343839075109709
-0.0130001860174712,-0.339440820297293
-0.0124157646062826,-0.335042741680931
-0.0118005364700086,-0.330645233740888
-0.011154488486057,-0.326248690957428
-0.0104776075318357,-0.321853507810813
-0.00976988048475241,-0.317460078781309
-0.00903129422221507,-0.31306879834918
-0.00826183562163147,-0.308680060994688
-0.0074614915604095,-0.304294261198099
-0.00663024891595694,-0.299911793439677
-0.00576809456568168,-0.295533052199685
-0.00487501538699154,-0.291158431958387
-0.00395099825729433,-0.286788327196047
-0.00299603005399795,-0.282423132392929
-0.00201009765451018,-0.278063242029298
-0.000993187936238926,-0.273709050585417
5.47122234080613e-05,-0.26936095254155
0.00113361594702289,-0.265019342377961
0.00224353635719771,-0.260684614574915
0.00338448657652465,-0.256357163612675
0.004556479727596,-0.252037383971504
0.00575952893300381,-0.247725670131668
0.00699364731534025,-0.24342241657343
0.00825884799719747,-0.239128017777054
0.0095551441011677,-0.234842868222804
0.0108825487498431,-0.230567362390943
0.0122410750658157,-0.226301894761737
0.0136307361716778,-0.222046859815449
0.0150515451900215,-0.217802652032343
0.016503515243439,-0.213569665892683
0.0179866594545224,-0.209348295876733
0.0195009909458639,-0.205138936464756
0.0210465228400556,-0.200941982137018
0.0226232682596898,-0.196757827373782
0.0242312403273585,-0.192586866655311
0.025870452165654,-0.18842949446187
0.0275409168971684,-0.184286105273723
0.0292426476444938,-0.180157093571134
0.0309756575302224,-0.176042853834366
0.0327399596769465,-0.171943780543685
0.034535567207258,-0.167860268179353
0.0363624932437493,-0.163792711221635
0.0382207509090124,-0.159741504150794
0.0401103533256396,-0.155707041447095
0.0420313136162228,-0.151689717590802
0.0439836449033545,-0.147689927062179
0.0459673603096266,-0.143708064341489
0.0479824729576315,-0.139744523908997
0.0500289959699611,-0.135799700244966
0.0521069424692077,-0.131873987829661
0.0542163255779635,-0.127967781143346
0.0563571584188206,-0.124081474666284
0.0585294541143711,-0.120215462878739
0.0607332257872073,-0.116370140260976
0.0629684865599212,-0.112545901293259
0.0652352495551051,-0.108743140455851
0.067533527895351,-0.104962252229017
0.0698633347032513,-0.10120363109302
0.072224683101398,-0.0974676715281242
0.0746175862123833,-0.0937547680145939
0.0770420571587993,-0.0900653150326932
0.0794981090632383,-0.0863997070626857
0.0819857550482922,-0.0827583385848356
0.0845050082365535,-0.0791416040794068
0.0870558817506141,-0.0755498980266634
0.0896383887130663,-0.0719836149068692
0.0922525422465021,-0.0684431492002884
0.0948983554735139,-0.0649288953871847
0.0975758415166937,-0.0614412479478223
0.100285013498634,-0.0579806013624651
0.103025884541926,-0.0545473501113772
0.105798467769163,-0.0511418886748223
0.108602776302936,-0.0477646115330648
0.111438823265839,-0.0444159131663683
0.114306621780462,-0.041096188054997
0.117206184969399,-0.0378058306792147
0.12013752595524,-0.0345452355192856
0.12310065786058,-0.0313147970554735
0.126095593808009,-0.0281149097680425
0.129122346920119,-0.0249459681372564
0.132180930319504,-0.0218083666433795
0.135271357128755,-0.0187024997666755
0.138393640470464,-0.0156287619874086
0.141547793467224,-0.0125875477858425
0.144733829241626,-0.00957925164224152
0.147951760916263,-0.00660426803686934
0.151201601613727,-0.00366299144999016
0.15448336445661,-0.000755816361867737
0.157797062567504,0.00211686274723366
0.161142709069001,0.00495465139705031
0.164520317083694,0.00775715510731803
0.167929899734175,0.0105239793977731
0.171371470143036,0.0132547297881512
0.174845041432869,0.0159490117981886
0.178350626726266,0.0186064309476211
0.181888239145819,0.021226592756185
0.185457891814121,0.0238091027436161
0.189059597853764,0.0263535664296506
0.192693370387339,0.0288595893340243
0.196359222537439,0.0313267769764734
0.200057167426657,0.0337547348767337
0.203787218177584,0.0361430685545415
0.207549387912812,0.0384913835296326
0.211343689754935,0.0407992853217433
0.215170136826542,0.0430663794506092
0.219028742250228,0.0452922714359666
0.222919519148584,0.0474765667975514
0.226842480644203,0.0496188710550998
0.230797639859675,0.0517187897283476
0.234785009917595,0.053775928337031
0.238804603940553,0.0557898924008857
0.242856435051142,0.0577602874396482
0.246940516371954,0.0596867189730541
0.251056861025582,0.0615687925208397
0.255205482134616,0.0634061136027408
0.259386392821651,0.0651982877384936
0.263599606209277,0.066944920447834
0.267845135420087,0.0686456172504981
0.272122993576673,0.0702999836662217
0.276433193801628,0.0719076252147412
0.280775749217542,0.0734681474157923
0.28515067294701,0.0749811557891112
0.289557978112621,0.0764462558544338
0.29399767783697,0.0778630531314961
0.298469785242648,0.0792311531400342
0.302974313452247,0.0805501613997843
0.30751127558836,0.081819683430482
0.312080684773578,0.0830393247518636
0.316682554130493,0.084208690883665
0.321316896781699,0.0853273873456224
0.325983725849786,0.0863950196574716
0.330683054457347,0.0874111933389487
0.335414895726975,0.0883755139097898
0.340179262781262,0.0892875868897308
0.344976168742798,0.0901470177985077
0.349805626734178,0.0909534121558567
0.354667649877993,0.0917063754815136
0.359562251296835,0.0924055132952146
0.364489444113296,0.0930504311166956
0.369449241449968,0.0936407344656927
0.374441656429444,0.0941760288619418
0.379466702174316,0.094655919825179
0.384524391807176,0.0950800128751403
0.389614738450616,0.0954479135315618
0.394737755227228,0.0957592273141794
0.399893455259604,0.0960135597427292
0.405081851670337,0.0962105163369471
0.410302957582019,0.0963497026165693
0.415556786117241,0.0964307241013317
0.420843350398597,0.0964531863109703
0.426162663548678,0.0964166947652212
0.431514738690076,0.0963208549838203
0.436899588945384,0.0961652724865038
0.442317227437193,0.0959495527930075
0.447767667288096,0.0956733014230676
0.453250921620686,0.09533612389642
0.458767003557553,0.0949376257328008
0.464315926221291,0.0944774124519459
0.469897702734491,0.0939550895735915
0.475512346219746,0.0933702626174734
0.481159869799647,0.0927225371033279
0.486840286596788,0.0920115185508908
0.492553609733759,0.0912368124798981
0.498299852333155,0.090398024410086
0.504079027517565,0.0894947598611903
0.509891148409583,0.0885266243529472
0.515736228131801,0.0874932234050927
0.521614279806811,0.0863941625373626
0.527525316557204,0.0852290472694932
0.533469351505575,0.0839974831212204
0.539446397774513,0.0826990756122802
0.545456468486612,0.0813334302624086
0.551499576764464,0.0799001525913417
0.557575735730661,0.0783988481188154
0.563684958507794,0.0768291223645659
0.569827258218457,0.0751905808483291
0.576002647985241,0.073482829089841
0.582211140930739,0.0717054726088376
0.588452750177543,0.069858116925055
0.594727488848245,0.0679403675582292
0.601035370065436,0.0659518300280962
0.607376406951709,0.063892109854392
0.613750612629657,0.0617608125568527
0.620158000221872,0.0595575436552142
0.626598582850945,0.0572819086692126
0.633072373639469,0.0549335131185838
0.639579385710035,0.0525119625230641
0.646119632185238,0.0500168624023891
0.652693126187667,0.0474478182762952
0.659299880839916,0.0448044356645182
0.665939909264576,0.0420863200867943
0.67261322458424,0.0392930770628592
0.6793198399215,0.0364243121124493
0.686059768398948,0.0334796307553003
0.692833023139177,0.0304586385111485
0.699639617264778,0.0273609408997296
0.706479563898343,0.02418614344078
0.713352876162466,0.0209338516540353
0.720259567179736,0.0176036710592319
0.727199650072749,0.0141952071761056
0.734173137964094,0.0107080655243925
0.741180043976365,0.00714185162382844
0.748220381232153,0.00349617099414973
0.755294162854051,-0.0002293708449079
0.762401401964651,-0.00403516837360812
0.769542111686545,-0.00792161607221524
0.776716305142325,-0.0118891084209929
0.783923995454584,-0.0159380399002055
0.791165195745913,-0.0200688049901166
0.798439919138904,-0.0242817981709905
0.805748178756151,-0.0285774139230909
0.813089987720244,-0.0329560467266822
0.820465359153777,-0.0374180910620278
0.827874306179341,-0.0419639414093923
0.835316841919528,-0.0465939922490391
0.842792979496931,-0.0513086380612327
0.850302732034142,-0.0561082733262366
0.857846112653753,-0.0609932925243152
0.865423134478356,-0.0659640901357322
0.873033810630543,-0.0710210606407518
0.880678154232907,-0.0761645985196377
0.888356178408039,-0.0813950982526543
0.896067896278532,-0.0867129543200651
0.903813320966978,-0.0921185612021346
0.911592465595969,-0.0976123133791262
0.919405343288097,-0.103194605331304
0.927251967165954,-0.108865831538933
0.935132350352134,-0.114626386482276
0.943046505969226,-0.120476664641597
0.950994447139826,-0.12641706049716
