-0.181535000064948,0.811178875018982
-0.180652025365837,0.806698087816805
-0.179793341398562,0.802236097298332
-0.178958785170381,0.797792804521468
-0.17814819368855,0.793368110544116
-0.177361403960327,0.788961916424178
-0.17659825299297,0.784574123219556
-0.175858577793737,0.780204631988154
-0.175142215369884,0.775853343787874
-0.17444900272867,0.77152015967662
-0.173778776877351,0.767204980712294
-0.173131374823186,0.762907707952798
-0.172506633573432,0.758628242456037
-0.171904390135347,0.754366485279911
-0.171324481516187,0.750122337482325
-0.170766744723211,0.745895700121181
-0.170231016763676,0.741686474254381
-0.16971713464484,0.73749456093983
-0.16922493537396,0.733319861235428
-0.168754255958293,0.729162276199079
-0.168304933405098,0.725021706888687
-0.167876804721631,0.720898054362153
-0.167469706915151,0.71679121967738
-0.167083476992914,0.712701103892272
-0.166717951962179,0.708627608064731
-0.166372968830202,0.70457063325266
-0.166048364604242,0.700530080513961
-0.165743976291555,0.696505850906538
-0.1654596408994,0.692497845488293
-0.165195195435034,0.68850596531713
-0.164950476905714,0.684530111450949
-0.164725322318698,0.680570184947656
-0.164519568681244,0.676626086865152
-0.164333053000609,0.67269771826134
-0.16416561228405,0.668784980194122
-0.164017083538825,0.664887773721403
-0.163887303772192,0.661005999901084
-0.163776109991408,0.657139559791069
-0.163683339203731,0.653288354449259
-0.163608828416417,0.649452284933559
-0.163552414636726,0.64563125230187
-0.163513934871914,0.641825157612096
-0.163493226129238,0.638033901922139
-0.163490125415957,0.634257386289902
-0.163504469739327,0.630495511773287
-0.163536096106607,0.626748179430199
-0.163584841525054,0.623015290318539
-0.163650543001925,0.619296745496209
-0.163733037544478,0.615592446021115
-0.16383216215997,0.611902292951157
-0.163947753855659,0.608226187344238
-0.164079649638803,0.604564030258261
-0.164227686516659,0.60091572275113
-0.164391701496485,0.597281165880747
-0.164571531585537,0.593660260705015
-0.164767013791074,0.590052908281835
-0.164977985120353,0.586459009669113
-0.165204282580632,0.582878465924749
-0.165445743179168,0.579311178106647
-0.165702203923218,0.57575704727271
-0.165973501820041,0.572215974480841
-0.166259473876894,0.568687860788941
-0.166559957101033,0.565172607254915
-0.166874788499718,0.561670114936664
-0.167203805080205,0.558180284892092
-0.167546843849752,0.554703018179102
-0.167903741815616,0.551238215855595
-0.168274335985055,0.547785778979476
-0.168658463365326,0.544345608608646
-0.169055960963688,0.540917605801009
-0.169466665787397,0.537501671614467
-0.169890414843711,0.534097707106923
-0.170327045139887,0.530705613336281
-0.170776393683184,0.527325291360442
-0.171238297480858,0.523956642237309
-0.171712593540167,0.520599567024786
-0.172199118868369,0.517253966780775
-0.172697710472721,0.513919742563178
-0.17320820536048,0.5105967954299
-0.173730440538905,0.507285026438841
-0.174264253015253,0.503984336647906
-0.174809479796781,0.500694627114997
-0.175365957890746,0.497415798898017
-0.175933524304407,0.494147753054868
-0.176512016045021,0.490890390643454
-0.177101270119845,0.487643612721677
-0.177701123536137,0.484407320347439
-0.178311413301155,0.481181414578645
-0.178931976422155,0.477965796473196
-0.179562649906396,0.474760367088995
-0.180203270761135,0.471565027483946
-0.180853675993629,0.46837967871595
-0.181513702611137,0.465204221842911
-0.182183187620915,0.462038557922732
-0.182861968030221,0.458882588013315
-0.183549880846313,0.455736213172562
-0.184246763076448,0.452599334458378
-0.184952451727883,0.449471852928664
-0.185666783807877,0.446353669641324
-0.186389596323687,0.44324468565426
-0.18712072628257,0.440144802025375
-0.187860010691783,0.437053919812571
-0.188607286558585,0.433971940073753
-0.189362390890233,0.430898763866821
-0.190125160693984,0.42783429224968
-0.190895432977096,0.424778426280232
-0.191673044746827,0.421731067016379
-0.192457833010433,0.418692115516025
-0.193249634775173,0.415661472837072
-0.194048287048304,0.412639040037423
-0.194853626837083,0.409624718174981
-0.195665491148768,0.406618408307649
-0.196483716990617,0.40362001149333
-0.197308141369888,0.400629428789925
-0.198138601293836,0.397646561255338
-0.198974933769721,0.394671309947473
-0.1998169758048,0.391703575924231
-0.20066456440633,0.388743260243515
-0.201517536581568,0.385790263963229
-0.202375729337773,0.382844488141274
-0.203238979682201,0.379905833835554
-0.20498000116476,0.37404949400443
-0.205857446317405,0.371131610594831
-0.206739297087304,0.368220452933079
-0.207625390481714,0.365315922077075
-0.208515563507893,0.362417919084722
-0.209409653173099,0.359526345013924
-0.210307496484589,0.356641100922582
-0.21120893044962,0.353762087868601
-0.21211379207545,0.350889206909882
-0.213021918369337,0.348022359104329
-0.213933146338538,0.345161445509844
-0.214847312990311,0.34230636718433
-0.215764255331913,0.339457025185689
-0.216683810370601,0.336613320571825
-0.217605815113634,0.333775154400641
-0.218530106568268,0.330942427730039
-0.219456521741762,0.328115041617922
-0.220384897641372,0.325292897122192
-0.222246879647973,0.319663937211508
-0.223180159769479,0.316856923912358
-0.224114748646132,0.314054756461207
-0.225050483285189,0.311257335915958
-0.225987200693908,0.308464563334514
-0.226924737879547,0.305676339774776
-0.227862931849362,0.302892566294649
-0.228801619610612,0.300113143952035
-0.229740638170554,0.297337973804836
-0.230679824536446,0.294566956910956
-0.231619015715545,0.291799994328297
-0.232558048715108,0.289036987114762
-0.233496760542394,0.286277836328253
-0.234434988204659,0.283522443026675
-0.235372568709161,0.280770708267928
-0.236309339063158,0.278022533109917
-0.237245136273908,0.275277818610544
-0.238179797348667,0.272536465827711
-0.239113159294693,0.269798375819322
-0.240045059119245,0.267063449643279
-0.240975333829578,0.264331588357485
-0.241903820432952,0.261602693019843
-0.243754777347849,0.256153404420626
-0.244676921673887,0.253432813274857
-0.245596625921995,0.250714792308851
-0.246513727099431,0.24799924258051
-0.247428062213452,0.245286065147738
-0.248339468271315,0.242575161068437
-0.249247782280279,0.239866431400511
-0.2501528412476,0.237159777201861
-0.251054482180536,0.234455099530392
-0.252846857972284,0.229051278000603
-0.253737266845611,0.226351936258089
-0.254623605713583,0.223654175274366
-0.255505711583458,0.220957896107337
-0.256383421462493,0.218262999814904
-0.257256572357946,0.215569387454971
-0.258125001277075,0.21287696008544
-0.258988545227136,0.210185618764214
-0.259847041215388,0.207495264549195
-0.260700326249087,0.204805798498286
-0.261548237335492,0.202117121669391
-0.26239061148186,0.199429135120412
-0.263227285695449,0.196741739909252
-0.264058096983515,0.194054837093813
-0.264882882353317,0.191368327731999
-0.265701478812113,0.188682112881712
-0.266513723367158,0.185996093600855
-0.267319453025712,0.18331017094733
-0.268118504795032,0.180624245979041
-0.268910715682375,0.177938219753891
-0.27047396284016,0.172565467764616
-0.271244673125118,0.169878544116297
-0.272007890557128,0.167191123442728
-0.27276345214345,0.16450310680181
-0.27351119489134,0.161814395251448
-0.274982571900855,0.156434491654
-0.275705880176995,0.15374310172272
-0.276420717643734,0.151050621113606
-0.277126921308329,0.148356950884561
-0.277824328178037,0.145661992093488
-0.278512775260116,0.142965645798289
-0.279192099561824,0.140267813056868
-0.279862138090417,0.137568394927127
-0.280522727853155,0.134867292466968
-0.281173705857294,0.132164406734296
-0.281814909110091,0.129459638787012
-0.283067339390691,0.12404406048022
-0.284278714753017,0.118619766009817
-0.28486859935797,0.115904102858017
-0.285447731255127,0.113185963839023
-0.286015947451746,0.110465250010737
-0.286573084955083,0.107741862431061
-0.287653471910945,0.102286670249154
-0.288176395377984,0.0995546677627273
-0.288687588180773,0.0968195957565229
-0.289186887326567,0.0940813552884434
-0.289674129822626,0.0913398474163913
-0.290149152676206,0.0885949731982697
-0.291499273454652,0.0803391630465145
-0.292335267560944,0.0748166439432139
-0.292733549712062,0.0720494938646329
-0.293118471271504,0.0692782848453016
-0.293489869246528,0.0665029179431231
-0.293847580644391,0.0637232942159999
-0.29419144247235,0.060939314721835
-0.294521291737664,0.0581508805185311
-0.295138300609386,0.0525602522161175
-0.295425134230308,0.0497578602328134
-0.295954644878563,0.0441384258915244
-0.296196995920412,0.0413211856493451
-0.296424193450417,0.0384987981033465
-0.296636074475837,0.035671164311431
-0.296832476003928,0.0328381853315017
-0.29701323504195,0.0299997622214613
-0.297178188597159,0.0271557960392126
-0.297327173676812,0.0243061878426584
-0.297460027288167,0.0214508386897015
-0.297576586438482,0.0185896496382445
-0.297826867195761,0.00997005367190196
-0.29787661857449,0.00708451560547312
-0.297924630064948,0.00129433670356027
-0.297922564191192,-0.00161050201611815
-0.297902899914456,-0.00452197217107431
-0.297865474241997,-0.00744017270340518
-0.297810124181073,-0.0103652025552083
-0.297644998922861,-0.0162361459856193
-0.297534897740087,-0.0191822574484217
-0.297406220197878,-0.0221355939990852
-0.297258803303492,-0.0250962545797066
-0.297092484064186,-0.0280643381323835
-0.296907099487218,-0.0310399435992128
-0.296702486579844,-0.034023169922292
-0.296478482349324,-0.0370141160437181
-0.295971647947871,-0.04301956345
-0.295688491791454,-0.0460342626190503
-0.29538529234092,-0.0490570773548363
-0.29471811158653,-0.0551274492950048
-0.294353804297189,-0.0581752043835815
-0.293562940930503,-0.0642963475082063
-0.293136058867674,-0.0673699334284487
-0.29268799256153,-0.0704523275101074
-0.263737310592998,-0.044461394726634
-0.287589977945289,-0.0286737931930393
-0.291215058255786,-0.0797533481445532
-0.290680625048959,-0.0828719642928492
-0.322102807998901,-0.0577371449492954
-0.324785371178692,-0.0826405034453303
-0.288944678215348,-0.09228402573754
-0.288321270223959,-0.0954404470260287
-0.331707753443678,-0.0956495644855925
-0.286314487210841,-0.104968298501631
-0.26155472598896,-0.14008238147584
-0.239913387330393,-0.130579327860668
-0.32086091857862,-0.0990084549585282
-0.259257573507467,-0.167356575079436
-0.312677930222764,-0.122970310020247
-0.293542990351753,-0.145790231070633
-0.277541426007695,-0.0957979703945877
-0.277141022957025,-0.140693720949676
-0.27515534708929,-0.147329483347553
-0.283378168934357,-0.115617309497259
-0.309269171711539,-0.122360644274714
-0.308413179411071,-0.135594216445563
-0.249159884502996,-0.152980579976632
-0.267401263984133,-0.170915220186393
-0.266189241723898,-0.174331716860701
-0.297120348476963,-0.131913440127086
-0.251662213658985,-0.189584891279682
-0.262393144949328,-0.184654042155758
-0.298557998563026,-0.160737665472397
-0.22862168883401,-0.186323100441455
-0.256952194201827,-0.198590785355778
-0.26160645388704,-0.160758876623831
-0.270519280845922,-0.173757735981771
-0.247956389635321,-0.219880854356894
-0.217566303798995,-0.220405435663441
-0.244730071426659,-0.227083364624667
-0.267225113908798,-0.23539031788485
-0.283496397877803,-0.220506376235395
-0.283159160247349,-0.19222229233341
-0.275971271877495,-0.210069491609063
-0.222680715992115,-0.295804112301218
-0.232515651886335,-0.252724402557572
-0.217806618383997,-0.242732362435589
-0.273937524322988,-0.30254827233591
-0.232719620341025,-0.312545251343093
-0.2248762948466,-0.267687746996164
-0.253191631949409,-0.28513692348894
-0.232553073142625,-0.316974773282134
-0.216744124764937,-0.282885423357184
-0.186434846087083,-0.276516121829746
-0.162054132173204,-0.266158918994401
-0.208108710105829,-0.298323763934853
-0.205870002030258,-0.302221694928851
-0.203599026204883,-0.306135162146876
-0.201295619636964,-0.310064264531025
-0.198959619333757,-0.314009101023394
-0.189286420913202,-0.329947766917028
-0.18678500704242,-0.333972758081962
-0.184250021479895,-0.338014077007699
-0.181681301232885,-0.342071822636339
-0.179078683308647,-0.346146093909977
-0.176442004714439,-0.350236989770711
-0.173771102457519,-0.354344609160638
-0.171065813545145,-0.358469051021856
-0.168325974984572,-0.362610414296461
-0.16555142378306,-0.366768797926551
-0.162741996947866,-0.370944300854224
-0.15701786440546,-0.379347060370703
-0.154102832712764,-0.383574514843705
-0.151152273415416,-0.387819484382678
-0.148166023520673,-0.392082067929718
-0.145143920035793,-0.396362364426924
-0.135860858112905,-0.409310521040507
-0.132693710340051,-0.413662658759346
-0.129489894013348,-0.418033004138837
-0.126249246140053,-0.422421656121076
-0.122971603727423,-0.426828713648162
-0.119656803782717,-0.43125427566219
-0.112915079326103,-0.440161308919465
-0.109487828828711,-0.444642978046905
-0.102519736332044,-0.453663116009879
-0.0989785683472835,-0.458201782729607
-0.0953991018812492,-0.462759646530958
-0.0844292816680757,-0.476549409845725
-0.0806949913495196,-0.481185051394543
-0.0769215875859767,-0.48584038473547
-0.0692567877529613,-0.495210522562041
-0.0653650656980039,-0.49992552493188
-0.0614335782270897,-0.504660614862218
-0.0534506550664221,-0.514191453172776
-0.0493988933911837,-0.518987399437192
-0.0453067143290187,-0.523803829030495
-0.0453067143290187,-0.523803829030495
-0.0412216138110666,-0.528600608160836
-0.0371909886271397,-0.533337643194486
-0.0292919174424301,-0.542633117688844
-0.0254228480321817,-0.547191875508116
-0.0216070071370271,-0.551691525947826
-0.0104757384947978,-0.564837424782402
-0.00686969461269001,-0.569102237496683
0.000187694881969618,-0.577457087655069
0.00363966390398715,-0.581547443457739
0.0103917090210619,-0.58955481240644
0.0169433082670751,-0.597332119008171
0.0232969552798896,-0.604880636697187
0.0264003259606795,-0.608569497647632
0.0294551436973682,-0.612201638907744
0.0354203671573735,-0.619296399074098
0.0411951192977683,-0.626166190630503
0.0467818937564154,-0.632812287011217
0.0495055686169157,-0.636051847458894
0.0548150521239339,-0.642364788765298
0.0574014841799175,-0.645438487982589
0.0624392874204979,-0.651421139441759
0.0648912820145605,-0.654330410042202
0.0672990875307817,-0.657185189462259
0.0696630156738944,-0.659985636881214
0.0742604866597257,-0.665424172432939
0.07649465291191,-0.668062578924274
0.0786861886099172,-0.670647290131633
0.0829426151623316,-0.675656263411553
0.0850081294262045,-0.678080843842677
0.0890153184529459,-0.682770988183663
0.0909576166252802,-0.685036870452089
0.0928594661765672,-0.687250171691513
0.0947211788115398,-0.689411051081217
0.096543066234931,-0.691519667800483
0.0983254401514734,-0.693576181028593
0.103438597907337,-0.699434691558805
0.106655516797105,-0.703082766076667
0.108207355471945,-0.704830001122761
0.111199349805202,-0.708171662685683
0.112640128873084,-0.709766407561075
0.114044511481447,-0.711310640738131
0.115412809335021,-0.712804521396131
0.120531387296103,-0.718279702423227
0.121723936946734,-0.719524208175184
0.122882272070974,-0.720719316483777
0.124006704373557,-0.72186518652829
0.125097545559215,-0.722961977488004
0.129131233227257,-0.726861534064507
0.130058794399285,-0.727715317289455
0.130954634682785,-0.728520976505296
0.13181906578249,-0.729278670891311
0.132652399403133,-0.729988559626783
0.133454947249447,-0.730650801890993
0.13496893243802,-0.731832983722757
0.135680993189744,-0.732353241648874
0.136363514986071,-0.732826489820858
0.137016809531733,-0.73325288741799
0.137641188531462,-0.733632593619553
0.138236963689993,-0.733965767604828
0.138804446712057,-0.734252568553096
0.139343949302388,-0.734493155643641
0.139855783165718,-0.734687688055744
0.140340260006781,-0.734836324968688
0.14299178446828,-0.734605080442495
0.143268626501583,-0.734392283816309
0.143520916855214,-0.7341350243045
0.14395308934239,-0.733487753341143
0.144290795567672,-0.732664540986681
0.144425003093934,-0.732187354735989
0.144536529168922,-0.731666660675368
0.144692783784003,-0.73049538584146
0.144738135733562,-0.729845123426737
0.144762053050777,-0.729151989919213
0.144764847440382,-0.728416144498167
0.144746830607109,-0.727637746342882
0.144472885139891,-0.724101809964993
0.144355487763221,-0.723113035827743
0.144219149392069,-0.722082664031945
0.144064181731169,-0.721010853756883
0.143890896485253,-0.719897764181837
0.143699605359056,-0.71874355448609
0.143490620057308,-0.717548383848923
0.143264252284744,-0.716312411449619
0.143020813746096,-0.715035796467459
0.142760616146097,-0.713718698081726
0.14248397118948,-0.712361275471702
0.141882586025322,-0.709526094295906
0.141558469227247,-0.708048654088698
0.141219151891486,-0.706531526374327
0.14086494572277,-0.704974870332073
0.140113113705408,-0.701743609981049
0.139716111266228,-0.700069324030842
0.137994798416608,-0.692984855915295
0.136572573264369,-0.687269271318072
0.136075162445528,-0.685288309501728
0.13397715245589,-0.676989872264187
0.132867491298768,-0.672618128172066
0.132298587646197,-0.670377181885155
0.131720717550596,-0.668099731676719
0.131134192716698,-0.66578593672604
0.130539324849235,-0.6634359562124
0.129936425652941,-0.661049949315081
0.129325806832548,-0.658628075213366
0.12870778009279,-0.656170493086536
0.128082657138399,-0.653677362113873
0.127450749674107,-0.651148841474658
0.126812369404649,-0.648585090348175
0.125517437269162,-0.643352533350529
0.124861508812599,-0.64068404583793
0.1242003543698,-0.63798096455519
0.123534285645498,-0.635243448681591
0.122188652171317,-0.629665749878942
0.121509710830903,-0.626825885308457
0.119452128853163,-0.61810414107174
0.11876038789086,-0.615130040082021
0.118066226284917,-0.612122777935698
0.117369955740066,-0.609082513812053
0.115972334652574,-0.602903616349926
0.114570018266246,-0.596594621129896
0.113867878597851,-0.593391734808872
0.113165500218945,-0.590156801586218
0.112463194834263,-0.586889980641217
0.111761274148535,-0.583591431153148
0.111060049866496,-0.580261312301296
0.110359833692877,-0.576899783264942
0.109660937332413,-0.573507003223368
0.108268350869877,-0.566628326841686
0.107575284177272,-0.563142748860143
0.106197162393049,-0.556079909212061
0.105512730710898,-0.552502965904087
0.10415468429018,-0.54525882821668
0.102149332589055,-0.534169381696155
0.100189523317464,-0.5228158674911
0.0995478287222489,-0.518973423885057
0.0989124412159137,-0.515102276142306
0.0952500205094086,-0.491281516854697
0.0940938009328311,-0.483118846792604
0.0929740310821535,-0.474847090637826
0.0924285940658594,-0.470670703223885
0.0913681743750244,-0.462237705619309
0.0903504385047463,-0.453698805507686
0.0893778800928879,-0.445055276323272
0.0889093216956981,-0.440694673776974
0.0884529927773118,-0.436308391500324
0.0859892937869052,-0.409460337542824
0.0856272989526626,-0.404898754173606
0.0852800272350861,-0.400312764508292
0.0843296678296823,-0.386409949528591
0.084044405626099,-0.381727926471712
0.0837754250628461,-0.377022293015146
0.0835230378446565,-0.372293208338176
0.083287555676263,-0.367540831620083
0.0830692902623984,-0.362765322040149
0.0828685533077956,-0.357966838777658
0.0825209115953068,-0.348301587922126
0.0823746302468864,-0.34343513868765
0.0822471241766591,-0.338546352487743
0.0821387050893579,-0.333635388501688
0.0819310867723388,-0.318771021619448
0.0818938240623915,-0.308753473054046
0.0819958883442256,-0.293568377825721
0.0820732788162364,-0.288464976832013
0.0821728733185017,-0.283340989844977
0.0822949835557542,-0.278196576043894
0.0824399212327269,-0.273031894608045
0.0826079980541525,-0.267847104716713
0.0832541804324757,-0.252173676102635
0.0835179308790417,-0.246910044182188
0.0838063789937249,-0.241627099702668
0.0841198364812581,-0.236325001843356
0.0844586150463742,-0.231003909783535
0.084823026393806,-0.225663982702485
0.0852133822282865,-0.220305379779491
0.0860731741773244,-0.209532783124791
0.0865432337013476,-0.20411910775165
0.0870404845313507,-0.198687393253691
0.0886985019045683,-0.182285606803726
0.0893076350058196,-0.176783327599314
0.0906124624019877,-0.165727198684549
0.0913087801063702,-0.160173667332758
0.0927907820513959,-0.149016466736773
0.093577089701505,-0.143413115851141
0.0961209798190109,-0.126505970995075
0.0970316379296819,-0.12083842257427
0.0979741629173256,-0.115155222717875
0.0989488664866747,-0.109456530605174
0.0999560603424621,-0.103742505415447
0.100996056189421,-0.0980133063279787
0.102069165732283,-0.0922690925220487
0.103175700675783,-0.0865100231769401
0.104315972724652,-0.0807362574719342
0.10669897495743,-0.0691452736993597
0.107942328550805,-0.0633283739903548
0.110534299215191,-0.0516525548233194
0.111883539695668,-0.0457939537238527
0.1176428090499,-0.022225320069573
0.119174761770203,-0.0163004002383096
0.12074419205267,-0.0103626941985325
0.123996732123026,0.00155043978943439
0.130965258017951,0.0255231383791245
0.136606986173163,0.0436257749610472
0.138568335837574,0.0496825882254521
0.14057059181621,0.0557504367262689
0.142614065813805,0.061829161284216
0.148994912967664,0.0801289995080178
0.151206376088419,0.0862496365016656
0.155757943662527,0.0985209917918401
0.162911573926181,0.11700084029507
0.173071893161148,0.141769875163075
0.175725148421102,0.147984150696238
0.178424297271006,0.154206914597301
0.192619355035438,0.185442488346263
0.195600411224436,0.19171283968981
0.198629542936514,0.197990565146285
0.201707061876406,0.204275505536404
0.208008508258561,0.216866394400451
0.21123305911029,0.223172024515814
0.231633588867952,0.261138376479988
0.235212123846283,0.267486711346052
0.253888272530718,0.299307161513884
0.265731962145981,0.318456721830446
0.269788062313567,0.324848501896252
0.278064438320882,0.3376439968926
0.282285337570077,0.344047393464578
0.28656179325594,0.350454343846716
0.304229414460739,0.376114499891233
0.308788327900939,0.382536831634943
0.327601365359726,0.408250554161648
0.332450529172583,0.414684287784881
0.337358678174171,0.421119824246172
0.342326124069222,0.42755700436624
0.352440153358643,0.44043565886558
0.357587360162479,0.446876814886286
0.368063716612067,0.459761988573365
0.384237783962231,0.479094515528915
0.400970771436921,0.498428941891618
0.418271095063924,0.517760969820861
0.424165398928859,0.524203703308745
0.436147170871027,0.53708630147603
0.442235262357726,0.543525847796866
0.448388573127811,0.549964013370121
0.454607414886017,0.556400639016514
0.460892099337075,0.562835565556762
0.500000358058367,0.601400529529434
0.520468611855884,0.620647180060984
0.534458393580579,0.633462091219335
0.562059858569342,0.658557586175818
0.588360347858832,0.682620148590557
0.601027519113496,0.694267688098508
0.607241175080308,0.699996153828284
0.625405299836955,0.716802499723051
0.64285919199992,0.733044057079903
0.670388290108438,0.758871463048546
0.675662158029394,0.76385228940004
0.680859267841435,0.768771985071225
0.695992444872638,0.783166092004794
0.705701832137914,0.792459817229055
0.715109937964104,0.801513349336564
0.737324676538588,0.82310580572936
0.741545736796745,0.827247218973532
0.757698340468818,0.843228625175157
0.769051283490294,0.854606271917793
0.776260882861957,0.861904357697313
0.783185495284833,0.868974517572788
0.796187427279657,0.882436832417579
0.799262788746087,0.885662212441084
0.802268580849321,0.888831873789885
0.808072415465632,0.895004762064125
0.828552904374513,0.917503648210314
0.830809248723179,0.920072310549709
0.835122095450643,0.925049154011302
0.848143878923195,0.940801995365929
0.849744067741362,0.942843236989119
0.858003337577345,0.954010253452352
0.859158475203174,0.955693034385317
0.865504490790657,0.966068965386557
0.86778477056191,0.970911166116234
0.868864305829871,0.974032907256928
0.869410451648855,0.976722995197601
0.869429677890011,0.978986300743298
0.869152957283419,0.980260475112379
0.868928454424486,0.980827694699064
0.865096640698904,0.9837124418687
0.8635819760528,0.983981074022447
0.860900233480476,0.984050469280143
0.858842036986816,0.983876468805504
0.857732547180925,0.983723930574814
0.854085387025296,0.983006328711505
0.849965222884736,0.981902534495261
0.840331762133415,0.978555852224149
0.836714857554285,0.977108073920407
0.832898272475575,0.975496592179139
0.822495787898146,0.970761156296593
0.810887234548372,0.965034143962199
0.805912823448211,0.962470748827156
0.803355650020363,0.961131360674392
0.798102565533418,0.958338105199313
0.784171733960451,0.950695590031291
0.778285185311025,0.947378621775876
0.775275537481404,0.945665153065729
0.7659839754712,0.94030697340777
0.752991395569136,0.932661330573264
0.739322781595701,0.924453238884313
0.73580179496512,0.922314686329971
0.732239754329366,0.92014188272316
0.724993469541763,0.915694243952879
0.717585844231753,0.911111765774966
0.713822127942987,0.908770412908615
0.710018795398192,0.906395891390917
0.69041627570377,0.894032068038755
0.674045609075138,0.883562374451831
0.635057602148077,0.858188320904956
0.630547089461601,0.855217871047159
0.621421832436855,0.849188469788921
0.6168075673483,0.846129879188853
0.602761101276195,0.836780712307099
0.5835661939597,0.823917302881448
0.568828685927069,0.813977669631266
0.553805800172792,0.803793097374452
0.548735872565891,0.80034465093269
0.538504006568018,0.793368456916051
0.533342547426761,0.789841070141548
0.507089575291565,0.771818454614667
0.496384877101332,0.764432791102032
0.490989877362183,0.760702834381773
0.480115774720107,0.753169573014307
0.474637151066894,0.749366629167472
0.469131132025375,0.74553971707882
0.458037866276846,0.737814709776809
0.452451098819551,0.733916975363823
0.429842056350172,0.718095375303043
0.424125500697064,0.714083211686573
0.383416344708778,0.685382518857925
0.37156951039539,0.676989878354623
0.347600773076974,0.659957388088057
0.341552680581614,0.65564881592668
0.317143866682863,0.638218140907835
0.310988750353134,0.633812277560723
0.267337150052606,0.602451659516992
0.24833940108073,0.588742973108194
0.235582387506076,0.579517982995095
0.2291770453153,0.574880269386936
0.222754132355367,0.57022598394462
0.0639560151991513,0.454020623567656
0.0571717110889427,0.449010672332134
0.00250914787211773,0.408518484608882
-0.00436859444902005,0.403408094916394
-0.0112555206693074,0.398287447396288
-0.0181513911638877,0.393156722448751
-0.0319690064764964,0.382865761872134
-0.0458195233879876,0.372536656388035
-0.0736115940121831,0.351769783503376
-0.0945277559983852,0.336105232268862
-0.143533358633013,0.299286089515451
-0.206845240971487,0.251477063579205
-0.213894263454186,0.246137413139469
-0.227998054255017,0.235443755194149
-0.249164510671987,0.219370081614347
-0.263279866137114,0.208634279455445
-0.291512473421655,0.187121122090687
-0.319734829186191,0.16556218200662
-0.33383737025131,0.154769151448583
-0.404187027451072,0.100726121558156
-0.460156075528368,0.057484837215209
-0.487994866364623,0.0358936586664194
-0.508797620910757,0.0197226360995608
-0.53642054145485,-0.00179965165368053
-0.611592668990516,-0.0606663775460314
-0.645314449321458,-0.0872209326937888
