-0.637473701147011,-0.949263652070434
-0.826673493820028,0.661498967974151
-0.128770581210969,0.230165712082673
0.372539007281605,-0.477995418277402
0.873848595774178,-1.18615654863748
-0.474968234937093,0.443662100993946
-0.0023841440828829,0.719455651737394
0.470199946771327,0.995249202480843
-0.373019634985319,0.111035725941953
0.198017002709686,-0.0230609171522607
