-0.303670584009347,-0.0754260868792689
-0.236828320367344,-0.236666451542293
-0.865765282373375,-0.829771877437088
0.213663730508739,-0.334906204159959
1.29309274339085,0.15995946911717
-0.949503937393164,-0.169118468248744
0.363442828844077,0.620444896801674
1.67638959508132,1.41000826185209
-0.531086246849745,-0.746103875318293
-0.509694751393212,0.363146665495624
