0.238643272758317,0.0609419350283422
0.23555342911417,0.0607326528562621
0.23250106337752,0.0605508862734243
0.229486012473676,0.0603963868452745
0.226508113327951,0.0602689061372582
0.223567202865655,0.060168195714821
0.2206631180121,0.0600940071434085
0.217795695692595,0.0600460919884663
0.214964772832452,0.0600242018154401
0.212170186356981,0.0600280881897754
0.209411773191495,0.0600575026769177
0.206689370261303,0.0601121968423127
0.204002814491716,0.0601919222514061
0.201351942808046,0.0602964304696433
0.198736592135604,0.06042547306247
0.196156599399699,0.0605788015953317
0.193611801525644,0.0607561676336741
0.191102035438749,0.0609573227429428
0.188627138064325,0.0611820184885833
0.186186946327682,0.0614300064360413
0.183781297154133,0.0617010381507623
0.181410027468987,0.061994865198192
0.179072974197556,0.0623112391437759
0.176769974265151,0.0626499115529596
0.174500864597082,0.0630106339911887
0.17226548211866,0.0633931580239089
0.170063663755196,0.0637972352165657
0.167895246432002,0.0642226171346046
0.165760067074388,0.0646690553434714
0.163657962607665,0.0651363014086116
0.161588769957144,0.0656241068954708
0.159552326048136,0.0661322233694945
0.157548467805951,0.0666604023961284
0.155577032155901,0.0672083955408182
0.153637856023297,0.0677759543690092
0.151730776333449,0.0683628304461472
0.149855630011669,0.0689687753376778
0.148012253983266,0.0695935406090466
0.146200485173554,0.0702368778256991
0.144420160507841,0.0708985385530809
0.142671116911439,0.0715782743566377
0.140953191309659,0.072275836801815
0.139266220627813,0.0729909774540584
0.137610041791209,0.0737234478788135
0.135984491725161,0.074472999641526
0.134389407354978,0.0752393843076414
0.132824625605972,0.0760223534426053
0.131289983403453,0.0768216586118633
0.129785317672733,0.0776370513808609
0.128310465339122,0.0784682833150439
0.126865263327931,0.0793151059798577
0.125449548564471,0.0801772709407481
0.124063157974053,0.0810545297631605
0.122705928481988,0.0819466340125405
0.121377697013586,0.0828533352543338
0.12007830049416,0.083774385053986
0.118807575849019,0.0847095349769427
0.117565360003475,0.0856585365886494
0.116351489882838,0.0866211414545517
0.115165802412419,0.0875971011400952
0.11400813451753,0.0885861672107256
0.112878323123481,0.0895880912318884
0.111776205155583,0.0906026247690292
0.110701617539147,0.0916295193875937
0.109654397199484,0.0926685266530273
0.108634381061905,0.0937193981307758
0.107641406051721,0.0947818853862847
0.106675309094242,0.0958557399849995
0.10573592711478,0.0969407134923659
0.104823097038645,0.0980365574738296
0.103936655791149,0.0991430234948359
0.103076440297602,0.100259863120831
0.102242287483315,0.101386827917259
0.1014340342736,0.102523669449568
0.100651517593766,0.103670139283201
0.0998945743691257,0.104825988983605
0.0991630415249891,0.105990970116226
0.0984567559866673,0.107164834246508
0.097775554679471,0.108347332939898
0.0971192745287114,0.109538217761842
0.0964877524596994,0.110737240277783
0.0958808253977458,0.11194415205317
0.0952983302681615,0.113158704653446
0.0947401039962574,0.114380649644057
0.0942059835073446,0.11560973859045
0.0936958057267338,0.116845723058069
0.093209407579736,0.118088354612361
0.0927466259916621,0.119337384818771
0.0923072978878231,0.120592565242744
0.0918912601935297,0.121853647449726
0.091498349834093,0.123120383005163
0.0911284037348238,0.1243925234745
0.0907812588210331,0.125669820423183
0.0904567520180319,0.126952025416657
0.0901547202511307,0.128238890020369
0.0898750004456409,0.129530165799763
0.0896174295268732,0.130825604320285
0.0893818444201385,0.132124957147381
0.0891680820507477,0.133427975846497
0.0889759793440117,0.134734411983077
0.0888053732252415,0.136044017122568
0.088656100619748,0.137356542830416
0.0885279984528421,0.138671740672065
0.0884209036498346,0.139989362212962
0.0883346531360365,0.141309159018551
0.0882690838367588,0.14263088265428
0.0882240326773123,0.143954284685592
0.0881993365830079,0.145279116677934
0.0881948324791566,0.146605130196752
0.0882103572910692,0.14793207680749
0.0882457479440567,0.149259708075595
0.08830084136343,0.150587775566513
0.0883754744745,0.151916030845688
0.0884694842025776,0.153244225478566
0.0885827074729737,0.154572111030593
0.0887149812109992,0.155899439067215
0.0888661423419651,0.157225961153877
0.0890360277911823,0.158551428856025
0.0892244744839616,0.159875593739104
0.0894313193456139,0.16119820736856
0.0896563993014503,0.162519021309838
0.0898995512767816,0.163837787128385
0.0901606121969187,0.165154256389645
0.0904394189871725,0.166468180659064
0.090735808572854,0.167779311502089
0.091049617879274,0.169087400484164
0.0913806838317434,0.170392199170735
0.0917288433555733,0.171693459127247
0.0920939333760744,0.172990931919147
0.0924757908185577,0.17428436911188
0.0928742526083341,0.175573522270891
0.0932891556707146,0.176858142961627
0.09372033693101,0.178137982749532
0.0941676333145312,0.179412793200052
0.0946308817465891,0.180682325878633
0.0951099191524948,0.18194633235072
0.095604582457559,0.18320456418176
0.0961147085870927,0.184456772937197
0.0966401344664068,0.185702710182477
0.0971806970208122,0.186942127483046
0.0977362331756198,0.18817477640435
0.0983065798561406,0.189400408511833
0.0988915739876854,0.190618775370942
0.0994910524955652,0.191829628547123
0.100104852305091,0.19303271960582
0.100732810341573,0.194227800112479
0.101374763530324,0.195414621632546
0.102030548796652,0.196592935731467
0.102700003065871,0.197762493974688
0.103382963263289,0.198923047927653
0.104079266314219,0.200074349155808
0.104788749143972,0.201216149224599
0.105511248677857,0.202348199699472
0.106246601841187,0.203470252145872
0.106994645559271,0.204582058129244
0.107755216757421,0.205683369215035
0.108528152360949,0.20677393696869
0.109313289295164,0.207853512955654
0.110110464485377,0.208921848741374
0.1109195148569,0.209978695891294
0.111740277335044,0.21102380597086
0.112572588845119,0.212056930545519
0.113416286312436,0.213077821180715
0.114271206662307,0.214086229441893
0.115137186820041,0.215081906894501
0.116014063710951,0.216064605103983
0.116901674260346,0.217034075635785
0.117799855393539,0.217990070055352
0.118708444035839,0.21893233992813
0.119627277112558,0.219860636819565
0.120556191549006,0.220774712295102
0.121495024270495,0.221674317920187
0.122443612202335,0.222559205260265
0.123401792269838,0.223429125880783
0.124369401398314,0.224283831347185
0.125346276513073,0.225123073224917
0.126332254539428,0.225946603079425
0.127327172402689,0.226754172476155
0.128330867028167,0.227545532980551
0.129343175341173,0.22832043615806
0.130363934267017,0.229078633574128
0.131392980731011,0.229819876794199
0.132430151658465,0.230543917383719
0.133475283974691,0.231250506908135
0.134528214604999,0.231939396932891
0.135588780474701,0.232610339023433
0.136656818509106,0.233263084745207
0.137732165633527,0.233897385663658
0.138814658773274,0.234512993344232
0.139904134853657,0.235109659352375
0.141000430799989,0.235687135253532
0.142103383537579,0.236245172613148
0.143212829991738,0.23678352299667
0.144328607087779,0.237301937969543
0.14545055175101,0.237800169097212
0.146578500906745,0.238277967945124
0.147712291480292,0.238735086078723
0.148851760396964,0.239171275063456
0.14999674458207,0.239586286464767
0.151147080960923,0.239979871848103
0.152302606458833,0.240351782778909
0.15346315800111,0.24070177082263
0.154628572513066,0.241029587544713
0.155798686920012,0.241334984510603
0.156973338147259,0.241617713285745
0.158152363120117,0.241877525435586
0.159335598763897,0.24211417252557
0.160522882003911,0.242327406121143
0.161714049765469,0.242516977787751
0.162908938973882,0.242682639090839
0.164107386554461,0.242824141595854
0.165309229432517,0.24294123686824
0.166514304533361,0.243033676473443
0.167722448782304,0.243101211976909
0.168933499104656,0.243143594944084
0.170147292425729,0.243160576940413
0.171363665670833,0.243151909531341
0.172582455765281,0.243117344282314
0.173803499634381,0.243056632758778
0.175026634203445,0.242969526526179
0.176251696397785,0.242855777149961
0.177478523142711,0.242715136195571
0.178706951363534,0.242547355228454
0.179936817985564,0.242352185814057
0.181167959934114,0.242129379517823
0.182400214134493,0.241878687905199
0.183633417512013,0.241599862541631
0.184867406991984,0.241292654992564
0.186102019499718,0.240956816823444
0.187337091960525,0.240592099599716
0.188572461299717,0.240198254886826
0.189807964442604,0.239775034250219
0.191043438314496,0.239322189255342
0.192278719840706,0.238839471467639
0.193513645946544,0.238326632452557
0.194748053557321,0.23778342377554
0.195981779598347,0.237209597002035
0.197214660994934,0.236604903697487
0.198446534672393,0.235969095427342
0.199677237556034,0.235301923757045
0.200906606571168,0.234603140252042
0.202134478643107,0.233872496477779
0.203360690697161,0.2331097439997
0.204585079658641,0.232314634383252
0.205807482452858,0.23148691919388
0.207027736005124,0.230626349997031
0.208245677240748,0.229732678358148
0.209461143085041,0.228805655842679
0.210673970463316,0.227845034016068
0.211883996300882,0.226850564443762
0.213091057523051,0.225821998691205
0.214294991055133,0.224759088323844
0.215495633822439,0.223661584907123
0.216692822750281,0.22252924000649
0.217886394763969,0.221361805187388
0.219076186788814,0.220159032015265
0.220262035750126,0.218920672055564
0.221443778573218,0.217646476873733
0.2226212521834,0.216336198035216
0.223794293505982,0.21498958710546
0.224962739466276,0.213606395649909
0.226126426989593,0.212186375234009
0.227285193001243,0.210729277423207
0.228438874426537,0.209234853782947
0.229587308190787,0.207702855878675
0.230730331219302,0.206133035275837
0.231867780437395,0.204525143539878
0.232999492770376,0.202878932236245
0.234125305143556,0.201194152930381
0.235245054482246,0.199470557187734
0.236358577711756,0.197707896573749
0.237465711757398,0.19590592265387
0.238566293544483,0.194064386993545
0.239660159998321,0.192183041158218
0.240747148044224,0.190261636713336
0.241827094607502,0.188299925224343
0.242899836613466,0.186297658256685
0.243965210987427,0.184254587375808
0.245023054654696,0.182170464147158
0.246073204540585,0.18004504013618
0.247115497570403,0.177878066908319
0.248149770669462,0.175669296029021
0.249175860763072,0.173418479063733
0.250193604776546,0.171125367577899
0.251202839635192,0.168789713136965
0.252203402264323,0.166411267306376
0.25319512958925,0.163989781651579
0.254177858535283,0.161525007738019
0.255151426027733,0.159016697131141
0.256115668991911,0.156464601396391
0.257070424353128,0.153868472099214
0.258015529036695,0.151228060805057
0.258950819967922,0.148543119079365
0.259876134072122,0.145813398487583
0.260791308274604,0.143038650595157
0.261696179500679,0.140218626967532
0.262590584675659,0.137353079170155
0.263474360724855,0.13444175876847
0.264347344573577,0.131484417327924
0.265209373147135,0.128480806413962
0.266060283370842,0.125430677592029
0.266899912170008,0.122333782427572
0.267728096469944,0.119189872486035
0.268544673195961,0.115998699332865
0.26934947927337,0.112760014533506
0.270142351627481,0.109473569653405
0.270923127183606,0.106139116258007
0.271691642867055,0.102756405912758
0.27244773560314,0.0993251901831034
0.273191242317171,0.0958452206344884
0.273921999934459,0.0923162488323591
0.274639845380315,0.0887380263421607
0.275344615580051,0.0851103047293391
0.276036147458976,0.0814328355593397
0.276714277942402,0.0777053703976082
0.27737884395564,0.0739276608095901
0.278029682424001,0.0700994583607312
0.278666630272795,0.0662205146164768
0.279289524427334,0.0622905811422728
0.279898201812928,0.0583094095035645
0.280492499354889,0.0542767512657979
0.281072253978527,0.0501923579944181
0.281637302609153,0.0460559812548711
0.282187482172078,0.0418673726126021
0.282722629592613,0.0376262836330571
0.283242581796069,0.0333324658816814
0.283747175707756,0.0289856709239209
0.284236248252987,0.0245856503252208
0.284709636357071,0.0201321556510271
0.28516717694532,0.0156249384667849
0.285608706943044,0.0110637503379404
0.286034063275554,0.00644834282993871
0.286443082868162,0.0017784675082257
0.286835602646178,-0.00294612406175331
0.287211459534913,-0.0077256803145523
0.287570490459678,-0.0125604496847262
0.287912532345784,-0.0174506806068288
0.288237422118542,-0.0223966215154152
0.288544996703263,-0.0273985208450391
0.288835093025257,-0.0324566270302557
0.289107548009836,-0.0375711885056185
0.28936219858231,-0.0427424537056827
0.289598881667991,-0.0479706710650022
0.289817434192189,-0.0532560890181318
0.290017693080215,-0.0585989559996254
0.290199495257381,-0.0639995204440379
0.290362677648996,-0.0694580307859233
0.290507077180373,-0.0749747354598364
0.290632530776821,-0.0805498829003312
0.290738875363652,-0.0861837215419626
0.290825947866177,-0.0918764998192844
0.290893585209706,-0.0976284661668516
0.290941624319551,-0.103439869019218
0.290969902121022,-0.109310956810939
0.290978255539431,-0.115241977976567
0.290966521500088,-0.121233180950659
0.290934536928304,-0.127284814167768
0.29088213874939,-0.133397126062448
0.290809163888657,-0.139570365069254
0.290715449271416,-0.145804779622741
0.290600831822978,-0.152100618157462
0.290465148468653,-0.158458129107973
0.290308236133754,-0.164877560908827
0.290129931743589,-0.171359161994579
0.289930072223471,-0.177903180799784
0.289708494498711,-0.184509865758995
0.289465035494619,-0.191179465306768
0.289199532136506,-0.197912227877656
0.288911821349683,-0.204708401906214
0.288601740059461,-0.211568235826997
0.288269125191151,-0.218491978074558
0.287913813670064,-0.225479877083453
0.287535642421511,-0.232532181288235
0.287134448370802,-0.239649139123459
0.286710068443249,-0.24683099902368
0.286262339564162,-0.254078009423452
0.285791098658853,-0.261390418757328
0.285296182652632,-0.268768475459865
0.284777428470811,-0.276212427965616
0.284234673038699,-0.283722524709135
0.283667753281609,-0.291299014124976
0.28307650612485,-0.298942144647696
0.282460768493734,-0.306652164711847
0.281820377313572,-0.314429322751984
0.281155169509675,-0.322273867202661
0.280464982007354,-0.330186046498434
0.279749651731919,-0.338166109073855
0.279009015608681,-0.346214303363481
0.278242910562952,-0.354330877801864
0.277451173520042,-0.36251608082356
0.276633641405262,-0.370770160863123
0.275790151143923,-0.379093366355108
0.274920539661336,-0.387485945734067
0.274024643882812,-0.395948147434558
0.273102300733662,-0.404480219891132
0.272153347139197,-0.413082411538346
0.271177620024727,-0.421754970810753
0.270174956315564,-0.430498146142908
0.269145192937018,-0.439312185969365
0.2680881668144,-0.448197338724679
0.2680881668144,-0.448197338724679
0.267006258330075,-0.457052111024292
0.265902047902621,-0.465775253232094
0.264775672511674,-0.474367379405311
0.263627269136869,-0.48282910360117
0.262456974757842,-0.491161039876895
0.261264926354227,-0.499363802289713
0.260051260905662,-0.50743800489685
0.25881611539178,-0.515384261755531
0.257559626792217,-0.523203186922983
0.256281932086609,-0.530895394456431
0.254983168254591,-0.538461498413101
0.253663472275798,-0.545902112850219
0.252322981129865,-0.553217851825011
0.250961831796429,-0.560409329394703
0.249580161255124,-0.56747715961652
0.248178106485586,-0.574421956547688
0.246755804467451,-0.581244334245434
0.245313392180353,-0.587944906766983
0.243851006603927,-0.594524288169561
0.24236878471781,-0.600983092510394
0.240866863501637,-0.607321933846708
0.239345379935043,-0.613541426235728
0.237804470997663,-0.619642183734681
0.236244273669133,-0.625624820400792
0.234664924929089,-0.631489950291287
0.233066561757165,-0.637238187463392
0.231449321132996,-0.642870145974333
0.229813340036219,-0.648386439881336
0.228158755446469,-0.653787683241627
0.226485704343381,-0.659074490112431
0.224794323706591,-0.664247474550974
0.223084750515733,-0.669307250614483
0.221357121750444,-0.674254432360182
0.219611574390358,-0.679089633845299
0.217848245415111,-0.683813469127058
0.216067271804338,-0.688426552262686
0.214268790537675,-0.692929497309409
0.212452938594757,-0.697322918324452
0.21061985295522,-0.701607429365041
0.208769670598698,-0.705783644488402
0.206902528504828,-0.709852177751761
0.205018563653245,-0.713813643212345
0.203117913023583,-0.717668654927377
0.201200713595479,-0.721417826954086
0.199267102348567,-0.725061773349695
0.197317216262484,-0.728601108171432
0.195351192316864,-0.732036445476522
0.193369167491342,-0.735368399322192
0.191371278765556,-0.738597583765666
0.189357663119138,-0.74172461286417
0.187328457531726,-0.744750100674932
0.185283798982954,-0.747674661255175
0.183223824452458,-0.750498908662128
0.181148670919873,-0.753223456953014
0.179058475364834,-0.75584892018506
0.176953374766978,-0.758375912415492
0.174833506105938,-0.760805047701536
0.172699006361352,-0.763136940100417
0.170550012512853,-0.765372203669362
0.168386661540077,-0.767511452465597
0.166209090422661,-0.769555300546346
0.164017436140238,-0.771504361968837
0.161811835672445,-0.773359250790294
0.159592425998917,-0.775120581067945
0.15735934409929,-0.776788966859014
0.155112726953197,-0.778365022220727
0.152852711540276,-0.779849361210311
0.150579434840161,-0.781242597884991
0.148293033832488,-0.782545346301993
0.145993645496892,-0.783758220518543
0.143681406813009,-0.784881834591867
0.141356454760474,-0.785916802579191
0.139018926318922,-0.78686373853774
0.136668958467988,-0.787723256524741
0.134306688187309,-0.788495970597419
0.131932252456519,-0.789182494813
0.129545788255253,-0.78978344322871
0.127147432563148,-0.790299429901774
0.124737322359839,-0.79073106888942
0.12231559462496,-0.791078974248872
0.119882386338148,-0.791343760037357
0.117437834479037,-0.7915260403121
0.114982076027263,-0.791626429130326
0.112515247962462,-0.791645540549264
0.110037487264269,-0.791583988626137
0.107548930912318,-0.791442387418171
0.105049715886247,-0.791221350982593
0.102539979165689,-0.790921493376629
0.10001985773028,-0.790543428657504
0.0974894885596566,-0.790087770882444
0.0949490086334528,-0.789555134108676
0.0923985549313045,-0.788946132393424
0.0898382644328471,-0.788261379793915
0.0872682741177157,-0.787501490367375
0.0846887209655459,-0.786667078171029
0.0820997419559732,-0.785758757262103
0.0795014740686326,-0.784777141697824
0.0768940542831598,-0.783722845535417
0.0742776195791901,-0.782596482832108
0.0716523069363588,-0.781398667645122
0.0690182533343014,-0.780130014031687
0.0663755957526531,-0.778791136049026
0.0637244711710493,-0.777382647754367
0.0610650165691256,-0.775905163204936
0.0583973689265172,-0.774359296457958
0.0557216652228595,-0.772745661570658
0.0530380424377878,-0.771064872600263
0.0503466375509377,-0.769317543604
0.0476475875419444,-0.767504288639092
0.0449410293904432,-0.765625721762767
0.0422271000760697,-0.763682457032251
0.0395059365784591,-0.761675108504768
0.0367776758772469,-0.759604290237546
0.0340424549520684,-0.757470616287809
0.0313004107825589,-0.755274700712784
0.028551680348354,-0.753017157569697
0.0257964006290889,-0.750698600915773
0.023034708604399,-0.748319644808239
0.0202667412539197,-0.745880903304319
0.0174926355572865,-0.743382990461241
0.0147125284941345,-0.74082652033623
0.0119265570440993,-0.738212106986512
0.00913485818681617,-0.735540364469311
0.0063375689019206,-0.732811906841856
0.00353482616904784,-0.730027348161371
0.000726766967833303,-0.727187302485082
-0.00208647172208766,-0.724292383870215
-0.00490475292107954,-0.721343206373997
-0.0077279396495071,-0.718340384053652
-0.0105558949277349,-0.715284530966406
-0.0133884817761276,-0.712176261169486
-0.0162255632150498,-0.709016188720118
-0.0190670022648661,-0.705804927675527
-0.0219126619459412,-0.702543092092939
-0.0247624052786397,-0.699231296029579
-0.0276160952833261,-0.695870153542675
-0.0304735949803652,-0.692460278689452
-0.0333347673901215,-0.689002285527134
-0.0361994755329597,-0.68549678811295
-0.0390675824292443,-0.681944400504124
-0.0419389510993401,-0.678345736757881
-0.0448134445636116,-0.674701410931449
-0.0476909258424235,-0.671012037082053
-0.0505712579561404,-0.667278229266918
-0.0534543039251268,-0.663500601543271
-0.0563399267697476,-0.659679767968338
-0.0592279895103671,-0.655816342599343
-0.0621183551673502,-0.651910939493514
-0.0650108867610613,-0.647964172708076
-0.0679054473118652,-0.643976656300255
-0.0708018998401264,-0.639949004327277
-0.0737001073662096,-0.635881830846367
-0.0765999329104793,-0.631775749914752
-0.0795012394933003,-0.627631375589657
-0.0824038901350372,-0.623449321928308
-0.0853077478560545,-0.619230202987932
-0.0882126756767169,-0.614974632825753
-0.091118536617389,-0.610683225498998
-0.0940251936984355,-0.606356595064892
-0.0969325099402209,-0.601995355580663
-0.0998403483631098,-0.597600121103535
-0.102748571987467,-0.593171505690733
-0.105657043833657,-0.588710123399485
-0.108565626922045,-0.584216588287016
-0.111474184272994,-0.579691514410552
-0.11438257890687,-0.575135515827318
-0.117290673844038,-0.570549206594541
-0.120198332104861,-0.565933200769447
-0.123105416709706,-0.561288112409261
-0.126011790678935,-0.556614555571208
-0.128917317032914,-0.551913144312516
-0.131821858792008,-0.54718449269041
-0.13472527897658,-0.542429214762115
-0.137627440606996,-0.537647924584858
-0.140528206703621,-0.532841236215864
-0.143427440286819,-0.52800976371236
-0.146325004376954,-0.523154121131571
-0.149220761994391,-0.518274922530723
-0.152114576159495,-0.513372781967042
-0.155006309892631,-0.508448313497753
-0.157895826214162,-0.503502131180084
-0.160782988144454,-0.498534849071258
-0.163667658703872,-0.493547081228503
-0.166549700912779,-0.488539441709044
-0.169428977791541,-0.483512544570108
-0.172305352360523,-0.478467003868919
-0.175178687640087,-0.473403433662704
-0.178048846650601,-0.468322448008688
-0.180915692412427,-0.463224660964099
-0.183779087945931,-0.45811068658616
-0.186638896271478,-0.452981138932098
-0.189494980409431,-0.44783663205914
-0.192347203380156,-0.442677780024511
-0.195195428204017,-0.437505196885437
-0.198039517901378,-0.432319496699143
-0.200879335492606,-0.427121293522856
-0.203714743998063,-0.421911201413801
-0.206545606438115,-0.416689834429204
-0.209371785833126,-0.411457806626292
-0.212193145203461,-0.406215732062289
-0.215009547569484,-0.400964224794422
-0.217820855951561,-0.395703898879918
-0.220626933370055,-0.390435368376
-0.223427642845332,-0.385159247339897
-0.226222847397756,-0.379876149828832
-0.229012410047691,-0.374586689900033
-0.231796193815503,-0.369291481610724
-0.234574061721556,-0.363991139018133
-0.237345876786214,-0.358686276179484
-0.240111502029842,-0.353377507152004
-0.242870800472805,-0.348065445992918
-0.245623635135467,-0.342750706759453
-0.248369869038194,-0.337433903508833
-0.251109365201349,-0.332115650298286
-0.253841986645297,-0.326796561185037
-0.256567596390403,-0.321477250226311
-0.259286057457032,-0.316158331479336
-0.261997232865547,-0.310840419001335
-0.264700985636315,-0.305524126849536
-0.267397178789699,-0.300210069081165
-0.270085675346063,-0.294898859753446
-0.272766338325774,-0.289591112923606
-0.275439030749195,-0.284287442648871
-0.27810361563669,-0.278988462986467
-0.280759956008625,-0.273694787993619
-0.283407914885364,-0.268407031727554
-0.286047355287272,-0.263125808245497
-0.288678140234713,-0.257851731604674
-0.291300132748052,-0.252585415862311
-0.293913195847654,-0.247327475075634
-0.296517192553883,-0.242078523301868
-0.299111985887104,-0.236839174598241
-0.301697438867681,-0.231610043021976
-0.304273414515979,-0.226391742630301
-0.306839775852364,-0.221184887480441
-0.309396385897198,-0.215990091629622
-0.311943107670847,-0.21080796913507
-0.314479804193676,-0.205639134054011
-0.31700633848605,-0.20048420044367
-0.319522573568332,-0.195343782361273
-0.322028372460887,-0.190218493864047
-0.324523598184081,-0.185108949009218
-0.327008113758277,-0.18001576185401
-0.32948178220384,-0.17493954645565
-0.331944466541136,-0.169880916871364
-0.334396029790528,-0.164840487158377
-0.336836334972381,-0.159818871373916
-0.339265245107061,-0.154816683575207
-0.34168262321493,-0.149834537819474
-0.344088332316355,-0.144873048163945
-0.346482235431699,-0.139932828665844
-0.348864195581328,-0.135014493382399
-0.351234075785605,-0.130118656370834
-0.353591739064896,-0.125245931688375
-0.355937048439566,-0.120396933392249
-0.358269866929978,-0.115572275539682
-0.360590057556497,-0.110772572187898
-0.362897483339489,-0.105998437394124
-0.365192007299317,-0.101250485215586
-0.367473492456347,-0.0965293297095099
-0.369741801830943,-0.0918355849331212
-0.371996798443469,-0.0871698649436461
-0.37423834531429,-0.08253278379831
-0.376466305463771,-0.0779249555543392
-0.378680541912276,-0.0733469942689593
-0.380880917680171,-0.0687995139993965
-0.383067295787819,-0.0642831288028761
-0.385239539255585,-0.0597984527366246
-0.387397511103835,-0.0553460998578673
-0.389541074352932,-0.0509266842238305
-0.391670092023241,-0.0465408198917397
-0.393784427135127,-0.0421891209188211
-0.395883942708954,-0.0378722013623002
-0.397968501765087,-0.0335906752794032
-0.400037967323891,-0.0293451567273557
-0.40209220240573,-0.0251362597633839
-0.404131070030969,-0.0209645984447132
-0.406154433219973,-0.0168307868285699
-0.408162154993106,-0.0127354389721795
-0.410154098370732,-0.00867916893276818
-0.412130126373217,-0.00466259076756152
-0.414090102020925,-0.00068631853378566
-0.416033888334221,0.00324903371133389
-0.417961348333468,0.00714285191057083
-0.419872345039033,0.0109945220066998
-0.421766741471279,0.0148034299424944
-0.423644400650572,0.0185689616607293
-0.425505185597275,0.0222905031041781
-0.427348959331753,0.0259674402156155
-0.429175584874372,0.0295991589378151
-0.430984925245495,0.0331850452135515
-0.432776843465488,0.0367244849855985
-0.434551202554714,0.0402168641967305
-0.436307865533539,0.0436615687897213
-0.438046695422326,0.0470579847073455
-0.439767555241442,0.0504054978923767
-0.44147030801125,0.0537034942875896
-0.443154816752115,0.0569513598357578
-0.444820944484402,0.060148480479656
-0.446468554228474,0.0632942421620577
-0.448097509004698,0.0663880308257377
-0.449707671833437,0.0694292324134696
-0.451298905735057,0.0724172328680278
-0.452871073729921,0.0753514181321864
-0.454424038838394,0.0782311741487195
-0.455957664080841,0.0810558868604013
-0.457471812477627,0.0838249422100059
-0.458966347049117,0.0865377261403074
-0.460441130815674,0.0891936245940801
-0.461896026797663,0.0917920235140979
-0.46333089801545,0.0943323088431351
-0.464745607489398,0.0968138665239658
-0.466140018239873,0.0992360824993642
-0.467513993287238,0.101598342712104
-0.468867395651859,0.10390003310496
-0.470200088354101,0.106140539620706
-0.471511934414327,0.108319248202117
-0.472802796852903,0.110435544791965
-0.474072538690193,0.112488815333026
-0.475321022946561,0.114478445768074
-0.476548112642373,0.116403822039882
-0.477753670797993,0.118264330091225
-0.478937560433785,0.120059355864878
-0.480099644570115,0.121788285303613
-0.481239786227346,0.123450504350206
-0.482357848425844,0.12504539894743
-0.483453694185973,0.12657235503806
-0.484527186528097,0.128030758564869
-0.485578188472582,0.129419995470632
-0.486606563039792,0.130739451698124
-0.487612173250092,0.131988513190117
-0.488594882123845,0.133166565889387
-0.489554552681418,0.134272995738707
-0.490491047943174,0.135307188680851
-0.491404230929477,0.136268530658595
-0.492293964660694,0.137156407614711
-0.493160112157188,0.137970205491974
-0.494002536439324,0.138709310233158
-0.494821100527466,0.139373107781037
-0.49561566744198,0.139960984078386
-0.496386100203229,0.140472325067978
-0.497132261831579,0.140906516692588
-0.497854015347394,0.141262944894989
-0.498551223771038,0.141540995617957
-0.499223750122877,0.141740054804265
-0.499871457423274,0.141859508396686
-0.500494208692596,0.141898742337997
-0.501091866951205,0.141857142570969
-0.501664295219467,0.141734095038378
-0.502211356517747,0.141528985682998
-0.502732913866408,0.141241200447603
-0.503228830285817,0.140870125274967
-0.503698968796336,0.140415146107864
-0.504143192418332,0.139875648889068
-0.504561364172168,0.139251019561354
-0.504953347078209,0.138540644067496
-0.50531900415682,0.137743908350267
-0.505658198428365,0.136860198352442
-0.505970792913209,0.135888900016795
-0.506256650631717,0.1348293992861
-0.506515634604253,0.133681082103131
-0.506747607851183,0.132443334410663
-0.506952433392869,0.131115542151469
-0.507129974249678,0.129697091268324
-0.507280093441973,0.128187367704002
-0.50740265399012,0.126585757401276
-0.507497518914483,0.124891646302922
-0.507564551235427,0.123104420351713
-0.507603613973316,0.121223465490424
-0.507614570148514,0.119248167661828
-0.507597282781387,0.117177912808699
-0.5075516148923,0.115012086873813
-0.507477429501616,0.112750075799942
-0.5073745896297,0.110391265529862
-0.507242958296918,0.107935042006345
-0.507082398523633,0.105380791172167
-0.50689277333021,0.102727898970102
-0.506673945737014,0.0999757513429227
-0.50642577876441,0.0971237342334045
-0.506148135432761,0.0941712335843212
-0.505840878762434,0.0911176353384469
-0.505503871773792,0.0879623254385559
-0.505136977487199,0.0847046898274221
-0.504740058923022,0.0813441144478198
-0.504312979101623,0.077879985242523
-0.503855601043369,0.0743116881543061
-0.503367787768623,0.0706386091259429
-0.50284940229775,0.0668601341002078
-0.502300307651115,0.0629756490198747
-0.501720366849082,0.0589845398277181
-0.501109442912016,0.0548861924665117
-0.500467398860281,0.05067999287903
-0.499794097714243,0.0463653270080469
-0.499089402494266,0.0419415807963367
-0.498353176220714,0.0374081401866734
-0.497585281913953,0.0327643911218313
-0.496785582594346,0.0280097195445843
-0.495953941282258,0.0231435113977069
-0.495090220998054,0.0181651526239728
-0.495090220998054,0.0181651526239728
-0.494199505627022,0.0131685338546353
-0.493287127572284,0.00824765950452668
-0.49235332263096,0.00340208619178977
-0.49139832660017,-0.00136862946543244
-0.490422375277033,-0.00606493084899699
-0.489425704458669,-0.010687261340761
-0.488408549942196,-0.0152360643225813
-0.487371147524735,-0.0197117831763152
-0.486313733003405,-0.0241148612838196
-0.485236542175324,-0.0284457420269516
-0.484139810837613,-0.0327048687875683
-0.483023774787391,-0.0368926849475266
-0.481888669821777,-0.0410096338886836
-0.480734731737891,-0.0450561589928964
-0.479562196332853,-0.049032703642022
-0.47837129940378,-0.0529397112179175
-0.477162276747794,-0.05677762510244
-0.475935364162013,-0.0605468886774463
-0.474690797443557,-0.0642479453247937
-0.473428812389546,-0.0678812384263391
-0.472149644797098,-0.0714472113639396
-0.470853530463332,-0.0749463075194523
-0.46954070518537,-0.0783789702747341
-0.468211404760329,-0.0817456430116422
-0.46686586498533,-0.0850467691120337
-0.465504321657491,-0.0882827919577654
-0.464127010573932,-0.0914541549306945
-0.462734167531773,-0.094561301412678
-0.461326028328133,-0.0976046747855731
-0.459902828760131,-0.100584718431237
-0.458464804624887,-0.103501875731526
-0.45701219171952,-0.106356590068297
-0.455545225841149,-0.109149304823409
-0.454064142786895,-0.111880463378717
-0.452569178353876,-0.114550509116079
-0.451060568339212,-0.117159885417351
-0.449538548540022,-0.119709035664392
-0.448003354753426,-0.122198403239057
-0.446455222776542,-0.124628431523205
-0.444894388406492,-0.126999563898691
-0.443321087440393,-0.129312243747374
-0.441735555675365,-0.131566914451109
-0.440138028908528,-0.133764019391755
-0.438528742937001,-0.135904001951167
-0.436907933557904,-0.137987305511205
-0.435275836568356,-0.140014373453723
-0.433632687765475,-0.141985649160579
-0.431978722946383,-0.143901576013631
-0.430314177908198,-0.145762597394736
-0.42863928844804,-0.14756915668575
-0.426954290363027,-0.14932169726853
-0.42525941945028,-0.151020662524934
-0.423554911506918,-0.152666495836819
-0.42184100233006,-0.154259640586041
-0.420117927716825,-0.155800540154458
-0.418385923464334,-0.157289637923927
-0.416645225369705,-0.158727377276304
-0.414896069230058,-0.160114201593447
-0.413138690842512,-0.161450554257213
-0.411373326004187,-0.16273687864946
-0.409600210512202,-0.163973618152043
-0.407819580163676,-0.16516121614682
-0.40603167075573,-0.166300116015648
-0.404236718085482,-0.167390761140384
-0.402434957950051,-0.168433594902886
-0.400626626146558,-0.16942906068501
-0.398811958472121,-0.170377601868612
-0.396991190723861,-0.171279661835552
-0.395164558698895,-0.172135683967684
-0.393332298194345,-0.172946111646867
-0.391494645007329,-0.173711388254958
-0.389651834934966,-0.174431957173813
-0.387804103774377,-0.17510826178529
-0.38595168732268,-0.175740745471245
-0.384094821376994,-0.176329851613535
-0.38223374173444,-0.176876023594019
-0.380368684192137,-0.177379704794552
-0.378499884547204,-0.177841338596992
-0.37662757859676,-0.178261368383196
-0.374752002137926,-0.178640237535021
-0.37287339096782,-0.178978389434323
-0.370991980883561,-0.179276267462961
-0.36910800768227,-0.17953431500279
-0.367221707161065,-0.179752975435669
-0.365333315117066,-0.179932692143454
-0.363443067347393,-0.180073908508002
-0.361551199649164,-0.18017706791117
-0.3596579478195,-0.180242613734815
-0.357763547655519,-0.180270989360795
-0.355868234954342,-0.180262638170966
-0.353972245513087,-0.180218003547185
-0.352075815128873,-0.18013752887131
-0.350179179598821,-0.180021657525198
-0.34828257472005,-0.179870832890704
-0.346386236289679,-0.179685498349688
-0.344490400104827,-0.179466097284005
-0.342595301962615,-0.179213073075513
-0.34070117766016,-0.178926869106068
-0.338808262994583,-0.178607928757528
-0.336916793763004,-0.17825669541175
-0.335027005762541,-0.177873612450591
-0.333139134790314,-0.177459123255908
-0.331253416643443,-0.177013671209558
-0.329370087119046,-0.176537699693398
-0.327489382014244,-0.176031652089285
-0.325611537126155,-0.175495971779076
-0.323736788251899,-0.174931102144628
-0.321865371188596,-0.174337486567798
-0.319997521733365,-0.173715568430444
-0.318133475683325,-0.173065791114421
-0.316273468835595,-0.172388598001588
-0.314417736987296,-0.171684432473802
-0.312566515935547,-0.170953737912919
-0.310720041477466,-0.170196957700796
-0.308878549410173,-0.169414535219291
-0.307042275530789,-0.168606913850261
-0.305211455636431,-0.167774536975562
-0.30338632552422,-0.166917847977052
-0.301567120991275,-0.166037290236587
-0.299754077834716,-0.165133307136025
-0.297947431851661,-0.164206342057224
-0.296147418839231,-0.163256838382038
-0.294354274594544,-0.162285239492327
-0.29256823491472,-0.161291988769947
-0.290789535596879,-0.160277529596755
-0.28901841243814,-0.159242305354607
-0.287255101235621,-0.158186759425362
-0.285499837786444,-0.157111335190876
-0.283752857887727,-0.156016476033006
-0.282014397336589,-0.15490262533361
-0.28028469193015,-0.153770226474544
-0.27856397746553,-0.152619722837665
-0.276852489739847,-0.15145155780483
-0.275150464550222,-0.150266174757897
-0.273458137693773,-0.149064017078722
-0.27177574496762,-0.147845528149163
-0.270103522168882,-0.146611151351076
-0.26844170509468,-0.145361330066319
-0.266790529542131,-0.144096507676748
-0.265150231308356,-0.142817127564222
-0.263521046190475,-0.141523633110596
-0.261903209985605,-0.140216467697727
-0.260296958490868,-0.138896074707474
-0.258702527503382,-0.137562897521693
-0.257120152820266,-0.13621737952224
-0.255550070238641,-0.134859964090973
-0.253992515555625,-0.13349109460975
-0.252447724568338,-0.132111214460426
-0.2509159330739,-0.13072076702486
-0.249397376869429,-0.129320195684908
-0.247892291752046,-0.127909943822427
-0.246400913518869,-0.126490454819274
-0.244923477967018,-0.125062172057307
-0.243460220893612,-0.123625538918382
-0.242011378095772,-0.122180998784356
-0.240577185370615,-0.120728995037087
-0.239157878515263,-0.119269971058431
-0.237753693326833,-0.117804370230246
-0.236364865602445,-0.116332635934388
-0.23499163113922,-0.114855211552715
-0.233634225734276,-0.113372540467084
-0.232292885184733,-0.111885066059352
-0.230967845287709,-0.110393231711375
-0.229659341840326,-0.108897480805011
-0.228367610639701,-0.107398256722117
-0.227092887482954,-0.10589600284455
-0.225835408167206,-0.104391162554167
-0.224595408489574,-0.102884179232825
-0.223373124247179,-0.10137549626238
-0.22216879123714,-0.0998655570246915
-0.220982645256577,-0.0983548049016146
-0.219814922102608,-0.096843683275007
-0.218665857572354,-0.0953326355267256
-0.217535687462933,-0.0938221050386276
-0.216424647571465,-0.0923125351925698
-0.21533297369507,-0.0908043693704095
-0.214260901630867,-0.0892980509540036
-0.213208667175975,-0.0877940233252092
-0.212176506127513,-0.0862927298658832
-0.211164654282602,-0.0847946139578829
-0.21017334743836,-0.0833001189830652
-0.209202821391907,-0.0818096883232872
-0.208253311940363,-0.0803237653604059
-0.207325054880846,-0.0788427934762784
-0.206418286010477,-0.0773672160527617
-0.205533241126374,-0.0758974764717128
-0.204670156025657,-0.0744340181149889
-0.203829266505446,-0.0729772843644469
-0.203010808362859,-0.0715277186019439
-0.202215017395017,-0.0700857642093369
-0.201442129399038,-0.068651864568483
-0.200692380172042,-0.0672264630612394
-0.199966005511149,-0.0658100030694629
-0.199263241213478,-0.0644029279750105
-0.198584323076148,-0.0630056811597395
-0.197929486896279,-0.0616187060055069
-0.19729896847099,-0.0602424458941696
-0.1966930035974,-0.0588773442075847
-0.196111828072629,-0.0575238443276093
-0.195555677693797,-0.0561823896361004
-0.195024788258022,-0.0548534235149151
-0.194519395562425,-0.0535373893459104
-0.194039735404124,-0.0522347305109433
-0.193586043580239,-0.050945890391871
-0.19315855588789,-0.0496713123705504
-0.192757508124195,-0.0484114398288386
-0.192383136086275,-0.0471667161485927
-0.192035675571248,-0.0459375847116697
-0.191715362376235,-0.0447244888999266
-0.191422432298354,-0.0435278720952205
-0.191157121134725,-0.0423481776794083
-0.190919664682467,-0.0411858490343474
-0.190710298738699,-0.0400413295418945
-0.190529259100542,-0.0389150625839069
-0.190376781565115,-0.0378074915422414
-0.190253101929536,-0.0367190597987552
-0.190158455990926,-0.0356502107353053
-0.190093079546404,-0.0346013877337488
-0.190057208393088,-0.0335730341759427
-0.1900510783281,-0.0325655934437441
-0.190074925148557,-0.0315795089190099
-0.19012898465158,-0.0306152239835974
-0.190213492634287,-0.0296731820193634
-0.190328684893799,-0.0287538264081651
-0.190474797227234,-0.0278576005318594
-0.190652065431713,-0.0269849477723035
-0.190860725304354,-0.0261363115113544
-0.191101012642277,-0.0253121351308692
-0.191373163242601,-0.0245128620127048
-0.191677412902446,-0.0237389355387183
-0.192013997418931,-0.0229907990907668
-0.192383152589176,-0.0222688960507074
-0.192785114210299,-0.021573669800397
-0.193220118079421,-0.0209055637216927
-0.193688399993661,-0.0202650211964516
-0.194190195750137,-0.0196524856065307
-0.194725741145971,-0.019068400333787
-0.19529527197828,-0.0185132087600777
-0.195899024044185,-0.0179873542672597
-0.196537233140805,-0.0174912802371902
-0.197210135065259,-0.017025430051726
-0.197917965614666,-0.0165902470927244
-0.198660960586147,-0.0161861747420423
-0.19943935577682,-0.0158136563815368
-0.200253386983805,-0.0154731353930649
-0.201103290004222,-0.0151650551584837
-0.201989300635189,-0.0148898590596503
-0.202911654673826,-0.0146479904784216
-0.203870587917253,-0.0144398927966547
-0.204866336162588,-0.0142660093962067
-0.205899135206952,-0.0141267836589346
-0.206969220847464,-0.0140226589666955
-0.208076828881243,-0.0139540787013464
-0.209222195105409,-0.0139214862447443
-0.21040555531708,-0.0139253249787464
-0.211627145313377,-0.0139660382852096
-0.212887200891419,-0.014044069545991
-0.214185957848325,-0.0141598621429477
-0.215523651981215,-0.0143138594579366
-0.216900519087208,-0.0145065048728149
-0.218316794963423,-0.0147382417694396
-0.21977271540698,-0.0150095135296677
-0.221268516214999,-0.0153207635353563
-0.222804433184598,-0.0156724351683624
-0.224380702112897,-0.0160649718105431
-0.225997558797016,-0.0164988168437554
-0.227655239034074,-0.0169744136498564
-0.22935397862119,-0.0174922056107031
-0.231094013355484,-0.0180526361081526
-0.232875579034075,-0.0186561485240618
-0.234698911454083,-0.019303186240288
-0.236564246412627,-0.019994192638688
-0.238471819706826,-0.020729611101119
-0.2404218671338,-0.021509885009438
-0.242414624490668,-0.022335457745502
-0.24445032757455,-0.0232067726911682
-0.246529212182565,-0.0241242732282934
-0.248651514111833,-0.0250884027387349
-0.250817469159472,-0.0260996046043496
-0.253027313122603,-0.0271583222069945
-0.255281281798344,-0.0282649989285268
-0.257579610983816,-0.0294200781508035
-0.259922536476137,-0.0306240032556816
-0.262310294072427,-0.0318772176250181
-0.264743119569805,-0.0331801646406702
-0.267221248765391,-0.0345332876844948
-0.269744917456305,-0.0359370301383492
-0.272314361439665,-0.03739183538409
-0.274929816512591,-0.0388981468035746
-0.277591518472202,-0.0404564077786599
-0.280299703115619,-0.0420670616912032
-0.283054606239959,-0.0437305519230611
-0.285856463642343,-0.045447321856091
-0.28870551111989,-0.0472178148721498
-0.29160198446972,-0.0490424743530947
-0.294546119488951,-0.0509217436807825
-0.297538151974704,-0.0528560662370705
-0.300578317724098,-0.0548458854038155
-0.303666852534252,-0.0568916445628748
-0.306803992202285,-0.0589937870961052
-0.309989972525317,-0.061152756385364
-0.313225029300468,-0.063368995812508
-0.316509398324856,-0.0656429487593944
-0.319843315395602,-0.0679750586078802
-0.323227016309824,-0.0703657687398225
-0.326660736864642,-0.0728155225370782
-0.330144712857176,-0.0753247633815046
-0.333679180084544,-0.0778939346549585
-0.337264374343867,-0.0805234797392971
-0.340900531432264,-0.0832138420163773
-0.344587887146853,-0.0859654648680563
-0.348326677284755,-0.0887787916761911
-0.352117137643089,-0.0916542658226388
-0.355959504018974,-0.0945923306892562
-0.35985401220953,-0.0975934296579006
-0.363800898011876,-0.100658006110429
-0.367800397223131,-0.103786503428698
-0.371852745640416,-0.106979364994566
-0.375958179060849,-0.110237034189889
-0.380116933281549,-0.113559954396523
-0.384329244099637,-0.116948568996327
-0.388595347312232,-0.120403321371157
-0.392915478716452,-0.123924654902871
-0.397289874109418,-0.127513012973325
-0.401718769288249,-0.131168838964376
-0.406202400050064,-0.134892576257882
-0.410741002191982,-0.138684668235699
-0.415334811511124,-0.142545558279685
-0.419984063804608,-0.146475689771696
-0.424688994869554,-0.15047550609359
-0.429449840503082,-0.154545450627224
-0.43426683650231,-0.158685966754454
-0.439140218664358,-0.162897497857138
-0.444070222786346,-0.167180487317133
-0.449057084665393,-0.171535378516296
-0.454101040098618,-0.175962614836484
-0.459202324883141,-0.180462639659554
-0.464361174816081,-0.185035896367362
-0.469577825694558,-0.189682828341767
-0.47485251331569,-0.194403878964625
-0.480185473476598,-0.199199491617793
-0.485576941974401,-0.204070109683128
-0.491027154606219,-0.209016176542488
-0.49653634716917,-0.214038135577728
-0.502104755460374,-0.219136430170707
-0.50773261527695,-0.224311503703282
-0.513420162416019,-0.229563799557309
-0.519167632674698,-0.234893761114645
-0.524975261850109,-0.240301831757148
-0.530843285739369,-0.245788454866675
-0.5367719401396,-0.251354073825082
-0.542761460847918,-0.256999132014226
-0.548812083661446,-0.262724072815966
-0.554924044377301,-0.268529339612157
-0.561097578792604,-0.274415375784657
-0.567332922704472,-0.280382624715323
-0.573630311910028,-0.286431529786012
-0.579989982206388,-0.292562534378581
-0.586412169390673,-0.298776081874886
-0.592897109260003,-0.305072615656786
-0.599445037611496,-0.311452579106137
-0.606056190242272,-0.317916415604796
-0.612730802949451,-0.32446456853462
-0.619469111530152,-0.331097481277467
-0.626271351781494,-0.337815597215192
-0.633137759500597,-0.344619359729654
-0.640068570484579,-0.35150921220271
-0.647064020530562,-0.358485598016216
-0.654124345435663,-0.365548960552029
-0.661249780997003,-0.372699743192007
-0.668440563011701,-0.379938389318006
-0.675696927276875,-0.387265342311884
-0.683019109589647,-0.394681045555498
-0.690407345747134,-0.402185942430704
-0.697861871546457,-0.40978047631936
-0.705382922784734,-0.417465090603323
-0.712970735259086,-0.42524022866445
-0.720625544766632,-0.433106333884597
-0.728347587104491,-0.441063849645623
-0.736137098069782,-0.449113219329383
-0.743994313459625,-0.457254886317736
-0.751919469071139,-0.465489293992538
-0.759912800701444,-0.473816885735646
-0.767974544147659,-0.482238104928916
-0.776104935206904,-0.490753394954208
-0.784304209676298,-0.499363199193376
-0.79257260335296,-0.508067961028279
-0.80091035203401,-0.516868123840773
-0.809317691516567,-0.525764131012715
-0.817794857597751,-0.534756425925963
-0.826342086074681,-0.543845451962374
-0.834959612744475,-0.553031652503804
-0.843647673404256,-0.56231547093211
-0.85240650385114,-0.571697350629151
-0.861236339882248,-0.581177734976781
-0.870137417294699,-0.59075706735686
-0.879109971885612,-0.600435791151244
-0.888154239452107,-0.610214349741789
-0.897270455791304,-0.620093186510353
