-0.265778103626112,0.863457363894216
-0.264805084088741,0.851132719735073
-0.263867330370119,0.838894362949074
-0.262964675642719,0.826742095065976
-0.262096953079013,0.814675717615535
-0.261263995851472,0.802695032127508
-0.260465637132567,0.79079984013165
-0.25970171009477,0.778989943157719
-0.258972047910553,0.767265142735471
-0.258276483752387,0.755625240394661
-0.257614850792744,0.744070037665046
-0.256986982204096,0.732599336076382
-0.256392711158914,0.721212937158426
-0.25583187082967,0.709910642440934
-0.255304294388836,0.698692253453663
-0.254809815008882,0.687557571726367
-0.254348265862281,0.676506398788805
-0.253919480121505,0.665538536170732
-0.253523290959024,0.654653785401905
-0.253159531547311,0.643851948012079
-0.252828035058837,0.633132825531011
-0.252528634666074,0.622496219488458
-0.252261163541493,0.611941931414175
-0.252025454857566,0.601469762837919
-0.251821341786765,0.591079515289447
-0.251648657501561,0.580770990298514
-0.251507235174426,0.570543989394877
-0.251396907977832,0.560398314108292
-0.251317509084249,0.550333765968516
-0.25126887166615,0.540350146505305
-0.251250828896007,0.530447257248414
-0.25126321394629,0.520624899727601
-0.251305859989472,0.510882875472622
-0.251378600198024,0.501220986013233
-0.251481267744418,0.49163903287919
-0.251613695801126,0.482136817600249
-0.251775717540618,0.472714141706168
-0.251967166135367,0.463370806726702
-0.252187874757844,0.454106614191607
-0.252437676580521,0.44492136563064
-0.25271640477587,0.435814862573557
-0.253023892516362,0.426786906550115
-0.253359972974468,0.417837299090069
-0.253724479322661,0.408965841723177
-0.254117244733411,0.400172335979193
-0.254538102379191,0.391456583387876
-0.254986885432473,0.38281838547898
-0.255463427065727,0.374257543782262
-0.255967560451426,0.365773859827479
-0.25649911876204,0.357367135144387
-0.257057935170043,0.349037171262742
-0.257643842847904,0.340783769712301
-0.258256674968097,0.332606732022819
-0.258896264703091,0.324505859724053
-0.25956244522536,0.31648095434576
-0.260255049707375,0.308531817417695
-0.260973911321607,0.300658250469615
-0.261718863240528,0.292860055031277
-0.26248973863661,0.285137032632435
-0.263286370682324,0.277488984802848
-0.264108592550141,0.269915713072271
-0.264956237412534,0.262417018970461
-0.265829138441974,0.254992704027173
-0.266727128810933,0.247642569772164
-0.267650041691882,0.240366417735191
-0.268597710257293,0.233164049446009
-0.269569967679637,0.226035266434375
-0.270566647131387,0.218979870230046
-0.271587581785013,0.211997662362777
-0.272632604812988,0.205088444362325
-0.273701549387782,0.198252017758446
-0.274794248681869,0.191488184080896
-0.275910535867718,0.184796744859433
-0.277050244117802,0.178177501623811
-0.278213206604593,0.171630255903788
-0.279399256500562,0.16515480922912
-0.28060822697818,0.158750963129562
-0.28183995120992,0.152418519134872
-0.283094262368252,0.146157278774805
-0.284370993625649,0.139967043579119
-0.285669978154583,0.133847615077568
-0.286991049127524,0.12779879479991
-0.288334039716944,0.121820384275901
-0.289698783095315,0.115912185035297
-0.291085112435109,0.110073998607854
-0.292492860908797,0.104305626523329
-0.293921861688851,0.0986068703114783
-0.295371947947743,0.0929775315020576
-0.296842952857943,0.0874174116248236
-0.298334709591924,0.0819263122095325
-0.299847051322158,0.0765040347859406
-0.301379811221115,0.0711503808838041
-0.302932822461268,0.0658651520328795
-0.304505918215088,0.0606481497629232
-0.306098931655047,0.055499175603691
-0.307711695953616,0.0504180310849397
-0.309344044283267,0.0454045177364254
-0.310995809816472,0.0404584370879045
-0.312666825725702,0.0355795906691331
-0.314356925183429,0.0307677800098677
-0.316065941362125,0.0260228066398646
-0.31779370743426,0.02134447208888
-0.319540056572307,0.0167325778866702
-0.321304821948738,0.0121869255629915
-0.323087836736023,0.00770731664760038
-0.324888934106635,0.00329355267025294
-0.326707947233045,-0.00105456483929452
-0.328544709287725,-0.00533723435128557
-0.330399053443146,-0.00955465433596393
-0.33227081287178,-0.0137070232635734
-0.334159820746099,-0.0177945396043576
-0.336065910238574,-0.0218174018285602
-0.337988914521677,-0.025775808406425
-0.33992866676788,-0.0296699578081957
-0.341885000149654,-0.0335000485041159
-0.34385774783947,-0.0372662789644292
-0.3458467430098,-0.0409688476593796
-0.347851818833117,-0.0446079530592104
-0.349872808481891,-0.0481837936341657
-0.351909545128594,-0.0516965678544891
-0.353961861945698,-0.0551464741904241
-0.356029592105675,-0.0585337111122146
-0.358112568780995,-0.0618584770901041
-0.360210625144131,-0.0651209705943366
-0.362323594367555,-0.0683213900951555
-0.364451309623737,-0.0714599340628046
-0.36659360408515,-0.0745368009675276
-0.368750310924265,-0.0775521892795683
-0.370921263313554,-0.0805062974691703
-0.373106294425487,-0.0833993240065772
-0.375305237432538,-0.0862314673620328
-0.377517925507178,-0.089002926005781
-0.379744191821877,-0.0917138984080652
-0.381983869549109,-0.0943645830391291
-0.384236791861344,-0.0969551783692166
-0.386502791931054,-0.0994858828685713
-0.38878170293071,-0.101956895007437
-0.391073358032785,-0.104368413256057
-0.39337759040975,-0.106720636084675
-0.395694233234076,-0.109013761963536
-0.398023119678235,-0.111247989362882
-0.400364082914699,-0.113423516752957
-0.40271695611594,-0.115540542604006
-0.405081572454428,-0.117599265386271
-0.407457765102636,-0.119599883569997
-0.409845367233035,-0.121542595625427
-0.412244212018097,-0.123427600022805
-0.414654132630294,-0.125255095232375
-0.417074962242096,-0.127025279724379
-0.419506534025976,-0.128738351969063
-0.421948681154406,-0.130394510436669
-0.424401236799856,-0.131993953597442
-0.426864034134799,-0.133536879921625
-0.429336906331706,-0.135023487879462
-0.431819686563049,-0.136453975941196
-0.434312208001299,-0.137828542577071
-0.436814303818928,-0.139147386257331
-0.439325807188408,-0.140410705452219
-0.441846551282209,-0.14161869863198
-0.444376369272805,-0.142771564266857
-0.446915094332666,-0.143869500827093
-0.449462559634265,-0.144912706782933
-0.452018598350071,-0.14590138060462
-0.454583043652559,-0.146835720762397
-0.457155728714198,-0.147715925726509
-0.45973648670746,-0.148542193967199
-0.462325150804818,-0.149314723954711
-0.464921554178743,-0.150033714159289
-0.467525530001706,-0.150699363051176
-0.470136911446178,-0.151311869100615
-0.472755531684633,-0.151871430777851
-0.475381223889541,-0.152378246553128
-0.478013821233373,-0.152832514896689
-0.480653156888602,-0.153234434278777
-0.4832990640277,-0.153584203169637
-0.485951375823136,-0.153882020039512
-0.488609925447384,-0.154128083358645
-0.491274546072916,-0.154322591597281
-0.493945070872201,-0.154465743225664
-0.496621333017713,-0.154557736714036
-0.499303165681922,-0.154598770532642
-0.501990402037301,-0.154589043151725
-0.504682875256321,-0.154528753041529
-0.507380418511454,-0.154418098672298
-0.510082864975171,-0.154257278514276
-0.512790047819943,-0.154046491037705
-0.515501800218243,-0.15378593471283
-0.518217955342542,-0.153475808009895
-0.520938346365312,-0.153116309399143
-0.523662806459025,-0.152707637350818
-0.526391168796151,-0.152249990335163
-0.529123266549162,-0.151743566822423
-0.531858932890531,-0.15118856528284
-0.534598000992729,-0.15058518418666
-0.537340304028227,-0.149933622004124
-0.540085675169497,-0.149234077205478
-0.542833947589011,-0.148486748260965
-0.54558495445924,-0.147691833640828
-0.548338528952656,-0.146849531815311
-0.55109450424173,-0.145960041254658
-0.553852713498935,-0.145023560429112
-0.556612989896741,-0.144040287808918
-0.55937516660762,-0.143010421864319
-0.562139076804045,-0.141934161065559
-0.564904553658486,-0.140811703882881
-0.567671430343415,-0.139643248786528
-0.570439540031304,-0.138428994246746
-0.573208715894624,-0.137169138733777
-0.575978791105848,-0.135863880717866
-0.578749598837446,-0.134513418669255
-0.58152097226189,-0.133117951058188
-0.584292744551653,-0.13167767635491
-0.587064748879204,-0.130192793029664
-0.589836818417017,-0.128663499552694
-0.592608786337563,-0.127089994394242
-0.595380485813313,-0.125472476024554
-0.598151750016739,-0.123811142913873
-0.600922412120312,-0.122106193532442
-0.603692305296505,-0.120357826350505
-0.606461262717788,-0.118566239838306
-0.609229117556634,-0.116731632466089
-0.611995702985514,-0.114854202704096
-0.6147608521769,-0.112934149022573
-0.617524398303263,-0.110971669891762
-0.620286174537074,-0.108966963781908
-0.623046014050807,-0.106920229163254
-0.625803750016931,-0.104831664506043
-0.62855921560792,-0.10270146828052
-0.631312243996243,-0.100529838956928
-0.634062668354374,-0.0983169750055104
-0.636810321854783,-0.0960630748965116
-0.639555037669942,-0.093768337100175
-0.642296648972323,-0.0914329600867443
-0.645034988934398,-0.0890571423264632
-0.647769890728637,-0.0866410822895755
-0.650501187527514,-0.0841849784463246
-0.653228712503498,-0.0816890292669546
-0.655952298829063,-0.0791534332217088
-0.658671779676679,-0.0765783887808313
-0.661386988218818,-0.0739640944145654
-0.664097757627952,-0.0713107485931551
-0.666803921076553,-0.0686185497868439
-0.669505311737091,-0.0658876964658757
-0.672201762782039,-0.0631183871004939
-0.674893107383868,-0.0603108201609426
-0.67757917871505,-0.0574651941174651
-0.680259809948056,-0.0545817074403054
-0.682934834255359,-0.0516605585997069
-0.685604084809429,-0.0487019460659137
-0.688267394782739,-0.0457060683091691
-0.690924597347759,-0.0426731237997171
-0.693575525676962,-0.0396033110078011
-0.696220012942819,-0.0364968284036651
-0.698857892317802,-0.0333538744575525
-0.701488996974382,-0.0301746476397074
-0.704113160085032,-0.026959346420373
-0.706730214822221,-0.0237081692697935
-0.709339994358424,-0.0204213146582122
-0.71194233186611,-0.0170989810558731
-0.714537060517751,-0.0137413669330196
-0.717124013485819,-0.0103486707598956
-0.719703023942787,-0.00692109100674466
-0.722273925061124,-0.0034588261438107
-0.724836550013304,3.79253586627881e-05
-0.727390731971797,0.00356896503043196
-0.729936304109075,0.00713409440125336
-0.73247309959761,0.0107331150008829
-0.735000951609874,0.0143658283590773
-0.737519693318337,0.0180320360055926
-0.740029157895472,0.0217315394701852
-0.74252917851375,0.0254641402826113
-0.745019588345643,0.0292296399726273
-0.747500220563623,0.0330278400699895
-0.749970908340161,0.0368585421044542
-0.752431484847728,0.0407215476057775
-0.754881783258797,0.0446166581037162
-0.757321636745839,0.048543675128026
-0.759750878481325,0.0525024002084637
-0.762169341637727,0.0564926348747852
-0.764576859387518,0.0605141806567471
-0.766973264903167,0.0645668390841056
-0.769358391357148,0.0686504116866169
-0.771732071921931,0.0727646999940374
-0.774094139769989,0.0769095055361236
-0.776444428073793,0.0810846298426313
-0.778782770005814,0.0852898744433174
-0.781108998738524,0.0895250408679376
-0.783422947444394,0.0937899306462488
-0.785724449295898,0.0980843453080068
-0.788013337465505,0.102408086382968
-0.790289445125687,0.106760955400889
-0.792552605448917,0.111142753891526
-0.794802651607666,0.115553283384635
-0.797039416774405,0.119992345409973
-0.799262734121606,0.124459741497295
-0.801472436821741,0.128955273176359
-0.803668358047281,0.13347874197692
-0.805850330970698,0.138029949428735
-0.808018188764464,0.142608697061559
-0.810171764601049,0.14721478640515
-0.812310891652927,0.151848018989264
-0.814435403092568,0.156508196343657
-0.816545132092443,0.161195119998085
-0.818639911825025,0.165908591482304
-0.820719575462786,0.170648412326071
-0.822783956178196,0.175414384059143
-0.824832887143728,0.180206308211275
-0.826866201531853,0.185023986312223
-0.828883732515042,0.189867219891745
-0.830885313265768,0.194735810479596
-0.832870776956502,0.199629559605532
-0.834839956759715,0.204548268799311
-0.836792685847879,0.209491739590688
-0.838728797393466,0.214459773509419
-0.840648124568948,0.219452172085262
-0.842550500546795,0.224468736847971
-0.84443575849948,0.229509269327304
-0.846303731599475,0.234573571053016
-0.84815425301925,0.239661443554865
-0.849987155931277,0.244772688362606
-0.851802273508029,0.249907107005996
-0.853599438921976,0.255064501014791
-0.855378485345591,0.260244671918747
-0.857139245951344,0.26544742124762
-0.858881553911708,0.270672550531168
-0.860605242399154,0.275919861299145
-0.862310144586155,0.281189155081309
-0.86399609364518,0.286480233407416
-0.865662922748702,0.291792897807222
-0.867310465069193,0.297126949810484
-0.868938553779124,0.302482190946957
-0.870547022050967,0.307858422746398
-0.872135703057194,0.313255446738563
-0.873704429970275,0.318673064453209
-0.875253035962684,0.324111077420092
-0.87678135420689,0.329569287168968
-0.878289217875367,0.335047495229594
-0.879776460140585,0.340545503131725
-0.881242914175016,0.346063112405119
-0.882688413151132,0.351600124579531
-0.884112790241405,0.357156341184717
-0.885515878618305,0.362731563750435
-0.886897511454305,0.36832559380644
-0.888257521921876,0.373938232882488
-0.889595743193491,0.379569282508336
-0.890912008441619,0.385218544213741
-0.892206150838734,0.390885819528458
-0.893478003557306,0.396570909982244
-0.894727399769808,0.402273617104855
-0.895954172648711,0.407993742426048
-0.897158155366486,0.413731087475578
-0.898339181095606,0.419485453783203
-0.899497083008541,0.425256642878677
-0.900631694277763,0.431044456291759
-0.901742848075745,0.436848695552203
-0.902830377574957,0.442669162189767
-0.903894115947872,0.448505657734206
-0.90493389636696,0.454357983715276
-0.905949552004694,0.460225941662735
-0.906940916033545,0.466109333106339
-0.907907821625985,0.472007959575843
-0.908850101954485,0.477921622601004
-0.909767590191517,0.483850123711579
-0.910660119509553,0.489793264437323
-0.911527523081064,0.495750846307993
-0.912369634078521,0.501722670853346
-0.913186285674398,0.507708539603137
-0.913977311041164,0.513708254087123
-0.914742543351291,0.51972161583506
-0.915481815777252,0.525748426376704
-0.916194961491518,0.531788487241813
-0.916881813666561,0.537841599960141
-0.917542205474851,0.543907566061446
-0.918175970088862,0.549986187075483
-0.918782940681063,0.55607726453201
-0.919362950423928,0.562180599960782
-0.919915832489927,0.568295994891555
-0.920441420051532,0.574423250854086
-0.920939546281215,0.580562169378131
-0.921410044351448,0.586712551993447
-0.921852747434702,0.59287420022979
-0.922267488703448,0.599046915616915
-0.922654101330159,0.60523049968458
-0.923012418487305,0.611424753962541
-0.923342273347359,0.617629479980554
-0.923643499082792,0.623844479268375
-0.923915928866076,0.630069553355761
-0.924159395869683,0.636304503772468
-0.924373733266083,0.642549132048251
-0.924558774227749,0.648803239712869
-0.924714351927152,0.655066628296076
-0.924840299536764,0.661339099327629
-0.924936450229056,0.667620454337285
-0.925002637176501,0.673910494854799
-0.925038693551569,0.680209022409929
-0.925044452526732,0.686515838532429
-0.925019747274462,0.692830744752057
-0.924964410967231,0.69915354259857
-0.92487827677751,0.705484033601722
-0.924761177877771,0.711822019291271
-0.924761177877771,0.711822019291271
-0.924594588535354,0.718114504328443
-0.924360347709157,0.724308922535414
-0.924058835608988,0.730405719183371
-0.923690432444655,0.7364053395435
-0.923255518425968,0.742308228886985
-0.922754473762734,0.748114832485011
-0.92218767866476,0.753825595608763
-0.921555513341857,0.759440963529428
-0.920858358003831,0.76496138151819
-0.920096592860491,0.770387294846235
-0.919270598121645,0.775719148784747
-0.918380753997103,0.780957388604913
-0.917427440696671,0.786102459577916
-0.916411038430157,0.791154806974944
-0.915331927407371,0.79611487606718
-0.914190487838121,0.80098311212581
-0.912987099932215,0.805759960422019
-0.91172214389946,0.810445866226993
-0.910395999949665,0.815041274811917
-0.909009048292639,0.819546631447976
-0.90756166913819,0.823962381406356
-0.906054242696126,0.828288969958241
-0.904487149176255,0.832526842374817
-0.902860768788385,0.836676443927269
-0.901175481742326,0.840738219886782
-0.899431668247884,0.844712615524542
-0.897629708514868,0.848600076111734
-0.895769982753087,0.852401046919544
-0.893852871172348,0.856115973219155
-0.891878753982461,0.859745300281754
-0.889848011393232,0.863289473378527
-0.887761023614471,0.866748937780657
-0.885618170855986,0.870124138759331
-0.883419833327585,0.873415521585734
-0.881166391239075,0.87662353153105
-0.878858224800267,0.879748613866466
-0.876495714220967,0.882791213863167
-0.874079239710984,0.885751776792337
-0.871609181480125,0.888630747925161
-0.869085919738201,0.891428572532827
-0.866509834695018,0.894145695886518
-0.863881306560385,0.89678256325742
-0.86120071554411,0.899339619916717
-0.858468441856001,0.901817311135597
-0.855684865705868,0.904216082185242
-0.852850367303516,0.90653637833684
-0.849965326858756,0.908778644861574
-0.847030124581396,0.910943327030631
-0.844045140681243,0.913030870115196
-0.841010755368106,0.915041719386453
-0.837927348851793,0.916976320115588
-0.834795301342112,0.918835117573787
-0.831614993048872,0.920618557032235
-0.828386804181881,0.922327083762116
-0.825111114950946,0.923961143034616
-0.821788305565878,0.925521180120921
-0.818418756236483,0.927007640292216
-0.815002847172569,0.928420968819685
-0.811540958583946,0.929761610974515
-0.808033470680421,0.93103001202789
-0.804480763671802,0.932226617250996
-0.800883217767898,0.933351871915017
-0.797241213178518,0.93440622129114
-0.793555130113468,0.93539011065055
-0.789825348782559,0.936303985264431
-0.786052249395597,0.937148290403969
-0.78223621216239,0.937923471340349
-0.778377617292749,0.938629973344757
-0.77447684499648,0.939268241688378
-0.770534275483391,0.939838721642396
-0.766550288963291,0.940341858477998
-0.76252526564599,0.940778097466369
-0.758459585741293,0.941147883878693
-0.75435362945901,0.941451662986156
-0.750207777008949,0.941689880059944
-0.746022408600918,0.941862980371241
-0.741797904444726,0.941971409191233
-0.737534644750181,0.942015611791105
-0.73323300972709,0.941996033442042
-0.728893379585263,0.941913119415231
-0.724516134534507,0.941767314981855
-0.720101654784631,0.941559065413099
-0.715650320545443,0.941288815980151
-0.711162512026751,0.940957011954194
-0.706638609438364,0.940564098606414
-0.702078992990089,0.940110521207996
-0.697484042891735,0.939596725030125
-0.692854139353111,0.939023155343988
-0.688189662584024,0.938390257420768
-0.683490992794282,0.937698476531651
-0.678758510193694,0.936948257947822
-0.673992594992069,0.936140046940468
-0.669193627399214,0.935274288780772
-0.664361987624938,0.934351428739921
-0.659498055879048,0.933371912089099
-0.654602212371354,0.932336184099492
-0.649674837311663,0.931244690042285
-0.644716310909784,0.930097875188662
-0.639727013375524,0.928896184809811
-0.634707324918693,0.927640064176915
-0.629657625749099,0.926329958561161
-0.624578296076548,0.924966313233732
-0.619469716110851,0.923549573465815
-0.614332266061815,0.922080184528595
-0.609166326139248,0.920558591693257
-0.603972276552959,0.918985240230987
-0.598750497512755,0.917360575412968
-0.593501369228446,0.915685042510388
-0.588225271909839,0.913959086794431
-0.582922585766743,0.912183153536282
-0.577593691008965,0.910357688007127
-0.572238967846315,0.908483135478151
-0.5668587964886,0.906559941220539
-0.561453557145628,0.904588550505476
-0.556023630027209,0.902569408604147
-0.550569395343149,0.900502960787739
-0.545091233303258,0.898389652327436
-0.539589524117343,0.896229928494423
-0.534064647995213,0.894024234559886
-0.528516985146676,0.89177301579501
-0.522946915781541,0.88947671747098
-0.517354820109614,0.887135784858982
-0.511741078340706,0.8847506632302
-0.506106070684624,0.88232179785582
-0.500450177351176,0.879849634007028
-0.49477377855017,0.877334616955007
-0.489077254491416,0.874777191970945
-0.48336098538472,0.872177804326026
-0.477625351439892,0.869536899291435
-0.471870732866739,0.866854922138357
-0.466097509875069,0.864132318137978
-0.460306062674693,0.861369532561484
-0.454496771475416,0.858567010680058
-0.448670016487047,0.855725197764887
-0.442826177919395,0.852844539087156
-0.436965635982269,0.84992547991805
-0.431088770885475,0.846968465528754
-0.425195962838823,0.843973941190454
-0.419287592052121,0.840942352174334
-0.413364038735176,0.837874143751581
-0.407425683097798,0.83476976119338
-0.401472905349795,0.831629649770914
-0.395506085700973,0.828454254755371
-0.389525604361144,0.825244021417935
-0.383531841540113,0.821999395029791
-0.377525177447689,0.818720820862124
-0.371505992293681,0.815408744186121
-0.365474666287898,0.812063610272966
-0.359431579640146,0.808685864393844
-0.353377112560235,0.805275951819941
-0.347311645257972,0.801834317822442
-0.341235557943166,0.798361407672532
-0.335149230825626,0.794857666641397
-0.329053044115159,0.791323540000221
-0.322947378021573,0.78775947302019
-0.316832612754678,0.78416591097249
-0.31070912852428,0.780543299128305
-0.304577305540189,0.77689208275882
-0.298437524012213,0.773212707135222
-0.292290164150159,0.769505617528695
-0.286135606163837,0.765771259210424
-0.279974230263053,0.762010077451595
-0.273806416657618,0.758222517523394
-0.267632545557338,0.754409024697004
-0.261452997172023,0.750570044243613
-0.25526815171148,0.746706021434403
-0.249078389385517,0.742817401540562
-0.242884090403943,0.738904629833275
-0.236685634976567,0.734968151583726
-0.230483403313195,0.731008412063101
-0.224277775623637,0.727025856542584
-0.218069132117702,0.723020930293363
-0.211857853005196,0.718994078586621
-0.205644318495928,0.714945746693543
-0.199428908799707,0.710876379885316
-0.193212004126341,0.706786423433124
-0.186993984685638,0.702676322608153
-0.180775230687406,0.698546522681588
-0.174556122341453,0.694397468924614
-0.168337039857589,0.690229606608417
-0.162118363445621,0.686043381004181
-0.155900473315356,0.681839237383092
-0.149683749676604,0.677617621016335
-0.143468572739174,0.673378977175096
-0.137255322712872,0.669123751130559
-0.131044379807507,0.664852388153911
-0.124836124232888,0.660565333516335
-0.118630936198822,0.656263032489018
-0.112429195915119,0.651945930343146
-0.106231283591586,0.647614472349901
-0.100037579438031,0.643269103780471
-0.0938484636642629,0.638910269906041
-0.08766431648009,0.634538415997796
-0.0814855180953202,0.63015398732692
-0.0753124487197618,0.6257574291646
-0.0691454885632233,0.621349186782021
-0.0629850178355127,0.616929705450367
-0.0568314167464382,0.612499430440824
-0.0506850655058081,0.608058807024577
-0.044546344323431,0.603608280472813
-0.0384156334091145,0.599148296056715
-0.0322933129726674,0.594679299047469
-0.0261797632238976,0.590201734716261
-0.0200753643726137,0.585716048334275
-0.0139804966286235,0.581222685172697
-0.00789554020173563,0.576722090502712
-0.00182087530175798,0.572214709595506
0.00424311786150075,0.567700987722263
0.0102960590782329,0.563181370154169
0.0163375681386295,0.55865630216241
0.0223672648328831,0.554126229018169
0.0283847689511847,0.549591595992634
0.0343897002837267,0.545052848356988
0.0403816786207003,0.540510431382418
0.0463603237522978,0.535964790340108
0.0523252554687104,0.531416370501244
0.0582760935601304,0.526865617137011
0.064212457816749,0.522312975518594
0.0701339680287585,0.517758890917178
0.0760402439863502,0.51320380860395
0.0819309054797161,0.508648173850093
0.0878055722990478,0.504092431926794
0.0936638642345375,0.499537028105237
0.0995054010763762,0.494982407656608
0.105329802614756,0.490429015852092
0.111136688639869,0.485877297962874
0.116925678941907,0.48132769926014
0.122696393311061,0.476780665015075
0.128448451537523,0.472236640498863
0.134181473411485,0.467696070982692
0.139895078723139,0.463159401737744
0.145588887262676,0.458627078035207
0.151262518820289,0.454099545146264
0.156915593186168,0.449577248342102
0.162547730150507,0.445060632893906
0.168158549503495,0.440550144072861
0.173747671035326,0.436046227150152
0.179314714536191,0.431549327396964
0.184859299796282,0.427059890084482
0.190381046605789,0.422578360483893
0.195879574754907,0.418105183866381
0.201354504033825,0.413640805503131
0.206805454232736,0.409185670665329
0.212232045141831,0.404740224624161
0.217633896551303,0.40030491265081
0.223010628251343,0.395880180016462
0.228361860032142,0.391466471992304
0.233687211683893,0.387064233849519
0.238986302996788,0.382673910859294
0.244258753761017,0.378295948292813
0.249504183766773,0.373930791421262
0.254722212804247,0.369578885515826
0.259912460663632,0.36524067584769
0.265074547135119,0.36091660768804
0.2702080920089,0.35660712630806
0.275312715075166,0.352312676978937
0.28038803612411,0.348033704971855
0.285433674945922,0.343770655558
0.290449251330796,0.339523974008556
0.295434385068922,0.335294105594709
0.300388695950492,0.331081495587645
0.305311803765699,0.326886589258549
0.310203328304733,0.322709831878605
0.315062889357787,0.318551668718999
0.319890106715052,0.314412545050917
0.32468460016672,0.310292906145543
0.329445989502983,0.306193197274064
0.334173894514033,0.302113863707663
0.338867934990061,0.298055350717527
0.343527730721259,0.29401810357484
0.348152901497819,0.290002567550789
0.352743067109933,0.286009187916558
0.357297847347792,0.282038409943332
0.361816862001588,0.278090678902296
0.366299730861513,0.274166440064637
0.370746073717759,0.270266138701539
0.375155510360517,0.266390220084188
0.379527660579979,0.262539129483768
0.383862144166337,0.258713312171465
0.388158580909783,0.254913213418464
0.392416590600508,0.251139278495951
0.396635793028704,0.247391952675111
0.400815807984564,0.243671681227129
0.404956255258278,0.23997890942319
0.409056754640038,0.236314082534479
0.413116925920037,0.232677645832183
0.417136388888465,0.229070044587485
0.421114763335515,0.225491724071572
0.425051669051379,0.221943129555628
0.428946725826248,0.21842470631084
0.432799553450313,0.214936899608391
0.436609771713768,0.211480154719467
0.440377000406803,0.208054916915255
0.44410085931961,0.204661631466938
0.447780968242381,0.201300743645702
0.451416946965308,0.197972698722733
0.455008415278582,0.194677941969215
0.458554992972396,0.191416918656334
0.46205629983694,0.188190074055275
0.465511955662408,0.184997853437224
0.468921580238989,0.181840702073366
0.472284793356877,0.178719065234885
0.475601214806263,0.175633388192968
0.478870464377339,0.172584116218799
0.482092161860297,0.169571694583563
0.485265927045327,0.166596568558447
0.488391379722623,0.163659183414635
0.491468139682375,0.160759984423312
0.494495826714776,0.157899416855664
0.497474060610017,0.155077925982877
0.50040246115829,0.152295957076134
0.503280648149787,0.149553955406622
0.5061082413747,0.146852366245526
0.50888486062322,0.14419163486403
0.511610125685539,0.141572206533321
0.514283656351849,0.138994526524584
0.516905072412341,0.136459040109003
0.519473993657208,0.133966192557765
0.52199003987664,0.131516429142054
0.524452830860831,0.129110195133055
0.526861986399971,0.126747935801954
0.529217126284252,0.124430096419937
0.531517870303867,0.122157122258187
0.533763838249007,0.119929458587892
0.535954649909863,0.117747550680235
0.538089925076627,0.115611843806402
0.540169283539491,0.113522783237579
0.542192345088648,0.11148081424495
0.544158729514288,0.109486382099701
0.546068056606603,0.107539932073018
0.547919946155786,0.105641909436084
0.549714017952027,0.103792759460087
0.551449891785519,0.10199292741621
0.553127187446453,0.10024285857564
0.554745524725022,0.0985429982095613
0.556304523411416,0.0968937915891591
0.557803803295828,0.0952956839856189
0.55924298416845,0.093749120670126
0.560621685819472,0.0922545469138655
0.561939528039088,0.0908124079880228
0.563196130617488,0.0894231491637831
0.564391113344865,0.0880872157123317
0.56552409601141,0.0868050529048538
0.566594698407315,0.0855771060125347
0.567602540322771,0.0844038203065595
0.568547241547971,0.0832856410581138
0.569428421873106,0.0822230135383825
0.570245701088368,0.0812163830185511
0.570998698983949,0.0802661947698048
0.57168703535004,0.0793728940633288
0.572310329976834,0.0785369261703083
0.572868202654521,0.0777587363619288
0.573360273173294,0.0770387699093753
0.573786161323345,0.0763774720838332
0.574145486894865,0.0757752881564877
0.574437869678046,0.0752326633985241
0.574662929463079,0.0747500430811277
0.574820286040157,0.0743278724754836
0.574909559199472,0.0739665968527772
0.574930368731214,0.0736666614841937
0.574882334425576,0.0734285116409184
0.57476507607275,0.0732525925941366
0.574578213462927,0.0731393496150334
0.574321366386299,0.0730892279747941
0.573994154633057,0.0731026729446041
0.573596197993395,0.0731801297956485
0.573127116257502,0.0733220437991127
0.572586529215572,0.0735288602261818
0.571974056657795,0.0738010243480412
0.571289318374364,0.074138981435876
0.57053193415547,0.0745431767608717
0.569701523791305,0.0750140555942133
0.568797707072062,0.0755520632070862
0.56782010378793,0.0761576448706756
0.566768333729103,0.0768312458561669
0.565642016685772,0.0775733114347451
0.564440772448129,0.0783842868775957
0.563164220806366,0.0792646174559039
0.561811981550673,0.0802147484408548
0.560383674471244,0.0812351251036338
0.55887891935827,0.0823261927154263
0.557297336001942,0.0834883965474172
0.555638544192453,0.0847221818707921
0.553902163719994,0.086027993956736
0.552087814374757,0.0874062780764343
0.550195115946933,0.0888574795010723
0.548223688226715,0.0903820435018351
0.546173151004294,0.0919804153499081
0.544043124069861,0.0936530403164765
0.541833227213609,0.0954003636727255
0.53954308022573,0.0972228306898405
0.537172302896415,0.0991208866390066
0.534720515015856,0.101094976791409
0.532187336374244,0.103145546418233
0.529572386761772,0.105273040790665
0.526875285968631,0.107477905179888
0.524095653785013,0.109760584857089
0.52123311000111,0.112121525093453
0.518287274407113,0.114561171160164
0.518287274407113,0.114561171160164
0.515301472604191,0.117018728077893
0.51231925761173,0.119433227110545
0.509340590347242,0.121804852894166
0.506365431728241,0.124133790064798
0.503393742672242,0.126420223258485
0.500425484096758,0.12866433711127
0.497460616919302,0.130866316259197
0.49449910205739,0.13302634533831
0.491540900428535,0.135144608984652
0.48858597295025,0.137221291834267
0.48563428054005,0.139256578523198
0.482685784115448,0.141250653687488
0.479740444593959,0.143203701963182
0.476798222893096,0.145115907986323
0.473859079930373,0.146987456392954
0.470922976623303,0.148818531819119
0.467989873889402,0.150609318900861
0.465059732646182,0.152360002274225
0.462132513811158,0.154070766575253
0.459208178301843,0.155741796439989
0.456286687035752,0.157373276504476
0.453368000930398,0.158965391404759
0.450452080903294,0.160518325776881
0.447538887871956,0.162032264256884
0.444628382753897,0.163507391480814
0.44172052646663,0.164943892084713
0.43881527992767,0.166341950704624
0.43591260405453,0.167701751976593
0.433012459764724,0.169023480536661
0.430114807975767,0.170307321020872
0.427219609605172,0.171553458065271
0.424326825570453,0.1727620763059
0.421436416789123,0.173933360378804
0.418548344178697,0.175067494920025
0.415662568656689,0.176164664565607
0.412779051140612,0.177225053951594
0.40989775254798,0.178248847714029
0.407018633796308,0.179236230488956
0.404141655803109,0.180187386912419
0.401266779485896,0.18110250162046
0.398393965762185,0.181981759249124
0.395523175549488,0.182825344434454
0.392654369765319,0.183633441812493
0.389787509327194,0.184406236019286
0.386922555152624,0.185143911690875
0.384059468159125,0.185846653463305
0.381198209264209,0.186514645972618
0.378338739385392,0.187148073854858
0.375481019440186,0.187747121746069
0.372625010346106,0.188311974282295
0.369770673020666,0.188842816099578
0.366917968381379,0.189339831833963
0.364066857345759,0.189803206121493
0.36121730083132,0.190233123598212
0.358369259755577,0.190629768900162
0.355522695036042,0.190993326663388
0.352677567590231,0.191323981523933
0.349833838335656,0.191621918117841
0.346991468189831,0.191887321081155
0.344150418070271,0.192120375049919
0.341310648894489,0.192321264660176
0.33847212158,0.19249017454797
0.335634797044316,0.192627289349345
0.332798636204953,0.192732793700343
0.329963599979423,0.192806872237009
0.327129649285241,0.192849709595386
0.32429674503992,0.192861490411518
0.321464848160975,0.192842399321447
0.318633919565919,0.192792620961219
0.315803920172266,0.192712339966875
0.312974810897531,0.19260174097446
0.310146552659226,0.192461008620018
0.307319106374866,0.192290327539591
0.304492432961965,0.192089882369224
0.301666493338036,0.19185985774496
0.298841248420594,0.191600438302842
0.296016659127152,0.191311808678914
0.293192686375224,0.19099415350922
0.290369291082325,0.190647657429802
0.287546434165967,0.190272505076706
0.284724076543665,0.189868881085973
0.281902179132933,0.189436970093649
0.279080702851284,0.188976956735775
0.276259608616233,0.188489025648396
0.273438857345293,0.187973361467556
0.270618409955978,0.187430148829298
0.267798227365802,0.186859572369664
0.264978270492279,0.1862618167247
0.262158500252923,0.185637066530449
0.259338877565248,0.184985506422953
0.256519363346767,0.184307321038257
0.253699918514995,0.183602695012405
0.250880503987444,0.182871812981439
0.248061080681631,0.182114859581403
0.245241609515067,0.18133201944834
0.242422051405267,0.180523477218296
0.239602367269745,0.179689417527312
0.236782518026014,0.178830025011432
0.233962464591589,0.177945484306701
0.231142167883984,0.17703598004916
0.228321588820712,0.176101696874855
0.225500688319287,0.175142819419829
0.222679427297222,0.174159532320124
0.219857766672033,0.173152020211785
0.217035667361233,0.172120467730856
0.214213090282336,0.171065059513379
0.211389996352855,0.169985980195398
0.208566346490304,0.168883414412958
0.205742101612198,0.1677575468021
0.20291722263605,0.16660856199887
0.200091670479374,0.16543664463931
0.197265406059684,0.164241979359463
0.194438390294493,0.163024750795375
0.191610584101316,0.161785143583087
0.188781948397667,0.160523342358645
0.18595244410106,0.15923953175809
0.183122032129007,0.157933896417467
0.180290673399024,0.156606620972819
0.177458328828624,0.15525789006019
0.174624959335321,0.153887888315623
0.171790525836628,0.152496800375163
0.16895498925006,0.151084810874851
0.166118310493131,0.149652104450733
0.163280450483354,0.148198865738851
0.160441370138244,0.146725279375249
0.157601030375314,0.145231529995971
0.154759392112077,0.14371780223706
0.151916416266049,0.142184280734559
0.149072063754743,0.140631150124513
0.146226295495672,0.139058595042965
0.14337907240635,0.137466800125957
0.140530355404292,0.135855950009535
0.137680105407012,0.134226229329741
0.134828283332022,0.132577822722619
0.131974850096838,0.130910914824212
0.129119766618973,0.129225690270565
0.12626299381594,0.12752233369772
0.123404492605254,0.125801029741721
0.120544223904428,0.124061963038611
0.117682148630977,0.122305318224435
0.114818227702415,0.120531279935236
0.111952422036254,0.118740032807057
0.10908469255001,0.116931761475941
0.106215000161195,0.115106650577933
0.103343305787324,0.113264884749076
0.100469570345911,0.111406648625414
0.0975937547544697,0.109532126842989
0.0947158199305136,0.107641504037846
0.0918357267915569,0.105734964846028
0.0889534362551132,0.103812693903578
0.0860689092386965,0.101874875846541
0.0831821066598208,0.0999216953109592
0.080292989436,0.0979533369328768
0.0774015184847477,0.0959699853483371
0.074507654723578,0.0939718251933838
0.0716113590700048,0.0919590411040604
0.0687125924415419,0.0899318177164103
0.0658113157557031,0.0878903396664772
0.0629074899300024,0.0858347915903045
0.0600010758819536,0.0837653581239359
0.0570920345290706,0.081682223903415
0.0541803267888672,0.079585573564785
0.0512659135788575,0.0774755917440897
0.0483487558165551,0.0753524630773727
0.0454288144194741,0.0732163722006774
0.0425060503051281,0.0710675037500474
0.0395804243910313,0.0689060423615262
0.0366518975946973,0.0667321726711574
0.0337204308336403,0.0645460793149845
0.0307859850253737,0.062347946929051
0.0278485210874118,0.0601379601494006
0.0249079999372683,0.0579163036120767
0.0219643824924572,0.0556831619531229
0.0190176296704921,0.0534387198085827
0.0160677023888871,0.0511831618144996
0.0131145615651561,0.0489166726069173
0.0101581681168129,0.0466394368218793
0.00719848296137127,0.044351639095429
0.0042354670163452,0.04205346406361
0.0012690811992486,0.039745096362466
-0.0017007135724047,0.0374267206280404
-0.00467395638110088,0.0350985214963767
-0.00765068630932601,0.0327606836035186
-0.0106309424395662,0.0304133915855095
-0.0136147638543076,0.028056830078393
-0.0166021896360363,0.0256911837182126
-0.0195932588672385,0.0233166371410119
-0.0225880106304003,0.0209333749828345
-0.0255864840080077,0.0185415818797238
-0.028588718082547,0.0161414424677234
-0.0315947519365043,0.0137331413828768
-0.0346046246523656,0.0113168632612277
-0.037618375312617,0.00889279273881947
-0.040636042999745,0.00646111445169573
-0.0436576667962353,0.00402201303589997
-0.0466832857845742,0.00157567312747584
-0.0497129390472477,-0.000877720637533164
-0.0527466656667422,-0.00333798362308362
-0.0557845047255436,-0.00580493119313188
-0.058826495306138,-0.00827837871163431
-0.0618726764910117,-0.0107581415425476
-0.0649230873626507,-0.0132440350498279
-0.0679777670035412,-0.015735874597432
-0.0710367544961692,-0.0182334755493161
-0.074100088923021,-0.0207366532694368
-0.0771678093665825,-0.0232452231217505
-0.0802399549093401,-0.0257590004702137
-0.0833165646337796,-0.0282778006787827
-0.0863976776223875,-0.0308014391114143
-0.0894833329576496,-0.0333297311320645
-0.0925735697220522,-0.0358624921046902
-0.0956684269980814,-0.0383995373932475
-0.0987679438682233,-0.0409406823616932
-0.101872159414964,-0.0434857423739834
-0.10498111272079,-0.0460345327940748
-0.108094842868186,-0.0485868689859238
-0.11121338893964,-0.0511425663134868
-0.114336790017638,-0.0537014401407203
-0.117465085184664,-0.0562633058315808
-0.120598313523207,-0.0588279787500247
-0.123736514115751,-0.0613952742600085
-0.126879726044783,-0.0639650077254886
-0.130027988392789,-0.0665369945104215
-0.133181340242254,-0.0691110499787636
-0.136339820675667,-0.0716869894944716
-0.139503468775511,-0.0742646284215015
-0.142672323624274,-0.0768437821238102
-0.145846424304441,-0.0794242659653538
-0.1490258098985,-0.0820058953100891
-0.152210519488934,-0.0845884855219723
-0.155400592158233,-0.0871718519649601
-0.15859606698888,-0.0897558100030085
-0.161796983063362,-0.0923401750000745
-0.165003379464165,-0.0949247623201143
-0.168215295273777,-0.0975093873270844
-0.171432769574681,-0.100093865384941
-0.174655841449366,-0.102678011857641
-0.177884549980316,-0.105261642109141
-0.181118934250018,-0.107844571503397
-0.184359033340958,-0.110426615404365
-0.187604886335622,-0.113007589176002
-0.190856532316497,-0.115587308182265
-0.194114010366068,-0.11816558778711
-0.197377359566822,-0.120742243354493
-0.200646619001245,-0.123317090248371
-0.203921827751822,-0.1258899438327
-0.20720302490104,-0.128460619471437
-0.210490249531386,-0.131028932528539
-0.213783540725344,-0.133594698367961
-0.217082937565402,-0.13615773235366
-0.220388479134046,-0.138717849849592
-0.223700204513761,-0.141274866219715
-0.227018152787033,-0.143828596827985
-0.23034236303635,-0.146378857038357
-0.233672874344196,-0.148925462214789
-0.237009725793059,-0.151468227721236
-0.240352956465424,-0.154006968921656
-0.243702605443777,-0.156541501180005
-0.247058711810604,-0.159071639860239
-0.250421314648392,-0.161597200326314
-0.253790453039627,-0.164117997942188
-0.257166166066795,-0.166633848071817
-0.260548492812381,-0.169144566079156
-0.263937472358873,-0.171649967328163
-0.267333143788756,-0.174149867182795
-0.270735546184516,-0.176644081007006
-0.27414471862864,-0.179132424164755
-0.277560700203613,-0.181614712019997
-0.280983529991922,-0.184090759936688
-0.284413247076053,-0.186560383278786
-0.287849890538492,-0.189023397410247
-0.291293499461725,-0.191479617695027
-0.294744112928238,-0.193928859497083
-0.298201770020517,-0.19637093818037
-0.301666509821049,-0.198805669108847
-0.30513837141232,-0.201232867646468
-0.308617393876815,-0.203652349157191
-0.312103616297021,-0.206063929004972
-0.315597077755424,-0.208467422553767
-0.31909781733451,-0.210862645167533
-0.322605874116765,-0.213249412210226
-0.326121287184676,-0.215627539045804
-0.329644095620728,-0.217996841038221
-0.333174338507408,-0.220357133551435
-0.336712054927201,-0.222708231949402
-0.340257283962594,-0.225049951596079
-0.343810064696074,-0.227382107855422
-0.347370436210125,-0.229704516091388
-0.350938437587234,-0.232016991667932
-0.354514107909888,-0.234319349949012
-0.358097486260572,-0.236611406298584
-0.361688611721773,-0.238892976080604
-0.365287523375977,-0.241163874659029
-0.368894260305669,-0.243423917397815
-0.372508861593336,-0.245672919660919
-0.376131366321465,-0.247910696812297
-0.37976181357254,-0.250137064215906
-0.383400242429049,-0.252351837235702
-0.387046691973478,-0.254554831235641
-0.390701201288312,-0.25674586157968
-0.394363809456038,-0.258924743631776
-0.398034555559141,-0.261091292755885
-0.401713478680109,-0.263245324315963
-0.405400617901426,-0.265386653675967
-0.40909601230558,-0.267515096199854
-0.412799700975056,-0.269630467251579
-0.416511722992341,-0.271732582195099
-0.42023211743992,-0.273821256394371
-0.42396092340028,-0.275896305213351
-0.427698179955907,-0.277957544015996
-0.431443926189287,-0.280004788166262
-0.435198201182905,-0.282037853028105
-0.43896104401925,-0.284056553965482
-0.442732493780805,-0.28606070634235
-0.446512589550058,-0.288050125522665
-0.450301370409494,-0.290024626870382
-0.4540988754416,-0.29198402574946
-0.457905143728862,-0.293928137523854
-0.461720214353766,-0.295856777557521
-0.465544126398798,-0.297769761214416
-0.469376918946444,-0.299666903858498
-0.473218631079191,-0.301548020853721
-0.477069301879524,-0.303412927564043
-0.480928970429929,-0.30526143935342
-0.484797675812894,-0.307093371585809
-0.488675457110903,-0.308908539625165
-0.492562353406443,-0.310706758835446
-0.496458403782,-0.312487844580607
-0.500363647320061,-0.314251612224606
-0.50427812310311,-0.315997877131399
-0.508201870213636,-0.317726454664941
-0.512134927734123,-0.319437160189191
-0.516077334747057,-0.321129809068103
-0.520029130334925,-0.322804216665635
-0.523990353580214,-0.324460198345744
-0.527961043565408,-0.326097569472384
-0.531941239372995,-0.327716145409514
-0.53593098008546,-0.329315741521089
-0.539930304785289,-0.330896173171065
-0.543939252554969,-0.3324572557234
-0.547957862476986,-0.33399880454205
-0.551986173633826,-0.335520634990971
-0.556024225107974,-0.33702256243412
-0.560072055981918,-0.338504402235453
-0.564129705338143,-0.339965969758927
-0.568197212259135,-0.341407080368497
-0.57227461582738,-0.342827549428121
-0.576361955125365,-0.344227192301755
-0.580459269235576,-0.345605824353356
-0.584566597240499,-0.346963260946879
-0.58868397822262,-0.348299317446282
-0.592811451264425,-0.34961380921552
-0.5969490554484,-0.350906551618551
-0.601096829857031,-0.352177360019331
-0.605254813572805,-0.353426049781815
-0.609423045678208,-0.354652436269962
-0.613601565255725,-0.355856334847726
-0.617790411387843,-0.357037560879065
-0.621989623157048,-0.358195929727935
-0.626199239645826,-0.359331256758292
-0.630419299936663,-0.360443357334094
-0.634649843112046,-0.361532046819295
-0.63889090825446,-0.362597140577854
-0.643142534446391,-0.363638453973726
-0.647404760770327,-0.364655802370867
-0.651677626308752,-0.365649001133235
-0.655961170144153,-0.366617865624786
-0.660255431359016,-0.367562211209475
-0.664560449035828,-0.36848185325126
-0.668876262257074,-0.369376607114097
-0.67320291010524,-0.370246288161943
-0.677540431662813,-0.371090711758754
-0.681888866012279,-0.371909693268486
-0.686248252236123,-0.372703048055096
-0.690618629416832,-0.37347059148254
-0.695000036636893,-0.374212138914775
-0.699392512978791,-0.374927505715757
-0.703796097525011,-0.375616507249443
-0.708210829358042,-0.376278958879789
-0.712636747560368,-0.376914675970752
-0.717073891214476,-0.377523473886288
-0.721522299402852,-0.378105167990353
-0.725982011207981,-0.378659573646904
-0.730453065712351,-0.379186506219898
-0.734935501998447,-0.379685781073291
-0.739429359148755,-0.380157213571038
-0.743934676245762,-0.380600619077098
-0.748451492371953,-0.381015812955426
-0.752979846609815,-0.381402610569979
-0.757519778041834,-0.381760827284713
-0.762071325750496,-0.382090278463585
-0.766634528818287,-0.38239077947055
-0.771209426327693,-0.382662145669567
-0.775796057361201,-0.38290419242459
-0.780394461001296,-0.383116735099577
-0.785004676330464,-0.383299589058483
-0.789626742431193,-0.383452569665266
-0.794260698385967,-0.383575492283882
-0.798906583277273,-0.383668172278288
