-0.539284094589983,0.680187541011772
0.174103058133589,0.399987656438527
0.511798493605292,0.840043137152401
0.112121857321812,0.882288415906562
-0.287554778961668,0.924533694660724
0.988764187873111,-0.71367301708657
0.655538254480205,-0.326139862730347
0.322312321087298,0.0613932916258753
-0.793363508413517,-0.944320239156751
-0.451098745734847,-0.968295464504425
