0.128602249060899,-0.691973025623793
0.131889108561798,-0.692709373962243
0.135152732367268,-0.693426702488325
0.138393194301586,-0.694125069080893
0.14161056818903,-0.694804531618798
0.144804927853875,-0.695465147980894
0.147976347120399,-0.696106976046032
0.15112489981288,-0.696730073693065
0.154250659755595,-0.697334498800845
0.15735370077282,-0.697920309248226
0.160434096688833,-0.698487562914058
0.163491921327911,-0.699036317677195
0.166527248514331,-0.69956663141649
0.169540152072371,-0.700078562010794
0.172530705826307,-0.70057216733896
0.175498983600417,-0.701047505279841
0.178445059218977,-0.701504633712288
0.181369006506266,-0.701943610515154
0.184270899286559,-0.702364493567293
0.187150811384135,-0.702767340747555
0.19000881662327,-0.703152209934794
0.192844988828241,-0.703519159007862
0.195659401823326,-0.703868245845611
0.198452129432802,-0.704199528326895
0.201223245480946,-0.704513064330564
0.203972823792035,-0.704808911735472
0.206700938190346,-0.705087128420472
0.209407662500156,-0.705347772264414
0.212093070545743,-0.705590901146153
0.214757236151384,-0.705816572944541
0.217400233141355,-0.706024845538429
0.220022135339934,-0.706215776806671
0.222623016571399,-0.706389424628118
0.225202950660026,-0.706545846881623
0.227762011430092,-0.706685101446039
0.230300272705874,-0.706807246200218
0.232817808311651,-0.706912339023012
0.235314692071698,-0.707000437793275
0.237790997810293,-0.707071600389857
0.240246799351713,-0.707125884691612
0.242682170520236,-0.707163348577392
0.245097185140138,-0.70718404992605
0.247491917035696,-0.707188046616438
0.249866440031188,-0.707175396527408
0.252220827950892,-0.707146157537814
0.254555154619083,-0.707100387526506
0.256869493860039,-0.707038144372338
0.259163919498037,-0.706959485954162
0.261438505357355,-0.706864470150831
0.26369332526227,-0.706753154841197
0.265928453037058,-0.706625597904113
0.268143962505998,-0.70648185721843
0.270339927493365,-0.706321990663001
0.272516421823437,-0.70614605611668
0.274673519320492,-0.705954111458317
0.276811293808806,-0.705746214566765
0.278929819112657,-0.705522423320878
0.281029169056322,-0.705282795599508
0.283109417464077,-0.705027389281506
0.285170638160201,-0.704756262245725
0.287212904968969,-0.704469472371019
0.289236291714661,-0.704167077536238
0.291240872221551,-0.703849135620236
0.293226720313918,-0.703515704501865
0.295193909816039,-0.703166842059977
0.297142514552191,-0.702802606173426
0.299072608346652,-0.702423054721062
0.300984265023697,-0.702028245581739
0.302877558407604,-0.701618236634309
0.304752562322652,-0.701193085757626
0.306609350593116,-0.700752850830539
0.308447997043273,-0.700297589731904
0.310268575497402,-0.699827360340571
0.312071159779779,-0.699342220535394
0.313855823714681,-0.698842228195224
0.315622641126385,-0.698327441198914
0.317371685839169,-0.697797917425317
0.31910303167731,-0.697253714753285
0.320816752465084,-0.696694891061671
0.322512922026769,-0.696121504229326
0.324191614186643,-0.695533612135104
0.325852902768982,-0.694931272657856
0.327496861598063,-0.694314543676436
0.329123564498164,-0.693683483069695
0.330733085293562,-0.693038148716486
0.332325497808533,-0.692378598495661
0.333900875867356,-0.691704890286074
0.335459293294306,-0.691017081966575
0.337000823913662,-0.690315231416019
0.338525541549701,-0.689599396513257
0.340033520026699,-0.688869635137141
0.341524833168933,-0.688126005166524
0.342999554800682,-0.687368564480258
0.344457758746222,-0.686597370957197
0.34589951882983,-0.685812482476192
0.347324908875783,-0.685013956916095
0.348734002708358,-0.68420185215576
0.350126874151834,-0.683376226074038
0.351503597030486,-0.682537136549782
0.352864245168592,-0.681684641461845
0.354208892390429,-0.680818798689079
0.355537612520274,-0.679939666110336
0.356850479382405,-0.679047301604468
0.358147566801098,-0.678141763050329
0.359428948600631,-0.67722310832677
0.36069469860528,-0.676291395312645
0.361944890639324,-0.675346681886804
0.363179598527038,-0.674389025928102
0.364398896092701,-0.67341848531539
0.36560285716059,-0.672435117927521
0.36679155555498,-0.671438981643347
0.367965065100151,-0.67043013434172
0.369123459620378,-0.669408633901494
0.370266812939939,-0.66837453820152
0.371395198883112,-0.667327905120651
0.372508691274172,-0.666268792537739
0.373607363937398,-0.665197258331637
0.374691290697067,-0.664113360381197
0.375760545377455,-0.663017156565271
0.37681520180284,-0.661908704762713
0.377855333797499,-0.660788062852374
0.37888101518571,-0.659655288713107
0.379892319791748,-0.658510440223764
0.380889321439892,-0.657353575263198
0.381872093954419,-0.656184751710262
0.382840711159605,-0.655004027443806
0.383795246879728,-0.653811460342685
0.384735774939065,-0.65260710828575
0.385662369161894,-0.651391029151854
0.386575103372491,-0.65016328081985
0.387474051395133,-0.648923921168589
0.388359287054097,-0.647673008076924
0.389230884173662,-0.646410599423708
0.390088916578103,-0.645136753087794
0.390933458091699,-0.643851526948032
0.391764582538725,-0.642554978883276
0.39258236374346,-0.641247166772379
0.393386875530181,-0.639928148494192
0.394178191723164,-0.638597981927569
0.394956386146687,-0.637256724951361
0.395721532625027,-0.635904435444421
0.396473704982461,-0.634541171285602
0.397212977043266,-0.633166990353755
0.397939422631719,-0.631781950527734
0.398653115572098,-0.63038610968639
0.39935412968868,-0.628979525708577
0.400042538805741,-0.627562256473146
0.40071841674756,-0.626134359858951
0.401381837338412,-0.624695893744842
0.402032874402576,-0.623246916009674
0.402671601764328,-0.621787484532298
0.403298093247946,-0.620317657191567
0.403912422677706,-0.618837491866333
0.404514663877886,-0.617347046435448
0.405104890672764,-0.615846378777766
0.405683176886615,-0.614335546772138
0.406249596343717,-0.612814608297417
0.406804222868348,-0.611283621232455
0.407347130284785,-0.609742643456105
0.407878392417304,-0.608191732847219
0.408398083090183,-0.60663094728465
0.4089062761277,-0.60506034464725
0.40940304535413,-0.603479982813871
0.409888464593751,-0.601889919663366
0.410362607670841,-0.600290213074588
0.410825548409677,-0.598680920926388
0.411277360634535,-0.597062101097619
0.411718118169693,-0.595433811467134
0.412147894839429,-0.593796109913785
0.412566764468018,-0.592149054316425
0.412974800879739,-0.590492702553905
0.413372077898868,-0.588827112505078
0.413758669349683,-0.587152342048798
0.414134649056461,-0.585468449063916
0.414500090843478,-0.583775491429284
0.414855068535013,-0.582073527023755
0.415199655955342,-0.580362613726182
0.415533926928742,-0.578642809415417
0.41585795527949,-0.576914171970311
0.416171814831864,-0.575176759269719
0.416475579410142,-0.573430629192492
0.416769322838599,-0.571675839617483
0.417053118941513,-0.569912448423543
0.417327041543161,-0.568140513489526
0.417591164467821,-0.566360092694284
0.417845561539769,-0.564571243916669
0.418090306583283,-0.562774025035534
0.418325473422639,-0.560968493929731
0.418551135882116,-0.559154708478113
0.41876736778599,-0.557332726559532
0.418974242958538,-0.55550260605284
0.419171835224037,-0.55366440483689
0.419360218406765,-0.551818180790535
0.419539466330999,-0.549963991792626
0.419709652821015,-0.548101895722017
0.419870851701092,-0.546231950457558
0.420023136795505,-0.544354213878105
0.420166581928533,-0.542468743862507
0.420301260924452,-0.540575598289619
0.42042724760754,-0.538674835038291
0.420544615802074,-0.536766511987378
0.42065343933233,-0.534850687015731
0.420753792022587,-0.532927418002202
0.42084574769712,-0.530996762825644
0.420929380180208,-0.52905877936491
0.421004763296128,-0.527113525498852
0.421071970869156,-0.525161059106322
0.421131076723569,-0.523201438066173
0.421182154683646,-0.521234720257257
0.421225278573663,-0.519260963558427
0.421260522217897,-0.517280225848535
0.421287959440625,-0.515292565006433
0.421307664066124,-0.513298038910974
0.421319709918673,-0.51129670544101
0.421324170822547,-0.509288622475395
0.421321120602024,-0.507273847892979
0.421310633081381,-0.505252439572616
0.421292782084895,-0.503224455393158
0.421267641436843,-0.501189953233458
0.421235284961504,-0.499148990972367
0.421195786483152,-0.497101626488739
0.421149219826067,-0.495047917661425
0.421095658814524,-0.492987922369279
0.421035177272802,-0.490921698491152
0.420967849025177,-0.488849303905898
0.420893747895926,-0.486770796492368
0.420812947709327,-0.484686234129415
0.420725522289656,-0.482595674695891
0.420631545461191,-0.480499176070649
0.42053109104821,-0.478396796132541
0.420424232874988,-0.476288592760419
0.420311044765803,-0.474174623833137
0.420191600544933,-0.472054947229546
0.420065974036655,-0.4699296208285
0.419934239065245,-0.467798702508849
0.419796469454981,-0.465662250149447
0.41965273903014,-0.463520321629147
0.419503121615,-0.4613729748268
0.419347691033836,-0.459220267621259
0.419186521110927,-0.457062257891377
0.41901968567055,-0.454899003516005
0.418847258536981,-0.452730562373997
0.418669313534498,-0.450556992344205
0.418485924487378,-0.44837835130548
0.418297165219898,-0.446194697136677
0.418103109556336,-0.444006087716647
0.417903831320968,-0.441812580924242
0.417699404338072,-0.439614234638315
0.417489902431924,-0.437411106737718
0.417275399426803,-0.435203255101304
0.417055969146984,-0.432990737607925
0.416831685416746,-0.430773612136434
0.416602622060365,-0.428551936565683
0.416368852902118,-0.426325768774524
0.416130451766283,-0.424095166641811
0.415887492477137,-0.421860188046394
0.415640048858957,-0.419620890867128
0.415388194736019,-0.417377332982863
0.415132003932602,-0.415129572272454
0.414871550272983,-0.412877666614751
0.414606907581438,-0.410621673888608
0.414338149682244,-0.408361651972877
0.41406535039968,-0.40609765874641
0.413788583558021,-0.40382975208806
0.413507922981545,-0.401557989876679
0.41322344249453,-0.399282429991119
0.412935215921252,-0.397003130310234
0.412643317085989,-0.394720148712875
0.412347819813017,-0.392433543077896
0.412048797926614,-0.390143371284147
0.411746325251057,-0.387849691210483
0.411440475610624,-0.385552560735754
0.41113132282959,-0.383252037738814
0.410818940732234,-0.380948180098515
0.410503403142832,-0.37864104569371
0.410184783885663,-0.376330692403251
0.409863156785002,-0.37401717810599
0.409538595665127,-0.37170056068078
0.409211174350315,-0.369380898006473
0.408880966664843,-0.367058247961921
0.408548046432989,-0.364732668425978
0.40821248747903,-0.362404217277495
0.407874363627242,-0.360072952395325
0.407533748701903,-0.357738931658321
0.40719071652729,-0.355402212945334
0.406845340927681,-0.353062854135217
0.406497695727351,-0.350720913106823
0.40614785475058,-0.348376447739005
0.405795891821642,-0.346029515910613
0.405441880764817,-0.343680175500502
0.40508589540438,-0.341328484387523
0.40472800956461,-0.338974500450528
0.404368297069782,-0.336618281568371
0.404006831744175,-0.334259885619904
0.403643687412066,-0.331899370483979
0.403278937897731,-0.329536794039448
0.402912657025448,-0.327172214165164
0.402544918619494,-0.324805688739979
0.402175796504146,-0.322437275642746
0.401805364503681,-0.320067032752318
0.401433696442377,-0.317695017947546
0.40106086614451,-0.315321289107283
0.400686947434357,-0.312945904110382
0.400312014136197,-0.310568920835694
0.399936140074306,-0.308190397162073
0.39955939907296,-0.305810390968371
0.399181864956438,-0.30342896013344
0.398803611549016,-0.301046162536133
0.398424712674972,-0.298662056055301
0.398045242158583,-0.296276698569798
0.397665273824125,-0.293890147958477
0.397284881495876,-0.291502462100188
0.396904138998114,-0.289113698873785
0.396523120155114,-0.286723916158121
0.396141898791156,-0.284333171832047
0.395760548730514,-0.281941523774416
0.395379143797468,-0.279549029864081
0.394997757816293,-0.277155747979893
0.394616464611268,-0.274761736000706
0.394235338006668,-0.272367051805372
0.393854451826772,-0.269971753272743
0.393473879895856,-0.267575898281672
0.393093696038198,-0.26517954471101
0.392713974078075,-0.262782750439612
0.392334787839763,-0.260385573346328
0.39195621114754,-0.257988071310011
0.391578317825684,-0.255590302209515
0.391201181698471,-0.25319232392369
0.390824876590179,-0.25079419433139
0.390449476325084,-0.248395971311468
0.390075054727464,-0.245997712742775
0.389701685621596,-0.243599476504163
0.389329442831757,-0.241201320474486
0.388958400182224,-0.238803302532596
0.388588631497274,-0.236405480557345
0.388220210601185,-0.234007912427586
0.387853211318234,-0.231610656022171
0.387487707472697,-0.229213769219952
0.387123772888852,-0.226817309899783
0.386761481390977,-0.224421335940514
0.386400906803347,-0.222025905221
0.386042122950242,-0.219631075620092
0.385685203655936,-0.217236905016642
0.385330222744708,-0.214843451289503
0.384977254040835,-0.212450772317528
0.384626371368594,-0.210058925979569
0.384277648552263,-0.207667970154479
0.383931159416117,-0.205277962721109
0.383586977784435,-0.202888961558312
0.383245177481493,-0.200501024544941
0.382905832331569,-0.198114209559848
0.38256901615894,-0.195728574481885
0.382234802787883,-0.193344177189906
0.381903266042675,-0.190961075562762
0.381574479747594,-0.188579327479305
0.381248517726915,-0.186198990818389
0.380925453804918,-0.183820123458866
0.380605361805878,-0.181442783279588
0.380288315554073,-0.179067028159407
0.37997438887378,-0.176692915977176
0.379663655589276,-0.174320504611747
0.379356189524838,-0.171949851941974
0.379052064504744,-0.169581015846707
0.378751354353271,-0.1672140542048
0.378454132894695,-0.164849024895106
0.378160473953294,-0.162485985796475
0.377870451353345,-0.160124994787762
0.377584138919126,-0.157766109747818
0.377301610474913,-0.155409388555496
0.377022939844983,-0.153054889089648
0.376748200853614,-0.150702669229127
0.376477467325082,-0.148352786852785
0.376210813083666,-0.146005299839474
0.375948311953642,-0.143660266068048
0.375690037759286,-0.141317743417358
0.375436064324878,-0.138977789766256
0.375186465474692,-0.136640462993596
0.374941315033008,-0.134305820978229
0.374700686824101,-0.131973921599009
0.374464654672249,-0.129644822734787
0.374233292401729,-0.127318582264416
0.374006673836819,-0.124995258066749
0.373784872801795,-0.122674908020637
0.373567963120934,-0.120357590004933
0.373356018618514,-0.11804336189849
0.373149113118812,-0.115732281580161
0.372947320446105,-0.113424406928796
0.37275071442467,-0.11111979582325
0.372559368878784,-0.108818506142374
0.372373357632725,-0.106520595765021
0.372192754510769,-0.104226122570043
0.372017633337194,-0.101935144436293
0.371848067936277,-0.099647719242623
0.371684132132295,-0.0973639048678854
0.371525899749525,-0.0950837591909328
0.371373444612244,-0.0928073400906176
0.37122684054473,-0.0905347054457922
0.371086161371259,-0.088265913135309
0.370951480916109,-0.0860010210380206
0.370822873003557,-0.0837400870327791
0.370822873003557,-0.0837400870327791
0.370673387506331,-0.0814864646926226
0.370476216333315,-0.0792434287568146
0.370231646363016,-0.0770109188535464
0.369939964473944,-0.0747888746110094
0.369601457544608,-0.0725772356573949
0.369216412453516,-0.0703759416208942
0.368785116079178,-0.0681849321296986
0.368307855300102,-0.0660041468119995
0.367784916994798,-0.0638335252959881
0.367216588041774,-0.0616730072098558
0.366603155319539,-0.059522532181794
0.365944905706602,-0.0573820398399939
0.365242126081472,-0.0552514698126468
0.364495103322658,-0.0531307617279441
0.363704124308668,-0.051019855214077
0.362869475918013,-0.048918689899237
0.361991445029199,-0.0468272054116154
0.361070318520737,-0.0447453413794034
0.360106383271136,-0.0426730374307923
0.359099926158903,-0.0406102331939736
0.358051234062549,-0.0385568682971384
0.356960593860581,-0.0365128823684782
0.35582829243151,-0.0344782150361842
0.354654616653843,-0.0324528059284479
0.35343985340609,-0.0304365946734604
0.352184289566759,-0.0284295208994131
0.35088821201436,-0.0264315242344974
0.349551907627402,-0.0244425443069045
0.348175663284392,-0.0224625207448258
0.346759765863841,-0.0204913931764526
0.345304502244257,-0.0185291012299762
0.343810159304148,-0.0165755845335879
0.342277023922025,-0.0146307827154791
0.340705382976395,-0.0126946354038411
0.339095523345768,-0.0107670822268652
0.337447731908653,-0.00884806281274267
0.335762295543558,-0.0069375167896649
0.334039501128992,-0.00503538378582319
0.332279635543464,-0.00314160342940885
0.330482985665484,-0.00125611534861323
0.328649838373559,0.000621140828372377
0.3267804805462,0.00249022547335665
0.324875199061914,0.00435119895814825
0.322934280799211,0.00620412165455589
0.3209580126366,0.00804905393438822
0.318946681452589,0.00988605616945393
0.316900574125687,0.0117151887315617
0.314819977534404,0.0135365119925202
0.312705178557248,0.0153500863241381
0.310556464072728,0.0171559720982241
0.308374120959353,0.0189542296865869
0.306158436095631,0.0207449194610351
0.303909696360073,0.0225281017933775
0.301628188631186,0.0243038370554228
0.29931419978748,0.0260721856189794
0.394815543170251,0.118219355356589
0.294589926269645,0.029586964137862
0.292180215352534,0.0313335148368053
0.396475897628721,0.135068752783643
0.379142946451629,0.150666366245121
0.393602102277604,-0.0602547837175335
0.394939682309657,0.14111487493635
0.162324170333982,-0.0682743287882355
0.39255128875673,0.140159231948329
0.274450963307306,0.0433626846355882
0.271798616182173,0.0450537640551442
0.269117230484327,0.0467381812379158
0.363100674293911,-0.0600613692418902
0.151109070809191,0.166275153423612
0.375844437101172,0.148225195334344
0.258107039535996,0.0534104350373325
0.153446128823178,0.166526973271891
0.366296815932191,0.152291260317098
0.353659550456982,-0.0369079272363229
0.355750459051365,0.151696551840579
0.342624393186682,0.179587100446393
0.345162259050303,0.162371616065145
0.353645843223064,-0.0466336611497972
0.119905835609568,0.182044957392248
0.231747236017028,0.0680568102395208
0.326120893998407,-0.0406456749125979
0.130223459047344,0.189001995121445
0.109191928212209,-0.0332546268877305
0.117374634574607,0.174274582040985
0.311594881442189,0.184386848097446
0.213035121826682,0.0775565772270949
0.209833209161451,0.0791204277540023
0.206608282372194,0.0806788838521077
0.20336062833742,0.0822320058932196
0.200090533935638,0.0837798542491468
0.196798286045356,0.085322489291698
0.193484171545085,0.0868599713926818
0.190148477313332,0.088392360923907
0.186791490228606,0.0899197182571821
0.183413497169417,0.0914421037643159
0.180014785014274,0.0929595778171171
0.176595640641684,0.0944722007873944
0.173156350930158,0.0959800330469563
0.169697202758203,0.0974831349676117
0.16621848300433,0.0989815669211691
0.162720478547046,0.100475389279437
0.159203476264861,0.101964662414225
0.155667763036283,0.103449446697341
0.152113625739822,0.104929802500593
0.148541351253987,0.106405790195791
0.144951226457285,0.107877470154743
0.141343538228227,0.109344902749258
0.137718573445321,0.110808148351145
0.134076618987075,0.112267267332212
0.130417961732,0.113722320064267
0.126742888558603,0.115173366919121
0.123051686345394,0.11662046826858
0.119344641970882,0.118063684484454
0.115622042313575,0.119503075938552
0.111884174251982,0.120938703002682
0.108131324664612,0.122370626048654
0.104363780429975,0.123798905448274
0.100581828426579,0.125223601573353
0.096785755532932,0.1266447747957
0.0929758486275444,0.128062485487121
0.0891523945889245,0.129476794019427
0.0853156802955811,0.130887760764427
0.0814659926260232,0.132295446093927
0.0776036184587598,0.133699910379739
0.0737288446722997,0.135101213993669
0.0698419581451516,0.136499417307527
0.0659432457558247,0.137894580693122
0.0620329943828278,0.139286764522261
0.0581114909046698,0.140676029166755
0.0541790221998595,0.14206243499841
0.0502358751469058,0.143446042389038
0.0462823366243179,0.144826911710444
0.0423186935106043,0.14620510333444
0.038345232684274,0.147580677632832
0.034362241023836,0.148953694977431
0.0303700054077992,0.150324215740044
0.0263688127146725,0.15169230029248
0.0223589498229646,0.153058009006548
0.0183407036111846,0.154421402254057
0.0143143609578413,0.155782540406815
0.0102802087414437,0.157141483836631
0.00623853384050058,0.158498292915313
0.00218962313352085,0.159853028014671
-0.0018662365009865,0.161205749506513
-0.00592875818451261,0.162556517762647
-0.0099976550385487,0.163905393154883
-0.0140726401845858,0.165252436055029
-0.0181534267441149,0.166597706834894
-0.0222397278386272,0.167941265866285
-0.0263312565896139,0.169283173521013
-0.030427726118566,0.170623490170886
-0.0345288495469745,0.171962276187712
-0.0386343399963307,0.173299591943301
-0.0427439105881256,0.17463549780946
-0.0468572744438504,0.175970054157998
-0.050974144684996,0.177303321360725
-0.0550942344330537,0.178635359789448
-0.0592172568095146,0.179966229815977
-0.0633429249358696,0.181295991812121
-0.06747095193361,0.182624706149687
-0.0716010509242269,0.183952433200484
-0.0757329350292112,0.185279233336322
-0.0798663173700544,0.186605166929009
-0.0840009110682472,0.187930294350353
-0.0881364292452808,0.189254675972163
-0.0922725850226465,0.190578372166249
-0.0964090915218353,0.191901443304418
-0.100545661864338,0.193223949758479
-0.104682009171646,0.194545951900242
-0.108817846565251,0.195867510101514
-0.112952887166643,0.197188684734104
-0.117086844097313,0.198509536169821
-0.121219430478754,0.199830124780474
-0.125350359432455,0.201150510937872
-0.129479344079908,0.202470755013822
-0.133606097542604,0.203790917380134
-0.137730332942034,0.205111058408617
-0.14185176339969,0.206431238471079
-0.145970102037061,0.207751517939328
-0.15008506197564,0.209071957185174
-0.154196356336918,0.210392616580425
-0.158303698242385,0.21171355649689
-0.162406800813533,0.213034837306378
-0.166505377171853,0.214356519380696
-0.170599140438835,0.215678663091655
-0.174687803735972,0.217001328811061
-0.178771080184754,0.218324576910726
-0.182848682906672,0.219648467762456
-0.186920325023218,0.22097306173806
-0.190985719655882,0.222298419209348
-0.195044579926155,0.223624600548128
-0.19909661895553,0.224951666126208
-0.203141549865496,0.226279676315398
-0.207179085777545,0.227608691487506
-0.211208939813167,0.22893877201434
-0.215230825093855,0.23026997826771
-0.219244454741099,0.231602370619423
-0.223249541876391,0.232936009441289
-0.227245799621221,0.234270955105117
-0.23123294109708,0.235607267982715
-0.23521067942546,0.236945008445891
-0.239178727727851,0.238284236866455
-0.243136799125746,0.239625013616215
-0.247084606740634,0.24096739906698
-0.251021863694007,0.242311453590558
-0.254948283107357,0.243657237558758
-0.258863578102173,0.245004811343389
-0.262767461799948,0.24635423531626
-0.266659647322173,0.247705569849179
-0.270539847790338,0.249058875313954
-0.274407776325934,0.250414212082395
-0.278263146050453,0.251771640526311
-0.282105670085387,0.253131221017509
-0.285935061552225,0.254493013927799
-0.289751033572459,0.255857079628989
-0.29355329926758,0.257223478492888
-0.29734157175908,0.258592270891304
-0.301115564168449,0.259963517196047
-0.304874989617178,0.261337277778925
-0.308619561226759,0.262713613011746
-0.312348992118683,0.26409258326632
-0.31606299541444,0.265474248914454
-0.319761284235523,0.266858670327959
-0.323443571703421,0.268245907878641
-0.327109570939626,0.269636021938311
-0.33075899506563,0.271029072878777
-0.334391557202923,0.272425121071847
-0.338006970472996,0.27382422688933
-0.341604947997341,0.275226450703034
-0.345185202897448,0.276631852884769
-0.34874744829481,0.278040493806344
-0.352291397310915,0.279452433839566
-0.355816763067257,0.280867733356244
-0.359323258685326,0.282286452728188
-0.362810597286613,0.283708652327206
-0.36627849199261,0.285134392525106
-0.369726655924806,0.286563733693697
-0.373154802204694,0.287996736204788
-0.376562643953765,0.289433460430188
-0.379949894293509,0.290873966741705
-0.383316266345418,0.292318315511147
-0.386661473230983,0.293766567110325
-0.389985228071695,0.295218781911046
-0.393287243989045,0.296675020285118
-0.396567234104524,0.298135342604351
-0.399824911539623,0.299599809240554
-0.403059989415834,0.301068480565534
-0.406272180854647,0.302541416951102
-0.409461198977553,0.304018678769064
-0.412626756906045,0.305500326391231
-0.415768567761612,0.30698642018941
-0.418886344665746,0.308477020535411
-0.421979800739938,0.309972187801042
-0.42504864910568,0.311471982358111
-0.428092602884461,0.312976464578428
-0.431111375197774,0.314485694833801
-0.434104679167109,0.315999733496039
-0.437072227913958,0.31751864093695
-0.440013734559811,0.319042477528344
-0.44292891222616,0.320571303642028
-0.445817474034496,0.322105179649812
-0.448679133106309,0.323644165923504
-0.451513602563092,0.325188322834913
-0.454320595526335,0.326737710755847
-0.457099825117529,0.328292390058116
-0.459851004458166,0.329852421113527
-0.462573846669736,0.33141786429389
-0.46526806487373,0.332988779971014
-0.467933372191641,0.334565228516706
-0.470569481744958,0.336147270302776
-0.473176106655172,0.337734965701032
-0.475752960043776,0.339328375083283
-0.47829975503226,0.340927558821338
-0.480816204742115,0.342532577287005
-0.483302022294833,0.344143490852094
-0.485756920811903,0.345760359888412
-0.488180613414818,0.347383244767768
-0.490572813225069,0.349012205861971
-0.492933233364147,0.35064730354283
-0.495261586953542,0.352288598182154
-0.497557587114746,0.353936150151751
-0.49982094696925,0.355590019823429
-0.502051379638546,0.357250267568998
-0.504248598244123,0.358916953760266
-0.506412315907474,0.360590138769042
-0.508542245750089,0.362269882967134
-0.51063810089346,0.363956246726352
-0.512699594459078,0.365649290418503
-0.514726439568433,0.367349074415397
-0.516718349343017,0.369055659088842
-0.518675036904321,0.370769104810647
-0.520596215373836,0.37248947195262
-0.522481597873053,0.374216820886571
-0.524330897523463,0.375951211984308
-0.526143827446558,0.377692705617639
-0.527920100763828,0.379441362158374
-0.529659430596765,0.381197241978321
-0.53136153006686,0.382960405449288
-0.533026112295603,0.384730912943085
-0.534652890404486,0.386508824831519
-0.536241577515,0.388294201486401
-0.537791886748636,0.390087103279537
-0.539303531226886,0.391887590582738
-0.54077622407124,0.393695723767812
-0.542209678403189,0.395511563206566
-0.543603607344224,0.397335169270811
-0.544957724015837,0.399166602332355
-0.546271741539519,0.401005922763006
-0.547545373036761,0.402853190934574
-0.548778331629054,0.404708467218866
-0.549970330437888,0.406571811987692
-0.551121082584756,0.408443285612859
-0.552230301191148,0.410322948466178
-0.553297699378555,0.412210860919456
-0.554322990268469,0.414107083344503
-0.55530588698238,0.416011676113126
-0.55624610264178,0.417924699597135
-0.55714335036816,0.419846214168338
-0.55799734328301,0.421776280198544
-0.558807794507823,0.423714958059561
-0.559574417164088,0.425662308123199
-0.560296924373298,0.427618390761266
-0.560975029256943,0.429583266345571
-0.561608444936514,0.431556995247921
-0.562196884533503,0.433539637840127
-0.562740061169401,0.435531254493997
-0.563237687965698,0.437531905581339
-0.563689478043885,0.439541651473962
-0.564095144525455,0.441560552543674
-0.564454400531898,0.443588669162285
-0.564766959184705,0.445626061701604
-0.565032533605367,0.447672790533437
-0.565250836915375,0.449728916029596
-0.565421582236221,0.451794498561887
-0.565544482689395,0.45386959850212
-0.565619251396389,0.455954276222104
-0.565645601478693,0.458048592093647
-0.5656232460578,0.460152606488558
-0.565551898255199,0.462266379778645
-0.565431271192382,0.464389972335718
-0.565261077990841,0.466523444531584
-0.565041031772066,0.468666856738053
-0.564770845657548,0.470820269326933
-0.564450232768778,0.472983742670033
-0.564078906227248,0.475157337139162
-0.563656579154449,0.477341113106127
-0.563182964671871,0.479535130942739
-0.562657775901007,0.481739451020806
-0.562080725963346,0.483954133712136
-0.56145152798038,0.486179239388538
-0.560769895073601,0.48841482842182
-0.560035540364499,0.490660961183792
-0.559248176974565,0.492917698046262
-0.558407518025291,0.495185099381038
-0.557513276638167,0.49746322555993
-0.556565165934685,0.499752136954746
-0.555562899036335,0.502051893937295
-0.55450618906461,0.504362556879385
-0.553394749141,0.506684186152826
-0.552228292386996,0.509016842129425
-0.551006531924089,0.511360585180992
-0.54972918087377,0.513715475679334
-0.54839595235753,0.516081573996262
-0.547006559496862,0.518458940503583
-0.545560715413254,0.520847635573107
-0.5440581332282,0.523247719576641
-0.54249852606319,0.525659252885994
-0.540881607039714,0.528082295872976
-0.539207089279264,0.530516908909395
-0.537474685903332,0.532963152367059
-0.535684110033408,0.535421086617779
-0.533835074790983,0.53789077203336
-0.531927293297548,0.540372268985613
-0.529960478674595,0.542865637846347
-0.527934344043615,0.54537093898737
-0.525848602526099,0.54788823278049
-0.523702967243537,0.550417579597516
-0.521497151317422,0.552959039810258
-0.519230867869243,0.555512673790523
-0.516903830020493,0.558078541910121
-0.514515750892662,0.56065670454086
-0.512066343607241,0.563247222054549
-0.509555321285722,0.565850154822996
-0.506982397049595,0.568465563218009
-0.504347284020352,0.5710935076114
-0.501649695319484,0.573734048374974
-0.498889344068482,0.576387245880541
-0.496065943388837,0.57905316049991
-0.49317920640204,0.58173185260489
-0.490228846229582,0.584423382567289
-0.487214575992955,0.587127810758916
-0.484136108813649,0.589845197551579
-0.480993157813155,0.592575603317088
-0.477785436112966,0.59531908842725
-0.47451265683457,0.598075713253876
-0.471174533099461,0.600845538168772
-0.467770778029129,0.603628623543748
-0.464301104745065,0.606425029750613
-0.460765226368759,0.609234817161175
-0.460765226368759,0.609234817161175
-0.457189447095786,0.612026125865572
-0.453600416188719,0.614767167081483
-0.44999836436955,0.617458107872027
-0.446383522360271,0.620099115300324
-0.442756120882875,0.622690356429495
-0.439116390659354,0.62523199832266
-0.435464562411701,0.627724208042937
-0.431800866861907,0.630167152653449
-0.428125534731966,0.632560999217314
-0.424438796743869,0.634905914797652
-0.420740883619608,0.637202066457583
-0.417032026081177,0.639449621260229
-0.413312454850567,0.641648746268707
-0.409582400649771,0.64379960854614
-0.405842094200781,0.645902375155645
-0.402091766225589,0.647957213160345
-0.398331647446188,0.649964289623358
-0.39456196858457,0.651923771607804
-0.390782960362728,0.653835826176803
-0.386994853502653,0.655700620393477
-0.383197878726339,0.657518321320944
-0.379392266755776,0.659289096022324
-0.375578248312959,0.661013111560738
-0.371756054119878,0.662690534999305
-0.367925914898527,0.664321533401146
-0.364088061370898,0.665906273829381
-0.360242724258982,0.667444923347129
-0.356390134284774,0.668937649017511
-0.352530522170263,0.670384617903646
-0.348664118637444,0.671785997068655
-0.344791154408308,0.673141953575657
-0.340911860204848,0.674452654487773
-0.337026466749056,0.675718266868123
-0.333135204762924,0.676938957779825
-0.329238304968445,0.678114894286002
-0.325335998087611,0.679246243449773
-0.321428514842414,0.680333172334257
-0.317516085954847,0.681375848002574
-0.313598942146902,0.682374437517845
-0.309677314140572,0.68332910794319
-0.305751432657848,0.684240026341729
-0.301821528420723,0.685107359776581
-0.297887832151189,0.685931275310866
-0.293950574571239,0.686711940007706
-0.290009986402865,0.687449520930218
-0.28606629836806,0.688144185141525
-0.282119741188815,0.688796099704745
-0.278170545587123,0.689405431682999
-0.274218942284976,0.689972348139407
-0.270265162004367,0.690497016137088
-0.266309435467288,0.690979602739163
-0.262351993395731,0.691420275008751
-0.258393066511689,0.691819200008974
-0.254432885537154,0.69217654480295
-0.250471681194118,0.692492476453799
-0.246509684204574,0.692767162024643
-0.242547125290514,0.6930007685786
-0.23858423517393,0.69319346317879
-0.234621244576814,0.693345412888335
-0.23065838422116,0.693456784770353
-0.226695884828959,0.693527745887965
-0.222733977122204,0.69355846330429
-0.218772891822886,0.693549104082449
-0.214812859652999,0.693499835285562
-0.210854111334534,0.693410823976749
-0.206896877589485,0.69328223721913
-0.202941389139842,0.693114242075824
-0.1989878767076,0.692907005609952
-0.195036571014749,0.692660694884634
-0.191087702783282,0.692375476962989
-0.187141502735192,0.692051518908138
-0.183198201592471,0.691688987783201
-0.179258030077111,0.691288050651298
-0.175321218911105,0.690848874575548
-0.171387998816445,0.690371626619073
-0.167458600515123,0.689856473844991
-0.163533254729131,0.689303583316423
-0.159612192180462,0.688713122096488
-0.155695643591109,0.688085257248308
-0.151783839683063,0.687420155835001
-0.147877011178317,0.686717984919688
-0.143975388798864,0.685978911565489
-0.140079203266695,0.685203102835524
-0.136188685303802,0.684390725792912
-0.13230406563218,0.683541947500775
-0.128425574973818,0.682656935022231
-0.12455344405071,0.681735855420401
-0.120687903584849,0.680778875758405
-0.116829184298226,0.679786163099363
-0.112977516912834,0.678757884506394
-0.109133132150666,0.67769420704262
-0.105296260733713,0.676595297771159
-0.101467133383967,0.675461323755132
-0.0976459808234221,0.674292452057659
-0.0938330337740695,0.67308884974186
-0.0900285229579018,0.671850683870855
-0.0862326790969113,0.670578121507764
-0.0824457329130902,0.669271329715706
-0.078667915128431,0.667930475557802
-0.0748994564649261,0.666555726097173
-0.0711405876445676,0.665147248396937
-0.0673915393893479,0.663705209520215
-0.0636525424212594,0.662229776530127
-0.0599238274622945,0.660721116489793
-0.0562056252344453,0.659179396462333
-0.0524981664597044,0.657604783510867
-0.0488016818600639,0.655997444698514
-0.0451164021575162,0.654357547088396
-0.0414425580740538,0.652685257743632
-0.0377803803316688,0.650980743727341
-0.0341300996523536,0.649244172102645
-0.0304919467581005,0.647475709932662
-0.026866152370902,0.645675524280514
-0.0232529472127502,0.643843782209319
-0.0196525620056376,0.641980650782198
-0.0160652274715565,0.640086297062272
-0.0124911743324992,0.638160888112659
-0.00893063331045799,0.63620459099648
-0.00538383512742518,0.634217572776855
-0.00185101050539327,0.632200000516904
0.00166760983364553,0.630152041279748
0.00517179516769894,0.628073862128505
0.00866131477477454,0.625965630126296
0.01213593793288,0.623827512336241
0.015595433920023,0.621659675821461
0.0190395720142113,0.619462287645074
0.0224681214934524,0.617235514870201
0.0258808516357541,0.614979524559962
0.0292775317191241,0.612694483777478
0.0326579310215699,0.610380559585867
0.0360218188210993,0.60803791904825
0.0393689643957199,0.605666729227748
0.0426991370234395,0.603267157187479
0.0460121059822656,0.600839369990565
0.049307640550206,0.598383534700124
0.0525855100052683,0.595899818379278
0.0558454836254602,0.593388388091146
0.0590873306887893,0.590849410898847
0.0623108204732634,0.588283053865503
0.104784234916618,0.619990284922287
0.0687018053176769,0.583068868528157
0.0233234116190358,0.55659358501822
0.0750165923827623,0.577747168584067
0.0782184998065193,0.605252177072416
0.0324609979810985,0.545589896835029
0.118312658372899,0.539920520758319
0.0538917166220909,0.549293447783202
0.0904580818563171,0.56398131313314
0.0858624033539276,0.566694456201362
0.114486144712442,0.600741606389134
0.099476847331048,0.555411952839473
0.102440696789104,0.552504860616453
0.153294697545271,0.53665421656867
0.146279977367241,0.552203286086997
0.111201797954817,0.543634006455675
0.114077913533928,0.540627752781911
0.152533299209827,0.488839340453778
0.0894976674333841,0.573309153692983
0.12257027573499,0.531463423783783
0.0843913579799104,0.514429373560215
0.103396520444793,0.53454689730241
0.0916920126614886,0.563108715346997
0.18026961099373,0.559526562429841
0.136257087629649,0.515714339317988
0.138922304744583,0.512494745572572
0.0938671720878798,0.515620479765628
0.144178747934515,0.505987117734441
0.112999163554098,0.531461290459616
0.149334998257916,0.499389349854048
0.151874974289687,0.496057081055802
0.154389209938848,0.492702778436351
0.159672288011931,0.450250875914498
0.159339537201372,0.485928739986311
0.206669879498744,0.446577356701874
0.145075518377594,0.472181731412849
0.129504645408318,0.508579093246487
0.153110437964127,0.476289231820331
0.187141015494764,0.464616510101918
0.142818920369946,0.459259851129796
0.205153323664482,0.49831557006614
0.143129389571699,0.4909075657349
0.138008522533812,0.448178341125855
0.150114558349503,0.411343299870097
0.143609475886076,0.453927988681394
0.164430492570453,0.395218258628441
0.193357565649555,0.404691518333594
0.200837790455958,0.451603697075197
0.192969367824741,0.43247034342448
0.183392623811287,0.474453308564096
0.162435908080813,0.440095659354196
0.198913130705853,0.421246900798919
0.200833521539983,0.417468479514868
0.202723096107672,0.413671699798251
0.204581623686928,0.409856728712188
0.206408873555758,0.4060237333198
0.208204614992171,0.402172880684205
0.209968617274173,0.398304337868526
0.211700649679772,0.39441827193588
0.213400481486977,0.390514849949389
0.215067881973794,0.386594238972172
0.216702620418232,0.38265660606735
0.218304466098298,0.378702118298042
0.219873188291999,0.374730942727368
0.221408556277344,0.370743246418449
0.222910339332341,0.366739196434404
0.224378306734995,0.362718959838354
0.225812227763317,0.358682703693417
0.227211871695312,0.354630595062716
0.22857700780899,0.350562801009368
0.229907405382356,0.346479488596495
0.23120283369342,0.342380824887217
0.232463062020189,0.338266976944653
0.23368785964067,0.334138111831923
0.234876995832871,0.329994396612148
0.2360302398748,0.325835998348447
0.237147361044464,0.321663084103941
0.238228128619872,0.317475820941749
0.239272311879031,0.313274375924991
0.240279680099947,0.309058916116788
0.24125000256063,0.30482960858026
0.242183048539087,0.300586620378525
0.243078587313326,0.296330118574706
0.243936388161353,0.29206027023192
0.244756220361178,0.28777724241329
0.245537853190806,0.283481202181933
0.246281055928247,0.279172316600972
0.246985597851508,0.274850752733524
0.247651248238596,0.270516677642711
0.24827777636752,0.266170258391653
0.248864951516286,0.261811662043469
0.249412542962903,0.25744105566128
0.249920319985378,0.253058606308205
0.250388051861719,0.248664481047365
0.250815507869933,0.244258846941879
0.251202457288029,0.239841871054868
0.251548669394013,0.235413720449451
0.251853913465894,0.230974562188749
0.252117958781679,0.226524563335881
0.252340574619376,0.222063890953968
0.252521530256993,0.217592712106129
0.252660594972536,0.213111193855485
0.252757538044015,0.208619503265155
0.252812128749436,0.20411780739826
0.252824136366808,0.19960627331792
0.252793330174137,0.195085068087254
0.252719479449432,0.190554358769383
0.2526023534707,0.186014312427426
0.252441721515948,0.181465096124504
0.252237352863186,0.176906876923737
0.25198901679042,0.172339821888244
0.251696482575657,0.167764098081145
0.251359519496906,0.163179872565562
0.250977896832175,0.158587312404612
0.25055138385947,0.153986584661418
0.2500797498568,0.149377856399098
0.249562764102172,0.144761294680773
0.249000195873594,0.140137066569562
0.248391814449073,0.135505339128586
0.247737389106618,0.130866279420964
0.247036689124236,0.126220054509818
0.246289483779934,0.121566831458266
0.245495542351721,0.116906777329428
0.244654634117604,0.112240059186425
0.24376652835559,0.107566844092377
0.242830994343687,0.102887299110403
0.241847801359903,0.0982015913036247
0.240816718682246,0.0935098877351603
0.239737515588724,0.0888123554681309
0.238609961357343,0.0841091615656559
0.237433825266112,0.0794004730908559
0.236208876593038,0.0746864571068503
0.234934884616129,0.0699672806767596
0.233611618613392,0.0652431108637034
0.232238847862836,0.0605141147308021
0.230816341642468,0.0557804593411753
0.229343869230296,0.0510423117579435
0.227821199904327,0.046299839044226
0.226248102942568,0.0415532082631436
0.224624347623029,0.0368025864778157
0.222949703223716,0.0320481407513627
0.221223939022636,0.0272900381469042
0.219446824297799,0.0225284457275607
0.21761812832721,0.0177635305564517
0.215737620388879,0.0129954596966977
0.213805069760812,0.00822440021141818
0.211820245721018,0.00345051916373373
0.209782917547504,-0.00132601638323629
0.207692854518277,-0.00610503936637127
0.205549825911346,-0.0108863827225517
0.203353601004717,-0.0156698793886572
0.2011039490764,-0.0204553623015681
0.1988006394044,-0.025242664398164
0.196443441266727,-0.0300316186153252
0.194032123941387,-0.0348220578899316
0.191566456706389,-0.0396138151588633
0.18904620883974,-0.044406723359
0.186471149619447,-0.0492006154272221
0.183841048323519,-0.0539953243004092
0.181155674229963,-0.0587906829154417
0.178414796616786,-0.0635865242091991
0.175618184761997,-0.068382681118562
0.172765607943603,-0.0731789865804098
0.169856835439612,-0.0779752735316229
0.166891636528031,-0.0827713749090811
0.163869780486868,-0.0875671236496646
0.16079103659413,-0.092362352690253
0.157655174127826,-0.0971568949677268
0.154461962365964,-0.101950583418966
0.151211170586549,-0.10674325098085
0.147902568067592,-0.111534730590259
0.144535924087098,-0.116324855184073
0.141111007923076,-0.121113457699172
0.137627588853534,-0.125900371072437
0.134085436156478,-0.130685428240746
0.130484319109917,-0.135468462140981
0.126824006991859,-0.140249305710021
0.123104269080311,-0.145027791884746
0.11932487465328,-0.149803753602035
0.115485592988775,-0.154577023798771
0.111586193364803,-0.159347435411831
0.107626445059372,-0.164114821378096
0.103606117350489,-0.168879014634446
0.0995249795161623,-0.173639848117762
0.0953828008343994,-0.178397154764922
0.0911793505832077,-0.183150767512808
0.0869143980405954,-0.187900519298298
0.0825877124845697,-0.192646243058274
0.0781990631931385,-0.197387771729615
0.0737482194443092,-0.2021249382492
0.06923495051609,-0.206857575553911
0.064659025686488,-0.211585516580627
0.0600202142335113,-0.216308594266228
0.0553182854351672,-0.221026641547594
0.0505530085694637,-0.225739491361605
0.0457241529144082,-0.230446976645141
0.0408314877480087,-0.235148930335081
0.0358747823482724,-0.239845185368307
0.0308538059932075,-0.244535574681698
0.0257683279608212,-0.249219931212134
0.0206181175291216,-0.253898087896495
0.0154029439761158,-0.258569877671661
0.0101225765798121,-0.263235133474512
0.00477678461821764,-0.267893688241928
-0.000634662630659422,-0.272545374910789
-0.00611199588881187,-0.277190026417975
-0.0116554458782316,-0.281827475700365
-0.0172652433209114,-0.286457555694841
-0.0229416189388433,-0.291080099338282
-0.0286848034540197,-0.295694939567567
-0.0344950275884328,-0.300301909319578
-0.0403725220640754,-0.304900841531194
-0.0463175176029391,-0.309491569139294
-0.0523302449270169,-0.314073925080759
-0.0584109347583008,-0.31864774229247
-0.0645598178187832,-0.323212853711305
-0.0707771248304562,-0.327769092274145
-0.0770630865153127,-0.33231629091787
-0.0834179335953443,-0.33685428257936
-0.0898418967925441,-0.341382900195495
-0.0963352068289037,-0.345901976703155
-0.102898094426416,-0.35041134503922
-0.109530790307073,-0.354910838140569
-0.116233525192867,-0.359400288944084
-0.123006529805791,-0.363879530386643
-0.129850034867836,-0.368348395405128
-0.136764271100996,-0.372806716936417
-0.143749469227262,-0.377254327917391
-0.150805859968626,-0.38169106128493
-0.157933674047083,-0.386116749975913
-0.165133142184622,-0.390531226927222
-0.172404495103237,-0.394934325075735
-0.17974796352492,-0.399325877358334
-0.187163778171664,-0.403705716711897
-0.19465216976546,-0.408073676073305
-0.202213369028302,-0.412429588379438
-0.209847606682181,-0.416773286567175
-0.21755511344909,-0.421104603573398
-0.22533612005102,-0.425423372334985
-0.233190857209966,-0.429729425788817
-0.241119555647917,-0.434022596871774
-0.249122446086869,-0.438302718520736
-0.257199759248811,-0.442569623672582
-0.265351725855737,-0.446823145264193
-0.27357857662964,-0.451063116232449
-0.28188054229251,-0.45528936951423
-0.290257853566342,-0.459501738046416
-0.298710741173126,-0.463700054765886
-0.307239435834856,-0.467884152609521
-0.315844168273524,-0.472053864514202
-0.324525169211121,-0.476209023416806
-0.333282669369642,-0.480349462254216
-0.342116899471076,-0.48447501396331
-0.351028090237418,-0.488585511480969
-0.360016472390659,-0.492680787744072
-0.369082276652793,-0.496760675689501
-0.378225733745809,-0.500825008254134
-0.387447074391703,-0.504873618374852
-0.396746529312465,-0.508906338988535
-0.406124329230088,-0.512923003032062
