0.520391346703949,0.836969756079322
0.518414535448942,0.82472537028291
0.516439572887633,0.812599866638479
0.514466512522359,0.800592726321359
0.512495407855461,0.788703430506877
0.510526312389275,0.776931460370362
0.50855927962614,0.765276297087143
0.506594363068395,0.753737421832549
0.504631616218379,0.742314315781909
0.502671092578429,0.731006460110552
0.500712845650885,0.719813335993805
0.498756928938084,0.708734424606998
0.496803395942366,0.697769207125461
0.494852300166069,0.68691716472452
0.49290369511153,0.676177778579506
0.490957634281089,0.665550529865747
0.489014171177085,0.655034899758572
0.487073359301855,0.64463036943331
0.485135252157738,0.634336420065288
0.483199903247073,0.624152532829837
0.481267366072198,0.614078188902285
0.479337694135451,0.60411286945796
0.477410940939171,0.594256055672192
0.475487159985697,0.584507228720309
0.473566404777367,0.57486586977764
0.471648728816519,0.565331460019513
0.469734185605492,0.555903480621258
0.467822828646625,0.546581412758203
0.465914711442255,0.537364737605678
0.464009887494722,0.52825293633901
0.462108410306363,0.519245490133528
0.460210333379518,0.510341880164562
0.458315710216525,0.50154158760744
0.456424594319721,0.492844093637491
0.454537039191447,0.484248879430043
0.452653098334039,0.475755426160426
0.450772825249838,0.467363215003967
0.44889627344118,0.459071727135997
0.447023496410405,0.450880443731844
0.445154547659851,0.442788845966836
0.443289480691857,0.434796415016302
0.441428349008761,0.426902632055571
0.439571206112901,0.419106978259972
0.437718105506616,0.411408934804833
0.435869100692245,0.403807982865484
0.434024245172126,0.396303603617252
0.432183592448597,0.388895278235468
0.430347196023997,0.381582487895459
0.428515109400664,0.374364713772554
0.426687386080938,0.367241437042083
0.424864079567155,0.360212138879373
0.423045243361655,0.353276300459754
0.421230930966777,0.346433402958555
0.419421195884858,0.339682927551103
0.417616091618238,0.333024355412729
0.415815671669254,0.32645716771876
0.414019989540245,0.319980845644526
0.412229098733551,0.313594870365355
0.410443052751508,0.307298723056576
0.408661905096456,0.301091884893517
0.406885709270732,0.294973837051509
0.405114518776677,0.288944060705879
0.403348387116627,0.283002037031955
0.401587367792922,0.277147247205068
0.3998315143079,0.271379172400545
0.3980808801639,0.265697293793715
0.396335518863259,0.260101092559908
0.394595483908317,0.254590049874452
0.392860828801411,0.249163646912675
0.391131607044881,0.243821364849907
0.389407872141065,0.238562684861476
0.387689677592301,0.233387088122711
0.385977076900928,0.22829405580894
0.384270123569284,0.223283069095494
0.382568871099708,0.218353609157699
0.380873372994538,0.213505157170886
0.379183682756113,0.208737194310382
0.377499853886771,0.204049201751517
0.375821939888851,0.199440660669619
0.37414999426469,0.194911052240018
0.372484070516629,0.190459857638041
0.370824222147004,0.186086558039018
0.369170502658155,0.181790634618277
0.36752296555242,0.177571568551148
0.365881664332137,0.173428841012958
0.364246652499646,0.169361933179038
0.362617983557284,0.165370326224714
0.360995711007389,0.161453501325317
0.359379888352302,0.157610939656175
0.357770569094359,0.153842122392617
0.356167806735899,0.150146530709972
0.354571654779261,0.146523645783567
0.352982166726784,0.142972948788733
0.351399396080805,0.139493920900798
0.349823396343663,0.13608604329509
0.348254221017697,0.132748797146938
0.346691923605246,0.129481663631672
0.345136557608647,0.12628412392462
0.343588176530239,0.12315565920111
0.342046833872361,0.120095750636472
0.340512583137351,0.117103879406034
0.338985477827548,0.114179526685125
0.337465571445289,0.111322173649074
0.335952917492914,0.108531301473209
0.334447569472762,0.10580639133286
0.332949580887169,0.103146924403355
0.331459005238476,0.100552381860022
0.32997589602902,0.0980222448781914
0.32850030676114,0.095555994633191
0.327032290937174,0.0931531123003496
0.325571902059461,0.0908130790549961
0.324119193630339,0.0885353760724592
0.322674219152148,0.0863194845280678
0.321237032127224,0.0841648855971506
0.319807686057908,0.0820710604550364
0.318386234446536,0.0800374902770538
0.316972730795449,0.0780636562385318
0.315567228606983,0.0761490395147991
0.314169781383478,0.0742931212811843
0.312780442627272,0.0724953827130164
0.311399265840704,0.0707553049856239
0.310026304526112,0.0690723692743359
0.308661612185835,0.0674460567544809
0.30730524232221,0.0658758486013878
0.305957248437578,0.0643612259903854
0.304617684034275,0.0629016700968024
0.30328660261464,0.0614966620959674
0.301964057681013,0.0601456831632094
0.300650102735731,0.0588482144738572
0.299344791281133,0.0576037372032394
0.298048176819557,0.0564117325266849
0.296760312853342,0.0552716816195223
0.295481252884826,0.0541830656570804
0.294211050416348,0.0531453658146882
0.292949758950247,0.0521580632676742
0.29169743198886,0.0512206391913673
0.290454123034526,0.0503325747610962
0.289219885589585,0.0494933511521898
0.287994773156373,0.0487024495399766
0.28677883923723,0.0479593510997857
0.285572137334494,0.0472635370069457
0.284374720950504,0.0466144884367853
0.283186643587597,0.0460116865646333
0.282007958748113,0.0454546125658185
0.280838719934391,0.0449427476156698
0.279678980648768,0.0444755728895157
0.278528794393583,0.0440525695626852
0.277388214671174,0.043673218810507
0.27625729498388,0.0433370018083097
0.27513608883404,0.0430433997314223
0.274024649723991,0.0427918937551734
0.272923031156073,0.0425819650548919
0.271831286632624,0.0424130948059064
0.270749469655982,0.042284764183546
0.269677633728485,0.042196454363139
0.268615832352473,0.0421476465200145
0.267564119030284,0.0421378218295012
0.266522547264256,0.0421664614669278
0.265491170556728,0.0422330466076232
0.264470042410038,0.0423370584269159
0.263459216326524,0.042477978100135
0.262458745808526,0.042655286802609
0.261468684358381,0.0428684657096668
0.260489085478428,0.0431169959966372
0.259520002671006,0.0434003588388489
0.258561489438453,0.0437180354116306
0.257613599283107,0.0440695068903112
0.256676385707308,0.0444542544502194
0.255749902213392,0.044871759266684
0.2548342023037,0.0453215025150337
0.253929339480569,0.0458029653705973
0.253035367246338,0.0463156290087036
0.252152339103345,0.0468589746046814
0.251280308553929,0.0474324833338594
0.250419329100429,0.0480356363715663
0.249569454245182,0.048667914893131
0.248730737490527,0.0493288000738822
0.247903232338803,0.0500177730891486
0.247086992292349,0.0507343151142592
0.246282070853502,0.0514779073245425
0.245488521524601,0.0522480308953274
0.244706397807985,0.0530441670019427
0.243935753205992,0.0538657968197171
0.24317664122096,0.0547124015239794
0.242429115355229,0.0555834622900582
0.241693229111136,0.0564784602932825
0.24096903599102,0.057396876708981
0.240256589497219,0.0583381927124825
0.239555943132073,0.0593018894791157
0.238867150397919,0.0602874481842093
0.238190264797096,0.0612943500030922
0.237525339831942,0.0623220761110931
0.236872429004796,0.0633701076835408
0.236231585817996,0.0644379258957641
0.235602863773882,0.0655250119230916
0.23498631637479,0.0666308469408523
0.23438199712306,0.0677549121243748
0.233789959521031,0.0688966886489879
0.23321025707104,0.0700556576900204
0.232642943275427,0.0712313004228011
0.232088071636529,0.0724230980226586
0.231545695656685,0.0736305316649219
0.231015868838234,0.0748530825249196
0.230498644683514,0.0760902317779805
0.229994076694863,0.0773414605994334
0.229502218374621,0.0786062501646071
0.229023123225125,0.0798840816488303
0.228556844748714,0.0811744362274318
0.228103436447726,0.0824767950757403
0.227662951824501,0.0837906393690847
0.227235444381376,0.0851154502827936
0.22682096762069,0.0864507089921959
0.226419575044781,0.0877958966726203
0.226031320155988,0.0891504944993956
0.225656256456649,0.0905139836478506
0.225294437449103,0.091885845293314
0.224945916635689,0.0932655606111145
0.224610747518744,0.0946526107765811
0.224288983600607,0.0960464769650423
0.223980678383617,0.0974466403518271
0.223685885370113,0.098852582112264
0.223404658062432,0.100263783421682
0.223137049962913,0.10167972545541
0.222883114573894,0.103099889388776
0.222642905397715,0.10452375639711
0.222416475936713,0.10595080765574
0.222203879693228,0.107380524339994
0.222005170169596,0.108812387625203
0.221820400868158,0.110245878686693
0.221649625291252,0.111680478699795
0.221492896941215,0.113115668839837
0.221350269320386,0.114550930282147
0.221221795931105,0.115985744202055
0.221107530275709,0.11741959177489
0.221007525856536,0.118851954175979
0.220921836175926,0.120282312580652
0.220850514736217,0.121710148164237
0.220793615039747,0.123134942102064
0.220751190588855,0.12455617556946
0.220723294885879,0.125973329741756
0.220709981433158,0.127385885794279
0.22071130373303,0.128793324902359
0.220727315287833,0.130195128241324
0.220758069599907,0.131590776986502
0.220803620171589,0.132979752313223
0.220864020505218,0.134361535396816
0.220939324103133,0.135735607412609
0.221029584467672,0.137101449535931
0.221134855101173,0.138458542942111
0.221255189505976,0.139806368806477
0.221390641184417,0.141144408304358
0.221541263638837,0.142472142611083
0.221707110371573,0.143789052901982
0.221888234884964,0.145094620352381
0.222084690681348,0.146388326137611
0.222296531263065,0.147669651433001
0.222523810132451,0.148938077413878
0.222766580791846,0.150193085255571
0.223024896743589,0.15143415613341
0.223298811490017,0.152660771222724
0.223588378533469,0.15387241169884
0.223893651376284,0.155068558737088
0.2242146835208,0.156248693512796
0.224551528469356,0.157412297201294
0.22490423972429,0.158558850977909
0.225272870787941,0.159687836017972
0.225657475162646,0.16079873349681
0.226058106350746,0.161891024589752
0.226474817854577,0.162964190472127
0.226907663176478,0.164017712319264
0.227356695818789,0.165051071306492
0.227821969283847,0.166063748609139
0.228303537073991,0.167055225402535
0.228801452691559,0.168024982862007
0.22931576963889,0.168972502162885
0.229846541418323,0.169897264480497
0.230393821532195,0.170798750990172
0.230957663482846,0.17167644286724
0.231538120772613,0.172529821287028
0.232135246903836,0.173358367424866
0.232749095378852,0.174161562456082
0.2333797197,0.174938887556005
0.23402717336962,0.175689823899963
0.234691509890048,0.176413852663287
0.235372782763624,0.177110455021303
0.236071045492686,0.177779112149342
0.236786351579572,0.178419305222732
0.237518754526622,0.179030515416801
0.238268307836173,0.179612223906879
0.239035065010564,0.180163911868294
0.239819079552134,0.180685060476375
0.240620404963221,0.181175150906451
0.241439094746163,0.18163366433385
0.242275202403299,0.182060081933901
0.243128781436967,0.182453884881933
0.243999885349506,0.182814554353276
0.244888567643254,0.183141571523256
0.245794881820551,0.183434417567204
0.246718881383733,0.183692573660448
0.24766061983514,0.183915520978317
0.248620150677111,0.18410274069614
0.249597527411983,0.184253713989245
0.250592803542096,0.184367922032961
0.251606032569787,0.184444846002617
0.252637267997395,0.184483967073541
0.253686563327258,0.184484766421063
0.254753972061716,0.184446725220512
0.255839547703107,0.184369324647215
0.256943343753768,0.184252045876502
0.258065413716039,0.184094370083701
0.259205811092258,0.183895778444142
0.260364589384764,0.183655752133153
0.261541802095894,0.183373772326063
0.262737502727988,0.1830493201982
0.263951744783383,0.182681876924894
0.265184581764419,0.182270923681472
0.266436067173434,0.181815941643265
0.267706254512766,0.1813164119856
0.268995197284754,0.180771815883807
0.270302948991736,0.180181634513214
0.271629563136051,0.17954534904915
0.272975093220037,0.178862440666943
0.274339592746033,0.178132390541923
0.275723115216377,0.177354679849419
0.277125714133408,0.176528789764758
0.278547442999464,0.17565420146327
0.279988355316883,0.174730396120284
0.281448504588005,0.173756854911128
0.282927944315167,0.172733059011131
0.284426728000708,0.171658489595622
0.285944909146966,0.170532627839929
0.287482541256281,0.169354954919382
0.289039677830989,0.168124952009309
0.290616372373431,0.166842100285039
0.292212678385944,0.165505880921901
0.293828649370868,0.164115775095223
0.295464338830539,0.162671263980334
0.297119800267297,0.161171828752564
0.298795087183481,0.15961695058724
0.300490253081428,0.158006110659692
0.302205351463478,0.156338790145248
0.303940435831968,0.154614470219236
0.305695559689238,0.152832632056987
0.307470776537625,0.150992756833829
0.309266139879469,0.14909432572509
0.311081703217107,0.147136819906098
0.312917520052878,0.145119720552184
0.31477364388912,0.143042508838676
0.316650128228173,0.140904665940902
0.318547026572375,0.138705673034191
0.320464392424063,0.136445011293872
0.322402279285577,0.134122161895273
0.324360740659254,0.131736606013725
0.326339830047435,0.129287824824554
0.328339600952456,0.126775299503091
0.330360106876656,0.124198511224663
0.332401401322375,0.1215569411646
0.334463537791949,0.11885007049823
0.336546569787719,0.116077380400882
0.338650550812022,0.113238352047886
0.340775534367196,0.110332466614568
0.342921573955581,0.10735920527626
0.345088723079515,0.104318049208288
0.347277035241335,0.101208479585982
0.349486563943382,0.0980299775846714
0.351717362687992,0.0947820243796838
0.353969484977505,0.0914641011463486
0.356242984314259,0.0880756890599942
0.358537914200593,0.0846162692959497
0.360854328138845,0.0810853230295436
0.363192279631354,0.077482331436105
0.365551822180457,0.0738067756909623
0.367933009288494,0.0700581369694445
0.370335894457803,0.0662358964468803
0.372760531190722,0.0623395352985985
0.37520697298959,0.0583685346999277
0.377675273356745,0.054322375826197
0.380165485794527,0.0502005398527348
0.382677663805272,0.0460025079548702
0.385211860891321,0.0417277613079316
0.387768130555011,0.0373757810872481
0.39034652629868,0.0329460484681483
0.392947101624668,0.0284380446259611
0.395569910035312,0.0238512507360149
0.398215005032952,0.0191851479736391
0.400882440119925,0.0144392175141618
0.403572268798571,0.00961294053291228
0.406284544571227,0.0047057982052189
0.409019320940232,-0.000282728293589166
0.411776651407925,-0.00535315778818358
0.414556589476643,-0.0105060091032351
0.417359188648727,-0.0157418010634155
0.420184502426513,-0.0210610524933955
0.42303258431234,-0.0264642822178467
0.425903487808548,-0.03195200906144
0.428797266417474,-0.0375247518488471
0.431713973641457,-0.0431830294047387
0.434653662982835,-0.0489273605537866
0.437616387943947,-0.0547582641206614
0.440602202027132,-0.0606762589300349
0.440602202027132,-0.0606762589300349
0.443573969018622,-0.0666201139871901
0.446494669093468,-0.0725282957046353
0.449364530337235,-0.0784008690178792
0.452183780835486,-0.0842378988624307
0.454952648673786,-0.0900394501737984
0.457671361937699,-0.0958055878874912
0.460340148712788,-0.101536376939018
0.462959237084618,-0.107231882263887
0.465528855138753,-0.112892168797607
0.468049230960757,-0.118517301475687
0.470520592636194,-0.124107345233636
0.472943168250629,-0.129662365006962
0.475317185889625,-0.135182425731175
0.477642873638746,-0.140667592341783
0.479920459583557,-0.146117929774294
0.482150171809622,-0.151533502964218
0.484332238402504,-0.156914376847063
0.486466887447768,-0.162260616358337
0.488554347030978,-0.167572286433551
0.490594845237699,-0.172849452008212
0.492588610153493,-0.178092178017829
0.494535869863926,-0.183300529397911
0.496436852454561,-0.188474571083966
0.498291786010962,-0.193614368011505
0.500100898618694,-0.198719985116034
0.501864418363321,-0.203791487333063
0.503582573330406,-0.2088289395981
0.505255591605514,-0.213832406846655
0.50688370127421,-0.218801954014237
0.508467130422056,-0.223737646036353
0.510006107134617,-0.228639547848512
0.511500859497458,-0.233507724386224
0.512951615596142,-0.238342240584997
0.514358603516234,-0.24314316138034
0.515722051343297,-0.247910551707761
0.517042187162896,-0.25264447650277
0.518319239060594,-0.257345000700875
0.519553435121956,-0.262012189237584
0.520745003432546,-0.266646107048407
0.521894172077929,-0.271246819068853
0.523001169143667,-0.275814390234429
0.524066222715326,-0.280348885480646
0.525089560878469,-0.28485036974301
0.526071411718661,-0.289318907957032
0.527012003321465,-0.29375456505822
0.527911563772446,-0.298157405982083
0.528770321157167,-0.302527495664129
0.529588503561193,-0.306864899039868
0.530366339070089,-0.311169681044807
0.531104055769417,-0.315441906614456
0.531801881744742,-0.319681640684324
0.532460045081629,-0.323888948189919
0.533078773865642,-0.32806389406675
0.533658296182343,-0.332206543250325
0.534198840117298,-0.336316960676154
0.534700633756071,-0.340395211279745
0.535163905184225,-0.344441359996607
0.535588882487326,-0.348455471762249
0.535975793750936,-0.352437611512179
0.53632486706062,-0.356387844181907
0.536636330501943,-0.36030623470694
0.536910412160467,-0.364192848022788
0.537147340121758,-0.368047749064959
0.53734734247138,-0.371871002768962
0.537510647294896,-0.375662674070307
0.537637482677871,-0.3794228279045
0.537728076705868,-0.383151529207053
0.537782657464452,-0.386848842913472
0.537801453039188,-0.390514833959267
0.537784691515638,-0.394149567279947
0.537732600979367,-0.39775310781102
0.53764540951594,-0.401325520487996
0.53752334521092,-0.404866870246382
0.537366636149872,-0.408377222021687
0.537175510418359,-0.411856640749421
0.536950196101945,-0.415305191365092
0.536690921286196,-0.418722938804209
0.536397914056674,-0.42210994800228
0.536071402498944,-0.425466283894815
0.53571161469857,-0.428792011417321
0.535318778741117,-0.432087195505309
0.534893122712147,-0.435351901094286
0.534434874697226,-0.438586193119761
0.533944262781918,-0.441790136517243
0.533421515051785,-0.444963796222241
0.532866859592394,-0.448107237170264
0.532280524489307,-0.451220524296819
0.531662737828089,-0.454303722537417
0.531013727694305,-0.457356896827565
0.530333722173516,-0.460380112102773
0.52962294935129,-0.463373433298549
0.528881637313188,-0.466336925350402
0.528110014144776,-0.469270653193841
0.527308307931617,-0.472174681764374
0.526476746759276,-0.47504907599751
0.525615558713317,-0.477893900828759
0.524724971879303,-0.480709221193628
0.523805214342799,-0.483495102027626
0.522856514189369,-0.486251608266262
0.521879099504577,-0.488978804845046
0.520873198373987,-0.491676756699485
0.519839038883163,-0.494345528765088
0.51877684911767,-0.496985185977365
0.517686857163071,-0.499595793271823
0.516569291104931,-0.502177415583972
0.515424379028813,-0.504730117849321
0.514252349020282,-0.507253965003377
0.513053429164902,-0.509749021981651
0.511827847548237,-0.51221535371965
0.51057583225585,-0.514653025152883
0.509297611373307,-0.517062101216859
0.507993412986171,-0.519442646847088
0.506663465180007,-0.521794726979076
0.505307996040378,-0.524118406548335
0.503927233652848,-0.526413750490371
0.502521406102982,-0.528680823740694
0.501090741476344,-0.530919691234812
0.499635467858498,-0.533130417908235
0.498155813335007,-0.535313068696471
0.496652005991437,-0.537467708535028
0.495124273913351,-0.539594402359416
0.493572845186313,-0.541693215105144
0.491997947895887,-0.543764211707719
0.490399810127638,-0.545807457102651
0.488778659967129,-0.547823016225449
0.487134725499925,-0.549810954011621
0.48546823481159,-0.551771335396675
0.483779415987687,-0.553704225316122
0.482068497113782,-0.555609688705469
0.480335706275437,-0.557487790500225
0.478581271558217,-0.559338595635899
0.476805421047687,-0.561162169048
0.47500838282941,-0.562958575672036
0.473190384988951,-0.564727880443517
0.471351655611873,-0.56647014829795
0.469492422783741,-0.568185444170845
0.467612914590118,-0.569873832997711
0.465713359116569,-0.571535379714055
0.463793984448658,-0.573170149255388
0.461855018671949,-0.574778206557217
0.459896689872007,-0.576359616555052
0.457919226134394,-0.5779144441844
0.455922855544676,-0.579442754380772
0.453907806188416,-0.580944612079675
0.451874306151179,-0.582420082216619
0.449822583518528,-0.583869229727111
0.447752866376029,-0.585292119546661
0.445665382809244,-0.586688816610779
0.443560360903738,-0.588059385854971
0.441438028745074,-0.589403892214748
0.439298614418818,-0.590722400625617
0.437142346010534,-0.592014976023088
0.434969451605784,-0.593281683342669
0.432780159290134,-0.594522587519869
0.430574697149147,-0.595737753490197
0.428353293268389,-0.596927246189162
0.426116175733422,-0.598091130552272
0.42386357262981,-0.599229471515036
0.421595712043119,-0.600342334012962
0.419312822058911,-0.601429782981561
0.417015130762752,-0.602491883356339
0.414702866240205,-0.603528700072806
0.412376256576834,-0.604540298066472
0.410035529858204,-0.605526742272843
0.407680914169878,-0.60648809762743
0.405312637597421,-0.607424429065741
0.402930928226396,-0.608335801523285
0.400536014142368,-0.60922227993557
0.398128123430902,-0.610083929238105
0.39570748417756,-0.610920814366399
0.393274324467907,-0.611733000255961
0.390828872387508,-0.6125205518423
0.388371356021926,-0.613283534060923
0.385902003456725,-0.614022011847341
0.38342104277747,-0.614736050137061
0.380928702069724,-0.615425713865592
0.378425209419053,-0.616091067968444
0.375910792911018,-0.616732177381125
0.373385680631186,-0.617349107039143
0.37085010066512,-0.617941921878008
0.368304281098384,-0.618510686833227
0.365748450016542,-0.619055466840311
0.363182835505159,-0.619576326834767
0.360607665649798,-0.620073331752105
0.358023168536023,-0.620546546527833
0.355429572249399,-0.620996036097459
0.35282710487549,-0.621421865396493
0.35021599449986,-0.621824099360444
0.347596469208072,-0.622202802924819
0.344968757085692,-0.622558041025129
0.342333086218282,-0.62288987859688
0.339689684691408,-0.623198380575584
0.337038780590633,-0.623483611896747
0.334380602001522,-0.623745637495879
0.331715377009638,-0.623984522308489
0.329043333700545,-0.624200331270085
0.326364700159809,-0.624393129316176
0.323679704472992,-0.62456298138227
0.320988574725659,-0.624709952403878
0.318291539003374,-0.624834107316506
0.315588825391701,-0.624935511055665
0.312880661976205,-0.625014228556862
0.310167276842448,-0.625070324755607
0.307448898075997,-0.625103864587408
0.304725753762413,-0.625114912987774
0.301998071987262,-0.625103534892213
0.299266080836108,-0.625069795236235
0.296530008394515,-0.625013758955348
0.293790082748047,-0.624935490985062
0.291046531982267,-0.624835056260884
0.288299584182741,-0.624712519718323
0.285549467435032,-0.624567946292889
0.282796409824704,-0.624401400920089
0.280040639437322,-0.624212948535433
0.277282384358449,-0.62400265407443
0.27452187267365,-0.623770582472588
0.271759332468488,-0.623516798665415
0.268994991828528,-0.623241367588422
0.266229078839334,-0.622944354177115
0.263461821586471,-0.622625823367005
0.260693448155501,-0.6222858400936
0.257924186631989,-0.621924469292408
0.2551542651015,-0.621541775898939
0.252383911649597,-0.6211378248487
0.249613354361845,-0.620712681077202
0.246842821323807,-0.620266409519952
0.244072540621048,-0.619799075112459
0.241302740339132,-0.619310742790233
0.238533648563622,-0.618801477488781
0.235765493380084,-0.618271344143613
0.232998502874081,-0.617720407690238
0.230232905131177,-0.617148733064163
0.227468928236936,-0.616556385200898
0.224706800276923,-0.615943429035952
0.221946749336701,-0.615309929504833
0.219189003501835,-0.614655951543049
0.216433790857888,-0.613981560086111
0.213681339490425,-0.613286820069526
0.21093187748501,-0.612571796428804
0.208185632927207,-0.611836554099452
0.205442833902581,-0.611081158016981
0.202703708496694,-0.610305673116897
0.199968484795112,-0.609510164334711
0.197237390883398,-0.608694696605931
0.194510654847116,-0.607859334866066
0.191788504771832,-0.607004144050624
0.189071168743107,-0.606129189095114
0.186358874846508,-0.605234534935045
0.183651851167598,-0.604320246505926
0.18095032579194,-0.603386388743266
0.1782545268051,-0.602433026582572
0.175564682292641,-0.601460224959355
0.172881020340127,-0.600468048809122
0.170203769033122,-0.599456563067382
0.167533156457191,-0.598425832669645
0.164869410697898,-0.597375922551419
0.162212759840806,-0.596306897648212
0.15956343197148,-0.595218822895533
0.156921655175484,-0.594111763228892
0.154287657538382,-0.592985783583797
0.151661667145738,-0.591840948895756
0.149043912083116,-0.590677324100279
0.146434620436081,-0.589494974132873
0.143834020290196,-0.588293963929049
0.141242339731025,-0.587074358424314
0.138659806844133,-0.585836222554177
0.136086649715084,-0.584579621254148
0.133523096429441,-0.583304619459734
0.13096937507277,-0.582011282106445
0.128425713730633,-0.580699674129789
0.125892340488595,-0.579369860465275
0.123369483432221,-0.578021906048413
0.120857370647074,-0.576655875814709
0.118356230218718,-0.575271834699674
0.115866290232718,-0.573869847638816
0.113387778774637,-0.572449979567644
0.11092092393004,-0.571012295421666
0.108465953784491,-0.569556860136391
0.106023096423554,-0.568083738647329
0.103592579932793,-0.566592995889987
0.101174632397771,-0.565084696799874
0.0987694819040544,-0.5635589063125
0.0963773565372056,-0.562015689363373
0.0939984843827892,-0.560455110888002
0.0916330935263693,-0.558877235821895
0.08928141205351,-0.557282129100561
0.0869436680497753,-0.555669855659509
0.0846200896007295,-0.554040480434248
0.0823109047919365,-0.552394068360286
0.0800163417089605,-0.550730684373133
0.0777366284373656,-0.549050393408296
0.0754719930627159,-0.547353260401285
0.0732226636705754,-0.545639350287609
0.0709888683465084,-0.543908728002775
0.0687708351760788,-0.542161458482294
0.0665687922448508,-0.540397606661673
0.0643829676383884,-0.538617237476421
0.0622135894422559,-0.536820415862048
0.0600608857420172,-0.535007206754061
0.0579250846232365,-0.533177675087971
0.0558064141714779,-0.531331885799284
0.0537051024723055,-0.529469903823511
0.0516213776112832,-0.527591794096159
0.0495554676739755,-0.525697621552738
0.0475076007459461,-0.523787451128756
0.0454780049127594,-0.521861347759723
0.0434669082599794,-0.519919376381146
0.0414745388731701,-0.517961601928535
0.0395011248378957,-0.515988089337398
0.0375468942397203,-0.513998903543244
0.0356120751642079,-0.511994109481582
0.0336968956969227,-0.50997377208792
0.0318015839234288,-0.507937956297768
0.0299263679292903,-0.505886727046634
0.0280714758000712,-0.503820149270027
0.0262371356213357,-0.501738287903455
0.0244235754786479,-0.499641207882427
0.0226310234575718,-0.497528974142452
0.0208597076436716,-0.495401651619039
0.0191098561225115,-0.493259305247697
0.0173816969796553,-0.491101999963933
0.0156754583006674,-0.488929800703258
0.0139913681711117,-0.48674277240118
0.0123296546765524,-0.484540979993207
0.0106905459025535,-0.482324488414848
0.00907426993467929,-0.480093362601612
0.00748105485849364,-0.477847667489007
0.00591112875956085,-0.475587468012544
0.00436471972344486,-0.473312829107729
0.0028420558357099,-0.471023815710072
0.00134336518191994,-0.468720492755082
-0.000131124152360784,-0.466402925178267
-0.00158118408156831,-0.464071177915137
-0.00300658652013839,-0.461725315901199
-0.00440710338250707,-0.459365404071963
-0.00578250658311012,-0.456991507362938
-0.00713256803638357,-0.454603690709631
-0.00845705965676319,-0.452202019047553
-0.00975575335868499,-0.44978655731221
-0.0110284210565848,-0.447357370439114
-0.0122748346648986,-0.444914523363771
-0.0134947660980621,-0.442458081021692
-0.0146879872705115,-0.439988108348383
-0.0158542700966824,-0.437504670279356
-0.0169933864910109,-0.435007831750117
-0.0181051083679328,-0.432497657696176
-0.0191892076418841,-0.429974213053042
-0.0202454562273005,-0.427437562756222
-0.0212736260386182,-0.424887771741227
-0.0222734889902728,-0.422324904943565
-0.0232448169967005,-0.419749027298745
-0.0241873819723369,-0.417160203742274
-0.0251009558316181,-0.414558499209663
-0.0259853104889799,-0.411943978636419
-0.0268402178588582,-0.409316706958052
-0.027665449855689,-0.40667674911007
-0.0284607783939081,-0.404024170027982
-0.0292259753879515,-0.401359034647297
-0.029960812752255,-0.398681407903523
-0.0306650624012546,-0.39599135473217
-0.0313384962493861,-0.393288940068746
-0.0319808862110854,-0.390574228848759
-0.0325920042007884,-0.387847286007719
-0.0331716221329311,-0.385108176481133
-0.0337195119219494,-0.382356965204512
-0.0342354454822791,-0.379593717113364
-0.0347191947283561,-0.376818497143197
-0.0351705315746164,-0.37403137022952
-0.0355892279354958,-0.371232401307842
-0.0359750557254302,-0.368421655313672
-0.0363277868588556,-0.365599197182518
-0.0366471932502079,-0.362765091849889
-0.0369330468139229,-0.359919404251294
-0.0371851194644365,-0.357062199322242
-0.0374031831161846,-0.354193541998241
-0.0375870096836033,-0.351313497214801
-0.0377363710811282,-0.348422129907429
-0.0378510392231954,-0.345519505011635
-0.0379307860242407,-0.342605687462927
-0.0379753833987001,-0.339680742196814
-0.0379846032610095,-0.336744734148805
-0.0379582175256047,-0.333797728254409
-0.0378959981069216,-0.330839789449134
-0.0377977169193962,-0.327870982668489
-0.0376631458774643,-0.324891372847982
-0.0374920568955619,-0.321901024923124
-0.0372842218881248,-0.318900003829422
-0.0370394127695889,-0.315888374502385
-0.0367574014543902,-0.312866201877521
-0.0364379598569646,-0.30983355089034
-0.0360808598917479,-0.306790486476351
-0.035685873473176,-0.303737073571061
-0.0352527725156849,-0.30067337710998
-0.0347813289337105,-0.297599462028617
-0.0342713146416886,-0.29451539326248
-0.0337225015540551,-0.291421235747078
-0.033134661585246,-0.288317054417919
-0.0325075666496972,-0.285202914210513
-0.0318409886618445,-0.282078880060369
-0.0318409886618445,-0.282078880060369
-0.0311680141045675,-0.27896735858772
-0.0305217410826793,-0.27589064396083
-0.0299019589435159,-0.27284863243725
-0.0293084570344134,-0.26984122027453
-0.0287410247027079,-0.266868303730222
-0.0281994512957356,-0.263929779061876
-0.0276835261608324,-0.261025542527044
-0.0271930386453344,-0.258155490383276
-0.0267277780965779,-0.255319518888124
-0.0262875338618987,-0.252517524299138
-0.0258720952886331,-0.249749402873869
-0.0254812517241171,-0.247015050869868
-0.0251147925156868,-0.244314364544686
-0.0247725070106782,-0.241647240155874
-0.0244541845564276,-0.239013573960982
-0.0241596145002709,-0.236413262217563
-0.0238885861895442,-0.233846201183167
-0.0236408889715837,-0.231312287115344
-0.0234163121937254,-0.228811416271646
-0.0232146452033054,-0.226343484909623
-0.0230356773476597,-0.223908389286827
-0.0228791979741246,-0.221506025660808
-0.022744996430036,-0.219136290289118
-0.02263286206273,-0.216799079429307
-0.0225425842195428,-0.214494289338926
-0.0224739522478104,-0.212221816275527
-0.0224267554948688,-0.209981556496659
-0.0224007833080543,-0.207773406259875
-0.0223958250347029,-0.205597261822724
-0.0224116700221506,-0.203453019442759
-0.0224481076177336,-0.201340575377529
-0.0225049271687879,-0.199259825884586
-0.0225819180226496,-0.197210667221481
-0.0226788695266548,-0.195192995645764
-0.0227955710281396,-0.193206707414987
-0.0229318118744401,-0.191251698786701
-0.0230873814128924,-0.189327866018456
-0.0232620689908325,-0.187435105367803
-0.0234556639555965,-0.185573313092293
-0.0236679556545206,-0.183742385449478
-0.0238987334349408,-0.181942218696908
-0.0241477866441932,-0.180172709092135
-0.0244149046296138,-0.178433752892708
-0.0246998767385389,-0.176725246356179
-0.0250024923183043,-0.175047085740099
-0.0253225407162464,-0.173399167302019
-0.025659811279701,-0.171781387299489
-0.0260140933560044,-0.170193641990062
-0.0263851762924925,-0.168635827631287
-0.0267728494365016,-0.167107840480715
-0.0271769021353676,-0.165609576795899
-0.0275971237364267,-0.164140932834387
-0.0280333035870149,-0.162701804853732
-0.0284852310344683,-0.161292089111484
-0.0289526954261231,-0.159911681865195
-0.0294354861093153,-0.158560479372415
-0.0299333924313809,-0.157238377890694
-0.0304462037396562,-0.155945273677585
-0.0309737093814771,-0.154681062990638
-0.0315156987041797,-0.153445642087404
-0.0320719610551002,-0.152238907225433
-0.0326422857815746,-0.151060754662278
-0.0332264622309389,-0.149911080655488
-0.0338242797505294,-0.148789781462615
-0.0344355276876821,-0.147696753341209
-0.035059995389733,-0.146631892548822
-0.0356974722040183,-0.145595095343004
-0.036347747477874,-0.144586257981307
-0.0370106105586363,-0.143605276721281
-0.0376858507936411,-0.142652047820477
-0.0383732575302246,-0.141726467536447
-0.039072620115723,-0.14082843212674
-0.0397837278974722,-0.139957837848909
-0.0405063702228083,-0.139114580960504
-0.0412403364390675,-0.138298557719075
-0.0419854158935858,-0.137509664382175
-0.0427413979336993,-0.136747797207353
-0.0435080719067442,-0.136012852452161
-0.0442852271600564,-0.135304726374149
-0.045072653040972,-0.134623315230869
-0.0458701388968273,-0.133968515279872
-0.0466774740749581,-0.133340222778708
-0.0474944479227007,-0.132738333984929
-0.0483208497873912,-0.132162745156085
-0.0491564690163655,-0.131613352549727
-0.0500010949569598,-0.131090052423406
-0.0508545169565102,-0.130592741034673
-0.0517165243623527,-0.13012131464108
-0.0525869065218235,-0.129675669500176
-0.0534654527822586,-0.129255701869514
-0.0543519524909942,-0.128861308006643
-0.0552461949953662,-0.128492384169115
-0.0561479696427109,-0.128148826614481
-0.0570570657803642,-0.127830531600291
-0.0579732727556622,-0.127537395384098
-0.0588963799159412,-0.12726931422345
-0.059826176608537,-0.1270261843759
-0.0607624521807859,-0.126807902098999
-0.0617049959800239,-0.126614363650296
-0.0626535973535871,-0.126445465287344
-0.0636080456488115,-0.126301103267694
-0.0645681302130334,-0.126181173848895
-0.0655336403935887,-0.1260855732885
-0.0665043655378135,-0.126014197844058
-0.0674800949930439,-0.125966943773121
-0.0684606181066161,-0.125943707333241
-0.069445724225866,-0.125944384781967
-0.0704352026981299,-0.12596887237685
-0.0714288428707437,-0.126017066375443
-0.0724264340910436,-0.126088863035295
-0.0734277657063656,-0.126184158613957
-0.0744326270640458,-0.126302849368982
-0.0754408075114204,-0.126444831557918
-0.0764520963958253,-0.126610001438318
-0.0774662830645968,-0.126798255267732
-0.0784831568650708,-0.127009489303711
-0.0795025071445835,-0.127243599803807
-0.0805241232504709,-0.127500483025569
-0.0815477945300691,-0.12778003522655
-0.0825733103307143,-0.128082152664299
-0.0836004599997425,-0.128406731596368
-0.0846290328844897,-0.128753668280308
-0.0856588183322921,-0.12912285897367
-0.0866896056904859,-0.129514199934005
-0.0877211843064069,-0.129927587418863
-0.0887533435273914,-0.130362917685795
-0.0897858727007754,-0.130820086992354
-0.090818561173895,-0.131298991596088
-0.0918511982940863,-0.13179952775455
-0.0928835734086854,-0.13232159172529
-0.0939154758650283,-0.13286507976586
-0.0949466950104512,-0.133429888133809
-0.0959770201922902,-0.13401591308669
-0.0970062407578812,-0.134623050882052
-0.0980341460545605,-0.135251197777448
-0.0990605254296641,-0.135900250030427
-0.100085168230528,-0.136570103898542
-0.101107863804488,-0.137260655639341
-0.102128401498881,-0.137971801510378
-0.103146570661043,-0.138703437769202
-0.104162160638309,-0.139455460673365
-0.105174960778017,-0.140227766480418
-0.106184760427501,-0.14102025144791
-0.107191348934098,-0.141832811833394
-0.108194515645144,-0.142665343894421
-0.109194049907975,-0.14351774388854
-0.110189741069928,-0.144389908073304
-0.111181378478337,-0.145281732706263
-0.112168751480541,-0.146193114044968
-0.113151649423874,-0.147123948346969
-0.114129861655672,-0.148074131869819
-0.115103177523272,-0.149043560871067
-0.11607138637401,-0.150032131608266
-0.117034277555221,-0.151039740338964
-0.117991640414243,-0.152066283320715
-0.118943264298411,-0.153111656811068
-0.11988893855506,-0.154175757067575
-0.120828452531528,-0.155258480347786
-0.12176159557515,-0.156359722909252
-0.122688157033263,-0.157479381009525
-0.123607926253202,-0.158617350906154
-0.124520692582303,-0.159773528856692
-0.125426245367904,-0.160947811118689
-0.126324373957338,-0.162140093949697
-0.127214867697944,-0.163350273607265
-0.128097515937057,-0.164578246348944
-0.128972108022012,-0.165823908432287
-0.129838433300147,-0.167087156114844
-0.130696281118796,-0.168367885654165
-0.131545440825297,-0.169665993307802
-0.132385701766986,-0.170981375333305
-0.133216853291197,-0.172313927988226
-0.134038684745268,-0.173663547530115
-0.134850985476535,-0.175030130216524
-0.135653544832333,-0.176413572305003
-0.13644615216,-0.177813770053103
-0.13722859680687,-0.179230619718376
-0.138000668120279,-0.180664017558371
-0.138762155447565,-0.18211385983064
-0.139512848136063,-0.183580042792735
-0.140252535533109,-0.185062462702205
-0.14098100698604,-0.186561015816602
-0.14169805184219,-0.188075598393477
-0.142403459448898,-0.189606106690381
-0.143097019153497,-0.191152436964864
-0.143778520303325,-0.192714485474478
-0.144447752245718,-0.194292148476773
-0.145104504328012,-0.195885322229301
-0.145748565897543,-0.197493902989612
-0.146379726301646,-0.199117787015258
-0.146997774887659,-0.200756870563788
-0.147602501002917,-0.202411049892755
-0.148193693994756,-0.204080221259709
-0.148771143210512,-0.205764280922201
-0.149334637997522,-0.207463125137782
-0.149883967703121,-0.209176650164003
-0.150418921674645,-0.210904752258414
-0.150939289259432,-0.212647327678568
-0.151444859804816,-0.214404272682014
-0.151935422658133,-0.216175483526303
-0.152410767166721,-0.217960856468988
-0.152870682677915,-0.219760287767617
-0.153314958539051,-0.221573673679744
-0.153743384097464,-0.223400910462917
-0.154155748700493,-0.225241894374689
-0.154551841695471,-0.22709652167261
-0.154931452429736,-0.228964688614232
-0.155294370250623,-0.230846291457104
-0.155640384505469,-0.232741226458779
-0.15596928454161,-0.234649389876806
-0.156280859706382,-0.236570677968738
-0.15657489934712,-0.238504986992124
-0.156851192811161,-0.240452213204516
-0.157109529445841,-0.242412252863464
-0.157349698598497,-0.244385002226521
-0.157571489616463,-0.246370357551236
-0.157774691847077,-0.24836821509516
-0.157959094637674,-0.250378471115845
-0.158124487335591,-0.252401021870841
-0.158270659288163,-0.254435763617699
-0.158397399842727,-0.256482592613971
-0.158504498346618,-0.258541405117207
-0.158591744147173,-0.260612097384958
-0.158658926591729,-0.262694565674775
-0.15870583502762,-0.264788706244209
-0.158732258802183,-0.266894415350811
-0.158737987262754,-0.269011589252132
-0.15872280975667,-0.271140124205723
-0.158686515631266,-0.273279916469134
-0.158628894233878,-0.275430862299917
-0.158549734911843,-0.277592857955623
-0.158448827012496,-0.279765799693802
-0.158325959883174,-0.281949583772005
-0.158180922871213,-0.284144106447784
-0.158013505323948,-0.286349263978689
-0.157823496588717,-0.288564952622272
-0.157610686012854,-0.290791068636083
-0.157374862943697,-0.293027508277672
-0.15711581672858,-0.295274167804592
-0.156833336714841,-0.297530943474393
-0.156527212249816,-0.299797731544626
-0.156197232680839,-0.302074428272841
-0.155843187355249,-0.304360929916591
-0.155464865620379,-0.306657132733425
-0.155062056823568,-0.308962932980894
-0.15463455031215,-0.311278226916551
-0.154182135433463,-0.313602910797945
-0.153704601534841,-0.315936880882627
-0.153201737963621,-0.318280033428148
-0.152673334067139,-0.32063226469206
-0.152119179192732,-0.322993470931914
-0.151539062687734,-0.325363548405259
-0.150932773899484,-0.327742393369648
-0.150300102175315,-0.33012990208263
-0.149640836862566,-0.332525970801758
-0.14895476730857,-0.334930495784581
-0.148241682860666,-0.337343373288652
-0.147501372866188,-0.33976449957152
-0.146733626672474,-0.342193770890737
-0.145938233626858,-0.344631083503853
-0.145114983076677,-0.347076333668421
-0.144263664369268,-0.349529417641989
-0.143384066851965,-0.35199023168211
-0.142475979872106,-0.354458672046335
-0.141539192777027,-0.356934634992214
-0.140573494914063,-0.359418016777298
-0.13957867563055,-0.361908713659138
-0.138554524273826,-0.364406621895285
-0.137500830191225,-0.366911637743291
-0.136417382730083,-0.369423657460705
-0.135303971237738,-0.37194257730508
-0.134160385061525,-0.374468293533965
-0.13298641354878,-0.377000702404912
-0.131781846046839,-0.379539700175472
-0.130546471903038,-0.382085183103196
-0.129280080464714,-0.384637047445634
-0.127982461079202,-0.387195189460337
-0.126653403093839,-0.389759505404857
-0.12529269585596,-0.392329891536745
-0.123900128712902,-0.39490624411355
-0.122475491012001,-0.397488459392826
-0.121018572100593,-0.400076433632121
-0.119529161326013,-0.402670063088987
-0.118007048035599,-0.405269244020976
-0.116452021576686,-0.407873872685637
-0.11486387129661,-0.410483845340522
-0.113242386542707,-0.413099058243183
-0.111587356662314,-0.415719407651169
-0.109898571002766,-0.418344789822032
-0.1081758189114,-0.420975101013322
-0.106418889735551,-0.423610237482591
-0.104627572822557,-0.42625009548739
-0.102801657519752,-0.428894571285269
-0.100940933174473,-0.431543561133779
-0.0990451891340556,-0.434196961290472
-0.0971142147458367,-0.436854668012898
-0.0951477993571519,-0.439516577558608
-0.0931457323153374,-0.442182586185154
-0.0911078029677292,-0.444852590150085
-0.0890338006616635,-0.447526485710954
-0.0869235147444761,-0.45020416912531
-0.0847767345635036,-0.452885536650706
-0.0825932494660816,-0.455570484544691
-0.0803728487995464,-0.458258909064817
-0.0781153219112341,-0.460950706468634
-0.0758204581484808,-0.463645773013694
-0.0734880468586224,-0.466344004957548
-0.0711178773889953,-0.469045298557746
-0.0687097390869352,-0.47174955007184
-0.0662634212997785,-0.47445665575738
-0.0637787133748611,-0.477166511871917
-0.0612554046595193,-0.479879014673002
-0.0586932845010889,-0.482594060418187
-0.0560921422469063,-0.485311545365022
-0.0534517672443073,-0.488031365771057
-0.0507719488406282,-0.490753417893845
-0.0480524763832049,-0.493477597990935
-0.0452931392193736,-0.496203802319879
-0.0424937266964704,-0.498931927138229
-0.0396540281618314,-0.501661868703533
-0.0367738329627925,-0.504393523273345
-0.0338529304466901,-0.507126787105214
-0.03089110996086,-0.509861556456691
-0.0278881608526384,-0.512597727585328
-0.0248438724693614,-0.515335196748675
-0.0217580341583651,-0.518073860204283
-0.0186304352669855,-0.520813614209704
-0.0154608651425588,-0.523554355022487
-0.012249113132421,-0.526295978900185
-0.00899496858390825,-0.529038382100348
-0.00569822084435653,-0.531781460880527
-0.0023586592611021,-0.534525111498273
0.00102392681851918,-0.537269230211136
0.00444974804717096,-0.540013713276669
0.00791901507751747,-0.542758456952421
0.0114319385622222,-0.545503357495943
0.0149887291539496,-0.548248311164787
0.018589597505363,-0.550993214216504
0.0222347542691269,-0.553737962908644
0.0259244100979047,-0.556482453498758
0.0296587756443607,-0.559226582244398
0.0334380615611585,-0.561970245403114
0.0372624785009623,-0.564713339232457
0.0411322371164357,-0.567455759989978
0.045047548060243,-0.570197403933228
0.0490086219850477,-0.572938167319758
0.0530156695435142,-0.57567794640712
0.0570689013883058,-0.578416637452862
0.061168528172087,-0.581154136714538
0.0653147605475213,-0.583890340449697
0.0695078091672729,-0.586625144915891
0.0737478846840054,-0.589358446370671
0.0780351977503832,-0.592090141071587
0.0823699590190697,-0.59482012527619
0.0867523791427291,-0.597548295242032
0.0911826687740251,-0.600274547226663
0.095661038565622,-0.602998777487634
0.100187699170183,-0.605720882282497
0.104762861240373,-0.608440757868801
0.109386735428855,-0.611158300504099
0.114059532388294,-0.61387340644594
0.118781462771353,-0.616585971951877
0.123552737230696,-0.619295893279459
0.128373566418987,-0.622003066686238
0.13324416098889,-0.624707388429765
0.138164731593068,-0.62740875476759
0.143135488884187,-0.630107061957265
0.148156643514909,-0.632802206256341
0.153228406137899,-0.635494083922367
0.158350987405821,-0.638182591212896
0.163524597971338,-0.640867624385479
0.168749448487114,-0.643549079697666
0.174025749605814,-0.646226853407008
0.1793537119801,-0.648900841771056
0.184733546262638,-0.651570941047361
0.190165463106091,-0.654237047493474
0.195649673163123,-0.656899057366946
0.201186387086398,-0.659556866925327
0.206775815528579,-0.66221037242617
0.212418169142331,-0.664859470127024
0.218113658580318,-0.667504056285441
0.223862494495203,-0.670144027158972
0.229664887539651,-0.672779279005167
0.235521048366325,-0.675409708081577
0.241431187627889,-0.678035210645754
0.247395515977007,-0.680655682955248
0.253414244066344,-0.68327102126761
0.259487582548562,-0.685881121840391
0.265615742076326,-0.688485880931143
0.2717989333023,-0.691085194797415
0.278037366879148,-0.69367895969676
0.284331253459534,-0.696267071886728
0.290680803696121,-0.698849427624869
0.297086228241573,-0.701425923168735
0.303547737748555,-0.703996454775877
0.31006554286973,-0.706560918703846
0.316639854257763,-0.709119211210192
0.323270882565316,-0.711671228552466
0.329958838445055,-0.71421686698822
