-0.194536678882329,-0.359415168524036
-0.196672540370736,-0.355160226585906
-0.19881434684621,-0.350918567394705
-0.200961957519964,-0.346690167803973
-0.203115231603209,-0.342475004667253
-0.205274028307157,-0.338273054838083
-0.207438206843019,-0.334084295170005
-0.209607626422008,-0.32990870251656
-0.211782146255334,-0.325746253731289
-0.21396162555421,-0.321596925667732
-0.216145923529847,-0.317460695179429
-0.218334899393457,-0.313337539119922
-0.220528412356251,-0.309227434342751
-0.222726321629443,-0.305130357701458
-0.224928486424242,-0.301046286049582
-0.227134765951861,-0.296975196240665
-0.229345019423512,-0.292917065128247
-0.231559106050407,-0.288871869565869
-0.233776885043756,-0.284839586407072
-0.235998215614772,-0.280820192505397
-0.238222956974667,-0.276813664714383
-0.240450968334652,-0.272819979887573
-0.242682108905939,-0.268839114878506
-0.244916237899739,-0.264871046540724
-0.247153214527265,-0.260915751727767
-0.249392897999728,-0.256973207293176
-0.25163514752834,-0.253043390090491
-0.253879822324312,-0.249126276973254
-0.256126781598857,-0.245221844795005
-0.258375884563185,-0.241330070409285
-0.260626990428509,-0.237450930669634
-0.262879958406041,-0.233584402429594
-0.265134647706992,-0.229730462542705
-0.267390917542573,-0.225889087862508
-0.269648627123997,-0.222060255242543
-0.271907635662476,-0.218243941536351
-0.27416780236922,-0.214440123597473
-0.276428986455442,-0.210648778279451
-0.278691047132354,-0.206869882435823
-0.280953843611167,-0.203103412920132
-0.283217235103092,-0.199349346585918
-0.285481080819343,-0.195607660286721
-0.287745239971129,-0.191878330876083
-0.290009571769663,-0.188161335207544
-0.292273935426158,-0.184456650134645
-0.294538190151824,-0.180764252510926
-0.296802195157873,-0.177084119189929
-0.299065809655516,-0.173416227025194
-0.301328892855967,-0.169760552870262
-0.303591303970436,-0.166117073578673
-0.305852902210135,-0.162485766003968
-0.308113546786275,-0.158866606999689
-0.31037309691007,-0.155259573419375
-0.312631411792729,-0.151664642116568
-0.314888350645466,-0.148081789944808
-0.317143772679491,-0.144510993757637
-0.319397537106016,-0.140952230408593
-0.321649503136254,-0.13740547675122
-0.323899529981415,-0.133870709639056
-0.326147476852712,-0.130347905925643
-0.328393202961356,-0.126837042464522
-0.330636567518559,-0.123338096109234
-0.332877429735533,-0.119851043713318
-0.335115648823489,-0.116375862130317
-0.33735108399364,-0.11291252821377
-0.339583594457196,-0.109461018817218
-0.34181303942537,-0.106021310794202
-0.344039278109373,-0.102593380998263
-0.346262169720417,-0.0991772062829421
-0.348481573469713,-0.095772763501779
-0.350697348568475,-0.0923800295083149
-0.352909354227912,-0.0889989811560906
-0.355117449659237,-0.0856295952986468
-0.357321494073662,-0.0822718487895241
-0.359521346682399,-0.0789257184822634
-0.361716866696658,-0.0755911812304054
-0.363907913327652,-0.0722682138874909
-0.366094345786592,-0.0689567933070604
-0.368276023284691,-0.0656568963426549
-0.37045280503316,-0.062368499847815
-0.37262455024321,-0.0590915806760815
-0.374791118126054,-0.055826115680995
-0.376952367892902,-0.0525720817160964
-0.379108158754968,-0.0493294556349262
-0.381258349923462,-0.0460982142910255
-0.383402800609596,-0.0428783345379348
-0.385541370024582,-0.0396697932291948
-0.387673917379632,-0.0364725672183463
-0.389800301885957,-0.0332866333589302
-0.39192038275477,-0.030111968504487
-0.394034019197281,-0.0269485495085574
-0.396141070424703,-0.0237963532246824
-0.398241395648247,-0.0206553565064025
-0.400334854079125,-0.0175255362072586
-0.402421304928548,-0.0144068691807913
-0.404500607407729,-0.0112993322805413
-0.40657262072788,-0.00820290236004956
-0.408637204100211,-0.00511755627285668
-0.410694216735934,-0.00204327087250331
-0.412743517846262,0.00101997698746967
-0.414784966642406,0.00407221045352159
-0.416818422335578,0.00711345267211168
-0.418843744136989,0.0101437267896993
-0.420860791257852,0.0131630559527436
-0.422869422909377,0.0161714633077039
-0.424869498302777,0.0191689720010393
-0.426860876649263,0.0221556051792095
-0.428843417160047,0.0251313859886733
-0.430816979046341,0.0280963375758902
-0.432781421519357,0.0310504830873193
-0.434736603790305,0.0339938456694202
-0.436682385070399,0.0369264484686518
-0.438618624570849,0.0398483146314735
-0.440545181502868,0.0427594673043446
-0.442461915077667,0.0456599296337244
-0.444368684506457,0.0485497247660719
-0.446265349000451,0.0514288758478467
-0.44815176777086,0.054297406025508
-0.450027800028897,0.0571553384455149
-0.451893304985772,0.0600026962543268
-0.453748141852697,0.0628395025984028
-0.455592169840884,0.0656657806242024
-0.457425248161546,0.0684815534781847
-0.459247236025892,0.0712868443068091
-0.461057992645136,0.0740816762565348
-0.462857377230489,0.0768660724738209
-0.464645248993163,0.0796400561051268
-0.466421467144369,0.082403650296912
-0.46818589089532,0.0851568781956353
-0.469938379457226,0.0878997629477563
-0.4716787920413,0.0906323276997342
-0.473406987858753,0.0933545955980282
-0.475122826120797,0.0960665897890975
-0.476826166038644,0.0987683334194016
-0.478516866823505,0.1014598496354
-0.480194787686593,0.104141161583551
-0.481859787839118,0.106812292410314
-0.483511726492293,0.10947326526215
-0.485150462857329,0.112124103285516
-0.486775856145439,0.114764829626873
-0.488387765567833,0.117395467432679
-0.489986050335724,0.120016039849393
-0.491570569660323,0.122626570023476
-0.493141182752841,0.125227081101387
-0.494697748824492,0.127817596229583
-0.496240127086486,0.130398138554526
-0.497768176750035,0.132968731222674
-0.499281757026351,0.135529397380486
-0.500780727126645,0.138080160174421
-0.50226494626213,0.14062104275094
-0.503734273644016,0.143152068256501
-0.505188568483516,0.145673259837563
-0.506627689991842,0.148184640640586
-0.508051497380205,0.150686233812029
-0.509459849859816,0.153178062498351
-0.510852606641888,0.155660149846011
-0.512229626937632,0.158132519001469
-0.513590769958261,0.160595193111185
-0.514935894914985,0.163048195321616
-0.516264861019016,0.165491548779223
-0.517577527481567,0.167925276630465
-0.518873753513849,0.170349402021801
-0.520153398327073,0.17276394809969
-0.521416321132451,0.175168938010592
-0.522662381141196,0.177564394900966
-0.523891437564518,0.179950341917271
-0.52510334961363,0.182326802205966
-0.526297976499743,0.184693798913511
-0.527475177434069,0.187051355186365
-0.528634811627819,0.189399494170987
-0.529776738292206,0.191738239013836
-0.530900816638441,0.194067612861372
-0.532006905877735,0.196387638860055
-0.533094865221302,0.198698340156342
-0.534164553880351,0.200999739896694
-0.535215831066095,0.20329186122757
-0.536248555989746,0.205574727295428
-0.537262587862516,0.207848361246729
-0.538257785895615,0.210112786227932
-0.539234009300256,0.212368025385495
-0.540191117287651,0.214614101865879
-0.541128969069011,0.216851038815542
-0.542047423855548,0.219078859380943
-0.542946340858474,0.221297586708542
-0.543825579289,0.223507243944799
-0.544684998358338,0.225707854236172
-0.5455244572777,0.22789944072912
-0.546343815258298,0.230082026570104
-0.547142931511343,0.232255634905582
-0.547921665248047,0.234420288882013
-0.548679875679621,0.236576011645857
-0.549417422017278,0.238722826343573
-0.55013416347223,0.24086075612162
-0.550829959255687,0.242989824126458
-0.551504668578862,0.245110053504546
-0.552158150652966,0.247221467402342
-0.552790264689211,0.249324088966307
-0.553400869898809,0.2514179413429
-0.553989825492971,0.253503047678579
-0.554556990682909,0.255579431119805
-0.555102224679836,0.257647114813035
-0.555625386694962,0.259706121904731
-0.5561263359395,0.261756475541351
-0.55660493162466,0.263798198869353
-0.557061032961655,0.265831315035198
-0.557494499161697,0.267855847185345
-0.557905189435997,0.269871818466253
-0.558292962995767,0.271879252024381
-0.558657679052219,0.273878171006188
-0.558999196816564,0.275868598558135
-0.559317375500014,0.277850557826679
-0.559612074313781,0.279824071958281
-0.559883152469077,0.281789164099399
-0.560130469177112,0.283745857396493
-0.5603538836491,0.285694174996022
-0.560553255096252,0.287634140044445
-0.560728442729778,0.289565775688222
-0.560879305760892,0.291489105073812
-0.561005703400805,0.293404151347674
-0.561107494860729,0.295310937656268
-0.561184539351874,0.297209487146052
-0.561236696085454,0.299099822963486
-0.56126382427268,0.300981968255029
-0.561265783124762,0.302855946167141
-0.561242431852915,0.30472177984628
-0.561193629668348,0.306579492438907
-0.561119235782273,0.30842910709148
-0.561019109405903,0.310270646950458
-0.560893109750449,0.312104135162301
-0.560741096027123,0.313929594873468
-0.560562927447136,0.315747049230418
-0.5603584632217,0.317556521379612
-0.560127562562028,0.319358034467506
-0.55987008467933,0.321151611640562
-0.559585888784818,0.322937276045239
-0.559274834089705,0.324715050827995
-0.558936779805201,0.32648495913529
-0.558571585142518,0.328247024113583
-0.558179109312869,0.330001268909333
-0.557759211527465,0.331747716669001
-0.557311750997518,0.333486390539044
-0.556836586934239,0.335217313665922
-0.55633357854884,0.336940509196095
-0.555802585052533,0.338656000276022
-0.555243465656529,0.340363810052161
-0.554656079572041,0.342063961670973
-0.55404028601028,0.343756478278917
-0.553395944182457,0.345441383022451
-0.552722913299785,0.347118699048036
-0.552021052573475,0.34878844950213
-0.551290221214739,0.350450657531192
-0.550530278434789,0.352105346281682
-0.549741083444835,0.35375253890006
-0.548922495456091,0.355392258532784
-0.548074373679768,0.357024528326313
-0.547196577327077,0.358649371427107
-0.54628896560923,0.360266810981626
-0.545351397737439,0.361876870136328
-0.544383732922915,0.363479572037673
-0.543385830376871,0.36507493983212
-0.542357549310518,0.366662996666128
-0.541298748935068,0.368243765686156
-0.540209288461732,0.369817270038665
-0.539089027101723,0.371383532870112
-0.537937824066252,0.372942577326958
-0.53675553856653,0.374494426555661
-0.535542029813769,0.376039103702681
-0.534297157019182,0.377576631914477
-0.533020779393979,0.379107034337509
-0.531712756149373,0.380630334118235
-0.530372946496575,0.382146554403115
-0.529001209646797,0.383655718338609
-0.527597404811251,0.385157849071175
-0.526161391201148,0.386652969747272
-0.5246930280277,0.38814110351336
-0.523192174502119,0.389622273515899
-0.521658689835617,0.391096502901347
-0.520092433239405,0.392563814816164
-0.518493263924695,0.394024232406809
-0.516861041102699,0.395477778819741
-0.515195623984628,0.39692447720142
-0.513496871781694,0.398364350698304
-0.511764643705109,0.399797422456854
-0.509998798966085,0.401223715623528
-0.508199196775833,0.402643253344786
-0.506365696345565,0.404056058767086
-0.504498156886493,0.405462155036888
-0.502596437609828,0.406861565300652
-0.500660397726782,0.408254312704837
-0.498689896448568,0.409640420395902
-0.496684792986396,0.411019911520305
-0.494644946551478,0.412392809224508
-0.492570216355026,0.413759136654967
-0.490460461608252,0.415118916958144
-0.488315541522368,0.416472173280497
-0.486135315308585,0.417818928768486
-0.483919642178115,0.41915920656857
-0.481668381342169,0.420493029827207
-0.47938139201196,0.421820421690858
-0.477058533398699,0.423141405305981
-0.474699664713598,0.424456003819036
-0.472304645167868,0.425764240376483
-0.469873333972721,0.427066138124779
-0.46740559033937,0.428361720210386
-0.464901273479025,0.429651009779761
-0.462360242602899,0.430934029979364
-0.459782356922202,0.432210803955655
-0.457167475648148,0.433481354855093
-0.454515457991947,0.434745705824136
-0.451826163164811,0.436003880009245
-0.449099450377953,0.437255900556878
-0.446335178842583,0.438501790613495
-0.443533207769913,0.439741573325555
-0.440693396371156,0.440975271839517
-0.437815603857523,0.44220290930184
-0.434899689440225,0.443424508858985
-0.431945512330474,0.444640093657409
-0.428952931739483,0.445849686843573
-0.425921806878462,0.447053311563936
-0.422851996958624,0.448250990964956
-0.41974336119118,0.449442748193094
-0.416595758787342,0.450628606394808
-0.413409048958321,0.451808588716557
-0.41018309091533,0.452982718304802
-0.40691774386958,0.454151018306
-0.403612867032283,0.455313511866612
-0.40026831961465,0.456470222133097
-0.396883960827893,0.457621172251914
-0.393459649883225,0.458766385369522
-0.389995245991856,0.459905884632381
-0.386490608364998,0.461039693186949
-0.382945596213864,0.462167834179686
-0.379360068749664,0.463290330757052
-0.375733885183611,0.464407206065505
-0.372066904726916,0.465518483251505
-0.368358986590791,0.466624185461512
-0.364609989986448,0.467724335841983
-0.360819774125098,0.468818957539379
-0.356988198217954,0.469908073700159
-0.353115121476226,0.470991707470782
-0.349200403111127,0.472069881997708
-0.345243902333868,0.473142620427395
-0.341245478355661,0.474209945906303
-0.337204990387718,0.475271881580892
-0.33312229764125,0.47632845059762
-0.328997259327469,0.477379676102947
-0.324829734657588,0.478425581243331
-0.320619582842817,0.479466189165233
-0.316366663094368,0.480501523015112
-0.312070834623453,0.481531605939426
-0.307731956641284,0.482556461084635
-0.303349888359073,0.483576111597199
-0.29892448898803,0.484590580623576
-0.294455617739369,0.485599891310226
-0.2899431338243,0.486604066803609
-0.285386896454036,0.487603130250182
-0.280786764839788,0.488597104796407
-0.276142598192767,0.489586013588741
-0.271454255724186,0.490569879773644
-0.266721596645256,0.491548726497576
-0.26194448016719,0.492522576906995
-0.257122765501197,0.493491454148362
-0.252256311858492,0.494455381368135
-0.247344978450284,0.495414381712773
-0.242388624487786,0.496368478328736
-0.23738710918221,0.497317694362483
-0.232340291744767,0.498262052960473
-0.227248031386669,0.499201577269166
-0.222110187319128,0.500136290435021
-0.216926618753355,0.501066215604497
-0.211697184900562,0.501991375924053
-0.206421744971961,0.502911794540149
-0.201100158178764,0.503827494599243
-0.195732283732182,0.504738499247796
-0.190317980843427,0.505644831632266
-0.184857108723711,0.506546514899113
-0.179349526584245,0.507443572194796
-0.173795093636241,0.508336026665774
-0.168193669090911,0.509223901458507
-0.162545112159467,0.510107219719453
-0.156849282053121,0.510986004595072
-0.151106037983083,0.511860279231824
-0.145315239160566,0.512730066776167
-0.139476744796781,0.513595390374561
-0.133590414102941,0.514456273173465
-0.127656106290257,0.515312738319338
-0.12167368056994,0.51616480895864
-0.115642996153203,0.517012508237829
-0.109563912251256,0.517855859303366
-0.103436288075313,0.518694885301709
-0.0972599828365839,0.519529609379318
-0.0910348557462811,0.520360054682652
-0.0847607660156165,0.52118624435817
-0.0784375728558013,0.522008201552331
-0.0720651354780477,0.522825949411595
-0.065643313093567,0.523639511082421
-0.0591719649135715,0.524448909711268
-0.0526509501492721,0.525254168444596
-0.0460801280118814,0.526055310428864
-0.0394593577126103,0.52685235881053
-0.0394593577126103,0.52685235881053
-0.0328316471584899,0.527624846745595
-0.0262400831625407,0.528352417206661
-0.0196846432949601,0.529035258065093
-0.0131653051259454,0.529673557192256
-0.00668204622569387,0.530267502459516
-0.000234844164402894,0.530817281738236
0.00617632348773023,0.531323082899782
0.0125514791605082,0.53178509381552
0.0188906452837337,0.532203502356813
0.0251938442872095,0.532578496395027
0.0314610986007382,0.532910263801527
0.0376924306541224,0.533198992447677
0.043887862877165,0.533444870204844
0.0500474176996686,0.53364808494439
0.0561711175514358,0.533808824537683
0.0622589848622694,0.533927276856085
0.0683110420619721,0.534003629770964
0.0743273115803464,0.534038071153682
0.0803078158471952,0.534030788875606
0.0862525772923212,0.533981970808101
0.0921616183455269,0.533891804822531
0.0980349614366151,0.53376047879026
0.103872628995388,0.533588180582655
0.10967464345165,0.53337509807108
0.115441027235201,0.5331214191269
0.121171802775847,0.53282733162148
0.126866992503388,0.532493023426185
0.132526618847627,0.53211868241238
0.138150704238368,0.53170449645143
0.143739271105413,0.531250653414699
0.149292341878565,0.530757341173553
0.154809938987626,0.530224747599357
0.160292084862399,0.529653060563476
0.165738801932686,0.529042467937274
0.171150112628292,0.528393157592116
0.176526039379017,0.527705317399368
0.181866604614665,0.526979135230395
0.187171830765039,0.526214798956561
0.192441740259941,0.525412496449231
0.197676355529173,0.52457241557977
0.20287569900254,0.523694744219544
0.208039793109842,0.522779670239916
0.213168660280884,0.521827381512253
0.218262322945467,0.520838065907919
0.223320803533394,0.519811911298279
0.228344124474469,0.518749105554697
0.233332308198493,0.51764983654854
0.23828537713527,0.516514292151172
0.243203353714601,0.515342660233957
0.248086260366291,0.514135128668261
0.25293411952014,0.512891885325448
0.257746953605954,0.511613118076885
0.262524785053532,0.510299014793935
0.26726763629268,0.508949763347963
0.271975529753198,0.507565551610335
0.276648487864891,0.506146567452415
0.28128653305756,0.504692998745569
0.285889687761008,0.503205033361161
0.290457974405038,0.501682859170556
0.294991415419453,0.500126664045119
0.299490033234056,0.498536635856216
0.303953850278648,0.496912962475211
0.308382888983033,0.495255831773468
0.312777171777013,0.493565431622354
0.317136721090392,0.491841949893233
0.321461559352971,0.490085574457469
0.325751708994554,0.488296493186429
0.330007192444943,0.486474893951476
0.334228032133941,0.484620964623976
0.33841425049135,0.482734893075294
0.342565869946973,0.480816867176794
0.346682912930614,0.478867074799842
0.350765401872074,0.476885703815802
0.354813359201156,0.47487294209604
0.358826807347663,0.47282897751192
0.362805768741398,0.470753997934808
0.366750265812164,0.468648191236068
0.370660320989762,0.466511745287065
0.374535956703996,0.464344847959165
0.378377195384668,0.462147687123731
0.382184059461582,0.45992045065213
0.385956571364539,0.457663326415726
0.389694753523343,0.455376502285883
0.393398628367796,0.453060166133968
0.397068218327701,0.450714505831345
0.40070354583286,0.448339709249378
0.404304633313077,0.445935964259434
0.407871503198154,0.443503458732876
0.411404177917893,0.44104238054107
0.414902679902097,0.43855291755538
0.41836703158057,0.436035257647172
0.421797255383113,0.43348958868781
0.42519337373953,0.43091609854866
0.428555409079622,0.428314975101087
0.431883383833193,0.425686406216454
0.435177320430046,0.423030579766129
0.438437241299983,0.420347683621474
0.441663168872807,0.417637905653856
0.44485512557832,0.414901433734638
0.448013133846325,0.412138455735187
0.451137216106626,0.409349159526867
0.454227394789023,0.406533732981043
0.457283692323321,0.40369236396908
0.460306131139322,0.400825240362343
0.463294733666829,0.397932550032197
0.466249522335644,0.395014480850006
0.46917051957557,0.392071220687136
0.472057747816409,0.389102957414952
0.474911229487965,0.386109878904819
0.477730987020041,0.383092173028101
0.480517042842437,0.380050027656164
0.483269419384959,0.376983630660372
0.485988139077407,0.373893169912091
0.488673224349585,0.370778833282685
0.491324697631296,0.367640808643519
0.493942581352342,0.364479283865959
0.496526897942526,0.361294446821369
0.49907766983165,0.358086485381114
0.501594919449518,0.354855587416559
0.504078669225931,0.35160194079907
0.506528941590694,0.34832573340001
0.508945758973607,0.345027153090745
0.511329143804475,0.34170638774264
0.513679118513099,0.33836362522706
0.515995705529283,0.33499905341537
0.518278927282829,0.331612860178935
0.520528806203539,0.328205233389119
0.522745364721217,0.324776360917288
0.524928625265665,0.321326430634807
0.527078610266686,0.31785563041304
0.529195342154083,0.314364148123353
0.531278843357658,0.31085217163711
0.533329136307213,0.307319888825676
0.535346243432552,0.303767487560417
0.537330187163478,0.300195155712697
0.539280989929792,0.296603081153882
0.541198674161298,0.292991451755335
0.543083262287799,0.289360455388423
0.544934776739096,0.285710279924509
0.546753239944994,0.28204111323496
0.548538674335293,0.27835314319114
0.550291102339798,0.274646557664414
0.55201054638831,0.270921544526146
0.553697028910634,0.267178291647702
0.55535057233657,0.263416986900448
0.556971199095922,0.259637818155747
0.558558931618492,0.255840973284964
0.560113792334084,0.252026640159465
0.5616358036725,0.248195006650615
0.563124988063542,0.244346260629778
0.564581367937013,0.24048058996832
0.566004965722717,0.236598182537605
0.567395803850455,0.232699226208998
0.568753904750031,0.228783908853865
0.570079290851246,0.22485241834357
0.571371984583905,0.220904942549478
0.572632008377809,0.216941669342954
0.57385938466276,0.212962786595363
0.575054135868563,0.208968482178071
0.576216284425019,0.204958943962441
0.577345852761932,0.200934359819839
0.578442863309103,0.196894917621631
0.579507338496335,0.19284080523918
0.580539300753433,0.188772210543851
0.581538772510197,0.184689321407011
0.58250577619643,0.180592325700023
0.583440334241936,0.176481411294253
0.584342469076517,0.172356766061065
0.585212203129975,0.168218577871825
0.586049558832114,0.164067034597897
0.586854558612736,0.159902324110647
0.587627224901644,0.155724634281439
0.58836758012864,0.151534152981639
0.589075646723527,0.14733106808261
0.589751447116108,0.143115567455719
0.590395003736186,0.13888783897233
0.591006339013563,0.134648070503808
0.591585475378041,0.130396449921518
0.592132435259425,0.126133165096825
0.592647241087515,0.121858403901094
0.593129915292116,0.11757235420569
0.593580480303029,0.113275203881978
0.593998958550057,0.108967140801322
0.594385372463003,0.104648352835089
0.594739744471671,0.100319027854642
0.595062097005861,0.0959793537313463
0.595352452495377,0.0916295183365674
0.595610833370023,0.0872697095416701
0.5958372620596,0.0829001152180193
0.59603176099391,0.0785209232369798
0.596194352602758,0.0741323214699166
0.596325059315945,0.069734497788195
0.596423903563275,0.0653276400631795
0.596490907774549,0.0609119361662351
0.596526094379571,0.0564875739687269
0.596529485808143,0.0520547413420199
0.596501104490069,0.047613626157479
0.596440972855149,0.0431644162864689
0.596349113333188,0.0387072996003548
0.596225548353989,0.0342424639705017
0.596070300347352,0.0297700972682743
0.595883391743083,0.0252903873650378
0.595664844970982,0.0208035221321569
0.595414682460853,0.0163096894409969
0.595132926642499,0.0118090771629223
0.594819599945722,0.00730187316929848
0.594474724800324,0.00278826533148999
0.594098323636109,-0.00173155847913781
0.59369041888288,-0.00625741039122044
0.593251032970438,-0.0107891025333924
0.592780188328587,-0.0153264470342893
0.592277907387129,-0.0198692560225457
0.591744212575867,-0.0244173416267972
0.591179126324604,-0.0289705159756782
0.590582671063142,-0.0335285911978243
0.589954869221284,-0.0380913794218703
0.589295743228833,-0.0426586927764514
0.588605315515591,-0.0472303433902022
0.587883608511361,-0.0518061433917585
0.587130644645947,-0.0563859049097547
0.586346446349149,-0.0609694400728263
0.585531036050772,-0.0655565610096079
0.584684436180618,-0.0701470798487351
0.583806669168489,-0.0747408087188424
0.582897757444188,-0.0793375597485653
0.581957723437519,-0.0839371450665385
0.580986589578283,-0.0885393768013974
0.579984378296283,-0.0931440670817767
0.578951112021322,-0.0977510280363118
0.577886813183203,-0.102360071793637
0.576791504211728,-0.106971010482389
0.575665207536701,-0.111583656231201
0.574507945587923,-0.116197821168709
0.573319740795198,-0.120813317423548
0.572100615588327,-0.125429957124353
0.570850592397115,-0.130047552399759
0.569569693651362,-0.134665915378401
0.568257941780874,-0.139284858188913
0.566915359215451,-0.143904192959933
0.565541968384896,-0.148523731820093
0.564137791719013,-0.153143286898029
0.562702851647604,-0.157762670322377
0.561237170600471,-0.162381694221771
0.559740771007418,-0.167000170724847
0.558213675298246,-0.171617911960239
0.55665590590276,-0.176234730056583
0.55506748525076,-0.180850437142513
0.553448435772051,-0.185464845346665
0.551798779896435,-0.190077766797673
0.550118540053714,-0.194689013624173
0.548407738673691,-0.1992983979548
0.546666398186169,-0.203905731918189
0.54489454102095,-0.208510827642975
0.543092189607838,-0.213113497257792
0.541259366376635,-0.217713552891277
0.539396093757143,-0.222310806672063
0.537502394179165,-0.226905070728787
0.535578290072504,-0.231496157190082
0.533623803866963,-0.236083878184586
0.531638957992345,-0.240668045840931
0.529623774878451,-0.245248472287753
0.527578276955085,-0.249824969653688
0.525502486652049,-0.25439735006737
0.523396426399147,-0.258965425657435
0.52126011862618,-0.263529008552517
0.519093585762952,-0.268087910881252
0.516896850239264,-0.272641944772274
0.514669934484921,-0.277190922354219
0.512412860929724,-0.281734655755722
0.510125652003477,-0.286272957105418
0.507808330135981,-0.290805638531941
0.50546091775704,-0.295332512163927
0.503083437296456,-0.299853390130011
0.500675911184032,-0.304368084558828
0.498238361849571,-0.308876407579014
0.495770811722875,-0.313378171319202
0.493273283233747,-0.317873187908028
0.49074579881199,-0.322361269474127
0.488188380887406,-0.326842228146135
0.485601051889799,-0.331315876052686
0.48298383424897,-0.335782025322416
0.480336750394723,-0.340240488083958
0.477659822756859,-0.34469107646595
0.474953073765183,-0.349133602597024
0.472216525849496,-0.353567878605818
0.469450201439602,-0.357993716620964
0.466654122965302,-0.3624109287711
0.4638283128564,-0.366819327184859
0.460972793542698,-0.371218723990877
0.458087587453999,-0.375608931317789
0.455172717020106,-0.37998976129423
0.452228204670821,-0.384361026048834
0.449254072835947,-0.388722537710238
0.446250343945287,-0.393074108407075
0.443217040428644,-0.397415550267982
0.440154184715819,-0.401746675421592
0.437061799236616,-0.406067295996542
0.433939906420838,-0.410377224121466
0.430788528698287,-0.414676271925
0.427607688498766,-0.418964251535778
0.424397408252077,-0.423240975082435
0.421157710388024,-0.427506254693606
0.417888617336408,-0.431759902497927
0.414590151527034,-0.436001730624033
0.411262335389702,-0.440231551200558
0.407905191354217,-0.444449176356138
0.40451874185038,-0.448654418219408
0.401103009307994,-0.452847088919002
0.397658016156863,-0.457027000583556
0.394183784826788,-0.461193965341705
0.390680337747573,-0.465347795322084
0.38714769734902,-0.469488302653327
0.383585886060931,-0.473615299464071
0.37999492631311,-0.47772859788295
0.37637484053536,-0.481828010038599
0.372725651157482,-0.485913348059653
0.36904738060928,-0.489984424074748
0.365340051320556,-0.494041050212517
0.361603685721113,-0.498083038601598
0.357838306240753,-0.502110201370623
0.35404393530928,-0.506122350648229
0.350220595356496,-0.51011929856305
0.346368308812204,-0.514100857243722
0.342487098106206,-0.518066838818879
0.338576985668305,-0.522017055417157
0.334637993928304,-0.525951319167191
0.330670145316005,-0.529869442197615
0.326673462261211,-0.533771236637065
0.322647967193726,-0.537656514614177
0.31859368254335,-0.541525088257584
0.314510630739888,-0.545376769695922
0.310398834213142,-0.549211371057826
0.306258315392914,-0.553028704471931
0.302089096709008,-0.556828582066872
0.297891200591226,-0.560610815971284
0.29366464946937,-0.564375218313802
0.289409465773244,-0.568121601223062
0.28512567193265,-0.571849776827698
0.28081329037739,-0.575559557256346
0.276472343537268,-0.57925075463764
0.272102853842085,-0.582923181100215
0.267704843721646,-0.586576648772707
0.263278335605752,-0.590210969783751
0.258823351924206,-0.593825956261981
0.254339915106811,-0.597421420336033
0.24982804758337,-0.600997174134541
0.245287771783685,-0.604553029786141
0.240719110137559,-0.608088799419468
0.236122085074794,-0.611604295163157
0.231496719025193,-0.615099329145843
0.22684303441856,-0.618573713496161
0.222161053684696,-0.622027260342746
0.217450799253405,-0.625459781814233
0.212712293554488,-0.628871090039258
0.20794555901775,-0.632260997146454
0.203150618072991,-0.635629315264458
0.198327493150016,-0.638975856521904
0.193476206678627,-0.642300433047427
0.188596781088626,-0.645602856969663
0.183689238809816,-0.648882940417247
0.178753602272,-0.652140495518812
0.173789893904981,-0.655375334402996
0.168798136138561,-0.658587269198432
0.163778351402543,-0.661776112033755
0.158730562126729,-0.664941675037602
0.153654790740923,-0.668083770338606
0.148551059674926,-0.671202210065403
0.143419391358543,-0.674296806346628
0.138259808221574,-0.677367371310916
0.133072332693824,-0.680413717086902
0.127856987205095,-0.683435655803221
0.122613794185189,-0.686432999588507
0.117342776063909,-0.689405560571398
0.112043955271058,-0.692353150880526
0.106717354236438,-0.695275582644528
0.101362995389852,-0.698172667992037
0.0959809011611037,-0.701044219051691
0.0905710939799948,-0.703890047952122
0.0851335962763279,-0.706709966821968
0.0796684304799061,-0.709503787789861
0.0741756190205317,-0.712271322984438
0.0686551843280079,-0.715012384534334
0.0631071488321368,-0.717726784568184
0.0575315349627217,-0.720414335214622
0.0519283651495646,-0.723074848602284
0.0462976618224689,-0.725708136859804
0.0406394474112367,-0.728314012115819
0.0349537443456712,-0.730892286498963
0.0292405750555746,-0.73344277213787
0.02349996197075,-0.735965281161177
0.0177319275209997,-0.738459625697518
0.0119364941361268,-0.740925617875527
0.00611368424593358,-0.743363069823841
0.00026352028022316,-0.745771793671095
-0.00561397533120226,-0.748151601545922
-0.0115187801585395,-0.750502305576959
-0.0174508717719863,-0.752823717892841
-0.0234102277417396,-0.755115650622201
-0.0293968256379971,-0.757377915893677
-0.0293968256379971,-0.757377915893677
-0.0353627588862627,-0.759586015646935
-0.0412603653514682,-0.761715845993711
-0.0470899892629519,-0.763767810320743
-0.0528519748500523,-0.765742312014769
-0.0585466663421076,-0.767639754462524
-0.0641744079684561,-0.769460541050747
-0.0697355439584364,-0.771205075166174
-0.0752304185413866,-0.772873760195543
-0.0806593759466453,-0.774466999525591
-0.0860227604035506,-0.775985196543054
-0.091320916141441,-0.77742875463467
-0.0965541873896548,-0.778798077187176
-0.101722918377531,-0.78009356758731
-0.106827453334406,-0.781315629221808
-0.11186813648962,-0.782464665477408
-0.116845312072512,-0.783541079740847
-0.121759324312418,-0.784545275398861
-0.126610517438678,-0.785477655838188
-0.13139923568063,-0.786338624445566
-0.136125823267612,-0.78712858460773
-0.140790624428962,-0.78784793971142
-0.14539398339402,-0.788497093143371
-0.149936244392123,-0.78907644829032
-0.15441775165261,-0.789586408539006
-0.158838849404818,-0.790027377276164
-0.163199881878087,-0.790399757888533
-0.167501193301755,-0.790703953762849
-0.17174312790516,-0.79094036828585
-0.175926029917641,-0.791109404844272
-0.180050243568535,-0.791211466824853
-0.184116113087181,-0.791246957614329
-0.188123982702918,-0.791216280599439
-0.192074196645084,-0.791119839166919
-0.195967099143017,-0.790958036703507
-0.199803034426056,-0.790731276595938
-0.203582346723538,-0.790439962230952
-0.207305380264803,-0.790084496995284
-0.210972479279189,-0.789665284275673
-0.214583987996033,-0.789182727458854
-0.218140250644675,-0.788637229931565
-0.221641611454453,-0.788029195080544
-0.225088414654704,-0.787359026292527
-0.228481004474769,-0.786627126954252
-0.231819725143983,-0.785833900452456
-0.235104920891688,-0.784979750173876
-0.238336935947219,-0.784065079505249
-0.241516114539916,-0.783090291833312
-0.244642800899118,-0.782055790544802
-0.247717339254162,-0.780961979026457
-0.250740073834387,-0.779809260665014
-0.253711348869131,-0.778598038847209
-0.256631508587733,-0.77732871695978
-0.259500897219531,-0.776001698389465
-0.262319858993863,-0.774617386523
-0.265088738140068,-0.773176184747121
-0.267807878887484,-0.771678496448568
-0.27047762546545,-0.770124725014077
-0.273098322103303,-0.768515273830384
-0.275670313030382,-0.766850546284227
-0.278193942476025,-0.765130945762343
-0.280669554669572,-0.76335687565147
-0.28309749384036,-0.761528739338343
-0.285478104217727,-0.759646940209702
-0.287811730031012,-0.757711881652282
-0.290098715509553,-0.755723967052821
-0.292339404882689,-0.753683599798056
-0.294534142379757,-0.751591183274724
-0.296683272230098,-0.749447120869563
-0.298787138663047,-0.747251815969309
-0.300846085907945,-0.745005671960699
-0.302860458194129,-0.742709092230471
-0.304830599750938,-0.740362480165362
-0.30675685480771,-0.737966239152109
-0.308639567593783,-0.735520772577449
-0.310479082338496,-0.73302648382812
-0.312275743271187,-0.730483776290858
-0.314029894621195,-0.7278930533524
-0.315741880617857,-0.725254718399484
-0.317412045490513,-0.722569174818847
-0.3190407334685,-0.719836825997227
-0.320628288781158,-0.717058075321359
-0.322175055657823,-0.714233326177982
-0.323681378327835,-0.711362981953832
-0.325147601020532,-0.708447446035646
-0.326574067965252,-0.705487121810163
-0.327961123391334,-0.702482412664118
-0.329309111528116,-0.699433721984249
-0.330618376604937,-0.696341453157294
-0.331889262851134,-0.693206009569989
-0.333122114496046,-0.690027794609071
-0.334317275769012,-0.686807211661278
-0.33547509089937,-0.683544664113347
-0.336595904116457,-0.680240555352015
-0.337680059649614,-0.676895288764018
-0.338727901728177,-0.673509267736095
-0.339739774581485,-0.670082895654983
-0.340716022438877,-0.666616575907418
-0.341656989529691,-0.663110711880137
-0.342563020083265,-0.659565706959878
-0.343434458328938,-0.655981964533378
-0.344271648496048,-0.652359887987375
-0.345074934813933,-0.648699880708604
-0.345844661511931,-0.645002346083803
-0.346581172819382,-0.641267687499711
-0.347284812965624,-0.637496308343063
-0.347955926179994,-0.633688612000597
-0.348594856691831,-0.629845001859049
-0.349201948730474,-0.625965881305158
-0.34977754652526,-0.622051653725661
-0.350321994305529,-0.618102722507293
-0.350835636300618,-0.614119491036793
-0.351318816739867,-0.610102362700897
-0.351771879852612,-0.606051740886344
-0.352195169868193,-0.601968028979869
-0.352589031015948,-0.597851630368211
-0.352953807525216,-0.593702948438106
-0.353289843625334,-0.589522386576291
-0.353597483545641,-0.585310348169504
-0.353877071515475,-0.581067236604481
-0.354128951764175,-0.57679345526796
-0.35435346852108,-0.572489407546678
-0.354550966015526,-0.568155496827373
-0.354721788476854,-0.56379212649678
-0.354866280134401,-0.559399699941639
-0.354984785217505,-0.554978620548684
-0.355077647955505,-0.550529291704654
-0.355145212577739,-0.546052116796286
-0.355187823313546,-0.541547499210318
-0.355205824392264,-0.537015842333485
-0.355199560043231,-0.532457549552526
-0.355169374495786,-0.527873024254177
-0.355115611979266,-0.523262669825175
-0.355038616723012,-0.518626889652259
-0.354938732956359,-0.513966087122164
-0.354816304908648,-0.509280665621628
-0.354671676809217,-0.504571028537389
-0.354505192887403,-0.499837579256183
-0.354317197372545,-0.495080721164747
-0.354108034493981,-0.490300857649818
-0.353878048481051,-0.485498392098135
-0.353627583563092,-0.480673727896433
-0.353356983969442,-0.475827268431451
-0.35306659392944,-0.470959417089924
-0.352756757672424,-0.466070577258591
-0.352427819427733,-0.461161152324189
-0.352080123424705,-0.456231545673454
-0.351714013892678,-0.451282160693123
-0.351329835060992,-0.446313400769935
-0.350927931158983,-0.441325669290626
-0.35050864641599,-0.436319369641933
-0.350072325061352,-0.431294905210593
-0.349619311324407,-0.426252679383344
-0.349149949434494,-0.421193095546922
-0.34866458362095,-0.416116557088065
-0.348163558113115,-0.41102346739351
-0.347647217140326,-0.405914229849995
-0.347115904931922,-0.400789247844255
-0.346569965717241,-0.395648924763029
-0.346009743725622,-0.390493663993053
-0.345435583186402,-0.385323868921065
-0.344847828328921,-0.380139942933802
-0.344246823382517,-0.374942289418
-0.343632912576528,-0.369731311760398
-0.343006440140291,-0.364507413347732
-0.342367750303147,-0.359270997566739
-0.341717187294433,-0.354022467804157
-0.341055095343487,-0.348762227446722
-0.340381818679648,-0.343490679881173
-0.339697701532254,-0.338208228494245
-0.339003088130643,-0.332915276672676
-0.338298322704155,-0.327612227803204
-0.337583749482126,-0.322299485272565
-0.336859712693896,-0.316977452467497
-0.336126556568803,-0.311646532774736
-0.335384625336185,-0.30630712958102
-0.334634263225381,-0.300959646273086
-0.333875814465729,-0.295604486237671
-0.333109623286567,-0.290242052861512
-0.332336033917234,-0.284872749531347
-0.331555390587068,-0.279496979633912
-0.330768037525407,-0.274115146555946
-0.32997431896159,-0.268727653684183
-0.329174579124955,-0.263334904405363
-0.32836916224484,-0.257937302106222
-0.327558412550584,-0.252535250173498
-0.326742674271526,-0.247129151993926
-0.325922291637002,-0.241719410954246
-0.325097608876353,-0.236306430441193
-0.324268970218916,-0.230890613841505
-0.32343671989403,-0.225472364541918
-0.322601202131032,-0.220052085929172
-0.321762761159262,-0.214630181390001
-0.320921741208057,-0.209207054311144
-0.320078486506757,-0.203783108079337
-0.319233341284698,-0.198358746081318
-0.318386649771221,-0.192934371703824
-0.317538756195662,-0.187510388333592
-0.316690004787361,-0.182087199357359
-0.315840739775656,-0.176665208161863
-0.314991305389884,-0.17124481813384
-0.314142045859386,-0.165826432660027
-0.313293305413498,-0.160410455127163
-0.312445428281559,-0.154997288921983
-0.311598758692908,-0.149587337431225
-0.310753640876882,-0.144181004041627
-0.309910419062821,-0.138778692139925
-0.309069437480063,-0.133380805112856
-0.308231040357945,-0.127987746347158
-0.307395571925807,-0.122599919229567
-0.306563376412986,-0.117217727146822
-0.305734798048822,-0.111841573485658
-0.304910181062652,-0.106471861632814
-0.304089869683814,-0.101108994975026
-0.303274208141648,-0.0957533768990322
-0.302463540665491,-0.0904054107915684
-0.301658211484682,-0.0850655000393726
-0.300858564828559,-0.0797340480291816
-0.30006494492646,-0.0744114581477328
-0.299277696007725,-0.069098133781763
-0.29849716230169,-0.0637944783180098
-0.297723688037695,-0.0585008951432099
-0.296957617445079,-0.0532177876441009
-0.296199294753178,-0.0479455592074194
-0.295449064191332,-0.0426846132199032
-0.294707269988879,-0.0374353530682888
-0.293974256375157,-0.0321981821393139
-0.293250367579505,-0.026973503819715
-0.292535947831262,-0.02176172149623
-0.291831341359764,-0.0165632385555955
-0.291136892394351,-0.0113784583845489
-0.290452945164362,-0.00620778436982705
-0.289779843899133,-0.00105161989816763
-0.289117932828005,0.00408963164369275
-0.288467556180315,0.00921556686901656
-0.287829058185401,0.0143257823910671
-0.287202783072603,0.0194198748231066
-0.286589075071257,0.0244974407783985
-0.285988278410703,0.0295580768702053
-0.285400737320279,0.0346013797117902
-0.284826796029324,0.0396269459164155
-0.284266798767175,0.0446343720973447
-0.283721089763171,0.04962325486784
-0.28319001324665,0.0545931908411649
-0.282673913446951,0.0595437766305817
-0.282173134593412,0.0644746088493537
-0.281688020915372,0.0693852841107434
-0.281218916642169,0.074275399028014
-0.28076616600314,0.079144550214428
-0.280330113227625,0.0839923342832485
-0.279911102544962,0.0888183478477381
-0.279509478184489,0.0936221875211602
-0.279125584375545,0.0984034499167769
-0.278759765347468,0.103161731647852
-0.278412365329596,0.107896629327647
-0.278083728551267,0.112607739569426
-0.277774199241821,0.117294658986451
-0.277484121630595,0.121956984191986
-0.277213839946927,0.126594311799293
-0.276963698420157,0.131206238421634
-0.276734041279622,0.135792360672274
-0.276525212754661,0.140352275164474
-0.276337557074611,0.144885578511498
-0.276171418468813,0.149391867326608
-0.276027141166603,0.153870738223067
-0.27590506939732,0.158321787814138
-0.275805547390303,0.162744612713085
-0.27572891937489,0.167138809533169
-0.275675529580419,0.171503974887654
-0.275645722236229,0.175839705389802
-0.275639841571657,0.180145597652877
-0.275658231816043,0.184421248290141
-0.275701237198724,0.188666253914857
-0.27576920194904,0.192880211140288
-0.275862470296328,0.197062716579696
-0.275981386469926,0.201213366846346
-0.276126294699174,0.205331758553499
-0.276297539213409,0.209417488314418
-0.27649546424197,0.213470152742366
-0.276720414014195,0.217489348450607
-0.276972732759423,0.221474672052402
-0.277252764706991,0.225425720161016
-0.277560854086239,0.229342089389709
-0.277897345126504,0.233223376351747
-0.278262582057125,0.23706917766039
-0.27865690910744,0.240879089928903
-0.279080670506788,0.244652709770548
-0.279534210484507,0.248389633798588
-0.280017873269936,0.252089458626285
-0.280532003092412,0.255751780866903
-0.281076944181274,0.259376197133705
-0.28165304076586,0.262962304039953
-0.282260637075509,0.26650969819891
-0.28290007733956,0.270017976223839
-0.283571705787349,0.273486734728003
-0.284275866648217,0.276915570324665
-0.285012904151501,0.280304079627087
-0.285783162526539,0.283651859248533
-0.28658698600267,0.286958505802265
-0.287424718809232,0.290223615901546
-0.288296705175564,0.293446786159639
-0.289203289331004,0.296627613189807
-0.290144815504891,0.299765693605313
-0.291121627926562,0.302860624019419
-0.292134070825355,0.305912001045389
-0.293182488430611,0.308919421296485
-0.294267224971666,0.31188248138597
-0.295388624677859,0.314800777927107
-0.296547031778528,0.317673907533159
-0.297742790503012,0.320501466817389
-0.29897624508065,0.32328305239306
-0.300247739740779,0.326018260873433
-0.301557618712738,0.328706688871773
-0.302906226225864,0.331347933001342
-0.304293906509498,0.333941589875403
-0.305721003792976,0.336487256107219
-0.307187862305638,0.338984528310053
-0.308694826276821,0.341433003097167
-0.310242239935865,0.343832277081825
-0.311830447512106,0.346181946877288
-0.313459793234884,0.348481609096821
-0.315130621333538,0.350730860353686
-0.316843276037405,0.352929297261146
-0.318598101575823,0.355076516432463
-0.320395442178132,0.357172114480901
-0.322235642073669,0.359215688019722
-0.324119045491773,0.361206833662189
-0.326045996661782,0.363145148021566
-0.328016839813034,0.365030227711115
-0.330031919174869,0.366861669344098
-0.332091578976623,0.368639069533779
-0.334196163447637,0.37036202489342
-0.336346016817247,0.372030132036285
-0.338541483314792,0.373642987575636
-0.340782907169611,0.375200188124736
-0.343070632611043,0.376701330296848
-0.345405003868424,0.378146010705235
-0.347786365171094,0.379533825963159
-0.350215060748392,0.380864372683884
-0.352691434829654,0.382137247480672
-0.355215831644221,0.383352046966787
-0.35778859542143,0.38450836775549
-0.360410070390619,0.385605806460046
-0.363080600781127,0.386643959693716
-0.365800530822292,0.387622424069764
-0.368570204743453,0.388540796201452
-0.371389966773947,0.389398672702043
-0.374260161143114,0.390195650184801
-0.377181132080292,0.390931325262988
-0.380153223814818,0.391605294549867
-0.383176780576032,0.3922171546587
-0.386252146593271,0.392766502202751
-0.389379666095875,0.393252933795282
-0.392559683313181,0.393676046049557
-0.395792542474528,0.394035435578838
-0.399078587809253,0.394330698996388
-0.402418163546697,0.39456143291547
-0.405811613916196,0.394727233949347
-0.409259283147089,0.394827698711281
-0.412761515468715,0.394862423814535
-0.416318655110411,0.394831005872373
-0.419931046301517,0.394733041498057
-0.423599033271371,0.39456812730485
-0.42732296024931,0.394335859906015
-0.431103171464674,0.394035835914815
-0.4349400111468,0.393667651944512
-0.438833823525027,0.393230904608369
-0.442784952828694,0.39272519051965
-0.446793743287138,0.392150106291617
-0.450860539129699,0.391505248537533
-0.454985684585714,0.390790213870661
-0.459169523884521,0.390004598904263
-0.46341240125546,0.389148000251604
-0.467714660927868,0.388220014525944
-0.472076647131084,0.387220238340548
-0.476498704094447,0.386148268308677
-0.480981176047294,0.385003701043596
-0.485524407218963,0.383786133158567
-0.490128741838794,0.382495161266852
-0.494794524136125,0.381130381981715
-0.499522098340294,0.379691391916418
-0.504311808680639,0.378177787684224
-0.509163999386498,0.376589165898397
-0.514079014687211,0.374925123172199
-0.519057198812115,0.373185256118892
-0.524098895990549,0.37136916135174
-0.52920445045185,0.369476435484005
-0.534374206425359,0.367506675128951
-0.539608508140412,0.36545947689984
-0.544907699826348,0.363334437409935
-0.550272125712506,0.361131153272499
-0.555702130028224,0.358849221100795
-0.56119805700284,0.356488237508086
-0.566760250865692,0.354047799107633
-0.57238905584612,0.351527502512702
-0.578084816173461,0.348926944336553
-0.583847876077053,0.346245721192451
-0.589678579786235,0.343483429693657
-0.595577271530346,0.340639666453436
-0.601544295538723,0.337714028085049
