0.903178153593839,0.845657855525631
0.807793069178162,0.831804765562267
0.718532328117719,0.81667283717687
0.635176272223917,0.800387189646605
0.557505243308167,0.783072942248638
0.485299583181876,0.764855214260135
0.418339633656453,0.745859124958262
0.356405736543306,0.726209793620185
0.299278233653845,0.70603233952307
0.246737466799478,0.685451881944083
0.198563777791613,0.664593540160389
0.154537508441659,0.643582433449155
0.114439000561026,0.622543681087546
0.0780485959611204,0.601602402352728
0.0451466364533522,0.580883716521868
0.0155134638491297,0.560512742872131
-0.0110705800401385,0.540614600680684
-0.0348251534030438,0.521314409224691
-0.0559699144281774,0.502737287781319
-0.0747245213041308,0.485008355627734
-0.0913086322194953,0.468252732041101
-0.105941905362862,0.452595536298588
-0.118843998922823,0.438161887677359
-0.130234571087969,0.42507690545458
-0.140333280046892,0.413465708907418
-0.149359783988183,0.403453417313038
-0.157533741100433,0.395165149948606
-0.165074809572234,0.388726026091289
-0.172202647592176,0.384261165018251
-0.179136913348853,0.38189568600666
-0.186097265030854,0.38175470833368
-0.193303360826771,0.383963351276478
-0.200974858925196,0.38864673411222
-0.20933141751472,0.395929976118071
-0.218592694783934,0.405938196571198
-0.22897834892143,0.418796514748766
-0.240708038115798,0.434630049927942
-0.254001420555631,0.453563921385891
-0.26907815442952,0.475723248399779
-0.286157897926056,0.501233150246772
-0.303423787793173,0.527160214473948
-0.322304033950165,0.555801920731198
-0.338504868375168,0.581002386029046
-0.352097925900873,0.602891711243935
-0.363154841359973,0.621599997252306
-0.371747249585157,0.637257344930601
-0.377946785409119,0.649993855155261
-0.381825083664549,0.659939628802728
-0.38345377918414,0.667224766749444
-0.382904506800583,0.671979369871849
-0.380248901346569,0.674333539046386
-0.348121673770597,0.674852196705807
-0.343164323705563,0.664500161307559
-0.381059197911439,0.618344959818193
-0.347645478488565,0.673820631677607
-0.38384735681242,0.594482967632731
-0.310054915475628,0.637539888565238
-0.308699663141785,0.634529046348921
-0.315297376480422,0.62641143208096
-0.280081656302445,0.612518393445648
-0.214161417464255,0.587082740545935
-0.251396362521707,0.601483635039619
-0.214687868619596,0.566803394524543
-0.186643569907526,0.545694147840254
-0.172655185396427,0.508656637837933
-0.151432927544379,0.516211321688074
-0.0708461434498231,0.461149883977929
-0.0822488017266494,0.473155770261526
-0.0539287573946821,0.454549378245939
-0.0248634418133987,0.436014468934874
0.0538227668753977,0.397735152432291
0.03521646376635,0.399679501932075
0.0244965787943389,0.381082128451967
0.0974178363510639,0.36519167626466
0.129134985688554,0.348965693622825
0.158214688815239,0.375127299934842
0.141581042272272,0.330865798557138
0.237066715770996,0.28531408565842
0.258441857243262,0.29388365145161
0.296019040703749,0.26745643703847
0.320305793477867,0.274902045314957
0.321245417450195,0.277429256198782
0.370764205834599,0.254920618050027
0.385666533556933,0.243063951622342
0.39420087673234,0.230252446930957
0.396754686178639,0.216702951675706
0.393715412713651,0.202632313556427
0.385470507155195,0.188257380272953
0.372407420321093,0.17379499952512
0.354913603029163,0.159462019012764
0.333376506097225,0.145475286435719
0.308183580343101,0.132051649493821
0.27972227658461,0.119407955886904
0.248380045639572,0.107761053314805
0.214544338325807,0.0973277894773589
0.178602605461136,0.0883250120744001
0.140942297863378,0.0809695688057642
0.101950866350353,0.0754783073712866
0.0620157617398813,0.0720680754708024
0.0215244348497835,0.0709557208041469
-0.0191356635021208,0.0723580910711554
-0.0595770824980113,0.076492033971663
-0.0994123713200681,0.083574397205505
-0.138254079150471,0.0938220284725167
-0.1757147551714,0.107451775472533
-0.211406948565035,0.12468048590539
-0.244943208513556,0.145725007470922
-0.275936084199143,0.170802187868965
-0.303998124803976,0.200128874799354
-0.328741879510234,0.233921915961923
-0.349779897500098,0.27239815905651
-0.366724727955748,0.315774451782947
-0.379188920059363,0.364267641841072
-0.386785022993124,0.418094576930719
-0.389125585939209,0.477472104751723
-0.385823158079801,0.542617073003919
-0.376490288597077,0.613746329387144
-0.360739526673219,0.691076721601231
-0.338183421490405,0.774825097346017
-0.308434522230817,0.865208304321336
