0.683010093104053,0.32816773582386
0.551210933429803,0.224241998916831
0.636582641866371,0.357792135054415
0.614812657702605,0.370554004793708
0.593978569454228,0.381993764188408
0.574060428330245,0.392144995418062
0.555038285539663,0.40104128066222
0.536892192291486,0.408716202100429
0.519602199794719,0.415203341912237
0.503148359258368,0.420536282277191
0.602792983070992,0.531123983973989
0.380816563742669,0.316514427208568
0.458604261501858,0.429945728486414
0.44529554089722,0.430997692859434
0.340796083559741,0.325938954580621
0.420867374913272,0.430176338137681
0.409708031951972,0.428370183402004
0.399225250623129,0.425678486655857
0.389399082135748,0.422134830078788
0.380209577698834,0.417772795850345
0.324305101491954,0.430598337561657
0.364930039342927,0.411655433494074
0.361054010032713,0.397288888362382
0.342166172972735,0.408900872422634
0.37340286336234,0.41007147279602
0.379306120606318,0.332601356399016
0.240191036415141,0.306976112904965
0.327219593100941,0.357444788119077
0.307022465046684,0.392169496591938
0.318942322086496,0.336529762240871
0.312988827642123,0.338580099508396
0.330563781582383,0.345981985731434
0.309605748708768,0.30187387629983
0.471179278905008,0.406114584808493
0.235169730547907,0.140908364493453
0.303485604119888,0.264083946119457
0.36460519398869,0.374824459915832
0.300926428730065,0.237597286037996
0.339070118065098,0.217096958405988
0.299397801426499,0.21038936099668
0.298970071329576,0.196598879564946
0.264337560416098,0.202220988168124
0.327098552073772,0.215784037285813
0.281195712272366,0.131769532462513
0.410201195404716,0.243467919599783
0.299399304753764,0.12712457047743
0.280895760155246,0.14274612695426
0.321836857996869,0.106649858965632
0.258949826963891,0.0505123848924557
0.275309002081756,0.0754357045041012
0.307283115555074,0.0203395369184539
0.295648942858336,0.0562334713765274
0.190597768019854,-0.0662471666329449
0.304147169168226,0.0223056914877033
0.300743596733631,0.0203795325877455
0.438451352516187,0.097316193141182
0.305460740109181,-0.0120344206297685
0.305682415462817,-0.0226104105654302
0.34456094768376,-0.0607528822240903
0.200376158404775,-0.141026144608542
0.305419613569749,-0.0512560875482583
0.332998310188957,-0.0645167980157746
0.327368642294999,-0.0811945283895774
0.29683734268358,-0.027602768913945
0.420106931097437,0.0334056626153636
0.300691923108362,-0.0867096423329066
0.33130646292031,-0.114178317972231
0.30217576494422,-0.117979917596774
0.29314852662961,-0.0932587447334778
0.262064848228781,-0.0610660602872585
0.289590912335435,-0.124721758076581
0.284868596686135,-0.103805006115999
0.280875567010322,-0.103484956934217
0.16076036360048,-0.197532513731027
0.271547846877934,-0.0998260962584648
0.266173258839369,-0.0964201204053999
0.147433875021706,-0.195193884784003
0.253902882862526,-0.0862871667711521
0.246967197342257,-0.0794930246308736
0.239471248412763,-0.0715023293690947
0.23139508728305,-0.0622814988062676
0.222718765162123,-0.0517969507628443
0.213422333258986,-0.0400151030592769
0.203485842782646,-0.0269023735160176
0.192889344942106,-0.0124251799535183
0.0640955876779421,-0.105411366152223
0.169636532004451,0.0207569279473914
0.156940319325345,0.0395290066448978
0.143504304118062,0.0597998780798357
0.129308537591605,0.081603124431753
0.000542148761777481,-0.000492944069238971
0.098557955417192,0.129941070604717
0.0819632421872464,0.156542934784861
0.0645289824741482,0.184811502600175
0.154026763270881,0.31400419751602
0.0270620284345144,0.246483077854508
0.0069894365259892,0.279953249652622
-0.0140024970296681,0.3152244538041
-0.0359337210234523,0.352330272488488
-0.0588241842463582,0.391304287885335
-0.16965603834231,0.305434943842275
0.00382916355942889,0.57896211270754
-0.122065348050293,0.499693641262983
-0.142716644436659,0.535115035248625
-0.162024091978423,0.568236017233113
-0.180012109648466,0.599098740212153
-0.196705116419667,0.627745357181453
-0.212127531264907,0.65421802113672
-0.133550808627364,0.781098425733066
-0.239258261069026,0.700810101987986
-0.251015413973665,0.721013824875399
-0.261599650843864,0.739212206731609
-0.271035390652504,0.755447400552323
-0.279347052372464,0.769761559333249
-0.286559054976626,0.782196836070093
-0.29269581743787,0.792795383758564
-0.297781758729075,0.801599355394368
-0.301841297823123,0.808650903973214
-0.411418197649107,0.701854204494473
-0.306978845311267,0.817665343942856
-0.308105691651124,0.819712541325068
-0.308303811685345,0.820175927633151
-0.418500502216333,0.700212057003514
-0.306011548728398,0.816519879009757
-0.303570003682991,0.812484750069695
-0.30029740822347,0.807034422038332
-0.406333157254424,0.687955250570181
-0.291356741953603,0.792056780684537
-0.285737509089019,0.782613773353518
-0.27938490170184,0.771924178914029
-0.272323338764949,0.760030150361776
-0.153686653371778,0.854745500314063
-0.256171022133548,0.732797402901811
-0.247129106384798,0.717542989985512
-0.347210008272534,0.604721516466188
-0.227235854885604,0.683968850758821
-0.21643335708092,0.665733430439843
-0.317545800326634,0.544979722093413
-0.193238712225779,0.62657665336916
-0.180895403121084,0.605739602608868
-0.168087328195478,0.584119647692888
-0.154838906421842,0.561758941616924
-0.141174556773058,0.538699637376686
-0.127118698222004,0.51498388796788
-0.112695749741562,0.490653846386214
-0.097930130304612,0.465751665627396
-0.0828462588840338,0.440319498687131
-0.0674685544527081,0.414399498561129
-0.0518214359835152,0.388033818245095
-0.0359293224493355,0.361264610734739
-0.0198166328230492,0.334134029025766
-0.00350778607753671,0.306684226113884
0.118336029159265,0.370200042783655
0.0296007028796454,0.250995568664225
0.0463515071455545,0.222841020117862
0.0632007926391683,0.194535862351419
0.0801241403876066,0.166122248360605
0.0970971314179891,0.137642331141126
0.114095346757435,0.10913826368869
0.131094367433065,0.0806521989990039
0.148069774471998,0.0522262900677756
0.164997148901354,0.0239026898907124
0.181852071748252,-0.00427644853647868
0.198610124039812,-0.0322689722180899
0.215246886803154,-0.0600327281584142
0.231737941065398,-0.0875255633617439
0.248058867853663,-0.114705324832372
0.264185248195068,-0.141529859574591
0.280092663116734,-0.167957014592693
0.29575669364578,-0.193944636890972
0.311152920809325,-0.219450573473719
0.326256925634491,-0.244432671345228
0.341044289148395,-0.268848777509791
0.355490592378158,-0.2926567389717
0.369571416350899,-0.315814402735249
0.383262342093738,-0.33827961580473
0.396538950633796,-0.360010225184435
0.40937682299819,-0.380964077878657
0.421751540214041,-0.40109902089169
0.552068521039077,-0.306429832353779
0.445013833308594,-0.438743565891354
0.455852571241535,-0.456168861886572
0.466130478134411,-0.47260663621777
0.575636541415022,-0.397045581144581
0.484906122908449,-0.502351007905278
0.493355022843851,-0.515573299270173
0.501145415847667,-0.527639456988219
0.508252882947016,-0.538507328063709
0.51465300516902,-0.548134759500935
0.520321363540796,-0.556479598304189
0.525233539089466,-0.563499691477766
0.437216352826862,-0.688301611903325
0.532691665825963,-0.573397028953053
0.535188779068029,-0.57618996726335
0.536832033595467,-0.577489547961138
0.650778906237735,-0.473351415730564
0.537459290614937,-0.575440024536362
0.536394455161208,-0.572006614422382
0.53437808510133,-0.566911234713065
0.531385761462421,-0.560111732412703
0.528486359658627,-0.553868417575578
0.409932210122132,-0.636227436064152
0.519167974690278,-0.537060751773943
0.513915574982232,-0.529510216673638
0.508291882012254,-0.522509241822473
0.502315029445833,-0.516043348507049
0.496003150948456,-0.510098058013963
0.48937438018561,-0.504658891629817
0.482446850822783,-0.499711370641208
0.475238696525463,-0.495241016334737
0.467768050959137,-0.491233349997002
0.354007327470829,-0.589793996231977
0.452111820681418,-0.484548166374139
0.443962503301,-0.481841691662209
0.435623229313526,-0.479539990065413
0.427112132384484,-0.47762858287035
0.418447346179361,-0.476092991363619
0.502554180528154,-0.382606536234213
0.400729240602823,-0.474091340561551
0.391712188562383,-0.473596323839413
0.382613981907813,-0.473419207952004
0.3734527543046,-0.473545514185924
0.364246639418231,-0.473960763827771
0.355013770914195,-0.474650478164146
0.345772282457978,-0.475600178481648
0.336540307715068,-0.476795386066875
0.327335980350954,-0.478221622206428
0.318177434031121,-0.479864408186905
0.309082802421058,-0.481709265294905
0.300070219186252,-0.483741714817029
0.291157817992192,-0.485947278039875
0.282363732504364,-0.488311476250043
0.273706096388255,-0.490819830734131
0.3577689469192,-0.397346455987107
0.256872706933149,-0.496211093670468
0.36025916488984,-0.390942850881341
0.240802718950772,-0.50200523714168
0.233099334675577,-0.505017192294362
0.225641201765026,-0.508086431440561
0.218446453884609,-0.511198475866876
0.11413169209483,-0.632183244641853
0.204919647876121,-0.517493065706251
0.198623857079027,-0.52064665369251
0.192663985974016,-0.523785132105281
0.187058168226575,-0.526894022231165
0.181824537502191,-0.529958845356761
0.176981227466354,-0.532965122768667
0.172546371784549,-0.535898375753484
0.168538104122265,-0.538744125597811
0.164974558144989,-0.541487893588246
0.161873867518209,-0.544115201011389
0.159254165907411,-0.54661156915384
0.157133586978085,-0.548962519302198
0.155530264395716,-0.551153572743061
0.154462331825794,-0.55317025076303
0.153947922933805,-0.554998074648703
0.255924332067816,-0.462760668882317
0.154652210845576,-0.558029245163561
0.155907174980312,-0.559203634365944
0.157788197454932,-0.560131254580429
0.258131903031343,-0.454098046028317
0.163500952085771,-0.5611882731921
0.167368951572966,-0.561288714162486
0.171935544061994,-0.561084471291371
0.177218863218344,-0.560561065865353
0.183237042707502,-0.559704019171034
0.190008216194957,-0.558498852495011
0.28790916986834,-0.45898193579858
0.205882079826705,-0.554986244344252
0.215021037301974,-0.552649845442715
0.224985523437489,-0.549907411705873
0.330039132658663,-0.433457912237555
0.247463616351208,-0.543146524872666
0.260013490460387,-0.539099114349501
0.273461427891763,-0.534587754137427
0.287825562310822,-0.529597965523043
0.19677376213509,-0.63636372159421
0.319374956773944,-0.518125188233744
0.336596484148982,-0.511613242132027
0.354806743173653,-0.504564952774398
0.374023867513446,-0.496965841447455
0.394265990833849,-0.488801429437799
0.415551246800348,-0.480057238032028
0.437897769078431,-0.470718788516743
0.346874303439636,-0.563127436628077
0.485847147231302,-0.450201200304022
0.511486270437064,-0.438993104179786
0.53825919461636,-0.427132835092432
0.566184053434679,-0.414605914328559
0.595278980557507,-0.401397863174766
0.514497167338721,-0.506218857112694
0.657051574378642,-0.37288045484382
0.689765508407924,-0.357542140239865
0.723722045403666,-0.341464780392387
0.758939319031355,-0.324633896587986
0.795435462956479,-0.307035010113262
0.833228610844525,-0.288653642254813
0.872336896360981,-0.269475314299239
0.912778453171335,-0.249485547533139
0.954571414941073,-0.228669863243112
