0.553823628782888,0.564479181674566
0.598267854056937,0.272834050014036
0.757037583015718,-0.0347725215247894
-0.0104998109585419,-0.150870610999531
-0.778037204932802,-0.266968700474272
-0.598991247036998,0.820002895141754
-0.0644669913897931,0.767084584679044
0.470057264257412,0.714166274216334
-0.403569506381065,0.48986999030682
0.341030714299295,-0.948522596907
