0.766461511561714,-0.253489258771325
0.586231336453911,-0.292131900178593
0.623917622059027,0.133247099153867
0.871317547363414,0.465200704024527
1.1187174726678,0.797154308895188
0.241672831534198,-0.253552146771167
0.689016787199757,-0.687121268786999
1.13636074286532,-1.12069039080283
0.640175245788272,-0.0338412951939129
-0.296450476041528,0.29161902018112
