0.590384501298262,-0.597337939161304
0.585180107873346,-0.592862642684517
0.580001179193895,-0.588434991271798
0.574847674867381,-0.584054727600782
0.569719554501272,-0.579721594349102
0.56461677770304,-0.575435334194392
0.559539304080155,-0.571195689814288
0.554487093240088,-0.567002403886423
0.549460104790309,-0.562855219088432
0.544458298338288,-0.558753878097949
0.539481633491496,-0.554698123592608
0.534530069857404,-0.550687698250043
0.529603567043482,-0.54672234474789
0.5247020846572,-0.542801805763781
0.519825582306029,-0.538925823975352
0.514974019597439,-0.535094142060237
0.510147356138901,-0.53130650269607
0.505345551537886,-0.527562648560485
0.500568565401863,-0.523862322331116
0.495816357338303,-0.520205266685598
0.491088886954678,-0.516591224301566
0.486386113858456,-0.513019937856652
0.481707997657109,-0.509491150028493
0.477054497958107,-0.506004603494721
0.472425574368921,-0.502560040932972
0.46782118649702,-0.499157205020879
0.463241293949876,-0.495795838436077
0.458685856334959,-0.492475683856201
0.45415483325974,-0.489196483958884
0.449648184331689,-0.48595798142176
0.445165869158276,-0.482759918922465
0.440707847346972,-0.479602039138631
0.436274078505247,-0.476484084747894
0.431864522240572,-0.473405798427889
0.427479138160417,-0.470366922856248
0.423117885872253,-0.467367200710606
0.418780724983551,-0.464406374668599
0.414467615101779,-0.461484187407859
0.410178515834411,-0.458600381606022
0.405913386788914,-0.455754699940721
0.401672187572761,-0.452946885089591
0.397454877793422,-0.450176679730267
0.393261417058366,-0.447443826540381
0.389091764975065,-0.44474806819757
0.38494588115099,-0.442089147379466
0.380823725193609,-0.439466806763705
0.376725256710395,-0.43688078902792
0.372650435308816,-0.434330836849747
0.368599220596345,-0.431816692906818
0.364571572180451,-0.429338099876769
0.360567449668605,-0.426894800437233
0.356586812668277,-0.424486537265846
0.352629620786938,-0.422113053040241
0.348695833632058,-0.419774090438052
0.344785410811108,-0.417469392136914
0.340898311931558,-0.415198700814462
0.337034496600879,-0.412961759148329
0.333193924426541,-0.41075830981615
0.329376555016014,-0.408588095495558
0.325582347976769,-0.406450858864189
0.321811262916277,-0.404346342599677
0.318063259442008,-0.402274289379656
0.314338297161433,-0.400234441881759
0.310636335682021,-0.398226542783622
0.306957334611244,-0.396250334762879
0.303301253556572,-0.394305560497164
0.299668052125474,-0.392391962664111
0.296057689925423,-0.390509283941355
0.292470126563888,-0.38865726700653
0.28890532164834,-0.38683565453727
0.285363234786249,-0.385044189211209
0.281843825585086,-0.383282613705982
0.278347053652321,-0.381550670699224
0.274872878595424,-0.379848102868567
0.271421260021867,-0.378174652891647
0.267992157539119,-0.376530063446098
0.264585530754651,-0.374914077209554
0.261201339275934,-0.37332643685965
0.257839542710438,-0.37176688507402
0.254500100665633,-0.370235164530297
0.251182972748991,-0.368731017906117
0.24788811856798,-0.367254187879114
0.244615497730073,-0.365804417126921
0.241365069842738,-0.364381448327174
0.238136794513448,-0.362985024157506
0.234930631349672,-0.361614887295552
0.231746539958881,-0.360270780418946
0.228584479948545,-0.358952446205322
0.225444410926134,-0.357659627332315
0.22232629249912,-0.356392066477559
0.219230084274972,-0.355149506318687
0.216155745861162,-0.353931689533336
0.213103236865159,-0.352738358799138
0.210072516894434,-0.351569256793729
0.207063545556458,-0.350424126194741
0.204076282458701,-0.349302709679811
0.201110687208633,-0.348204749926571
0.198166719413725,-0.347129989612657
0.195244338681447,-0.346078171415702
0.192343504619271,-0.34504903801334
0.189464176834665,-0.344042332083207
0.186606314935102,-0.343057796302936
0.183769878528051,-0.342095173350162
0.180954827220982,-0.341154205902519
0.178161120621367,-0.340234636637641
0.175388718336676,-0.339336208233163
0.172637579974378,-0.338458663366718
0.169907665141945,-0.337601744715941
0.167198933446848,-0.336765194958467
0.164511344496556,-0.33594875677193
0.15919943326027,-0.334375185822202
0.156575030189218,-0.33361753841428
0.153971608292853,-0.332878973287832
0.151389127178646,-0.332159233120492
0.148827546454067,-0.331458060589894
0.146286825726587,-0.330775198373673
0.143766924603677,-0.330110389149463
0.141267802692806,-0.329463375594899
0.138789419601446,-0.328833900387614
0.136331734937067,-0.328221706205242
0.133894708307138,-0.327626535725419
0.131478299319132,-0.327048131625778
0.129082467580517,-0.326486236583954
0.126707172698765,-0.32594059327758
0.124352374281347,-0.325410944384293
0.122018031935731,-0.324897032581724
0.11970410526939,-0.324398600547509
0.117410553889794,-0.323915390959283
0.115137337404412,-0.323447146494679
0.112884415420716,-0.322993609831331
0.110651747546176,-0.322554523646875
0.108439293388262,-0.322129630618943
0.106247012554445,-0.321718673425172
0.104074864652196,-0.321321394743194
0.101922809288984,-0.320937537250644
0.0997908060722805,-0.320566843625157
0.0976788146095558,-0.320209056544366
0.0955867945082803,-0.319863918685906
0.0935147053759245,-0.319531172727412
0.0914625068199589,-0.319210561346517
0.089430158447854,-0.318901827220856
0.0874176198670801,-0.318604713028063
0.0854248506851078,-0.318318961445773
0.0834518105094077,-0.318044315151619
0.08149845894745,-0.317780516823236
0.0795647556067053,-0.317527309138258
0.077650660094644,-0.317284434774321
0.0757561320187367,-0.317051636409056
0.0738811309864538,-0.3168286567201
0.0720256166052658,-0.316615238385087
0.0701895484826431,-0.31641112408165
0.0683728862260562,-0.316216056487424
0.0665755894429757,-0.316029778280044
0.0647976177408718,-0.315852032137142
0.0630389307272152,-0.315682560736355
0.0612994880094763,-0.315521106755316
0.0595792491951256,-0.31536741287166
0.0578781738916335,-0.31522122176302
0.0561962217064705,-0.315082276107031
0.0545333522471071,-0.314950318581327
0.0528895251210138,-0.314825091863543
0.051264699935661,-0.314706338631313
0.0496588362985191,-0.314593801562271
0.0480718938170588,-0.314487223334051
0.0465038320987504,-0.314386346624289
0.0449546107510643,-0.314290914110617
0.0434241893814711,-0.31420066847067
0.0419125275974414,-0.314115352382083
0.0404195850064454,-0.31403470852249
0.0389453212159536,-0.313958479569525
0.0374896958334367,-0.313886408200823
0.036052668466365,-0.313818237094017
0.034634198722209,-0.313753708926742
0.0332342462084391,-0.313692566376633
0.0318527705325259,-0.313634552121323
0.0304897313019398,-0.313579408838447
0.0278188006066308,-0.313476705900534
0.0265108283568488,-0.313428631600765
0.0252211309822758,-0.313382398983967
0.0239496680903824,-0.313337750727775
0.0226963992886388,-0.313294429509822
0.0214612841845156,-0.313252178007744
0.0190453534990124,-0.313169854861745
0.0178644571325733,-0.313129268573093
0.0167015528936365,-0.313088722710853
0.0155566003896724,-0.313047959952658
0.0144295592281516,-0.313006722976143
0.0133203890165444,-0.312964754458941
0.0122290493623214,-0.312921797078688
0.0111554998729531,-0.312877593513017
0.0100997001559098,-0.312831886439563
0.00906160981866217,-0.31278441853596
0.00804118846868055,-0.312734932479842
0.00703839571343548,-0.312683170948844
0.00605319116039742,-0.312628876620599
0.0032027027892298,-0.312448223628733
0.00138957768977832,-0.312310406737887
-0.000354164021553888,-0.312156282921279
-0.00120011708799911,-0.3120724626099
-0.00202884548500307,-0.311983793599984
-0.00284038960509537,-0.311890018569165
-0.00363478984080547,-0.311790880195076
-0.00517232022919731,-0.31157548412763
-0.0059155311669381,-0.31145871178954
-0.00664175979041481,-0.311335546818719
-0.00804343166469423,-0.311069009689418
-0.008718955700556,-0.310925122886207
-0.0093776589922718,-0.310773814160802
-0.0100195819323712,-0.310614826190836
-0.0106447649133838,-0.310447901653944
-0.0118450725682663,-0.310089213589919
-0.0124202780271955,-0.309896935418054
-0.0135209941706769,-0.309485224182793
-0.0140465856402883,-0.309265276474664
-0.0145557198985195,-0.30903559094305
-0.0150484373379001,-0.308795910265584
-0.0155247783509596,-0.3085459771199
-0.0159847833302275,-0.308285534183633
-0.0164284926682334,-0.308014324134417
-0.0168559467575067,-0.307732089649887
-0.0172671859905771,-0.307438573407676
-0.017662250759974,-0.307133518085419
-0.0180411814582269,-0.30681666636075
-0.0184040184778654,-0.306487760911304
-0.0190815730514174,-0.305792759548616
-0.0193963713903899,-0.305426148990644
-0.0196952376208662,-0.30504645541843
-0.0199782121353756,-0.304653421509611
-0.0202453353264479,-0.30424678994182
-0.0204966475866124,-0.303826303392692
-0.0209520008843365,-0.302942736060959
-0.0211561227069551,-0.302479140633624
-0.0213445951687842,-0.302000660935489
-0.0215174586623531,-0.301507039644187
-0.0216747535801916,-0.300998019437354
-0.0220536308046192,-0.299375992100006
-0.0221490553448308,-0.298802803007389
-0.0222291132719596,-0.298212928387411
-0.0222938449785351,-0.297606110917707
-0.0223432908570867,-0.296982093275912
-0.0223774913001441,-0.296340618139659
-0.0223964867002367,-0.295681428186583
-0.022400317449894,-0.295004266094318
-0.0223626465680212,-0.293594996202758
-0.0223212257215501,-0.292862373758732
-0.0222648017947618,-0.292110749886054
-0.022193415180186,-0.291339867262359
-0.0221071062703521,-0.290549468565281
-0.0218898831350283,-0.288909093661512
-0.0217590496945974,-0.28805860281009
-0.0216134555290267,-0.287187566595822
-0.0214531410308455,-0.286295727696342
-0.0212781465925834,-0.285382828789284
-0.02108851260677,-0.284448612552284
-0.0208842794659347,-0.283492821662975
-0.0204321772893169,-0.281515486637967
-0.0199221632029662,-0.279448765135335
-0.0196455401749649,-0.278381241148995
-0.0193545603471188,-0.277290598576153
-0.0190492641119577,-0.276176580094441
-0.0183958839898083,-0.273877386114949
-0.018047880887879,-0.272691695972437
-0.017309450564959,-0.270246842770052
-0.0160963506708683,-0.266392020837586
-0.0152177857145119,-0.263694109369084
-0.0147576749058335,-0.262305972613678
-0.0142837324001944,-0.260891372081015
-0.0132945138681519,-0.257981750394453
-0.0122504532586208,-0.254963185730473
-0.0117079581561208,-0.253412406476037
-0.0111518737118373,-0.25183361951015
-0.0105822403182996,-0.250226567510444
-0.00999909836803749,-0.248590993154556
-0.00940248825358034,-0.246926639120119
-0.00879245036745775,-0.245233248084768
-0.00816902510219922,-0.243510562726136
-0.00753225285033429,-0.241758325721858
-0.00688217400439246,-0.239976279749568
-0.00621882895690331,-0.238164167486901
-0.00554225810039632,-0.236321731611491
-0.00485250182740109,-0.234448714800972
-0.00414960053044705,-0.232544859732979
-0.00270452443478086,-0.228643605535105
-0.00196243042112776,-0.226645691760494
-0.001207352953634,-0.224615910438945
-0.000439332424829155,-0.222554004248093
0.000341590772757305,-0.220459715865573
0.00194198360415682,-0.216172963236062
0.0027613724529108,-0.213979984344341
0.00359350240032829,-0.211753593971488
0.00443833305387967,-0.209493534795137
0.00616593490926616,-0.204871380742481
0.00704862532604221,-0.202508771221445
0.00794385487883403,-0.200111463607447
0.00885158317511218,-0.197679200578124
0.00977176982234705,-0.19521172481111
0.011649356599569,-0.190170105774542
0.012606675944497,-0.187595447860258
0.0135762920702636,-0.18498454791882
0.0145581645843393,-0.182337148627861
0.0155522530941946,-0.179652992665017
0.0175769165311259,-0.174173381434207
0.0186074106731428,-0.17137741152151
0.0196499592408211,-0.168543655647464
0.0207045218416314,-0.165671856489704
0.021771058083044,-0.162761756725864
0.0239398899175585,-0.15682562609048
0.0250421047256012,-0.153799080574205
0.0284194600025169,-0.144482435362658
0.0295686807373196,-0.141297026330016
0.0307295519724884,-0.138071258112368
0.0342816647548967,-0.128149225125732
0.0367072519152917,-0.121328022966241
0.0391784716564427,-0.114339208329948
0.0404310927634778,-0.110781303027088
0.0416950008381134,-0.107180722637929
0.0429701554878198,-0.103537209840108
0.0442565163200676,-0.0998505073112582
0.0455540429423271,-0.0961203577290139
0.0481824319867636,-0.0885286881148788
0.050854999480893,-0.0807601424187771
0.0522077491652688,-0.0768088977340745
0.0535714222844791,-0.0728126620617833
0.0549459784459946,-0.0687711780795374
0.0563313772572856,-0.0646841884649716
0.0577275783258228,-0.0605514358957196
0.0591345412590763,-0.0563726630494162
0.061980591149615,-0.0478760272361916
0.0634195973218411,-0.0435576496245389
0.0648692037886655,-0.039192222446372
0.0663293701575588,-0.0347794883793246
0.0678000560359914,-0.0303191901010316
0.0692812210314338,-0.0258110702891268
0.0707728247513566,-0.0212548716212448
0.0722748268032301,-0.0166503367750197
0.0737871867945248,-0.0119972084280859
0.0753098643327112,-0.00729522925807756
0.0768428190252598,-0.00254414194262921
0.0783860104796411,0.00225631084062522
0.0799393983033253,0.00710638641405104
0.0815029421037833,0.0120063421000144
0.0862541054405032,0.027008063056785
0.0878578692227602,0.0321101124165547
0.0910952184371223,0.0424679686315573
0.0927287230841685,0.0477242901315215
0.094372060567752,0.053032550322949
0.0960251904953433,0.058393006528205
0.0976880724744129,0.0638059160696557
0.0993606661124312,0.0692715362696663
0.101042931016869,0.074790124450603
0.102734826795196,0.080361937934831
0.104436313054884,0.0859872340447166
0.074012791197102,0.0574584305815647
0.118945151573489,0.0892943209917015
0.125394135979918,0.0768152477067848
0.0839261033636518,0.16657455895993
0.107806453572206,0.142735311566259
0.091729972558746,0.117624507645009
0.0860634515175215,0.0962169278540229
0.130810980680614,0.12989652958463
0.110247076351066,0.190747578795499
0.118487743832506,0.176460268551947
0.131704633019762,0.176538225819315
0.177307268537223,0.152404031446525
0.122524182765715,0.17112770437873
0.18875456854014,0.232548273683333
0.142611135493566,0.268579273666181
0.140230477311373,0.280789805137975
0.127985853226542,0.29089436994072
0.136846729564812,0.280149056423099
0.155614360268264,0.252776747613187
0.157148466473037,0.25753998422432
0.156991024336661,0.243912317101296
0.160194547135608,0.266947333775552
0.138986203071562,0.238914639655708
0.179453420419272,0.321673320401575
0.176851762354067,0.334643609242702
0.186513406940344,0.286508117823464
0.17396649701688,0.325147332173497
0.176426479125962,0.315860239745595
0.188990916958956,0.359043179058508
0.180702199526828,0.328373556682214
0.182113221174877,0.332466289288132
0.184914043945096,0.34053440348875
0.21654220444575,0.348479593944882
0.165736653198336,0.368299603478826
0.189062494791936,0.352343718632164
0.190431307660273,0.356202201070108
0.225800085972393,0.376922261449187
0.186815500635887,0.361453144661647
0.169124172087116,0.417382586356825
0.197171145416008,0.374911507797467
0.198498392719527,0.378536991356716
0.181080821409602,0.416719436779214
0.218568931439805,0.366403329844976
0.203738910010855,0.392652158240822
0.208870729845643,0.40615016574601
0.210136834829859,0.409428497154618
0.164199244409195,0.404902101789168
0.254248910256305,0.438863350520296
0.1720363690009,0.376411075363003
0.191696258762443,0.443113810099561
0.216367153258064,0.4252448692933
0.217593300714693,0.428293330046414
0.218812851118173,0.431303600676737
0.220025822335583,0.434275715942304
0.221232232234004,0.437209710601151
0.222432098680516,0.440105619411314
0.223625439542199,0.442963477130827
0.224812272686135,0.445783318517727
0.225992615979403,0.44856517833005
0.227166487289084,0.45130909132583
0.229494885426005,0.456683215899906
0.230649447987406,0.459313496994273
0.231797610033541,0.46190597030424
0.236326610407029,0.471898480860818
0.238553172046268,0.476668793141632
0.24401006851846,0.487937803741645
0.247209830141514,0.494250243781689
0.248264128508303,0.496279771289923
0.249312312233113,0.498272047142326
0.250354399183022,0.500227106096934
0.251390407225113,0.502144982911782
0.252420354226464,0.504025712344905
0.253444258054156,0.50586932915434
0.255474007656886,0.509445363934285
0.257479798969945,0.512873365315902
0.261420078473622,0.519286380141289
0.262390397757001,0.520797547449125
0.263354852537526,0.522271949713628
0.264313460682275,0.523709621692833
0.26526624005833,0.525110598144776
0.266213208532771,0.526474913827493
0.267154383972678,0.527802603499019
0.268089784245132,0.529093701917389
0.269019427217213,0.53034824384064
0.269943330756001,0.531566264026807
0.27177399100202,0.53389287822003
0.273581907919833,0.536073822561342
0.275367224446082,0.538109375115029
0.276251452230072,0.539072716366602
0.277130083517411,0.539999813945375
0.278003136175181,0.540890702609384
0.278870628070461,0.541745417116664
0.279732577070333,0.542563992225251
0.280589001041877,0.543346462693181
0.281439917852172,0.544092863278489
0.2822853453683,0.54480322873921
0.283959803986374,0.546115993319036
0.284788870822481,0.546718461954212
0.285612519832741,0.547285034496943
0.286430768884236,0.547815745705267
0.287243635844045,0.548310630337217
0.288051138579249,0.54876972315083
0.289650122844162,0.549580672355185
0.292008814234002,0.550529526475076
0.292784506830262,0.550774598297411
0.294320192424735,0.551158131163851
0.295835064335679,0.551399748046222
0.298068659219387,0.551496689165269
0.298802938853555,0.551458346115892
0.299532122269324,0.551384732618711
0.300256227333773,0.551275883431761
0.300975271913983,0.551131833313079
0.301689273877034,0.550952617020699
0.30518426978272,0.549530259484585
0.305868391251505,0.549140776068768
0.306547595172695,0.548716369785502
0.307221899413368,0.548257075392824
0.307891321840606,0.547762927648769
0.309215592723097,0.546670211138669
0.30987047691251,0.546071711888695
0.31052055075681,0.545438498319486
0.311165832123075,0.544770605189078
0.312442088889826,0.543330919276805
0.313699390149406,0.541752932216162
0.314320977131708,0.540912162650289
0.314937878838458,0.540036922071431
0.316157697893624,0.538183166906899
0.316760650976202,0.537204721837296
0.319706566622242,0.531798211937335
0.320282104867643,0.530614296353203
0.320853136508296,0.52939625733644
0.321981751443679,0.526857948037164
0.32253937047257,0.525537747270724
0.323092554365034,0.524183562103794
0.324185688209005,0.521373377600614
0.325792572128768,0.51690408679307
0.32631952041136,0.515346725141958
0.326842158627088,0.513755622396607
0.327360504643031,0.512130813315052
0.328889968162963,0.507054495633522
0.329391324050575,0.505295208787508
0.330870245995441,0.499816292005453
0.331835417864512,0.495996481527761
0.332311824572037,0.494036520776125
0.333716542191535,0.487956833566484
0.334632780522772,0.483737552211468
0.335084881265103,0.48157816884349
0.335532993548016,0.479385670025913
0.336417324203911,0.474901465074104
0.337285915427099,0.470285215420325
0.337714353419129,0.467927660725286
0.338138910154224,0.465537199128861
0.338559603499463,0.463113865389085
0.338976451321927,0.460657694263995
0.340204100323473,0.453092504157193
0.340605744725641,0.4505053310712
0.341003632940436,0.44788549439007
0.341788212276228,0.442547969274541
0.342557981267492,0.437080206874892
0.343685178032303,0.428634976633315
0.344053659963006,0.42575508248037
0.345491812520122,0.413912345720779
0.346533363292228,0.404691948220878
0.347543681237548,0.395182583521866
0.347873596637521,0.391948742559892
0.348200113191728,0.388682933163493
0.348843021231166,0.38205554809956
0.349159448450558,0.378694041948097
0.349472548292505,0.375300706394351
0.349782338624087,0.371875576196357
0.350088837312386,0.36841868611215
0.351572581452435,0.35065905392918
0.35214366295328,0.34333409838375
0.352424471710201,0.339624380499126
0.352702149627561,0.33588321555061
0.352976714572441,0.332110638296237
0.353248184411921,0.328306683494042
0.354044201968765,0.316706901380889
0.354559732376134,0.308817462797001
0.354813006791902,0.304825972626627
0.355063311171832,0.300803348214681
0.355555081292502,0.292664835698215
0.356035185674786,0.284402203311887
0.356270907881735,0.280224429062614
0.356503767255328,0.276015729119982
0.356733781662646,0.271776138242026
0.35718534704678,0.263204422712288
0.357841804552926,0.250116036353647
0.358055124371282,0.245691829782499
0.358473622184937,0.236751508511016
0.358678835914397,0.232235463326752
0.35927855079827,0.218504206676297
0.359665267471233,0.20919778224163
0.35985475143407,0.204498998298094
0.360041676303917,0.199769879547804
0.360587275026328,0.185400862036763
0.360938539606129,0.175670480226284
0.361279996623902,0.165819593381641
0.361447091964728,0.160849047466597
0.361774105645664,0.150817924441242
0.361934059719933,0.145757416847002
0.362091669106178,0.140666991542435
0.363130784379941,0.104199238196282
0.363270279476878,0.0988707224983753
0.363407590689514,0.0935126019124612
0.364548064877917,0.0439630317547656
0.365002032503884,0.0211788043930795
0.365110645379732,0.0154098649687953
0.365217342377485,0.00961184202703683
0.365322141364221,0.00378477032584015
0.365425060207022,-0.0020713153767596
0.365722714542613,-0.0198133089126202
0.365818291480474,-0.0257851030404758
0.365912077609802,-0.0317857373795564
0.366094348911177,-0.0438733876592507
0.366182869817384,-0.0499603340837933
0.36626967138338,-0.0560759816874186
0.366519938710895,-0.074594783992436
0.366600041586844,-0.0808248887320368
0.366678514457982,-0.087083520860543
0.36675537519139,-0.0933706456199183
0.366830641654148,-0.0996862282521279
0.367047054089326,-0.118803375805403
0.367116122140287,-0.125232442348593
0.367314368150004,-0.144689207441955
0.367672156562415,-0.184362653992553
0.36772697927951,-0.191072997250703
0.367780475732161,-0.197811277011153
0.368205209974269,-0.25970720238286
0.368246426471893,-0.266722935474359
0.368435920403209,-0.302214218229783
0.368470626547674,-0.309394754934204
0.368504310168061,-0.316602637254322
0.368536989131449,-0.323837830432099
0.368568681304919,-0.331100299709502
0.368599404555552,-0.338390010328493
0.368658015756627,-0.353051016559102
0.368739112313966,-0.375245967016046
0.368812453388107,-0.397684212613372
0.368878521390219,-0.420364814884121
0.368878521390219,-0.420364814884121
0.368970475218385,-0.457319062483923
0.368985357624255,-0.464460632734582
0.369010893582106,-0.478497545194338
0.369021367010555,-0.485393650210369
0.369030190656333,-0.492208696288457
0.369037274457673,-0.49894306483207
0.369042528352811,-0.505597137244675
0.369045862279979,-0.51217129492974
0.369046409983346,-0.525081391731116
0.369043443636013,-0.531418093654362
0.369020503056759,-0.549959390355935
0.368992607438554,-0.561933394634853
0.368974608874544,-0.567805482928073
0.368903329421691,-0.584966669264388
0.36887350814458,-0.590536643206935
0.36876459907005,-0.60680064017444
0.368674888033373,-0.617275514804002
0.368512862762558,-0.632443769794527
0.368385489384214,-0.642197684859449
0.368081044729239,-0.660859433685079
0.367806388631386,-0.674127438372331
0.367705532915708,-0.678413415623342
0.367599875255558,-0.68263168305776
0.367489325589169,-0.686782622079053
0.367253189990613,-0.694884040496133
0.366996405625914,-0.702720722102321
0.366860045001847,-0.706540740109997
0.366418008621584,-0.717612079792965
0.365566029254998,-0.734791482339064
0.365182797844012,-0.741226652181141
0.364774234455064,-0.747416918192616
0.36456022811444,-0.750421165770546
0.364339618594029,-0.753365331601228
0.363878229766779,-0.759074943634711
0.363637270336411,-0.761841152644449
0.362602897728771,-0.772324241384265
0.361750534913129,-0.779586402572119
0.361451346338514,-0.781894841811894
0.361144473842923,-0.784147776146026
0.359136833069985,-0.796521137726469
0.358773651398117,-0.798396217018179
0.358021984747307,-0.801989395971347
0.355991012613287,-0.81007442767294
0.354664731657448,-0.814324989222527
0.353734169292698,-0.816914863033635
0.352765666302783,-0.819313229499541
0.35071195647095,-0.823547645306701
0.350173690350191,-0.82449132471108
0.349625308640781,-0.825389797103429
0.349066721280953,-0.826243443887215
0.344219811575415,-0.831504664665292
0.342899723321254,-0.832398412016882
0.340124470360719,-0.833701395902707
0.33940199083274,-0.833928426974106
0.337164312169726,-0.83437870688364
0.334819382091012,-0.83449077630899
0.334013484795268,-0.834454754781579
0.333195310428494,-0.834382679925349
0.331521770234794,-0.834131895840303
0.328023402277347,-0.833214469476942
0.327116766683926,-0.832900700616063
0.326197133525349,-0.832553929654102
0.318361348499243,-0.828637454735545
0.315197571815733,-0.826670391792768
0.314114943057561,-0.825957345088269
0.31301814593128,-0.825216254527761
0.311907090375122,-0.824447501514712
0.307318482616418,-0.821103493006445
0.304936286551901,-0.81927543052721
0.30125110083394,-0.816346845604991
0.293469003446941,-0.809856066371681
0.29075033629842,-0.807515925013726
0.286553013858779,-0.803850687559467
0.28512172700734,-0.802589127243962
0.277719894683995,-0.795999880091822
0.274642961504159,-0.793239959494197
0.268285931997373,-0.787523948502758
0.265004394682169,-0.784573960564418
0.263337555167935,-0.783077305896727
0.261653215000258,-0.781566719301313
0.259951284117372,-0.780042582181642
0.258231672457513,-0.778505275941181
0.25296585219843,-0.773818156529733
0.249365250341799,-0.770634557048383
0.241944672363587,-0.764139840913581
0.238123255253753,-0.760834826715602
0.228239809830414,-0.752428600895614
0.224152579304495,-0.749016643910411
0.222079921146633,-0.747301591033706
0.219987780976482,-0.745580997105554
0.217876068732277,-0.743855243529422
0.211422598937673,-0.738650838947822
0.18620659494882,-0.719366516367336
0.163697652615192,-0.703616076410496
0.158458907894502,-0.700150123674206
0.147717733799425,-0.693278351535358
0.144976980612502,-0.691575161132065
0.139428292210512,-0.688189153307454
0.119293015022624,-0.676592089596086
0.101131569564688,-0.667040554164535
0.0948889957486439,-0.663951720009109
0.0917319113132889,-0.662426833807329
0.0885508417773576,-0.660915476727459
0.0788628219484482,-0.656466394253985
0.0722825654272548,-0.653574977278121
0.0484743870184955,-0.643973294140103
0.0414469981249854,-0.641390621351516
0.0378953446685193,-0.640127969516365
0.0343182651232252,-0.6388849492586
0.0234335693367153,-0.635277491984287
0.0160483239025288,-0.632977670751902
0.000965515026956978,-0.628644119493126
-0.0145385211523863,-0.624685698027257
-0.0184810224266794,-0.623757567216935
-0.034519698294654,-0.620302384304242
-0.112150134722816,-0.610428370166446
-0.140071612016582,-0.609456720330191
-0.154426667883824,-0.609452177472637
-0.164144399675971,-0.60963439391286
-0.194014454314933,-0.611103782795874
-0.246230639235828,-0.616811636472958
-0.257045274745535,-0.618469499088818
-0.348140184142674,-0.63844050884087
-0.372211947754212,-0.645408503191794
-0.384446497717013,-0.649205568406747
-0.421953466163048,-0.661885650942417
-0.434725963478025,-0.666552144843702
-0.500647181035813,-0.693320417518756
-0.507430166270442,-0.696321283526019
-0.521101414894754,-0.702504722189124
-0.577203327185038,-0.72971717133109
-0.591586637176498,-0.737155213377654
-0.628178998417707,-0.756894818379318
