0.713263582541088,-0.187953171842385
0.882450706038856,-0.833655038484257
0.935443073634401,-0.273906198871819
0.926190144674507,0.587621158957981
0.916937215714613,1.44914851678778
0.197749658899033,-0.0987992654134828
-0.746899956886978,0.407684405577311
-1.69154957267299,0.914168076568106
0.722388364409913,0.469134206672957
0.255114625022785,0.462573270621911
