-0.173559816931997,-0.664353479167795
-0.176665004861707,-0.658804110172303
-0.179718993225447,-0.653308722500348
-0.182721973266312,-0.647866998385608
-0.185674136227394,-0.642478620061765
-0.188575673351788,-0.637143269762497
-0.191426775882588,-0.631860629721485
-0.194227635062887,-0.626630382172408
-0.196978442135779,-0.621452209348945
-0.199679388344358,-0.616325793484777
-0.202330664931718,-0.611250816813584
-0.204932463140953,-0.606226961569044
-0.207484974215156,-0.601253909984838
-0.209988389397421,-0.596331344294646
-0.212442899930842,-0.591458946732146
-0.214848697058513,-0.58663639953102
-0.217205972023528,-0.581863384924946
-0.21951491606898,-0.577139585147604
-0.221775720437963,-0.572464682432674
-0.223988576373571,-0.567838359013836
-0.226153675118898,-0.56326029712477
-0.228271207917038,-0.558730178999154
-0.230341366011084,-0.554247686870669
-0.232364340644131,-0.549812502972995
-0.234340323059271,-0.545424309539811
-0.2362695044996,-0.541082788804798
-0.23815207620821,-0.536787623001634
-0.239988229428196,-0.532538494363999
-0.241778155402651,-0.528335085125573
-0.243522045374669,-0.524177077520037
-0.245220090587344,-0.520064153781068
-0.246872482283769,-0.515995996142348
-0.248479411707039,-0.511972286837556
-0.250041070100248,-0.507992708100372
-0.251557648706489,-0.504056942164475
-0.253029338768855,-0.500164671263546
-0.254456331530442,-0.496315577631263
-0.255838818234342,-0.492509343501307
-0.257176990123649,-0.488745651107357
-0.258471038441457,-0.485024182683093
-0.259721154430861,-0.481344620462195
-0.260927529334953,-0.477706646678342
-0.262090354396828,-0.474109943565214
-0.263209820859579,-0.470554193356491
-0.264286119966301,-0.467039078285853
-0.265319442960087,-0.46356428058698
-0.26630998108403,-0.46012948249355
-0.267257925581225,-0.456734366239243
-0.268163467694765,-0.453378614057741
-0.269026798667745,-0.450061908182721
-0.269848109743258,-0.446783930847864
-0.270627592164397,-0.44354436428685
-0.271365437174257,-0.440342890733359
-0.272061836015932,-0.437179192421069
-0.272716979932515,-0.434052951583661
-0.2733310601671,-0.430963850454814
-0.273904267962781,-0.427911571268209
-0.274436794562652,-0.424895796257524
-0.274928831209806,-0.42191620765644
-0.275380569147338,-0.418972487698637
-0.27579219961834,-0.416064318617793
-0.276163913865908,-0.413191382647589
-0.276495903133134,-0.410353362021705
-0.276788358663113,-0.407549938973819
-0.277041471698938,-0.404780795737613
-0.277255433483704,-0.402045614546765
-0.277430435260503,-0.399344077634956
-0.27756666827243,-0.396675867235864
-0.277664323762579,-0.394040665583171
-0.277723592974043,-0.391438154910555
-0.277744667149916,-0.388868017451696
-0.277727737533292,-0.386329935440273
-0.277672995367265,-0.383823591109968
-0.277580631894929,-0.381348666694459
-0.277450838359377,-0.378904844427426
-0.277283806003703,-0.376491806542548
-0.277079726071002,-0.374109235273506
-0.276838789804366,-0.37175681285398
-0.27656118844689,-0.369434221517648
-0.276247113241667,-0.36714114349819
-0.275896755431792,-0.364877261029288
-0.275510306260357,-0.362642256344619
-0.275087956970458,-0.360435811677864
-0.274629898805187,-0.358257609262702
-0.274136323007639,-0.356107331332814
-0.273607420820907,-0.353984660121878
-0.273043383488085,-0.351889277863575
-0.272444402252267,-0.349820866791585
-0.271810668356546,-0.347779109139586
-0.271142373044018,-0.34576368714126
-0.270439707557774,-0.343774283030284
-0.26970286314091,-0.34181057904034
-0.268932031036519,-0.339872257405107
-0.268127402487694,-0.337959000358265
-0.26728916873753,-0.336070490133493
-0.26641752102912,-0.334206408964471
-0.265512650605559,-0.332366439084878
-0.264574748709939,-0.330550262728395
-0.263604006585356,-0.328757562128702
-0.262600615474901,-0.326988019519477
-0.261564766621671,-0.325241317134401
-0.260496651268757,-0.323517137207154
-0.259396460659255,-0.321815161971414
-0.258264386036257,-0.320135073660862
-0.257100618642858,-0.318476554509178
-0.255905349722151,-0.316839286750041
-0.254678770517231,-0.315222952617131
-0.253421072271191,-0.313627234344127
-0.252132446227124,-0.31205181416471
-0.250813083628125,-0.310496374312559
-0.249463175717288,-0.308960597021353
-0.248082913737706,-0.307444164524774
-0.246672488932473,-0.305946759056499
-0.245232092544683,-0.304468062850209
-0.243761915817429,-0.303007758139584
-0.242262149993806,-0.301565527158304
-0.240732986316908,-0.300141052140047
-0.239174616029828,-0.298734015318495
-0.237587230375659,-0.297344098927325
-0.235971020597496,-0.295970985200219
-0.234326177938433,-0.294614356370856
-0.232652893641563,-0.293273894672916
-0.23095135894998,-0.291949282340078
-0.229221765106778,-0.290640201606022
-0.227464303355051,-0.289346334704428
-0.225679164937893,-0.288067363868976
-0.223866541098397,-0.286802971333344
-0.222026623079657,-0.285552839331214
-0.220159602124767,-0.284316650096264
-0.218265669476821,-0.283094085862175
-0.216345016378912,-0.281884828862626
-0.214397834074135,-0.280688561331296
-0.212424313805584,-0.279504965501866
-0.210424646816351,-0.278333723608016
-0.208399024349531,-0.277174517883424
-0.206347637648217,-0.276027030561771
-0.204270677955505,-0.274890943876736
-0.202168336514486,-0.273765940062
-0.200040804568255,-0.272651701351241
-0.197888273359907,-0.27154790997814
-0.195710934132534,-0.270454248176376
-0.19350897812923,-0.269370398179629
-0.19128259659309,-0.268296042221579
-0.189031980767207,-0.267230862535905
-0.186757321894674,-0.266174541356287
-0.184458811218587,-0.265126760916405
-0.182136639982038,-0.264087203449939
-0.179790999428121,-0.263055551190568
-0.177422080799931,-0.262031486371972
-0.17503007534056,-0.26101469122783
-0.172615174293103,-0.260004847991823
-0.170177568900654,-0.259001638897631
-0.167717450406306,-0.258004746178931
-0.165235010053153,-0.257013852069406
-0.162730439084289,-0.256028638802734
-0.160203928742808,-0.255048788612594
-0.157655670271804,-0.254073983732668
-0.15508585491437,-0.253103906396634
-0.1524946739136,-0.252138238838172
-0.149882318512588,-0.251176663290961
-0.147248979954428,-0.250218861988683
-0.144594849482214,-0.249264517165016
-0.141920118339039,-0.248313311053639
-0.139224977767997,-0.247364925888234
-0.136509619012183,-0.246419043902478
-0.133774233314689,-0.245475347330053
-0.13101901191861,-0.244533518404638
-0.128244146067039,-0.243593239359912
-0.125449827003071,-0.242654192429556
-0.122636245969798,-0.241716059847249
-0.119803594210316,-0.24077852384667
-0.116952062967717,-0.2398412666615
-0.114081843485096,-0.238903970525418
-0.111193127005546,-0.237966317672103
-0.108286104772161,-0.237027990335237
-0.105360968028035,-0.236088670748497
-0.102417908016262,-0.235148041145565
-0.0994571159799354,-0.234205783760119
-0.0964787831621491,-0.23326158082584
-0.0934831008059968,-0.232315114576407
-0.0904702601545727,-0.2313660672455
-0.0874404524509703,-0.230414121066798
-0.0843938689382834,-0.229458958273982
-0.0813307008596059,-0.22850026110073
-0.0782511394580316,-0.227537711780724
-0.0751553759766543,-0.226570992547642
-0.0720436016585678,-0.225599785635164
-0.0689160077468658,-0.22462377327697
-0.0657727854846423,-0.223642637706739
-0.0626141261149911,-0.222656061158152
-0.0594402208810058,-0.221663725864888
-0.0562512610257803,-0.220665314060626
-0.0530474377924086,-0.219660507979047
-0.0498289424239843,-0.21864898985383
-0.0465959661636011,-0.217630441918655
-0.0433487002543531,-0.216604546407202
-0.040087335939334,-0.21557098555315
-0.0368120644616375,-0.214529441590179
-0.0335230770643575,-0.213479596751969
-0.0302205649905877,-0.212421133272199
-0.0269047194834221,-0.211353733384549
-0.0235757317859543,-0.210277079322699
-0.0202337931412784,-0.209190853320329
-0.0168790947924878,-0.208094737611118
-0.0135118279826767,-0.206988414428747
-0.0101321839549385,-0.205871566006894
-0.00674035395236752,-0.204743874579239
-0.00333652921805706,-0.203605022379463
7.90990048987195e-05,-0.202454691641244
0.00350633947340623,-0.201292564598263
0.00694500094437149,-0.2001183234842
0.0103948921747009,-0.198931650532733
0.0138558219213003,-0.197732227977543
0.0173275989410764,-0.19651973805231
0.0208100319909349,-0.195293862990713
0.0243029298277824,-0.194054285026432
0.0278061012085246,-0.192800686393146
0.0313193548900683,-0.191532749324536
0.0348424996293192,-0.190250156054281
0.0383753441831838,-0.18895258881606
0.041917697308568,-0.187639729843554
0.0454693677623783,-0.186311261370442
0.0490301643015206,-0.184966865630405
0.0525998956829014,-0.18360622485712
0.0561783706634266,-0.182229021284269
0.0597653980000027,-0.180834937145532
0.0633607864495355,-0.179423654674587
0.0669643447689317,-0.177994856105114
0.070575881715097,-0.176548223670794
0.0741952060449379,-0.175083439605305
0.0778221265153604,-0.173600186142328
0.081456451883271,-0.172098145515543
0.0850979909055754,-0.170576999958628
0.0887465523391803,-0.169036431705265
0.0924019449409916,-0.167476122989132
0.0960639774679155,-0.165895756043909
0.0997324586768583,-0.164295013103276
0.103407197324726,-0.162673576400912
0.107088002168425,-0.161031128170498
0.110774681964862,-0.159367350645713
0.114467045470942,-0.157681926060237
0.118164901443572,-0.15597453664775
0.121868058639658,-0.15424486464193
0.125576325816106,-0.152492592276459
0.129289511729823,-0.150717401785015
0.133007425137714,-0.148918975401278
0.136729874796686,-0.147096995358929
0.140456669463645,-0.145251143891646
0.144187617895497,-0.14338110323311
0.147922528849149,-0.141486555617
0.151661211081506,-0.139567183276997
0.155403473349474,-0.137622668446778
0.159149124409961,-0.135652693360025
0.162897973019872,-0.133656940250418
0.166649827936113,-0.131635091351635
0.170404497915591,-0.129586828897356
0.174161791715212,-0.127511835121262
0.177921518091881,-0.125409792257031
0.181683485802505,-0.123280382538345
0.185447503603991,-0.121123288198882
0.189213380253244,-0.118938191472321
0.192980924507172,-0.116724774592344
0.196749945122678,-0.114482719792629
0.200520250856671,-0.112211709306857
0.204291650466056,-0.109911425368706
0.20806395270774,-0.107581550211857
0.211836966338628,-0.105221766069989
0.215610500115627,-0.102831755176783
0.219384362795643,-0.100411199765917
0.223158363135583,-0.097959782071072
0.226932309892352,-0.0954771843259272
0.230706011822856,-0.0929630887641622
0.234479277684002,-0.090417177619457
0.238251916232696,-0.087839133125491
0.242023736225845,-0.0852286375159444
0.245794546420354,-0.0825853730244964
0.249564155573129,-0.0799090218848271
0.253332372441077,-0.0771992663306159
0.257099005781104,-0.0744557885955427
0.260863864350116,-0.0716782709132872
0.26462675690502,-0.0688663955175292
0.268387492202721,-0.0660198446419482
0.272145879000126,-0.0631383005202241
0.275901726054141,-0.0602214453860364
0.279654842121672,-0.0572689614730652
0.283405035959625,-0.0542805310149898
0.287152116324907,-0.0512558362454902
0.290895891974423,-0.0481945593982459
0.29463617166508,-0.0450963827069369
0.298372764153785,-0.0419609884052425
0.302105478197443,-0.0387880587268428
0.30583412255296,-0.0355772759054173
0.309558505977243,-0.0323283221746459
0.313278437227198,-0.0290408797682081
0.31699372505973,-0.0257146309197838
0.320704178231747,-0.0223492578630525
0.324409605500155,-0.0189444428316942
0.328109815621859,-0.0154998680593883
0.331804617353766,-0.0120152157798148
0.335493819452782,-0.00849016822665322
0.339177230675813,-0.00492440763358341
0.342854659779765,-0.00131761623428495
0.346525915521546,0.00233052373756228
0.35019080665806,0.00602033004827877
0.353849141946213,0.00975212046418454
0.357500730142914,0.0135262127516002
0.361145380005066,0.0173429246768457
0.364782900289577,0.0212025740062417
0.368413099753353,0.025105478506108
0.3720357871533,0.0290519559427653
0.375650771246324,0.0330423240825337
0.379257860789331,0.0370769006917336
0.382856864539227,0.0411560035366851
0.38644759125292,0.0452799503837087
0.390029849687314,0.0494490589991245
0.393603448599317,0.053663647149253
0.397168196745834,0.057924032600414
0.400723902883771,0.0622305331189285
0.404270375770035,0.0665834664711162
0.407807424161532,0.0709831504232978
0.411334856815168,0.0754299027417932
0.414852482487849,0.079924041192923
0.418360109936482,0.0844658835430071
0.421857547917972,0.0890557475583665
0.425344605189226,0.0936939510053206
0.42882109050715,0.0983808116501903
0.432286812628651,0.103116647259296
0.435741580310634,0.107901775598957
0.439185202310005,0.112736514435494
0.442617487383671,0.117621181535229
0.446038244288539,0.12255609466448
0.449447281781513,0.127541571589568
0.452844408619501,0.132577930076813
0.456229433559408,0.137665487892537
0.459602165358142,0.142804562803057
0.462962412772607,0.147995472574697
0.46630998455971,0.153238534973775
0.469644689476358,0.158534067766612
0.472966336279456,0.163882388719528
0.476274733725911,0.169283815598843
0.479569690572629,0.174738666170878
0.482851015576516,0.180247258201953
0.486118517494479,0.185809909458388
0.489372005083423,0.191426937706504
0.492611287100254,0.19709866071262
0.49583617230188,0.202825396243058
0.499046469445205,0.208607462064137
0.502241987287137,0.214445175942177
0.505422534584581,0.2203388556435
0.508587920094445,0.226288818934425
0.511737952573632,0.232295383581272
0.514872440779051,0.238358867350363
0.517991193467608,0.244479588008016
0.521094019396207,0.250657863320553
0.524180727321757,0.256894011054293
0.527251126001162,0.263188348975557
0.530305024191329,0.269541194850666
0.533342230649164,0.275952866445939
0.536362554131574,0.282423681527696
0.539365803395464,0.28895395786226
0.542351787197741,0.295544013215948
0.545320314295312,0.302194165355082
0.548271193445081,0.308904732045982
0.551204233403956,0.315676031054968
0.554119242928842,0.32250838014836
0.557016030776646,0.32940209709248
0.559894405704274,0.336357499653646
0.562754176468632,0.34337490559818
0.565595151826627,0.350454632692402
0.568417140535164,0.357596998702631
0.57121995135115,0.364802321395189
0.57400339303149,0.372070918536395
0.576767274333092,0.37940310789257
0.579511404012861,0.386799207230034
0.582235590827704,0.394259534315107
0.584939643534526,0.40178440691411
0.587623370890234,0.409374142793363
0.590286581651734,0.417029059719187
0.592929084575933,0.4247494754579
0.595550688419736,0.432535707775825
0.59815120194005,0.44038807443928
0.60073043389378,0.448306893214587
0.603288193037833,0.456292481868065
0.605824288129116,0.464345158166036
0.608338527924534,0.472465239874819
0.610830721180994,0.480653044760734
0.613300676655402,0.488908890590102
0.615748203104664,0.497233095129243
0.618173109285686,0.505625976144477
0.620575203955374,0.514087851402125
0.622954295870634,0.522619038668507
0.625310193788374,0.531219855709943
0.627642706465499,0.539890620292753
0.629951642658914,0.548631650183259
0.632236811125527,0.557443263147779
0.634498020622244,0.566325776952635
0.636735079905971,0.575279509364146
0.638947797733613,0.584304778148633
0.641135982862078,0.593401901072416
0.64329944404827,0.602571195901816
0.64329944404827,0.602571195901816
0.645440823373333,0.611710683418686
0.647562933065259,0.620718570294459
0.649665837101234,0.62959545312982
0.651749599458446,0.638341928525459
0.653814284114078,0.646958593082062
0.655859955045318,0.655446043400317
0.657886676229351,0.66380487608091
0.659894511643363,0.67203568772453
0.661883525264539,0.680139074931863
0.663853781070066,0.688115634303596
0.665805343037129,0.695965962440418
0.667738275142915,0.703690655943015
0.669652641364608,0.711290311412075
0.671548505679395,0.718765525448285
0.673425932064462,0.726116894652333
0.675284984496995,0.733345015624905
0.677125726954178,0.74045048496669
0.678948223413199,0.747433899278373
0.680752537851243,0.754295855160643
0.682538734245496,0.761036949214187
0.684306876573144,0.767657778039693
0.686057028811372,0.774158938237847
0.687789254937367,0.780541026409337
0.689503618928313,0.786804639154851
0.691200184761398,0.792950373075075
0.692879016413807,0.798978824770696
0.694540177862725,0.804890590842403
0.696183733085339,0.810686267890883
0.697809746058835,0.816366452516823
0.699418280760397,0.82193174132091
0.701009401167213,0.827382730903831
0.702583171256467,0.832720017866275
0.704139655005346,0.837944198808927
0.705678916391036,0.843055870332476
0.707201019390722,0.848055629037608
0.708706027981591,0.852944071525012
0.710194006140828,0.857721794395374
0.711665017845618,0.862389394249382
0.713119127073148,0.866947467687723
0.714556397800604,0.871396611311085
0.715976894005171,0.875737421720154
0.717380679664035,0.879970495515618
0.718767818754383,0.884096429298165
0.720138375253399,0.888115819668481
0.72149241313827,0.892029263227254
0.722829996386182,0.895837356575172
0.72415118897432,0.899540696312921
0.725456054879871,0.90313987904119
0.726744658080019,0.906635501360664
0.728017062551952,0.910028159872032
0.729273332272854,0.913318451175981
0.730513531219912,0.916506971873199
0.731737723370311,0.919594318564372
0.732945972701238,0.922581087850188
0.734138343189877,0.925467876331334
0.735314898813416,0.928255280608497
0.736475703549039,0.930943897282366
0.737620821373933,0.933534322953626
0.738750316265284,0.936027154222966
0.739864252200277,0.938422987691073
0.740962693156098,0.940722419958635
0.742045703109932,0.942926047626337
0.743113346038967,0.945034467294868
0.744165685920388,0.947048275564916
0.745202786731379,0.948968069037167
0.746224712449128,0.950794444312308
0.74723152705082,0.952527997991028
0.748223294513642,0.954169326674013
0.749200078814778,0.955719026961951
0.750161943931414,0.957177695455529
0.751108953840737,0.958545928755434
0.752041172519933,0.959824323462354
0.752958663946187,0.961013476176976
0.753861492096684,0.962113983499987
0.754749720948612,0.963126442032074
0.755623414479155,0.964051448373926
0.756482636665499,0.964889599126229
0.757327451484831,0.965641490889671
0.758157922914336,0.966307720264938
0.7589741149312,0.966888883852719
0.759776091512609,0.9673855782537
0.760563916635749,0.967798400068569
0.761337654277805,0.968127945898014
0.762097368415963,0.96837481234272
0.76284312302741,0.968539596003377
0.763574982089331,0.968622893480671
0.764293009578911,0.968625301375289
0.764997269473337,0.96854741628792
0.765687825749795,0.968389834819249
0.76636474238547,0.968153153569965
0.767028083357548,0.967837969140754
0.767677912643215,0.967444878132305
0.768314294219658,0.966974477145304
0.76893729206406,0.966427362780438
0.76954697015361,0.965804131638396
0.770143392465492,0.965105380319864
0.770726622976892,0.96433170542553
0.771296725664996,0.963483703556081
0.771853764506989,0.962561971312204
0.772397803480059,0.961567105294586
0.77292890656139,0.960499702103916
0.773447137728169,0.95936035834088
0.77395256095758,0.958149670606166
0.774445240226811,0.95686823550046
0.774925239513047,0.955516649624451
0.775392622793473,0.954095509578826
0.775847454045276,0.952605411964271
0.776289797245642,0.951046953381474
0.776719716371756,0.949420730431124
0.777137275400803,0.947727339713905
0.777542538309971,0.945967377830507
0.777935569076444,0.944141441381617
0.778316431677409,0.942250126967921
0.778685190090051,0.940294031190108
0.779041908291557,0.938273750648864
0.779386650259112,0.936189881944876
0.779719479969901,0.934043021678834
0.780040461401111,0.931833766451422
0.780349658529928,0.929562712863328
0.780647135333538,0.927230457515242
0.780932955789126,0.924837597007848
0.781207183873877,0.922384727941835
0.781469883564979,0.91987244691789
0.781721118839616,0.917301350536701
0.781960953674975,0.914672035398954
0.782189452048242,0.911985098105337
0.782406677936601,0.909241135256537
0.78261269531724,0.906440743453243
0.782807568167344,0.90358451929614
0.782991360464099,0.900673059385916
0.78316413618469,0.897706960323259
0.783325959306303,0.894686818708856
0.783476893806125,0.891613231143394
0.783617003661341,0.88848679422756
0.783746352849137,0.885308104562043
0.783865005346699,0.882077758747529
0.783973025131213,0.878796353384705
0.784070476179864,0.875464485074259
0.784157422469838,0.872082750416878
0.784233927978321,0.868651746013249
0.7843000566825,0.865172068464061
0.784355872559559,0.861644314369999
0.784401439586684,0.858069080331752
0.784436821741063,0.854446962950007
0.784462082999879,0.850778558825451
0.78447728734032,0.847064464558771
0.78448249873957,0.843305276750655
0.784477781174817,0.83950159200179
0.784463198623246,0.835654006912864
0.784438815062041,0.831763118084562
0.78440469446839,0.827829522117574
0.784360900819478,0.823853815612587
0.784307498092491,0.819836595170287
0.784244550264615,0.815778457391362
0.784172121313036,0.811679998876499
0.784090275214939,0.807541816226386
0.783999075947511,0.80336450604171
0.783898587487937,0.799148664923158
0.783788873813402,0.794894889471417
0.783669998901094,0.790603776287175
0.783542026728197,0.78627592197112
0.783405021271898,0.781911923123938
0.783259046509382,0.777512376346317
0.783104166417835,0.773077878238945
0.782940444974444,0.768609025402508
0.782767946156393,0.764106414437693
0.782586733940869,0.759570641945188
0.782396872305057,0.755002304525682
0.782198425226144,0.75040199877986
0.781991456681315,0.745770321308409
0.781776030647756,0.741107868712019
0.781552211102653,0.736415237591375
0.781320062023192,0.731693024547165
0.781079647386558,0.726941826180077
0.780831031169937,0.722162239090797
0.780574277350516,0.717354859880013
0.78030944990548,0.712520285148413
0.780036612812015,0.707659111496683
0.779755830047306,0.702771935525511
0.779467165588541,0.697859353835585
0.779170683412903,0.692921963027591
0.77886644749758,0.687960359702217
0.778554521819756,0.682975140460151
0.778234970356619,0.677966901902079
0.777907857085353,0.672936240628689
0.777573245983145,0.667883753240668
0.777231201027181,0.662810036338703
0.776881786194645,0.657715686523483
0.776525065462725,0.652601300395694
0.776161102808606,0.647467474556023
0.775789962209473,0.642314805605157
0.775411707642513,0.637143890143786
0.775026403084911,0.631955324772595
0.774634112513854,0.626749706092271
0.774234899906526,0.621527630703502
0.773828829240115,0.616289695206977
0.773415964491806,0.61103649620338
0.772996369638784,0.605768630293401
0.772570108658235,0.600486694077726
0.772137245527346,0.595191284157043
0.771697844223302,0.589882997132039
0.771251968723288,0.584562429603401
0.770799683004492,0.579230178171817
0.770341051044098,0.573886839437974
0.769876136819293,0.56853301000256
0.769405004307262,0.563169286466261
0.768927717485191,0.557796265429764
0.768444340330266,0.552414543493759
0.767954936819673,0.54702471725893
0.767459570930597,0.541627383325967
0.766958306640225,0.536223138295556
0.766451207925742,0.530812578768385
0.765938338764334,0.52539630134514
0.765419763133188,0.51997490262651
0.764895545009488,0.514548979213181
0.764365748370421,0.509119127705841
0.763830437193172,0.503685944705177
0.763289675454928,0.498250026811877
0.762743527132873,0.492811970626627
0.762192056204195,0.487372372750116
0.761635326646078,0.48193182978303
0.76107340243571,0.476490938326056
0.760506347550274,0.471050294979883
0.759934225966958,0.465610496345197
0.759357101662947,0.460172139022686
0.758775038615427,0.454735819613037
0.758188100801584,0.449302134716938
0.757596352198604,0.443871680935075
0.756999856783672,0.438445054868136
0.756398678533975,0.433022853116809
0.755792881426697,0.42760567228178
0.755182529439026,0.422194108963737
0.754567686548146,0.416788759763367
0.753948416731244,0.411390221281358
0.753324783965506,0.405999090118397
0.752696852228117,0.400615962875172
0.752064685496264,0.395241436152368
0.751428347747131,0.389876106550675
0.750787902957905,0.384520570670779
0.750143415105772,0.379175425113367
0.749494948167917,0.373841266479128
0.748842566121527,0.368518691368747
0.748186332943787,0.363208296382913
0.747526312611883,0.357910678122313
0.746862569103001,0.352626433187634
0.746195166394326,0.347356158179563
0.745524168463045,0.342100449698789
0.744849639286344,0.336859904345997
0.744171642841408,0.331635118721876
0.743490243105422,0.326426689427112
0.742805504055574,0.321235213062394
0.742117489669048,0.316061286228408
0.741426263923031,0.310905505525841
0.740731890794709,0.305768467555382
0.740034434261266,0.300650768917717
0.73933395829989,0.295553006213534
0.738630526887765,0.29047577604352
0.737924204002079,0.285419675008362
0.737215053620015,0.280385299708747
0.736503139718762,0.275373246745364
0.735788526275503,0.270384112718899
0.735071277267426,0.265418494230039
0.734351456671715,0.260476987879473
0.733629128465558,0.255560190267887
0.732904356626138,0.250668697995968
0.732177205130644,0.245803107664404
0.731447737956259,0.240964015873882
0.730716019080171,0.23615201922509
0.729982112479564,0.231367714318714
0.729246082131625,0.226611697755443
0.72850799201354,0.221884566135964
0.727767906102495,0.217186916060963
0.727025888375674,0.212519344131128
0.726282002810265,0.207882446947147
0.725536313383452,0.203276821109706
0.724788884072423,0.198703063219494
0.724039778854362,0.194161769877196
0.723289061706456,0.189653537683502
0.722536796605889,0.185178963239098
0.721783047529849,0.180738643144671
0.721027878455521,0.176333174000909
0.720271353360091,0.171963152408498
0.719513536220744,0.167629174968127
0.718754491014667,0.163331838280483
0.717994281719045,0.159071738946253
0.717232972311064,0.154849473566124
0.71647062676791,0.150665638740783
0.715707309066769,0.146520831070919
0.714943083184826,0.142415647157218
0.714178013099269,0.138350683600367
0.713412162787281,0.134326537001054
0.712645596226049,0.130343803959967
0.71187837739276,0.126403081077792
0.711110570264598,0.122504964955217
0.71034223881875,0.118650052192929
0.709573447032402,0.114838939391616
0.708804258882738,0.111072223151964
0.708034738346946,0.107350500074661
0.707264949402211,0.103674366760395
0.706494956025719,0.100044419809853
0.705724822194655,0.096461255823722
0.704954611886206,0.0929254714026893
0.704184389077558,0.0894376631474423
0.703414217745895,0.0859984276586685
0.702644161868405,0.0826083615370548
0.701874285422272,0.0792680613832891
0.701104652384683,0.0759781237980582
0.700335326732823,0.0727391453820499
0.699566372443879,0.069551722735951
0.698797853495036,0.0664164524604493
0.69802983386348,0.0633339311562318
0.697262377526397,0.060304755423986
0.696495548460973,0.057329521864399
0.695729410644393,0.0544088270781584
0.694964028053843,0.0515432676659513
0.69419946466651,0.0487334402284653
0.693435784459579,0.0459799413663873
0.692673051410235,0.043283367680405
0.691911329495666,0.0406443157712055
0.691150682693056,0.0380633822394763
0.690391174979591,0.0355411636859045
0.689632870332457,0.0330782567111776
0.688875832728841,0.0306752579159828
0.688120126145927,0.0283327639010076
0.687365814560902,0.026051371266939
0.686612961950952,0.0238316766144647
0.685861632293262,0.0216742765442717
0.685111889565018,0.0195797676570476
0.684363797743407,0.0175487465534795
0.683617420805613,0.0155818098342548
0.682872822728823,0.0136795541000608
0.682130067490223,0.0118425759515849
0.681389219066998,0.0100714719895143
0.680650341436334,0.00836683881453651
0.679913498575417,0.00672927302733859
0.679178754461433,0.0051593712286081
0.678446173071568,0.00365773001903217
0.677715818383008,0.00222494599929826
0.676987754372938,0.000861615770093589
0.676262045018544,-0.000431664067894418
0.675538754297012,-0.00165429691397856
0.674817946185528,-0.00280568616747139
0.674099684661278,-0.00388523522768571
0.673384033701448,-0.00489234749393408
0.672671057283223,-0.00582642636552927
0.671960819383789,-0.00668687524178392
0.671253383980333,-0.00747309752201073
0.670548815050039,-0.00818449660552236
0.669847176570094,-0.0088204758916315
0.669148532517684,-0.0093804387796508
0.668452946869994,-0.009863788668893
0.667760483604211,-0.0102699289586707
0.667071206697519,-0.0105982630482967
0.666385180127106,-0.0108481943370835
0.665702467870156,-0.0110191262243439
0.665023133903856,-0.0111104621093906
0.664347242205391,-0.0111216053915363
0.663674856751948,-0.0110519594700935
0.663006041520712,-0.0109009277443751
0.662340860488869,-0.0106679136136936
0.661679377633604,-0.0103523204773618
0.661021656932105,-0.00995355173469236
0.660367762361555,-0.0094710107849979
0.659717757899142,-0.00890410102759115
0.659071707522051,-0.00825222586178475
0.658429675207468,-0.00751478868689144
0.657791724932579,-0.00669119290222384
0.65715792067457,-0.00578084190709467
0.656528326410626,-0.00478313910081655
0.655903006117934,-0.00369748788270228
0.655282023773678,-0.00252329165206438
0.654665443355046,-0.00125995380821568
0.654053328839222,9.31222495312717e-05
0.653445744203393,0.00153653312186369
0.652842753424745,0.00307087540946899
0.652244420480463,0.00469674571303436
0.651650809347733,0.00641474063324731
0.651061984003741,0.00822545677079494
0.650478008425673,0.0101294907263648
0.649898946590714,0.012127439100644
0.649324862476051,0.01421989849432
0.64875582005887,0.01640746550808
0.648191883316356,0.0186907367426115
0.647633116225694,0.0210703087986017
0.647079582764072,0.0235467782767379
0.646531346908674,0.0261207417777075
0.645988472636687,0.0287927959021978
0.645451023925296,0.031563537250896
0.644919064751687,0.0344335624244896
0.644392659093047,0.0374034680236658
0.64387187092656,0.040473850649112
0.643356764229413,0.0436453069015154
0.642847402978791,0.0469184333815636
0.642343851151881,0.0502938266899435
0.641846172725868,0.0537720834273428
0.641354431677938,0.0573538001944485
0.640868691985277,0.0610395735919483
0.640389017625071,0.0648300002205291
0.639915472574505,0.0687256766808786
0.639915472574505,0.0687256766808786
0.639438708190216,0.0726502181547656
0.638949372926352,0.0765270126370464
0.638447526406368,0.0803563159480396
0.637933228253718,0.0841383839080634
0.637406538091859,0.0878734723374361
0.636867515544244,0.091561837056476
0.636316220234329,0.0952037338855016
0.635752711785568,0.0987994186448312
0.635177049821417,0.102349147154783
0.634589293965329,0.105853175235676
0.633989503840762,0.109311758707827
0.633377739071168,0.112725153391556
0.632754059280003,0.11609361510718
0.632118524090722,0.119417399675019
0.631471193126779,0.12269676291539
0.630812126011631,0.125931960648611
0.63014138236873,0.129123248695002
0.629459021821533,0.13227088287488
0.628765103993495,0.135375119008563
0.62805968850807,0.138436212916371
0.627342834988713,0.141454420418621
0.626614603058879,0.144429997335632
0.625875052342022,0.147363199487722
0.625124242461599,0.150254282695209
0.624362233041064,0.153103502778412
0.623589083703871,0.155911115557649
0.622804854073475,0.158677376853239
0.622009603773332,0.161402542485499
0.621203392426896,0.164086868274748
0.620386279657622,0.166730610041305
0.619558325088966,0.169334023605488
0.618719588344381,0.171897364787615
0.617870129047323,0.174420889408004
0.617010006821247,0.176904853286974
0.616139281289608,0.179349512244843
0.61525801207586,0.18175512210193
0.614366258803459,0.184121938678553
0.613464081095859,0.18645021779503
0.612551538576515,0.188740215271679
0.611628690868883,0.190992186928819
0.610695597596416,0.193206388586769
0.609752318382571,0.195383076065845
0.608798912850801,0.197522505186368
0.607835440624562,0.199624931768655
0.606861961327309,0.201690611633025
0.605878534582496,0.203719800599795
0.604885220013578,0.205712754489285
0.603882077244011,0.207669729121812
0.60286916589725,0.209590980317696
0.601846545596748,0.211476763897253
0.600814275965961,0.213327335680803
0.599772416628344,0.215142951488664
0.598721027207352,0.216923867141155
0.59766016732644,0.218670338458593
0.596589896609062,0.220382621261296
0.595510274678674,0.222060971369585
0.59442136115873,0.223705644603776
0.593323215672685,0.225316896784187
0.592215897843994,0.226894983731139
0.591099467296113,0.228440161264948
0.589973983652496,0.229952685205933
0.588839506536597,0.231432811374412
0.587696095571872,0.232880795590704
0.586543810381776,0.234296893675127
0.585382710589764,0.235681361447999
0.584212855819289,0.237034454729639
0.583034305693808,0.238356429340365
0.581847119836776,0.239647541100496
0.580651357871646,0.240908045830349
0.579447079421875,0.242138199350243
0.578234344110916,0.243338257480497
0.577013211562226,0.244508476041428
0.575783741399258,0.245649110853356
0.574545993245467,0.246760417736598
0.573300026724309,0.247842652511473
0.572045901459239,0.248896070998299
0.570783677073711,0.249920929017394
0.56951341319118,0.250917482389077
0.568235169435101,0.251885986933667
0.566949005428929,0.25282669847148
0.565654980796119,0.253739872822837
0.564353155160126,0.254625765808055
0.563043588144405,0.255484633247452
0.56172633937241,0.256316730961347
0.560401468467596,0.257122314770059
0.559069035053419,0.257901640493905
0.557729098753333,0.258654963953203
0.556381719190794,0.259382540968273
0.555026955989255,0.260084627359433
0.553664868772172,0.260761478947
0.552295517163,0.261413351551294
0.550918960785195,0.262040500992632
0.549535259262209,0.262643183091333
0.548144472217499,0.263221653667715
0.546746659274519,0.263776168542097
0.545341880056725,0.264306983534797
0.543930194187572,0.264814354466133
0.542511661290513,0.265298537156424
0.541086340989004,0.265759787425987
0.5396542929065,0.266198361095142
0.538215576666456,0.266614513984207
0.536770251892327,0.267008501913499
0.535318378207567,0.267380580703338
0.533860015235632,0.267731006174042
0.532395222599976,0.268060034145928
0.530924059924054,0.268367920439316
0.529446586831322,0.268654920874524
0.527962862945234,0.268921291271869
0.526472947889244,0.269167287451671
0.524976901286809,0.269393165234248
0.523474782761382,0.269599180439917
0.521966651936419,0.269785588888999
0.520452568435375,0.269952646401809
0.518932591881704,0.270100608798668
0.517406781898861,0.270229731899893
0.515875198110301,0.270340271525803
0.51433790013948,0.270432483496716
0.512794947609852,0.270506623632951
0.511246400144872,0.270562947754825
0.509692317367994,0.270601711682657
0.508132758902675,0.270623171236766
0.506567784372367,0.270627582237469
0.504997453400528,0.270615200505086
0.503421825610611,0.270586281859934
0.501840960626071,0.270541082122332
0.500254918070363,0.270479857112598
0.498663757566943,0.270402862651051
0.497067538739264,0.270310354558008
0.495466321210783,0.270202588653789
0.493860164604953,0.270079820758711
0.49224912854523,0.269942306693093
0.490633272655068,0.269790302277253
0.489012656557923,0.26962406333151
0.48738733987725,0.269443845676181
0.485757382236502,0.269249905131586
0.484122843259136,0.269042497518042
0.482483782568606,0.268821878655868
0.480840259788367,0.268588304365383
0.479192334541873,0.268342030466904
0.477540066452581,0.26808331278075
0.475883515143944,0.267812407127239
0.474222740239417,0.26752956932669
0.472557801362456,0.26723505519942
0.470888758136516,0.266929120565749
0.469215670185051,0.266612021245995
0.467538597131515,0.266284013060475
0.465857598599365,0.265945351829509
0.464172734212055,0.265596293373415
0.462484063593039,0.26523709351251
0.460791646365774,0.264868008067114
0.459095542153712,0.264489292857544
0.457395810580311,0.26410120370412
0.455692511269024,0.263703996427158
0.453985703843306,0.263297926846979
0.452275447926612,0.262883250783899
0.450561803142397,0.262460224058238
0.448844829114117,0.262029102490314
0.447124585465225,0.261590141900444
0.445401131819177,0.261143598108948
0.443674527799428,0.260689726936144
0.441944833029432,0.26022878420235
0.440212107132645,0.259761025727884
0.438476409732521,0.259286707333065
0.436737800452515,0.258806084838211
0.434996338916083,0.25831941406364
0.433252084746679,0.257826950829671
0.431505097567757,0.257328950956622
0.429755437002773,0.256825670264812
0.428003162675183,0.256317364574559
0.426248334208439,0.25580428970618
0.424491011225999,0.255286701479996
0.422731253351315,0.254764855716323
0.420969120207845,0.25423900823548
0.419204671419041,0.253709414857785
0.417437966608359,0.253176331403558
0.415669065399255,0.252640013693115
0.413898027415182,0.252100717546776
0.412124912279596,0.251558698784859
0.410349779615952,0.251014213227682
0.408572689047704,0.250467516695564
0.406793700198308,0.249918865008823
0.405012872691219,0.249368513987777
0.40323026614989,0.248816719452744
0.401445940197778,0.248263737224043
0.399659954458337,0.247709823121993
0.397872368555022,0.247155232966911
0.396083242111288,0.246600222579116
0.394292634750589,0.246045047778926
0.392500606096381,0.24548996438666
0.390707215772119,0.244935228222636
0.388912523401257,0.244381095107172
0.387116588607251,0.243827820860586
0.385319471013555,0.243275661303198
0.383521230243624,0.242724872255325
0.381721925920912,0.242175709537285
0.379921617668876,0.241628428969398
0.37812036511097,0.241083286371981
0.376318227870649,0.240540537565353
0.374515265571367,0.240000438369831
0.372711537836579,0.239463244605735
0.370907104289741,0.238929212093383
0.369102024554308,0.238398596653092
0.367296358253733,0.237871654105182
0.365490165011473,0.237348640269971
0.363683504450982,0.236829810967777
0.361876436195714,0.236315422018918
0.360069019869126,0.235805729243713
0.358261315094671,0.23530098846248
0.356453381495804,0.234801455495537
0.354645278695981,0.234307386163203
0.352837066318657,0.233819036285796
0.351028803987286,0.233336661683635
0.349220551325322,0.232860518177037
0.347412367956223,0.232390861586322
0.345604313503441,0.231927947731807
0.343796447590431,0.231472032433811
0.34198882984065,0.231023371512652
0.340181519877551,0.230582220788648
0.33837457732459,0.230148836082118
0.336568061805221,0.229723473213381
0.3347620329429,0.229306388002753
0.332956550361081,0.228897836270555
0.331151673683218,0.228498073837104
0.329347462532768,0.228107356522718
0.327543976533185,0.227725940147717
0.325741275307924,0.227354080532417
0.323939418480439,0.226992033497138
0.322138465674187,0.226640054862198
0.32033847651262,0.226298400447915
0.318539510619195,0.225967326074608
0.316741627617366,0.225647087562594
0.314944887130589,0.225337940732193
0.313149348782317,0.225040141403723
0.311355072196007,0.224753945397501
0.309562116995112,0.224479608533847
0.307770542803088,0.224217386633078
0.30598040924339,0.223967535515513
0.304191775939473,0.22373031100147
0.302404702514791,0.223505968911268
0.300619248592799,0.223294765065225
0.298835473796952,0.22309695528366
0.297053437750706,0.22291279538689
0.295273200077515,0.222742541195234
0.293494820400833,0.22258644852901
0.291718358344117,0.222444773208537
0.28994387353082,0.222317771054133
0.288171425584398,0.222205697886116
0.286401074128306,0.222108809524805
0.284632878785997,0.222027361790518
0.282866899180929,0.221961610503574
0.281103194936554,0.22191181148429
0.279341825676329,0.221878220552985
0.277582851023707,0.221861093529978
0.275826330602145,0.221860686235586
0.274072324035096,0.221877254490128
0.272320890946016,0.221911054113923
0.270572090958359,0.221962340927289
0.268825983695582,0.222031370750543
0.267082628781137,0.222118399404006
0.265342085838481,0.222223682707994
0.263604414491068,0.222347476482826
0.261869674362353,0.22249003654882
0.260137925075791,0.222651618726295
0.258409226254837,0.22283247883557
0.256683637522945,0.223032872696962
0.254961218503571,0.223253056130789
0.25324202882017,0.223493284957371
0.251526128096197,0.223753814997026
0.249813575955105,0.224034902070071
0.248104432020351,0.224336801996825
0.246398755915389,0.224659770597607
0.244696607263674,0.225004063692735
0.242998045688661,0.225369937102527
0.241303130813805,0.225757646647302
0.239611922262561,0.226167448147377
0.237924479658383,0.226599597423072
0.236240862624727,0.227054350294704
0.234561130785047,0.227531962582592
0.232885343762798,0.228032690107054
0.231213561181436,0.228556788688409
0.229545842664415,0.229104514146975
0.227882247835189,0.229676122303071
0.226222836317215,0.230271868977013
0.224567667733947,0.230892009989122
0.222916801708839,0.231536801159715
0.221270297865346,0.232206498309111
0.219628215826925,0.232901357257627
0.217990615217028,0.233621633825583
0.216357555659112,0.234367583833297
0.214729096776631,0.235139463101087
0.21310529819304,0.235937527449271
0.211486219531794,0.236762032698167
0.209871920416348,0.237613234668095
0.208262460470157,0.238491389179372
0.206657899316675,0.239396752052317
0.205058296579358,0.240329579107247
0.20346371188166,0.241290126164482
0.201874204847037,0.24227864904434
0.200289835098943,0.243295403567139
0.198710662260833,0.244340645553197
0.197136745956162,0.245414630822833
0.195568145808385,0.246517615196366
0.194004921440957,0.247649854494112
0.192447132477332,0.248811604536391
0.190894838540966,0.250003121143522
0.189348099255314,0.251224660135822
0.18780697424383,0.252476477333609
0.186271523129969,0.253758828557203
0.184741805537187,0.255071969626921
0.183217881088937,0.256416156363082
0.181699809408676,0.257791644586005
0.180187650119857,0.259198690116006
0.178681462845937,0.260637548773406
0.177181307210369,0.262108476378521
0.175687242836608,0.263611728751671
0.17419932934811,0.265147561713174
0.172717626368329,0.266716231083349
0.171242193520721,0.268317992682512
0.16977309042874,0.269953102330984
0.16831037671584,0.271621815849082
0.166854112005478,0.273324389057124
0.165404355921108,0.275061077775429
0.163961168086184,0.276832137824316
0.162524608124162,0.278637825024102
0.161094735658497,0.280478395195106
0.159671610312642,0.282354104157646
0.158255291710055,0.284265207732041
0.156845839474188,0.286211961738609
0.155443313228498,0.288194621997668
0.154047772596438,0.290213444329536
0.152659277201465,0.292268684554533
0.151277886667032,0.294360598492976
0.149903660616595,0.296489441965184
0.148536658673609,0.298655470791474
0.147176940461528,0.300858940792166
0.145824565603807,0.303100107787578
0.144479593723902,0.305379227598027
0.143142084445267,0.307696556043833
0.141812097391357,0.310052348945313
0.140489692185627,0.312446862122787
0.139174928451532,0.314880351396572
0.137867865812527,0.317353072586987
0.136568563892066,0.319865281514349
0.135277082313605,0.322417233998978
0.133993480700598,0.325009185861192
0.132717818676501,0.327641392921309
0.131450155864768,0.330314110999647
0.130190551888854,0.333027595916525
0.128939066372214,0.335782103492261
0.127695758938303,0.338577889547174
0.126460689210576,0.341415209901581
0.125233916812488,0.344294320375801
0.124015501367493,0.347215476790153
0.122805502499047,0.350178934964955
0.121603979830604,0.353184950720525
0.120410992985619,0.356233779877181
0.119226601587548,0.359325678255242
0.118050865259845,0.362460901675026
0.116883843625964,0.365639705956852
0.115725596309362,0.368862346921037
0.114576182933493,0.372129080387901
0.113435663121811,0.375440162177761
0.112304096497771,0.378795848110936
0.11118154268483,0.382196394007744
0.11006806130644,0.385642055688504
0.108963711986058,0.389133088973534
0.107868554347138,0.392669749683152
0.106782648013135,0.396252293637676
0.105706052607504,0.399880976657426
0.1046388277537,0.403556054562718
0.103581033075178,0.407277783173872
0.102532728195392,0.411046418311206
0.101493972737798,0.414862215795039
0.10046482632585,0.418725431445687
0.0994453485830041,0.422636321083471
0.0984355991327139,0.426595140528708
0.0974356375984349,0.430602145601717
0.096445523603622,0.434657592122816
0.0954653167717299,0.438761735912323
0.0944950767262137,0.442914832790557
0.0935348630905282,0.447117138577835
0.0925847354881283,0.451368909094477
0.0916447535424688,0.455670400160801
0.0907149768770049,0.460021867597125
0.0897954651151912,0.464423567223767
0.0888862778804827,0.468875754861045
0.0879874747963342,0.473378686329279
0.0870991154862008,0.477932617448786
0.0862212595735373,0.482537804039885
0.0853539666817985,0.487194501922894
0.0844972964344394,0.491902966918131
0.0836513084549149,0.496663454845915
0.0828160623666798,0.501476221526564
0.0819916177931891,0.506341522780397
0.0811780343578977,0.511259614427731
0.0803753716842604,0.516230752288885
0.0795836893957321,0.521255192184178
0.0788030471157679,0.526333189933927
0.0780335044678224,0.531465001358452
