-0.661978848346515,-0.593372711588282
0.190016303539961,-0.148350737728724
-0.774645477271665,-0.848848401423462
0.265823682174981,0.236839408473605
1.30629284162163,1.32252721837067
-0.667635259909655,0.571976744263174
-0.822446420312299,0.180886589872531
-0.977257580714944,-0.210203564518112
-0.442654775791683,0.61611997170174
-0.799418024112229,-0.746681624539115
