0.519635758336898,-0.803160550433621
0.512222612291111,-0.799408862584637
0.504834840801236,-0.795664074444997
0.497472421856339,-0.791926249299817
0.490135333445483,-0.788195450434219
0.482823553557734,-0.784471741133321
0.475537060182156,-0.780755184682242
0.468275831307814,-0.7770458443661
0.461039844923772,-0.773343783470015
0.453829079019095,-0.769649065279106
0.446643511582848,-0.765961753078491
0.439483120604095,-0.76228191015329
0.432347884071901,-0.758609599788622
0.425237779975331,-0.754944885269606
0.41815278630345,-0.75128782988136
0.411092881045321,-0.747638496909004
0.40405804219001,-0.743996949637657
0.397048247726582,-0.740363251352438
0.3900634756441,-0.736737465338465
0.38310370393163,-0.733119654880858
0.376168910578237,-0.729509883264736
0.369259073572985,-0.725908213775217
0.362374170904938,-0.722314709697421
0.355514180563162,-0.718729434316467
0.34867908053672,-0.715152450917473
0.341868848814679,-0.71158382278556
0.335083463386101,-0.708023613205844
0.328322902240053,-0.704471885463446
0.321587143365598,-0.700928702843486
0.314876164751802,-0.69739412863108
0.308189944387729,-0.69386822611135
0.301528460262443,-0.690351058569412
0.294891690365009,-0.686842689290388
0.288279612684493,-0.683343181559396
0.281692205209958,-0.679852598661553
0.27512944593047,-0.676371003881981
0.268591312835092,-0.672898460505797
0.26207778391289,-0.669435031818121
0.255588837152929,-0.665980781104071
0.249124450544272,-0.662535771648767
0.242684602075985,-0.659100066737327
0.236269269737132,-0.655673729654871
0.229878431516778,-0.652256823686518
0.223512065403988,-0.648849412117386
0.217170149387826,-0.645451558232595
0.210852661457357,-0.642063325317264
0.204559579601646,-0.63868477665651
0.198290881809756,-0.635315975535455
0.192046546070754,-0.631956985239216
0.185826550373703,-0.628607869052913
0.179630872707669,-0.625268690261664
0.173459491061715,-0.621939512150588
0.167312383424907,-0.618620398004806
0.161189527786309,-0.615311411109434
0.155090902134986,-0.612012614749594
0.149016484460003,-0.608724072210402
0.142966252750424,-0.60544584677698
0.136940184995314,-0.602178001734445
0.130938259183737,-0.598920600367916
0.124960453304759,-0.595673705962512
0.119006745347443,-0.592437381803354
0.113077113300855,-0.589211691175558
0.107171535154059,-0.585996697364246
0.10128998889612,-0.582792463654534
0.0954324525161022,-0.579599053331543
0.0895989040030709,-0.576416529680392
0.0837893213460903,-0.573244955986199
0.0780036825342253,-0.570084395534084
0.0722419655565404,-0.566934911609165
0.0665041484021004,-0.563796567496561
0.0607902090599699,-0.560669426481392
0.0551001255192135,-0.557553551848776
0.049433875768896,-0.554449006883833
0.043791437798082,-0.551355854871681
0.038172789595836,-0.54827415909744
0.0325779091512229,-0.545203982846228
0.0270067744533073,-0.542145389403164
0.0214593634911538,-0.539098442053368
0.0159356542538271,-0.536063204081958
0.0104356247303918,-0.533039738774054
0.00495925290991264,-0.530028109414774
-0.000493483218545671,-0.527028379289237
-0.00592260566591864,-0.524040611682563
-0.0113281364431415,-0.52106486987987
-0.0167100975611495,-0.518101217166277
-0.022068511030878,-0.515149716826904
-0.0274033988632625,-0.512210432146869
-0.0327147830692383,-0.509283426411292
-0.0380026856597406,-0.50636876290529
-0.0432671286457048,-0.503466504913985
-0.0485081340380663,-0.500576715722493
-0.0537257238477604,-0.497699458615935
-0.0589199200857223,-0.494834796879429
-0.0640907447628876,-0.491982793798095
-0.0692382198901915,-0.48914351265705
-0.0743623674785693,-0.486317016741415
-0.0794632095389563,-0.483503369336309
-0.0845407680822881,-0.48070263372685
-0.0895950651194997,-0.477914873198157
-0.0946261226615266,-0.475140151035349
-0.0996339627193042,-0.472378530523546
-0.104618607303768,-0.469630074947865
-0.109580078425852,-0.466894847593427
-0.114518398096494,-0.464172911745351
-0.119433588326627,-0.461464330688755
-0.124325671127188,-0.458769167708758
-0.129194668509111,-0.456087486090479
-0.134040602483333,-0.453419349119037
-0.138863495060787,-0.450764820079552
-0.143663368252411,-0.448123962257142
-0.148440244069138,-0.445496838936926
-0.153194144521905,-0.442883513404023
-0.157925091621646,-0.440284048943553
-0.162633107379298,-0.437698508840633
-0.167318213805794,-0.435126956380384
-0.171980432912072,-0.432569454847924
-0.176619786709065,-0.430026067528373
-0.18123629720771,-0.427496857706848
-0.185829986418941,-0.42498188866847
-0.190400876353695,-0.422481223698357
-0.194948989022906,-0.419994926081628
-0.199474346437509,-0.417523059103403
-0.203976970608441,-0.415065686048799
-0.208456883546636,-0.412622870202937
-0.21291410726303,-0.410194674850935
-0.217348663768558,-0.407781163277912
-0.221760575074155,-0.405382398768987
-0.226149863190757,-0.402998444609279
-0.230516550129299,-0.400629364083907
-0.234860657900716,-0.398275220477991
-0.239182208515944,-0.395936077076648
-0.243481223985918,-0.393611997164999
-0.247757726321574,-0.391303044028162
-0.252011737533846,-0.389009280951256
-0.256243279633671,-0.3867307712194
-0.260452374631983,-0.384467578117713
-0.264639044539717,-0.382219764931314
-0.26880331136781,-0.379987394945323
-0.272945197127197,-0.377770531444857
-0.277064723828811,-0.375569237715037
-0.281161913483591,-0.37338357704098
-0.285236788102469,-0.371213612707807
-0.289289369696383,-0.369059408000636
-0.293319680276266,-0.366921026204585
-0.297327741853055,-0.364798530604775
-0.301313576437685,-0.362691984486324
-0.305277206041091,-0.360601451134351
-0.309218652674208,-0.358526993833975
-0.313137938347972,-0.356468675870315
-0.317035085073319,-0.35442656052849
-0.320910114861182,-0.352400711093619
-0.324763049722499,-0.350391190850821
-0.328593911668204,-0.348398063085216
-0.332402722709232,-0.346421391081921
-0.336189504856519,-0.344461238126056
-0.339954280121001,-0.34251766750274
-0.343697070513612,-0.340590742497092
-0.347417898045287,-0.338680526394231
-0.351116784726963,-0.336787082479276
-0.354793752569575,-0.334910474037346
-0.358448823584057,-0.33305076435356
-0.362082019781345,-0.331208016713037
-0.365693363172375,-0.329382294400896
-0.369282875768082,-0.327573660702256
-0.372850579579401,-0.325782178902236
-0.376396496617268,-0.324007912285955
-0.379920648892618,-0.322250924138532
-0.383423058416385,-0.320511277745085
-0.386903747199507,-0.318789036390735
-0.390362737252917,-0.3170842633606
-0.393800050587551,-0.315397021939798
-0.397215709214345,-0.313727375413449
-0.400609735144234,-0.312075387066672
-0.403982150388153,-0.310441120184587
-0.407332976957038,-0.308824638052311
-0.410662236861824,-0.307226003954964
-0.413969952113446,-0.305645281177665
-0.417256144722839,-0.304082533005532
-0.42052083670094,-0.302537822723686
-0.423764050058683,-0.301011213617244
-0.426985806807003,-0.299502768971327
-0.430186128956836,-0.298012552071052
-0.433365038519118,-0.296540626201539
-0.436522557504783,-0.295087054647907
-0.439658707924767,-0.293651900695275
-0.442773511790006,-0.292235227628762
-0.445866991111434,-0.290837098733486
-0.448939167899987,-0.289457577294567
-0.4519900641666,-0.288096726597124
-0.455019701922209,-0.286754609926276
-0.458028103177749,-0.285431290567142
-0.461015289944155,-0.284126831804841
-0.463981284232363,-0.282841296924491
-0.466926108053308,-0.281574749211212
-0.469849783417926,-0.280327251950123
-0.472752332337151,-0.279098868426343
-0.475633776821919,-0.277889661924991
-0.478494138883165,-0.276699695731185
-0.481333440531825,-0.275529033130045
-0.484151703778834,-0.27437773740669
-0.486948950635127,-0.273245871846239
-0.48972520311164,-0.27213349973381
-0.492480483219308,-0.271040684354523
-0.495214812969067,-0.269967488993497
-0.497928214371851,-0.268913976935851
-0.500620709438596,-0.267880211466703
-0.503292320180238,-0.266866255871173
-0.505943068607711,-0.26587217343438
-0.508572976731951,-0.264898027441443
-0.511182066563894,-0.26394388117748
-0.513770360114474,-0.263009797927611
-0.516337879394628,-0.262095840976955
-0.51888464641529,-0.26120207361063
-0.521410683187395,-0.260328559113756
-0.52391601172188,-0.259475360771452
-0.526400654029679,-0.258642541868836
-0.528864632121728,-0.257830165691029
-0.531307968008962,-0.257038295523147
-0.533730683702316,-0.256266994650312
-0.536132801212727,-0.255516326357641
-0.538514342551128,-0.254786353930254
-0.540875329728455,-0.25407714065327
-0.543215784755645,-0.253388749811807
-0.545535729643632,-0.252721244690985
-0.54783518640335,-0.252074688575922
-0.550114177045737,-0.251449144751738
-0.552372723581727,-0.250844676503552
-0.554610848022256,-0.250261347116482
-0.556828572378258,-0.249699219875648
-0.559025918660669,-0.249158358066169
-0.561202908880425,-0.248638824973163
-0.563359565048461,-0.24814068388175
-0.565495909175711,-0.247663998077048
-0.567611963273112,-0.247208830844177
-0.5697077493516,-0.246775245468255
-0.571783289422108,-0.246363305234403
-0.573838605495573,-0.245973073427737
-0.575873719582929,-0.245604613333379
-0.577888653695113,-0.245257988236446
-0.579883429843059,-0.244933261422057
-0.581858070037703,-0.244630496175332
-0.583812596289981,-0.244349755781389
-0.585747030610826,-0.244091103525349
-0.587661395011176,-0.243854602692328
-0.589555711501965,-0.243640316567447
-0.591430002094128,-0.243448308435825
-0.593284288798601,-0.24327864158258
-0.59511859362632,-0.243131379292832
-0.596932938588219,-0.243006584851699
-0.598727345695234,-0.242904321544301
-0.6005018369583,-0.242824652655756
-0.602256434388352,-0.242767641471184
-0.603991159996327,-0.242733351275703
-0.605706035793158,-0.242721845354433
-0.607401083789783,-0.242733186992492
-0.609076325997135,-0.242767439475
-0.610731784426151,-0.242824666087075
-0.612367481087765,-0.242904930113837
-0.613983437992913,-0.243008294840404
-0.61557967715253,-0.243134823551896
-0.617156220577552,-0.243284579533431
-0.618713090278913,-0.243457626070128
-0.62025030826755,-0.243654026447107
-0.621767896554398,-0.243873843949487
-0.623265877150391,-0.244117141862385
-0.624744272066466,-0.244383983470923
-0.626203103313558,-0.244674432060217
-0.627642392902601,-0.244988550915388
-0.629062162844532,-0.245326403321555
-0.630462435150285,-0.245688052563836
-0.631843231830796,-0.24607356192735
-0.633204574897001,-0.246482994697217
-0.634546486359834,-0.246916414158555
-0.635868988230231,-0.247373883596483
-0.637172102519128,-0.247855466296121
-0.638455851237459,-0.248361225542588
-0.63972025639616,-0.248891224621001
-0.640965340006167,-0.249445526816481
-0.642191124078414,-0.250024195414146
-0.643397630623837,-0.250627293699116
-0.644584881653371,-0.251254884956509
-0.645752899177952,-0.251907032471445
-0.646901705208516,-0.252583799529041
-0.648031321755996,-0.253285249414418
-0.649141770831329,-0.254011445412695
-0.650233074445451,-0.25476245080899
-0.651305254609295,-0.255538328888422
-0.652358333333798,-0.25633914293611
-0.653392332629896,-0.257164956237174
-0.654407274508522,-0.258015832076732
-0.655403180980614,-0.258891833739903
-0.656380074057105,-0.259793024511806
-0.657337975748932,-0.260719467677561
-0.65827690806703,-0.261671226522286
-0.659196893022333,-0.262648364331101
-0.660097952625778,-0.263650944389124
-0.6609801088883,-0.264679029981473
-0.661843383820834,-0.26573268439327
-0.662687799434315,-0.266811970909631
-0.663513377739679,-0.267916952815677
-0.664320140747861,-0.269047693396526
-0.665108110469796,-0.270204255937297
-0.66587730891642,-0.27138670372311
-0.666627758098669,-0.272595100039082
-0.667359480027476,-0.273829508170334
-0.668072496713779,-0.275089991401984
-0.668766830168512,-0.276376613019152
-0.66944250240261,-0.277689436306955
-0.670099535427009,-0.279028524550514
-0.670737951252644,-0.280393941034947
-0.67135777189045,-0.281785749045373
-0.671959019351363,-0.283204011866911
-0.672541715646318,-0.284648792784681
-0.673105882786251,-0.286120155083801
-0.673651542782097,-0.28761816204939
-0.674178717644791,-0.289142876966567
-0.674687429385268,-0.290694363120451
-0.675177700014464,-0.292272683796161
-0.675649551543314,-0.293877902278817
-0.676103005982754,-0.295510081853537
-0.676538085343718,-0.297169285805439
-0.676954811637143,-0.298855577419644
-0.677353206873963,-0.30056901998127
-0.677733293065114,-0.302309676775437
-0.678095092221531,-0.304077611087262
-0.67843862635415,-0.305872886201866
-0.678763917473906,-0.307695565404366
-0.679070987591733,-0.309545711979883
-0.679359858718569,-0.311423389213535
-0.679630552865347,-0.31332866039044
-0.679883092043003,-0.315261588795719
-0.680117498262473,-0.317222237714491
-0.680333793534692,-0.319210670431873
-0.680531999870595,-0.321226950232985
-0.680712139281117,-0.323271140402946
-0.680874233777195,-0.325343304226876
-0.681018305369763,-0.327443504989892
-0.681144376069756,-0.329571805977114
-0.68125246788811,-0.331728270473662
-0.68134260283576,-0.333912961764654
-0.681414802923642,-0.336125943135208
-0.681469090162691,-0.338367277870445
-0.681505486563842,-0.340637029255483
-0.681524014138031,-0.34293526057544
-0.681524694896192,-0.345262035115437
-0.681507550849262,-0.347617416160592
-0.681472604008176,-0.350001466996023
-0.681419876383868,-0.352414250906851
-0.681349389987275,-0.354855831178194
-0.681261166829331,-0.357326271095171
-0.681155228920972,-0.359825633942901
-0.681031598273134,-0.362353983006502
-0.680890296896751,-0.364911381571095
-0.680731346802759,-0.367497892921798
-0.680554770002093,-0.370113580343729
-0.680360588505689,-0.372758507122009
-0.680148824324482,-0.375432736541755
-0.679919499469408,-0.378136331888088
-0.6796726359514,-0.380869356446125
-0.679408255781396,-0.383631873500987
-0.679126380970331,-0.386423946337791
-0.678827033529139,-0.389245638241657
-0.678510235468755,-0.392097012497705
-0.678176008800117,-0.394978132391052
-0.677824375534158,-0.397889061206818
-0.677455357681813,-0.400829862230122
-0.67706897725402,-0.403800598746083
-0.676665256261712,-0.406801334039819
-0.676244216715824,-0.409832131396451
-0.675805880627294,-0.412893054101097
-0.675350270007055,-0.415984165438875
-0.674877406866043,-0.419105528694905
-0.674387313215193,-0.422257207154306
-0.673880011065441,-0.425439264102198
-0.673355522427723,-0.428651762823697
-0.672813869312972,-0.431894766603925
-0.672255073732125,-0.435168338728
-0.671679157696118,-0.43847254248104
-0.671086143215884,-0.441807441148166
-0.670476052302361,-0.445173098014495
-0.669848906966482,-0.448569576365147
-0.669204729219184,-0.451996939485241
-0.668543541071402,-0.455455250659895
-0.66786536453407,-0.45894457317423
-0.667170221618125,-0.462464970313363
-0.666458134334502,-0.466016505362414
-0.665729124694136,-0.469599241606502
-0.664983214707962,-0.473213242330746
-0.664220426386917,-0.476858570820264
-0.663440781741934,-0.480535290360176
-0.662644302783949,-0.484243464235601
-0.661831011523899,-0.487983155731658
-0.661000929972718,-0.491754428133466
-0.660154080141341,-0.495557344726143
-0.659290484040703,-0.499391968794809
-0.658410163681741,-0.503258363624583
-0.65751314107539,-0.507156592500584
-0.656599438232584,-0.51108671870793
-0.655669077164259,-0.515048805531741
-0.654722079881351,-0.519042916257136
-0.654722079881351,-0.519042916257136
-0.65374956941807,-0.523017515005083
-0.652742799516235,-0.526921216141318
-0.651701988248194,-0.530754308318112
-0.650627353686297,-0.534517080187738
-0.649519113902892,-0.538209820402466
-0.648377486970327,-0.541832817614568
-0.647202690960952,-0.545386360476315
-0.645994943947114,-0.548870737639979
-0.644754464001163,-0.552286237757831
-0.643481469195446,-0.555633149482142
-0.642176177602313,-0.558911761465183
-0.640838807294113,-0.562122362359227
-0.639469576343193,-0.565265240816545
-0.638068702821903,-0.568340685489408
-0.63663640480259,-0.571348985030086
-0.635172900357604,-0.574290428090853
-0.633678407559294,-0.577165303323978
-0.632153144480007,-0.579973899381734
-0.630597329192092,-0.582716504916392
-0.629011179767899,-0.585393408580224
-0.627394914279775,-0.5880048990255
-0.62574875080007,-0.590551264904492
-0.624072907401131,-0.593032794869471
-0.622367602155307,-0.595449777572709
-0.620633053134948,-0.597802501666478
-0.618869478412401,-0.600091255803048
-0.617077096060016,-0.602316328634691
-0.615256124150141,-0.604478008813679
-0.613406780755124,-0.606576584992282
-0.611529283947313,-0.608612345822773
-0.609623851799059,-0.610585579957421
-0.607690702382709,-0.612496576048501
-0.605730053770612,-0.614345622748281
-0.603742124035116,-0.616133008709034
-0.60172713124857,-0.617859022583031
-0.599685293483323,-0.619523953022544
-0.597616828811723,-0.621128088679844
-0.59552195530612,-0.622671718207202
-0.59340089103886,-0.624155130256889
-0.591253854082294,-0.625578613481178
-0.589081062508769,-0.626942456532339
-0.586882734390635,-0.628246948062644
-0.58465908780024,-0.629492376724364
-0.582410340809932,-0.630679031169771
-0.58013671149206,-0.631807200051136
-0.577838417918973,-0.63287717202073
-0.57551567816302,-0.633889235730826
-0.573168710296548,-0.634843679833693
-0.570797732391907,-0.635740792981604
-0.568402962521445,-0.63658086382683
-0.565984618757511,-0.637364181021642
-0.563542919172453,-0.638091033218312
-0.56107808183862,-0.638761709069111
-0.558590324828361,-0.639376497226311
-0.556079866214024,-0.639935686342182
-0.553546924067957,-0.640439565068997
-0.550991716462511,-0.640888422059027
-0.548414461470031,-0.641282545964543
-0.545815377162869,-0.641622225437816
-0.543194681613372,-0.641907749131118
-0.540552592893888,-0.64213940569672
-0.537889329076767,-0.642317483786894
-0.535205108234357,-0.642442272053911
-0.532500148439007,-0.642514059150043
-0.529774667763065,-0.64253313372756
-0.527028884278879,-0.642499784438735
-0.524263016058799,-0.642414299935838
-0.521477281175173,-0.642276968871141
-0.51867189770035,-0.642088079896916
-0.515847083706678,-0.641847921665433
-0.513003057266506,-0.641556782828964
-0.510140036452182,-0.641214952039781
-0.507258239336056,-0.640822717950155
-0.504357883990474,-0.640380369212357
-0.501439188487787,-0.639888194478659
-0.498502370900344,-0.639346482401332
-0.495547649300491,-0.638755521632648
-0.492575241760579,-0.638115600824878
-0.489585366352955,-0.637427008630292
-0.486578241149969,-0.636690033701164
-0.483554084223968,-0.635904964689763
-0.480513113647302,-0.635072090248362
-0.477455547492319,-0.634191699029232
-0.474381603831368,-0.633264079684644
-0.471291500736797,-0.63228952086687
-0.468185456280955,-0.63126831122818
-0.465063688536191,-0.630200739420847
-0.461926415574852,-0.629087094097142
-0.458773855469289,-0.627927663909337
-0.455606226291848,-0.626722737509701
-0.45242374611488,-0.625472603550508
-0.449226633010732,-0.624177550684027
-0.446015105051753,-0.622837867562532
-0.442789380310292,-0.621453842838293
-0.439549676858698,-0.620025765163581
-0.436296212769318,-0.618553923190669
-0.433029206114502,-0.617038605571826
-0.429748874966598,-0.615480100959325
-0.426455437397955,-0.613878698005438
-0.423149111480921,-0.612234685362435
-0.419830115287846,-0.610548351682587
-0.416498666891076,-0.608819985618167
-0.413154984362962,-0.607049875821446
-0.409799285775852,-0.605238310944694
-0.406431789202094,-0.603385579640184
-0.403052712714037,-0.601491970560187
-0.39966227438403,-0.599557772356974
-0.396260692284421,-0.597583273682817
-0.392848184487559,-0.595568763189986
-0.389424969065792,-0.593514529530754
-0.385991264091469,-0.591420861357392
-0.382547287636939,-0.589288047322171
-0.37909325777455,-0.587116376077362
-0.375629392576651,-0.584906136275237
-0.37215591011559,-0.582657616568068
-0.368673028463717,-0.580371105608126
-0.365180965693379,-0.578046892047681
-0.361679939876925,-0.575685264539006
-0.358170169086704,-0.573286511734372
-0.354651871395065,-0.57085092228605
-0.351125264874356,-0.568378784846312
-0.347590567596925,-0.565870388067428
-0.344047997635122,-0.563326020601672
-0.340497773061294,-0.560745971101313
-0.336940111947791,-0.558130528218623
-0.333375232366962,-0.555479980605874
-0.329803352391153,-0.552794616915337
-0.326224690092715,-0.550074725799283
-0.322639463543997,-0.547320595909984
-0.319047890817345,-0.544532515899712
-0.31545018998511,-0.541710774420736
-0.311846579119639,-0.53885566012533
-0.308237276293282,-0.535967461665764
-0.304622499578386,-0.53304646769431
-0.301002467047301,-0.530092966863239
-0.297377396772376,-0.527107247824822
-0.293747506825958,-0.524089599231332
-0.290113015280396,-0.521040309735038
-0.28647414020804,-0.517959667988214
-0.282831099681236,-0.514847962643129
-0.279184111772336,-0.511705482352056
-0.275533394553685,-0.508532515767266
-0.271879166097634,-0.50532935154103
-0.268221644476532,-0.502096278325619
-0.264561047762725,-0.498833584773306
-0.260897594028564,-0.495541559536361
-0.257231501346397,-0.492220491267056
-0.253562987788572,-0.488870668617662
-0.249892271427438,-0.48549238024045
-0.246219570335344,-0.482085914787693
-0.242545102584638,-0.478651560911661
-0.238869086247668,-0.475189607264625
-0.235191739396785,-0.471700342498858
-0.231513280104335,-0.46818405526663
-0.227833926442667,-0.464641034220213
-0.224153896484131,-0.461071568011879
-0.220473408301075,-0.457475945293899
-0.216792679965847,-0.453854454718543
-0.213111929550797,-0.450207384938083
-0.209431375128272,-0.446535024604792
-0.205751234770621,-0.44283766237094
-0.202071726550193,-0.439115586888799
-0.198393068539336,-0.435369086810639
-0.1947154788104,-0.431598450788733
-0.191039175435732,-0.427803967475352
-0.187364376487682,-0.423985925522767
-0.183691300038597,-0.42014461358325
-0.180020164160827,-0.416280320309072
-0.17635118692672,-0.412393334352504
-0.172684586408624,-0.408483944365817
-0.169020580678889,-0.404552439001284
-0.165359387809863,-0.400599106911176
-0.161701225873894,-0.396624236747763
-0.158046312943332,-0.392628117163318
-0.154394867090524,-0.388611036810111
-0.150747106387819,-0.384573284340415
-0.147103248907567,-0.3805151484065
-0.143463512722115,-0.376436917660638
-0.139828115903812,-0.3723388807551
-0.136197276525007,-0.368221326342158
-0.132571212658048,-0.364084543074083
-0.128950142375284,-0.359928819603147
-0.125334283749063,-0.35575444458162
-0.121723854851735,-0.351561706661774
-0.118119073755648,-0.347350894495881
-0.11452015853315,-0.343122296736212
-0.110927327256589,-0.338876202035039
-0.107340797998316,-0.334612899044632
-0.103760788830678,-0.330332676417264
-0.100187517826023,-0.326035822805205
-0.0966212030567006,-0.321722626860727
-0.0930620625950594,-0.317393377236101
-0.0895103145134478,-0.313048362583599
-0.0859661768842143,-0.308687871555492
-0.0824298677797076,-0.304312192804052
-0.0789016052722764,-0.29992161498155
-0.0753816074342692,-0.295516426740256
-0.0718700923380346,-0.291096916732444
-0.0683672780559211,-0.286663373610384
-0.0648733826602776,-0.282216086026347
-0.0613886242234524,-0.277755342632605
-0.0579132208177944,-0.273281432081429
-0.0544473905156519,-0.268794643025091
-0.0509913513893737,-0.264295264115862
-0.0475453215113083,-0.259783584006013
-0.0441095189538044,-0.255259891347816
-0.0406841617892105,-0.250724474793542
-0.0372694680898754,-0.246177622995463
-0.0338656559281474,-0.24161962460585
-0.0304729433763754,-0.237050768276974
-0.0270915485069077,-0.232471342661107
-0.0237216893920933,-0.227881636410521
-0.0203635841042804,-0.223281938177485
-0.017017450715818,-0.218672536614273
-0.0136835072990542,-0.214053720373155
-0.0103619719263382,-0.209425778106402
-0.00705306267001815,-0.204788998466287
-0.00375699760244287,-0.20014367010508
-0.000473994795960789,-0.195490081675053
0.00279572767707924,-0.190828521828477
0.0060519517443289,-0.186159279217624
0.00929445933343923,-0.181482642494765
0.012523032372062,-0.176798900312172
0.0157374527878484,-0.172108341322115
0.0189375025084499,-0.167411254176867
0.0221229634615177,-0.162707927528698
0.0252936175747036,-0.15799865002988
0.0284492467756585,-0.153283710332684
0.0315896329920342,-0.148563397089382
0.0347145581514818,-0.143837998952246
0.037823804181653,-0.139107804573546
0.0409171530101989,-0.134373102605554
0.0439943865647712,-0.129634181700541
0.0470552867730209,-0.124891330510779
0.0500996355625998,-0.120144837688539
0.0531272148611589,-0.115394991886093
0.05613780659635,-0.110642081755711
0.0591311926958242,-0.105886395949666
0.0621071550872331,-0.101128223120228
0.0650654756982278,-0.0963678519196697
0.0680059364564601,-0.0916055710002616
0.0709283192895811,-0.0868416690142754
0.0738324061252423,-0.0820764346139823
0.076717978891095,-0.0773101564516541
0.0795848195147907,-0.0725431231795616
0.0824327099239808,-0.0677756234499768
0.0852614320463167,-0.0630079459151705
0.0880707678094497,-0.0582403792274146
0.0908604991410313,-0.0534732120389801
0.0936304079687127,-0.0487067330021387
0.0963802762201457,-0.0439412307691616
0.0991098858229812,-0.0391769939923204
0.101819018704871,-0.034414311323886
0.104507456793466,-0.0296534714161305
0.107174982016418,-0.0248947629213246
0.109821376301379,-0.0201384744917402
0.112446421575999,-0.0153848947796483
0.11504989976793,-0.0106343124373207
0.117631592804824,-0.00588701611702838
0.120191282614332,-0.00114329447104303
0.122728751124105,0.00359656384836415
0.125243780261795,0.00833227018892155
0.127736151955053,0.0130635358983581
0.13020564813153,0.017790072324402
0.132652050718878,0.0225115908147824
0.135075141644749,0.0272278027172272
0.137474702836793,0.0319384193794658
0.139850516222662,0.0366431521492261
0.142202363730008,0.0413417123742373
0.144530027286481,0.0460338114022275
0.146833288819734,0.0507191605809258
0.149111930257417,0.0553974712580603
0.151365733527183,0.0600684547813601
0.153594480556682,0.0647318224985533
0.155797953273566,0.0693872857573691
0.157975933605486,0.0740345559055356
0.160128203480093,0.0786733442907817
0.16225454482504,0.0833033622608359
0.164354739567977,0.0879243211634268
0.166428569636556,0.092535932346283
0.168475816958428,0.0971379071571333
0.170496263461244,0.101729956943706
0.172489691072657,0.10631179305373
0.174455881720317,0.110883126834934
0.176394617331876,0.115443669635046
0.178305679834985,0.119993132801795
0.180188851157296,0.12453122768291
0.182043913226459,0.129057665626118
0.183870647970127,0.13357215797915
0.185668837315951,0.138074416089733
0.187438263191582,0.142564151305597
0.189178707524671,0.147041074974469
0.190889952242871,0.151504898444078
0.192571779273832,0.155955333062153
0.194223970545205,0.160392090176422
0.195846307984643,0.164814881134615
0.197438573519796,0.16922341728446
0.199000549078316,0.173617409973684
0.200532016587855,0.177996570550018
0.202032757976063,0.182360610361189
0.203502555170592,0.186709240754926
0.204941190099094,0.191042173078958
0.20634844468922,0.195359118681014
0.207724100868621,0.199659788908821
0.209067940564948,0.203943895110109
0.210379745705854,0.208211148632606
0.211659298218989,0.212461260824042
0.212906380032006,0.216693943032143
0.214120773072554,0.220908906604639
0.215302259268286,0.225105862889259
0.216450620546853,0.229284523233732
0.217565638835907,0.233444598985785
0.218647096063099,0.237585801493148
0.219694774156079,0.241707842103549
0.220708455042501,0.245810432164716
0.221687920650014,0.249893283024379
0.222632952906271,0.253956106030266
0.223543333738923,0.257998612530105
0.224418845075621,0.262020513871625
0.225259268844017,0.266021521402555
0.226064386971762,0.270001346470624
0.226833981386507,0.273959700423559
0.227567834015904,0.27789629460909
0.228265726787604,0.281810840374945
0.228927441629259,0.285703049068853
0.229552760468519,0.289572632038543
0.230141465233038,0.293419300631742
0.230693337850465,0.29724276619618
0.231208160248452,0.301042740079585
0.23168571435465,0.304818933629686
0.232125782096712,0.308571058194212
0.232528145402288,0.31229882512089
0.23289258619903,0.316001945757451
0.233218886414589,0.319680131451621
0.233506827976617,0.323333093551131
0.233756192812764,0.326960543403708
0.233966762850683,0.330562192357081
0.234138320018025,0.334137751758978
0.234270646242441,0.337686932957129
0.234363523451582,0.341209447299262
0.2344167335731,0.344705006133106
0.234430058534647,0.348173320806389
0.234403280263873,0.351614102666839
0.234336180688431,0.355027063062186
0.234228541735971,0.358411913340158
0.234080145334145,0.361768364848484
0.233890773410604,0.365096128934892
0.233660207893,0.36839491694711
0.233388230708984,0.371664440232868
0.233074623786208,0.374904410139894
0.232719169052322,0.378114538015917
0.232321648434979,0.381294535208665
0.231881843861829,0.384444113065867
0.231399537260525,0.387562982935251
0.230874510558717,0.390650856164546
0.230306545684057,0.393707444101481
0.229695424564196,0.396732458093785
0.229040929126785,0.399725609489185
0.228342841299477,0.402686609635411
0.227600943009922,0.405615169880191
0.226815016185773,0.408511001571254
0.225984842754679,0.411373816056328
0.225110204644293,0.414203324683142
0.224190883782266,0.416999238799425
0.223226662096249,0.419761269752905
0.222217321513895,0.42248912889131
0.221162643962853,0.425182527562371
0.220062411370776,0.427841177113814
0.218916405665315,0.430464788893368
0.217724408774122,0.433053074248763
0.216486202624847,0.435605744527727
0.215201569145143,0.438122511077989
0.21387029026266,0.440603085247276
0.21249214790505,0.443047178383318
0.211066923999964,0.445454501833844
0.209594400475055,0.447824766946581
0.208074359257972,0.450157685069259
0.206506582276368,0.452452967549606
0.204890851457894,0.45471032573535
0.203226948730201,0.456929470974221
0.201514656020941,0.459110114613948
0.199753755257766,0.461251968002257
0.197944028368326,0.463354742486879
0.196085257280272,0.465418149415541
0.194177223921257,0.467441900135973
0.192219710218932,0.469425705995903
0.190212498100948,0.47136927834306
0.188155369494957,0.473272328525171
0.186048106328609,0.475134567889967
0.183890490529557,0.476955707785175
0.181682304025451,0.478735459558524
0.179423328743944,0.480473534557743
0.177113346612686,0.48216964413056
0.174752139559329,0.483823499624704
0.172339489511524,0.485434812387903
0.169875178396923,0.487003293767887
0.167358988143177,0.488528655112383
0.164790700677937,0.490010607769121
0.162170097928855,0.491448863085828
0.162170097928855,0.491448863085828
0.159538182046532,0.492840006126122
0.156936021192092,0.494180992102501
0.154363496308978,0.495472087586013
0.15182048834063,0.496713559147708
0.14930687823049,0.497905673358638
0.146822546921998,0.499048696789851
0.144367375358596,0.500142896012397
0.141941244483725,0.501188537597326
0.139544035240826,0.502185888115688
0.137175628573341,0.503135214138533
0.134835905424709,0.50403678223691
0.132524746738373,0.50489085898187
0.130242033457773,0.505697710944462
0.127987646526351,0.506457604695736
0.125761466887547,0.507170806806742
0.123563375484804,0.50783758384853
0.121393253261561,0.50845820239215
0.11925098116126,0.509032929008651
0.117136440127343,0.509562030269083
0.115049511103249,0.510045772744496
0.112990075032421,0.51048442300594
0.110958012858299,0.510878247624465
0.108953205524325,0.511227513171121
0.10697553397394,0.511532486216957
0.105024879150585,0.511793433333023
0.1031011219977,0.51201062109037
0.101204143458727,0.512184316060046
0.0993338244771079,0.512314784813102
0.0974900459962827,0.512402293920588
0.0956726889596928,0.512447109953553
0.0938816343107794,0.512449499483048
0.0921167629929836,0.512409729080121
0.0903779559497465,0.512328065315824
0.0886650941245092,0.512204774761205
0.0869780584607128,0.512040123987315
0.0853167299017985,0.511834379565204
0.0836809893912073,0.511587808065921
0.0820707178723803,0.511300676060515
0.0804857962887586,0.510973250120038
0.0789261055837835,0.510605796815539
0.077391526700896,0.510198582718068
0.0758819405835372,0.509751874398673
0.0743972281751481,0.509265938428406
0.07293727041917,0.508741041378317
0.071501948259044,0.508177449819454
0.070091142638211,0.507575430322868
0.0687047345001123,0.506935249459608
0.067342604788189,0.506257173800726
0.0660046344458823,0.505541469917269
0.064690704416633,0.504788404380289
0.0634006956438825,0.503998243760835
0.0621344890710718,0.503171254629956
0.060891965641642,0.502307703558703
0.0596730062990343,0.501407857118126
0.0584774919866897,0.500471981879274
0.0573053036480494,0.499500344413197
0.0561563222265545,0.498493211290945
0.055030428665646,0.497450849083568
0.0539275039087652,0.496373524362116
0.0528474288993531,0.495261503697638
0.0517900845808508,0.494115053661185
0.0507553518966994,0.492934440823805
0.0497431117903401,0.49171993175655
0.048753245205214,0.490471793030469
0.0477856330847621,0.489190291216611
0.0468401563724255,0.487875692886027
0.0459166960116455,0.486528264609765
0.0450151329458631,0.485148272958878
0.0441353481185195,0.483735984504413
0.0432772224730556,0.482291665817421
0.0424406369529127,0.480815583468952
0.0416254725015318,0.479308004030056
0.0408316100623541,0.477769194071781
0.0400589305788207,0.476199420165179
0.0393073149943727,0.474598948881299
0.0385766442524512,0.472968046791191
0.0378667992964973,0.471306980465905
0.0371776610699521,0.46961601647649
0.0365091105162567,0.467895421393996
0.0358610285788523,0.466145461789474
0.03523329620118,0.464366404233973
0.0346257943266808,0.462558515298542
0.0340384038987959,0.460722061554232
0.0334710058609664,0.458857309572093
0.0329234811566334,0.456964525923175
0.0323957107292381,0.455043977178526
0.0318875755222214,0.453095929909198
0.0313989564790246,0.451120650686239
0.0309297345430888,0.4491184060807
0.030479790657855,0.447089462663631
0.0300490057667645,0.445034087006081
0.0296372608132582,0.4429525456791
0.0292444367407773,0.440845105253739
0.0288704144927629,0.438712032301046
0.0285150750126561,0.436553593392072
0.0281782992438981,0.434370055097866
0.0278599681299299,0.432161683989479
0.0275599626141927,0.429928746637961
0.0272781636401276,0.42767150961436
0.0270144521511756,0.425390239489727
0.026768709090778,0.423085202835112
0.0265408154023757,0.420756666221565
0.02633065202941,0.418404896220134
0.0261380999153219,0.416030159401872
0.0259630400035526,0.413632722337826
0.0258053532375431,0.411212851599047
0.0256649205607345,0.408770813756585
0.0255416229165681,0.40630687538149
0.0254353412484848,0.403821303044811
0.0253459564999259,0.401314363317598
0.0252733496143323,0.398786322770901
0.0252174015351453,0.396237447975771
0.0251779932058059,0.393668005503256
0.0251550055697553,0.391078261924406
0.0251483195704345,0.388468483810272
0.0251578161512848,0.385838937731904
0.0251833762557471,0.38318989026035
0.0252248808272625,0.380521607966662
0.0252822108092724,0.377834357421888
0.0253552471452176,0.375128405197079
0.0254438707785393,0.372404017863284
0.0255479626526787,0.369661461991553
0.0256674037110769,0.366901004152937
0.0258020748971749,0.364122910918485
0.0259518571544139,0.361327448859246
0.026116631426235,0.358514884546271
0.0262962786560793,0.355685484550609
0.0264906797873879,0.352839515443311
0.026699715763602,0.349977243795426
0.0269232675281626,0.347098936178004
0.0271612160245108,0.344204859162095
0.0274134421960878,0.341295279318748
0.0276798269863346,0.338370463219014
0.0279602513386925,0.335430677433942
0.0282545961966024,0.332476188534582
0.0285627425035056,0.329507263091984
0.0288845712028431,0.326524167677198
0.029219963238056,0.323527168861274
0.0295687995525855,0.320516533215261
0.0299309610898726,0.317492527310209
0.0303063287933585,0.314455417717169
0.0306947836064843,0.311405471007189
0.031096206472691,0.30834295375132
0.0315104783354199,0.305268132520613
0.031937480138112,0.302181273886115
0.0323770928242084,0.299082644418878
0.0328291973371502,0.295972510689951
0.0332936746203787,0.292851139270384
0.0337704056173347,0.289718796731227
0.0342592712714596,0.286575749643529
0.0347601525261943,0.283422264578341
0.03527293032498,0.280258608106713
0.0357974856112579,0.277085046799693
0.0363336993284689,0.273901847228333
0.0368814524200543,0.270709275963681
0.0374406258294552,0.267507599576788
0.0380111005001126,0.264297084638704
0.0385927573754676,0.261077997720477
0.0391854773989615,0.257850605393159
0.0397891415140352,0.2546151742278
0.04040363066413,0.251371970795448
0.0410288257926868,0.248121261667153
0.0416646078431469,0.244863313413966
0.0423108577589514,0.241598392606937
0.0429674564835412,0.238326765817114
0.0436342849603577,0.235048699615549
0.0443112241328418,0.231764460573291
0.0449981549444347,0.228474315261389
0.0456949583385776,0.225178530250894
0.0464015152587114,0.221877372112855
0.0471177066482773,0.218571107418322
0.0478434134507165,0.215260002738346
0.0485785166094701,0.211944324643975
0.0493228970679791,0.20862433970626
0.0500764357696846,0.20530031449625
0.0508390136580278,0.201972515584996
0.0516105116764499,0.198641209543547
0.0523908107683918,0.195306662942954
0.0531797918772948,0.191969142354265
0.0539773359465999,0.18862891434853
0.0547833239197482,0.185286245496801
0.0555976367401809,0.181941402370125
0.0564201553513391,0.178594651539554
0.0572507606966638,0.175246259576137
0.0580893337195962,0.171896493050924
0.0589357553635774,0.168545618534965
0.0597899065720485,0.165193902599309
0.0606516682884507,0.161841611815007
0.061520921456225,0.158489012753107
0.0623975470188125,0.155136371984661
0.0632814259196544,0.151783956080718
0.0641724391021918,0.148432031612327
0.0650704675098657,0.14508086515054
0.0659753920861174,0.141730723266404
0.0668870937743878,0.138381872530971
0.0678054535181182,0.13503457951529
0.0687303522607496,0.131689110790411
0.0696616709457231,0.128345732927383
0.0705992905164799,0.125004712497257
0.0715430919164611,0.121666316071082
0.0724929560891077,0.118330810219909
0.073448763977861,0.114998461514787
0.0744103965261619,0.111669536526766
0.0753777346774516,0.108344301826895
0.0763506593751713,0.105023023986225
0.077329051562762,0.101705969575806
0.0783127921836649,0.0983934051666868
0.079301762181321,0.0950855973299178
0.0802958424991715,0.0917828126365486
0.0812949140806574,0.0884853176576293
0.08229885786922,0.0851933789642094
0.0833075548083002,0.0819072631273392
0.0843208858413394,0.0786272367180681
0.0853387319117784,0.0753535663074462
0.0863609739630585,0.0720865184665231
0.0873874929386207,0.068826359766349
0.0884181697819062,0.0655733567779733
0.089452885436356,0.0623277760724463
0.0904915208454114,0.0590898842208174
0.0915339569525133,0.0558599477941367
0.092580074701103,0.0526382333634538
0.0936297550346215,0.0494250074998189
0.0946828788965099,0.0462205367742815
0.0957393272302094,0.0430250877578917
0.0967989809791611,0.039838927021699
0.097861721086806,0.0366623211367536
0.0989274284965853,0.033495536674105
0.0999959841519401,0.0303388402048034
0.101067268996311,0.0271924982998983
0.102141163973141,0.0240567775304398
0.103217550025869,0.0209319444674774
0.104296308097936,0.0178182656820614
0.105377319132785,0.0147160077452411
0.106460464073857,0.0116254372280669
0.107545623864591,0.00854682070158812
0.10863267944843,0.00548042473685495
0.109721511768814,0.00242651590491703
0.110812001769185,-0.000614639223175673
0.111904030392984,-0.00364277407637346
0.112997478583651,-0.00665762208362634
0.114092227284628,-0.00965891667388467
0.115188157439357,-0.0126463912760984
0.116285149991278,-0.0156197793192179
0.117383085883832,-0.0185788142321931
0.11848184606046,-0.0215232294439745
0.119581311464604,-0.0244527583835118
0.120681363039704,-0.0273671344797557
0.121781881729202,-0.0302660911616559
0.12288274847654,-0.0331493618581628
0.123983844225157,-0.0360166799982265
0.125085049918495,-0.0388677790107973
0.126186246499995,-0.0417023923248252
0.127287314913098,-0.0445202533692605
0.128388136101246,-0.0473210955730531
0.12948859100788,-0.0501046523651535
0.13058856057644,-0.0528706571745117
0.131687925750368,-0.0556188434300779
0.132786567473104,-0.0583489445608021
0.133884366688091,-0.0610606939956348
0.134981204338769,-0.0637538251635258
0.136076961368579,-0.0664280714934256
0.137171518720962,-0.069083166414284
0.13826475733936,-0.0717188433550516
0.139356558167213,-0.0743348357446781
0.140446802147962,-0.0769308770121141
0.14153537022505,-0.0795067005863094
0.142622143341916,-0.0820620398962145
0.143707002442003,-0.0845966283707793
0.14478982846875,-0.0871101994389541
0.1458705023656,-0.0896024865296889
0.146948905075993,-0.0920732230719342
0.14802491754337,-0.0945221424946397
0.149098420711173,-0.0969489782267561
0.150169295522842,-0.099353463697233
0.15123742292182,-0.101735332335021
0.152302683851546,-0.10409431756907
0.153364959255462,-0.106430152828331
0.154424130077009,-0.108742571541752
0.155480077259628,-0.111031307138286
0.156532681746761,-0.113296093046881
0.157581824481848,-0.115536662696488
0.158627386408331,-0.117752749516057
0.15966924846965,-0.119944086934539
0.160707291609247,-0.122110408380883
0.161741396770563,-0.124251447284039
0.162771444897039,-0.126366937072959
0.163797316932116,-0.128456611176591
0.164818893819235,-0.130520203023886
0.165836056501838,-0.132557446043795
0.166848685923365,-0.134568073665267
0.167856663027257,-0.136551819317252
0.168859868756956,-0.138508416428701
0.169858184055903,-0.140437598428565
0.170851489867539,-0.142339098745792
0.171839667135305,-0.144212650809334
0.172822596802641,-0.14605798804814
0.173800159812991,-0.14787484389116
0.174772237109793,-0.149662951767345
0.17573870963649,-0.151422045105646
0.176699458336522,-0.153151857335011
0.177654364153331,-0.154852121884391
0.178603308030358,-0.156522572182737
0.179546170911044,-0.158162941658999
0.180482833738829,-0.159772963742126
0.181413177457156,-0.161352371861069
0.182337083009465,-0.162900899444778
0.183254431339198,-0.164418279922204
0.184165103389794,-0.165904246722295
0.185068980104697,-0.167358533274004
0.185965942427346,-0.168780873006279
0.186855871301182,-0.170170999348071
0.187738647669648,-0.17152864572833
0.188614152476184,-0.172853545576006
0.18948226666423,-0.17414543232005
0.190342871177229,-0.175404039389411
0.191195846958622,-0.176629100213039
0.192041074951849,-0.177820348219886
0.192878436100351,-0.178977516838901
0.19370781134757,-0.180100339499034
0.194529081636947,-0.181188549629235
0.195342127911922,-0.182241880658455
0.196146831115938,-0.183260066015644
0.196943072192435,-0.184242839129751
0.197730732084854,-0.185189933429727
0.198509691736636,-0.186101082344523
0.199279832091223,-0.186976019303088
0.200041034092056,-0.187814477734373
0.200793178682575,-0.188616191067327
0.201536146806222,-0.189380892730901
0.202269819406437,-0.190108316154045
0.202994077426663,-0.190798194765709
0.20370880181034,-0.191450261994844
0.204413873500909,-0.192064251270399
0.205109173441812,-0.192639896021325
0.205794582576489,-0.193176929676571
0.206469981848381,-0.193675085665089
0.20713525220093,-0.194134097415828
0.207790274577577,-0.194553698357738
0.208434929921763,-0.194933621919769
0.209069099176929,-0.195273601530873
0.209692663286516,-0.195573370619998
0.210305503193966,-0.195832662616095
0.210907499842718,-0.196051210948114
0.211498534176215,-0.196228749045006
0.212078487137898,-0.19636501033572
0.212647239671208,-0.196459728249207
0.213204672719585,-0.196512636214416
0.213750667226471,-0.196523467660299
0.214285104135307,-0.196491956015805
0.214807864389534,-0.196417834709884
0.215318828932594,-0.196300837171486
0.215817878707927,-0.196140696829563
0.216304894658974,-0.195937147113063
0.216779757729177,-0.195689921450936
0.217242348861977,-0.195398753272135
0.217692549000814,-0.195063376005607
0.21813023908913,-0.194683523080304
0.218555300070367,-0.194258927925175
0.218967612887964,-0.193789323969172
0.219367058485364,-0.193274444641243
0.219753517806007,-0.192714023370339
0.220126871793335,-0.192107793585411
0.220487001390788,-0.191455488715408
0.220833787541808,-0.190756842189281
0.221167111189836,-0.19001158743598
0.221486853278313,-0.189219457884454
0.221792894750679,-0.188380186963655
0.222085116550377,-0.187493508102532
0.222363399620847,-0.186559154730035
0.222627624905531,-0.185576860275115
0.222877673347869,-0.184546358166722
0.223113425891302,-0.183467381833806
0.223334763479273,-0.182339664705316
0.223541567055221,-0.181162940210205
0.223733717562588,-0.17993694177742
0.223911095944815,-0.178661402835913
0.224073583145343,-0.177336056814634
0.224221060107614,-0.175960637142533
0.224353407775068,-0.17453487724856
0.224470507091146,-0.173058510561665
0.22457223899929,-0.171531270510799
0.224658484442941,-0.169952890524911
0.224729124365539,-0.168323104032952
0.224784039710527,-0.166641644463872
0.224823111421344,-0.164908245246621
0.224846220441433,-0.163122639810149
0.224853247714234,-0.161284561583407
0.224844074183188,-0.159393743995344
0.224818580791737,-0.157449920474911
0.224776648483322,-0.155452824451058
0.224718158201383,-0.153402189352735
0.224642990889362,-0.151297748608892
0.2245510274907,-0.14913923564848
0.224442148948838,-0.146926383900448
0.224316236207217,-0.144658926793747
0.224173170209278,-0.142336597757327
0.224012831898463,-0.139959130220138
0.223835102218213,-0.13752625761113
0.223639862111968,-0.135037713359253
