-0.829024338961931,-0.0171588603270016
-0.821907677222191,-0.0127641203517039
-0.814800808650638,-0.00841308137274541
-0.807703869971445,-0.0041055809417026
-0.800616997908788,0.000158543389848209
-0.793540329186841,0.00437945407033069
-0.78647400052978,0.00855731354816851
-0.779418148661779,0.0126922842717853
-0.772372910307013,0.0167845286896048
-0.765338422189656,0.0208342092500506
-0.758314821033885,0.0248414884015464
-0.751302243563872,0.0288065285925159
-0.744300826503794,0.0327294922713827
-0.737310706577826,0.0366105418865704
-0.730332020510141,0.0404498398865028
-0.723364905024915,0.0442475487196036
-0.716409496846323,0.0480038308342963
-0.709465932698539,0.0517188486790046
-0.702534349305738,0.0553927647021523
-0.695614883392096,0.0590257413521629
-0.688707671681786,0.0626179410774602
-0.681812850898985,0.0661695263264677
-0.674930557767866,0.0696806595476092
-0.668060929012605,0.0731515031893084
-0.661204101357376,0.0765822196999888
-0.654360211526354,0.0799729715280743
-0.647529396243714,0.0833239211219882
-0.640711792233631,0.0866352309301546
-0.63390753622028,0.0899070634009968
-0.627116764927835,0.0931395809829387
-0.620339615080472,0.0963329461244038
-0.613576223402365,0.0994873212738159
-0.606826726617688,0.102602868879599
-0.600091261450618,0.105679751390176
-0.593369964625329,0.10871813125397
-0.586662972865995,0.111718170919407
-0.579970422896791,0.114680032834909
-0.573292451441893,0.117603879448899
-0.566629195225474,0.120489873209803
-0.55998079097171,0.123338176566042
-0.553347375404777,0.126148951966042
-0.546729085248847,0.128922361858225
-0.540126057228097,0.131658568691015
-0.533538428066701,0.134357734912836
-0.526966334488835,0.137020022972112
-0.520409913218672,0.139645595317266
-0.513869300980388,0.142234614396722
-0.507344634498158,0.144787242658904
-0.500836050496156,0.147303642552234
-0.494343685698557,0.149783976525138
-0.487867676829536,0.152228407026038
-0.481408160613268,0.154637096503359
-0.474965273773928,0.157010207405523
-0.468539153035691,0.159347902180955
-0.462129935122731,0.161650343278078
-0.455737756759223,0.163917693145316
-0.449362754669342,0.166150114231092
-0.443005065577263,0.168347768983831
-0.436664826207161,0.170510819851956
-0.430342173283211,0.17263942928389
-0.424037243529587,0.174733759728057
-0.417750173670464,0.176793973632882
-0.411481100430017,0.178820233446786
-0.405230160532422,0.180812701618195
-0.398997490701852,0.182771540595532
-0.392783227662482,0.184696912827221
-0.386587508138489,0.186588980761684
-0.380410468854045,0.188447906847347
-0.374252246533326,0.190273853532631
-0.368112977900508,0.192066983265963
-0.361992799679764,0.193827458495764
-0.35589184859527,0.195555441670458
-0.3498102613712,0.19725109523847
-0.34374817473173,0.198914581648222
-0.337705725401033,0.200546063348139
-0.331683050103286,0.202145702786644
-0.325680285562663,0.203713662412161
-0.319697568503338,0.205250104673114
-0.313735035649486,0.206755192017926
-0.307792823725283,0.20822908689502
-0.301871069454903,0.209671951752821
-0.295969909562521,0.211083949039752
-0.290089480772312,0.212465241204237
-0.284229919808451,0.2138159906947
-0.278391363395112,0.215136359959563
-0.27257394825647,0.216426511447252
-0.266777811116701,0.217686607606189
-0.261003088699978,0.218916810884798
-0.255249917730477,0.220117283731503
-0.249518434932373,0.221288188594727
-0.243808777029841,0.222429687922894
-0.238121080747054,0.223541944164429
-0.23245548280819,0.224625119767753
-0.226812119937421,0.225679377181292
-0.221191128858922,0.226704878853469
-0.21559264629687,0.227701787232707
-0.210016808975438,0.22867026476743
-0.204463753618801,0.229610473906062
-0.198933616951135,0.230522577097026
-0.193426535696613,0.231406736788747
-0.187942646579412,0.232263115429647
-0.182482086323705,0.233091875468151
-0.177044991653668,0.233893179352682
-0.171631499293475,0.234667189531664
-0.166241745967301,0.23541406845352
-0.160875868399321,0.236133978566674
-0.15553400331371,0.23682708231955
-0.150216287434643,0.237493542160571
-0.144922857486295,0.238133520538162
-0.139653850192839,0.238747179900745
-0.134409402278452,0.239334682696745
-0.129189650467309,0.239896191374584
-0.123994731483583,0.240431868382688
-0.118824782051449,0.240941876169479
-0.113679938895083,0.241426377183381
-0.10856033873866,0.241885533872817
-0.103466118306354,0.242319508686212
-0.0983974143223398,0.24272846407199
-0.0933543635107926,0.243112562478572
-0.0883371025958871,0.243471966354385
-0.0833457683017983,0.24380683814785
-0.0783804973527009,0.244117340307392
-0.0734414264727697,0.244403635281435
-0.0685286923861795,0.244665885518401
-0.0636424318171053,0.244904253466716
-0.0587827814897219,0.245118901574801
-0.053949878128204,0.245309992291082
-0.0491438584567265,0.245477688063981
-0.0443648591994643,0.245622151341923
-0.0396130170805923,0.245743544573331
-0.0348884688242851,0.245842030206628
-0.0301913511547177,0.245917770690239
-0.0255218007960649,0.245970928472587
-0.0208799544725017,0.246001666002096
-0.0162659489082025,0.246010145727189
-0.0116799208273424,0.24599653009629
-0.00712200695409651,0.245960981557823
-0.00259234401263936,0.245903662560211
0.00190893127285433,0.245824735551878
0.00638168217820956,0.245724362981248
0.0108257719792514,0.245602707296744
0.0152410639518051,0.24545993094679
0.0196274213716959,0.24529619637981
0.023984707514749,0.245111666044227
0.0283127856567893,0.244906502388465
0.0326115190736422,0.244680867860948
0.0368807710411328,0.244434924910099
0.0411204048350863,0.244168835984342
0.0453302837313277,0.243882763532101
0.0495102710056824,0.243576870001799
0.0536602299339754,0.24325131784186
0.057780023792032,0.242906269500708
0.0618695158556773,0.242541887426766
0.0659285694007363,0.242158334068458
0.0699570477030344,0.241755771874208
0.0739548140383967,0.241334363292439
0.0779217316826483,0.240894270771575
0.0818576639116143,0.24043565676004
0.0857624740011201,0.239958683706257
0.0896360252269908,0.23946351405865
0.0934781808650513,0.238950310265642
0.0972888041911271,0.238419234775658
0.101067758481043,0.237870450037121
0.104814907010625,0.237304118498454
0.108530113055697,0.236720402608082
0.112213239892085,0.236119464814428
0.115864150795614,0.235501467565915
0.119482709042109,0.234866573310968
0.123068777907396,0.23421494449801
0.126622220667299,0.233546743575464
0.130142900597643,0.232862132991754
0.133630680974255,0.232161275195304
0.137085425072958,0.231444332634539
0.140506996169579,0.23071146775788
0.143895257539941,0.229962843013752
0.147250072459872,0.229198620850579
0.150571304205195,0.228418963716784
0.153858816051735,0.227624034060791
0.157112471275319,0.226813994331024
0.160332133151771,0.225989006975905
0.163517664956916,0.22514923444386
0.166668929966579,0.224294839183312
0.169785791456586,0.223425983642683
0.172868112702762,0.222542830270398
0.175915756980932,0.221645541514882
0.178928587566921,0.220734279824556
0.181906467736554,0.219809207647845
0.184849260765657,0.218870487433173
0.187756829930054,0.217918281628963
0.190629038505571,0.216952752683639
0.193465749768033,0.215974063045624
0.196266826993265,0.214982375163343
0.199032133457092,0.213977851485219
0.201761532435339,0.212960654459675
0.204454887203833,0.211930946535135
0.207112061038397,0.210888890160023
0.209732917214857,0.209834647782763
0.212317319009037,0.208768381851778
0.214865129696765,0.207690254815492
0.217376212553863,0.206600429122329
0.219850430856158,0.205499067220711
0.222287647879475,0.204386331559064
0.224687726899639,0.20326238458581
0.227050531192475,0.202127388749373
0.229375924033808,0.200981506498177
0.231663768699464,0.199824900280646
0.233913928465267,0.198657732545203
0.236126266607042,0.197480165740271
0.238300646400616,0.196292362314275
0.240436931121813,0.195094484715639
0.242534984046457,0.193886695392785
0.244594668450376,0.192669156794138
0.246615847609392,0.191442031368121
0.248598384799333,0.190205481563157
0.250542143296022,0.188959669827672
0.252446986375286,0.187704758610087
0.254312777312948,0.186440910358827
0.256139379384835,0.185168287522316
0.257926655866772,0.183887052548977
0.259674470034583,0.182597367887234
0.261382685164094,0.18129939598551
0.26305116453113,0.179993299292229
0.264679771411516,0.178679240255816
0.266268369081078,0.177357381324692
0.26781682081564,0.176027884947283
0.269324989891027,0.174690913572012
0.270792739583066,0.173346629647302
0.27221993316758,0.171995195621577
0.273606433920396,0.170636773943261
0.274952105117338,0.169271527060778
0.276256810034232,0.16789961742255
0.277520411946902,0.166521207477003
0.278742774131174,0.165136459672559
0.279923759862873,0.163745536457642
0.281063232417824,0.162348600280676
0.282161055071853,0.160945813590084
0.283217091100784,0.15953733883429
0.284231203780442,0.158123338461719
0.285203256386654,0.156703974920792
0.286133112195243,0.155279410659935
0.287020634482036,0.153849808127571
0.287865686522857,0.152415329772122
0.288668131593531,0.150976138042015
0.289427832969884,0.14953239538567
0.290144653927741,0.148084264251514
0.290818457742926,0.146631907087968
0.291449107691266,0.145175486343457
0.292036467048585,0.143715164466405
0.292580399090709,0.142251103905234
0.293080767093462,0.14078346710837
0.29353743433267,0.139312416524235
0.293950264084158,0.137838114601253
0.294319119623751,0.136360723787847
0.294643864227274,0.134880406532442
0.294924361170553,0.133397325283461
0.295160473729412,0.131911642489328
0.295352065179677,0.130423520598467
0.295498998797173,0.1289331220593
0.295601137857725,0.127440609320252
0.295658345637159,0.125946144829747
0.295670485411298,0.124449891036207
0.29563742045597,0.122952010388057
0.295559014046998,0.121452665333721
0.295435129460208,0.119952018321622
0.295265629971425,0.118450231800183
0.295050378856475,0.116947468217829
0.294789239391181,0.115443890022983
0.294482074851371,0.113939659664068
0.294128748512868,0.112434939589509
0.293729123651498,0.110929892247729
0.293283063543086,0.109424680087152
0.292790431463457,0.107919465556201
0.292251090688437,0.1064144111033
0.29166490449385,0.104909679176873
0.291031736155522,0.103405432225343
0.290351448949278,0.101901832697134
0.289623906150943,0.10039904304067
0.288848971036342,0.0988972257043743
0.2880265068813,0.0973965431366706
0.287156376961643,0.0958971577859825
0.286238444553196,0.0943992321007338
0.285272572931784,0.092902928529348
0.284258625373231,0.091408409520249
0.283196465153364,0.0899158375218603
0.282085955548007,0.0884253749826056
0.280926959832986,0.0869371843509085
0.279719341284126,0.0854514280751929
0.278462963177251,0.0839682686038821
0.277157688788187,0.0824878683854001
0.27580338139276,0.0810103898681704
0.274399904266794,0.0795359955006167
0.272947120686114,0.0780648477311625
0.271444893926546,0.0765971090082318
0.269893087263915,0.075132941780248
0.268291563974046,0.0736725084956349
0.266640187332764,0.0722159716028161
0.264938820615894,0.0707634935502152
0.263187327099262,0.069315236786256
0.261385570058693,0.0678713637593621
0.259533412770011,0.0664320369179572
0.257630718509043,0.0649974187104649
0.255677350551612,0.0635676715853089
0.253673172173545,0.0621429579909128
0.251618046650666,0.0607234403757004
0.249511837258801,0.0593092811880953
0.247354407273775,0.0579006428765211
0.245145619971413,0.0564976878894016
0.24288533862754,0.0551005786751602
0.240573426517981,0.0537094776822209
0.238209746918562,0.0523245473590072
0.235794163105107,0.0509459501539428
0.233326538353442,0.0495738485154512
0.230806735939393,0.0482084048919564
0.228234619138783,0.0468497817318817
0.225610051227438,0.045498141483651
0.222932895481184,0.0441536465956879
0.220203015175846,0.0428164595164161
0.217420273587248,0.0414867426942591
0.214584533991217,0.0401646585776408
0.211695659663576,0.0388503696149847
0.208753513880152,0.0375440382547146
0.205757959916769,0.036245826945254
0.202708861049253,0.0349558981350266
0.199606080553429,0.0336744142724562
0.196449481705121,0.0324015378059664
0.193238927780156,0.0311374311839807
0.189974282054358,0.0298822568549231
0.186655407803552,0.0286361772672169
0.183282168303564,0.027399354869286
0.179854426830219,0.026171952109554
0.176372046659341,0.0249541314364446
0.172834891066757,0.0237460552983813
0.169242823328291,0.022547886143788
0.165595706719768,0.0213597864210882
0.161893404517014,0.0201819185787057
0.158135779995854,0.0190144450650639
0.154322696432112,0.0178575283285868
0.150454017101615,0.0167113308176979
0.146529605280187,0.0155760149808209
0.142549324243653,0.0144517432663793
0.138513037267839,0.013338678122797
0.134420607628569,0.0122369819984976
0.13027189860167,0.0111468173419047
0.126066773462965,0.0100683466014419
0.121805095488281,0.0090017322255331
0.117486727953442,0.00794713666260175
0.113111534134274,0.00690472236107162
0.108679377306601,0.00587465176936631
0.10419012074625,0.00485708733590956
0.0996436277290437,0.00385219150912496
0.0950397615308093,0.00286012673743623
0.0903783854273711,0.00188105546926698
0.0856593626945546,0.000915140153040938
0.0808825566081846,-3.74567628182963e-05
0.0760478304440867,-0.000976572829886996
0.0711550474780856,-0.00190204559974157
0.0662040709860069,-0.00281371262395826
0.0611947642436753,-0.00371141145411351
0.0561269905269165,-0.00459497964178355
0.0510006131115551,-0.00546425473854481
0.0458154952734169,-0.00631907429597354
0.0405715002883263,-0.00715927586564615
0.0352684914321093,-0.00798469699913892
0.0299063319805903,-0.00879517524802823
0.024484885209595,-0.00959054816389036
0.0190040143949482,-0.0103706532983017
0.0134635828124755,-0.0111353282028386
0.00786345373800152,-0.0118844104290773
0.00220349044735194,-0.0126177375285942
-0.00351644378364853,-0.0133351470529657
-0.00929648567917429,-0.014036476553768
-0.0151367719634006,-0.0147215635825776
-0.0210374393605019,-0.0153902456909706
-0.0269986245946535,-0.0160423604305236
-0.0330204643900295,-0.0166777453528127
-0.0391030954708057,-0.0172962380094144
-0.045246654561156,-0.017897675951905
-0.051451278385256,-0.0184818967318608
-0.0577171036672798,-0.0190487379008582
-0.064044267131403,-0.0195980370104735
-0.0704329055017998,-0.0201296316122829
-0.0768831555026456,-0.020643359257863
-0.0833951538581146,-0.0211390574987899
-0.0899690372923823,-0.0216165638866401
-0.0966049425296229,-0.0220757159729898
-0.103303006294012,-0.0225163513094155
-0.110063365309723,-0.0229383074474933
-0.116886156300933,-0.0233414219387998
-0.123771515991815,-0.0237255323349112
-0.130719581106544,-0.0240904761874038
-0.137730488369296,-0.024436091047854
-0.144804374504244,-0.0247622144678381
-0.151941376235565,-0.0250686839989325
-0.159141630287432,-0.0253553371927135
-0.166405273384021,-0.0256220116007573
-0.173732442249506,-0.0258685447746405
-0.181123273608062,-0.0260947742659392
-0.188577904183865,-0.0263005376262299
-0.196096470701088,-0.0264856724070889
-0.203679109883907,-0.0266500161600924
-0.203679109883907,-0.0266500161600924
-0.211241781785495,-0.0268145830281599
-0.218700700078315,-0.0270004266241074
-0.226056381915477,-0.0272074437043565
-0.233309344450092,-0.0274355310253287
-0.240460104835272,-0.0276845853434458
-0.247509180224126,-0.0279545034151291
-0.254457087769766,-0.0282451819968004
-0.261304344625302,-0.0285565178448812
-0.268051467943845,-0.028888407715793
-0.274698974878506,-0.0292407483659575
-0.281247382582396,-0.0296134365517962
-0.287697208208625,-0.0300063690297307
-0.294048968910304,-0.0304194425561826
-0.300303181840544,-0.0308525538875734
-0.306460364152455,-0.0313055997803247
-0.312521032999149,-0.0317784769908582
-0.318485705533736,-0.0322710822755953
-0.324354898909326,-0.0327833123909577
-0.330129130279032,-0.0333150640933669
-0.335808916795962,-0.0338662341392446
-0.341394775613229,-0.0344367192850122
-0.346887223883942,-0.0350264162870914
-0.352286778761213,-0.0356352219019037
-0.357593957398152,-0.0362630328858708
-0.36280927694787,-0.0369097459954141
-0.367933254563478,-0.0375752579869553
-0.372966407398087,-0.038259465616916
-0.377909252604807,-0.0389622656417177
-0.382762307336749,-0.039683554817782
-0.387526088747023,-0.0404232299015304
-0.392201113988742,-0.0411811876493847
-0.396787900215014,-0.0419573248177662
-0.401286964578952,-0.0427515381630967
-0.405698824233665,-0.0435637244417977
-0.410023996332265,-0.0443937804102907
-0.414262998027862,-0.0452416028249974
-0.418416346473568,-0.0461070884423393
-0.422484558822492,-0.046990134018738
-0.426468152227745,-0.047890636310615
-0.430367643842439,-0.048808492074392
-0.434183550819684,-0.0497435980664905
-0.43791639031259,-0.0506958510433322
-0.441566679474269,-0.0516651477613385
-0.445134935457832,-0.052651384976931
-0.448621675416388,-0.0536544594465315
-0.452027416503049,-0.0546742679265613
-0.455352675870926,-0.055710707173442
-0.458597970673129,-0.0567636739435954
-0.461763818062769,-0.0578330649934429
-0.464850735192957,-0.0589187770794061
-0.467859239216803,-0.0600207069579066
-0.470789847287418,-0.061138751385366
-0.473643076557914,-0.0622728071182059
-0.4764194441814,-0.0634227709128477
-0.479119467310988,-0.0645885395257132
-0.481743663099788,-0.0657700097132238
-0.484292548700911,-0.0669670782318012
-0.486766641267468,-0.0681796418378669
-0.489166457952569,-0.0694075972878425
-0.491492515909326,-0.0706508413381496
-0.493745332290848,-0.0719092707452098
-0.495925424250248,-0.0731827822654446
-0.498033308940634,-0.0744712726552757
-0.500069503515119,-0.0757746386711245
-0.502034525126813,-0.0770927770694127
-0.503928890928827,-0.0784255846065618
-0.505753118074271,-0.0797729580389935
-0.507507723716257,-0.0811347941231293
-0.509193225007894,-0.0825109896153907
-0.510810139102294,-0.0839014412721994
-0.512358983152568,-0.0853060458499769
-0.513840274311826,-0.0867247001051449
-0.515254529733179,-0.0881573007941248
-0.516602266569737,-0.0896037446733383
-0.517884001974612,-0.0910639284992069
-0.519100253100914,-0.0925377490281523
-0.520251537101755,-0.0940251030165959
-0.521338371130244,-0.0955258872209594
-0.522361272339492,-0.0970399983976643
-0.523320757882611,-0.0985673333031323
-0.52421734491271,-0.100107788693785
-0.525051550582902,-0.101661261326044
-0.525823892046295,-0.10322764795633
-0.526534886456003,-0.104806845341066
-0.527185050965133,-0.106398750236673
-0.527774902726799,-0.108003259399572
-0.52830495889411,-0.109620269586185
-0.528775736620178,-0.111249677552934
-0.529187753058112,-0.11289138005624
-0.529541525361024,-0.114545273852525
-0.529837570682024,-0.11621125569821
-0.530076406174224,-0.117889222349718
-0.530258548990734,-0.119579070563469
-0.530384516284664,-0.121280697095884
-0.530454825209125,-0.122993998703387
-0.530469992917229,-0.124718872142398
-0.530430536562086,-0.126455214169338
-0.530336973296807,-0.12820292154063
-0.530189820274502,-0.129961891012695
-0.529989594648282,-0.131732019341955
-0.529736813571258,-0.133513203284831
-0.529431994196541,-0.135305339597744
-0.529075653677241,-0.137108325037117
-0.528668309166469,-0.13892205635937
-0.528210477817337,-0.140746430320926
-0.527702676782954,-0.142581343678206
-0.527145423216431,-0.144426693187632
-0.52653923427088,-0.146282375605625
-0.525884627099411,-0.148148287688606
-0.525182118855134,-0.150024326192998
-0.52443222669116,-0.151910387875222
-0.523635467760601,-0.153806369491699
-0.522792359216567,-0.155712167798852
-0.521903418212168,-0.157627679553101
-0.520969161900516,-0.159552801510868
-0.519990107434721,-0.161487430428575
-0.518966771967894,-0.163431463062643
-0.517899672653145,-0.165384796169494
-0.516789326643586,-0.16734732650555
-0.515636251092327,-0.169318950827232
-0.514440963152479,-0.171299565890962
-0.513203979977153,-0.173289068453161
-0.511925818719459,-0.17528735527025
-0.510606996532508,-0.177294323098652
-0.509248030569411,-0.179309868694788
-0.507849437983279,-0.18133388881508
-0.506411735927222,-0.183366280215949
-0.504935441554352,-0.185406939653816
-0.503421072017778,-0.187455763885104
-0.501869144470612,-0.189512649666234
-0.500280176065964,-0.191577493753627
-0.498654683956945,-0.193650192903705
-0.496993185296667,-0.195730643872889
-0.495296197238238,-0.197818743417602
-0.493564236934772,-0.199914388294265
-0.491797821539377,-0.202017475259299
-0.489997468205165,-0.204127901069126
-0.488163694085247,-0.206245562480167
-0.486297016332733,-0.208370356248844
-0.484397952100735,-0.210502179131579
-0.482467018542362,-0.212640927884793
-0.480504732810726,-0.214786499264908
-0.478511612058937,-0.216938790028346
-0.476488173440107,-0.219097696931527
-0.474434934107345,-0.221263116730874
-0.472352411213763,-0.223434946182808
-0.470241121912471,-0.22561308204375
-0.468101583356581,-0.227797421070123
-0.465934312699202,-0.229987860018348
-0.463739827093446,-0.232184295644846
-0.461518643692423,-0.234386624706039
-0.459271279649245,-0.236594743958349
-0.456998252117021,-0.238808550158196
-0.454700078248862,-0.241027940062004
-0.45237727519788,-0.243252810426192
-0.450030360117186,-0.245483058007184
-0.447659850159889,-0.2477185795614
-0.445266262479101,-0.249959271845262
-0.442850114227932,-0.252205031615192
-0.440411922559493,-0.254455755627611
-0.437952204626895,-0.25671134063894
-0.435471477583248,-0.258971683405602
-0.432970258581664,-0.261236680684018
-0.430449064775253,-0.263506229230609
-0.427908413317126,-0.265780225801797
-0.425348821360394,-0.268058567154004
-0.422770806058166,-0.270341150043652
-0.420174884563555,-0.27262787122716
-0.417561574029671,-0.274918627460953
-0.414931391609624,-0.27721331550145
-0.412284854456526,-0.279511832105074
-0.409622479723487,-0.281814074028246
-0.406944784563617,-0.284119938027387
-0.404252286130028,-0.28642932085892
-0.401545501575831,-0.288742119279266
-0.398824948054135,-0.291058230044846
-0.396091142718053,-0.293377549912082
-0.393344602720693,-0.295699975637395
-0.390585845215168,-0.298025403977208
-0.387815387354589,-0.300353731687941
-0.385033746292065,-0.302684855526017
-0.382241439180708,-0.305018672247857
-0.379438983173627,-0.307355078609881
-0.376626895423936,-0.309693971368513
-0.373805693084743,-0.312035247280174
-0.370975893309159,-0.314378803101285
-0.368138013250295,-0.316724535588267
-0.365292570061263,-0.319072341497543
-0.362440080895173,-0.321422117585534
-0.359581062905135,-0.323773760608661
-0.35671603324426,-0.326127167323346
-0.35384550906566,-0.328482234486011
-0.350970007522444,-0.330838858853077
-0.348090045767724,-0.333196937180966
-0.34520614095461,-0.335556366226099
-0.342318810236213,-0.337917042744899
-0.339428570765644,-0.340278863493785
-0.336535939696013,-0.342641725229181
-0.333641434180432,-0.345005524707507
-0.330745571372011,-0.347370158685186
-0.327848868423861,-0.349735523918639
-0.324951842489092,-0.352101517164287
-0.322055010720815,-0.354468035178552
-0.319158890272142,-0.356834974717855
-0.316263998296182,-0.359202232538619
-0.313370851946047,-0.361569705397264
-0.310479968374847,-0.363937290050212
-0.307591864735693,-0.366304883253886
-0.304707058181695,-0.368672381764706
-0.301826065865966,-0.371039682339094
-0.298949404941614,-0.373406681733471
-0.296077592561752,-0.37577327670426
-0.293211145879489,-0.378139364007881
-0.290350582047937,-0.380504840400757
-0.287496418220207,-0.382869602639308
-0.284649171549408,-0.385233547479958
-0.281809359188652,-0.387596571679126
-0.278977498291049,-0.389958571993234
-0.276154106009711,-0.392319445178705
-0.273339699497748,-0.39467908799196
-0.27053479590827,-0.39703739718942
-0.267739912394389,-0.399394269527507
-0.264955566109215,-0.401749601762643
-0.26218227420586,-0.404103290651249
-0.259420553837432,-0.406455232949746
-0.256670922157045,-0.408805325414556
-0.253933896317808,-0.411153464802102
-0.251209993472832,-0.413499547868804
-0.248499730775227,-0.415843471371083
-0.245803625378105,-0.418185132065363
-0.243122194434576,-0.420524426708063
-0.240455955097751,-0.422861252055606
-0.237805424520741,-0.425195504864414
-0.235171119856657,-0.427527081890907
-0.232553558258608,-0.429855879891508
-0.229953256879707,-0.432181795622637
-0.227370732873063,-0.434504725840718
-0.224806503391788,-0.43682456730217
-0.222261085588992,-0.439141216763416
-0.219734996617786,-0.441454570980878
-0.217228753631281,-0.443764526710976
-0.214742873782587,-0.446070980710133
-0.212277874224816,-0.44837382973477
-0.209834272111077,-0.450672970541309
-0.207412584594482,-0.452968299886171
-0.205013328828142,-0.455259714525777
-0.202637021965167,-0.45754711121655
-0.200284181158668,-0.459830386714911
-0.197955323561755,-0.462109437777282
-0.19565096632754,-0.464384161160083
-0.193371626609133,-0.466654453619737
-0.191117821559646,-0.468920211912666
-0.188890068332188,-0.47118133279529
-0.18668888407987,-0.473437713024031
-0.184514785955803,-0.475689249355312
-0.182368291113099,-0.477935838545553
-0.180249916704867,-0.480177377351176
-0.178160179884219,-0.482413762528603
-0.176099597804265,-0.484644890834256
-0.174068687618115,-0.486870659024555
-0.172067966478882,-0.489090963855922
-0.170097951539675,-0.49130570208478
-0.168159159953605,-0.493514770467549
-0.166252108873783,-0.495718065760651
-0.16437731545332,-0.497915484720508
-0.162535296845326,-0.500106924103542
-0.160726570202912,-0.502292280666173
-0.15895165267919,-0.504471451164824
-0.157211061427269,-0.506644332355915
-0.15550531360026,-0.50881082099587
-0.153834926351275,-0.510970813841108
-0.152200416833423,-0.513124207648053
-0.150602302199816,-0.515270899173124
-0.149041099603565,-0.517410785172745
-0.14751732619778,-0.519543762403336
-0.146031499135572,-0.521669727621319
-0.144584135570051,-0.523788577583116
-0.143175752654329,-0.525900209045149
-0.141806867541516,-0.528004518763838
-0.140477997384723,-0.530101403495605
-0.13918965933706,-0.532190759996872
-0.137942370551639,-0.534272485024061
-0.13673664818157,-0.536346475333593
-0.135573009379964,-0.53841262768189
-0.134451971299932,-0.540470838825373
-0.133374051094584,-0.542521005520464
-0.132339765917032,-0.544563024523584
-0.131349632920385,-0.546596792591155
-0.130404169257755,-0.548622206479599
-0.129503892082252,-0.550639162945337
-0.128649318546987,-0.552647558744791
-0.127840965805072,-0.554647290634382
-0.127079351009616,-0.556638255370532
-0.12636499131373,-0.558620349709663
-0.125698403870525,-0.560593470408195
-0.125080105833113,-0.562557514222551
-0.124510614354603,-0.564512377909153
-0.123990446588106,-0.566457958224421
-0.123520119686734,-0.568394151924777
-0.123100150803596,-0.570320855766644
-0.122731057091804,-0.572237966506442
-0.122413355704469,-0.574145380900593
-0.1221475637947,-0.576042995705518
-0.12193419851561,-0.57793070767764
-0.121773777020308,-0.57980841357338
-0.121666816461905,-0.581676010149159
-0.121613833993513,-0.583533394161399
-0.121615346768242,-0.585380462366522
-0.121671871939202,-0.587217111520948
-0.121783926659504,-0.589043238381101
-0.12195202808226,-0.590858739703401
-0.122176693360579,-0.592663512244269
-0.122458439647573,-0.594457452760128
-0.122797784096353,-0.596240458007399
-0.123195243860028,-0.598012424742504
-0.123651336091711,-0.599773249721864
-0.124166577944511,-0.6015228297019
-0.124741486571539,-0.603261061439035
-0.125376579125907,-0.60498784168969
-0.126072372760724,-0.606703067210286
-0.126829384629102,-0.608406634757245
-0.127648131884151,-0.610098441086989
-0.128529131678983,-0.611778382955939
-0.129472901166707,-0.613446357120517
-0.130479957500435,-0.615102260337144
-0.131550817833277,-0.616745989362242
-0.132685999318345,-0.618377440952232
-0.133886019108748,-0.619996511863537
-0.135151394357598,-0.621603098852577
-0.136482642218005,-0.623197098675775
-0.13788027984308,-0.624778408089552
-0.139344824385934,-0.626346923850328
-0.140876792999678,-0.627902542714527
-0.142476702837422,-0.629445161438569
-0.144145071052277,-0.630974676778877
-0.145882414797354,-0.632490985491871
-0.147689251225763,-0.633993984333973
-0.149566097490616,-0.635483570061605
-0.151513470745023,-0.636959639431189
-0.153531888142094,-0.638422089199146
-0.155621866834942,-0.639870816121897
-0.157783923976675,-0.641305716955865
-0.160018576720406,-0.64272668845747
-0.162326342219244,-0.644133627383134
-0.164707737626301,-0.64552643048928
-0.167163280094688,-0.646904994532328
-0.169693486777514,-0.648269216268699
-0.172298874827892,-0.649618992454817
-0.17497996139893,-0.650954219847102
-0.177737263643742,-0.652274795201975
-0.180571298715436,-0.653580615275859
-0.183482583767124,-0.654871576825175
-0.186471635951916,-0.656147576606344
-0.189538972422924,-0.657408511375788
-0.192685110333258,-0.658654277889929
-0.195910566836029,-0.659884772905188
-0.199215859084347,-0.661099893177987
-0.202601504231324,-0.662299535464748
-0.206068019430069,-0.663483596521891
-0.209615921833695,-0.664651973105839
-0.213245728595311,-0.665804561973013
-0.216957956868028,-0.666941259879835
-0.220753123804957,-0.668061963582726
-0.22463174655921,-0.669166569838108
-0.228594342283895,-0.670254975402402
-0.232641428132125,-0.67132707703203
-0.23677352125701,-0.672382771483415
-0.240991138811661,-0.673421955512975
-0.245294797949188,-0.674444525877135
-0.249685015822703,-0.675450379332315
-0.254162309585315,-0.676439412634937
-0.258727196390137,-0.677411522541423
-0.263380193390278,-0.678366605808193
-0.268121817738849,-0.67930455919167
-0.272952586588961,-0.680225279448276
-0.277873017093725,-0.681128663334431
-0.282883626406252,-0.682014607606557
-0.287984931679651,-0.682883009021077
-0.293177450067035,-0.683733764334411
-0.298461698721514,-0.68456677030298
-0.303838194796198,-0.685381923683208
-0.309307455444198,-0.686179121231515
-0.314869997818626,-0.686958259704323
-0.320526339072591,-0.687719235858053
-0.326276996359204,-0.688461946449126
-0.332122486831577,-0.689186288233966
-0.33806332764282,-0.689892157968993
-0.344100035946044,-0.690579452410628
-0.350233128894359,-0.691248068315294
-0.356463123640876,-0.691897902439411
-0.362790537338707,-0.692528851539402
-0.369215887140961,-0.693140812371688
-0.375739690200749,-0.69373368169269
-0.382362463671183,-0.694307356258831
-0.389084724705373,-0.694861732826531
-0.39590699045643,-0.695396708152213
-0.402829778077464,-0.695912178992298
-0.409853604721586,-0.696408042103207
-0.416978987541908,-0.696884194241362
-0.416978987541908,-0.696884194241362
-0.424123738648045,-0.697344799352221
-0.431205437178974,-0.697794078183567
-0.438224250831847,-0.698232012695314
-0.445180347303818,-0.698658584847371
-0.452073894292037,-0.699073776599651
-0.458905059493658,-0.699477569912064
-0.465674010605833,-0.699869946744523
-0.472380915325712,-0.700250889056939
-0.47902594135045,-0.700620378809223
-0.485609256377198,-0.700978397961287
-0.492131028103108,-0.701324928473042
-0.498591424225333,-0.701659952304399
-0.504990612441024,-0.701983451415272
-0.511328760447334,-0.702295407765569
-0.517606035941415,-0.702595803315203
-0.523822606620419,-0.702884620024087
-0.529978640181499,-0.70316183985213
-0.536074304321806,-0.703427444759245
-0.542109766738494,-0.703681416705342
-0.548085195128713,-0.703923737650335
-0.554000757189617,-0.704154389554133
-0.559856620618357,-0.704373354376648
-0.565652953112085,-0.704580614077792
-0.571389922367955,-0.704776150617477
-0.577067696083117,-0.704959945955613
-0.582686441954725,-0.705131982052113
-0.58824632767993,-0.705292240866887
-0.593747520955885,-0.705440704359847
-0.599190189479742,-0.705577354490905
-0.604574500948652,-0.705702173219972
-0.609900623059769,-0.70581514250696
-0.615168723510244,-0.70591624431178
-0.620378969997231,-0.706005460594343
-0.625531530217879,-0.706082773314561
-0.630626571869343,-0.706148164432346
-0.635664262648774,-0.706201615907608
-0.640644770253325,-0.706243109700261
-0.645568262380147,-0.706272627770213
-0.650434906726393,-0.706290152077378
-0.655244870989215,-0.706295664581667
-0.659998322865765,-0.706289147242992
-0.664695430053196,-0.706270582021262
-0.669336360248659,-0.706239950876391
-0.673921281149307,-0.70619723576829
-0.678450360452292,-0.70614241865687
-0.682923765854767,-0.706075481502042
-0.687341665053883,-0.705996406263718
-0.691704225746792,-0.70590517490181
-0.696011615630648,-0.705801769376229
-0.700264002402601,-0.705686171646886
-0.704461553759804,-0.705558363673694
-0.70860443739941,-0.705418327416562
-0.712692821018571,-0.705266044835404
-0.716726872314438,-0.705101497890129
-0.720706758984164,-0.704924668540651
-0.724632648724902,-0.70473553874688
-0.728504709233803,-0.704534090468728
-0.73232310820802,-0.704320305666105
-0.736088013344704,-0.704094166298925
-0.739799592341009,-0.703855654327097
-0.743458012894086,-0.703604751710534
-0.747063442701087,-0.703341440409147
-0.750616049459165,-0.703065702382848
-0.754116000865471,-0.702777519591548
-0.757563464617159,-0.702476873995158
-0.76095860841138,-0.70216374755359
-0.764301599945286,-0.701838122226755
-0.76759260691603,-0.701499979974566
-0.770831797020764,-0.701149302756933
-0.774019337956639,-0.700786072533767
-0.777155397420809,-0.70041027126498
-0.780240143110426,-0.700021880910485
-0.783273742722641,-0.699620883430192
-0.786256363954606,-0.699207260784012
-0.789188174503475,-0.698780994931857
-0.792069342066399,-0.698342067833639
-0.79490003434053,-0.697890461449269
-0.797680419023021,-0.697426157738659
-0.800410663811024,-0.696949138661719
-0.803090936401691,-0.696459386178363
-0.805721404492174,-0.6959568822485
-0.808302235779626,-0.695441608832042
-0.810833597961197,-0.694913547888901
-0.813315658734042,-0.694372681378989
-0.815748585795313,-0.693818991262216
-0.818132546842159,-0.693252459498495
-0.820467709571736,-0.692673068047736
-0.822754241681194,-0.692080798869852
-0.824992310867686,-0.691475633924753
-0.827182084828364,-0.690857555172351
-0.82932373126038,-0.690226544572558
-0.831417417860886,-0.689582584085285
-0.833463312327036,-0.688925655670444
-0.835461582355979,-0.688255741287946
-0.83741239564487,-0.687572822897702
-0.83931591989086,-0.686876882459624
-0.841172322791102,-0.686167901933623
-0.842981772042747,-0.685445863279612
-0.844744435342948,-0.6847107484575
-0.846460480388857,-0.683962539427201
-0.848130074877626,-0.683201218148625
-0.849753386506408,-0.682426766581683
-0.851330582972354,-0.681639166686287
-0.852861831972617,-0.68083840042235
-0.854347301204349,-0.680024449749782
-0.855787158364702,-0.679197296628494
-0.857181571150828,-0.678356923018398
-0.85853070725988,-0.677503310879406
-0.85983473438901,-0.676636442171429
-0.86109382023537,-0.675756298854378
-0.862308132496112,-0.674862862888165
-0.863477838868389,-0.673956116232701
-0.864603107049352,-0.673036040847899
-0.865684104736153,-0.672102618693669
-0.866720999625946,-0.671155831729923
-0.867713959415882,-0.670195661916571
-0.868663151803114,-0.669222091213527
-0.869568744484793,-0.668235101580701
-0.870430905158071,-0.667234674978005
-0.871249801520102,-0.666220793365349
-0.872025601268038,-0.665193438702647
-0.872758472099029,-0.664152592949808
-0.873448581710228,-0.663098238066745
-0.874096097798789,-0.662030356013369
-0.874701188061863,-0.660948928749592
-0.875264020196602,-0.659853938235325
-0.875784761900158,-0.658745366430478
-0.876263580869684,-0.657623195294965
-0.876700644802332,-0.656487406788697
-0.877096121395254,-0.655337982871583
-0.877450178345601,-0.654174905503538
-0.877762983350528,-0.652998156644471
-0.878034704107185,-0.651807718254294
-0.878265508312724,-0.650603572292919
-0.878455563664298,-0.649385700720257
-0.87860503785906,-0.64815408549622
-0.878714098594161,-0.646908708580719
-0.878782913566754,-0.645649551933665
-0.87881165047399,-0.644376597514971
-0.878800477013023,-0.643089827284547
-0.878749560881004,-0.641789223202305
-0.878659069775085,-0.640474767228156
-0.878529171392418,-0.639146441322012
-0.878360033430156,-0.637804227443785
-0.878151823585452,-0.636448107553385
-0.877904709555456,-0.635078063610725
-0.877618859037322,-0.633694077575715
-0.877294439728202,-0.632296131408268
-0.876931619325247,-0.630884207068295
-0.87653056552561,-0.629458286515706
-0.876091446026443,-0.628018351710415
-0.875614428524899,-0.626564384612331
-0.875099680718129,-0.625096367181367
-0.874547370303286,-0.623614281377434
-0.873957664977522,-0.622118109160443
-0.87333073243799,-0.620607832490307
-0.87266674038184,-0.619083433326936
-0.871965856506226,-0.617544893630242
-0.8712282485083,-0.615992195360136
-0.870454084085214,-0.61442532047653
-0.869643530934121,-0.612844250939335
-0.868796756752171,-0.611248968708463
-0.867913929236518,-0.609639455743825
-0.866995216084314,-0.608015694005334
-0.866040784992711,-0.606377665452899
-0.86505080365886,-0.604725352046433
-0.864025439779915,-0.603058735745847
-0.862964861053028,-0.601377798511052
-0.861869235175351,-0.599682522301961
-0.860738729844035,-0.597972889078484
-0.859573512756234,-0.596248880800533
-0.858373751609099,-0.59451047942802
-0.857139614099783,-0.592757666920856
-0.855871267925437,-0.590990425238951
-0.854568880783214,-0.589208736342219
-0.853232620370267,-0.58741258219057
-0.851862654383747,-0.585601944743916
-0.850459150520806,-0.583776805962168
-0.849022276478597,-0.581937147805238
-0.847552199954272,-0.580082952233037
-0.846049088644984,-0.578214201205476
-0.844513110247883,-0.576330876682468
-0.842944432460123,-0.574432960623923
-0.841343222978856,-0.572520434989754
-0.839709649501234,-0.570593281739871
-0.838043879724409,-0.568651482834186
-0.836346081345534,-0.56669502023261
-0.83461642206176,-0.564723875895055
-0.83285506957024,-0.562738031781433
-0.831062191568125,-0.560737469851655
-0.829237955752569,-0.558722172065631
-0.827382529820723,-0.556692120383275
-0.82549608146974,-0.554647296764497
-0.823578778396771,-0.552587683169209
-0.82163078829897,-0.550513261557321
-0.819652278873487,-0.548424013888747
-0.817643417817476,-0.546319922123397
-0.815604372828089,-0.544200968221182
-0.813535311602477,-0.542067134142014
-0.811436401837793,-0.539918401845805
-0.809307811231189,-0.537754753292466
-0.807149707479818,-0.535576170441908
-0.804962258280831,-0.533382635254043
-0.802745631331381,-0.531174129688783
-0.80049999432862,-0.528950635706038
-0.7982255149697,-0.526712135265721
-0.795922360951773,-0.524458610327743
-0.793590699971992,-0.522190042852015
-0.791230699727508,-0.519906414798448
-0.788842527915475,-0.517607708126955
-0.786426352233044,-0.515293904797447
-0.783982340377367,-0.512964986769834
-0.781510660045597,-0.51062093600403
-0.779011478934885,-0.508261734459944
-0.776484964742384,-0.505887364097489
-0.773931285165246,-0.503497806876576
-0.771350607900624,-0.501093044757116
-0.76874310064567,-0.498673059699021
-0.766108931097534,-0.496237833662203
-0.763448266953371,-0.493787348606572
-0.760761275910332,-0.491321586492041
-0.75804812566557,-0.488840529278521
-0.755308983916236,-0.486344158925923
-0.752544018359482,-0.483832457394159
-0.749753396692462,-0.48130540664314
-0.746937286612327,-0.478762988632777
-0.744095855816229,-0.476205185322983
-0.74122927200132,-0.473631978673668
-0.738337702864754,-0.471043350644745
-0.735421316103681,-0.468439283196124
-0.732480279415255,-0.465819758287717
-0.729514760496626,-0.463184757879436
-0.726524927044948,-0.460534263931191
-0.723510946757373,-0.457868258402895
-0.720472987331053,-0.455186723254458
-0.71741121646314,-0.452489640445794
-0.714325801850787,-0.449776991936812
-0.711216911191145,-0.447048759687424
-0.708084712181366,-0.444304925657542
-0.704929372518604,-0.441545471807077
-0.701751059900009,-0.438770380095941
-0.698549942022735,-0.435979632484045
-0.695326186583934,-0.4331732109313
-0.692079961280757,-0.430351097397619
-0.688811433810357,-0.427513273842912
-0.685520771869886,-0.424659722227092
-0.682208143156497,-0.421790424510068
-0.678873715367341,-0.418905362651754
-0.675517656199571,-0.41600451861206
-0.672140133350339,-0.413087874350898
-0.668741314516797,-0.41015541182818
-0.665321367396097,-0.407207113003816
-0.661880459685391,-0.404242959837718
-0.658418759081833,-0.401262934289799
-0.654936433282573,-0.398267018319968
-0.651433649984765,-0.395255193888139
-0.647910576885559,-0.392227442954221
-0.64436738168211,-0.389183747478127
-0.640804232071568,-0.386124089419768
-0.637221295751086,-0.383048450739056
-0.633618740417816,-0.379956813395901
-0.62999673376891,-0.376849159350217
-0.626355443501521,-0.373725470561913
-0.6226950373128,-0.370585728990901
-0.619015682899901,-0.367429916597094
-0.615317547959974,-0.364258015340402
-0.611600800190173,-0.361070007180736
-0.607865607287649,-0.35786587407801
-0.604112136949556,-0.354645597992132
-0.600340556873044,-0.351409160883016
-0.596551034755266,-0.348156544710573
-0.592743738293374,-0.344887731434714
-0.588918835184521,-0.34160270301535
-0.585076493125859,-0.338301441412394
-0.581216879814539,-0.334983928585756
-0.577340162947715,-0.331650146495348
-0.573446510222538,-0.328300077101082
-0.56953608933616,-0.324933702362869
-0.565609067985734,-0.32155100424062
-0.561665613868413,-0.318151964694247
-0.557705894681347,-0.314736565683661
-0.553730078121689,-0.311304789168775
-0.549738331886592,-0.307856617109498
-0.545730823673208,-0.304392031465744
-0.541707721178688,-0.300911014197422
-0.537669192100186,-0.297413547264446
-0.533615404134853,-0.293899612626725
-0.529546524979842,-0.290369192244172
-0.525462722332304,-0.286822268076698
-0.521364163889392,-0.283258822084215
-0.517251017348258,-0.279678836226634
-0.513123450406054,-0.276082292463867
-0.508981630759933,-0.272469172755824
-0.504825726107047,-0.268839459062418
-0.500655904144548,-0.265193133343559
-0.496472332569587,-0.261530177559161
-0.492275179079318,-0.257850573669132
-0.488064611370893,-0.254154303633387
-0.483840797141463,-0.250441349411835
-0.479603904088181,-0.246711692964388
-0.475354099908199,-0.242965316250958
-0.471091552298669,-0.239202201231457
-0.466816428956744,-0.235422329865794
-0.462528897579576,-0.231625684113883
-0.458229125864316,-0.227812245935635
-0.453917281508118,-0.223981997290961
-0.449593532208132,-0.220134920139772
-0.445258045661513,-0.21627099644198
-0.440910989565411,-0.212390208157496
-0.436552531616979,-0.208492537246233
-0.432182839513369,-0.204577965668101
-0.427802080951733,-0.200646475383012
-0.423410423629224,-0.196698048350877
-0.419008035242993,-0.192732666531608
-0.414595083490193,-0.188750311885116
-0.410171736067977,-0.184750966371313
-0.405738160673495,-0.18073461195011
-0.401294525003902,-0.176701230581419
-0.396840996756348,-0.172650804225151
-0.392377743627985,-0.168583314841217
-0.387904933315967,-0.16449874438953
-0.383422733517445,-0.16039707483
-0.378931311929572,-0.156278288122539
-0.374430836249499,-0.152142366227058
-0.369921474174379,-0.14798929110347
-0.365403393401364,-0.143819044711685
-0.360876761627607,-0.139631609011614
-0.356341746550259,-0.135426965963171
-0.351798515866472,-0.131205097526264
-0.3472472372734,-0.126965985660807
-0.342688078468194,-0.122709612326711
-0.338121207148006,-0.118435959483887
-0.333546791009988,-0.114145009092247
-0.328964997751293,-0.109836743111702
-0.324375995069073,-0.105511143502163
-0.31977995066048,-0.101168192223543
-0.315177032222666,-0.0968078712357522
-0.310567407452784,-0.0924301624987023
-0.305951244047985,-0.0880350479723048
-0.301328709705422,-0.0836225096164715
-0.296699972122248,-0.0791925293911133
-0.292065198995613,-0.0747450892561422
-0.287424558022671,-0.0702801711714692
-0.282778216900574,-0.0657977570970063
-0.278126343326474,-0.0612978289926644
-0.273469104997523,-0.0567803688183555
-0.268806669610872,-0.0522453585339906
-0.264139204863676,-0.0476927800994816
-0.259466878453085,-0.0431226154747394
-0.254789858076252,-0.0385348466196762
-0.250108311430329,-0.0339294554942028
-0.245422406212468,-0.0293064240582311
-0.240732310119822,-0.0246657342716723
-0.236038190849542,-0.0200073680944382
-0.231340216098781,-0.0153313074864398
-0.226638553564692,-0.0106375344075889
-0.221933370944425,-0.00592603081779685
-0.217224835935134,-0.0011967786769753
-0.212513116233971,0.00355024005496461
-0.207798379538088,0.00831504341811105
-0.203080793544636,0.013097649452553
-0.198360525950769,0.0178980761983785
-0.193637744453638,0.0227163416956765
-0.188912616750397,0.0275524639845351
-0.184185310538195,0.0324064611050433
-0.179455993514187,0.0372783510972892
-0.174724833375524,0.0421681520013618
-0.169991997819359,0.0470758818573492
-0.165257654542843,0.0520015587053403
-0.16052197124313,0.0569452005854232
-0.15578511561737,0.0619068255376868
-0.151047255362716,0.0668864516022194
-0.146308558176321,0.0718840968191099
-0.141569191755337,0.0768997792284462
-0.136829323796915,0.0819335168703176
-0.132089121998208,0.0869853277848119
-0.127348754056369,0.0920552300120183
-0.122608387668549,0.0971432415920247
-0.117868190531901,0.10224938056492
-0.113128330343577,0.107373664970793
-0.108388974800728,0.112516112849732
-0.103650291600508,0.117676742241825
-0.0989124484400687,0.122855571187161
-0.0941756130165619,0.128052617725828
-0.0894399530271397,0.133267899897916
-0.0847056361689547,0.138501435743512
-0.0799728301391588,0.143753243302705
-0.0752417026349046,0.149023340615584
-0.0705124213533437,0.154311745722237
-0.0657851539916289,0.159618476662753
-0.061060068246912,0.16494355147722
-0.0563373318163455,0.170286988205727
-0.0516171123970813,0.175648804888362
-0.0468995776862719,0.181029019565213
-0.0421848953810691,0.186427650276371
-0.0374732331786256,0.191844715061922
-0.0327647587760931,0.197280231961956
-0.0280596398706242,0.20273421901656
-0.0233580441593708,0.208206694265824
