0.6871156303953,0.87108362209163
-0.835779411287043,0.860413866437445
0.186038485353283,-0.128902016312753
0.100184196934948,-0.386120710942469
0.0143299085166115,-0.643339405572184
0.0692322535792151,-0.87539067862871
0.0757325769526975,0.340760342759466
0.0822329003261799,1.55691136414764
-0.261891310323479,0.124458703685041
0.719219519602218,0.231958590417276
