-0.107156572248741,-0.532614634625794
0.536079335792732,0.181803279266436
-0.662749560721035,-0.631486185403778
0.262000137910519,-0.148364972983365
1.18674983654207,0.334756239437047
-0.851049516730692,0.777495497628982
-0.158121654404773,0.289535854036155
0.534806207921146,-0.198423789556673
0.576606932592542,0.498253140382632
-0.809402859668688,0.260167859787806
