-0.840788485868885,-0.849375375683941
-0.822226203489891,-0.838810299406425
-0.803929383511933,-0.828692435570726
-0.785891461870857,-0.819013137337749
-0.768105874502506,-0.8097637578684
-0.750566057342725,-0.800935650323583
-0.733265446327358,-0.792520167864202
-0.716197477392251,-0.784508663651162
-0.699355586473246,-0.776892490845369
-0.68273320950619,-0.769663002607727
-0.666323782426926,-0.762811552099141
-0.650120741171299,-0.756329492480516
-0.634117521675153,-0.750208176912756
-0.618307559874334,-0.744438958556766
-0.602684291704685,-0.739013190573452
-0.58724115310205,-0.733922226123718
-0.571971580002275,-0.729157418368468
-0.603204911829672,-0.725533376162791
-0.541926874054682,-0.720571685585042
-0.527138613078552,-0.716733466878676
-0.51249766134866,-0.713186817510413
-0.485791495496226,-0.669280698500205
-0.516520503821989,-0.663578689667491
-0.422541783561139,-0.722641982931152
-0.450463510153922,-0.665561074915088
-0.282801570504157,-0.633916928370121
-0.512846039478068,-0.793539088587771
-0.413584276744996,-0.695797878915492
-0.3418085709751,-0.800955211997181
-0.480303926947872,-0.821959020905916
-0.38963979856964,-0.740767652534105
-0.244702697349818,-0.785717662273854
-0.34590704244386,-0.690221984032726
-0.42982397283174,-0.822041272769904
-0.319476828986555,-0.713618924574352
-0.410102340999981,-0.555286521832049
-0.184085492271287,-0.777330333711681
-0.355062832053575,-0.632523340442616
-0.366533951517108,-0.575628683111903
-0.345086123458416,-0.78485243246756
-0.335070657604534,-0.571105865229729
-0.227441153282346,-0.690746145841342
-0.296033921839831,-0.811540217698112
-0.261496609181066,-0.853072801490303
-0.160810895542971,-0.687142648154564
-0.0817444884144932,-0.809981100368681
-0.295204373343889,-0.600924511186232
-0.249597823101915,-0.765314933376082
-0.0311430262278659,-0.812075004392922
-0.254974961606635,-0.810888979107864
-0.135951212983246,-0.735699576413864
-0.0915020046083504,-0.689547502074289
0.0321267054405553,-0.798167162227239
-0.184779074868078,-0.599740662733407
-0.190248806718963,-0.800056791369239
-0.151687709232834,-0.576582017016898
-0.0222737009109741,-0.703655439875038
-0.0143518651303249,-0.707910573080866
0.048627778363206,-0.732704242181686
0.0135711679497096,-0.710116271114564
0.0716182840929686,-0.729891118011634
0.0528100916261189,-0.725542472837589
0.076902795033232,-0.726523609335908
0.0700012171487344,-0.756454867802354
0.0927396220576257,-0.711200366545993
0.100316396922379,-0.715153364947725
0.123970428269263,-0.749820351175319
0.0896390900243472,-0.73772598118831
0.14568800555898,-0.716355143178381
0.161151782813738,-0.716503013485606
0.176796454030035,-0.716510111176176
0.192628583272024,-0.716367789410994
0.208654734603863,-0.716067401350967
0.224881472089706,-0.715600300156999
0.241315359793709,-0.714957838989994
0.257962961780027,-0.714131371010858
0.274830842112817,-0.713112249380496
0.291925564856233,-0.711891827259811
0.309253694074431,-0.710461457809709
0.326821793831567,-0.708812494191095
0.344636428191796,-0.706936289564874
0.362704161219274,-0.70482419709195
0.381031556978155,-0.702467569933228
0.399625179532596,-0.699857761249613
0.418491592946753,-0.69698612420201
0.437637361284779,-0.693844011951324
0.457069048610832,-0.690422777658459
0.476793218989067,-0.68671377448432
0.496816436483639,-0.682708355589813
0.517145265158703,-0.678397874135841
0.537786269078415,-0.673773683283309
0.558746012306932,-0.668827136193124
0.580031058908407,-0.663549586026188
0.601647972946997,-0.657932385943408
0.623603318486857,-0.651966889105687
0.645903659592143,-0.645644448673932
0.66855556032701,-0.638956417809045
0.691565584755613,-0.631894149671934
0.714940296942109,-0.624448997423501
0.738686260950653,-0.616612314224652
0.756743316660123,-0.610472658025161
0.780259793627153,-0.60184841518056
0.802388087827003,-0.592663279259665
0.823153452203759,-0.582934950523683
0.842581139701507,-0.572681129233825
0.860696403264332,-0.561919515651297
0.877524495836321,-0.550667810037309
0.89309067036156,-0.53894371265307
0.907420179784135,-0.526764923759787
0.920538277048131,-0.514149143618669
0.932470215097635,-0.501114072490926
0.943241246876732,-0.487677410637764
0.952876625329509,-0.473856858320394
0.961401603400051,-0.459670115800023
0.968841434032444,-0.44513488333786
0.975221370170775,-0.430268861195113
0.980566664759129,-0.415089749632992
0.984902570741592,-0.399615248912704
0.98825434106225,-0.383863059295458
0.990647228665189,-0.367850881042463
0.992106486494496,-0.351596414414927
0.992657367494255,-0.335117359674059
0.992325124608553,-0.318431417081067
0.991135010781476,-0.30155628689716
0.98911227895711,-0.284509669383546
0.986282182079541,-0.267309264801434
0.982669973092855,-0.249972773412032
0.978300904941137,-0.232517895476549
0.973200230568474,-0.214962331256194
0.967393202918951,-0.197323781012175
0.960905074936655,-0.1796199450057
0.953761099565672,-0.161868523497978
0.945986529750086,-0.144087216750218
0.937606618433986,-0.126293725023628
0.928646618561455,-0.108505748579417
0.919131783076581,-0.0907409876787928
0.909087364923449,-0.0730171425829644
0.898538617046145,-0.0553519135531403
0.887510792388756,-0.037763000850529
0.876029143895366,-0.020268104736339
0.864118924510063,-0.00288492547177885
0.851805387176932,0.0143688366819429
0.839113784840058,0.0314754814636176
0.826069370443528,0.0484173086120368
0.812697396931429,0.0651766178659921
0.799023117247845,0.0817357089642749
0.785071784336862,0.0980768816456765
0.770868651142568,0.114182435648989
0.756438970609047,0.130034670713002
0.741807995680385,0.14561588657651
0.727000979300669,0.160908382978302
0.712043174413985,0.17589445965717
0.696959833964418,0.190556416351906
0.681776210896054,0.204876552801301
0.66651755815298,0.218837168744147
0.651209128679281,0.232420563919235
0.635876175419043,0.245609038065356
0.620543951316353,0.258384890921303
0.605237709315295,0.270730422225866
0.589982702359957,0.282627931717837
0.574804183394424,0.294059719136007
0.559727405362781,0.305008084219168
0.544777621209116,0.315455326706112
0.529980083877513,0.32538374633563
0.51536004631206,0.334775642846513
0.500942761456841,0.343613315977552
0.486753482255943,0.35187906546754
0.472817461653451,0.359555191055268
0.459159952593452,0.366623992479526
0.445806208020032,0.373067769479107
0.432781480877276,0.378868821792803
0.420111024109271,0.384009449159404
0.407820090660102,0.388471951317702
0.395933933473856,0.392238628006488
0.384477805494617,0.395291778964555
0.373476959666474,0.397613703930693
0.36295664893351,0.399186702643693
0.352942126239812,0.399993074842349
0.343458644529467,0.400015120265449
0.33453145674656,0.399235138651788
0.326185815835177,0.397635429740155
0.318446974739403,0.395198293269342
0.311340186403326,0.391906028978141
0.30489070377103,0.387740936605343
0.299123779786603,0.382685315889739
0.294064667394129,0.376721466570122
0.289738619537695,0.369831688385282
0.286170889161386,0.361998281074011
0.28338672920929,0.353203544375101
0.28141139262549,0.343429778027343
0.280270132354075,0.332659281769528
0.279988201339128,0.320874355340448
0.280590852524738,0.308057298478894
0.282103338854988,0.294190410923658
0.284550913273966,0.279255992413531
0.287958828725757,0.263236342687305
0.292352338154447,0.246113761483771
0.297756694504123,0.227870548541721
0.30419715071887,0.208489003599946
0.311698959742773,0.187951426397238
0.318037020515887,0.171778949510586
0.326802847162901,0.150209740430649
0.335372270197532,0.129506748550051
0.343742083606067,0.109656613876662
0.35190908137479,0.0906459764183534
0.359870057489988,0.0724614761829943
0.367621805937947,0.0550897531784555
0.375161120704953,0.0385174474126073
0.382484795777292,0.0227311988933203
0.38958962514125,0.00771764762846466
0.396472402783113,-0.00653656637408922
0.403129922689166,-0.0200448031064709
0.409558978845697,-0.03282042256081
0.41575636523899,-0.0448767847292362
0.421718875855332,-0.0562272496038791
0.427443304681008,-0.0668851771768684
0.432926445702305,-0.0768639274403336
0.438165092905509,-0.0861768603864044
0.443156040276905,-0.0948373360072105
0.44789608180278,-0.102858714294881
0.452382011469419,-0.110254355241547
0.456610623263109,-0.117037618839336
0.460578711170135,-0.123221865080379
0.464283069176783,-0.128820453956806
0.46772049126934,-0.133846745460746
0.470887771434091,-0.138314099584328
0.473781703657323,-0.142235876319682
0.47639908192532,-0.145625435658939
0.47873670022437,-0.148496137594227
0.480791352540758,-0.150861342117676
0.482559832860771,-0.152734409221415
0.484038935170693,-0.154128698897576
0.485225453456811,-0.155057571138286
0.486116181705412,-0.155534385935676
0.48670791390278,-0.155572503281875
0.486997444035203,-0.155185283169013
0.486981566088965,-0.154386085589219
0.486657074050353,-0.153188270534624
0.486020761905653,-0.151605197997357
0.485069423641151,-0.149650227969547
0.483799853243133,-0.147336720443324
0.482208844697885,-0.144678035410817
0.480293191991692,-0.141687532864157
0.478049689110841,-0.138378572795473
0.475475130041617,-0.134764515196895
0.472566308770308,-0.130858720060551
0.469320019283197,-0.126674547378573
0.465733055566573,-0.122225357143089
0.46180221160672,-0.117524509346229
0.457524281389924,-0.112585363980123
0.452896058902472,-0.1074212810369
0.447914338130649,-0.10204562050869
0.442575913060742,-0.0964717423876226
0.436877577679035,-0.0907130066658275
0.430816125971817,-0.0847827733354342
0.424388351925371,-0.0786944023885725
0.417591049525985,-0.0724612538173718
0.410421012759944,-0.0660966876139618
0.402875035613534,-0.0596140637704723
0.394949912073042,-0.0530267422790327
0.386642436124752,-0.0463480831317727
0.377949401754951,-0.039591446320822
0.368867602949926,-0.0327701918383101
0.359393833695961,-0.0258976796763668
0.349524887979344,-0.0189872698271216
0.339257559786359,-0.0120523222827042
0.328588643103293,-0.00510619703524415
0.317514931916433,0.00183774592312886
0.306033220212062,0.00876614660028523
0.294140301976469,0.0156656450040953
0.281832971195939,0.0225228811424295
0.269108021856757,0.0293244950231582
0.25596224794521,0.0360571266541516
0.242392443447583,0.0427074160432803
0.228395402350164,0.0492620031984146
0.213967918639236,0.0557075281274248
0.199106786301088,0.0620306308381814
0.183808799322003,0.0682179513385546
0.16807075168827,0.074256129636415
0.151889437386172,0.0801318057396327
0.135261650401998,0.0858316196560782
0.118184184722031,0.091342211393622
0.100653834332559,0.0966502209601343
0.082667393219867,0.101742288363485
0.0642216553702415,0.106605053611546
0.0453134147699681,0.111225156712186
0.0259394654053329,0.115589237673276
0.00609660126262193,0.119683936502687
-0.0142183836718789,0.123495893208288
-0.0350086954118837,0.127011747797951
-0.0562775399711064,0.130218140279545
-0.0780281233632611,0.133101710660941
-0.100263651602062,0.135649098950009
-0.122987330701223,0.13784694515462
-0.146202366674457,0.139681889282644
-0.16991196553548,0.141140571341951
-0.194119333298005,0.142209631340412
-0.218827675975747,0.142875709285897
-0.244040199582418,0.143125445186277
-0.269760110131734,0.142945479049422
